3.89384
67.5937
21.8879
16.7366
8.79561
13.0649
1.79588
0.995614
30.658
1.98838
30.8608
9.07114
38.3473
18.7005
14.0259
24.1145
5.75663
6.53778
43.9903
10.2413
23.1076
2.90889
23.6357
81.1562
53.9808
14.9049
10.3785
1.80115
0.757512
2.40095
2.08104
3.50346
45.012
4.25104
7.42528
84.2047
41.3562
45.09
68.619
24.8185
9.83254
3.48176
17.6366
6.73091
8.35899
1.17518
129.425
7.11556
11.356
4.25039
2.06854
51.1437
9.33965
5.026
3.29998
2.60575
3.98789
33.9438
5.02392
78.7188
14.2597
16.0757
13.1372
17.6424
97.6892
14.8892
32.0469
1.94626
12.1646
4.16986
12.8591
2.38769
3.49984
14.5072
2.02612
3.8296
3.25518
12.2438
9.37121
6.30389
10.4397
15.9401
12.5555
9.42659
21.0841
36.0377
5.1479
9.74025
9.01769
4.73634
8.85118
12.6618
11.6654
17.1939
14.975
1.40593
5.85109
11.6468
18.3492
2.9564
11.5378
49.007
24.3482
11.6088
18.6621
2.69459
12.873
3.75306
7.66251
7.39495
10.2215
7.03435
6.73958
5.42887
42.158
7.14108
4.70785
6.32016
2.04202
19.2466
58.2547
2.30653
53.6792
50.0841
1.90488
1.60014
3.19897
6.75172
1.58356
31.526
2.9664
0.994877
10.4318
9.49878
6.03219
10.4389
16.1326
12.5397
51.6648
14.2032
52.6655
10.4524
26.4472
58.5184
1.7779
106.541
12.1361
10.7594
4.34312
2.44148
5.57173
2.73443
1.46175
14.0898
6.55286
21.1036
16.1245
24.8191
109.354
4.17076
0.373199
0.560254
35.5183
5.80437
10.6975
194.039
6.01947
15.6161
53.3396
35.3262
2.4829
85.8286
106.827
0.495665
16.0762
5.69345
26.1434
67.7309
9.21076
8.32436
38.7971
4.2486
3.12825
8.18769
67.6996
47.9021
7.68625
7.68985
13.0676
11.7091
20.3829
2.01622
9.95221
4.16528
5.153
107.149
3.86273
15.2542
0.386172
15.1438
29.7866
11.1498
9.8737
1.01049
0.900198
10.4775
37.3892
28.4619
2.02037
29.7403
11.9178
9.14681
3.70379
2.54993
5.48948
48.1621
2.26694
2.63563
7.13098
1.60764
0.537364
18.0151
149.61
35.8949
42.1323
9.53438
51.2841
4.315
14.416
17.1919
5.60932
14.8143
8.90633
5.01491
1.2989
8.54131
9.67746
4.60936
3.64505
19.1695
1.43952
7.19793
28.1181
2.55119
8.13279
13.5006
11.8672
6.94937
106.578
6.02856
2.12194
16.7326
4.93537
4.79432
1.66375
6.55002
16.3859
2.66503
5.77473
4.74511
117.338
8.10563
2.21928
7.88239
7.31108
3.24086
41.0508
16.7662
11.9236
1.77113
1.7288
4.08212
17.6648
2.7859
60.5135
15.7052
16.7584
8.93511
2.17454
15.3233
2.83281
6.33012
8.32024
46.5733
54.2857
2.27858
64.4872
2.38419
6.17044
21.415
20.5779
4.08724
32.3746
15.7876
9.52012
54.0232
4.10493
15.9951
7.62815
8.2145
2.90847
1.38993
13.4923
10.6139
0.800365
4.79888
17.9105
15.1656
7.85871
1.63366
2.97574
14.9892
58.7934
11.1558
0.728001
3.48936
24.7242
5.1671
19.7315
17.7528
42.6204
4.41592
3.21805
12.2951
107.212
31.1441
38.4606
30.7602
5.58502
11.8587
33.2993
0.487738
0.786358
4.14834
21.5636
3.91147
1.84546
11.4818
0.963102
3.88117
22.5943
7.70799
33.0566
6.00445
10.3808
29.8939
12.7975
1.09905
1.9775
2.03857
5.1352
11.8283
15.7956
4.89553
67.8345
0.591262
13.7642
172.927
5.0201
15.4024
14.2648
8.62203
23.6984
19.4116
5.1323
7.481
1.97259
1.58036
12.6329
10.0818
18.7131
25.0506
10.2068
5.83789
10.1757
5.9981
11.206
16.9368
41.8366
6.91555
5.2555
20.8323
1.61304
50.7045
12.4996
4.6093
5.12171
2.79757
63.9071
14.6575
28.996
10.8594
8.3019
8.79573
11.1754
9.99491
3.26229
7.8189
4.18122
18.1103
4.97693
43.2034
7.62629
127.2
89.8688
18.8666
4.0768
38.1012
15.448
3.86887
17.8729
2.71824
18.0812
7.37347
5.14261
21.6297
94.9412
4.0561
1.03442
35.4695
3.89959
5.26059
6.01808
19.0299
25.2525
3.99274
109.721
23.0361
24.6958
6.20354
12.9583
17.5929
76.9468
84.767
7.14444
10.6763
7.7957
1.27102
26.5317
8.77219
8.6125
3.67461
23.4725
64.9723
4.41053
1.83129
4.64559
11.3963
3.03205
2.72461
2.83131
27.1603
76.8642
84.1545
2.93612
6.28675
28.5183
5.20409
2.63544
20.1113
47.6047
3.43618
10.1431
3.18047
106.472
85.4865
5.13548
6.08501
24.7384
22.4294
10.0594
49.2855
29.9195
7.01387
11.3983
19.7854
8.73856
9.282
109.966
33.3267
1.84538
2.57057
21.3412
10.2846
14.7942
3.07089
53.1656
6.9837
23.4836
3.31013
7.11606
13.4225
16.866
30.2674
2.13526
28.2559
9.39937
29.8516
7.65531
2.49679
0.938167
30.9722
22.9174
20.2366
1.78363
2.51858
46.0211
33.6879
19.5586
14.9748
48.6872
18.6216
8.7264
3.09694
22.9807
1.21218
2.41833
16.7261
22.1256
41.71
10.0516
3.72103
2.59776
1.29994
86.6904
2.93122
10.6294
69.4875
1.13756
79.4809
1.91125
8.19764
10.5397
26.8017
14.5939
0.566167
40.7331
11.7061
20.2462
12.0568
1.14489
2.98726
115.983
30.2136
7.46255
10.3716
3.85294
1.86787
86.328
15.4874
22.9442
13.2855
50.4861
5.36646
11.4117
7.45474
40.492
2.86505
6.20388
12.78
0.951478
7.9039
6.20141
3.85436
59.1365
6.06698
3.2965
6.39067
12.4301
89.1528
3.81474
5.93042
12.511
8.43595
1.17312
118.889
6.10228
8.83098
21.4345
5.35536
3.45626
6.35688
1.40205
1.2036
12.4498
2.59205
3.31889
16.0291
79.7908
2.73032
9.96269
6.16322
7.31308
3.05527
14.1444
90.291
3.79666
33.2981
7.19634
19.4504
29.2726
13.6282
9.48083
4.84711
8.93166
2.18248
2.68003
39.7554
2.6467
1.92538
9.07045
12.1504
31.7213
5.78506
6.03712
37.2204
79.7903
14.0321
44.7488
14.8933
1.01369
7.69558
2.62754
2.51521
61.1044
4.95022
136.569
9.64608
4.53815
37.3641
5.52751
116.749
12.3304
38.8098
5.05068
20.2571
20.4048
2.71576
0.923172
27.7415
23.5754
1.68611
21.4187
3.96408
28.8219
59.8482
12.0022
10.8172
0.768398
26.1877
10.8975
26.388
3.44096
6.6226
2.02601
8.37312
20.2032
23.3368
43.7979
1.28596
112.444
32.8831
20.9316
30.9611
3.92007
17.827
5.46421
0.395921
6.14667
8.34048
14.0679
18.7024
8.37151
3.30249
4.23415
1.71028
43.3037
30.8521
4.05711
9.9123
7.09403
46.7971
3.08475
9.92899
5.88464
40.0656
85.7693
14.555
36.1723
23.6836
0.808985
9.54658
17.0454
4.99606
36.2055
5.1849
7.16305
14.7008
1.42409
1.39498
4.4432
40.0037
11.8474
25.6397
4.24706
11.1473
7.5676
26.9083
17.0259
3.53449
2.98307
1.9886
64.7271
33.3006
28.3241
31.303
3.89365
4.70692
7.53873
37.7853
11.2042
5.53898
28.8884
0.863055
48.8997
111.374
12.2762
9.00152
4.56199
10.2667
2.87165
2.89163
5.57058
14.0835
5.95321
1.95351
2.3127
16.8209
2.90148
23.0432
17.0168
4.5943
13.8475
9.15184
20.2275
5.83871
2.67481
24.0418
24.9282
5.09523
88.2993
4.16062
9.71684
2.60243
2.62301
18.1285
9.24746
36.8143
2.27404
16.762
17.1364
13.8338
1.61668
26.5328
7.91833
3.78678
11.1423
138.633
27.0832
4.54025
46.0563
4.39237
4.40914
3.24052
2.28586
5.28623
43.0915
7.68364
1.79245
175.954
2.52817
14.1244
4.78787
1.05749
48.8339
27.0403
5.99908
3.65947
0.869963
115.279
14.8975
54.2609
9.29321
61.4098
7.33236
2.82176
7.06323
2.78819
2.99657
3.63225
26.2978
48.0162
12.4246
7.02727
4.0859
4.13284
8.48584
16.7742
0.612707
2.7577
5.70209
1.21902
2.91459
13.8042
16.1775
0.755071
4.98021
5.91038
0.915321
3.5353
31.2035
4.93493
34.7076
9.15996
7.52882
108.703
9.71573
5.27658
33.6852
5.02787
0.997145
0.680779
3.94218
34.8425
2.42559
16.1904
12.0557
44.4845
54.5547
173.666
95.0126
3.03164
90.7097
10.302
3.63136
1.16733
5.27789
4.54132
40.6458
17.2448
2.24483
16.404
9.76205
17.8645
92.5613
7.50711
6.65016
17.3853
3.13814
8.72581
7.36782
1.58037
6.92923
0.994671
2.90686
0.421516
61.2757
27.77
126.964
8.84207
143.357
19.9137
7.10926
0.329246
1.75645
4.30078
198.359
9.26889
37.376
14.8437
6.38345
5.09039
14.2215
24.5546
6.17311
16.8966
131.219
219.348
2.04421
103.891
1.78787
6.6396
225.576
34.0349
46.2613
38.1937
66.8883
6.11596
10.5082
14.6716
0.969358
27.7564
3.52707
10.5582
3.48338
79.5534
6.41918
5.8368
8.90435
79.6586
7.52053
7.76057
2.62581
4.64267
16.7149
2.56332
345.332
14.2825
72.6603
6.33388
10.3151
6.26759
22.7078
12.2115
38.4153
44.6178
20.0906
7.91066
11.821
8.14512
7.24784
3.5739
16.9852
1.349
124.49
118.957
30.6282
17.2085
15.9632
4.19154
12.6832
23.2814
14.0783
5.0824
34.2743
4.53723
10.0501
8.26798
1.35029
14.4073
5.93334
9.04358
1.33793
1.96547
4.619
49.9118
86.9226
8.87764
64.1098
27.6812
2.16211
3.90036
8.22723
3.78983
140.748
1.6031
2.20794
8.3147
5.76677
3.31495
3.88132
79.8216
6.34315
5.24033
25.6519
0.837004
65.5438
13.3751
14.1295
38.5991
13.102
3.35867
5.21729
68.0726
45.3641
100.327
16.0931
13.4236
2.45413
3.14149
5.9283
6.8809
7.93283
4.96532
4.32395
5.03581
15.3979
31.7487
11.466
11.591
80.4229
15.1211
18.3209
2.6495
1.32817
17.4487
200.581
2.2147
44.1323
3.61736
23.5088
1.17346
18.4162
97.5594
21.423
6.77989
11.5872
20.6561
99.9826
2.65443
0.508307
5.81827
106.095
4.43123
17.0332
113.884
1.46409
8.69058
20.2689
11.0545
0.391613
4.75985
8.91799
23.6643
52.5558
8.18915
4.20581
9.36894
9.75327
37.4823
13.2202
7.10126
0.445487
5.45971
29.0521
18.998
8.04405
2.69689
16.7073
3.10177
3.78624
1.93765
14.741
31.5197
4.13498
8.55466
1.80516
100.249
6.93444
34.4188
19.1739
6.12698
26.91
2.80879
11.4426
23.3976
1.67069
11.5956
1.64953
35.8988
3.41166
140.522
0.45257
1.227
6.70176
3.449
46.2719
9.68135
7.27058
12.0678
5.62495
6.28014
5.13599
3.67763
3.66509
5.50621
5.46893
1.76608
6.48153
9.85455
2.80745
3.00761
2.88784
10.2582
0.451758
41.2044
4.09754
12.3108
2.0437
26.5693
48.4328
3.30252
9.08201
20.423
8.35529
98.1769
6.51261
68.771
20.7961
6.84073
41.4309
2.49453
3.83764
17.6617
5.56335
9.72286
35.0744
7.77195
6.59056
57.3619
7.27517
15.2395
2.06169
20.7016
21.1635
2.66844
1.22635
20.4964
2.71114
1.3685
29.7971
11.4008
7.7417
8.08339
3.08914
4.39951
49.2871
9.23938
4.4561
7.1841
2.0524
73.9945
2.93487
4.70457
227.607
36.0063
37.1555
6.19759
173.287
27.8285
20.0821
66.0662
0.820325
58.5759
1.98968
17.277
16.9258
3.62627
12.5433
4.26207
6.28956
2.1337
147.068
19.5992
3.7857
108.844
23.1974
45.2898
6.80711
9.25464
18.0093
3.53233
2.74947
1.01472
23.146
1.15992
32.66
35.8647
39.8048
32.9096
52.3247
3.85101
30.706
6.08516
7.0989
11.9028
42.9647
28.2961
14.5797
46.2027
9.28958
2.76731
27.4978
2.56639
83.3665
17.3065
7.34542
186.622
5.3856
7.77753
10.4976
1.54482
8.66867
3.00082
82.0388
18.7682
2.10917
88.4948
14.5948
29.7366
5.28519
2.03867
5.08179
17.6357
0.964028
21.5195
11.7978
1.43292
13.3381
3.41216
17.3436
6.37532
10.3531
79.737
95.7987
1.70768
61.41
107.099
32.921
3.46178
10.0237
2.9561
1.078
10.3463
3.42094
1.69059
47.7704
6.97875
1.20981
14.9693
7.61059
2.77599
2.49528
16.2182
0.353053
83.3948
2.96892
0.504759
5.7338
1.09682
28.9286
5.70743
21.9288
4.35468
5.81114
21.3969
8.44412
5.18896
7.46588
32.9207
90.3037
17.1808
4.86889
10.9422
6.63883
80.8877
9.01944
3.95504
6.53848
33.5905
10.378
25.4046
1.92324
125.999
14.8465
11.308
30.0895
3.7823
2.67295
2.23661
8.37562
19.9623
3.72618
4.93387
0.582626
4.88716
22.9469
11.4691
35.6523
10.665
21.452
5.36503
3.75857
112.78
29.7671
45.9694
2.09921
7.22935
13.626
9.61802
63.1551
8.48647
3.77643
12.9691
0.581798
0.458284
2.88244
5.3176
12.2047
1.19901
1.39381
1.73994
10.8695
4.74899
5.63876
23.4831
1.38121
5.56166
2.00084
1.89044
62.7547
7.15297
1.66374
43.649
87.7195
0.480961
34.9824
34.4051
4.92826
26.1213
2.81045
3.05474
3.86602
3.90026
2.50091
27.8426
5.53108
2.19171
16.384
5.3434
35.5713
14.3492
17.0745
11.0662
19.2321
2.36828
23.8197
12.5408
44.9882
18.855
3.66273
7.7683
70.3929
57.1129
4.05629
76.5652
5.11643
68.062
20.5624
10.1353
5.54488
43.7723
2.83127
9.92344
10.7932
1.83979
11.0852
8.47999
108.723
5.63562
13.329
0.4503
54.5469
7.14289
3.67581
31.8125
2.12888
3.18614
11.8633
8.33951
38.3567
0.689236
24.8366
7.5847
6.28899
171.581
44.25
69.4921
1.78607
6.86655
11.229
2.6067
128.28
36.6906
11.0547
9.28861
6.02801
7.45996
11.3128
1.46884
56.7521
35.2943
11.9448
120.759
2.27676
3.69156
23.6702
4.50096
9.76436
7.38497
20.4729
7.37747
5.81797
5.67602
97.2799
6.02096
34.7124
6.51861
3.82034
3.98938
20.8686
12.9667
7.17419
12.179
23.6235
23.9502
4.41841
5.52681
62.4114
10.0411
3.81282
15.9432
2.76234
17.285
3.18121
11.5291
11.0184
9.64461
5.43028
29.9969
7.28199
20.7497
1.42531
9.14985
11.1175
6.52513
9.00716
87.824
0.414836
18.066
40.7512
14.952
18.4655
0.436044
29.9748
59.4316
12.2247
28.4103
1.38698
40.7699
2.69788
81.2828
27.852
14.1866
38.3553
33.8203
3.0655
11.3543
106.104
32.061
2.08999
7.74169
5.58033
3.3241
17.8208
50.0942
12.9204
0.525843
5.76315
17.4594
2.63251
8.67572
39.0509
10.8974
22.4758
2.0522
34.8068
3.46125
98.2297
3.7633
12.1974
0.709543
15.4301
20.0313
0.389216
47.1712
7.83117
3.87429
11.3786
3.78376
4.77597
18.8241
27.8402
3.15545
1.7062
95.5851
2.02454
4.50446
19.4964
0.991744
32.7982
1.74864
8.13022
3.89272
1.14366
10.4414
44.9145
13.7261
3.27437
15.1868
61.8669
5.33217
10.4167
3.76291
12.6546
86.6576
133.787
2.7099
11.1429
6.4147
34.1948
51.9237
16.8804
22.2571
3.76233
1.62719
4.10151
40.3553
15.0109
1.79314
8.00722
32.3695
7.75396
47.3722
25.7278
5.8279
13.6303
3.72956
5.25344
16.7195
8.1858
0.472447
51.9273
88.1433
10.3796
1.13693
9.77348
73.5639
6.61976
22.1123
2.32322
101.989
5.69319
2.35465
5.84871
1.20568
4.32902
11.4185
24.3404
62.6
10.7228
7.59972
0.89491
4.10907
55.1925
85.466
6.86327
25.5731
20.7241
13.1747
55.3349
7.39444
14.6607
1.54887
5.28936
3.77131
8.42685
37.1871
16.7189
53.9978
50.4217
27.4831
153.938
172.242
57.3974
64.3475
1.48595
11.1792
5.64973
36.3084
49.9476
6.56503
2.76573
4.51412
71.733
7.52208
11.9478
3.3831
5.86592
64.0816
7.28042
6.98894
0.606155
2.47603
7.58363
9.65478
72.4542
10.3392
3.81919
22.1183
3.41784
79.3037
8.26844
3.42503
20.3007
10.8853
6.99993
25.6445
8.51495
23.1447
13.2782
5.41621
163.188
0.601408
1.97459
24.9881
2.47567
41.1078
17.7683
2.04922
15.3843
4.13785
42.9879
6.48201
2.29076
11.0471
4.95485
0.846532
26.5979
19.678
2.37817
5.02134
23.0645
25.9896
8.66087
6.56982
47.758
15.0273
30.6083
40.5712
5.41863
1.2
5.00523
2.90406
13.2731
3.11366
6.76069
91.8943
13.5891
7.04056
11.7594
3.55324
5.90475
39.5767
1.67911
14.3392
1.22624
29.1719
4.31981
5.13194
7.35884
6.93225
3.28691
4.93427
3.76519
8.19154
10.6385
0.447897
37.0929
0.712702
8.03179
13.6252
5.53903
7.25093
5.83726
7.65582
34.5594
14.5531
32.602
7.4619
88.4292
6.91562
34.9829
7.78331
35.598
15.1913
347.605
88.8938
1.30105
9.50772
11.0709
1.24804
12.5171
3.5261
4.98429
26.8293
52.7518
60.9692
1.01994
3.38629
1.15575
22.6856
2.10091
0.825578
20.6896
3.94738
1.35288
48.2593
4.52404
1.11345
42.5995
105.715
20.9355
16.8126
9.53086
4.97536
34.2055
3.79895
6.42771
6.34895
31.2128
5.34312
43.4225
14.4622
44.8995
19.6408
0.837995
23.2066
8.80471
41.2034
33.6358
6.52095
8.69631
130.91
10.3631
0.953315
36.9555
41.0405
8.51467
4.15741
10.4406
6.19207
23.2003
37.98
60.8436
7.31425
19.1825
7.59291
48.9685
8.19882
16.0329
3.44543
23.5407
2.92355
0.672063
4.21895
27.4072
31.4826
12.5184
13.097
79.9259
4.50235
4.13171
18.8999
21.4472
9.72281
26.4279
5.57612
20.9525
30.7101
9.33367
21.3057
3.17925
6.2797
4.35765
2.29653
2.34052
40.2733
4.24991
6.42304
5.87903
164.438
2.56648
5.65736
5.27518
4.48454
7.17582
2.49256
10.4028
3.17475
5.06604
6.92543
16.0776
30.7251
3.26363
2.45698
3.48002
6.43103
66.9343
3.09085
1.60453
98.7396
11.7369
1.77435
8.81454
8.60359
36.8406
25.9996
12.6246
33.9128
21.6551
16.8033
2.37322
6.16647
56.0719
25.7197
43.8988
7.76103
24.3055
64.9133
20.2393
2.83952
0.317063
0.60052
4.57537
6.47136
32.0875
3.56924
16.2742
5.88821
8.55156
26.2495
14.7566
1.98607
0.286176
2.51355
21.1855
1.27018
4.92392
1.34676
54.8191
42.8233
32.4378
0.469689
6.10159
0.622861
15.1412
28.3344
145.149
8.55965
47.6843
16.5684
4.84596
7.68926
12.3176
18.7514
12.168
17.832
0.493193
43.5649
43.4071
13.5112
9.01626
1.235
18.0698
4.08694
9.09487
3.97949
58.0217
5.94267
7.05631
22.5166
6.04892
17.6509
15.2549
0.911202
26.1249
5.4189
4.02738
18.2965
18.1661
17.8115
3.71385
21.1325
8.15081
25.4628
32.7449
6.59679
5.13804
30.211
23.4376
8.07316
27.4436
4.60017
8.25271
0.631092
15.5075
5.67981
12.5741
8.62565
17.2085
0.831678
3.87082
1.27417
33.7757
3.35066
4.97422
7.86127
3.75034
20.0417
12.3666
7.67345
6.66088
1.02861
35.0415
3.86512
2.58593
33.0556
36.2615
2.3036
9.875
11.452
9.45066
69.0791
3.37099
16.8028
9.08417
7.32422
51.6849
5.17414
9.57689
5.66551
14.3967
5.32172
3.19233
17.9235
4.5897
5.45942
44.5891
7.78149
18.0406
3.99872
4.20393
5.04463
26.3872
60.7717
1.69068
13.3194
18.3603
34.2579
4.4485
9.26404
2.96612
17.4313
13.5248
28.1502
3.88224
44.0882
19.1991
7.9486
0.631318
9.93139
5.51976
27.9123
2.38649
1.99004
2.53294
11.2559
57.5466
13.8197
0.698175
18.8752
4.69448
5.98023
11.1246
2.73939
67.4767
6.8339
47.7531
3.22448
7.74333
7.72966
88.4263
38.1643
8.31909
1.55642
5.37692
23.4004
11.6145
6.87639
6.65845
108.653
4.8563
28.8143
12.7172
2.06681
27.5658
22.0617
8.46955
13.001
19.693
0.361144
26.0955
11.5104
4.23321
6.16946
16.2463
23.9397
0.697373
18.2162
22.8077
6.39391
15.3947
163.668
5.9402
3.25771
12.712
15.4862
4.23502
84.0522
0.38013
4.24753
6.5834
38.6279
6.19479
0.813509
10.9718
5.614
36.1952
6.62996
5.30495
8.56124
65.5093
49.8069
16.7673
34.012
186.274
7.22538
10.3853
38.111
54.6889
6.60186
0.957685
17.0369
5.79976
5.34478
21.8228
15.8107
6.89117
10.607
16.9598
2.22967
13.4651
17.7625
13.2067
16.121
4.16348
6.96393
10.1365
5.58218
3.85147
3.07432
16.6659
10.3695
7.94329
2.47413
33.9927
83.6973
14.5344
4.99428
12.8362
29.9333
6.41126
11.3022
35.2012
2.65896
3.52202
77.474
25.2598
22.6441
6.81755
1.69906
9.34916
12.1819
5.61023
8.87789
1.43655
8.29208
0.835842
9.10012
9.56682
2.60071
6.95293
8.52424
16.5105
18.2399
1.18483
8.86369
6.93495
5.23645
16.6172
14.3352
25.9516
10.9124
74.7909
1.61343
11.8457
18.5515
17.655
9.25169
4.76477
6.1138
6.69715
13.4685
14.5714
3.44221
3.87507
41.2303
6.68207
67.5662
7.02247
2.96375
49.7634
2.60409
7.69752
9.7434
1.56762
15.4529
93.7532
6.09469
8.09578
24.9317
71.3809
6.78209
22.1822
7.56516
5.87165
4.19571
15.3761
3.85389
1.39315
84.3574
8.67287
4.59496
236.143
10.2362
6.67663
18.268
9.00745
6.49759
12.1181
4.57633
4.34976
11.669
6.32226
15.4634
6.42875
0.988825
134.336
148.559
35.4257
0.486728
1.63702
48.9741
23.263
10.9049
2.51659
0.812034
28.0178
9.7515
3.67634
4.26634
20.1725
0.510236
5.61663
32.9894
2.34174
19.3771
26.145
2.64616
0.317058
8.50101
5.62128
8.02895
1.35057
13.8202
2.9115
9.22144
49.5718
0.616845
0.941126
3.31779
55.8796
0.501976
29.369
24.5912
0.530901
20.6026
14.6785
66.4986
68.4879
41.3909
63.0061
21.9631
9.97474
50.7735
30.3081
9.97955
62.7862
5.00061
4.49259
29.8581
0.881475
20.6332
91.8087
4.82724
39.5584
2.43634
11.0397
13.7674
3.37874
2.68361
18.0482
17.588
14.7735
4.08294
30.3687
11.3039
12.2988
19.0394
21.6242
59.6879
20.2366
24.9978
4.44544
30.611
14.6072
4.62198
134.596
1.51446
15.136
17.932
54.2551
17.8645
14.6427
4.46487
26.1508
60.872
100.261
31.7592
16.5048
9.72836
11.0891
29.5853
0.797526
39.2293
6.55208
16.4181
41.5033
5.44351
41.1701
20.8914
0.838662
10.8715
5.86
18.3927
2.26507
18.6909
20.1314
3.66102
46.6479
3.46735
173.573
8.5335
217.055
8.39732
4.68222
0.383239
6.63731
69.6797
11.1808
4.79439
4.2346
2.19064
6.17197
9.25618
23.6099
8.65257
5.31446
20.5862
152.102
12.5458
3.16849
7.67584
11.1013
222.864
4.01897
20.7659
119.22
0.740713
31.1215
38.9734
21.6065
15.8131
9.43366
0.770084
4.54886
31.7234
0.507697
6.78077
7.13663
6.40086
5.0476
36.5426
4.7049
42.7196
9.72913
1.00877
3.7327
25.0396
7.24964
17.9383
9.1834
10.8325
10.7925
4.99216
6.64393
94.8067
10.5591
2.67622
60.9686
5.18981
5.99179
18.0039
81.5838
6.6919
11.0393
1.51077
5.81476
6.02261
11.7318
5.56053
11.3496
20.5201
1.75469
3.36854
151.193
4.62847
3.95218
2.69663
44.1747
3.7112
5.69791
4.24196
14.3435
13.3709
10.3494
4.786
5.88754
2.26869
9.72871
72.4481
7.64467
19.2349
16.3042
3.51747
3.80446
6.09543
2.34062
3.16696
24.3542
70.3631
9.34289
96.7233
21.4002
0.570676
6.38892
3.5249
8.68424
7.58691
20.1818
2.43088
50.1872
384.539
3.37255
2.45846
19.2057
21.4857
4.56706
111.786
18.3248
32.4515
2.96327
8.47654
6.94217
0.703519
2.91688
2.10391
3.15604
20.8473
4.13349
41.4832
31.1271
4.02807
8.3717
0.638469
2.1523
178.34
8.22854
6.66314
4.19671
127.93
9.03538
33.2986
24.3795
4.72241
7.96897
16.2347
25.6013
10.6242
1.53927
4.60865
10.9478
36.2922
167.279
17.5118
8.69581
17.5821
24.8165
11.1255
17.5147
3.911
7.514
0.986617
4.72212
2.9346
3.48871
6.60129
1.20481
4.04013
3.34557
4.61879
10.9032
42.8479
14.0168
6.46556
3.6422
1.62201
21.0417
29.0619
8.96724
9.90285
1.86206
4.86287
51.2414
2.81818
12.1635
12.1479
78.3249
1.65657
5.8204
13.0614
1.99541
7.75883
2.18037
38.9642
5.22372
3.22181
121.909
25.4587
5.93998
105.763
55.4258
6.34973
87.2374
7.72136
94.0929
17.2979
87.31
21.7393
12.3945
6.77757
11.4518
5.36361
5.7038
31.6172
4.25768
240.84
71.2358
2.9344
2.28929
16.5885
57.2376
0.920227
7.11205
1.86676
23.8423
7.79413
52.0309
10.1126
7.82142
23.7832
15.3252
9.55138
32.4661
178.395
5.51178
0.552383
2.37341
11.3296
14.0162
3.17814
98.7836
2.4502
3.67738
23.4511
1.59104
0.976896
8.29916
9.32582
2.5427
9.56148
7.31474
33.9181
8.97446
8.90184
7.33915
12.5611
9.72715
16.6598
25.8218
33.8896
7.57574
23.2209
6.98326
24.1139
73.3526
80.9077
40.6068
5.0548
28.6829
1.35484
5.18373
29.3344
2.28738
11.1136
21.5704
56.3156
18.8877
14.7545
15.9121
6.9681
6.53415
13.4562
30.5257
26.842
28.9583
10.5926
19.9722
11.2576
7.70911
40.3553
3.65735
27.9064
0.672524
39.8826
10.0291
48.4021
18.3499
53.9227
31.534
1.90978
5.13158
3.29316
3.61772
12.9867
7.50856
2.71259
7.85995
7.26941
3.00265
1.55945
16.7152
36.7627
4.44231
2.08687
3.63007
16.8538
58.2914
9.14724
3.73525
11.3887
11.1483
2.80199
8.44479
23.0256
13.364
11.3274
2.36935
9.72501
3.03074
31.7038
73.2681
7.22277
1.57082
4.82377
10.5288
0.511253
12.7923
11.4045
6.94642
8.47368
170.71
5.13858
25.7375
1.10265
40.4928
16.8008
70.2783
15.5693
22.2155
14.1504
55.5454
4.9948
5.0435
73.3966
12.4118
30.1622
59.9093
1.88544
38.1417
5.74801
146.162
8.39417
13.2978
8.64075
45.5542
7.88076
8.6806
2.90236
20.9399
9.46161
7.93091
90.8529
6.76781
66.5436
42.4432
12.1084
10.1205
7.30621
5.3737
3.94188
20.3252
60.6842
46.7239
82.9749
15.7811
24.5322
9.93903
227.512
58.8543
84.0799
1.52125
4.30539
10.0969
14.005
23.8828
19.1014
1.46269
4.16688
27.6663
17.575
18.8179
0.664897
6.20869
6.26288
22.2576
1.73235
15.2355
8.2171
119.29
0.896919
13.6606
43.0167
1.51186
80.7926
11.9061
32.6927
1.98155
1.73262
24.0112
2.61615
11.1924
3.5046
35.8768
6.93982
15.5744
46.0275
29.8071
5.46784
20.2802
13.3565
3.17421
1.46876
10.4045
19.7027
24.7304
4.59943
6.26086
7.00099
161.584
3.3127
3.51318
4.41652
82.0035
3.6812
3.68683
4.13907
4.00053
16.6968
4.16803
10.4446
33.5074
13.4417
52.2294
7.00903
32.0446
32.015
1.00676
12.8776
10.4895
0.477964
7.58176
3.73685
5.93281
5.57548
31.0487
80.5101
2.88823
29.8289
1.49977
16.9834
73.6964
11.2437
13.5038
2.3283
2.11582
1.29062
4.23169
63.6811
5.3105
10.7106
5.97331
26.0439
6.44182
113.369
3.64069
39.8796
23.8041
4.67409
0.799813
35.5132
2.73482
4.38342
1.39639
19.1888
15.8899
81.9679
2.6106
33.1681
12.1436
0.385541
2.4281
73.7232
3.9306
21.9859
1.36905
28.0179
1.80347
3.19425
1.26771
4.10811
8.22277
57.8092
7.92824
15.268
7.01326
0.483561
56.9373
3.6943
4.32803
5.10165
56.145
183.552
1.52169
55.2815
11.7518
2.4987
14.5138
8.13281
8.01899
4.82714
22.0241
3.24624
6.20383
126.78
12.3267
26.8146
6.87676
1.07671
0.53347
7.39773
16.6835
2.15182
12.6516
2.1602
21.623
4.96643
6.61202
4.84806
20.3853
12.5047
42.03
7.81958
109.772
70.5513
5.73439
16.6295
43.5018
16.8453
58.7782
41.0388
3.83746
279.63
4.93746
9.27346
15.387
11.2907
15.2857
17.8156
3.78543
54.8376
9.81476
6.31765
8.8347
16.7243
2.05195
4.91418
1.15751
33.1539
0.564119
0.823978
1.82431
14.0018
28.3439
2.30028
3.72296
25.822
33.2307
1.52549
5.55543
6.52236
6.167
58.7974
27.3276
1.08044
12.8405
7.05406
40.9821
1.35404
6.01829
4.09567
5.34755
5.95284
1.66694
14.0635
6.24296
3.60779
8.31577
6.03306
3.90722
4.9887
38.2386
11.1099
19.998
2.80258
3.35728
2.84926
7.79247
67.9268
2.10907
4.02864
28.5821
80.7164
18.1199
3.80194
28.537
9.43401
1.80972
5.54111
2.76618
2.52993
1.80849
14.3917
5.58861
18.3642
150.318
1.71139
46.5596
23.0997
27.4503
18.804
8.78357
59.1775
72.5233
1.41499
26.0039
4.44606
1.30724
8.11626
0.719119
4.01107
3.24996
7.23621
62.14
17.5612
6.4411
2.15101
31.1262
1.47222
1.38257
31.6498
137.372
3.37041
3.3042
15.6355
32.6279
12.2747
9.58609
24.6385
3.34457
20.3427
5.26042
5.71804
3.96448
5.20982
3.25846
10.6267
10.7103
6.2205
12.1235
14.3017
10.9266
26.0835
1.21838
35.6961
37.577
8.54338
30.7471
32.5427
0.655849
39.684
8.93508
3.67512
3.49344
5.04353
160.07
6.05469
37.5481
5.07096
56.4812
0.895957
16.2481
3.97368
129.198
5.80511
16.3641
1.78269
13.3974
1.96227
40.0492
60.3137
25.9556
38.4731
112.093
1.2097
5.08338
17.1543
8.87624
5.72767
5.29449
14.2162
19.4861
10.7089
8.61536
9.27034
88.0761
13.2218
5.49168
6.84828
18.5884
0.673334
8.04603
35.7844
28.8228
11.5334
32.8614
21.8332
40.8225
10.9352
13.4948
13.2714
99.3955
45.3937
16.1888
5.5168
33.7521
4.53845
1.96152
5.32474
24.2302
5.75693
5.91666
10.6149
57.2227
25.9265
10.3886
2.56838
4.4988
9.07818
41.0146
18.5529
10.6891
65.2389
8.63861
2.78206
4.40058
4.88327
0.82715
6.37282
13.791
5.17887
2.19432
67.9931
9.07078
14.711
4.34179
53.4571
0.562642
0.812579
55.186
11.6877
27.4047
30.0063
59.0892
14.097
4.15873
2.22735
13.3073
9.36907
5.58015
11.1966
6.66065
3.77153
2.53167
22.7486
1.99417
5.58108
3.58994
7.13438
4.67929
9.14177
20.6097
18.4209
10.1852
28.0986
12.1089
10.96
2.66252
46.2429
1.31801
25.3382
6.0222
5.22357
9.99803
61.6633
0.534282
26.3228
12.545
1.38919
63.6968
8.50152
28.2188
14.5466
9.64853
20.5153
7.19186
26.5718
23.8506
5.41724
13.1277
56.1911
5.28234
14.787
7.74089
24.167
5.86735
3.89989
0.816043
30.1756
20.5928
63.5695
13.2453
39.5488
4.95282
11.0604
5.65041
30.4692
218.605
5.98945
97.2736
0.44333
3.39276
9.61073
11.9968
3.13464
2.72568
14.6562
6.16035
61.6689
33.8563
4.71889
2.35382
20.3304
86.3719
0.508213
7.67549
108.039
11.3533
12.5213
0.859571
6.54025
12.4631
8.20666
1.85593
1.17548
8.34183
26.4488
8.33461
9.80431
4.39822
49.3089
22.5712
5.34185
29.5016
30.4364
2.68357
41.2545
2.55303
0.399999
104.511
34.4853
5.04907
15.1623
61.8506
204.38
9.4532
10.1559
10.6656
17.4388
51.5247
4.11682
5.17895
25.9498
10.1696
13.8633
4.58279
3.73133
10.3027
0.840669
8.45313
7.69854
48.0337
2.75819
1.29541
18.1956
5.65261
0.915161
21.4933
3.37978
25.4042
2.93429
29.2503
12.2839
6.76872
4.52112
5.2824
3.30247
12.9916
31.3049
65.2196
2.66704
2.6969
1.5145
7.18546
42.858
22.8325
33.433
8.79933
68.0078
1.71985
6.8039
3.94585
3.89829
14.4021
19.5379
31.5452
17.0804
24.1637
82.7879
15.7786
3.21728
20.8803
43.7148
4.71361
5.83058
7.08693
8.16084
2.15965
14.7412
14.7142
6.55284
3.35626
6.48421
6.12531
4.27123
14.3841
3.60696
13.636
6.49633
51.319
2.32945
11.1896
11.149
8.37582
9.41184
80.325
5.71459
5.1669
137.228
116.604
3.31816
4.0574
45.8601
106.374
12.987
43.5681
2.52648
1.50691
5.11767
2.67951
32.2296
215.07
6.32528
1.38335
1.33073
30.5764
15.9648
2.8826
1.68334
9.16441
2.51794
37.1755
15.3004
4.35714
3.48896
33.8957
6.2557
63.5992
15.2968
0.688089
7.41125
57.1688
211.12
20.0296
17.0957
17.3624
8.51762
6.57066
59.8791
11.9524
7.58485
10.6777
24.8827
19.6958
33.3147
4.09847
6.34405
9.30925
8.00986
31.0146
5.61772
10.5894
64.3994
9.77451
17.578
27.9077
9.52496
54.7064
3.33613
14.0107
21.6366
0.669435
6.60015
33.3355
23.1774
9.49826
35.2796
8.81537
6.17255
7.92751
3.39457
1.83195
44.7271
1.28356
12.603
3.71608
6.26528
2.83233
10.5593
69.0694
4.6332
0.935181
1.61897
4.99919
15.3857
49.5771
2.60605
3.96809
191.148
15.2673
19.7733
1.05089
14.0239
1.58974
5.26605
1.46659
6.10224
1.89161
10.1431
27.9525
51.4156
41.8683
2.6133
2.43002
3.14958
2.01458
2.81928
4.02942
3.26949
8.35447
12.0705
3.40591
14.2725
14.4306
14.9435
116.672
11.8872
28.2164
0.406614
162.893
2.7976
15.3922
7.00757
54.6122
3.20244
5.97214
5.97716
9.10738
73.1696
15.4545
7.44526
79.2282
15.5674
2.88683
89.9176
0.639314
9.62464
1.55781
7.9381
22.8367
4.1225
4.13165
7.50026
1.10726
5.15596
3.91606
4.85685
1.94288
6.64584
27.0196
4.77801
4.66453
40.81
14.017
82.5126
2.95273
11.2496
9.97738
6.86825
5.25016
6.30595
3.46379
3.33755
7.60018
13.7261
70.7011
10.3334
147.356
7.97862
1.2689
6.61158
0.760724
12.2198
22.9418
5.5669
10.0581
1.23771
53.0444
14.8484
6.82065
2.96311
1.53759
3.68457
15.623
4.4377
24.627
7.89676
32.6665
20.8167
40.9993
6.75954
3.86144
0.835316
34.9032
18.4381
24.2218
5.72027
8.72001
6.31475
56.5392
38.253
1.92579
29.6298
5.31274
7.57462
5.42629
15.1643
17.3601
20.1098
4.64948
12.9725
7.28407
23.2174
13.0267
32.2627
13.0674
10.4185
9.5617
7.03053
19.3253
7.67492
24.6837
33.5758
96.8609
11.7583
5.95205
2.90987
14.5571
2.61419
42.0037
17.8485
6.39681
7.14946
58.5203
3.29211
6.51476
40.3145
98.4052
6.12832
2.90457
0.625387
22.8394
2.50879
38.1234
20.4623
3.95503
15.7288
2.4169
0.485794
4.18922
4.48147
27.0139
2.74444
10.3588
19.4965
3.40938
21.1312
23.1831
5.53196
13.8795
9.20235
21.778
20.0148
24.1932
31.3079
3.56536
18.1879
11.7505
57.5375
88.4478
4.21253
15.6647
12.0799
8.17935
35.1664
14.4897
4.66749
60.1387
13.0204
3.55291
6.05111
21.7738
7.87714
7.78731
36.2673
20.8056
10.015
9.31656
8.44572
0.712105
8.4774
25.2599
5.39568
176.046
2.94097
13.8107
2.13038
1.33423
55.2459
3.16828
13.2998
14.3319
7.35224
5.25915
3.92518
14.4089
22.8944
24.7996
11.6415
1.19856
2.45474
56.9001
34.8087
31.1142
17.5513
7.46306
5.8434
1.5241
5.8418
14.4742
5.10104
9.45582
5.51692
113.575
8.12064
240.188
15.7649
4.68256
56.2972
10.4596
10.0543
25.7354
5.27006
5.18526
6.06352
8.76599
12.1935
21.1444
1.95598
3.09225
2.67332
3.96692
1.0379
16.6078
8.11784
15.4247
30.5019
62.6792
149.372
12.688
6.35313
49.6915
2.22022
1.45005
0.74137
6.44697
21.617
1.71701
35.9069
8.48198
53.9178
9.16671
1.21768
31.3596
40.4479
2.11746
20.2348
3.81526
4.1353
4.36239
3.97312
4.06768
1.94712
8.3556
3.20952
11.1559
9.75298
1.35612
1.575
22.2723
10.3908
11.8367
8.39932
7.4293
5.30134
3.3651
83.2306
2.4993
1.44359
0.493432
16.0177
155.312
2.86687
21.5664
64.1045
28.328
2.62896
27.0733
64.9538
15.0774
81.0217
22.9085
72.5617
5.49347
10.3094
0.462608
51.8405
0.410189
3.17208
52.3322
1.1603
1.65528
0.33938
16.7289
20.7127
11.7076
3.62859
12.8659
2.59075
3.366
33.4909
16.785
42.6314
408.184
35.8099
4.65366
5.24345
0.407951
7.70921
6.83296
13.5708
5.24441
0.680591
127.91
47.6975
6.31343
16.0946
2.51262
2.3473
2.45426
7.89906
26.0157
1.00724
8.03975
9.1131
161.107
4.90704
28.5589
33.5467
25.7447
6.84117
0.900506
6.56329
4.402
2.12979
12.2011
9.46447
4.98327
6.23656
14.6044
4.02739
1.64011
50.9071
3.12274
10.8249
26.8511
100.637
1.70618
57.0178
71.7461
3.60878
6.05645
18.9691
14.774
47.3578
3.68527
11.2548
6.60898
16.2611
2.2376
6.59233
8.20876
5.9314
5.24941
9.8352
79.1802
8.24075
11.4967
9.61982
7.18775
8.08499
7.53527
38.5205
14.3902
11.104
42.0465
4.78895
4.92033
1.25889
12.0992
1.41745
82.7053
3.14042
8.3336
7.57308
39.9642
17.8295
21.8651
21.8948
27.2452
10.7681
60.4686
29.871
10.9427
15.1665
6.71031
6.93845
8.30833
25.2775
21.4394
9.17615
119.4
5.05987
13.0477
7.89537
24.3746
13.7067
2.04894
9.13849
1.97289
21.1402
16.0678
2.74033
6.1108
8.2703
0.45926
11.9838
2.65322
19.4135
18.5263
3.58279
99.1436
18.1754
3.30171
7.76825
25.7041
5.20802
2.08038
3.85397
25.7664
13.8591
38.2429
3.01069
1.02896
2.45639
2.47708
7.82384
2.05947
25.3211
18.4071
0.349761
2.998
2.00954
3.75887
7.0516
22.4341
33.2666
24.3409
83.0138
39.5627
0.770687
8.01113
12.5787
17.9731
39.2277
89.6024
97.2528
24.8882
2.76774
4.32821
29.2217
49.4382
8.33211
3.6564
4.25884
26.1194
2.17047
31.7529
4.40654
25.8823
41.2271
29.1464
9.38486
16.7083
6.58416
14.6624
45.3768
0.506651
12.2531
2.36549
15.194
193.727
4.62299
43.5182
14.0375
5.41391
18.5584
3.77169
0.39785
19.155
0.552428
9.04346
4.51222
66.872
0.797808
0.92758
11.0877
9.29311
2.61353
13.1686
9.27227
6.02849
3.00148
33.8059
5.64506
6.77355
0.487083
8.81379
7.65489
16.9684
5.37059
59.9166
2.96411
103.725
41.0346
6.41337
6.8546
16.9058
15.038
40.5079
20.9438
1.80444
9.37551
2.40906
5.40778
6.45404
4.32727
12.785
2.98354
7.93624
38.468
45.2236
3.86862
9.39808
2.84838
0.833122
5.9657
1.77902
8.08513
18.3638
6.27965
4.56896
15.7805
5.20413
89.9647
2.56526
2.07381
14.8675
46.2475
8.89811
17.7149
1.07158
19.5433
9.81261
1.72509
5.1681
3.57422
114.291
10.0653
7.61137
33.2725
0.678461
2.51802
11.2311
2.79376
2.86562
2.95826
1.90014
6.76924
9.04394
8.40566
9.51543
3.3004
65.283
25.583
45.961
8.10927
1.24248
24.6899
7.20072
9.20163
12.4283
4.38835
11.9261
39.4187
7.10014
3.53586
14.9454
16.1129
7.86587
2.94535
18.5683
1.15954
2.65834
10.4166
3.64061
10.0829
2.76086
30.2603
6.45039
62.786
0.342045
5.73547
4.72335
10.7021
23.0291
53.0434
5.04547
172.067
19.3711
11.8852
37.4873
7.60279
73.0551
11.7438
313.374
18.5855
8.33246
7.46583
29.1913
0.68788
24.4768
7.62724
28.4342
8.39847
111.31
4.21387
12.6694
30.7235
10.6624
0.547586
13.9098
25.0144
10.1011
1.43288
30.5123
33.0671
12.3478
0.745192
0.510919
20.4294
82.7874
25.4443
33.829
6.51456
33.4409
3.76159
5.29768
95.61
12.5394
0.582414
1.9457
9.71545
37.2091
2.30809
1.77515
20.8067
3.00339
7.76445
5.82544
7.78636
15.0532
4.20571
5.34347
1.87072
33.2305
4.42031
23.8761
4.66184
0.618469
21.0905
70.0841
4.80689
0.882206
5.3802
14.3045
1.94648
5.37023
15.1944
51.47
16.6136
13.762
2.15015
1.91957
3.91144
18.4063
1.48887
0.866098
3.43032
6.2618
12.2969
2.6825
0.472469
0.531192
9.17985
4.85428
20.2318
6.28436
6.8384
16.1425
12.1977
1.5167
3.2676
37.873
4.78143
19.7963
35.9777
12.6065
9.24631
3.58807
4.83002
3.53715
49.7338
8.9183
55.0891
60.0007
11.7914
7.07219
13.4958
5.95349
17.6413
10.9464
49.4002
13.1578
13.4242
7.19588
8.63479
2.19315
5.75372
50.4777
17.5481
28.8333
25.9353
34.2152
2.49769
70.7753
20.41
4.2689
9.45823
3.85308
10.297
18.3685
1.69668
22.1836
8.6014
4.6843
1.94113
1.77775
3.98549
16.8724
1.1175
10.6103
9.89491
8.64993
19.3241
3.50967
11.8057
7.02694
2.94005
11.8738
21.3137
9.75211
2.69149
10.4671
5.66769
3.62494
23.0213
44.8797
1.15353
3.83346
104.917
2.07666
13.1837
4.16914
29.2039
63.4198
10.8816
3.11298
6.25865
50.3905
6.56661
8.32383
3.14992
14.999
10.636
3.32289
34.3585
2.60376
42.7785
25.4752
2.14243
7.65589
77.7456
7.0221
15.4096
4.71655
2.7352
0.688524
5.29562
8.12669
2.91268
3.39909
66.0573
35.2675
10.5864
4.26103
13.1349
57.9678
37.8713
18.6461
8.53439
196.205
7.74688
11.1797
15.3184
10.2317
33.8789
12.5854
3.72801
29.3118
21.822
7.52558
56.5424
5.25318
10.0822
6.60297
1.65395
11.8711
18.8412
29.0145
17.7193
2.75937
8.90178
10.3286
0.493811
2.67873
3.10517
1.28247
33.2666
4.42521
11.4413
0.380842
7.04837
8.49862
48.7126
11.162
34.7822
17.9006
28.4446
29.0384
1.87284
13.2916
19.021
6.21948
9.45298
4.23483
20.4356
45.9894
4.71317
2.02031
9.25623
11.1986
19.8381
93.4111
25.4757
6.12306
10.9468
2.25115
32.6689
13.0305
15.0643
11.861
2.57102
6.85662
16.8273
1.66615
3.94904
4.21274
5.38647
11.4243
11.1489
6.82939
8.61639
22.3842
12.2896
1.66228
37.1204
17.0682
87.3811
10.0992
17.9205
15.1524
5.9086
6.07376
0.803198
111.324
9.04441
11.451
22.0949
4.95819
0.540896
18.1971
12.4334
26.5141
8.21214
17.0775
12.469
32.9845
3.78934
56.7608
0.844224
9.3418
19.3451
6.77009
8.15537
49.1804
3.84379
19.2312
12.1852
1.84548
1.92661
86.8655
7.54058
77.0158
13.8634
5.1344
9.71606
20.1074
39.706
2.47064
139.04
1.98626
19.5048
4.72967
12.0789
70.512
11.3343
10.7079
10.0307
13.9802
55.4444
73.9482
31.0343
10.2056
5.14211
314.322
173.184
12.3417
6.03552
5.3909
18.3168
5.52544
5.96096
33.7545
4.67651
10.1915
28.0659
18.4486
8.75671
37.2765
4.99331
35.9903
11.996
2.90731
2.33149
22.5577
3.89384
50.7075
12.107
2.75004
27.3814
5.84664
3.37026
72.8553
5.45104
73.1818
18.6617
44.0836
1.80767
26.0143
18.3574
0.558592
10.1087
6.37175
25.647
12.6604
21.5144
6.64599
9.81977
21.14
14.9576
110.522
10.7732
4.93737
14.0333
11.6156
20.4207
48.1414
8.65745
4.52871
24.3338
20.1359
8.0911
0.459257
29.6825
8.31971
78.7397
10.8139
31.7222
1.84272
3.97877
2.76532
2.40043
3.44828
1.51813
23.4007
43.238
17.0921
29.426
14.8032
7.0873
15.3766
6.57156
31.0505
14.8368
19.5233
2.11918
54.4319
30.2821
11.6814
10.3484
11.0639
86.6826
9.49943
45.5165
6.51274
4.33188
7.34197
0.34447
4.00261
8.26165
38.0601
9.21249
0.335921
7.16861
36.8241
2.09552
5.56343
7.35583
31.6184
9.27203
2.13546
27.8724
26.8176
5.39919
10.0858
6.20223
7.16591
85.8171
6.72773
384.492
29.3304
1.69541
5.10535
4.18112
65.3463
34.4586
27.4561
1.9048
0.641876
0.723775
7.61445
0.869535
11.845
1.65301
9.11615
21.0692
54.2684
22.6466
12.3477
3.1944
197.524
18.4135
3.34976
78.7532
11.7074
2.03221
2.4347
82.7112
50.3153
4.48788
7.4033
11.4861
21.7407
6.64679
5.62947
8.61752
32.2685
1.36233
218.846
11.3845
31.1471
1.58216
4.52913
3.76269
3.89763
11.4112
129.664
36.7302
13.2958
53.1184
115.101
15.8001
3.08057
27.0557
1.11128
0.612302
95.7764
3.2972
3.98783
9.82396
1.14511
9.24884
15.6028
37.0032
3.17909
24.7693
22.1107
4.60141
31.2783
8.11682
93.3981
1.73311
2.30237
70.5551
13.1966
4.77226
12.9125
45.7164
1.20921
18.2637
9.56375
12.3339
3.71814
19.5191
111.914
6.42485
43.1016
32.6653
6.48719
43.256
16.5947
5.16196
12.7636
11.4912
9.29942
15.3767
26.3396
32.0528
7.97133
1.10429
7.72014
9.68917
12.5265
14.5588
2.4455
1.34665
86.8518
3.61434
34.9659
6.90763
1.21858
2.21097
52.3576
24.4731
65.778
278.128
5.72157
17.6359
6.55799
8.28744
5.93876
6.19801
0.9427
34.7708
24.5149
1.91743
3.54143
1.98231
64.8809
4.26237
0.953476
10.8506
1.72364
16.4468
9.73946
11.0997
11.356
37.3052
36.6804
11.6278
14.5526
2.71944
12.5983
32.6856
24.2617
6.74063
23.9152
8.98561
1.51519
25.6405
25.3033
5.20291
97.8215
5.08027
9.37197
2.09229
28.2898
5.64299
26.225
6.11236
2.40352
3.53073
204.724
111.149
1.78044
8.00024
4.50861
23.0415
4.97176
16.662
36.614
38.5462
16.0917
11.6065
19.8808
8.20352
25.5156
6.78896
123.326
5.43097
15.7164
8.00301
22.2496
1.87305
14.0404
5.862
229.735
2.27399
5.84632
7.45162
1.91484
20.9764
18.7055
2.74203
31.8112
6.10086
0.537841
5.14928
13.6725
105.798
12.7422
5.1823
1.12869
25.7866
6.15072
0.501976
71.6265
4.99445
8.73586
11.829
3.09971
9.03842
13.0369
3.28221
47.0628
1.76652
3.30185
47.4013
4.04306
2.44457
16.3833
3.77112
1.56276
6.61665
3.82949
112.576
9.65303
49.3521
35.5024
10.5289
2.60533
8.08568
4.10613
7.38354
34.652
0.517305
23.0138
3.94196
27.129
11.3933
7.69152
3.93482
8.26701
7.71447
9.65738
11.5286
2.10443
29.7531
96.5591
0.832742
25.257
1.78893
0.790407
9.82677
39.189
4.591
0.997041
28.7038
1.14748
14.0619
7.69338
15.1265
41.7167
0.476648
10.1207
14.2941
13.4049
6.76162
15.628
2.25175
83.1046
17.2672
8.73045
4.1796
205.067
0.462629
6.07018
75.1988
31.0257
11.8214
28.6577
6.2113
16.0068
3.07989
5.48689
11.8809
5.80663
3.65407
28.0358
3.73843
5.28331
5.44417
4.26551
9.55335
41.8506
6.33976
1.64084
86.4565
16.9206
21.0597
9.15097
50.9644
99.5967
16.0433
7.40732
18.1254
57.7629
19.7575
3.31869
1.96454
1.74023
8.81526
2.35177
5.26546
28.2343
84.5505
13.6939
2.14666
15.1133
20.6396
4.38708
3.98319
4.2464
3.4791
77.5248
30.853
0.752514
71.1494
26.8598
2.74467
15.9539
8.26482
4.22009
9.2983
5.18277
18.5797
0.871543
25.5755
4.05738
3.95879
2.93891
31.0532
7.88056
5.75917
61.0293
115.953
7.20437
84.2986
3.67475
189.553
18.0246
11.7285
6.16585
21.1425
9.19843
37.8724
14.6812
45.0918
27.8688
8.73227
8.15022
16.0991
5.59307
15.5152
19.7914
1.39249
1.77002
16.3248
31.2259
10.471
2.19824
18.4799
23.2634
3.91868
1.72033
99.8169
13.0847
9.00659
0.388649
39.0025
36.637
3.02387
8.92313
3.98747
1.22568
13.9985
2.31652
0.576085
12.6102
1.4151
4.88976
70.9825
2.86142
9.70814
81.2949
7.09337
35.4135
6.15404
35.3804
5.70329
5.82453
13.4957
8.32003
2.79926
1.34317
12.2398
31.3273
6.1563
55.6829
9.70247
50.7598
14.9199
14.6307
5.8753
26.3962
8.96482
14.5055
9.25014
34.7453
2.92609
4.07353
2.18793
1.68208
8.32887
347.333
1.07318
4.95582
0.360761
2.38328
1.37467
31.4891
19.4343
37.4999
13.9996
7.45158
17.3711
53.4939
18.6609
24.4268
8.94469
11.2678
1.85708
61.7149
250.636
29.234
2.43549
20.297
10.8925
8.17559
2.32432
34.4332
48.8771
7.14213
43.4097
2.99816
118.418
25.593
6.6368
3.79178
8.71881
2.87912
59.8732
4.6331
5.82057
6.43676
10.3887
4.86018
6.50001
1.23373
1.2048
2.21533
6.761
6.62411
134.816
6.79356
3.31065
22.0902
33.6508
3.62829
6.51854
1.3202
3.61469
15.7976
27.1245
4.16172
50.18
2.48802
284.023
2.67778
14.686
10.0598
8.27032
6.50729
7.69289
3.69885
28.489
11.8362
53.5475
82.4972
24.6212
2.44817
10.0559
55.193
7.45855
1.63886
11.3935
13.2539
44.768
28.8759
0.450254
7.37535
147.09
15.3275
0.460005
63.0487
10.7578
1.71122
32.9076
4.38425
53.9359
10.6711
12.5292
4.11594
4.37644
34.3132
16.0847
3.76075
53.8414
47.3408
86.1914
4.56153
20.9687
1.15907
0.747864
2.58378
13.5429
1.27614
1.75027
25.938
22.8259
5.03225
1.26001
17.0079
46.8019
1.82501
17.4115
4.71856
40.7058
2.38815
10.1711
25.5724
22.9975
45.0307
18.1542
4.70716
7.69613
122.225
6.06172
9.40505
11.9083
85.6509
10.4821
47.426
2.99201
11.3222
17.5334
16.0553
2.39337
10.0632
75.2847
14.3059
1.75437
30.1856
1.88555
36.7144
21.702
5.78458
5.03131
9.48824
13.6265
59.4635
39.5458
38.3115
7.95175
17.7769
58.0083
34.6988
2.15564
7.87149
3.51224
9.2075
0.633414
15.182
10.2927
15.3251
11.5203
16.2092
5.2764
1.66121
3.21996
46.6685
4.03448
2.44003
143.132
3.72929
9.27661
4.65281
7.53045
19.3825
52.7392
3.63675
11.204
32.1681
8.00214
5.10413
2.02899
13.5957
12.3889
182.134
17.439
23.8613
11.316
3.12033
192.034
2.6527
19.5322
27.0015
19.0504
4.49696
1.88554
5.8289
72.5628
5.18023
6.3138
38.295
36.6593
19.4765
7.59487
30.0018
54.5383
36.0059
11.0961
21.6152
8.63157
5.31066
31.8357
8.24651
8.18441
5.51072
3.96667
28.5313
51.9149
142.585
8.06712
3.89695
4.51021
2.62748
51.4248
2.45529
26.9558
5.69621
2.09864
22.0728
5.83343
14.289
25.8332
5.56869
4.27282
39.2668
2.60173
36.143
6.2807
2.24364
16.6388
31.0909
1.91795
2.19772
3.127
16.0923
3.43819
0.498364
7.73197
2.3754
5.99195
4.38804
4.2729
115.329
2.21864
11.8317
67.8283
15.1545
2.45365
32.595
9.51628
14.3575
117.923
17.6672
128.31
2.9726
315.966
2.56498
26.5194
12.3755
8.17543
3.61439
6.82852
7.68197
12.1237
17.8503
0.755392
0.702092
21.3709
14.2632
1.06078
15.9448
16.9657
13.2064
62.6617
13.4131
17.3349
2.3128
16.7707
18.0448
4.08342
14.7765
3.09179
14.4534
11.3719
12.6687
10.4359
7.91634
3.40625
33.6272
10.145
17.9207
1.06478
2.45672
20.5579
1.74471
11.4932
11.8093
2.30674
5.63895
14.7082
4.06259
43.7296
6.31561
43.6535
4.02558
3.39003
3.09779
23.0557
37.4382
2.57953
38.4592
7.52577
12.9398
1.30164
4.73637
1.86282
10.4309
2.19018
6.7731
41.0089
0.641641
7.19514
112.652
10.7966
10.2154
2.93721
0.614312
31.3339
44.933
2.63737
30.0712
7.90156
25.7424
4.29615
49.5645
20.431
1.21064
17.1744
9.63707
3.44841
13.5969
28.4052
244.372
5.16709
83.4796
6.55612
9.05547
9.76562
1.51021
3.80839
5.68197
58.2589
3.47992
3.48449
19.5279
5.41198
22.3006
2.35764
94.5325
33.9444
3.34863
58.6462
44.8688
1.8811
12.3872
5.09638
5.6979
25.7079
7.79043
22.1592
5.54473
10.872
44.7686
10.3884
65.5432
8.16935
16.5274
1.39863
3.43006
17.1692
2.01244
2.78291
48.8766
36.9801
8.79193
6.35792
60.5159
16.7577
1.36338
14.7296
96.8005
4.75735
1.39551
2.97817
25.9645
125.538
1.35785
5.50282
5.36914
10.865
1.33464
14.9312
70.3284
2.45146
30.4365
4.80827
3.99131
2.36165
23.3074
7.18688
13.6744
1.04331
25.4982
1.50308
11.0963
11.0919
2.89463
26.5059
2.74487
1.55051
59.8747
2.29075
39.8628
75.7854
10.2307
14.3866
4.32047
2.67033
1.18486
3.31874
77.9121
0.896132
19.1067
9.04481
2.71263
222.129
15.0391
127.663
1.18047
192.255
38.3022
30.6982
97.6943
6.08065
3.09753
3.07776
20.9207
20.5467
10.1061
10.2673
8.33793
9.34776
10.2977
19.0622
7.25909
34.7447
171.823
5.70722
9.16949
11.7774
1.96181
4.63542
3.39372
8.41808
13.6768
2.73966
1.75157
6.99343
3.23461
5.26426
11.8739
287.506
6.08457
10.2186
8.3151
1.89519
6.21867
58.1304
6.73683
9.06732
45.9653
1.20845
25.373
4.97603
15.1669
9.30725
12.1011
6.98117
12.2619
21.3445
7.11242
2.35256
2.12744
5.72634
24.6939
16.3455
8.04312
7.75422
23.1529
21.5024
0.754828
8.11497
0.685919
23.6249
12.9875
31.2165
4.22915
10.1818
79.4316
5.24579
20.4547
2.2078
41.1034
12.6986
58.8115
0.560771
6.7681
16.2586
5.25074
6.63621
22.4895
0.374741
2.14541
4.62016
36.04
4.31251
13.4068
66.8551
4.0116
11.7563
65.0788
42.6234
2.49868
32.8454
2.84816
68.6243
12.9587
23.6153
2.9804
95.1754
11.2747
7.48228
9.28616
1.55541
14.9531
3.22766
44.4871
12.4662
14.5974
5.03725
6.98713
7.06493
0.686204
2.48652
13.2877
14.675
0.626233
16.279
1.37878
91.0557
15.8906
29.9601
5.92841
1.02819
11.632
34.1247
5.82971
0.641432
3.13966
94.4609
26.333
5.20449
3.59995
2.58256
3.80813
5.78394
9.54946
1.36213
17.2013
10.03
3.11214
4.44015
0.588102
4.66885
40.6787
5.16113
5.90241
5.05162
4.96721
12.4897
61.1011
3.07611
72.6668
5.02086
15.3608
1.04518
24.5069
8.65007
11.2407
22.3342
12.9358
3.08773
1.44216
13.4995
8.57577
0.687631
4.39877
18.1815
0.555526
49.6473
8.21895
24.8947
2.35187
6.35172
56.3588
1.44064
11.2213
3.74285
44.8902
118.19
40.9399
0.753883
1.16349
16.6319
2.71169
66.0664
2.59781
16.2476
9.47497
25.5812
6.43699
5.30907
3.47017
33.6424
4.41128
50.4983
1.76524
34.2234
11.065
5.58905
38.777
1.24609
8.76584
3.13044
17.8899
10.5908
16.285
8.38883
9.73094
19.2095
2.49199
99.16
71.93
32.875
17.4809
21.1053
31.4518
1.49117
22.4941
5.84522
16.2577
4.29674
9.26511
2.43843
5.27609
9.5486
4.28239
1.59072
1.01885
78.9734
6.77951
5.79086
44.3508
5.17509
6.92073
8.6352
35.3414
3.80711
92.6222
7.57031
27.2277
21.5425
17.6762
43.1489
35.2948
1.60559
70.6493
0.441512
8.41753
2.27604
6.47341
29.4635
8.05346
13.0649
7.81208
6.72926
0.510176
32.9366
6.49596
18.8469
23.0995
5.41219
36.6879
22.9132
9.73876
6.07572
23.341
2.37865
2.48447
20.4232
9.8792
20.6472
114.367
25.0501
6.1534
33.5911
15.4488
5.32893
0.53113
3.46265
6.00271
15.5209
5.36924
5.64629
5.67237
14.5962
39.9941
25.8501
6.93437
4.53508
1.69926
85.756
0.474514
20.0851
44.1277
86.1875
8.60193
11.2103
1.72633
4.8368
19.3485
4.05021
7.90175
25.4853
2.41831
5.56807
54.7288
30.4265
2.65103
2.10141
2.73996
17.6749
3.00284
34.2071
33.2896
4.54814
19.7296
61.4535
2.70496
4.6358
1.08352
5.33455
1.76685
11.7474
43.5673
30.0405
11.4728
2.74657
52.1399
2.50039
10.0144
29.7214
4.44287
16.7389
11.6551
40.6914
1.89905
49.8623
4.12615
2.24937
5.30175
1.6411
5.74321
5.14647
32.9642
10.4565
5.19787
5.06365
32.2736
3.92247
12.9299
0.452707
13.5686
0.705247
27.8784
7.31411
6.18086
2.64822
9.86961
13.9843
149.422
7.89452
10.1132
41.8643
23.8331
31.9107
12.0135
1.53351
4.09373
33.8051
118.174
40.7567
3.2445
6.39339
2.83296
14.2701
4.66918
20.2338
7.31532
7.02229
31.0929
6.60536
20.3897
48.2048
2.81428
13.0556
6.19234
5.15177
40.3738
4.32949
2.39124
0.920393
7.92069
12.5491
10.4151
9.66284
1.82292
26.9913
2.74083
65.432
194.417
5.69736
15.3116
0.614013
5.92607
9.58819
3.23083
0.636734
1.13086
5.15146
1.37643
45.9638
34.3707
14.2243
8.54664
1.2683
25.6112
10.8391
9.39797
5.59317
5.38991
8.24834
40.9938
35.0587
2.19358
64.4945
2.11141
2.86718
22.1921
29.8671
1.66888
5.04597
3.6144
5.7285
22.4372
6.14747
10.4017
140.756
32.0626
4.04706
14.9007
66.6434
10.8925
4.114
95.8837
24.771
16.6323
49.0399
19.4834
3.98943
1.22878
51.2469
20.195
20.3956
9.14125
12.9783
7.67579
46.2123
5.96589
3.94732
7.97605
2.82911
16.6213
4.15092
19.5759
20.8834
2.16022
6.50599
4.12754
10.8612
9.66775
19.8009
14.1455
9.78272
4.74911
2.18305
4.38172
23.6234
65.3982
119.345
31.7191
1.67254
6.19583
5.08518
0.626884
8.64918
2.7013
5.35299
31.3035
1.59503
5.92362
6.28505
41.0186
14.9109
15.7476
46.7998
5.74192
1.46949
25.7344
18.4914
4.76316
26.688
13.6732
5.62962
0.931305
5.49584
15.6894
4.83886
290.608
3.89415
21.6878
48.9875
89.2011
11.7847
29.9403
26.3761
5.87763
5.60835
27.3189
51.7891
5.64093
5.79086
16.6822
4.31393
1.18471
4.44487
13.2319
15.3497
10.9437
36.3626
1.24438
7.31039
36.9003
34.2881
13.328
6.36568
9.19514
16.671
90.2345
9.73539
12.2388
1.73555
6.81208
60.9484
3.33838
6.82384
4.57948
25.1068
11.0449
52.4245
30.9988
15.5097
13.734
3.5331
15.5062
42.2672
5.92035
181.081
5.38298
21.105
2.81492
4.15546
16.8399
15.993
23.8524
52.7804
120.667
2.3717
4.59311
9.10604
1.38911
10.1707
6.02762
4.86643
4.67523
6.60577
5.56102
5.23968
109.733
36.8696
0.346371
17.3449
31.5563
13.0368
7.70301
14.7315
21.0783
1.10781
7.14593
17.2043
13.0757
5.26449
10.4615
2.53775
7.3631
8.88773
1.18369
42.3042
6.1307
56.387
16.0677
21.8396
13.2169
13.9398
4.16638
6.58952
15.8309
71.8263
14.8985
7.71796
0.9842
19.8296
8.58503
12.9391
38.1958
53.8299
7.15792
39.1968
2.07578
19.1665
3.00285
2.6406
2.32467
65.5022
3.64315
2.67278
8.54866
2.12443
20.546
18.9276
101.505
7.80542
5.84927
10.6773
2.70117
1.93064
13.5657
0.509728
20.3518
2.45348
2.12647
24.6182
1.09369
1.27091
1.22423
3.60881
70.6787
37.3023
6.59506
14.2351
0.528706
3.24436
9.76318
5.75382
6.46983
13.0275
9.61853
2.58657
8.78298
31.5243
6.36501
1.41274
5.75001
13.4497
5.18856
22.8841
15.66
3.04757
27.738
138.488
0.656122
27.0034
9.29415
10.9157
52.4026
73.0585
33.3135
6.09517
6.42525
6.40538
17.2717
9.18958
147.139
4.48875
9.6444
2.80331
96.4657
66.3944
0.793725
3.79571
30.1533
13.057
1.5057
0.958747
8.3396
25.2654
55.3905
68.237
36.107
18.3849
32.0745
1.91801
2.49137
3.71654
3.26218
33.5917
39.4324
5.3376
7.65521
3.6241
17.0849
7.16239
0.789803
4.33583
41.2216
18.301
17.1427
3.08869
49.8213
8.02367
18.1942
4.12892
1.65228
38.4304
40.8817
16.5285
16.9897
12.5732
2.55154
8.21879
3.96921
9.78877
3.78215
1.54083
11.6012
14.0109
47.168
8.08716
41.4558
8.22596
12.1988
36.4813
7.61374
3.85297
6.0126
13.4134
10.5144
5.03584
4.14538
5.01132
18.2495
17.6785
6.25092
5.48179
152.791
51.3131
18.3752
14.6725
0.784709
16.9181
2.81882
6.00776
17.0681
23.7381
22.8275
7.54921
4.22323
10.0982
30.1145
5.90384
0.514257
8.96896
17.2487
23.895
18.4763
6.67903
5.35954
97.8725
16.3276
33.0687
36.4011
82.6112
2.61038
1.9918
55.7066
11.597
4.62552
4.9244
50.9151
6.86463
1.27263
6.45084
6.73313
5.34522
25.0868
2.60029
7.34798
9.90672
8.90485
5.91519
3.48434
18.3302
1.64678
101.172
2.9261
1.43578
0.430518
3.01958
7.35423
2.15337
11.5408
6.15032
8.97973
23.7561
9.9822
3.27826
20.542
14.0099
31.3153
12.8048
64.7069
12.259
34.7893
6.81807
14.6303
61.6779
34.7021
33.1997
7.98427
12.3867
5.23215
17.6082
5.21824
16.7081
1.57323
58.2328
3.34711
6.6563
1.17148
92.0302
53.9972
10.8918
4.33329
5.44007
3.55144
12.0304
2.98372
41.6212
43.9553
11.355
1.62809
5.88413
0.619533
103.239
8.4255
8.8964
8.02702
5.33996
2.90971
11.6148
4.27365
7.43744
48.3152
9.34897
8.27684
21.1254
10.7586
128.349
48.4267
8.47692
5.01346
1.93982
20.1014
3.57794
3.21516
0.767778
4.23335
5.53652
2.93357
3.72724
2.14989
5.96474
4.01104
20.9268
147.911
19.7109
11.1019
64.6103
4.40712
41.2094
4.60072
23.4
15.9317
18.8112
1.42908
11.3618
1.76061
17.5897
2.96799
15.2608
8.78626
3.58344
11.9709
2.01276
6.04022
4.97396
1.77026
17.0115
5.08297
57.7831
8.36661
7.7631
1.28321
6.50695
55.9539
11.3176
6.82284
9.83955
9.9293
1.78393
7.14916
3.04409
5.29165
12.4946
15.1903
22.9756
80.791
3.29402
9.43611
109.532
6.00153
36.107
8.72703
60.3341
2.81221
18.4967
24.1672
4.39934
94.7776
6.13815
22.804
6.21846
2.50489
51.7925
52.6906
2.52633
5.04737
72.6981
4.46038
12.4381
3.86388
2.32581
10.0814
15.0174
4.4323
1.98367
23.5001
25.1155
40.7268
192.742
62.3626
4.28394
0.833309
13.3105
14.9842
6.74474
0.771946
10.1173
34.7613
2.43128
51.7465
2.47335
5.66802
6.6661
3.76516
5.17311
17.6985
4.04335
12.2598
3.22109
0.363489
18.2976
4.96752
46.5733
24.5631
13.0784
6.07791
3.01496
8.80605
6.02686
0.82905
2.28818
35.1128
67.2572
48.516
41.7663
117.311
1.98533
8.83034
7.12018
0.946052
7.31369
249.895
3.94307
52.8103
7.35909
7.66845
16.8549
59.4765
13.9801
30.0901
10.7258
9.92618
1.63819
48.5969
3.9862
13.6982
2.84984
3.44054
4.72968
42.3053
8.63083
13.0088
4.62937
2.03997
9.44872
18.5591
11.8443
32.896
17.7745
12.8275
7.1152
28.9598
0.520461
0.399111
5.28567
39.3007
25.0154
6.08848
11.3875
8.4773
16.9202
28.5203
1.55471
25.0497
18.4259
4.45424
52.4332
11.2571
10.5121
35.7846
14.312
1.98015
23.0851
40.8774
10.6958
3.92385
47.9706
7.12593
15.8993
3.79307
22.6018
4.20438
1.49541
58.9537
12.3847
18.1081
17.1041
3.67856
1.24721
18.1455
95.576
16.5185
9.52435
218.442
5.77183
2.34183
27.0922
14.3634
27.6702
9.59354
1.24128
19.071
1.73921
22.0391
6.30282
33.8373
9.84638
68.2722
14.7862
16.0248
4.59128
114.328
10.4406
2.55328
5.52877
7.25337
23.6903
6.31599
18.0034
9.63591
10.9725
1.78542
0.894874
24.0105
1.7948
3.84619
29.2144
11.0563
61.1926
60.3588
3.34682
16.17
92.6288
1.64695
71.88
20.2557
7.53954
0.633542
22.4176
10.8878
8.01196
95.6361
108.318
2.48684
8.42308
4.24538
16.072
14.479
12.9039
1.089
19.0419
3.08389
0.560145
26.9377
4.56819
0.955153
24.5089
17.3235
6.94701
11.2814
21.0522
34.3572
9.96915
16.767
1.27752
6.10454
5.42871
1.9874
30.6373
39.5067
21.1385
2.65069
3.42961
5.10876
2.64896
7.28682
2.78755
8.96043
21.3163
6.69557
3.1175
2.10253
4.74009
7.84487
5.97687
20.7466
4.01852
11.994
172.876
9.00468
41.2127
94.546
3.34535
131.411
2.00614
6.09257
4.39628
9.46495
2.98386
12.6032
10.5762
28.6277
1.05439
91.8409
20.0804
17.0796
1.14848
2.61706
131.054
0.852675
10.0905
0.390092
95.6073
33.802
3.27581
0.681892
112.813
11.6645
7.97549
1.20821
15.4988
3.66701
8.00172
4.05876
2.34148
2.57005
3.9751
4.98355
89.4173
5.00543
2.12871
7.61439
3.98638
2.3286
37.8928
2.48166
7.95828
140.711
41.4871
20.4247
13.7106
1.86129
3.42668
10.5631
2.11714
11.7741
50.8117
14.7287
39.8917
6.57226
90.3548
18.6737
3.12782
30.7356
14.7121
64.6352
6.25669
6.60473
5.5067
1.64644
8.74747
12.8629
6.03011
2.72862
12.0237
24.1102
4.99669
34.4627
76.1923
0.99451
12.6318
1.64481
7.21347
6.01967
12.3333
47.0752
9.60791
172.469
2.7718
29.8172
0.450368
8.45266
15.6869
2.90499
20.1672
11.6072
27.5881
45.3539
3.45006
26.2633
9.24069
3.34911
120.205
2.51837
8.49824
3.60703
3.47786
156.531
22.9431
42.2714
11.6839
1.0258
120.578
7.43385
2.83692
3.67331
38.2233
3.4566
34.9601
7.70393
9.46764
0.853336
2.5463
16.2376
13.6236
67.7221
5.07964
5.17716
7.73777
2.10754
4.10281
28.3474
1.68411
1.97764
1.16248
44.7014
2.61926
7.1791
15.1313
30.3803
15.6026
37.1051
0.307755
4.39431
2.7927
69.2665
162.752
28.2943
43.8267
4.2817
40.1557
11.6566
5.12567
18.094
26.3693
4.23185
41.2002
9.2234
31.4664
7.51269
8.52593
2.2104
8.36814
31.0934
5.03278
7.2218
18.2665
10.5223
15.6686
11.8798
2.87752
4.652
35.4029
6.7111
59.1445
3.70983
2.05329
20.1242
0.515129
11.5907
28.1297
31.4379
23.5856
18.9024
4.39643
6.30513
12.8732
8.01662
6.49203
125.182
16.1625
12.3352
5.97079
17.5172
0.882532
34.1431
16.4219
33.0482
44.7767
74.2965
4.86053
3.74206
1.22272
60.943
7.72434
4.73121
2.32732
39.8173
2.25858
3.45856
15.9038
1.91768
0.399996
10.8022
26.0308
8.69484
6.95328
1.70628
9.91879
52.1101
9.89497
1.79314
5.77386
13.7103
3.72805
7.30362
11.5861
4.20002
89.1284
1.64201
3.26342
18.2984
6.18688
22.0437
11.5046
16.4653
3.01631
5.74099
7.56122
36.7025
1.50211
7.57755
4.77313
1.59621
133.276
15.7868
6.11656
2.32694
11.4936
20.7088
24.5257
64.0576
8.77552
34.1173
8.3802
14.5345
37.3352
3.36799
1.52664
10.422
12.7929
16.6351
2.57061
22.9255
11.0624
8.81098
1.44121
3.84468
2.70577
5.29108
7.66517
2.43069
46.7957
33.6801
6.91671
41.8614
37.616
8.31243
25.6615
36.9832
20.2613
4.08279
2.6501
7.30312
4.14215
50.1089
6.86269
3.04982
8.78182
4.46895
9.15427
0.554096
2.83666
12.7181
6.87421
2.63934
62.6318
210.344
17.2265
4.44296
2.34835
2.54298
10.3519
22.8407
21.0128
3.6842
1.48046
12.2729
25.4558
2.81176
1.67271
5.22172
157.036
3.24567
220.383
11.6353
8.36782
5.55883
38.9523
22.2865
8.14174
9.98295
17.5643
7.49712
11.9195
9.96994
13.6773
33.041
4.4798
19.7269
19.9696
1.09573
44.3589
76.2032
2.57379
6.22539
43.7207
1.87228
71.7883
4.86368
17.0129
35.9024
53.4467
16.053
1.64679
2.07679
16.7096
6.53925
3.75698
4.60156
13.1271
2.2533
4.84144
12.5735
11.0785
2.77937
1.8069
70.4038
8.46238
17.5382
2.72873
0.984093
11.4592
18.3235
7.79516
6.93336
3.20614
10.1895
6.92613
2.89991
149.713
4.75225
10.6227
8.23665
25.0901
12.601
1.96986
90.5018
6.18679
8.11823
26.749
59.804
11.3642
0.935768
2.91458
4.74069
5.22497
2.10265
25.6609
29.9232
6.09376
92.2013
85.8621
18.4142
43.4445
17.359
3.16152
111.628
39.4512
0.732311
5.99189
2.16195
4.95043
25.7046
5.03737
12.7776
236.982
367.428
173.111
1.86927
4.72542
0.711943
2.5487
8.68419
1.31586
14.1133
0.883388
7.05135
6.07997
19.1823
9.44195
4.55203
32.3513
45.946
2.16275
8.04278
24.5621
6.69309
11.6647
4.34421
1.99047
3.17245
2.03781
3.19655
10.596
13.6409
1.58331
6.70091
3.91408
2.80294
6.95751
15.4238
0.790073
5.69829
7.76211
0.945554
5.06508
3.11864
3.80165
2.00115
54.7222
27.1136
29.374
52.2248
16.087
33.8172
2.16301
14.3282
18.3149
85.1971
57.838
31.6217
4.37064
10.355
6.82302
2.51505
12.9906
4.95768
1.5468
1.7548
1.81107
7.54579
16.3965
11.9982
24.0806
0.523492
6.49414
28.0698
44.122
8.63206
19.0848
1.37274
6.20904
16.9659
9.8522
48.6655
30.7614
2.55378
2.48708
10.6026
1.76065
6.64912
41.4784
8.92835
6.13784
32.964
5.38917
2.46771
6.7679
19.3869
5.49433
21.535
2.63078
20.1498
8.30377
26.173
5.38583
11.0937
8.15965
5.24654
0.470935
9.70561
52.2884
9.67539
3.93665
5.4532
5.72358
40.1319
1.87542
4.20455
0.435449
11.0888
9.21053
12.2467
12.3397
3.33369
28.6553
10.1239
3.81503
17.9092
10.8021
119.241
9.47677
20.1138
5.66513
0.415926
24.7779
14.2515
2.10769
26.2008
99.7559
22.6321
5.75241
4.67733
118.031
5.3408
11.0745
1.10429
17.8907
36.4486
2.15266
10.5916
9.97171
2.45761
4.01385
4.79434
9.79606
5.28285
12.4918
5.8318
5.1692
15.7909
7.73666
3.59488
9.60518
3.67937
144.681
44.2627
138.252
53.5723
5.53707
7.2555
12.0446
27.3559
11.4039
16.5552
2.79527
14.6611
20.4005
48.9672
3.0396
3.64186
14.9045
1.25911
100.975
29.9579
21.5951
5.66388
48.1442
34.012
7.68423
4.80541
11.2006
45.443
10.4462
24.2808
221.732
23.9746
9.72033
2.88665
6.87747
6.01065
59.8606
3.24155
3.6819
9.17051
19.6738
11.9105
39.8036
1.70787
52.5853
10.4849
13.547
3.3634
54.4056
3.93028
67.7514
3.86472
0.538483
0.990323
5.28041
1.97139
35.2765
181.556
7.80925
2.09841
16.368
3.29184
2.24974
7.54575
3.62158
0.983402
50.8583
45.0883
4.15417
16.0124
12.1031
11.6275
1.18165
32.1045
2.69322
3.51654
6.9553
31.4542
58.9067
58.14
21.348
1.42951
1.99893
2.02619
51.2751
6.88031
8.44448
2.0027
14.3595
9.36564
12.8418
39.265
1.14172
5.39765
4.43107
17.4395
1.42552
2.01646
6.66569
4.32368
159.818
16.0188
1.23872
8.20992
15.2286
5.37758
6.9865
6.17015
39.543
20.9412
2.08715
3.77451
2.9854
2.44679
14.8629
1.03849
7.6605
42.1392
2.5493
4.08522
30.7944
49.756
1.80912
8.24523
1.15264
10.2061
1.82385
23.8149
4.63792
18.8266
94.7966
14.6233
3.27217
47.3549
7.82052
2.35611
28.0306
6.22027
2.00534
3.50168
3.8298
7.62506
9.39465
9.23766
17.108
27.2513
49.7216
37.5782
11.5488
13.6153
4.98565
8.43072
11.9738
25.9706
1.99897
6.42797
27.2792
3.70297
8.09436
26.692
2.10286
9.76896
2.04276
4.06819
7.77047
12.2849
2.62634
12.4444
9.08288
9.81774
2.23974
45.5174
12.3905
21.3041
10.5503
3.23177
0.519762
7.19895
45.634
4.87033
11.4592
29.1495
19.182
27.9639
10.3761
59.2203
94.9017
12.5117
23.2586
21.8021
5.85375
4.47071
56.8296
7.61567
10.9849
31.2493
14.9759
5.28013
13.6518
1.03643
48.3415
4.60508
5.25534
11.3919
7.45543
22.6138
6.69628
0.81474
26.9703
5.30941
51.1124
5.53556
4.06811
4.45917
7.32107
6.83354
15.3658
90.3343
4.65191
0.946981
4.01554
18.7554
17.7545
10.5783
171.079
4.42315
13.9666
33.1502
10.5745
4.75815
2.61598
11.804
20.9885
5.18203
3.29501
10.4694
50.6412
18.7327
3.00772
29.3868
10.8477
2.07244
7.0506
84.676
7.32498
47.7926
67.8157
3.19137
23.0833
287.062
57.2067
7.30702
2.97013
14.879
21.6968
8.02161
4.55343
25.5158
4.11069
6.34315
10.1742
15.5344
1.13756
3.68514
2.0515
1.68153
15.0006
1.82611
32.1916
11.6738
9.01227
12.4058
4.53506
28.8238
43.6612
2.64375
15.2582
21.0855
3.70544
15.9217
4.30096
8.63039
3.60507
86.668
5.58798
6.51973
7.55723
5.91353
18.2195
90.905
11.6078
14.9171
1.25611
1.54547
30.0349
2.61212
22.7208
8.34543
7.35388
3.60301
1.58574
19.8179
18.8534
37.3727
1.46459
3.49283
2.79959
39.2341
2.17052
2.02873
31.6132
2.90401
42.6788
74.6549
9.6483
4.70798
3.41582
8.22452
25.1196
37.691
4.51413
20.2357
67.0314
11.3702
11.1845
29.4022
5.99019
6.33694
110.006
2.09393
2.93604
4.95315
21.3184
4.83747
1.83577
2.74925
151.685
108.55
42.0095
2.34116
2.78373
10.3115
24.5831
25.2911
17.8759
15.7972
11.3434
4.55779
13.1694
8.61012
3.14099
3.13464
16.4332
6.14401
8.64101
29.8986
6.50832
6.7315
4.15446
34.6681
138.794
0.40578
174.353
264.712
4.9597
1.14614
4.86814
11.4483
33.5275
19.5287
3.33166
0.329693
7.55557
1.46471
40.116
1.64983
25.3087
1.45243
25.9798
28.334
2.83365
28.0677
2.47039
3.29128
2.77936
15.7814
13.8287
5.43965
19.0359
1.11871
18.8977
23.2958
4.49708
7.67248
21.4588
3.07313
33.7641
10.9103
37.1285
5.37368
1.71653
35.9515
62.3882
14.5054
39.6539
13.3919
10.9384
77.0618
25.9441
150.448
0.581623
11.4338
5.83674
1.63926
27.0483
4.233
6.93711
5.79824
137.686
14.3147
2.77553
17.294
26.6945
3.38722
34.7031
3.98924
10.3375
23.4318
5.30734
1.81434
6.73201
8.99565
10.0584
9.1945
72.6457
4.43963
5.24894
17.5568
6.94092
297.067
7.52813
5.49209
16.3522
4.155
1.45854
1.78263
18.5417
9.31402
70.3697
12.6456
14.2464
34.7164
16.6653
8.03261
10.6725
16.7947
26.5076
125.469
4.18801
36.9674
6.3423
23.5675
14.9091
2.80841
9.16063
9.45207
21.703
312.554
11.6032
4.03698
6.63452
22.2668
43.1523
8.44233
15.7169
4.08732
2.52331
47.3798
1.13468
5.93124
2.80251
5.27877
2.78658
4.23543
3.37887
28.0169
24.4732
68.8474
23.6337
44.9263
15.4841
93.474
2.04752
12.396
40.9575
28.1666
21.0951
1.10009
2.32279
37.3135
5.32408
91.0949
12.6831
3.79346
2.04014
55.6172
4.85982
61.8515
37.4255
82.112
2.10353
5.91849
4.89581
7.11359
23.7722
7.9505
7.45145
1.45526
18.7646
5.02242
2.83592
6.02661
34.8944
196.374
33.3702
8.02693
11.275
8.04899
1.17008
34.6953
0.574846
49.0597
4.06933
9.89689
4.50717
4.85598
126.942
12.6235
13.0253
1.52211
2.23014
10.5682
1.39832
21.4699
0.758869
26.5754
2.98302
87.4962
11.923
4.19552
1.02198
2.41473
11.5849
47.4715
15.0729
36.4022
3.56698
7.60844
2.53928
3.9406
37.5242
103.108
34.8401
9.79624
3.01114
17.2602
3.67063
8.14394
9.1569
15.2864
16.7892
6.47857
9.13827
4.6405
6.44924
2.1849
2.52821
39.5157
8.6734
20.8033
10.0743
6.07511
4.45367
72.1513
33.8432
15.949
16.2627
4.26173
21.8459
31.9455
33.3126
4.44327
10.8076
2.93145
0.84786
7.10491
17.0784
83.7959
0.645372
53.4936
17.9344
12.3995
9.13025
6.87561
4.41834
16.5816
9.71751
3.53867
16.9055
20.7037
13.1238
19.5442
6.14885
203.131
6.21934
13.5394
13.4227
19.5037
32.7908
11.04
2.85088
11.175
11.9479
7.81326
6.17696
8.9926
15.1153
0.443992
35.5316
4.0947
0.837493
4.22859
1.19982
2.32748
7.0061
8.7431
13.4024
17.973
3.53424
18.6442
6.46737
2.2102
17.557
3.18147
8.69463
181.57
9.64902
14.0012
5.78618
4.75074
21.1387
15.5102
8.10315
4.82782
22.531
8.32781
24.4928
10.1468
2.61025
6.74875
21.4739
67.639
51.4477
6.41887
37.0455
129.553
3.76235
7.94444
2.24738
7.2534
10.7256
84.7894
32.8277
8.39083
10.5661
11.7832
7.42457
6.03722
7.19692
6.66077
70.4335
104.604
104.882
4.06465
19.5325
27.1549
13.1004
32.4746
201.098
216.96
7.57637
5.96321
0.784871
26.3545
0.670131
8.57509
5.66497
15.825
93.91
2.02686
1.80486
2.49867
2.41931
24.9615
9.53016
17.5111
1.59795
0.948111
17.7294
59.7414
5.37687
42.4752
1.48148
11.703
41.1509
75.1339
14.1425
15.8309
10.4432
18.9405
2.18231
2.81522
2.76213
17.0125
14.6947
1.51437
6.48592
6.90437
23.3383
5.34557
12.6467
1.38188
102.694
1.58137
0.42508
53.8838
25.941
27.6278
2.27632
1.16835
0.661076
61.326
9.71886
8.87214
66.6612
24.1822
8.79463
69.028
2.77229
25.3146
52.9327
2.43787
205.058
131.377
43.3228
7.73676
22.971
1.22835
11.5463
2.93679
3.84728
5.14216
40.0025
20.1668
128.004
19.1197
12.3094
2.23373
44.8428
11.5197
15.3803
4.53924
12.5304
4.02226
22.9668
9.20592
42.1926
24.5442
1.15174
6.67121
2.86622
6.90076
6.54745
5.82944
14.2796
10.0001
0.603629
7.80156
10.6988
19.9056
44.5004
148.464
1.15327
37.5317
10.4661
0.623447
5.85001
6.93977
29.2203
59.2163
21.0685
11.2278
62.0071
20.9469
6.3955
12.1357
19.6237
3.47947
10.1178
19.0547
33.6574
6.34331
5.69766
25.2302
3.30249
1.8744
0.365887
7.09228
8.32236
87.6323
2.62911
4.39791
54.1146
84.9239
1.31519
48.2143
23.9964
44.6689
76.4754
86.6479
5.75804
3.4335
4.08524
38.8416
14.9068
14.3135
5.57098
22.6684
21.9758
3.40334
8.97465
20.651
6.17307
7.82255
2.94126
1.6686
60.6563
5.87835
4.61992
56.5723
5.11681
45.7736
2.36916
10.1916
2.52254
9.70575
178.79
17.3075
1.97759
36.3676
7.72429
11.4629
66.5219
5.66333
1.93471
8.65946
14.2825
6.17241
0.822896
44.0742
11.6191
13.2366
0.495032
18.924
1.44884
0.721355
24.4463
13.5746
6.63574
3.14665
7.50421
1.20858
4.59273
14.0673
10.0604
3.16681
39.1248
2.44322
4.59361
1.18066
26.2322
5.03473
23.185
92.3387
7.84099
30.6935
7.86544
211.062
7.0966
9.3659
1.64162
2.90412
3.26771
40.36
28.3174
4.28208
42.3388
33.4206
16.4716
3.50973
8.82848
84.3117
5.5236
41.4747
31.327
6.82755
1.82096
38.3804
8.87597
2.1291
4.09964
50.238
4.16772
4.23709
4.3615
7.29646
10.3416
4.29215
10.345
52.789
4.46779
94.286
9.72821
8.3688
23.6613
29.3323
2.47787
28.5899
2.14007
286.438
8.36958
58.1799
3.77347
4.42972
5.23454
17.076
3.51401
1.81854
10.7249
2.32131
28.1815
5.67972
3.14707
26.0724
32.8337
11.187
1.7708
17.2729
0.831566
52.7833
5.19094
152.572
2.81151
0.607968
5.36791
11.7936
33.2939
6.59031
46.5971
33.3337
5.33004
8.7261
2.71252
39.1629
158.402
13.1221
15.9578
7.25036
2.35735
12.0572
0.632448
117.551
21.139
16.7121
24.7661
5.00589
19.0328
16.2912
13.9656
1.37707
7.31703
7.17325
23.5461
3.13721
4.95772
53.2435
122.292
0.899535
35.6855
16.5721
7.34589
5.39123
46.4527
177.02
35.0494
8.00295
44.9197
2.48702
27.1129
79.9316
17.2613
1.40759
7.386
7.7373
1.28122
5.15737
3.56478
63.8478
0.388107
8.87263
5.54622
13.9856
5.19228
6.58683
3.47101
4.11453
3.32472
16.8897
11.7724
8.42091
64.8185
12.5553
7.44632
2.80206
5.51151
51.1315
6.76831
7.99214
2.30441
9.97579
0.482838
12.8704
0.747023
26.9806
20.493
34.6072
7.93805
19.8999
74.959
1.39119
77.6908
11.59
54.3633
6.12678
3.6312
6.68261
11.8346
22.8989
119.032
10.8696
5.20709
18.635
7.48359
0.473484
12.1873
68.4722
28.1111
8.582
1.22361
4.96063
0.857701
5.17224
27.8393
3.28735
2.74832
272.709
11.7569
9.48394
30.6894
24.3401
15.5198
14.4045
10.7787
2.69666
3.94418
13.2706
11.6785
4.24068
2.7936
29.9992
6.68659
85.8379
0.484211
7.55504
11.8751
2.38601
7.61195
2.55629
2.96563
8.90401
5.74704
26.7272
1.61755
10.3137
52.2802
6.24214
1.20345
14.8448
3.4782
15.1655
7.32704
8.13447
5.46172
5.49956
2.98939
6.46569
105.194
22.5682
8.46695
18.9713
6.31327
54.2733
8.52748
33.3076
3.39639
19.2202
47.0717
39.4278
28.8919
5.38052
7.92087
150.487
7.7552
2.77384
8.56598
226.536
1.47505
13.4369
30.779
1.14017
15.3683
2.55837
4.87112
12.9226
18.1851
8.56591
23.0172
8.38624
18.4165
31.8496
79.7326
4.02052
5.01594
13.4596
52.418
55.5252
6.53331
12.845
5.63015
5.31248
17.3062
3.88889
104.589
59.9688
1.5158
64.0122
5.68706
10.8921
5.2619
26.3391
18.6069
7.45592
8.88394
7.32263
16.6992
12.0083
0.791671
3.08066
111.179
1.0431
10.6149
2.247
7.07521
21.2256
22.4921
6.5166
35.7796
1.21668
50.6383
2.62235
17.5406
4.23113
8.88968
30.2474
22.7117
2.29705
1.27623
4.91477
4.22439
17.8305
63.4597
9.13077
6.3307
9.23274
30.6917
4.71489
38.4304
8.56093
0.74221
125.75
11.0053
1.69497
3.63087
1.27784
9.72847
13.3321
6.45614
5.37556
2.94589
38.5682
19.5442
51.9823
3.15088
8.14439
1.74909
31.1107
4.84224
22.4324
8.72666
20.0641
26.1853
4.54922
98.7195
44.5257
26.1235
50.432
1.10891
3.86132
18.6685
8.59393
19.2037
5.46966
2.41342
1.93432
17.0005
1.64609
34.0617
0.584325
1.87925
214.527
11.8004
29.4323
1.22495
3.70269
2.73141
13.8011
22.035
4.05076
17.3558
7.08841
2.40647
5.00965
20.9888
9.99748
29.5149
8.83844
116.544
7.89255
1.5949
7.36455
3.87397
190.29
76.5376
51.0406
208.588
25.1951
2.94599
0.692336
6.20799
8.00487
55.8156
23.6446
2.85137
0.919401
28.1704
9.52465
3.73726
12.4775
37.9256
5.94835
3.5956
14.2792
14.7582
5.74887
20.4787
1.62156
5.22047
14.702
5.99451
0.413676
15.7734
4.93334
2.72963
12.1539
8.87852
5.77401
14.8319
77.159
6.0952
21.0487
3.24955
40.6004
0.911527
2.13594
40.7166
6.31646
16.815
0.805391
0.307016
24.9115
2.44252
16.734
26.3944
62.1326
3.18752
34.9686
32.6345
1.78425
4.27777
13.6982
1.94712
6.7514
53.6206
6.12238
4.19691
17.207
9.21502
14.4287
1.60884
7.48825
18.3599
8.10697
2.87083
5.68348
6.31978
7.15637
14.2423
13.2968
19.0867
3.50064
23.3845
29.9884
0.683083
7.72503
1.55179
3.78637
51.7003
21.1867
8.85187
118.963
8.6687
2.63118
11.3242
9.19195
61.4295
4.17889
3.96675
1.34761
33.9368
24.6807
0.52855
25.1523
12.4022
2.40914
7.73151
10.2898
89.6069
99.3514
19.4101
147.335
8.39377
7.98995
8.17922
8.65091
8.6672
19.2328
7.76975
3.85574
8.37747
6.8928
0.820462
66.7663
6.51391
23.1188
18.352
8.67843
7.94218
7.33506
4.94135
7.45206
1.81493
8.58899
19.85
7.45636
7.55955
1.53651
6.83456
4.12754
0.58351
17.7759
2.42107
10.513
146.524
6.68532
3.4998
6.57642
37.7506
18.3923
1.97762
24.7769
17.089
6.26964
6.31881
1.6907
2.38443
4.23417
3.66969
5.60124
1.67382
2.71835
4.10763
16.0365
6.2065
100.718
118.234
6.0473
8.22798
9.23036
3.95614
0.358325
17.7448
25.0259
24.1286
21.2396
11.7743
5.16962
0.471869
2.49889
4.23202
54.9071
11.4506
23.6768
49.8758
17.9855
25.665
8.44806
23.7048
9.14231
7.44505
62.9024
46.6856
9.8275
51.269
46.7313
2.36935
6.13293
4.79727
6.40465
6.04132
33.3588
17.8269
6.38099
1.96246
29.149
2.941
3.30469
7.60875
26.7488
5.29169
12.8073
17.6469
16.8408
5.00589
7.20736
6.04897
1.7533
28.7632
4.33243
23.4874
4.35706
1.58587
13.9756
8.39571
6.24174
1.21576
46.5339
0.800381
9.78566
1.82796
25.6442
10.688
5.20207
86.9727
4.276
10.1813
6.93002
4.45514
15.6349
2.26481
10.1497
27.7988
1.71479
3.36365
1.04753
5.74918
15.7572
20.4473
20.3076
2.77444
13.1116
2.02096
23.1736
3.04084
5.06357
0.475671
5.17164
1.62947
19.6041
0.599147
15.463
10.3604
3.75895
25.0593
9.78652
2.03957
229.743
50.9083
58.6312
7.11229
8.61478
1.32179
10.9181
3.81985
3.18325
244.25
65.6961
2.96079
2.17583
2.60283
5.55653
6.0108
0.66104
9.41624
12.0523
62.1883
9.84877
0.43999
21.5968
7.04282
8.59864
54.0381
1.23489
3.5686
152.777
9.96136
18.454
5.94237
22.9832
11.3201
86.0079
2.0601
8.51158
0.362185
13.9053
11.58
8.61064
2.00573
2.31122
10.8244
93.2073
29.7552
47.9717
3.67383
6.47133
11.728
29.5122
13.5023
92.5029
24.4463
3.25596
9.06527
6.72396
4.93891
1.86127
28.4475
9.55811
1.98443
12.6772
14.4768
29.3747
24.2141
26.8494
4.31995
7.4806
37.3796
62.8395
0.614399
1.10225
19.9783
3.69172
1.61654
268.909
27.2829
1.51802
4.71147
6.15872
1.34893
3.23661
3.85118
4.59752
106.043
8.10176
15.7878
57.5439
10.8873
2.25528
9.8732
19.8942
85.8997
70.331
5.59093
28.4812
7.17741
12.8006
81.9944
32.4932
7.34315
10.1328
2.53755
34.5183
203.473
39.6119
5.82482
1.88504
37.4954
3.21213
3.44333
25.6148
26.1829
4.57125
2.69185
46.6527
22.2606
10.8111
11.1517
25.0426
3.62565
2.18522
3.31631
3.17001
20.5249
69.6704
2.74094
8.32325
51.7229
6.12553
25.717
10.5559
5.38196
12.9593
6.18256
73.0771
7.23285
2.98042
6.98061
4.02648
50.5405
4.88401
3.50194
2.36884
24.5718
4.08946
16.3313
5.90155
6.26356
24.2706
10.4105
2.31333
1.252
1.64731
3.48794
5.87997
96.2798
121.224
1.1596
101.098
13.7089
1.33607
8.36986
4.26937
12.4064
12.7282
3.75817
1.36542
1.5003
15.7856
9.55706
83.8603
15.6083
62.3755
7.54394
8.64258
13.2566
4.94589
137.295
26.9351
3.81906
30.5852
39.3197
1.82708
19.2275
10.4124
11.6538
8.50822
8.74372
18.488
161.804
36.3295
95.2079
1.08316
3.01481
4.1644
0.540105
36.7771
23.5408
10.7198
37.6578
25.8897
9.6474
129.21
2.6158
7.45394
35.4597
45.2584
58.1437
106.267
6.09139
1.42335
12.9546
16.2812
9.323
4.87024
1.91228
8.7937
0.920556
1.76895
6.41617
19.3304
6.94122
4.72791
9.23147
9.35273
5.06946
87.0516
41.5754
7.62927
188.134
5.80435
17.1968
45.5496
3.67529
11.9415
0.441511
2.82304
7.06731
11.7438
48.7983
4.36014
3.14174
8.03313
3.51494
64.0887
13.2558
5.87074
16.6585
2.04086
3.64404
25.5231
43.3487
21.539
18.0031
12.0467
28.1526
26.9512
3.68079
27.5198
64.8082
5.77986
37.3309
122.134
36.2175
8.05991
30.6736
7.40298
40.8958
17.9667
4.30455
4.56372
6.23922
4.50918
2.23495
6.11571
7.0177
2.06778
2.17944
221.405
0.42319
8.85649
23.5463
2.95574
2.00042
17.1367
2.49039
9.06599
1.47704
0.762437
1.51787
11.3171
47.3831
2.45889
2.4319
9.324
1.44744
8.37737
12.6124
7.87539
3.89706
28.5068
35.8842
8.47457
19.8517
154.596
56.9347
59.216
2.76146
6.99729
4.76902
14.6511
31.9051
2.6084
3.71482
48.9092
5.42792
1.57802
8.70537
25.2628
38.8563
12.0432
2.38192
8.87749
0.907045
1.69079
8.37983
16.2284
64.617
46.3411
7.05388
12.9108
5.17498
2.5954
1.74439
0.348558
4.09259
26.5514
5.16247
16.3001
17.9783
2.02074
18.4779
2.8303
22.7167
7.76401
113.206
6.67145
82.902
4.8619
2.60007
18.6474
3.41629
7.27605
21.6616
48.1521
4.2964
63.4255
11.682
82.0879
21.3764
7.39089
28.1822
2.87988
58.4505
20.2508
7.74943
3.25632
30.7335
4.84208
3.0699
75.059
1.93303
2.49637
3.6839
2.87851
14.8881
4.60955
2.63412
24.5105
1.89847
1.86544
2.0124
49.7364
24.245
1.16182
2.40059
0.766403
108.577
9.39285
72.7829
37.5192
3.05616
5.31016
26.6103
3.40427
1.49658
21.1674
1.11767
69.6798
2.75505
13.5945
11.0368
6.96933
67.7788
6.75638
22.0835
28.1992
21.3829
3.5051
9.37949
81.7916
191.297
10.4401
0.506389
42.8993
3.36653
180.517
12.9157
22.0942
18.7862
3.70132
16.3211
8.52157
33.2772
1.27702
2.64145
3.31533
6.75202
44.9375
6.76049
46.4885
3.25183
9.21507
10.1972
6.01012
2.33602
17.943
2.08033
19.2143
5.91968
59.2868
22.3102
20.1606
3.40313
18.5612
4.5922
14.9869
17.3234
4.46161
15.7921
20.7644
30.1102
39.4324
24.8207
67.6358
0.370974
1.91878
76.1626
3.38253
3.34929
7.48328
11.8471
24.15
3.28947
93.3401
48.846
111.977
8.15854
0.386612
16.6092
2.11205
49.0841
22.2879
1.83386
6.90228
16.7265
4.47057
5.72106
14.3477
7.9356
34.9534
16.7645
12.5206
1.46194
2.0519
3.16719
2.04134
218.547
4.70706
0.424218
0.907093
3.14543
1.72504
21.4998
3.92964
4.52125
19.8264
77.5037
5.68923
15.4585
0.530227
6.00911
106.407
8.38689
9.46986
1.45639
9.09477
6.51245
21.1145
7.57279
6.73475
5.74046
38.6935
27.4452
3.72434
29.3873
25.0569
14.9813
8.09893
1.30785
9.63113
15.6067
11.1941
0.784704
19.8659
18.6235
3.54232
22.7218
2.85477
30.4341
32.477
23.5426
21.9084
10.3503
2.07913
0.445458
3.22783
92.8112
6.836
0.951279
3.77048
6.89497
85.0934
1.58278
6.15683
6.88502
3.29475
3.9074
2.45486
4.62988
60.1191
8.26456
80.692
7.559
6.86127
331.979
9.34351
2.19149
10.9509
33.6498
3.87389
17.5465
4.80836
9.01569
18.8902
0.491826
3.01329
36.6825
27.5908
1.25931
5.92873
12.826
3.75455
27.9393
41.3927
16.4035
4.60184
56.5416
3.45754
15.0279
10.1261
10.6385
9.84809
2.37764
41.5366
31.3239
8.23851
15.6538
1.89547
2.22855
13.2544
3.05144
105.798
4.75671
32.8434
1.38937
22.1663
59.3087
36.9114
1.38957
39.1925
72.6804
28.8376
5.22472
5.22052
18.6619
16.7958
7.82135
1.7617
38.9098
14.3186
2.49508
10.9218
8.87822
28.3625
3.81474
2.2636
5.86869
2.99767
0.604102
3.42776
3.37281
12.8679
12.6758
2.03729
5.20478
47.6699
15.943
17.7991
8.93675
5.42287
0.403426
2.20409
6.30156
22.5136
12.2779
24.5666
38.4977
12.9397
1.50496
4.64752
7.74092
52.7539
42.3196
2.66447
3.31677
3.56169
28.8571
1.60239
0.924974
6.35414
22.3012
44.2615
80.8763
104.191
1.54075
2.73256
13.5522
181.275
1.94091
8.99672
25.5062
2.18414
13.6572
31.9984
8.73936
4.84335
3.78242
16.7389
4.71534
10.5063
1.04502
4.50102
33.3711
13.3306
7.18614
9.94955
5.81276
11.2075
12.8977
9.02431
8.86715
1.27668
5.53866
35.6523
3.93464
7.18456
4.59225
2.06827
36.6665
126.389
3.03844
16.0052
42.4613
7.28145
11.9556
10.6826
0.767638
13.9206
4.66823
11.6365
17.5941
2.43667
35.412
7.74358
56.389
9.83314
7.38777
31.6329
1.29025
9.54702
8.31763
4.81291
9.33025
11.4867
1.39097
43.4855
0.723023
5.88725
7.61085
8.64369
83.949
4.89048
7.23012
6.39055
7.11976
101.033
55.4821
3.19853
13.9445
1.49214
18.3033
17.2913
3.56204
7.76178
6.06217
15.1449
1.18049
1.60065
11.509
12.5763
7.37775
6.54341
12.9598
18.54
5.90148
6.14791
1.14447
5.86572
22.0658
1.27792
2.23448
6.13159
6.73334
11.3221
12.6365
9.2362
4.46871
8.23285
11.0189
3.3858
12.7539
8.14127
4.59793
73.9924
20.0532
13.929
11.6377
5.19605
8.36113
3.59304
2.98977
9.48613
7.27788
46.6891
4.87806
7.53308
3.53655
22.7155
10.1405
6.61595
8.43409
13.3588
33.9923
2.1015
35.7404
16.7485
1.60975
6.52785
27.4353
17.6105
17.8146
10.7914
3.3156
10.4733
7.68826
51.465
2.23651
4.87097
1.54952
8.46631
57.3014
4.18872
5.38876
0.568099
7.38353
70.5484
9.27154
9.73405
15.4956
9.57996
22.659
8.58223
5.14815
1.7273
40.9562
29.0954
0.729063
3.5816
8.97235
22.5065
0.696161
21.6952
167.718
10.3652
15.5335
3.43281
2.86765
0.935582
1.20432
105.921
32.2959
2.23748
5.08608
10.5418
2.53706
107.141
4.58604
5.35227
85.992
3.87839
28.8855
20.1525
1.23592
0.609928
11.4638
18.5673
6.63202
5.37775
23.6375
18.435
14.1813
3.24707
49.3924
2.56536
5.52854
11.5497
5.01522
21.7069
157.619
0.418051
2.36814
13.6564
13.3344
4.42338
5.52887
18.0081
16.2109
14.5561
8.85414
53.3989
24.1668
2.38208
22.2009
2.59721
12.5724
146.934
47.3146
2.73107
6.28127
13.6319
15.482
13.1901
42.5401
42.2303
21.3418
7.1427
39.3164
10.9511
3.7421
0.4708
6.76159
6.19429
9.3559
12.3239
16.1732
1.85174
2.24321
15.6506
1.11453
2.65878
4.47623
6.12215
7.71778
18.7938
29.533
2.88769
7.28384
3.59183
3.80538
8.01788
17.3795
7.14555
3.66784
2.01668
2.7487
20.4539
1.18046
4.3323
4.64854
6.95479
37.9227
2.33031
8.01018
2.66141
23.1993
77.6015
20.3114
66.6273
2.63086
7.59441
33.1309
1.33828
44.6811
3.66249
3.31442
34.2488
10.2165
9.00668
47.9607
17.8556
3.56612
15.6765
11.1456
57.2071
14.4119
7.61868
10.6116
7.0766
12.7794
2.8569
44.2576
177.708
0.962353
0.976072
72.5722
19.6559
41.3964
24.9767
189.483
39.2686
7.90192
24.0236
11.8534
97.5988
9.96727
29.4559
5.93607
1.07982
32.1992
42.1681
22.5006
1.7363
11.1201
15.3208
2.56995
17.2659
11.6052
12.6099
0.834397
138.056
7.8092
16.1905
24.3292
19.2787
66.6879
11.1926
1.40781
14.0374
3.13783
2.41389
7.33217
5.69721
2.50919
32.4278
3.47492
11.6235
14.419
9.89499
22.9929
20.2702
80.358
42.2766
46.2677
38.6615
1.95512
11.4073
2.71474
5.8841
15.7316
5.61154
51.8155
31.6675
2.17116
9.69301
0.500446
22.4133
16.304
0.54444
0.716311
15.313
154.745
99.7242
2.64997
54.9872
2.56681
2.9298
15.8053
4.35945
153.654
1.01471
87.2798
31.1351
14.7384
6.77619
8.32487
7.43007
2.46006
7.96198
12.0537
29.9698
112.298
3.19899
4.75028
38.5385
13.9852
4.64572
14.5954
3.02015
4.07279
21.4733
11.6621
8.01491
7.36461
11.2879
1.01685
6.46981
4.79559
6.25325
17.3786
0.643869
16.4862
34.4164
16.4175
6.0074
1.06407
13.3523
27.0422
4.33224
14.522
3.73611
15.99
3.00669
36.5153
11.1052
1.74047
3.79627
26.26
5.36874
7.76177
1.15558
3.56263
13.4526
8.27423
6.73461
17.4352
14.3639
41.3653
3.67323
7.25241
22.8589
3.17071
116.318
6.98607
1.81683
16.1787
3.11105
60.5524
12.3507
3.06116
6.61566
48.63
7.17788
25.6721
1.57726
2.29051
3.67921
32.8899
124.669
10.8359
38.2338
9.87317
9.05998
24.6181
45.8003
3.77012
60.2587
10.8823
9.74091
22.002
9.82521
3.92601
14.3605
6.36361
24.879
18.2772
17.886
34.9396
54.2508
11.9812
1.60221
5.32135
4.87641
10.6359
1.84923
37.2311
8.76498
17.5538
1.51443
13.5466
8.07591
38.6977
70.6203
148.636
2.28309
2.61616
4.80023
49.5901
4.73401
3.28449
3.37795
3.4918
12.0822
6.53111
9.75625
1.90036
5.46089
3.49109
10.7518
17.4375
13.8652
7.07846
28.0519
53.4571
3.16351
19.0897
5.83667
20.6269
9.33925
6.86233
6.93487
0.915344
0.444673
1.85174
5.353
1.24978
15.6463
29.2294
27.5437
36.6165
25.0673
2.89919
2.95758
3.23473
3.08755
10.6301
21.2644
37.0591
2.89487
24.5828
6.83217
0.671358
4.67872
0.61395
13.2149
20.34
81.2095
19.9511
10.5834
80.1906
3.00285
10.4692
27.3297
15.7041
4.05512
0.614119
6.55439
37.6437
0.762084
23.677
21.1158
20.2779
8.4009
10.4681
16.2314
34.0905
83.1132
15.2492
5.23117
3.28491
14.5198
13.6291
48.9077
1.66362
3.873
3.90715
121.433
34.3772
0.905365
6.98255
8.7236
6.55635
3.26572
8.26036
12.4119
76.7032
25.0016
22.4121
4.35194
15.5093
5.42079
16.5542
5.07806
29.3363
249.067
0.46335
40.695
6.35169
59.8802
5.13487
26.2249
12.5774
143.541
24.804
2.96646
23.4754
6.40095
8.73749
23.7213
50.2769
2.53263
31.7529
88.8335
1.33579
0.488353
38.2358
1.86713
8.32504
4.73247
11.9306
9.7744
6.08355
7.59094
39.1395
19.2446
61.6003
6.09571
9.81482
10.7057
23.2208
11.2369
11.9756
26.4484
79.8025
9.35032
34.7294
13.3612
2.39409
12.401
15.8378
36.4705
2.19447
101.017
4.12449
8.79291
3.66869
1.5973
7.8029
35.0415
10.3249
22.4127
5.34982
2.14857
1.26582
5.72642
5.80588
6.45989
2.16742
7.14151
2.01994
33.4011
8.82455
4.06152
6.74969
8.13039
11.1676
12.0382
51.1642
7.06492
42.4209
4.41248
5.43614
44.237
5.76632
1.21469
102.175
2.13679
10.1233
2.63287
12.1822
5.24613
54.0025
0.505355
2.86542
23.9084
41.0815
5.67697
78.2899
52.5881
2.08699
3.64142
17.8177
25.5829
7.73254
12.1171
0.543239
0.949394
2.26522
13.9571
3.97011
11.7391
96.0038
3.83717
4.00176
2.27859
2.0949
7.83111
5.39099
12.2877
13.5877
10.3371
36.6898
1.51815
24.5909
11.4349
3.53006
1.4634
12.9954
1.50766
11.7283
4.23862
4.28097
161.187
15.2951
7.37897
52.4113
35.6367
2.9281
1.81135
366.965
6.28802
25.19
0.443466
97.3015
18.4847
1.01545
47.7824
20.1364
133.648
87.0275
