4.8826
4.96354
4.67506
5.24274
5.41836
6.23495
6.39214
5.57057
5.16446
4.3615
5.50093
5.13074
5.49779
4.97803
4.73804
5.10533
5.74186
4.7774
6.59675
5.3568
5.38184
5.09303
6.18181
4.83855
5.31888
5.42298
6.24744
4.9813
4.61819
5.75644
5.07277
7.76782
6.06466
5.41197
6.77485
7.12028
4.68909
4.5866
5.11345
5.69418
6.69121
5.17368
4.63994
5.82423
4.92522
5.9972
4.81055
5.60386
5.93877
5.50555
5.59652
5.17224
4.54024
5.06953
7.20048
4.7002
4.7698
5.37318
5.38347
5.71407
4.84639
5.14624
5.05572
5.00566
4.81805
5.78083
7.0279
5.01794
5.21776
5.82589
5.72375
5.25199
5.34101
6.33201
4.94691
5.38344
5.20165
4.199
5.08737
5.57102
4.61838
5.6668
5.72392
5.42216
6.72353
5.29313
5.34028
4.85982
6.10227
5.07054
5.85177
5.2539
4.8347
5.19988
4.9221
6.12218
5.32809
4.60222
7.00215
4.85521
5.52629
5.12536
5.07931
5.36144
5.50124
4.57497
5.47001
4.94322
5.13629
6.88548
4.53225
4.46615
5.96006
4.87635
4.9623
7.27357
4.39466
4.94967
5.94537
4.87893
6.47545
5.50264
4.39789
5.09746
6.20293
4.63042
5.20843
5.05288
6.52049
4.51677
4.42073
4.55633
6.03903
5.51669
4.46235
6.86466
5.24744
6.40074
4.47473
4.41033
4.18327
5.25296
5.19363
7.8144
4.99215
7.78846
6.48084
6.43537
4.87747
5.32664
5.17904
8.03113
4.67151
5.60721
5.20384
6.35216
5.38485
4.82602
5.85745
7.00213
6.4189
5.46692
5.10395
5.37339
5.36828
4.8771
4.5815
6.58549
5.43536
4.95726
6.04971
5.65023
5.2451
6.72455
5.62781
8.32152
5.11604
6.27106
6.45207
7.06761
4.97661
5.1891
4.84128
5.00319
4.5915
4.25106
5.00218
5.03132
5.60797
7.02528
6.49766
6.14275
6.4391
5.52729
4.85463
6.20023
5.12056
5.92016
7.22778
5.6896
6.31293
5.42322
5.54797
4.89457
5.53228
5.2079
5.09415
6.23299
4.87748
6.03423
7.9321
5.47094
5.47905
5.10128
5.50892
4.10462
5.31332
5.33791
6.06898
5.52774
6.53331
5.22498
5.08587
5.38085
5.72236
4.57009
5.85687
4.67454
6.51258
4.35056
4.99495
5.03781
4.92847
6.07127
4.97987
5.97316
8.66748
4.3708
6.67608
5.30245
4.66616
4.82263
4.88376
5.58013
5.18628
5.88576
5.39176
5.33085
4.63303
4.98105
5.01603
4.76724
4.54104
5.19631
5.18638
6.29293
4.95736
5.12028
6.77678
5.24491
5.74272
5.60239
5.21906
4.85959
4.77107
5.94836
5.09142
5.01569
5.51964
5.61873
8.34019
4.43819
5.73245
5.71912
5.40405
6.21533
6.33638
6.08658
5.59523
5.178
4.64807
5.68947
4.60665
5.21976
4.80587
4.60563
5.90901
4.87321
5.32932
5.27488
5.14908
5.37207
4.69747
4.79137
5.16794
6.02066
5.30978
5.05661
4.97325
4.91508
4.33292
4.93098
5.53676
5.49216
6.13201
5.78083
5.36947
6.22751
7.19725
4.57255
5.68468
5.33055
5.56265
5.01695
4.879
5.10743
6.69654
5.0415
5.57247
6.07695
5.66437
8.54432
4.43231
6.43988
5.53934
6.04203
5.27374
6.41706
5.61909
5.46492
6.42834
4.96949
4.33452
4.85219
6.38106
6.55967
5.7995
7.08976
5.51398
5.09373
5.13622
5.28348
4.67622
6.01756
4.88439
4.13308
4.93828
4.57067
5.85728
5.01244
5.51827
5.12764
5.52334
4.86861
5.39152
5.17524
6.12443
4.81332
5.41293
5.66762
6.45807
5.42461
6.90699
5.23933
6.40968
4.80765
4.97556
4.57478
5.11647
5.77598
4.82456
5.60566
6.14134
5.86726
4.64032
5.09404
5.72142
5.44072
7.50545
6.11982
4.38548
5.42481
5.36382
4.86658
6.0215
5.18905
4.9117
5.49263
5.67384
5.71436
4.71498
4.86945
5.54578
5.52987
5.06962
5.01035
8.02769
5.07559
4.96418
5.4454
6.51854
7.30926
4.84008
4.4573
5.04766
6.17872
5.44543
5.78934
4.92576
5.53376
5.04502
4.95914
5.41414
5.49913
5.05869
4.59685
6.85088
5.41961
4.90884
7.95999
5.07229
5.42379
4.99384
5.40011
5.13495
5.47368
5.08881
4.41917
5.73829
5.64558
5.22555
4.91233
5.83059
6.49818
5.48475
5.36735
4.68516
5.72906
5.5021
4.79068
5.78726
6.06694
5.76255
5.57976
5.12003
5.72372
5.41845
5.29505
4.98086
4.79176
6.56424
5.48511
4.50586
5.16827
5.0552
5.1044
4.72734
4.96343
4.35338
5.13578
6.30412
5.83455
5.78015
5.21812
4.76212
4.93797
4.88356
4.71416
4.98493
4.82263
6.74957
5.06104
4.58384
5.68649
5.84235
4.91011
5.32992
5.35579
5.32524
5.33149
4.98021
5.76181
4.7875
5.27888
5.20375
7.16251
5.41002
4.84145
7.36985
4.66297
4.59674
6.35348
5.14024
5.69066
5.43277
4.9771
5.44843
5.99853
4.79354
5.62635
5.64629
5.32171
4.53907
5.48206
4.44127
6.1628
7.00965
5.11012
5.14265
5.18449
6.00951
5.86099
5.47671
7.26495
5.63589
5.26161
6.72634
5.35718
5.0017
5.1241
4.78525
5.14123
4.79657
4.68308
5.55332
7.67839
5.68924
4.78937
5.32752
6.76694
5.5054
5.92535
6.07644
4.92348
4.93744
4.91057
4.76758
4.63079
3.97938
5.78897
5.2571
5.76258
5.01255
5.5116
5.71395
5.4948
4.8117
5.00656
5.09836
5.24224
5.43798
5.14221
5.47366
5.002
5.43772
4.91915
3.96068
5.64507
4.77753
4.75627
5.50054
4.83829
5.39695
5.8655
4.55292
4.97024
6.21426
5.38799
5.50323
7.05062
5.89473
6.09208
5.35387
5.19005
4.76974
4.57686
6.47701
5.06465
6.13103
4.96897
5.77252
4.62428
4.82623
6.13591
5.6579
6.07094
5.46059
6.5262
6.564
5.36532
4.9887
5.55835
5.16603
5.51405
5.4935
5.57019
5.7626
6.22281
5.39237
5.02529
4.55578
6.82216
4.94525
4.98475
5.39406
5.76151
5.9361
5.22162
4.70092
5.69396
5.13641
4.69313
4.05386
5.2579
6.02942
6.23042
4.76947
5.39559
5.20948
5.13127
5.42193
5.33638
5.88477
6.84865
4.82982
5.59742
5.78404
4.70107
5.22132
4.99426
4.7029
5.6807
5.3141
4.65074
5.55368
6.10471
6.88939
6.79034
4.89826
5.67332
5.1555
4.80284
4.64736
4.46252
4.6781
4.80182
5.21092
6.21765
4.98262
5.38674
5.31341
6.85541
5.16277
6.14019
6.33448
6.84802
4.81476
5.02562
5.09721
4.88939
6.76077
6.69716
4.60104
5.44144
6.46295
5.06033
4.22538
4.85943
4.85415
5.44189
5.97982
5.51621
5.42197
4.9697
4.70832
4.8908
5.37881
4.8464
6.05066
4.93321
5.77341
5.04703
5.60452
6.47185
5.39607
4.74241
5.65502
4.88821
5.50716
4.95397
5.44976
6.4423
5.96809
5.00963
4.92298
4.32672
7.29288
4.76947
5.16515
5.04428
5.08969
4.79358
6.15895
5.37599
5.64351
5.79288
5.15785
4.53382
4.98278
5.20029
5.90235
5.61855
5.60596
4.66376
4.59673
6.71248
4.83886
5.1272
5.04757
4.92979
6.00131
4.408
5.99606
5.63258
4.51499
5.5452
4.36891
5.93746
6.01925
5.14882
4.81439
5.14087
7.04254
5.32824
4.87986
4.84409
6.41271
5.11401
6.46782
5.06619
5.61597
5.22184
6.51056
4.6669
6.84842
5.61374
5.35178
7.60819
4.57685
5.18844
5.33634
4.66285
4.54132
5.38376
4.74248
5.70442
6.30405
4.40611
6.99958
5.16549
8.71338
5.58611
6.78435
5.31405
6.49292
4.31749
3.97768
4.9962
5.95115
4.9799
5.82729
6.19324
6.98443
4.87006
5.10362
4.95342
5.24292
4.67023
5.06373
4.72502
5.89045
4.73486
5.93426
5.57857
5.55816
5.55543
4.95676
4.79278
5.53133
4.92578
5.42062
5.28474
5.54542
6.3978
5.4619
4.52916
6.293
5.53813
4.63056
5.85646
5.01437
4.60255
5.00088
6.02935
5.48361
6.03536
6.34987
4.4242
5.10898
5.97218
5.05912
4.89228
4.83068
5.99888
5.08529
7.08826
8.19898
5.85937
4.90434
5.29687
5.57683
6.36821
4.83737
5.12553
4.77532
4.69404
4.95504
5.4058
5.27962
5.27193
5.15069
5.33767
4.60911
4.72708
5.65215
4.9957
5.71423
4.78352
5.51331
4.87951
4.85182
6.95735
4.77373
6.96864
5.18151
5.78876
5.95876
5.15914
5.00469
4.46648
5.05922
5.35023
4.62059
7.90389
5.69694
5.71166
5.27161
6.22721
5.39798
5.97181
4.96052
5.03416
4.5504
4.56323
6.12539
7.52624
5.79102
5.47457
4.64167
6.1489
5.21386
5.62306
4.90286
5.20221
5.13178
4.97798
5.2456
5.0982
4.86821
5.18427
5.36811
5.18037
4.7424
5.89423
5.20766
5.16643
5.53581
5.59373
5.48766
5.76934
6.38729
5.67625
4.78576
4.95722
5.65789
5.01111
5.44916
7.23737
4.60664
5.42771
4.88232
6.69546
5.63077
5.77521
5.74223
5.09337
5.63639
5.54489
5.26442
5.42404
5.08691
5.84979
4.94874
6.84551
5.59807
5.91649
5.33569
7.09478
5.89067
4.80374
6.06922
5.51395
5.26611
4.631
6.52086
4.55131
5.03829
6.39546
4.72243
5.34881
5.15557
5.62448
4.96311
5.54552
5.21663
5.67875
5.28031
5.48172
6.76816
5.02013
5.24523
6.71643
5.07392
5.16706
5.07685
5.70562
7.30792
6.3409
5.27701
4.71148
6.53513
5.20152
5.79486
5.36885
5.4323
5.09033
5.83099
5.45403
5.32449
7.42175
4.9042
5.37737
6.14804
5.80033
6.01853
5.16464
4.91916
5.7467
5.93165
5.85968
4.73743
6.38934
7.53076
4.67498
5.96721
4.77366
5.14187
4.75962
4.93913
5.19957
5.73468
5.36879
5.01391
5.70938
4.77823
5.08731
4.82804
5.49642
6.23115
5.11258
5.37437
4.90973
4.51244
4.68281
5.6188
5.94915
4.8515
7.84622
7.39348
4.97833
5.45723
4.71403
6.92936
5.00582
6.6644
6.5976
4.90923
4.93832
4.58138
5.00635
5.51179
5.07625
4.48201
5.59301
6.22355
5.6191
5.30204
5.07907
5.92715
4.74215
6.60979
5.28341
5.94654
6.4828
5.45998
4.8609
5.35592
5.27613
6.06762
6.15982
4.41497
7.65724
5.49679
5.22886
5.26442
5.07964
4.83009
6.56768
5.81231
6.18693
5.9882
5.3883
4.93304
5.15998
5.16558
7.1049
5.45101
5.14784
4.0128
6.51611
5.50888
5.09403
6.78455
5.79399
5.54617
5.51124
5.48041
5.66286
4.53347
5.87752
5.0517
4.57676
5.14566
4.94941
4.86394
7.3334
5.36495
6.4154
4.90295
6.13561
5.77948
4.84852
7.43395
5.1922
5.49415
5.398
6.36361
5.13957
5.21985
6.64965
5.90591
5.58696
6.0084
6.14402
5.18253
5.7162
6.89572
5.26993
5.47098
5.55201
6.32456
4.2838
6.02719
5.54758
5.70089
5.00251
6.22481
7.17526
4.49517
8.2379
5.21562
4.894
5.65765
5.75716
4.69756
5.14851
5.02533
4.66975
4.96339
6.99635
5.47119
5.31609
4.55068
6.0453
6.0587
4.32552
4.79277
4.79365
5.75399
5.22312
4.62214
9.54763
8.70464
5.38612
6.63706
6.02801
5.14121
5.4672
5.02762
5.23233
4.50362
6.31748
5.52703
7.22594
6.00872
5.12217
5.42661
5.23566
5.18588
4.5103
5.26984
5.65391
5.5855
5.33467
5.24765
5.36765
6.29822
6.49781
6.04581
5.21278
5.65239
6.03406
4.94681
4.88377
6.94346
5.39853
5.67789
5.74972
6.06205
4.96377
6.56509
5.48053
6.19087
5.01769
6.11161
5.1309
5.27224
4.79328
6.00969
5.47501
5.12336
6.51756
6.6436
4.91082
5.35753
5.93251
6.87242
5.59911
5.1502
4.30712
4.56047
6.08483
5.33091
6.3202
5.1985
4.95857
4.98999
8.21383
5.84738
5.32543
5.81816
4.62443
5.31226
4.77826
4.56117
5.22271
4.23929
5.63671
6.15534
4.84739
6.80616
7.33859
5.58633
5.66541
5.26414
6.61677
4.60256
5.74199
5.6233
4.59583
5.52323
5.33033
5.48627
5.47472
4.53877
4.62992
4.73049
5.29658
5.70369
5.00481
5.82367
5.43522
5.56615
4.99645
6.16191
5.76883
5.69277
5.83692
6.10071
6.78775
4.15656
6.40063
5.75075
6.43192
5.42312
4.80868
5.9817
5.35228
5.00923
9.1207
5.58502
6.33985
6.31721
5.29842
4.6576
5.28553
5.90842
6.36844
4.86922
5.84383
5.46261
4.99385
5.00187
5.17031
5.48411
5.27624
4.95267
4.60723
4.82374
5.59434
5.51407
5.43333
5.87508
4.96249
6.00076
6.31006
4.73646
4.89724
4.80094
5.96437
5.1762
4.98264
5.47385
4.25986
5.30611
4.45376
7.27331
5.93746
4.87795
5.37783
4.99424
4.7454
5.39824
6.3506
5.1967
5.54139
4.75668
5.23522
7.19106
4.57401
7.94452
4.56358
4.87762
6.37726
5.56997
4.86155
4.43206
5.42032
5.17712
5.60338
4.48722
4.89178
4.76408
5.5909
4.80875
5.15881
5.55059
4.77327
4.91885
5.44764
4.98943
5.92737
4.74725
5.10549
5.57724
4.90896
6.0218
5.81585
5.7057
5.82936
4.69738
5.46053
4.73931
5.36205
5.08714
5.6625
4.90339
6.88917
5.72254
6.26278
5.23406
4.57104
4.73572
5.09393
5.32131
5.56961
6.89105
5.86101
5.88129
5.75833
5.05671
5.11804
6.54048
5.8541
4.61188
5.92392
8.0181
4.94301
4.58964
4.9981
6.65775
5.75023
5.05894
5.77258
4.69125
7.18913
4.74925
5.05659
5.32324
4.89967
4.62252
5.84751
4.63168
4.56608
4.78299
5.12731
6.26196
5.93643
5.87827
5.15598
5.11995
4.86374
5.91045
4.68158
5.67382
5.20833
4.64251
4.91204
6.22618
4.54601
5.87722
4.65668
5.25563
5.53415
6.71189
6.93914
5.42657
4.89086
4.87076
5.07823
4.95077
4.28047
5.26333
5.07769
6.25566
5.07832
5.38565
5.13254
5.84048
5.54713
7.47093
5.47334
5.27587
4.47579
4.96652
7.74331
4.73661
4.85215
5.98182
5.42607
5.23186
4.76579
4.94179
4.75544
5.54295
4.5061
5.13898
4.60244
6.16798
5.47864
5.37659
5.73367
5.26086
5.41514
5.50266
4.7633
5.50501
5.80378
6.57596
4.84095
4.91827
5.34286
5.35559
5.03611
4.82492
4.80681
5.94611
4.9215
5.6379
4.64697
4.63619
5.58032
4.34468
4.71433
5.44295
5.11671
5.31665
5.82528
5.95578
6.03942
5.07501
6.33921
5.21765
5.17152
5.63808
6.6117
4.55566
6.83277
5.78188
5.64181
5.03523
4.37535
6.15911
4.72369
5.28096
5.05794
5.19724
4.59275
4.98411
4.97086
5.21896
5.08101
4.9361
6.17457
5.43866
5.87308
4.81056
5.53802
5.2612
6.48866
5.38272
6.33789
4.97538
5.47804
5.14449
5.67284
4.88811
5.24124
5.49262
4.22646
6.75007
4.73855
7.55649
5.18712
4.61897
5.61868
6.26163
6.22208
5.43422
4.73772
5.98418
5.7403
5.68145
5.56045
6.21328
5.21091
6.93977
4.62852
4.27244
5.91109
5.39609
6.60775
4.94871
5.605
5.51974
5.49494
6.27528
6.33017
5.10032
4.81315
4.62442
4.77506
6.05671
4.86016
6.33795
5.01111
4.75383
5.38625
4.66304
4.84025
5.98597
5.91724
5.07336
5.34289
4.56189
4.34894
5.64726
6.41851
5.55274
5.11509
5.01632
4.64953
4.49424
5.12739
5.8292
5.07673
5.5651
5.44357
5.5072
4.99063
6.16165
5.52238
4.46345
5.45941
4.89799
8.67842
5.1449
4.65865
6.06222
6.64733
4.76424
6.37056
4.63031
5.59854
5.16922
5.87124
4.84206
5.1013
4.99081
6.61054
5.26819
4.71152
5.08769
5.06363
5.45049
4.99276
5.34034
6.372
5.08869
4.03263
4.68999
5.97422
5.09257
4.67148
5.28426
6.24741
5.65045
5.60545
5.08058
4.69686
5.33574
4.81526
5.04878
5.47311
4.62037
4.85948
5.20721
6.74044
5.41579
4.56784
5.64167
4.91544
5.56509
5.06897
7.12232
4.74833
4.73955
4.62729
5.34259
5.18185
5.5854
4.6203
5.94047
5.12182
4.51171
4.42258
4.92327
4.8088
5.26557
5.90175
5.02025
4.88488
4.92827
5.23548
4.64412
4.42178
5.37476
5.13853
5.59557
4.38215
5.08937
7.38289
4.88582
5.11676
4.90327
6.11424
4.80619
5.42703
8.33323
4.63203
4.25421
5.06039
4.70614
4.55103
5.39882
5.81849
5.31088
5.13421
4.90037
6.71013
5.89944
5.20843
5.03717
5.09844
5.08617
4.97695
5.07221
4.9373
5.20882
5.24834
5.16372
6.19539
6.18845
4.74726
4.6847
5.20585
5.33185
6.24977
7.08844
5.78135
6.55919
5.0578
5.20802
4.7086
4.14983
5.28659
6.97595
4.59782
5.86108
4.71633
6.38851
6.77363
6.97257
5.98535
5.04598
5.37562
5.37421
4.65617
5.18262
6.18788
4.88392
4.85045
5.1589
5.00802
6.34222
5.33135
5.68958
6.73157
4.93726
4.63436
4.90119
6.12242
5.14351
5.22955
7.83953
6.04243
5.9156
4.78171
5.45276
7.08135
4.81614
5.07208
5.91935
5.69637
5.48484
6.88785
5.5581
5.10015
5.463
4.68565
4.78212
5.99663
5.06086
5.21846
5.76271
5.49574
5.61993
4.56513
5.45671
4.386
5.7033
5.61284
5.06488
4.23185
5.65905
6.93594
5.00605
5.62547
5.24645
5.00809
5.50322
5.13715
4.98165
4.93762
6.41902
6.01086
4.67407
6.03383
5.17186
5.32878
4.84076
5.93543
4.60558
7.84864
4.65012
5.15285
6.84657
4.9938
6.17374
5.4226
5.48131
6.01939
4.82099
5.90175
4.91783
5.2655
4.90148
6.689
6.26392
6.00765
5.58009
4.96014
5.10952
5.39291
4.62143
5.6045
6.51687
6.02142
4.99125
5.44007
5.60104
4.78268
5.33798
5.67297
4.35968
4.99579
6.08433
5.19025
4.54208
5.43676
6.492
5.66583
5.14023
6.7419
4.27664
7.10656
6.65189
5.52018
5.81359
5.23118
4.79398
6.45052
5.09075
4.42307
5.36509
5.15527
5.28284
4.83089
5.74898
5.0613
5.14583
4.82389
5.88136
4.97618
4.80895
5.27784
6.23152
5.31335
5.23397
5.42099
6.03728
5.23446
4.91527
5.01942
5.06687
5.41725
5.43964
4.95928
4.9771
5.19114
4.93994
6.45041
5.65894
4.89334
4.82509
4.98104
4.34852
4.74331
5.56647
6.37131
4.5716
4.18442
4.73877
5.76001
6.20311
4.59079
5.39167
6.53067
5.92966
4.78742
5.60556
4.56215
5.7342
5.70677
5.91487
5.88281
4.98216
4.42736
8.01162
6.09999
5.43201
5.3435
6.47373
5.78941
4.81245
5.24503
5.4149
4.78117
4.88006
5.23707
5.5167
5.71338
6.22041
4.73281
5.14621
5.65497
4.40297
5.4442
5.42206
4.79457
4.87837
5.20047
4.81831
4.30157
5.41322
4.94527
6.42501
4.95216
4.94096
5.02036
5.01949
4.60134
4.612
4.34382
5.27461
5.3682
6.30238
6.39421
5.1884
4.77857
6.58326
4.74398
5.36349
4.56302
4.68019
5.86891
4.62699
4.61982
4.39619
5.36989
5.27956
4.29746
6.39129
5.30259
6.26753
5.35535
5.13937
5.29985
6.79712
6.39194
5.83679
5.34315
5.3978
6.10198
5.40023
5.19826
5.16148
5.5548
4.7292
4.80796
5.92521
4.91201
5.22597
5.82028
4.70946
4.39133
5.63105
5.33948
5.0524
5.03023
5.67678
4.291
5.51495
5.25738
5.89673
4.65474
5.46491
5.62103
5.46327
6.45995
4.30293
4.67311
6.26704
5.22877
5.51727
4.5401
6.22575
6.78538
5.81508
4.82176
5.94444
5.12107
6.51915
4.56028
6.22673
5.06948
5.49985
4.71361
5.01743
4.76456
5.97462
4.91132
5.33798
4.97116
6.40174
7.69326
5.99694
5.35272
5.15526
4.63421
4.94266
5.11689
4.75159
6.31044
5.98493
4.62725
5.11106
5.84259
5.8282
5.053
5.03806
8.09792
6.13653
6.39468
4.93359
6.00045
5.32192
5.47508
6.4475
5.81547
5.02873
4.85969
4.96126
5.38813
5.38364
7.00968
4.87259
4.76854
5.4312
5.5923
4.75559
4.8771
5.40325
5.66573
5.01399
4.62961
6.20335
5.02367
5.52341
6.33048
5.50669
6.24912
5.26967
5.6812
5.3598
5.71286
5.13989
5.82735
5.31998
5.3819
6.0777
5.5546
4.6265
5.93652
4.47324
4.48706
5.04692
5.06905
4.67135
5.34554
5.18544
7.87829
4.9847
5.7997
6.4896
5.47087
6.43426
4.34003
5.63991
4.8928
5.8742
4.60772
4.75704
5.35589
5.30426
5.68462
4.52809
4.89318
4.22086
5.69094
4.87802
5.54326
6.48725
8.68632
5.78098
5.15779
5.11041
4.84711
5.2772
4.6351
4.65642
5.90122
4.48398
4.74656
5.2047
5.38137
4.55678
5.79857
4.9401
4.94489
5.48546
5.17775
5.20115
6.37967
5.23932
6.26121
7.04757
4.67347
4.87567
4.938
5.32653
5.28469
4.86238
5.0307
4.80408
5.00121
4.72633
5.35517
4.75714
4.95583
5.07537
4.7792
4.80538
7.22928
5.12137
4.70076
5.28156
7.19656
5.22801
5.74313
5.88281
5.35937
6.23069
5.36314
4.60209
6.87562
5.84573
5.31584
4.71793
5.21575
5.22239
4.59185
5.8832
5.32285
5.75727
6.76466
5.1897
5.06673
5.35236
5.36973
5.20732
5.30003
5.24609
5.28958
6.05832
4.85616
5.04737
4.95202
5.9478
5.1025
5.09874
7.11962
5.1121
4.90795
5.67289
6.27334
5.13606
5.30864
6.98657
5.1696
4.95928
4.77597
5.35427
4.92781
4.33031
5.84017
4.74763
6.85544
4.79809
4.34449
4.59756
5.64714
4.7341
4.77975
6.45203
5.70547
5.61
4.90395
6.14604
5.16529
4.88345
4.59373
5.06539
6.34159
6.04796
6.00659
6.26666
5.62047
5.23905
5.41324
5.63614
5.99259
5.13106
4.78044
5.6298
5.64515
5.29291
4.83561
5.54796
4.72144
5.41084
5.03672
5.58291
5.71851
5.15995
4.89831
4.79771
5.03886
5.98569
5.20403
5.04789
5.31233
6.07641
4.73776
7.24045
4.70476
5.18183
4.86913
4.56901
5.12285
4.67327
7.00093
5.75636
5.44668
5.45794
5.08427
4.64571
4.74016
5.25453
5.48358
4.6959
4.90725
4.91434
6.19956
6.58657
5.39488
5.30948
5.1755
5.76034
5.07058
6.51836
5.67211
5.32113
4.83033
6.37507
4.93424
5.01102
5.88481
4.56559
7.50948
5.4593
5.56603
7.27993
5.20806
5.24007
5.22903
5.70384
5.91588
5.08528
5.46747
4.70672
5.21733
6.09041
6.36421
4.61681
4.81572
4.62693
6.05537
6.26293
4.85632
5.29529
6.60826
4.86697
4.24023
5.04245
5.42527
4.32961
5.90445
4.29784
4.52247
5.13532
5.28405
5.07202
4.45887
5.48623
7.05818
5.03132
6.89379
5.81485
5.85364
4.78331
5.26959
4.74524
5.05047
4.90954
5.54204
6.64388
6.10582
6.0455
5.22404
5.47947
5.28017
6.96682
5.71538
5.5927
5.40723
6.31129
5.01022
6.47375
6.38225
6.03231
5.54114
4.99129
5.60537
5.30915
5.75543
4.38798
4.57224
5.17452
5.15625
5.76036
4.90296
4.82994
6.06993
5.30106
5.42081
5.35192
5.91818
4.77311
4.60759
5.19309
6.5787
6.25203
6.1497
5.02365
5.24362
6.05292
5.16707
4.84047
6.48864
5.38059
4.77133
4.71209
4.51967
4.66113
4.32364
5.30037
5.48829
4.74595
5.20418
5.70763
4.51063
5.34408
7.53082
5.13192
6.47201
4.83139
4.54303
5.52866
5.80863
4.87609
6.32641
5.26037
5.5668
4.68758
5.52482
5.71884
4.63641
5.53583
7.08126
5.17599
4.20981
5.23625
4.76279
5.72332
5.13199
5.80709
4.86069
5.23001
5.37367
5.07711
5.05513
5.13932
5.11594
5.76845
5.02633
7.17684
5.6544
5.73591
4.68968
5.01158
4.92689
4.77541
4.75305
6.58925
6.21224
5.52069
6.17217
4.77902
4.85874
4.40062
5.10346
5.60393
7.37058
5.05088
5.23941
4.93146
5.72321
5.82499
5.88263
5.59689
5.39902
6.16732
6.33858
5.85935
6.26498
4.93035
5.5685
7.41374
4.75739
7.14485
4.27623
5.51352
5.13719
5.08217
5.72054
6.67953
4.88449
5.42938
5.29876
4.72421
5.52324
5.27822
5.33667
5.03381
6.6633
5.55166
5.62454
6.02373
4.81829
4.36404
4.37157
4.69561
5.60086
4.97695
5.61188
4.5824
4.2216
5.65163
5.30577
5.46276
4.67077
5.47557
4.70282
4.91672
5.63242
4.39242
6.3288
4.48218
4.51125
4.72998
5.38479
5.50566
5.09628
4.66602
8.89028
5.0802
5.15434
5.35259
4.7914
4.77418
5.13004
4.47645
4.41276
5.08767
5.71262
5.73324
6.23701
5.70092
5.45032
5.74028
4.67951
5.44827
5.8421
5.19091
4.39532
8.57452
4.83876
5.61077
4.7446
5.70009
5.16162
4.92911
4.89975
5.50471
5.09426
4.91096
5.67476
6.01923
6.09588
4.99114
5.02674
5.54692
5.4059
5.56201
5.97224
4.58411
5.05021
5.19318
5.12058
4.93561
6.6382
6.47224
5.98729
4.3927
4.42596
5.21252
4.95006
4.97437
5.1583
5.9971
6.51183
5.52085
5.7048
7.3728
5.15635
4.82508
5.47417
5.10576
4.581
5.28767
4.90108
5.70216
5.62945
5.01315
5.37507
5.90367
4.75969
5.27315
5.10208
5.40701
6.0421
6.62718
4.66745
5.86594
4.47482
6.79992
6.32737
5.38856
4.9295
5.83377
5.98125
6.336
5.67239
5.03402
5.59188
4.9295
5.85848
4.87083
5.08144
5.8982
5.61592
5.00336
5.8694
5.9894
4.43613
4.66534
6.18075
6.56101
6.65764
6.01984
5.25456
5.30814
6.98205
5.17849
6.20859
4.65566
4.65511
4.58609
6.0503
6.10267
5.74547
5.18125
4.92486
5.03449
5.50336
4.69723
7.71679
5.12824
5.06862
5.33572
6.91444
4.92841
7.52574
5.45447
4.72954
6.06352
5.89947
5.59014
6.85412
5.09606
4.46577
4.77372
4.81925
5.94079
4.70236
7.73268
5.33149
5.38092
4.93048
5.23718
5.75866
4.85298
5.72833
4.54144
4.74318
4.75221
4.53622
4.0417
6.04795
5.71228
4.47567
5.32131
4.58664
4.78047
5.04791
5.52224
4.55252
7.48111
5.31616
5.76356
5.8395
5.52483
5.09069
5.3797
4.84861
4.77464
5.59684
5.06913
5.26722
5.23468
4.96944
5.22611
4.51777
6.12794
4.93316
5.03884
5.07058
6.09259
4.88354
5.4814
5.83014
5.9141
5.41637
6.60736
5.63458
4.97364
5.65695
4.7873
5.38023
4.94394
4.92381
4.88244
7.61308
5.00381
5.81028
4.61146
5.66338
4.92464
5.16123
6.18024
5.25499
5.9351
5.80408
5.37223
7.25531
5.78637
5.39674
6.49358
5.2463
5.18776
5.10557
4.79862
4.70584
5.36906
4.46816
5.41163
4.81919
5.30575
5.00948
4.76679
6.63595
6.27733
6.7855
6.72004
5.20038
4.98867
4.46403
4.84947
5.19608
6.00495
5.32714
4.66063
6.24216
5.26803
5.63791
4.65087
4.1848
4.8857
6.63754
5.40421
5.47561
4.85367
6.28537
5.45919
5.08841
4.87123
4.49515
5.63747
7.31255
5.86293
5.35096
5.91889
5.13323
4.96878
6.60275
5.51191
5.74666
5.3391
4.72166
5.52601
5.25945
5.27749
5.35963
6.27987
5.4558
5.50268
6.23142
4.80224
5.09964
4.89653
5.1843
5.23452
4.59241
5.63894
4.65703
6.45943
6.1788
5.52632
4.72558
5.35549
4.53966
4.95601
6.49487
5.35355
5.20447
5.60995
7.6147
5.95469
5.44293
5.7505
5.14907
5.31697
5.02924
4.93028
4.60016
4.67579
5.30581
5.11101
5.23445
4.88082
5.44349
5.46055
5.12188
5.02283
5.50436
5.78552
4.82301
5.22228
4.71963
4.66283
5.83238
4.80939
5.03116
5.05902
5.41854
5.01595
4.90748
5.10385
5.81192
5.77698
4.6126
5.57501
5.03269
4.49153
5.65482
4.56893
4.91705
4.95009
5.36574
5.8145
4.94273
4.47973
4.97725
5.64019
5.558
6.82978
4.77378
5.99209
7.87262
6.25239
5.24147
5.31685
4.97151
6.85385
5.44152
5.11164
5.30641
4.71233
4.85541
5.04553
4.59678
4.5137
5.04538
6.56426
6.55078
5.75699
5.47523
4.99897
4.95817
4.23963
5.42511
4.9305
4.9619
5.43317
4.9693
5.94897
5.20745
5.71877
6.37757
5.54724
4.49174
6.3855
6.21868
5.61969
4.48367
5.32043
5.07338
5.34515
5.7969
5.78447
5.38681
4.76368
5.40415
5.16724
5.06492
4.43113
5.95891
4.55764
5.12046
5.03323
5.33475
5.21605
6.9939
6.43775
5.38202
5.37189
5.46981
4.61495
5.09153
5.23704
5.14759
5.36328
6.12873
5.64787
4.78373
5.46304
5.21962
4.87208
6.39721
5.13565
4.63499
5.30432
4.96941
6.53011
4.49168
4.60978
5.70021
6.6221
4.45626
5.00633
5.10793
5.35481
5.08654
4.80958
5.65675
5.73866
6.65014
4.44818
5.42104
5.92721
6.28444
5.81237
4.3192
5.39057
5.04776
5.88197
4.41563
5.53703
5.21521
6.83747
6.21714
5.51677
5.2461
5.53133
5.23637
4.61166
4.6148
5.50873
4.7986
5.69641
4.31222
5.68517
5.20564
5.4754
5.11185
4.81794
6.41997
4.93963
5.00498
5.64248
7.0927
4.70962
5.46056
5.0436
5.35973
4.48715
5.15848
4.68189
5.10747
6.58327
6.33205
5.70337
5.12257
4.89619
5.15756
5.12187
5.01404
5.19691
5.74116
7.12566
4.93306
5.00951
5.39416
5.18677
5.20694
6.75281
4.90156
5.62096
5.60884
5.31887
5.72039
5.71827
4.9439
5.08027
4.58703
5.43733
5.81048
4.79322
5.87836
5.32892
5.28778
4.91746
4.77469
6.06627
7.34815
5.54458
5.51672
5.3063
6.30697
5.3869
5.77247
5.96499
4.54258
5.59007
4.91655
5.02664
4.86545
5.70897
5.12587
5.48338
5.06524
4.60367
6.5364
5.7709
4.85258
5.02357
6.06179
5.56507
5.31966
4.88418
6.53053
6.04674
4.72106
5.1062
4.72647
6.83676
5.21827
6.08318
5.66023
5.34409
5.39995
6.14631
5.24012
5.07276
4.82562
4.84682
7.33311
9.78448
5.51573
6.73415
4.29783
5.35069
5.01754
6.23952
6.24783
4.90161
5.4355
4.89564
6.05942
6.07373
5.89072
5.06344
6.14878
5.06869
5.42877
5.63489
4.09591
5.55174
6.23806
4.96456
4.6675
6.3307
4.6254
5.29976
4.41712
5.39889
5.08555
5.38145
4.90229
5.68255
5.48475
4.90908
4.67544
5.3411
5.56559
4.84399
6.04269
5.71732
4.9238
5.19533
6.82737
5.59013
5.3626
5.67046
5.14624
6.36432
4.5389
6.71331
5.18578
5.18181
4.77915
4.97416
4.73985
5.71694
5.85153
4.94219
6.69525
4.91833
4.84948
5.29441
5.11553
5.58271
6.43559
5.08844
5.85369
5.2756
6.28702
4.50974
5.89035
5.08493
5.16761
6.21912
4.49721
6.31563
4.97818
5.58023
6.20801
5.50934
4.55995
5.11573
6.49379
4.90347
5.18722
4.83689
5.13087
5.50963
4.47494
4.62972
6.00106
6.01035
5.04889
4.89251
5.09942
6.29836
4.32352
6.41777
4.766
6.90747
7.52071
4.92679
5.45115
5.98556
4.53195
5.66902
5.48587
5.36763
5.69616
5.52343
5.34691
6.13056
4.94234
4.2596
4.76124
4.60649
5.7697
5.43172
5.23185
4.73683
6.71092
6.60233
6.00897
5.7932
5.32959
6.27906
5.29062
5.59497
5.85422
6.2094
5.61224
4.38012
5.65849
6.83483
6.41869
5.69987
6.88831
6.15579
5.08944
4.49263
4.63429
5.30754
5.78611
5.86093
5.26411
5.4408
5.47929
4.82957
6.55471
5.24564
5.49704
5.52517
4.96456
4.69066
6.01877
5.80598
4.72512
4.87424
6.22515
4.47491
5.33631
5.40325
6.39744
4.90047
5.72412
6.13618
5.69505
5.39235
6.00192
5.80815
4.6341
5.07852
5.27122
5.29921
5.40338
6.39351
6.12587
5.11419
5.12356
5.172
5.51025
4.73305
4.33031
5.36446
6.4361
5.40076
4.84994
4.9557
8.18945
5.34403
5.03601
4.53861
4.94306
4.6572
9.29351
4.8487
5.12289
4.88278
5.50852
5.80689
5.17905
5.3882
4.92392
4.761
6.04653
5.91812
5.08998
5.95085
6.06898
4.7618
6.15473
7.58345
5.28878
5.94021
5.1018
5.93743
6.00669
5.88406
5.27024
5.45112
6.90045
5.71251
5.74833
6.25192
4.27741
4.9345
4.6107
5.83299
5.56776
5.72206
5.89963
7.03395
5.72125
5.22101
5.10353
5.33449
4.89697
6.80998
6.26605
5.20205
5.30616
7.47657
5.39134
4.7287
5.09117
4.9987
6.39197
5.78011
6.21768
5.44847
5.98485
5.30556
5.13976
5.30009
4.98569
7.00237
5.32422
4.95068
5.05999
5.1068
5.10924
4.83943
4.93505
5.07877
4.56653
4.66209
5.07105
5.24982
6.68416
5.08719
5.44071
5.94168
5.49613
5.69956
5.03947
5.32551
5.14954
5.16189
5.03935
5.37425
5.44808
4.91628
7.15367
8.2758
4.92573
5.78598
5.46278
4.50546
5.2648
5.29794
4.83041
4.97829
6.253
6.21154
4.37273
5.73426
5.28539
5.41131
5.33951
5.50126
4.93476
5.13886
4.70073
5.3607
5.99119
5.17278
4.73463
6.42592
5.26291
4.6314
4.98576
5.3176
4.71615
4.71722
4.66965
4.89774
5.04227
5.99664
4.64958
4.84359
4.23182
5.17375
5.30529
5.0653
6.44474
5.91511
5.55912
4.82333
7.3197
6.56826
4.82316
4.32772
5.21437
6.0617
5.02176
4.87041
5.55198
4.67819
6.09257
6.89255
5.39774
5.16143
5.56708
4.76209
5.75451
5.82313
5.29836
5.00454
7.32262
4.58208
5.17091
6.08434
4.47113
5.25822
5.35227
4.92744
4.6096
5.26255
6.47695
6.5429
4.98283
5.06977
5.05664
5.57806
4.63164
4.6416
5.30428
7.8268
4.75633
4.99867
6.15545
7.66938
5.88754
7.60837
5.33398
4.02611
5.21103
6.65871
6.48738
5.22079
5.57108
7.45874
5.83482
4.94036
7.00778
5.42018
6.31122
5.97478
5.48638
6.36915
5.24744
5.06115
4.43978
6.06686
6.22376
4.95704
4.59429
4.53117
5.25626
4.73905
6.15719
6.83081
4.63405
6.13006
5.86436
4.80665
6.38763
6.54247
4.36274
4.8868
5.74515
5.44579
6.39283
5.46032
5.12649
4.83395
5.3867
5.89334
6.0173
5.07767
5.60988
5.18604
6.78987
6.18778
4.30083
5.51424
6.01693
6.12792
5.3095
7.23771
5.39423
6.02149
5.60564
4.45914
6.47957
4.92243
6.51452
4.35468
6.09336
4.99254
5.3575
5.36669
6.35563
4.68798
4.26986
5.39552
6.20293
5.99181
6.15926
5.55548
6.21497
5.88023
5.25968
5.45196
6.51559
6.13424
6.40499
4.90525
5.2506
5.08659
5.18639
5.45773
5.68683
5.63433
5.77647
5.92907
4.34666
6.28995
5.49741
5.58753
4.6558
4.83262
5.44464
5.41558
5.28095
6.72744
5.20817
7.07947
6.56429
4.96766
6.06181
4.36881
4.74454
5.25427
5.3159
5.22677
5.16401
5.40099
4.62474
6.52428
4.8858
4.49805
4.69293
5.37304
5.95093
5.15344
5.70651
5.03306
4.82806
5.52799
4.49574
5.76107
4.88061
5.74334
5.36505
5.21945
6.01243
5.4794
4.92429
5.65874
4.48396
7.49625
5.63733
5.29222
4.75759
5.62819
5.53836
7.82371
5.30107
5.02363
6.24596
5.49283
5.27239
5.15196
5.03416
4.86888
7.96103
4.97789
5.9877
4.36091
7.04465
5.22113
5.40713
5.073
5.81076
5.79197
5.23183
5.38595
5.45484
6.78304
4.87301
5.11546
5.90672
6.13644
4.96856
4.71625
5.65346
4.73808
4.89825
6.36451
5.7264
5.71785
5.91966
4.99859
6.65312
5.92411
5.6094
5.26943
6.21118
4.96425
4.97295
5.7366
5.29869
4.08876
5.9101
5.62976
4.80071
5.1806
5.10421
4.85962
4.94335
5.12914
5.87675
5.39012
5.23689
5.66294
5.67642
4.73429
4.70313
4.3915
5.11876
6.09261
5.1399
7.23671
9.14797
7.05905
4.81829
6.02015
4.78651
4.86756
5.26056
5.46336
5.28065
5.97523
5.89259
5.91731
7.99299
6.90849
5.33962
5.75048
4.52881
6.662
7.02156
5.76473
5.02981
5.24673
4.80093
5.92516
5.10165
5.94583
5.38935
5.6707
4.37311
5.08703
5.56755
5.00442
5.21156
5.68972
5.07332
5.71999
5.051
4.66696
5.48339
6.21669
6.19132
5.81651
5.05222
6.73793
5.99726
5.71829
4.91373
5.75245
5.76575
6.08946
6.57957
5.69274
6.77604
5.5642
5.55453
4.07876
4.83334
4.54543
5.05129
5.1115
4.85942
4.71681
5.46104
5.86711
4.54107
4.3513
5.1254
5.46228
5.59113
4.68811
5.31085
5.22333
4.9353
5.31449
5.28
6.48731
5.02276
5.5701
5.20066
5.79947
5.17546
4.75006
4.93926
5.58176
6.52174
5.07961
4.68566
4.8612
5.07635
6.06463
5.39372
5.30154
6.40106
4.54254
4.99075
4.50455
5.53365
5.14349
5.39599
5.74819
5.16106
5.20072
5.19257
4.97074
5.01687
5.675
5.99001
4.81531
5.26115
5.5497
4.47544
5.00239
4.86148
5.64967
6.34982
6.1184
4.69286
6.25512
5.37501
5.24684
5.66893
4.7629
4.24864
5.05135
5.94501
6.25083
4.76096
6.04361
4.98164
5.11351
4.75019
5.11911
6.97213
5.17473
5.46227
4.79806
7.34984
5.46302
4.96915
5.61388
5.77751
6.57361
5.95361
5.63715
5.20556
5.05164
5.4305
6.83161
6.29911
6.59349
5.88382
5.07213
5.10878
5.12021
5.5446
5.52392
5.36744
6.73466
4.77176
4.7609
5.93972
4.38806
5.65967
4.99415
4.96895
8.02125
5.62918
4.57571
5.42107
5.05898
7.11894
5.45799
4.89759
5.58001
4.87801
5.56543
7.93787
5.66716
5.99684
7.12114
5.48947
4.67834
5.33848
4.76384
6.02196
5.386
4.56371
5.4563
4.72925
5.93277
5.49576
5.13905
5.19748
4.90907
5.43634
4.15092
5.82898
5.21715
5.83192
6.32749
5.25205
5.43118
5.59417
5.76216
6.17294
5.05125
5.35987
6.11285
4.73892
4.79859
4.57574
5.49387
4.56903
5.928
5.29816
6.33324
4.43401
5.29261
5.34952
6.18806
5.18093
5.38257
5.34698
5.29754
5.25002
5.19667
5.94155
4.63704
5.95259
5.70082
5.56299
4.68304
4.84566
5.27208
5.26313
4.44287
4.35356
5.84267
4.58164
6.16698
6.55567
5.32094
5.34727
4.8826
5.42273
5.03226
5.09755
5.39499
5.33449
5.8665
4.81819
5.62577
4.44046
4.52851
4.93068
5.74465
5.07618
5.18179
6.14755
6.15076
5.28073
5.19702
5.0887
5.5945
5.02054
6.00498
4.64404
4.84019
5.47182
6.19479
5.69291
6.0083
6.40329
4.26539
5.76664
5.18887
5.85159
4.50484
5.73565
5.40694
4.79517
5.03642
6.8729
7.16807
5.86694
4.35833
5.10447
5.18663
5.93571
4.5993
6.02537
4.81636
5.8497
4.93051
5.92891
6.06897
8.56651
5.77676
5.8494
5.68741
4.99846
4.53774
4.49747
5.56069
5.11929
5.46228
4.61716
5.6523
5.35789
5.12271
5.15861
5.45577
5.58244
6.871
5.37349
6.20505
4.83118
4.51568
4.57643
4.5715
4.88909
4.58183
6.05225
4.76145
5.83486
5.32895
5.13005
4.91867
6.06487
4.6525
5.09387
9.01669
5.04761
8.00326
5.41078
5.16177
4.84906
5.35884
5.03222
5.53851
5.62456
5.62358
5.35618
5.75599
5.13417
5.22739
4.97162
6.58003
5.26608
4.90575
7.90661
5.55597
4.86006
4.46339
5.08813
5.14771
5.06792
5.18475
5.05107
4.83414
4.74426
5.48404
4.88242
6.20403
5.6881
5.22002
5.42972
5.02537
5.4208
4.90826
4.92341
6.04657
5.49177
8.11699
6.51168
4.87188
5.15104
5.29482
5.90461
5.72417
6.83566
5.79693
6.06114
5.10237
4.8386
4.55176
5.927
5.20382
4.6977
6.57719
5.31734
5.06016
4.62917
4.74972
5.49984
4.70407
6.06498
5.03929
5.71692
5.31764
5.51736
5.83577
5.43206
5.52265
5.35653
4.76036
5.48494
6.79721
5.14068
5.50354
4.66128
5.6989
5.02999
4.41347
5.58635
5.46078
5.1916
4.96327
5.60291
5.28082
5.71509
6.72807
5.84289
4.79019
5.83097
4.3398
6.55014
9.40446
5.21009
5.2157
6.35572
5.44488
6.47907
5.33506
5.34864
6.01954
5.98378
6.48
5.4485
5.40415
5.30144
5.05963
5.82552
4.522
6.24892
6.44419
4.99829
4.59502
5.19699
4.39663
4.99955
5.03177
4.73757
5.49048
5.07217
5.17244
5.75793
5.73091
6.45434
5.24358
6.49897
5.26082
5.72134
6.09772
5.04222
4.84688
5.87706
6.1526
5.60337
5.39099
5.06153
4.15296
5.22857
6.2594
5.21608
5.80967
4.84919
5.64272
5.72792
7.33837
5.34821
4.1745
5.22225
5.3207
5.23054
5.4756
4.52013
5.09836
4.96114
4.72195
5.1569
6.62307
8.13374
6.02261
6.1514
5.2193
4.80214
4.31522
5.4165
4.71637
4.37358
5.0193
5.68585
6.08235
5.26249
5.47218
5.0474
5.7813
4.67881
5.93247
5.63032
4.86973
5.91979
6.91561
5.65372
4.31943
4.72025
5.89457
7.42462
5.72749
5.5272
7.42048
6.07681
4.94152
5.64755
5.21414
5.59626
6.42509
5.56653
6.47191
5.44557
4.26753
5.00845
6.04218
4.82187
5.82662
7.58795
7.45018
5.61982
5.93898
6.34848
5.88825
5.12509
4.45652
5.04262
4.77057
5.23642
4.7957
5.23466
5.04037
5.25947
5.12674
5.72938
7.38096
4.80667
5.3129
6.15483
4.74088
5.50521
5.20705
4.17084
6.289
4.72625
4.99144
5.70479
4.89152
4.84094
5.3283
6.37191
5.82862
4.45907
4.94944
5.02109
4.82263
5.54833
5.32471
5.40005
5.23456
6.69728
4.97851
5.5373
5.50948
5.71311
6.17733
5.50942
6.35499
5.20452
5.82852
5.29675
4.91334
5.16072
5.32292
5.32545
4.70156
5.29286
4.54533
5.24341
5.32605
4.48926
4.96068
6.52474
4.98995
5.21848
5.8767
4.83383
6.03379
4.93987
5.38921
5.63177
5.06539
5.3268
6.4011
4.82688
4.90654
5.46252
6.02529
6.37874
4.98393
5.31248
7.49935
5.24699
5.54124
4.90629
6.04871
4.93502
5.18303
5.12723
4.93718
4.54083
5.27608
5.25669
4.65858
4.9371
5.39632
4.46934
5.51834
5.16736
4.6755
5.39106
4.97023
5.22485
4.77861
6.3803
6.46976
5.5209
5.99171
5.38433
5.26753
5.65103
4.9357
8.52006
5.79921
6.61863
5.53465
4.88761
6.07381
4.8323
6.12236
6.51847
4.40349
5.25097
6.56922
5.88567
5.67394
4.93947
4.58315
4.99457
4.80336
4.65763
5.16904
6.08555
5.82178
5.3194
6.51899
7.01193
5.76713
5.32673
5.22069
5.92097
5.21806
7.21625
6.09449
5.3749
7.32791
4.71011
6.6658
5.83359
5.45751
5.81132
6.05822
5.06666
5.18034
5.65804
6.00281
5.40026
5.22046
5.42834
6.14765
6.24734
5.0665
5.1562
5.62544
6.42817
7.29098
5.30213
5.56697
4.70937
5.54762
6.44658
5.62896
6.51681
5.14216
5.88422
4.41327
4.79418
4.3723
5.96163
5.60972
4.69774
4.93459
5.56214
6.00983
4.89312
5.23827
5.38997
4.82005
5.16301
4.53463
6.21758
4.94736
5.69856
5.54142
7.07198
5.23111
5.68063
5.01135
5.1578
6.11818
5.25152
4.5331
5.9247
5.24166
5.45486
5.47581
4.93269
5.26264
6.10807
5.08848
5.17048
5.08445
4.54891
4.85211
4.50227
5.26442
7.00307
5.16365
4.85886
5.52418
5.46856
5.05062
4.34607
5.00658
6.3406
4.49505
6.85498
5.03499
4.99365
4.72228
5.24452
5.04687
5.07048
5.60749
4.72762
5.15163
5.79663
5.11553
5.71718
5.47357
5.43434
5.90517
6.34388
5.98094
5.34222
5.46208
5.88872
5.36973
5.39666
5.09038
6.43936
5.61261
5.31568
6.42666
6.71048
4.17402
6.01361
5.71369
5.79368
4.77268
5.68958
5.68069
4.95624
5.84491
6.00588
4.94266
5.37357
10.1479
6.33711
4.95849
5.32033
5.73102
5.43784
5.0099
5.73714
4.66547
4.69035
4.93946
5.25807
5.60782
5.95124
5.83853
6.21584
4.62791
7.67917
4.77469
6.13338
5.31132
7.4493
5.67259
6.89456
7.56431
6.13379
4.95554
6.39926
5.61483
5.10241
5.44955
4.64743
7.96219
4.96401
4.35843
4.91783
6.59859
6.02605
5.37663
6.56844
5.83531
5.36657
5.65828
6.84107
4.69403
5.26907
6.20439
4.56458
5.95459
6.02085
5.04148
6.05734
5.39619
6.26632
5.48803
5.34533
5.5539
4.91194
5.53213
5.03115
6.52377
8.67106
5.43677
5.63997
5.14403
5.1479
5.85403
5.18248
5.44249
6.51391
6.69215
5.64393
5.8819
5.09385
5.27943
6.09609
6.11655
5.15128
4.557
6.01714
5.21001
4.87155
5.51824
6.84372
7.04018
4.99723
4.96257
6.6239
5.39954
4.63552
4.85814
5.02809
4.43474
7.00601
4.596
4.65209
5.30193
4.54576
5.76124
5.2096
4.96451
5.8855
4.79596
4.77974
5.4378
4.15008
5.09714
5.38123
5.64678
5.05614
5.58112
5.40559
4.64432
5.42055
5.81915
6.017
4.97249
5.08314
4.36512
6.02824
5.95803
5.52482
5.63027
4.79073
5.12746
4.68544
6.02926
4.89957
5.22958
6.46529
6.54037
5.95268
5.97181
5.32681
6.45379
5.48353
4.82271
5.29719
5.39106
5.50205
6.83081
4.91791
4.75434
6.30968
5.36845
5.41126
5.31376
6.24492
7.14116
4.87011
7.39793
5.06231
5.98888
5.62643
5.80832
5.26982
5.09824
5.89894
5.38411
5.65336
5.3911
5.15227
6.89637
5.74547
6.0623
5.37528
5.15512
4.95269
7.17385
5.27364
4.63099
6.07607
5.56961
4.20527
5.42861
5.07381
5.73615
6.54973
5.04046
4.79487
4.90641
4.97164
5.62877
4.80816
5.23112
5.93977
5.12271
5.75836
4.94117
5.71247
4.80914
7.22663
5.58079
4.75256
4.96807
5.2264
5.25447
4.43278
5.06274
7.12663
5.93076
5.72574
5.31595
5.55152
7.72034
5.469
4.87869
4.9403
4.98673
5.88413
6.01355
6.39318
5.52824
4.80274
5.13989
5.29326
5.5946
5.57597
4.90498
4.75679
5.39061
5.98117
4.63097
4.52467
5.22916
5.06357
5.08554
4.93998
5.79346
7.10005
4.45078
5.03499
4.6079
7.35276
6.69196
5.31541
4.69268
4.80301
5.84871
5.22173
4.11574
5.31921
6.93392
6.11708
5.12745
5.15399
4.4243
5.44765
6.13933
5.54789
4.99935
5.99771
5.31776
4.77031
5.19367
5.21264
5.49739
4.35438
6.07712
4.88069
6.13117
5.03915
5.92399
5.73173
6.42675
4.57191
5.93238
6.58539
5.99346
5.87126
5.34006
6.11823
6.03312
5.33767
5.31149
4.76362
4.44944
5.11811
4.94652
5.20591
5.60103
4.34834
5.93624
4.78172
6.01699
5.91385
5.90706
4.90967
5.5547
5.83597
5.7685
5.5216
5.25974
5.48025
5.99674
4.71383
5.4067
4.98587
5.01947
5.54504
5.68995
4.92846
6.7295
6.84937
5.02677
5.03242
4.97496
5.19099
5.11388
5.46298
5.18621
5.1065
5.79625
5.9774
5.49808
4.97701
6.12261
4.50215
5.67653
5.53582
5.15125
5.92745
6.10042
4.73438
5.39396
5.92408
4.35979
5.20776
4.44781
5.80155
5.21199
4.83033
5.24361
6.0752
6.23821
5.54604
5.25717
5.95614
5.26552
4.50621
6.48328
5.10592
5.32127
5.32467
6.30352
5.57283
6.2631
5.29953
9.68595
4.74761
5.19499
7.2727
5.18632
5.97884
5.40374
4.59635
5.22193
4.86522
5.18235
4.41248
5.27199
5.03915
7.60533
4.97798
4.70794
5.47066
4.44046
7.08408
8.20049
4.82456
5.93
5.01618
5.65678
5.3577
5.05148
5.25273
4.84446
6.02117
5.7463
5.51504
5.05884
5.47644
5.66452
5.93973
4.73754
5.08289
4.40573
4.87283
5.36
6.9774
4.61916
6.2062
7.42448
4.76318
5.50785
6.84028
5.30353
4.94564
5.06963
4.99894
5.54997
5.17053
4.46848
5.4207
5.49903
4.66775
5.70245
5.89216
5.13903
4.7152
5.94344
6.34394
5.57761
5.64816
5.82581
5.47959
5.31877
5.17402
5.24234
5.3177
5.48406
4.72515
4.99019
5.07099
5.05861
6.343
6.06053
5.12118
6.75193
5.88674
5.49324
6.00645
4.58477
5.05665
5.71471
5.7441
5.19689
4.51706
6.86261
5.10979
4.93173
4.50844
5.01665
5.06531
5.71378
5.43628
5.42484
5.73134
4.54065
5.58243
6.1665
5.08986
5.81504
5.03528
5.06585
4.82204
5.89792
4.60128
4.35939
5.81556
5.39356
6.03294
5.44624
5.83221
7.61866
6.76243
5.18338
5.7724
5.87963
5.11832
5.4766
4.79608
4.7407
5.29356
4.7838
5.53451
4.88296
5.3762
5.69742
5.73919
4.90214
5.19945
5.23708
5.34136
4.46621
4.80472
5.60567
5.53765
6.08476
5.66684
5.14487
7.02359
4.11134
6.21504
5.41704
5.97386
4.88961
4.82202
6.73532
5.57007
6.80945
5.79155
4.59543
5.83627
4.76312
6.17394
5.27029
5.54996
4.3015
4.93399
5.54508
4.86398
4.86411
5.21897
4.5966
5.6917
5.0923
4.44624
6.45201
5.96722
5.2817
7.13251
5.69526
4.94798
4.75788
5.18049
4.9991
5.30915
4.84814
6.01786
5.0968
4.38222
4.94795
5.72215
5.67066
6.27329
5.93562
6.13284
5.42353
10.5635
5.26809
5.99341
6.22319
4.96525
4.94697
5.96305
5.99371
6.0997
4.77292
4.52891
4.82736
5.10506
5.83952
4.39118
4.95453
5.82691
5.68721
6.53263
5.10441
6.14896
6.50512
6.40757
6.03537
5.12921
4.73024
5.10625
4.62982
5.1428
4.37489
4.2174
5.43514
4.84022
5.41146
4.71373
5.31595
6.85876
5.20372
4.4366
4.86119
4.57885
5.08968
6.13958
4.37076
6.79333
4.94615
6.00404
4.40943
5.2744
4.53922
5.93367
5.46121
6.46158
5.73249
4.86933
5.11171
5.61223
5.21699
6.41782
5.98841
5.00343
4.37779
5.25661
4.67442
5.57292
4.58515
4.77387
5.70622
6.1915
5.18306
5.41558
4.78157
5.36051
4.47973
5.84055
5.52038
5.03328
6.44324
4.87568
5.8183
5.11874
4.64742
5.54168
4.33704
5.93514
6.63023
4.6337
5.88365
5.2511
4.59227
5.21526
5.90432
4.74251
5.41152
5.35311
5.64305
6.11428
4.3394
4.53447
5.65006
5.26662
5.65425
6.5516
5.22059
5.82091
4.88257
6.89919
6.79059
4.73485
5.23469
4.84682
4.46973
5.09386
5.07093
4.57396
6.08501
4.91918
5.40012
5.4674
5.10617
5.64878
5.61401
6.8258
5.57487
5.05194
5.07996
5.39335
5.38189
4.89899
5.25144
5.41812
5.64048
6.04845
5.07372
5.09164
4.88997
5.36188
4.48634
5.15209
5.60812
5.05486
5.73599
5.40728
5.72658
4.69168
4.93317
4.93442
5.56497
6.08344
4.88759
4.57007
4.99746
5.47723
5.41198
4.45001
4.79716
5.12727
5.24903
5.9487
5.25507
5.24412
4.725
4.95914
5.8352
5.01648
6.19823
6.05306
4.60114
5.37321
5.11329
4.74433
4.42147
5.15825
5.46943
5.12777
5.06941
6.39116
5.1252
5.82101
5.60446
4.83513
5.40842
4.96374
5.20493
5.19472
5.972
6.07312
4.94297
6.06631
5.38104
5.94329
5.09854
4.81541
6.11475
4.94611
5.29289
5.51372
5.18084
4.76746
5.2926
5.66962
4.77309
5.05038
5.69953
5.02211
5.3032
7.02914
5.72087
4.70348
6.01406
4.43001
5.50713
5.73196
5.01645
6.10177
6.67634
6.94957
4.99416
5.23412
5.77799
4.88319
7.45541
5.13512
5.28693
5.12432
4.90547
4.78712
6.20513
5.75193
4.93444
5.77128
4.80552
6.03903
5.26398
5.38018
5.29953
5.62035
5.3037
4.87844
4.56197
5.34053
5.67854
4.97711
5.3725
4.7304
4.89666
5.51473
5.10473
5.02223
6.88025
5.82121
5.39889
5.32969
5.92399
4.93056
5.4233
4.87873
5.17751
5.24411
5.4534
5.06231
4.71976
5.11986
4.44945
5.35119
4.49568
5.34994
6.06968
5.73658
5.09607
4.61751
5.49564
5.21065
5.89175
5.50646
5.17904
6.01772
5.16437
4.73601
4.70528
5.18211
5.11868
5.02693
5.94784
4.68412
4.55928
4.98248
4.79538
4.28086
5.25471
6.05277
6.32182
4.74637
6.32067
5.83016
5.14019
5.72716
5.9661
5.85905
5.0184
5.38469
6.66213
5.37619
4.7582
5.81207
5.10994
7.15588
4.77886
4.95083
5.30731
5.07877
5.5832
4.76254
5.16865
6.13314
4.69833
5.12852
5.91825
5.53905
5.93125
5.66915
6.49832
6.34294
4.90213
4.42777
5.69168
5.00593
5.31457
7.59699
6.05677
5.04174
5.89817
6.15081
4.66411
5.44441
6.31416
4.36676
8.72198
6.29506
4.38755
5.64807
5.67599
5.40366
5.38358
5.34393
4.55892
6.4317
4.76815
5.46085
5.01737
5.29341
5.35788
5.77949
5.61134
6.44072
5.44488
5.13428
4.48992
5.10068
5.53349
5.28682
4.90666
5.96135
5.39716
4.80816
5.39776
4.83719
7.10942
4.74688
5.84861
4.255
4.70589
6.41128
5.67604
4.85069
5.29406
4.8819
5.02097
5.13851
4.66357
5.98876
4.5215
5.42325
5.02779
5.45188
4.90021
4.88578
6.19183
5.87729
6.37058
5.66097
6.17701
5.56154
5.11873
5.18259
5.60798
5.56058
5.63252
4.57201
6.34917
6.03542
5.1888
6.79183
4.87554
5.29201
6.12473
5.68526
5.59401
4.8826
6.21152
6.734
5.59176
7.17063
4.69234
5.622
5.34181
5.53351
5.33895
5.22637
5.1837
7.0294
5.27274
4.27861
4.92489
6.51055
6.07949
6.21957
5.22991
4.78512
5.90261
5.79888
5.101
6.17243
7.12914
6.08457
6.28078
4.69631
6.19222
5.80447
4.92957
5.03513
5.24458
6.33625
5.06092
5.15177
5.7921
5.70946
6.01255
5.00555
5.30868
5.28931
5.89263
6.22453
5.1105
4.66731
5.41743
5.16692
5.53144
4.9659
6.53793
5.41689
4.52781
7.5168
5.76613
4.77768
5.81426
4.86926
5.6771
5.66464
6.17566
5.40625
6.4571
4.60975
7.82281
5.20784
5.5685
5.48079
6.07339
4.35237
4.69671
4.96921
5.54813
6.53546
4.96354
4.99234
5.25974
5.32533
5.59657
6.03686
6.22225
4.49658
5.00821
4.41549
4.68847
4.91717
4.24064
5.63537
5.56208
4.9797
6.5584
4.27632
5.17594
5.7567
5.98986
4.46748
4.57798
5.48895
5.31142
5.01485
5.26096
5.20101
7.05733
5.11635
7.67324
5.78024
4.80194
5.40131
6.04229
7.09523
4.33896
5.64857
5.82524
4.99345
5.56321
6.19371
7.24672
5.81219
5.36206
6.6734
9.5756
4.34063
4.74063
6.00797
5.28571
5.49251
5.0217
6.41841
6.18884
5.25051
5.26052
6.83429
5.097
4.85259
4.80995
5.11017
5.33592
5.48861
5.60274
5.36423
5.46546
5.30609
5.03829
6.56515
6.86306
5.82217
4.29788
6.14888
4.79989
6.62639
4.63242
6.33137
5.71934
4.92063
5.79959
4.82913
4.88397
7.03451
6.21644
5.18143
6.88923
4.97144
5.15908
5.97849
5.73694
5.34279
5.06139
5.08698
5.27429
5.74957
5.13062
5.00182
5.17053
5.35524
5.92506
4.86377
4.88781
4.72732
4.81168
5.08857
7.40996
5.67773
4.94733
5.14047
6.58433
4.94262
5.41767
5.72751
5.39562
5.45051
7.2078
6.9834
4.70555
5.7564
6.27617
4.9333
5.23614
4.45669
6.29377
5.12961
4.26158
5.28127
5.12857
5.04522
5.21291
5.0348
5.23997
5.4257
5.08768
5.32898
4.15801
5.04934
4.3349
4.68869
4.68783
5.99358
7.66394
6.49889
5.1452
5.00256
6.78416
6.85225
6.39482
5.87818
5.07519
5.45247
5.07353
5.42186
5.86869
4.79006
5.17467
4.64629
7.26899
4.87612
6.73509
6.6404
5.22207
6.42202
4.92666
4.52076
6.29952
4.50164
5.61999
5.71967
4.74347
5.92475
5.3341
4.85131
5.77263
5.90099
5.25846
5.18639
6.81891
4.86509
5.27806
6.25116
5.20318
6.79518
4.65517
4.65197
5.11562
6.43542
5.25098
6.98118
6.61506
4.56817
5.24305
5.11684
5.23365
4.81668
6.0153
6.99154
4.71717
5.3087
5.4574
4.47568
5.40849
4.48415
6.67439
6.58356
5.26605
5.53564
5.72833
5.71241
6.42723
5.42862
5.46769
6.55828
5.3948
5.22552
5.11487
5.97515
4.85471
5.43718
7.53085
5.34157
5.38019
6.05034
5.34221
5.72196
6.57049
6.51001
5.71007
4.90432
5.39918
6.11626
4.86863
4.90276
5.20257
5.52504
4.86832
5.35313
5.514
5.03879
4.62498
6.14358
5.29385
4.23275
4.95327
5.69397
5.08989
4.77933
5.3891
4.57812
5.43022
4.8932
5.44246
6.41418
7.02233
5.94563
4.7194
4.4386
4.7127
5.02453
6.00421
5.43715
7.03626
4.82616
7.32568
5.04391
5.76455
5.20188
4.99817
5.28783
6.13756
4.99704
4.02745
5.05892
6.21661
4.78707
4.81612
5.08227
5.1556
6.49908
6.19998
6.30941
5.89228
5.49367
6.02094
5.79339
5.84722
4.92196
6.13089
5.04093
6.14912
5.40771
5.07203
6.42986
5.31192
5.05099
5.49973
5.8729
5.0239
5.39284
4.83894
5.97385
5.16399
5.63977
5.68315
4.80535
5.46074
4.78696
6.06524
4.84333
7.30236
5.56327
5.07302
5.19873
5.64254
5.63894
4.78778
4.91263
4.7079
4.69822
4.72941
4.81291
5.78524
4.75963
5.59183
6.17152
4.21595
4.11518
5.7771
5.63663
5.23227
5.59686
5.4796
4.18834
5.05904
5.51749
5.13152
4.61519
4.27922
4.98584
4.92477
6.0224
4.77922
4.642
4.89717
5.5791
6.99163
6.64752
5.96115
4.91232
4.83745
5.35303
4.89351
4.28868
4.72718
4.86026
4.74604
5.11779
5.16825
4.78938
4.82247
4.95654
7.67644
5.04691
6.60527
5.37868
5.66635
4.41237
6.02244
5.59661
5.17852
5.05166
4.9104
4.71298
4.80579
5.30825
7.32583
5.17671
5.00534
5.25789
5.51902
4.62698
5.165
6.41013
4.9604
6.21587
4.91099
6.18772
5.73009
5.967
5.41419
5.88064
5.10235
5.10756
4.8982
5.01294
5.34872
5.08216
4.83294
5.40633
5.52109
6.33123
5.01241
7.1326
5.18162
6.20517
4.75963
5.40723
5.38427
4.46246
5.7218
5.7366
5.92174
6.58345
5.21098
5.71699
5.25145
5.45438
4.9154
5.54323
5.13809
4.98089
4.95615
5.17614
5.26202
5.33945
6.39656
5.39925
7.47563
5.5066
6.68111
5.89105
5.19318
6.38778
5.02664
5.01607
7.3863
5.35734
6.20227
5.94214
5.24258
6.36323
5.00398
5.89913
5.03535
5.51076
4.72676
4.82083
4.60849
5.64557
5.20444
6.08524
4.87203
5.31464
5.15079
6.01795
4.69013
4.66237
6.72936
5.46907
6.39913
5.10773
5.58162
6.05346
5.2945
4.94323
4.69447
4.60507
5.25152
5.49527
5.1628
5.90088
5.15328
5.41014
5.00433
5.88527
4.99488
5.56276
5.79079
4.72231
4.94088
4.82942
5.29062
4.64196
5.08833
5.48463
4.94485
5.07639
5.15636
5.42238
4.45963
4.15096
6.15715
5.80858
5.64516
5.53105
5.23497
5.10011
5.64118
5.00401
5.19294
6.03026
5.01009
5.41191
5.03929
4.74323
4.95928
4.53272
5.83578
5.00448
4.908
5.7084
4.75284
5.96503
4.62985
5.25991
6.43963
5.26789
5.53495
4.16319
5.46353
5.01272
5.63099
5.62331
5.26488
6.0806
4.91805
5.16475
5.63389
5.15304
4.97094
4.53962
5.60545
4.45951
6.27749
4.6747
7.55611
4.91814
4.8295
5.29149
6.12738
6.1541
5.14607
4.55283
4.47408
5.44418
4.88119
4.77214
4.61916
6.65781
5.01561
4.56409
4.83721
4.78105
6.15712
5.67443
4.54339
4.61003
6.55442
4.55166
4.72185
4.6
5.17197
4.98776
4.57852
5.59351
4.60859
6.35072
4.14028
5.62878
6.00396
5.06198
4.7058
5.72205
5.22857
4.71904
4.89509
4.44522
5.19536
4.81263
4.28311
6.33472
5.53153
4.56035
5.54939
5.04854
5.06834
4.84772
5.05479
5.43268
4.52034
5.22851
5.7763
5.2998
4.78742
5.48615
4.28086
5.93605
5.88137
5.34985
7.00893
5.22861
6.21236
4.68179
5.32404
4.92108
4.50453
5.47508
6.59747
4.76132
5.65397
4.6781
4.25447
5.00276
4.86798
5.10127
6.17824
4.72185
5.70233
5.13767
4.70782
5.03136
5.29294
5.34801
5.89997
4.57169
5.29494
6.01257
4.92177
5.39603
5.41787
4.85538
4.77002
5.57481
5.55216
5.56028
5.4597
5.36481
5.10823
5.66707
6.50079
5.59063
5.78926
5.61791
4.25982
5.46783
5.43612
5.41103
4.65501
6.62512
5.25073
5.41929
5.28863
4.228
5.55958
5.56599
4.81517
7.10603
6.22703
4.99191
6.62847
4.19251
5.17564
5.47675
5.60697
5.62908
5.00677
6.59835
5.98825
6.40805
4.50553
5.95033
7.02375
5.87477
8.0502
5.77754
4.3504
5.64152
6.94911
5.67791
6.07454
4.07482
5.41656
6.42316
5.27162
5.99495
6.90678
4.73334
5.29097
4.78245
4.73284
6.24126
5.68845
4.3088
5.28224
6.42662
5.54973
5.70293
5.45197
5.76532
4.6854
8.09295
5.37358
5.36742
5.50108
5.98238
5.31313
5.16005
5.29271
5.12861
4.6048
6.80435
4.9118
4.42436
5.97611
5.57583
4.74001
5.75245
4.6145
5.11463
5.35407
4.55286
4.80961
5.0337
4.79639
6.56133
6.03891
5.29824
5.05241
5.15353
6.69917
5.57011
4.95279
5.11313
6.44597
5.53181
6.72667
4.92693
5.27635
5.30232
4.88224
5.56328
6.28569
5.36251
5.42576
5.37807
6.14187
5.39999
5.69131
4.88232
5.24592
4.94657
5.43097
4.78956
5.56271
6.49073
4.42273
6.09422
5.49029
5.44245
5.14365
4.74331
4.39186
4.87624
5.01221
5.40055
4.97019
6.37749
5.50653
5.44197
7.02646
5.57473
4.71815
5.44334
4.96785
5.01241
5.79761
5.32212
4.63938
4.74676
4.55497
4.75771
6.70799
5.03277
5.63114
4.69471
4.85263
6.943
6.09491
5.60488
5.09305
4.84929
5.67733
5.13935
4.96843
5.63677
5.99349
5.4953
4.55898
6.05299
4.95607
5.38594
5.23571
4.92313
5.9808
5.12518
5.86257
5.26051
5.93021
5.29502
5.65712
5.14362
5.11077
4.37795
4.86617
5.16982
5.18593
7.37875
4.65263
4.47575
5.52025
5.05553
6.14547
6.07711
5.56853
5.50644
4.84314
4.44079
4.65487
6.85509
5.8742
6.81559
4.62474
5.85645
5.57255
8.24389
5.43337
5.46312
5.04742
5.17885
5.23717
6.01137
6.80699
5.05428
5.47229
4.59593
5.58094
5.42635
4.24634
5.66257
5.88224
6.59968
5.58498
5.6655
6.84135
5.08541
4.66563
4.64668
6.03048
4.69706
5.53033
6.76457
5.61342
6.32808
4.97199
5.8243
5.30893
5.36628
4.94537
5.71629
4.6076
5.60611
5.83441
6.01197
6.3464
5.72883
5.18248
5.07975
4.58391
5.48474
5.12501
5.64249
5.14607
5.44772
5.2171
5.09791
6.01141
5.1916
5.6467
5.85219
5.0778
6.69763
4.68971
5.08827
5.66873
4.53402
5.01691
4.90836
5.45932
6.57995
4.81152
6.68001
4.7577
5.15396
5.21969
5.12664
5.73599
4.81785
4.79658
5.6601
5.24235
6.13229
5.74237
4.5604
6.34698
5.54164
5.13853
4.83288
6.3567
4.80341
5.25255
5.33611
5.22306
5.09868
6.27918
5.96222
5.18474
4.89855
5.41896
5.67579
4.19636
4.98163
6.33891
6.0666
5.60804
5.43956
6.09137
9.47084
4.86968
6.27902
5.02681
4.95316
5.80344
5.42547
5.19374
6.32543
6.16814
5.55687
7.07387
5.67844
5.09057
5.27308
7.12157
5.46472
5.30027
4.37105
5.76788
5.41054
6.25367
4.82524
5.15002
4.77178
5.66902
5.42963
6.8829
5.77887
4.72621
5.3131
5.45241
5.35221
4.65537
5.17269
7.92656
6.43643
4.5545
4.97308
5.29236
5.40586
4.95958
7.0741
4.95086
8.12961
5.08247
6.275
6.23704
5.43265
6.65196
5.08316
5.15592
6.07664
5.5617
5.09005
6.92253
5.19883
5.05486
5.41192
5.5074
5.56591
5.07539
5.55951
5.43736
5.27014
5.91781
4.09376
5.25387
7.01646
6.21671
6.04661
4.65963
4.96
4.64713
7.09176
5.05838
5.05677
4.58924
4.89637
5.36583
7.32264
5.34884
6.43128
4.99637
5.3494
4.66626
4.48602
6.10461
5.63818
4.61679
4.69904
5.90169
5.30628
5.28206
4.95845
6.05981
5.4024
5.58686
4.62941
6.48967
5.98255
5.07785
5.13806
6.00474
4.85705
5.19341
6.43616
6.79419
5.06938
5.30145
6.45714
4.84652
5.18691
5.04593
4.97989
5.22801
4.61108
5.16074
4.99472
4.93434
5.88647
5.47016
5.35036
5.13127
4.44804
6.6864
7.0592
5.18147
5.41977
4.95489
4.91992
5.56462
5.35449
4.90797
5.36259
5.60115
4.79763
5.43031
6.34863
4.97377
5.30262
4.18767
6.63524
5.07599
5.54785
5.36621
5.613
5.43711
5.39076
5.70389
5.45555
5.39033
5.05166
5.04491
5.14347
5.10092
4.73184
5.20784
4.91933
4.72033
5.49843
5.01302
6.02664
6.08294
5.14994
5.4469
4.72228
4.61046
5.04683
6.05471
6.19246
5.54594
5.38929
5.71874
4.82972
5.26113
6.31967
4.64067
5.22001
6.49181
4.69943
6.5894
4.84823
6.59436
5.92805
4.92421
4.51846
4.99992
4.94513
4.76845
5.51022
5.69287
5.3159
5.18619
5.38781
5.3572
4.86795
5.29398
4.90673
5.13952
5.89172
5.53411
4.85499
6.46499
5.73149
4.93642
6.21432
6.46506
4.95606
5.28061
5.08526
5.1352
4.88016
5.88944
4.77881
5.01073
5.82924
5.2435
5.29211
5.44103
5.88335
4.66331
4.93151
4.85369
5.42134
5.11819
5.08636
6.29163
5.13399
4.99719
6.25187
5.17558
5.6469
4.58511
6.18031
5.51521
4.45448
4.6388
5.51259
4.81088
4.95589
6.14077
5.17747
5.22912
6.16306
5.97689
4.89518
4.54068
5.38237
4.99
4.51654
5.17178
4.75618
6.35077
6.83339
5.83591
5.47212
4.39949
4.61594
5.06091
4.2576
6.09827
5.28301
5.38364
4.92798
5.23728
4.97775
5.36115
6.3897
5.28419
6.26283
6.03644
6.40136
3.99353
6.28724
5.98931
5.46701
5.07837
5.50415
6.32763
6.01389
6.1345
5.06226
5.13776
5.64024
4.93749
5.05626
5.19162
5.19532
5.53955
5.23306
5.16425
5.21465
5.37842
5.34739
5.47505
5.39313
5.30867
5.87259
6.38417
4.93666
5.94985
5.50881
5.78011
4.96973
5.04551
5.23787
4.68919
5.901
5.87637
5.84393
5.89577
5.72886
6.93624
4.6531
5.66807
5.60442
5.38144
5.13559
5.84669
4.9683
5.36158
6.74969
5.37322
4.72693
4.8064
5.28993
5.8723
6.17082
4.29008
5.18681
5.78873
5.35756
6.15573
4.39198
5.19142
6.3974
5.87085
6.35161
5.45276
4.67655
6.43674
7.03319
6.08303
4.61628
4.86134
5.6529
6.68463
5.52022
4.92524
6.18266
4.61211
5.41521
5.40928
5.14934
6.47508
5.21506
6.26162
5.01618
7.19668
5.51186
4.63231
6.65102
6.26168
4.47922
6.06298
4.8146
5.02585
5.5371
4.81449
4.76704
4.82422
7.3174
4.80059
6.28944
5.09564
5.36531
6.29308
4.80145
6.71727
4.46606
5.74167
4.55387
6.2232
4.66613
4.7944
5.07312
4.67736
5.20071
5.19357
6.12437
5.24799
4.70932
4.59303
5.69519
5.21164
5.27891
5.18193
4.6488
5.05764
4.42492
5.10565
5.84736
4.95283
4.98166
6.55985
4.61378
5.96347
6.76584
5.91159
4.49045
5.08685
4.56623
5.30727
4.73038
5.67054
5.14515
5.70206
4.46253
4.87562
4.47515
5.38204
5.36879
6.4291
5.18209
4.64122
5.14558
5.13377
4.97489
6.84166
5.15569
7.29243
5.63727
4.50299
5.46831
4.48523
6.69319
4.60269
5.41533
4.1879
5.56307
5.80655
6.02308
7.15136
4.91315
5.73549
5.33173
5.00324
4.64538
4.99307
5.02162
5.96574
6.56299
5.69649
5.09276
5.59114
5.21735
6.03454
5.98871
4.97247
5.77533
5.08594
4.68098
5.84814
6.43159
4.75571
5.35557
5.38635
5.95733
4.24341
4.85697
4.04731
7.3805
6.13346
6.08
5.76456
4.96662
4.92546
5.32542
5.42124
5.8855
4.71395
4.76534
5.62335
6.73222
4.72248
6.09272
5.13632
5.66694
5.37869
5.3344
6.16197
4.93193
5.49463
5.53537
6.4896
4.63563
5.62986
4.22602
6.11249
4.47756
4.60835
5.09525
5.35298
5.35326
5.19971
5.20963
4.94711
6.39324
4.98538
4.64276
5.83605
5.33208
5.91127
6.26103
6.14968
5.19277
5.23045
4.58554
6.21783
6.38011
5.29829
7.07975
4.3978
4.9397
5.13393
5.02666
5.46374
5.89838
5.68919
5.27067
5.33149
6.64703
6.61557
5.45419
6.23301
6.4079
6.04854
4.93365
5.11748
6.28356
5.88002
5.91213
5.0978
6.01258
5.05828
4.57423
4.79406
4.84679
5.07176
5.46125
6.03395
4.73891
4.92704
5.44944
6.83825
5.0476
4.49353
4.38173
5.12641
5.39878
4.7548
4.74124
6.39201
5.04994
6.50838
5.6709
4.88091
5.02135
5.7063
7.72832
5.75765
4.72208
6.35348
4.62219
5.64795
4.95945
4.82583
6.01992
4.37231
5.76021
5.64617
6.35094
4.8126
5.5266
5.13542
5.43098
4.88055
5.80137
5.327
5.35548
4.95064
6.08699
5.83151
5.97058
5.32182
5.32775
4.72682
4.62829
5.47071
4.71567
4.8298
5.52623
5.65026
5.53468
5.57853
5.05068
4.80498
5.90458
7.84326
5.61769
4.57145
5.18014
4.7776
5.60057
6.07542
4.95518
5.76391
5.63763
6.50954
5.08008
6.60246
7.44365
5.74812
5.36063
4.81931
4.60609
6.18116
6.47475
5.57765
4.93293
5.45973
5.0188
5.04256
5.03281
4.83794
4.85769
4.81768
5.14724
5.73274
5.50135
5.05054
4.88343
4.30494
5.12164
4.50781
4.84978
5.82562
4.48435
5.23755
4.42372
5.72864
5.83102
4.5938
4.99156
5.68078
5.21099
6.4601
7.44551
4.74028
4.45377
5.0927
6.37819
4.92884
5.28492
5.48526
5.39967
4.94523
5.29887
5.37969
4.81449
5.16378
4.68078
5.82489
5.31765
6.06993
5.70638
6.12278
4.87598
5.04479
5.28536
6.39653
5.39067
4.95594
5.58575
6.46994
4.97911
4.86397
5.21076
5.28278
5.25424
5.21847
5.94369
5.45845
4.67278
4.91956
5.74789
6.4103
5.26108
5.66365
5.56943
5.17353
5.96363
5.71867
4.85167
4.66704
5.81516
4.39382
5.23173
5.60859
5.06509
7.15495
5.52607
4.70638
6.92768
5.60278
5.38606
5.79999
4.38763
5.46296
4.62281
6.09368
4.76081
5.58828
5.92461
6.5767
5.82934
5.17324
4.92792
5.90397
6.07461
5.36972
5.41849
4.59823
5.59534
4.81049
5.33733
6.32763
5.5804
5.48161
5.78212
5.57254
5.36368
4.96724
5.4713
5.66049
4.85591
4.4175
6.1977
4.27536
5.05458
5.153
5.38054
5.51718
4.36154
5.29627
5.97109
6.81806
5.03605
4.75648
5.97163
6.24877
5.28839
5.84422
4.90789
5.01819
5.30586
6.56047
5.29379
5.68367
4.97902
4.97944
5.23132
4.97652
5.44701
4.63175
5.12822
5.21986
4.68236
5.8646
5.12772
5.7145
5.07396
5.40441
5.82122
4.35039
5.42879
4.92925
6.59472
5.52909
4.86505
6.2198
5.58886
5.35169
6.31219
6.81338
5.09293
6.12633
4.99683
6.07035
4.70351
5.36482
4.78419
4.75038
5.5768
5.34028
5.93537
5.71849
5.39263
6.2377
5.1701
4.78748
5.42944
4.66752
5.26388
5.43016
4.93065
4.69206
5.01063
5.58685
5.75113
5.29835
6.69874
6.82085
4.87224
6.56057
5.5865
5.68919
5.56164
7.61833
8.30506
4.68884
5.22736
5.46123
4.42755
5.43246
6.14366
4.50546
4.64309
5.94963
5.80895
6.08004
5.2036
6.75207
5.08415
4.91469
4.78344
6.14362
4.92976
5.72509
5.33357
6.32432
5.15186
4.59375
5.30925
5.10584
5.61322
6.19848
4.37953
4.88103
5.94529
5.95574
4.91779
4.98106
5.01877
5.29686
4.98392
5.76114
6.03578
5.71921
4.47504
5.01651
5.88952
5.61229
6.0975
4.81114
5.54329
5.88312
5.14856
4.78493
6.5212
4.3349
5.51722
5.66821
4.9999
6.23158
5.55685
5.01118
4.22797
4.54055
6.52697
5.43081
4.84864
5.01968
5.37242
6.07745
5.05049
5.47614
4.4567
6.45851
4.19962
5.05072
6.85206
6.74643
4.61734
4.85319
5.88654
5.24111
5.33611
5.23852
5.07572
6.10412
6.24945
4.60918
5.52695
4.74483
6.68588
5.24931
5.49374
5.68694
5.07498
5.42565
4.70507
4.25625
5.94057
5.02085
4.6052
6.69953
5.67911
4.86467
5.08228
5.03206
6.08565
5.72994
6.0758
4.75819
4.63165
5.50598
4.97202
4.76071
5.63606
4.88455
5.4587
5.56583
4.9944
5.67028
5.62223
6.38949
5.04086
4.2279
5.73774
5.3893
5.16916
6.18988
5.15842
4.74743
4.797
4.83324
6.15304
5.03158
6.08554
6.89387
4.85398
5.41509
7.22322
6.11308
4.8718
5.67663
5.66324
5.1231
5.69082
5.17896
5.15208
6.33062
4.49662
4.60993
5.20231
5.9569
6.52311
5.07294
5.2339
5.30387
6.44514
6.62447
5.15384
5.50625
4.99713
5.04218
4.93659
4.94995
5.35714
6.4788
5.77206
4.41309
4.97198
5.58458
5.73258
4.78434
6.0341
4.65853
5.13341
4.5877
6.05409
6.03411
5.06919
4.70445
5.55356
5.0773
5.0126
6.0956
4.65921
4.83708
4.69066
4.85729
4.59275
5.58457
5.57028
4.63929
5.29934
5.35721
5.26687
6.82849
6.24441
5.64703
6.10552
6.61644
5.54739
4.71444
4.76246
7.25669
5.0129
5.54351
4.86101
4.41696
5.97193
5.14734
4.98155
4.72681
5.45786
5.10842
5.51351
5.59266
5.68087
5.62926
6.01145
4.57735
4.90668
5.7607
4.82079
4.6094
5.05101
6.51481
5.37879
4.93985
5.81505
6.69106
6.11186
5.83287
4.74842
5.85205
5.89548
5.07872
4.50377
6.58725
4.66414
5.22723
4.6227
5.68739
6.94606
4.52709
5.30212
5.41131
5.92833
5.88993
5.00715
5.41071
5.18601
5.22009
5.61914
5.10576
4.68338
6.31339
4.96061
5.3139
4.74037
4.77998
6.15019
6.87201
5.35282
6.15559
4.8329
5.71357
5.78403
5.60988
5.78782
5.00714
6.43273
4.68441
6.41298
6.33238
4.61627
5.11917
5.38813
4.57344
6.0079
6.44409
4.48437
4.74798
5.49871
6.29299
5.99178
5.38254
5.72161
8.4147
5.1628
5.444
5.42283
5.09872
5.47024
5.11317
5.25617
5.13601
4.62016
6.61897
6.77008
5.84996
5.65157
5.42099
5.8378
4.82657
5.9429
6.37511
5.07756
4.79042
4.80479
4.76855
6.25658
5.77342
5.42165
5.34841
6.18533
4.8268
6.60916
6.82789
4.69759
6.97484
5.20384
5.9653
5.74983
5.45711
5.06092
4.50387
5.14872
5.82337
5.86909
7.26145
6.71043
4.98036
4.73185
5.12071
5.19428
5.90104
5.5441
6.12937
4.61771
6.63625
5.47841
5.97256
4.6614
7.205
5.69241
4.91064
5.04416
4.83282
4.44748
4.30816
5.22779
6.16057
4.66146
5.4537
5.71665
5.75584
5.43104
5.11279
4.68264
5.23378
5.30944
4.94089
5.09755
4.83585
5.58548
5.95691
6.45604
6.44553
5.11722
5.22871
5.48014
4.94805
5.32251
4.57318
5.85837
4.38378
5.91272
6.01816
4.81381
4.45148
4.94489
4.53579
4.62039
5.32504
4.57713
4.83813
4.48297
5.12549
6.66764
4.971
5.54245
6.62893
5.73471
5.08313
6.93482
5.1743
6.40045
5.93596
5.3766
5.16212
5.60041
6.19137
5.20467
5.61732
5.43703
5.22512
4.64218
4.89908
4.6179
5.40622
4.9476
5.25471
5.51591
6.86884
5.29995
4.71572
4.71757
5.44256
5.05639
5.31174
4.1441
5.24119
4.46992
4.9637
5.57578
4.86864
7.02934
5.27973
5.10131
4.61456
4.82758
5.17037
5.87445
5.37316
4.9905
4.78315
6.22264
5.35879
4.95855
5.92839
5.08421
6.41315
5.26096
4.86958
4.54975
7.72365
5.668
5.28561
5.42561
5.13703
4.5345
4.45056
5.4377
4.81275
5.04477
5.23083
6.00186
6.12595
4.50908
5.15566
6.05535
4.68374
4.42387
5.76361
5.77251
5.65226
4.83415
6.07554
5.20136
4.23227
5.28786
5.56572
5.82924
5.69636
4.66789
4.61349
6.07565
4.72405
4.68464
5.08621
4.84372
6.11099
5.79499
5.3245
6.62111
4.92824
4.71938
5.07069
4.65256
5.19162
4.81275
4.75283
5.46756
4.90023
5.00583
4.81807
4.77169
5.38853
6.35986
5.82137
6.49815
4.6132
3.9368
5.77399
6.8725
6.13161
4.80078
5.56305
5.76628
5.29294
4.90937
5.20226
4.63284
4.89625
5.33653
5.98239
4.68586
5.27397
4.89091
5.17613
8.42784
5.4213
5.4794
5.28031
5.62409
5.09652
5.20353
4.7532
6.34886
5.15994
5.35427
4.9318
5.01095
5.97094
5.39454
5.10505
5.23786
6.26994
5.32282
8.45521
4.77514
5.80357
6.5656
5.40619
4.76806
5.26827
4.78837
6.53639
4.87843
5.23946
5.13405
5.31222
5.47531
4.27468
6.73423
4.72572
4.90778
5.51951
5.8236
4.97187
6.78678
4.58934
5.14616
5.53719
5.32963
4.73744
6.2944
5.86058
5.34545
5.48295
5.15951
5.39204
5.46022
4.45915
6.07825
5.41459
4.94773
5.42944
5.51441
4.99321
5.30406
5.23652
4.82966
6.0939
4.90143
5.96698
5.31439
5.56605
5.25625
5.50001
6.15305
4.54135
5.98759
5.72513
4.44414
5.05097
5.01532
4.88057
5.66677
5.54337
5.27028
5.51199
5.41988
11.2184
6.23551
5.05256
7.10737
6.85366
5.18546
5.80672
5.5697
5.77339
6.23141
5.04872
4.37882
5.26086
5.94025
4.63445
5.20872
5.92196
5.80563
4.90193
6.07565
5.59967
5.53558
5.78081
4.87158
4.92052
5.99598
5.31364
5.57308
5.77439
5.85878
5.7643
6.06043
7.1087
6.53658
5.70183
5.20418
4.67364
5.2122
4.13993
5.21118
6.11899
5.82035
6.22304
4.25491
5.40381
4.65862
6.39354
5.58762
4.80857
5.03495
5.07741
5.0485
5.21528
4.8137
6.06083
5.29569
5.29788
5.1053
6.0669
4.96149
5.05558
4.82572
5.93577
5.73171
7.78774
4.3903
6.50417
5.35238
6.09049
4.86356
4.84924
5.72757
5.51339
6.0998
6.11405
4.77848
5.01024
4.4289
8.4326
5.93578
4.7674
6.41565
7.07447
6.12929
5.77976
4.93175
4.93738
8.04119
6.41063
5.40135
5.65316
5.66194
5.45304
6.05199
6.81887
7.35076
4.78194
5.42337
6.21878
4.85463
5.168
5.32003
4.69323
5.59608
4.95204
5.99976
6.94384
4.19851
8.32524
4.87169
5.72746
4.34772
5.12825
5.12476
5.00858
4.6773
5.64995
5.94227
6.58725
5.82211
6.22414
5.61183
5.71864
5.89233
5.21916
5.46149
4.49816
4.97806
5.16284
5.40813
4.94052
5.1041
5.29529
4.84691
5.63837
5.36611
4.30105
5.09683
4.93724
5.59442
6.35658
5.06597
4.64739
6.25497
4.58321
5.09591
4.77929
5.39359
5.87209
4.92225
5.29908
5.60288
5.57235
5.4749
4.92848
5.23672
5.64489
6.06062
6.43384
6.90035
5.19999
6.05108
4.22812
4.66815
5.73884
6.28848
5.21573
4.86213
5.91125
4.6212
4.6593
5.04002
7.23412
4.94479
6.94318
7.52665
5.69954
5.10603
5.14757
4.40619
7.73292
5.55065
4.8514
5.73285
5.52295
6.20821
5.9658
4.57249
4.97507
5.43999
5.90529
4.88156
5.3486
6.35257
5.19633
4.85409
5.43377
5.75468
5.23136
7.32392
5.53343
4.96523
4.85854
6.63056
4.62198
4.82916
4.37111
5.54606
6.87316
5.21719
5.89702
5.49331
4.89207
4.7231
4.86312
5.49049
4.92407
6.45467
5.53783
5.12838
6.06341
5.5
4.17832
5.56085
4.58436
5.11775
5.61543
5.59104
7.36217
5.1116
5.40465
4.96136
5.32932
5.32462
4.89877
6.86094
4.67311
5.39246
5.07385
5.12912
4.76102
5.0783
6.38828
5.48589
5.00964
5.30776
4.82637
5.26298
5.32486
4.25174
5.79001
5.31215
5.8273
6.0558
5.48548
5.12202
4.8657
6.25016
6.03986
4.82099
5.13337
5.89164
6.32933
4.62039
4.96433
6.01113
5.14992
5.2115
5.81983
5.0229
5.10928
5.20796
6.53099
5.88698
5.20207
4.96567
4.9368
6.32948
5.41156
5.13142
4.56427
4.68305
5.36539
4.77379
5.11788
5.96242
5.08112
6.60894
5.38277
5.24953
5.87964
5.11232
6.20402
5.24516
7.23595
7.06859
5.10935
4.10332
5.12851
5.73157
5.12997
4.89398
5.68301
5.42353
4.48696
6.48902
5.4359
5.02644
5.38191
5.33712
5.98076
5.65971
5.53554
5.7243
6.58143
5.6091
5.92475
5.07468
5.22193
5.36064
4.69619
6.13206
4.96947
5.77005
5.67377
6.37808
5.25028
6.35777
4.45264
5.96901
5.2021
6.74953
4.27951
5.18858
4.46366
5.57268
6.50839
5.47828
5.26238
5.10969
4.32274
5.47113
5.70521
5.67361
6.01216
5.72185
5.95604
4.90197
5.77231
4.6111
6.21918
5.8433
5.2135
5.68473
5.37885
6.77583
5.03093
5.43467
4.77253
4.94252
4.32649
5.74052
4.49674
5.5341
4.96733
5.72229
6.38975
4.63392
5.06608
4.61945
5.11626
6.54852
5.70669
5.46796
4.69093
5.93235
5.84175
5.78192
6.10099
6.38331
5.14534
4.82827
5.48329
5.56782
4.95247
5.33384
5.62463
5.56633
5.53073
5.33638
4.87436
5.00066
6.68493
6.94669
6.52144
4.51656
5.09168
5.24096
4.9313
5.76297
5.35118
5.25971
5.05937
4.97828
5.26245
6.46993
5.025
5.04399
4.89955
5.20762
6.50868
4.99707
5.6421
5.14981
5.04027
4.95154
4.74626
5.26896
5.58706
5.66086
4.67378
6.47243
4.7691
5.38944
4.57024
5.36323
4.60048
5.1209
4.949
6.86094
5.06772
6.64641
8.51983
4.63732
7.35729
5.64334
8.13509
4.20825
4.77315
5.4916
7.15645
4.6894
4.75388
5.76067
5.13275
5.65172
5.29577
6.81167
8.64871
8.46544
5.34045
6.17241
4.44071
6.0102
5.24304
4.93872
5.12886
4.42593
4.87128
6.00274
4.92781
4.78748
5.67577
5.86536
4.97403
5.30889
4.99196
4.82301
6.55503
5.52406
4.90154
6.31202
6.23926
4.88105
5.80589
4.96713
5.93061
5.02519
5.73673
5.13399
4.84854
5.83031
4.68331
4.32952
5.45025
5.06321
4.91792
6.23348
5.29282
4.80317
5.2592
4.40333
4.91042
5.11053
5.21698
5.14269
5.83971
5.29918
5.45713
5.62456
5.56422
6.05247
4.86783
7.20546
4.25583
5.93426
6.19352
5.11401
4.63396
4.82717
4.98022
5.35107
4.35299
6.74715
5.32748
8.94265
4.56257
4.79906
6.49787
4.7629
4.37543
5.66938
4.83764
6.59501
5.46153
4.91649
5.96938
5.36896
6.49145
5.86353
4.87671
5.32939
5.11458
4.36722
4.94348
6.22668
4.58645
4.86991
7.32756
4.74219
4.55099
5.11968
5.77802
5.44027
6.47433
5.3853
7.32745
5.3606
6.16491
5.41269
5.73747
5.82021
5.23419
4.95015
5.58589
5.7904
5.06265
5.54271
9.15344
4.73481
5.17689
4.78101
5.14428
5.75889
5.22129
4.91752
5.32326
5.31629
5.50212
6.20586
4.72639
6.23237
5.75894
5.23193
5.83743
4.97242
5.0358
5.36582
4.32383
5.26204
4.25418
4.81627
5.24275
5.52648
6.60749
5.81785
4.90348
5.31769
5.49195
6.18996
4.97198
4.70293
5.43497
5.86303
6.05271
5.56894
5.41475
5.33408
8.96625
5.45441
4.21186
4.98937
6.21291
4.72494
4.75304
5.94737
4.88383
5.5965
5.16145
5.02538
5.41217
6.51728
4.85173
5.44891
5.66401
5.22963
5.10916
5.75137
5.67728
4.59574
7.37325
5.01289
6.31824
5.44744
5.19364
4.77358
4.98619
5.69676
5.41615
5.89146
4.13202
5.03555
4.86265
5.89771
5.19669
5.40703
5.04212
4.79308
4.63029
4.23009
5.28432
6.24911
4.82818
4.33967
5.29811
5.8032
5.63324
5.06743
5.3221
5.54243
5.93613
5.74689
4.7817
5.32193
5.65667
5.24538
5.25552
4.67361
5.53137
5.77295
4.78834
4.90078
5.50063
5.0203
5.22431
5.32941
4.37452
7.11385
6.63745
7.08317
5.7878
5.69588
4.92644
6.21693
4.94182
5.65487
4.94714
4.77413
5.46581
4.83977
4.8157
4.21045
5.35908
5.40994
5.71921
4.96055
5.3373
5.23015
5.82648
5.40774
6.48605
4.65004
4.99611
6.05989
5.79152
5.85824
5.52767
5.80056
6.5127
4.97845
5.61171
6.96475
6.49026
4.81027
6.16185
4.79864
4.60449
5.05838
6.05333
5.47957
8.38293
4.04789
4.59072
5.0404
4.78959
5.61783
5.25754
5.09765
5.51271
6.73876
5.06596
6.59614
4.6167
5.46469
5.94548
5.80349
6.69908
4.45861
5.30822
5.58024
5.14527
5.78459
5.03002
8.35707
6.01818
5.03623
5.39764
4.88378
5.28487
4.37709
5.25957
5.20419
5.2135
6.06264
6.33148
6.08465
6.04968
7.13305
5.67743
4.91028
5.90081
5.18944
5.07676
5.69561
6.11327
5.59289
6.08625
4.87692
7.19762
4.31181
6.45991
5.77059
5.0235
5.20079
5.87613
4.97409
4.76983
4.56641
4.85892
4.30161
5.06631
5.91411
6.35204
6.39348
5.98393
5.33791
4.92884
5.88184
5.61414
5.24691
4.41132
5.18118
4.71788
5.8771
5.66679
5.28408
6.26506
4.88874
4.52114
5.38255
5.09391
5.63491
5.40917
7.16562
4.92228
4.73832
5.5269
4.68382
5.30918
4.70538
4.68396
7.08878
5.84393
4.99731
6.42559
5.99041
4.98808
5.34839
5.42476
7.04865
5.31518
5.41172
6.08903
5.12915
4.82206
5.0479
5.02735
5.52876
5.69859
4.85362
5.98006
5.29218
6.93543
5.1108
5.19819
5.79184
5.24514
5.6195
5.32173
5.39755
6.11872
6.43783
4.74444
5.15572
5.32432
5.35758
5.41092
5.35427
5.82172
5.22771
4.7678
6.06277
5.1984
5.315
6.14589
5.53126
7.0617
6.27993
5.71098
7.13281
5.01688
4.76044
5.23887
5.45959
6.53743
4.61945
5.68168
6.75355
5.34609
4.93463
5.38749
4.74722
5.61794
5.56259
4.95163
4.45495
5.01561
5.95553
5.6781
5.5615
5.1096
4.9107
4.62269
6.08501
4.34787
5.60399
5.55193
7.05879
5.31546
5.66873
5.02968
5.75018
4.84937
6.09764
8.60604
4.69051
4.88659
4.75471
4.89528
4.60495
4.72919
5.02868
5.84199
4.33812
5.16619
8.61493
5.68972
6.10515
4.66661
6.62089
5.26378
5.51558
5.03173
6.21198
5.47206
4.64268
5.06871
4.99299
5.64336
5.77689
5.44966
7.47824
4.82083
5.28678
4.25625
6.43168
4.56794
6.62569
5.33787
4.44111
4.46064
6.28846
4.37491
4.71146
5.31167
6.7348
6.6106
6.18039
4.60505
5.23571
5.15258
4.78982
6.539
4.85428
5.86906
5.89291
5.30666
5.16031
5.60774
4.8193
4.40879
6.78227
5.93928
6.01445
4.9225
4.97661
4.79908
4.67315
6.67247
6.01941
5.44502
5.92426
4.38249
6.17836
6.224
5.48625
5.14675
5.20101
4.82901
5.53794
4.3253
4.82925
4.69328
5.33366
4.65743
4.90033
7.12976
5.02531
5.28272
5.43983
4.24154
4.96587
5.13361
6.51595
6.28126
4.69807
6.06537
5.14906
5.42905
9.34268
6.2436
5.33543
6.05971
4.79308
6.4058
4.71732
5.69707
6.11871
5.73901
5.27958
4.96615
4.90456
4.70077
4.96853
5.7268
4.80748
5.48341
6.68926
5.49777
5.28495
5.5327
6.77144
4.52405
5.45435
4.74221
5.49984
5.75449
6.27943
5.2239
5.29684
5.51719
5.04994
4.68345
4.83451
4.71282
5.55878
5.00076
4.76143
5.27919
5.44467
5.98017
5.05255
5.13376
4.98132
5.09137
5.69816
4.67359
5.06902
4.56719
6.40177
6.02691
5.34904
6.02916
5.4323
4.69923
5.60649
4.32026
5.20336
4.46092
4.8408
5.70527
5.32107
5.35457
4.67839
5.35498
4.64121
5.14195
5.02193
4.79361
5.47306
6.31087
5.21965
4.82597
7.25489
4.20533
4.8226
5.87557
5.63121
4.77789
4.43308
6.25261
4.26872
4.36167
5.55648
6.2658
5.22065
6.34452
5.4439
4.85995
6.04232
5.21866
5.50891
6.0746
5.25187
4.895
5.26171
4.7352
5.98181
6.0908
5.64566
4.81423
5.89487
5.32224
5.06339
6.33279
6.02624
5.30296
7.32274
6.47005
5.52802
5.67694
4.56426
5.0921
7.0078
4.907
4.91337
6.39047
5.62444
5.69658
4.3933
5.30156
5.08115
5.90599
5.88996
4.71998
5.06782
4.5199
6.22009
5.12443
6.26702
5.1259
4.86966
5.19017
5.26297
5.40559
5.36285
5.19809
4.85526
6.90393
5.91152
5.48494
5.49094
5.40844
6.29663
5.05771
4.61377
5.16391
4.65595
4.99015
4.93342
5.33569
6.08417
4.85469
5.57366
5.42911
5.17031
5.76857
6.33102
5.84181
5.24124
6.0332
4.67402
5.01405
4.8899
5.45119
5.18835
4.85101
4.66145
5.6584
5.58847
4.95428
4.47835
5.73395
5.43683
6.03616
5.21857
4.76278
5.53461
5.06079
4.857
4.36545
5.40185
6.01062
5.41452
4.49704
4.77672
5.87747
5.4527
6.08319
4.69293
5.65439
7.3702
5.11467
5.94074
6.03938
5.68721
6.05078
5.61032
7.93513
5.43135
5.40813
5.19505
6.07458
5.17144
4.68404
5.68105
7.12489
5.17477
5.14109
5.51384
5.76567
5.65132
6.85746
5.11192
5.2054
5.25683
4.924
5.7079
5.6943
4.99493
5.35699
4.48924
5.37891
4.9788
5.61243
5.4466
6.32117
6.34153
5.02897
5.87727
5.23454
6.33711
5.33782
4.4294
5.45231
6.98135
5.04019
4.60336
4.43701
5.87683
4.93292
5.82092
6.81385
6.16003
4.7685
5.10681
4.48878
5.07373
5.01803
4.97301
5.45453
5.65892
5.56197
5.42874
4.71883
4.46566
4.79624
6.40089
4.6716
5.07946
6.30316
4.87563
5.49753
6.46119
5.75635
5.39333
5.20698
4.62677
4.97595
4.81975
6.69087
4.86253
5.36345
5.90953
5.67867
4.95427
4.93677
5.33818
5.87888
5.78787
6.34577
5.05982
4.61205
5.38713
5.78895
4.92179
5.38658
5.03285
5.3299
4.59637
4.85054
4.79684
7.42786
6.93636
6.70038
5.73253
5.0783
5.10194
5.06123
7.09283
4.67978
6.54942
5.59975
4.96915
4.92976
5.2899
4.61953
5.29125
5.85194
8.58735
5.28877
4.88935
5.07954
4.66327
5.87695
7.65469
4.96231
5.40582
5.44189
5.09345
5.75371
4.85892
5.05013
4.51596
4.37837
5.41458
5.99539
4.76854
6.02019
4.68674
5.2204
5.75116
5.3667
6.35356
4.92022
5.36672
5.30732
5.49802
6.87218
5.77435
6.3226
4.51195
5.43636
4.9932
5.64916
5.16926
5.91398
5.15566
5.22953
6.37075
5.15559
5.28065
4.77899
4.42943
4.88774
6.16157
5.43315
5.6606
5.21868
4.92117
5.32987
5.22818
6.5881
4.68515
5.36462
6.1264
5.38086
5.3427
4.68129
5.18804
5.16539
4.68459
5.34652
5.45958
4.93838
8.63998
7.72286
5.58629
5.82863
4.98078
7.60909
4.69491
5.28725
5.0548
4.8022
5.6674
4.60295
5.10901
4.82753
4.67895
5.30725
5.39761
5.66327
5.71651
5.55088
4.6744
6.31156
5.4941
6.2004
6.11411
5.60689
4.53214
4.59575
4.71778
5.54038
5.41391
4.64132
7.83029
5.0592
5.46889
5.06374
5.03675
5.1292
5.16295
4.69496
5.02945
4.40932
6.50312
5.57897
4.90552
4.64259
6.51825
5.00686
4.56457
4.80937
5.32656
5.55711
4.87398
6.38425
5.0388
6.36214
5.7676
5.45938
4.84888
5.20802
5.67959
5.06172
5.90174
4.56106
5.12558
5.41567
4.82869
4.6775
6.55441
6.21384
5.29457
6.71398
5.43835
5.25839
5.51259
4.56993
4.4973
4.43521
6.62751
4.97869
5.06505
4.83498
6.84339
5.81691
4.43462
4.42827
4.91586
4.56381
5.2354
4.40172
5.86073
4.86712
5.31578
6.02767
5.20411
4.93759
4.74264
6.79081
5.69684
6.02871
5.06888
4.67418
5.77166
6.31414
5.73691
5.65288
5.24667
6.25313
4.9267
6.28007
4.77121
5.49868
4.46362
4.53731
5.01443
4.74924
5.02043
7.47665
4.76227
5.08002
5.72497
6.51328
4.82181
5.01227
6.0647
5.26519
5.38424
7.87089
5.32528
4.89411
5.1551
5.64394
5.11579
5.61967
5.18479
5.49178
6.70363
5.84198
4.12147
5.50721
4.81661
5.32636
4.77258
6.35701
6.07527
5.81278
6.31603
5.01876
5.89065
5.5238
5.00679
4.65753
7.02506
4.82965
4.83238
5.67019
4.65933
4.63468
5.84266
6.34315
5.80622
5.49147
6.84761
4.313
4.28719
4.95903
4.21452
5.69384
5.94918
5.65743
5.28178
4.73878
4.98866
4.98523
4.95248
7.0687
4.93994
5.13124
7.92478
5.18245
6.36468
5.39094
5.10679
4.51452
5.50212
5.29929
6.84428
5.20933
6.16515
5.67754
4.83056
5.27559
5.00439
5.35604
5.31118
5.89757
4.55947
6.7854
5.10561
4.58289
4.61422
5.38814
5.35643
7.2511
4.89312
5.11218
4.69197
5.48352
4.80801
5.69574
5.06917
5.04376
5.65028
5.15315
5.61607
4.56968
4.86214
4.8947
5.07472
5.35581
5.75416
5.61745
4.60694
5.40516
5.87506
6.15245
4.68039
4.6329
5.87317
5.88104
5.33975
4.43861
5.03444
5.14377
6.08378
5.33354
5.8605
4.99588
6.92259
5.2041
4.81795
5.53853
4.48619
5.65329
4.82904
6.30142
4.64525
5.67275
4.67728
4.84006
5.39718
5.33628
5.33247
5.98154
6.1982
5.49971
6.28323
4.37791
5.372
4.5618
4.95357
5.16836
5.38298
5.45074
5.67272
5.58488
5.71973
5.02949
5.21443
5.58569
5.94992
4.63134
6.57143
5.8444
4.8212
6.4382
5.64359
6.05858
7.88968
4.98903
5.42729
5.48755
4.58615
5.32639
6.04557
5.56233
4.71989
6.2512
5.74336
5.2833
6.49057
6.2701
4.66111
5.72027
4.47573
5.76832
5.11229
5.04869
5.86528
6.03354
5.45351
4.97512
5.82857
4.72422
5.70424
6.26239
4.98495
5.81308
5.36336
5.82953
5.07406
5.06858
4.66447
6.37786
4.54426
5.88897
5.44216
4.82889
5.27095
5.13036
4.68488
5.73102
5.04117
4.60553
5.0987
4.91903
5.16911
4.86793
4.56773
4.39669
5.51082
5.35884
4.95534
5.44281
5.29038
5.8683
4.8387
6.67428
4.51088
5.49506
5.68336
5.02965
4.77644
5.39979
4.494
4.44119
4.81321
4.37286
4.58691
5.511
4.82101
4.77231
5.37728
5.17601
5.30961
4.67643
5.14678
5.23208
4.65214
4.81608
6.78695
5.09488
5.25241
4.99374
6.34959
5.06868
5.17083
5.44464
5.18486
4.98964
5.84243
4.75675
4.96591
5.12991
6.14638
5.92611
5.04691
5.71289
5.57026
4.62178
5.62034
5.48586
5.80427
5.60988
8.01523
4.79276
4.77122
4.76053
4.88166
5.33309
5.97872
5.00671
6.07831
5.01073
6.97232
5.50625
5.08465
4.59552
6.49265
4.67035
5.08068
5.26467
4.40417
5.0439
5.33528
6.9395
5.66312
4.99473
4.48798
5.02143
4.85881
5.33975
5.97547
4.92714
5.94843
6.04278
5.73079
4.4583
6.95611
5.05129
8.25425
5.00598
4.62969
4.42607
5.2341
5.54474
7.35327
4.59164
5.04775
5.43451
5.82366
4.37759
4.57515
5.16275
4.92572
5.3061
5.43436
5.58603
5.36251
4.98862
4.46162
7.36409
4.88526
5.3239
5.43414
7.32094
5.32797
4.38284
6.7805
5.27602
4.84272
6.64286
5.69132
5.24652
4.20681
5.38906
5.58022
8.11833
4.91092
5.29209
6.18503
4.79435
5.50356
5.9682
4.69999
4.81669
5.07578
5.79932
4.61536
5.36992
5.5172
4.78727
4.76364
4.90211
4.94814
5.19427
4.91648
4.82724
5.393
4.9128
4.93224
5.48852
5.02963
5.69618
5.25062
4.75624
5.38715
4.68318
5.36896
5.49856
4.7012
5.31837
4.98403
5.52147
4.9247
6.81798
4.83293
4.68948
5.21871
4.92919
4.7059
5.06253
6.33018
6.59394
4.67124
4.64881
4.65708
5.71691
4.73307
4.84217
5.75904
4.56418
4.74731
5.9858
5.24434
4.55663
5.31108
5.62838
5.23886
4.84628
5.44662
4.89941
4.8494
4.5458
7.849
5.57204
5.07235
5.81659
5.63938
4.80847
5.11788
6.26051
4.35653
4.66079
5.97376
5.87379
5.41087
5.75639
5.17849
5.91652
5.8449
4.68261
5.07648
9.89719
4.88783
9.50503
6.48336
5.783
4.78691
5.95266
6.68532
6.23879
6.17943
5.95697
5.77642
5.27935
5.31177
4.85477
5.10391
4.95593
5.5414
6.69851
5.11428
4.29524
4.58543
4.40099
4.84179
5.49917
5.69274
4.97858
5.13882
5.39503
4.75076
7.52663
5.72688
4.97974
5.56701
5.5343
5.27752
5.23731
4.8563
6.01907
4.79212
5.84156
4.79646
4.8999
5.07317
5.60902
4.6427
4.39732
5.58298
4.65542
5.41588
4.79536
6.30125
5.25428
5.20303
4.8471
4.49437
4.65835
5.52012
4.90032
5.43366
5.88622
5.11085
5.37707
6.16805
4.90326
5.41803
4.46121
6.3122
5.74447
5.13679
6.53157
5.06307
6.22158
5.76564
5.3631
5.10813
4.79161
5.11552
5.062
7.58476
5.19836
5.17429
4.88948
4.88997
5.79125
5.2184
5.44382
5.29868
4.85917
4.94429
5.82466
5.32355
5.55653
5.14672
4.67294
4.76941
5.08455
6.55149
4.82282
5.31572
4.75113
5.46591
5.81459
5.42004
4.3843
5.7339
5.20113
5.24897
4.63479
4.80908
5.63986
4.8362
5.29758
5.1334
5.29158
5.56909
4.35076
5.72929
6.67113
5.99974
4.88566
4.84871
4.79172
7.47288
6.05531
5.13709
5.20074
5.59584
5.50775
6.56403
4.77032
4.96776
5.08983
5.63635
5.10638
4.88609
5.49174
5.2731
6.9901
5.57804
4.5362
4.61361
5.40141
5.53557
5.11419
5.21578
5.63418
4.90978
4.79929
5.875
4.86606
4.87694
4.97545
4.57885
5.25816
5.42229
5.61893
4.97555
4.653
5.87592
6.01867
6.16933
4.20616
6.26339
7.54485
6.47759
5.0442
4.99392
5.92416
4.94883
5.56791
4.93576
5.7835
8.94255
4.74612
8.05614
5.24241
6.11962
5.94609
5.20272
5.48447
5.94562
5.24372
5.54102
5.19065
5.69127
4.53844
4.62501
5.54841
7.7148
4.87918
4.8647
5.55018
5.52788
5.20876
6.3995
5.07528
4.89179
6.11972
4.95262
5.36332
5.14758
4.87498
6.5759
5.39011
4.84215
6.30396
4.40167
5.53881
5.93327
5.4776
5.44094
4.97397
6.08923
5.0931
4.98817
4.67441
5.32012
5.04915
5.40224
4.78902
5.56024
4.91791
5.85852
4.75184
5.31525
5.20861
7.50088
5.32809
4.49797
5.64976
5.07101
5.52869
6.31591
5.05074
5.82522
5.94276
5.34851
5.41982
4.93101
4.89124
7.58581
6.02407
4.83776
4.93796
5.08889
5.75875
5.62848
5.36638
5.38576
6.14546
4.91903
4.51387
7.15263
6.72125
6.39814
6.08018
7.90289
5.47971
6.91069
4.5933
4.88848
4.58012
4.41982
4.91242
5.33915
6.9005
5.4145
5.67509
4.57052
4.44005
5.8763
5.01683
4.78358
4.8954
6.57461
6.6889
6.57604
5.35889
6.34041
7.80849
4.71868
5.54254
5.24092
4.97437
5.5104
5.60777
4.97762
5.05439
5.27421
5.35252
4.63791
5.24339
5.73252
5.40802
5.44811
4.75966
4.97298
5.71383
5.35617
4.72376
4.74817
4.94709
4.8818
5.51499
5.55087
6.55415
5.65941
7.08126
5.71702
5.87177
4.59377
6.39341
5.4245
4.65396
5.11676
