6.17525
5.88796
6.87593
6.66971
6.51732
7.71702
6.97788
6.19129
5.60686
7.70277
6.24157
6.27346
5.94647
5.42992
5.999
6.75328
5.82754
9.75695
6.83719
6.29394
5.37936
7.28422
5.73724
6.44047
6.46559
7.1262
6.82836
7.19959
6.73057
6.17649
9.94592
7.39794
6.39205
9.46273
8.44895
5.75829
5.31073
6.11501
6.65005
7.56087
6.08928
5.74381
6.79945
5.87604
7.70734
6.11163
7.31698
6.85637
6.94096
6.95269
8.08868
5.83367
6.26349
7.56896
6.4981
5.49276
8.1688
6.67972
6.43004
5.95783
6.21203
6.25776
5.899
5.91804
7.4497
7.98912
6.88406
6.04572
6.84816
6.82493
6.69854
6.61026
8.13629
6.02769
7.87879
6.16396
5.20585
6.99351
7.30379
6.17543
7.16212
7.24054
6.79335
7.81098
6.7301
6.70921
6.00465
8.5813
6.05574
6.32784
6.4866
6.02625
7.08932
6.99315
6.83517
5.80871
8.25443
6.10829
6.29502
6.25886
6.31607
6.70883
6.64568
5.50273
7.46153
6.76285
7.43916
7.80854
5.46442
6.66014
5.8753
7.76636
8.32182
6.09553
5.91688
5.79642
8.07766
6.71393
5.43566
6.35917
9.15804
5.84901
6.81655
7.92597
7.65178
5.6173
6.14992
5.5898
6.57894
6.72108
5.69044
8.5518
6.36089
8.52886
5.53101
5.24125
5.68365
6.50179
6.48411
10.2403
6.46099
8.95066
8.07194
6.72527
6.21792
7.17505
8.89921
5.57033
6.72179
7.74424
6.78533
5.77243
6.53015
6.9829
7.71358
5.88359
6.87814
6.30155
5.84549
5.79158
7.38084
6.88172
6.18095
7.57636
8.22554
5.95181
7.84258
5.84308
7.12608
7.81582
8.45575
7.28415
6.33479
7.04192
5.92847
5.88459
5.68842
8.01366
6.42701
7.84308
9.53783
9.49234
7.48456
8.69221
6.99467
8.38449
6.97729
6.09972
6.794
7.47294
6.40559
7.07955
6.53712
7.0783
6.67062
6.0295
7.14398
6.27729
6.98961
7.05879
7.07583
7.13349
6.83388
4.978
6.95082
6.4151
6.64159
7.38779
7.72795
7.46978
6.27382
6.49534
7.08299
7.3843
5.52978
7.56502
5.95447
5.7383
6.42192
7.9843
7.75874
6.99647
6.18087
7.1184
10.4514
5.4972
8.5972
6.39299
5.7703
5.66979
6.23162
7.4085
7.10787
7.15063
6.47649
8.43769
5.88916
6.32848
5.95483
5.81147
6.76338
7.08424
5.99273
8.98514
8.71359
6.99179
5.69422
6.65718
6.62315
5.98252
6.17312
6.83287
6.64392
6.22517
10.0817
5.16476
6.80172
6.0823
7.86122
8.86362
6.87872
7.4206
6.78526
5.8524
10.1194
6.39203
6.43663
5.99987
5.92799
7.39262
6.32213
6.37066
6.16312
7.10977
5.59183
5.92174
5.93755
10.5673
6.34631
6.09942
6.10829
6.18273
5.38404
6.14861
8.62798
6.53565
7.51169
7.38793
6.63592
8.60909
6.22433
7.59312
6.66958
6.56264
6.8272
6.76766
7.87571
5.87441
7.09661
7.24541
6.27854
8.50751
5.46449
6.64525
6.95507
6.3663
7.26492
6.67194
9.09476
6.16156
5.52694
5.86861
7.06306
7.63939
7.20295
10.9266
6.87426
6.19688
6.72505
7.10792
5.71884
7.11045
5.76785
7.84073
5.1063
5.78025
5.58892
7.32223
6.89026
6.52749
6.00785
7.23412
6.00176
6.44765
6.75003
5.99025
6.45605
7.22787
7.97234
6.43769
6.403
9.29241
6.58472
5.92342
5.82959
10.5316
5.80484
6.88433
7.11
5.88282
6.53009
7.4803
8.43243
8.21495
7.87212
5.47589
6.40006
6.42711
7.3948
7.20005
6.79617
5.81675
6.71355
7.05425
6.97525
5.80451
5.66391
7.76507
6.61392
6.24184
6.0968
8.10124
6.41842
6.1978
6.22324
7.22383
5.8886
5.4786
6.16215
7.26066
6.5378
6.05785
6.95194
6.13282
5.85784
6.23226
9.10696
5.69113
5.37002
6.49275
5.85887
9.43409
6.39815
7.40417
6.42497
6.33735
6.34117
6.88692
6.24146
5.92081
7.45159
7.73431
7.3943
7.18384
8.14869
9.7048
6.71899
6.61371
5.95363
6.63396
7.01191
5.77653
6.62286
7.06617
7.3175
6.63851
6.35313
6.81788
6.46525
6.24362
5.57223
7.21588
7.87935
6.95997
5.92254
6.32493
6.24983
6.40106
5.56533
6.30127
5.72359
6.63014
7.21715
7.98711
6.90978
7.56778
6.1485
5.88732
6.6
6.47991
6.37615
5.64258
6.1601
7.79016
6.02109
6.29475
7.36831
7.10335
6.17282
6.49726
6.41443
6.55695
7.91431
6.08205
7.84284
5.52332
6.28957
7.52952
8.59096
7.02191
5.9446
8.90034
5.69204
5.878
8.42858
5.93884
7.05887
6.04154
6.94489
7.50354
5.76908
6.50091
6.69465
6.71558
5.76097
6.81933
5.53411
7.16032
8.10904
6.70323
7.38539
6.00098
6.72116
6.49683
6.99443
7.77643
6.72265
8.89559
6.08006
7.80754
6.05256
6.75951
6.01823
5.9093
5.62018
7.33198
8.71151
7.55191
5.98826
6.78715
7.78683
8.39414
5.68591
6.37224
6.0336
5.80791
5.70984
5.70638
5.03161
6.74383
7.34045
7.38832
7.79934
6.70434
7.51143
5.82919
6.10012
6.91048
6.45146
6.29603
6.28489
6.47714
5.90131
6.93646
6.14128
4.85574
7.39784
5.5006
6.14993
6.78157
5.93625
8.05324
8.0519
5.83127
6.51288
8.32402
6.41451
6.5076
6.98355
7.77979
7.01754
6.83621
5.63743
5.73891
6.99263
6.33304
7.82767
6.46659
9.23666
5.54257
6.2898
8.39755
7.83707
7.56394
7.92325
8.90641
7.76445
6.56309
5.81145
8.38184
6.19968
7.01658
7.96855
6.32758
7.16264
7.34441
8.11891
6.33451
5.40234
7.10628
6.52429
5.84245
7.41615
7.209
7.06551
6.2065
6.16003
6.75259
6.23662
5.77808
4.97769
8.55699
7.3806
7.69978
6.08164
6.17027
6.74997
6.13155
6.3224
6.91571
6.73062
7.91608
6.37792
6.30975
6.9754
5.60879
6.48632
6.46093
6.13963
7.94729
7.90905
6.10071
6.3103
7.3794
7.92852
8.28643
6.67007
7.33282
7.37031
6.56584
7.63884
5.49344
6.4734
5.22003
6.32818
7.30799
7.68656
7.13687
6.32089
8.67507
6.64044
7.67182
9.73302
5.98172
6.8721
5.77044
5.77439
8.37106
7.65428
5.5516
6.24498
5.06945
6.07083
5.89657
6.60547
7.41412
6.22753
6.91919
6.31271
5.68226
5.81257
5.83079
7.85766
5.64383
6.71964
6.15468
7.0244
8.04136
6.08651
5.99439
6.66815
5.65096
7.07802
6.38716
7.05258
8.07443
7.35062
5.39785
5.79869
5.82711
8.08467
6.78405
6.10146
6.19499
6.64541
5.96143
8.22953
7.03716
6.18983
5.875
6.30585
6.19296
8.34361
8.06417
6.70343
5.65385
5.60861
6.59978
6.0341
6.4062
6.58112
6.14147
8.60519
5.34088
6.98837
6.70853
5.63826
6.53871
5.53295
7.78327
6.06277
5.87459
6.64383
7.08847
5.7056
6.41096
6.77368
6.01744
7.79278
5.88106
7.25355
8.58994
7.52406
5.33081
8.13655
6.80486
10.6342
7.3889
6.60916
8.26563
8.29669
6.01896
5.50031
6.43245
5.79369
8.676
8.48066
7.15575
8.29904
6.18205
5.82878
7.15351
7.42177
5.16808
5.11463
6.94197
6.39204
7.7962
6.59239
7.88855
6.42021
6.15406
6.39562
6.58631
6.00674
6.46801
6.00111
6.74526
5.88488
7.24689
6.55992
7.0924
6.29346
6.41522
6.78362
7.24891
5.68975
6.61358
6.40234
6.28707
7.79171
6.70367
6.44724
5.87916
6.67449
5.7364
6.5499
6.00764
5.9546
6.41753
9.03716
8.27877
8.00934
10.1287
5.29407
5.97674
8.39259
6.4805
6.11903
7.55963
6.25321
7.89933
6.05876
7.80598
7.26211
6.72783
8.08364
5.8838
6.07136
6.2539
5.98706
5.97971
6.80056
7.25591
6.73679
7.86586
6.84224
5.53746
6.55349
7.05685
6.41744
8.02656
5.928
6.33052
8.01396
6.01373
7.99881
6.30493
6.87321
6.209
5.72024
7.94777
6.2963
5.64433
6.8402
8.01515
5.91216
7.18284
6.91937
6.48763
6.98151
6.75409
6.65873
5.87592
6.04066
7.10918
6.86607
7.82118
6.52784
5.53732
7.17004
6.92437
6.85691
6.49462
6.51001
6.12441
6.18888
7.47217
6.42088
5.82257
6.88961
7.03041
7.58759
5.86052
6.15525
6.11591
6.63997
7.5521
6.63148
6.81471
7.4263
7.52907
6.47637
5.99911
7.32299
5.90649
6.92441
9.79939
5.54681
6.36907
8.35899
6.40389
8.1843
6.75409
8.87194
7.71031
6.85956
8.19446
6.63678
6.14264
6.65269
6.73218
7.89991
6.62066
7.02421
6.71992
7.29583
7.17491
5.61073
7.26586
7.31458
6.06825
5.64441
8.32866
5.86819
6.07004
7.70677
6.17437
6.37007
6.61258
6.50281
6.52511
7.53364
7.62382
7.87893
7.43899
6.85788
8.10287
5.74517
5.74415
13.2239
6.08927
6.10431
6.51125
7.67691
7.65948
9.80758
6.2296
5.92397
8.22013
6.85938
6.97542
6.5563
6.32348
6.74468
7.55979
6.75159
6.19249
8.22179
6.0731
6.3896
7.76321
6.82248
8.4138
6.17543
7.0857
6.93146
7.62178
7.36867
5.78907
7.51083
5.5563
7.32293
6.05922
6.97773
6.58317
5.76818
6.1655
6.50556
7.52104
6.18398
6.59718
5.69992
7.25222
6.28523
7.68251
8.57914
6.19035
5.99428
5.59463
5.96679
7.07309
6.74717
5.93502
9.60821
8.4388
5.79394
8.85156
5.72589
8.86587
6.02718
8.31306
8.45073
6.01296
6.19931
5.78091
6.6828
8.25108
5.26539
6.65393
7.27008
7.51923
6.51791
7.23038
7.50675
5.74448
7.90927
6.67457
7.96387
7.56622
6.79985
5.96646
7.74883
7.39478
6.91712
7.98077
5.88514
9.41836
6.78859
6.65003
6.43438
6.17078
6.13969
7.20374
8.23077
8.95917
6.31832
6.40291
6.3572
8.31019
7.16153
6.08543
6.72467
4.94918
7.92262
6.51786
6.4711
7.94231
6.85733
6.49758
6.52503
6.18793
7.29547
6.14017
7.05324
5.77566
6.85107
6.27311
6.26512
7.1857
8.73803
6.88759
7.53062
6.25303
6.90627
7.24671
6.30768
6.23568
6.70024
5.89109
6.26381
6.21614
8.64955
10.7962
6.53421
6.38395
6.61279
7.06462
11.4317
7.55819
7.24316
6.55132
6.15918
8.23448
6.71227
6.82503
6.27976
6.56327
8.68366
5.50843
6.8033
6.43367
6.85132
5.53855
6.03806
5.67966
6.15332
8.79506
7.0903
6.18647
5.78164
9.16518
7.26513
5.72134
6.55648
6.5824
6.61435
5.63221
7.75729
5.93983
8.69285
8.57065
6.42338
6.28331
6.59349
7.29554
5.2291
7.81219
8.19281
7.13155
6.55343
6.68276
6.55979
7.49983
5.90381
5.17896
6.53465
7.4832
6.60477
6.98477
6.84571
5.73486
6.99989
7.9602
7.67745
6.59148
7.31013
6.72555
6.06669
9.82319
6.71047
6.63036
6.41682
6.52318
7.46315
6.29158
7.18408
5.55055
7.22512
6.82129
6.24383
5.51438
7.46282
6.37502
6.29453
7.71801
7.66673
6.08467
7.40786
7.34886
8.0057
7.12397
5.96439
5.66941
5.41764
7.87555
6.3884
6.9897
5.90328
6.08054
6.73282
10.201
8.3672
7.39103
7.63625
5.65068
8.27003
5.84429
5.7524
7.08793
5.3835
6.77284
7.17649
6.09394
8.13234
8.27018
6.86827
7.20093
6.73179
7.63569
6.204
10.6043
6.47432
5.96474
6.42996
7.94237
7.58677
6.27982
5.91885
5.83933
5.85585
8.50312
6.95689
5.91227
7.55795
6.74631
6.35399
6.03087
7.2561
8.01712
8.1234
7.02997
5.11097
9.9064
6.88857
6.43681
6.37853
7.37992
8.56985
5.99971
11.08
6.48162
7.4791
7.92489
6.72973
6.44262
6.50058
7.35986
7.92515
6.35064
6.73648
6.90219
6.08857
6.2161
6.82901
7.1673
5.31319
6.04457
6.37043
8.09407
8.06078
6.83678
8.06755
7.05377
7.41178
8.1034
6.60205
5.71715
7.24312
8.35995
6.5702
6.05624
7.27371
5.27555
7.4714
5.13136
7.47507
6.32995
6.31668
6.24538
7.36075
6.50558
7.99294
6.25147
6.48434
5.94785
5.8181
7.41412
6.78573
6.13293
6.19983
8.39112
6.44661
5.64259
7.38596
6.33327
7.27312
5.46283
6.04762
6.7107
7.53995
5.78537
7.28806
6.84606
6.2649
6.0601
6.74374
6.33901
7.05375
6.32434
6.5607
6.64092
6.19109
7.48013
7.41872
6.71192
6.04122
6.37227
6.11998
7.23171
7.05391
6.54305
8.53521
7.67779
7.12885
6.36244
5.76589
6.77998
6.99287
6.94773
8.05658
7.12621
7.96072
6.13584
6.06449
6.07251
5.57522
6.95891
7.25557
5.94964
6.77064
8.95961
6.71182
6.54256
7.48703
5.95203
8.16097
5.57252
6.05386
6.41992
6.71904
6.92683
6.87367
6.00517
5.70825
5.6769
6.21377
7.05665
8.32221
7.39624
6.3436
6.22685
6.39933
7.03724
6.76179
7.16388
6.40471
6.82089
6.1633
5.39699
8.57083
5.39488
6.99698
5.68587
7.15001
7.07277
7.64332
7.90787
7.4749
5.9816
5.86579
6.6095
6.1497
5.27626
6.05801
6.08698
6.73648
6.55921
7.05071
7.60553
6.43167
9.83821
6.6866
5.43828
5.79958
8.80335
6.0778
6.32815
6.52364
7.38081
5.89388
6.5111
5.74963
6.68066
5.45331
6.95576
6.36808
6.96772
6.4088
6.73812
7.12492
6.669
6.37346
6.61634
5.68061
7.08397
8.00026
7.44386
6.27006
6.16377
7.42405
6.96853
6.28061
6.49448
6.09746
5.74419
7.08856
5.81152
6.04387
7.99158
5.19556
6.03899
6.36081
6.62153
6.92808
7.21731
6.59407
7.63598
6.21675
6.59761
6.76016
7.96625
5.90748
8.96085
8.36846
6.90632
6.72166
5.42561
6.92827
6.24985
6.96647
8.82313
6.04177
6.48674
5.63728
7.45118
6.15365
6.35533
7.03689
7.85984
5.89877
6.63561
6.76449
7.93375
6.96903
7.2788
6.36832
7.01691
7.70578
9.00924
6.17043
6.63104
8.27159
4.98894
8.17279
5.66275
9.08442
5.83061
6.09089
7.92203
7.26913
7.79466
6.73854
6.00622
7.37869
6.61175
6.55933
9.83816
8.51249
5.8642
5.13649
6.9881
6.88512
6.33355
6.53692
8.36131
6.54198
8.5048
6.82181
6.92999
6.11065
5.67915
6.00183
7.09277
5.82566
7.53536
6.42158
5.80876
7.95223
6.60706
5.79649
7.22162
6.24843
6.75223
5.47995
7.01653
7.74962
7.36768
6.43267
6.17524
6.38899
6.07648
5.41051
5.69533
7.06567
8.1462
7.6891
6.45967
6.16164
6.51211
9.17018
5.61512
6.53787
5.91836
6.24865
5.60928
7.42287
8.20793
5.94156
7.91986
6.20426
9.96964
6.65758
6.1022
6.61929
7.73499
6.31028
5.80235
6.05913
5.79926
6.46188
6.45757
6.8683
7.63782
5.1477
5.75058
7.52188
6.54359
5.72747
6.55607
8.23476
7.53601
9.27939
6.75291
5.94458
6.39158
5.82633
6.3706
7.0427
5.5208
5.99154
6.20437
6.68039
6.44586
5.6559
9.02299
6.31841
7.4946
6.34391
5.87934
5.7603
5.63434
6.48909
5.74545
6.70421
6.45129
6.22688
6.0693
5.35792
5.787
5.87191
6.32704
5.988
6.72978
6.31215
6.24207
5.47129
5.5148
6.72233
6.02668
6.43094
5.36518
6.17545
8.37846
5.95957
6.0514
7.18168
6.6203
6.29123
6.74266
5.83537
5.66959
6.02019
5.317
5.61487
7.99939
7.03784
6.28632
6.27413
5.88185
8.07055
7.65891
6.21708
6.11577
6.52
6.70394
6.7102
5.81233
6.17464
6.26708
5.71799
7.38962
5.91314
5.60327
5.96146
8.47257
6.76373
7.44213
6.48842
7.07719
6.57229
5.37446
7.24594
8.63984
6.28995
7.53197
5.93928
7.60019
7.50346
8.71958
6.52763
6.5032
6.88576
6.42094
5.53671
5.99017
6.02758
6.54365
6.7608
6.65102
7.28758
8.1641
7.94825
7.73011
6.73842
5.81056
6.71085
7.16744
5.85192
6.57356
9.2922
7.77693
6.90477
5.75161
6.73509
8.75427
7.27035
6.36964
7.08445
5.81261
6.69193
8.3431
6.46321
6.50753
6.69934
5.76047
7.75915
6.09574
6.09548
7.045
7.57545
5.44162
6.2347
5.77176
8.85891
6.72082
7.04771
5.08411
7.15518
8.16862
6.26484
7.13517
6.49877
7.06194
7.11643
6.6882
6.20189
5.84226
8.1041
7.80076
6.4166
6.20402
6.32079
6.03342
7.13984
7.29679
10.5364
5.26
6.9474
6.44979
7.85556
6.35457
6.37187
6.94556
6.22691
7.41429
6.76821
6.65328
5.79925
7.46166
8.43648
7.06651
6.81389
7.359
5.76729
7.63537
7.36506
6.29354
7.30283
6.82073
6.72543
7.65699
6.6849
5.15165
6.92298
7.17664
5.88842
6.66345
7.19853
7.7641
6.6747
5.62388
6.94044
7.3009
6.14341
5.72947
7.37292
6.44942
5.41742
6.44274
5.96142
7.07915
6.54528
7.47957
6.25511
6.85522
6.10042
5.92549
6.32931
6.60604
7.29946
7.72063
7.85024
6.25514
7.15817
8.24655
7.52175
5.97721
6.45378
6.72549
6.83751
6.61525
6.31232
6.0734
7.06294
5.90156
7.23175
6.65373
6.39937
5.91852
6.08037
5.63716
5.96724
6.51229
5.48923
5.71628
5.75296
6.89796
5.64632
6.56652
6.79138
6.91321
6.64711
5.78395
6.71957
7.67151
8.48858
6.12715
5.72431
7.21991
6.18553
6.5784
7.78906
8.9555
5.82119
6.84974
8.72932
6.29579
6.16153
7.13308
6.6648
6.41503
7.75448
5.76595
6.40265
6.46789
5.70753
6.74411
7.34286
5.77495
7.42256
6.48408
6.34356
5.72686
5.21524
6.69485
6.6817
7.76988
6.89316
5.61732
7.29224
6.49113
5.76837
5.41873
6.07299
6.17912
6.37759
7.47905
7.30603
5.58591
8.71819
5.87329
6.96469
6.10776
5.60727
7.77537
6.22078
5.72404
5.32728
6.45902
6.57526
5.34978
8.00183
6.37926
7.41432
6.00639
5.92038
6.57336
7.27688
6.46029
6.30551
6.65918
6.59056
7.34372
6.51135
5.95518
6.30871
8.36668
6.1172
5.94576
6.87119
5.89277
5.41989
7.28426
6.45257
6.19917
5.88174
6.83558
5.69822
6.37678
6.70491
7.40433
5.7398
6.34612
6.60873
6.32462
8.48225
5.59886
5.58572
6.55242
6.4777
5.8974
6.58553
7.99254
5.76835
7.07757
6.52203
8.00592
5.92845
6.80334
6.87198
5.72485
6.79799
5.4724
7.93526
5.92564
7.18193
6.29421
9.90956
10.9168
8.30565
7.07541
6.20156
5.86685
5.99091
6.55752
6.19215
7.90611
8.10312
6.32599
9.91662
6.5539
6.28306
6.28672
9.63571
7.59085
7.44017
6.49923
7.11514
7.71399
7.75604
7.55929
6.35737
6.31063
6.21032
5.85452
6.5538
7.28047
8.28298
5.70109
5.89636
6.39755
9.80553
6.17348
6.11959
7.16849
6.06324
6.36085
5.56317
7.37213
6.39359
6.5247
7.81158
7.29218
8.70191
6.65919
6.60546
6.39113
6.19751
6.92532
6.50878
8.6264
8.15544
5.75627
7.6742
5.32969
5.55206
6.62205
6.68979
5.35679
6.64726
5.57096
8.85283
6.76349
6.84589
8.56332
5.69938
7.02396
5.85103
7.29208
6.22495
5.60127
6.88736
6.24394
8.15265
5.5295
5.75292
5.13951
6.53065
6.03797
7.0516
8.48847
7.50467
6.42794
6.93444
5.76164
5.97223
6.06447
5.86224
7.91971
5.96118
5.82931
6.03422
6.33766
5.9721
5.84688
6.02721
7.10956
7.32325
6.68255
7.86751
5.79719
8.21394
8.57245
5.67197
7.10691
7.09368
8.34419
6.35497
5.89632
6.37385
6.89227
6.11837
5.56168
6.74163
6.34385
7.19583
6.06719
8.09445
5.72741
5.8905
9.2512
5.72214
6.45592
9.4185
6.74447
8.04334
7.27576
7.93423
6.59659
5.6806
12.5836
7.01789
6.95139
7.54364
6.40951
6.30588
7.31826
6.49909
7.31247
6.40789
6.29201
6.51983
8.45258
6.25778
6.91594
9.32605
6.77436
6.83779
8.24163
6.68008
6.1844
6.5086
6.32116
6.62975
6.76168
6.55109
8.92057
6.36277
8.01378
5.96678
7.07479
6.01876
7.01568
5.65003
7.8732
5.8408
5.39655
5.72695
6.94204
5.50549
5.39227
8.284
7.0739
7.04398
5.68799
7.71838
7.70459
6.50113
5.56615
8.31719
7.43112
7.696
6.94998
6.5793
6.31966
6.99617
6.87709
7.28719
6.0906
7.47406
7.08546
6.25992
6.67277
6.27589
6.00306
6.13011
6.0581
7.25377
7.10217
6.41123
5.7671
6.16989
6.02436
8.3575
7.03267
7.53975
6.40247
7.96313
5.93745
5.9496
5.85088
6.64796
6.48705
5.52925
8.16207
6.78705
6.25384
7.00273
6.17801
5.63518
5.52659
6.90179
6.66363
6.30161
6.34219
6.31225
7.74115
7.19494
6.63663
7.30066
6.0813
7.00396
6.8518
7.85401
7.3024
6.61955
6.0902
8.73991
7.19514
6.24117
5.52688
8.79384
9.36083
7.01467
7.196
6.33034
6.24221
6.67191
7.91369
7.23742
6.04096
5.69399
6.22413
5.80014
6.0946
5.83706
7.10394
7.45665
5.94887
6.015
7.07164
6.1121
5.27976
5.90608
8.01203
5.38742
6.50013
6.29527
5.67665
6.79245
6.63851
6.06436
5.62806
7.37227
9.17572
8.82524
7.13164
7.64215
5.79264
7.03858
5.60885
6.26974
6.19524
9.32901
7.07877
6.92541
6.75252
7.75195
6.55723
7.09773
6.59862
7.56367
6.50936
7.51091
7.29034
6.70417
6.76705
6.23294
7.60968
6.16391
5.25088
5.44208
6.35578
6.45111
6.31535
6.56744
6.87608
6.95261
6.40851
8.69708
8.49232
5.87159
5.71723
6.1803
7.12236
7.22836
7.28327
6.10971
7.37138
7.23719
6.18138
6.49691
6.72677
6.86627
5.70821
5.69377
5.6275
5.66052
5.53423
7.11072
7.06988
5.92512
6.06985
6.9419
5.83345
7.14004
8.85775
5.72184
5.78472
6.30184
6.83528
6.74692
7.4123
6.31109
6.89797
5.62641
7.13002
6.56904
5.83816
6.56007
8.24829
7.32
6.06203
6.99741
6.25397
9.71529
6.58122
6.70519
7.60022
7.4602
6.2822
5.65755
6.94917
6.89364
6.43674
7.90659
7.11384
8.4361
6.63067
6.68579
6.25263
5.75567
5.98766
5.84644
5.82873
8.19778
6.65316
6.28083
5.81824
6.59596
7.04847
6.7523
7.13914
6.28775
6.84771
6.68581
6.62783
6.0953
8.55575
7.70143
7.05109
8.05611
5.85776
8.26256
6.54427
9.26638
5.59435
6.61778
6.26435
5.6527
8.86243
5.77531
6.42596
6.42861
6.07179
6.24209
7.13505
6.3
6.78068
6.21302
8.10157
6.91054
7.2383
5.82488
6.31159
6.85821
5.94571
7.47827
6.53955
6.67445
6.57456
5.3398
7.19634
7.31954
6.5374
5.89537
6.60661
5.8861
6.37152
6.27006
5.56173
7.48396
5.10209
5.98633
5.95986
7.22443
6.76716
8.84414
5.77729
8.05873
6.2505
7.33418
6.38815
5.70573
6.08888
5.95939
5.58248
6.00477
6.30922
6.48114
6.13224
8.14254
8.50025
6.30328
6.9645
5.88054
7.36218
7.01317
6.48262
5.72059
11.2016
6.07376
7.87796
6.4537
6.746
6.12558
6.9078
6.8444
6.8872
5.94665
7.95744
7.02767
6.87294
6.85548
6.84086
6.20272
6.70405
7.81865
7.01356
5.59954
6.82839
6.0881
6.56978
6.86902
7.70142
6.5642
6.93554
5.40307
5.38091
6.27145
7.28347
6.10984
6.66487
7.41386
8.45206
6.80123
6.65619
8.74898
6.02186
5.95236
7.98335
6.72588
5.97656
6.40053
6.49036
7.18364
6.47935
6.3284
7.73087
7.07687
5.60263
5.99561
6.08368
6.6935
7.2478
10.0007
6.48655
6.74161
6.08068
8.01208
7.588
6.9774
5.91856
6.95683
8.0641
7.00926
6.85709
6.86324
5.82184
7.18422
6.12917
7.37594
7.13669
6.95058
6.22012
8.38838
5.63641
6.31921
8.50075
6.83872
7.70714
6.99307
6.24912
6.72602
7.55249
6.56542
6.94416
5.91289
5.87568
7.03851
7.05536
6.27011
6.33156
7.0486
7.71516
5.83547
7.6838
9.33828
6.10892
6.91727
7.16444
6.1878
6.4312
7.00283
7.37498
6.5921
7.66068
5.97853
6.28389
6.1372
6.08328
7.27624
6.80499
7.88991
6.3655
6.96386
6.54267
6.68616
6.19878
5.80915
10.6211
6.1918
5.57352
5.90733
5.68727
5.48116
7.54992
6.52701
6.14457
6.4009
5.65904
5.6909
6.18493
6.36078
5.73695
8.98418
6.49921
6.81688
7.18911
6.59526
6.07557
6.16571
5.75225
7.03088
7.52202
6.05787
6.18567
6.09963
5.35872
9.26001
6.91658
6.43162
6.20639
7.87521
7.10148
6.59483
7.4795
6.94331
6.35608
7.5114
7.21714
6.07342
6.32714
6.12647
6.99656
5.87326
6.16512
6.2923
8.25095
6.97503
7.09137
5.63764
7.43347
8.8371
6.3152
8.85559
7.53287
7.18814
7.70515
6.6005
6.86038
6.86542
6.57334
7.55653
5.66387
6.17182
6.43396
8.47986
5.42366
6.38156
5.8382
6.43884
6.02062
5.74361
10.0121
8.57646
8.34796
7.98808
7.1308
5.91181
5.28724
6.34898
6.37094
7.5037
6.48689
6.04665
7.48193
6.2579
6.05237
6.14699
5.42233
6.17237
6.9945
6.30112
6.53124
5.9484
8.34841
6.73168
5.93905
6.06625
7.14555
9.23017
7.1988
6.52965
8.08322
6.8224
7.73438
7.02946
6.95979
6.17599
5.73512
6.4268
6.78187
6.40058
6.88348
6.5542
6.85792
5.73785
6.64036
5.84746
6.13315
5.88977
7.02866
6.80231
8.12078
6.10302
6.89735
5.98164
7.92249
6.44807
6.08069
6.63822
6.24408
6.54256
8.01123
6.72854
6.79068
6.14613
9.47303
5.87799
6.08261
5.44262
5.83721
6.30311
6.21913
5.94129
7.99424
6.61275
6.33705
6.09817
6.91992
7.50532
7.53234
5.51012
6.47656
6.98807
6.89301
6.41993
6.5566
8.74536
5.79636
6.35326
6.01373
6.8453
6.71043
5.79499
6.35102
6.95385
5.64215
5.27796
5.78989
8.14278
6.10589
7.01088
6.69091
5.66809
6.12123
6.35154
7.32621
6.97259
9.36872
5.63815
7.71905
9.80311
7.36622
7.63554
6.33553
6.63564
8.14256
6.51278
6.43012
6.43902
5.86254
5.54233
6.59926
6.54525
5.96607
6.21977
7.79206
6.81184
6.50664
5.84502
6.6872
5.31656
7.27028
6.14561
6.66934
6.53253
6.52251
7.41733
6.80405
7.36021
6.66032
5.41168
6.59195
6.77262
5.38292
7.18621
6.49514
6.45728
7.24801
7.83521
6.83599
5.83767
6.84859
6.27435
7.18477
5.77688
8.71261
5.95382
6.63575
5.64738
8.72186
6.18563
11.8083
7.80417
7.06122
7.29538
6.73068
6.10112
6.11754
6.1927
6.25826
6.55978
6.53317
5.88662
7.01888
6.28906
5.65963
7.43348
6.43504
6.75881
6.30993
6.0364
5.30444
5.44597
8.27051
7.66719
5.58556
6.60611
5.99021
7.46206
6.54333
5.7853
6.88175
6.87623
7.6522
6.29523
6.54456
6.45722
7.44228
7.45463
5.78999
6.58534
6.69611
8.01697
6.42116
6.38279
6.87276
7.04236
5.70842
6.63588
6.14602
5.7991
6.82324
5.87799
6.83447
5.66871
7.2076
6.65316
7.02013
7.35457
6.36506
9.57037
5.83736
7.0902
7.04949
8.04483
6.26894
6.65168
6.66164
5.59341
6.37128
5.81437
6.72275
7.19147
6.77626
6.32929
7.01821
7.81307
5.87217
6.05759
6.51993
6.79853
8.62335
5.96009
6.59512
6.92179
6.74071
7.44284
9.52208
6.10824
7.8502
7.47784
6.45322
6.53587
8.31787
6.14632
6.1221
8.23417
6.58792
7.67552
8.28916
6.64489
7.52464
6.88771
6.2066
5.87757
5.61681
8.12312
9.11998
6.89696
7.26059
7.45438
7.64352
6.39831
7.04444
7.97575
6.85932
5.72149
5.93032
5.70966
5.95735
6.4484
7.01063
6.09175
7.70205
7.70571
6.40059
6.28424
7.75716
5.91665
7.40723
9.48826
7.74385
5.63168
6.49489
6.18157
8.92699
6.28223
10.5286
6.66871
7.05288
6.9915
6.50574
6.1032
6.07261
5.95398
8.28375
6.90336
6.76306
6.46902
6.01924
9.33719
7.85537
5.79185
6.77029
6.91089
7.22436
7.99554
9.22829
7.05253
6.55085
6.0682
7.32416
5.65434
7.34054
7.24009
5.98732
5.97871
7.24606
5.82104
6.71091
6.31579
7.00531
5.9537
5.88309
6.91463
6.52154
5.91509
6.0108
7.064
6.22027
6.89772
6.87365
5.57873
6.96871
10.9652
7.23716
9.33284
8.4703
6.14097
7.6693
7.90525
6.30577
5.81852
6.14974
6.21494
6.66803
7.25327
6.28625
7.89874
5.89645
6.87843
6.62506
6.89373
7.53906
6.17059
7.1022
5.56108
6.80792
6.23768
6.62665
8.22486
6.03961
9.24146
6.16105
6.63459
6.91513
6.86897
5.60363
6.40477
10.7344
5.83346
6.39161
6.79353
6.26809
6.10942
6.13793
6.55774
8.40207
7.13004
5.89254
6.61229
6.30136
7.43822
5.40284
7.9244
5.84618
7.95901
8.57464
6.51003
9.73031
5.53174
8.81782
6.7407
6.14176
9.7926
7.98259
6.58636
4.98637
5.97329
6.42364
6.83147
7.03134
6.24133
6.27925
8.95986
7.50123
7.53858
8.07996
6.43357
9.59892
6.38315
8.42337
6.97773
7.08044
5.46437
7.01196
7.82006
8.0775
7.02745
7.20403
6.15939
5.55003
5.78519
8.07771
7.18866
6.12399
6.48896
9.95099
5.80617
10.0533
8.54911
6.62661
7.02499
5.71334
5.44725
6.63755
7.27318
5.85628
7.28482
7.15374
5.6472
6.31081
6.30377
7.73389
7.113
8.00479
6.9598
7.58892
6.88469
7.11864
7.24567
5.96256
5.36604
6.82845
7.31642
7.07471
6.99332
7.02151
5.81382
7.5967
6.16527
6.63989
5.84391
5.16859
7.78766
7.54609
7.27053
5.83587
5.91119
9.04392
6.48117
6.36833
5.57582
6.38448
6.67759
11.2713
6.38522
6.80754
6.22437
6.65887
7.82237
6.10836
6.3699
6.12896
5.77341
7.15172
6.77801
6.56961
7.06758
10.6008
5.56541
7.18452
9.05022
6.54263
7.49074
6.06443
6.74492
6.94174
6.99174
6.93525
6.5463
8.13665
6.69893
6.77452
5.42706
6.21341
6.19726
7.10797
7.09133
7.72199
7.71937
8.3029
6.42744
6.23743
6.49267
6.59222
9.01996
7.14688
6.2676
7.1891
9.60646
6.2404
6.25973
6.19317
6.26403
7.89709
8.91677
7.14187
10.2227
7.63064
7.29976
6.06554
6.92699
6.35388
7.235
8.1708
6.67479
6.11454
6.23028
5.96282
6.20547
5.92602
5.93643
6.59646
5.83082
6.01132
6.30827
6.70848
7.92461
6.45462
7.50285
8.18738
7.17328
7.67726
5.91364
6.97804
6.57907
6.73459
5.85541
6.42663
7.13852
6.17866
8.45184
8.00922
5.89338
6.89905
7.23367
5.58104
7.07522
5.94829
6.97735
7.06093
7.40285
5.52628
6.89416
6.53592
6.58248
8.79529
6.80153
7.24314
6.30356
6.15955
7.6398
7.01442
5.56416
7.87079
7.9081
6.57266
6.68614
6.5682
5.53347
5.72528
5.50156
6.00296
6.31697
6.51818
5.52542
5.83753
5.02444
6.80431
7.07044
6.20196
8.23049
7.40784
7.05263
5.79725
8.19927
7.18174
6.74951
5.32553
7.24961
8.17856
6.73635
5.92169
6.36957
6.69503
8.77958
7.35831
6.91722
6.59549
7.66861
5.67338
6.85694
6.52359
7.22706
5.76745
10.1277
5.40125
6.337
7.18737
5.67364
6.4054
6.43719
6.55106
5.96522
8.31553
8.61642
8.77281
7.35814
6.34794
8.46585
7.97373
6.17967
5.9517
7.7244
5.87691
6.04202
7.51603
8.08782
8.00156
8.89151
6.35218
4.77629
7.03583
8.19129
9.4613
5.96694
6.40151
7.26459
6.85001
6.59823
6.47213
8.11214
6.79597
6.39044
7.26181
6.58299
5.80497
5.8155
7.19018
7.13125
6.61636
6.08006
6.42162
6.10579
7.3293
8.25771
7.37727
6.18234
7.58857
7.12855
5.73365
7.99113
8.68963
5.34078
6.22066
8.54004
9.50614
6.08803
6.44506
6.99649
7.11576
6.5229
7.00071
7.05816
7.93208
7.46685
5.38969
6.48762
7.30568
7.51766
6.18619
8.17764
6.65666
9.31924
7.92419
8.03342
5.04602
7.64212
5.61171
7.10233
5.28613
8.62707
5.72666
6.54879
7.10254
7.57544
5.93251
5.445
6.70066
8.37116
7.72044
6.84813
6.75745
7.51396
6.84943
6.84203
7.84304
7.1404
8.40773
6.42488
6.30317
6.21752
6.5216
7.78612
7.30182
6.84755
6.05838
9.21436
6.51459
6.6234
5.69428
6.17491
6.49762
6.98179
7.22273
6.36588
8.81772
9.64162
5.63048
8.17141
5.57898
6.14345
6.55459
6.43419
6.60268
6.17866
5.61623
7.80624
5.93634
6.38817
5.67469
7.17714
7.25619
6.51449
6.34365
5.9577
7.85284
5.04475
6.2676
6.29732
5.97318
8.43739
7.27106
6.48577
6.47303
5.12838
8.59678
6.73573
5.71777
8.44519
7.02943
11.5167
6.17865
7.3049
8.2864
9.23937
7.27911
7.35992
5.99416
6.18468
6.28077
7.48024
5.60705
7.95176
6.42112
6.19574
6.19498
6.31111
7.9494
9.00536
6.18553
6.86204
8.72694
6.17619
6.1857
7.63475
7.31664
6.03079
5.38376
6.62671
5.71213
5.8343
7.93933
7.10378
7.03513
7.08924
5.71634
7.75844
7.19347
7.05696
6.65099
5.98459
6.65009
6.51238
6.13563
5.21932
8.03526
6.55723
5.67961
6.21714
6.11744
6.37984
6.04234
6.58886
7.22975
6.73926
6.28132
6.86528
7.22546
6.29631
6.38513
5.51996
6.19461
7.1519
6.1882
9.913
8.70828
6.57931
8.20776
6.27131
6.45487
8.03858
6.2496
6.12825
7.29612
6.85955
6.9544
7.35721
8.52156
7.81146
7.61277
7.80132
5.96694
8.20845
8.19308
5.98146
6.80513
9.1836
6.89503
7.55015
7.60326
7.65942
6.7178
7.02365
6.70056
6.34696
6.74197
6.30555
6.37083
6.73987
5.32603
6.8567
6.07011
5.38086
6.41316
6.96272
7.4578
6.99132
6.27368
7.49867
8.31852
7.85997
5.93519
7.05718
7.40082
9.41938
6.90355
8.50156
6.9887
6.91925
5.251
5.48577
6.25732
7.11817
6.15812
5.85995
6.01552
6.73512
6.87105
5.27741
5.87627
6.28374
7.57802
7.94432
6.52268
6.39525
6.40174
7.25315
9.56956
6.00785
6.89124
6.38775
7.38401
6.04153
6.11438
5.87074
6.8665
6.1996
5.84014
5.87014
6.29959
6.71151
6.19631
10.3158
5.71977
6.50013
5.66712
6.69503
6.36933
6.62121
6.46932
6.86392
6.13202
5.77592
6.40002
6.67851
6.71993
6.88291
5.84192
6.20184
6.3762
5.29827
6.08305
7.68822
7.30391
7.71918
7.34935
6.4437
6.7037
6.7618
6.45679
6.1519
6.62599
8.71784
7.94731
6.02932
6.99381
7.0051
6.91353
5.88925
5.93061
7.22421
8.72445
6.57352
8.74085
6.97887
6.23707
6.67334
8.6828
7.74592
7.03608
6.48029
6.32556
6.04284
7.46606
7.18452
7.56689
7.06033
6.55316
6.07801
5.75266
6.37036
7.84543
6.61519
7.35126
5.84936
5.9336
5.68087
6.96004
5.7736
7.07926
7.2095
5.37682
6.595
5.90113
7.17625
6.44265
7.07712
6.70729
5.88209
6.30093
7.08355
8.17765
6.55107
5.74615
6.7074
5.6289
6.58426
6.02857
6.42545
5.89921
7.68417
7.11228
6.1689
7.13445
7.12038
6.85107
5.41112
7.71621
6.46441
7.31082
8.08904
6.7048
6.54614
6.81172
7.09123
6.43741
7.49295
6.61467
6.07259
5.15998
7.39306
5.96129
7.91434
6.11613
7.99581
5.79408
5.88392
5.9944
6.05843
6.14953
6.89551
6.33462
6.19234
6.28251
6.99685
5.88679
7.02618
6.69896
6.48189
5.65154
5.78212
6.82469
6.18387
5.40397
5.33945
7.33525
5.40227
8.53525
7.73779
6.53474
6.49852
6.17525
6.47506
6.65838
5.99002
7.17797
6.45288
7.00144
5.88652
6.40746
5.2876
5.66704
6.05767
7.12644
6.06863
6.46016
7.58457
7.60216
6.72809
6.32304
6.41583
6.42455
6.10641
6.90284
5.66512
6.98536
6.24019
7.65213
6.76347
6.39795
8.51746
5.08034
6.33541
6.32163
7.76752
5.51312
7.94139
6.29483
6.75078
7.59168
7.59366
9.7674
7.26978
5.28861
6.13483
5.69988
6.67394
6.17317
6.9866
6.09098
6.65417
7.39358
8.5619
9.83412
7.16083
7.34374
5.84477
6.26823
5.7785
8.02939
5.89489
5.96914
5.59563
8.53477
6.36786
7.91026
6.90652
8.236
6.68602
7.21473
8.24935
5.3953
5.58532
6.16516
6.61274
6.28461
7.06128
5.77491
6.82938
7.66593
6.29189
7.82231
5.2788
5.99964
5.7171
8.56512
6.70859
6.04892
5.77254
5.65032
5.99612
7.74137
7.46073
6.3757
7.02497
6.89289
5.96057
6.00394
6.06236
6.80417
5.94737
8.86012
6.4982
6.27317
5.68628
6.72458
6.07607
6.1691
6.60651
8.37581
5.6869
6.29533
6.60759
5.85799
7.55216
7.88764
6.27145
7.71249
5.99967
6.21432
5.8044
5.96532
7.4057
6.80314
6.74189
9.06774
7.9635
6.06347
5.86841
6.53228
7.27159
6.73753
6.45542
7.39271
6.15122
5.69953
5.59696
6.66896
5.5222
8.89439
6.26464
6.08486
5.72329
5.39203
7.17091
5.54524
6.68755
6.19598
7.13289
6.34602
6.70919
7.34558
6.69593
6.72341
6.79366
5.70625
7.17793
7.5534
7.06617
6.89698
6.70602
5.61865
7.91483
6.11007
5.72233
8.67434
6.69263
6.19961
5.68615
12.1396
6.12157
7.79957
8.06128
6.23636
7.0406
5.21659
7.86471
10.6542
6.07101
6.34213
7.12918
6.94372
7.32388
6.59712
7.59635
8.63974
7.86727
6.60428
7.47249
6.27187
6.38968
8.03736
5.29945
7.51847
7.96338
6.72544
6.56758
6.43984
5.08365
6.37887
6.16959
5.87099
7.65987
7.47166
6.62822
7.04127
6.86601
6.80773
6.51549
8.53761
6.65238
7.38991
7.42215
5.99164
5.77771
7.1043
8.04025
7.28656
6.88562
6.48414
5.38841
6.46372
7.24328
6.57236
7.00992
5.67708
6.89533
6.86593
8.0864
6.2743
5.00548
6.83418
6.32297
7.84363
5.75307
6.57472
5.97082
5.89074
5.79539
9.96158
9.26029
6.79299
6.63891
5.79564
5.25557
7.13235
5.83077
5.59052
6.04536
7.56588
6.24912
6.99129
6.77018
7.74452
5.53188
9.53046
7.74154
6.66841
7.44471
6.69532
5.14792
5.81494
6.85048
10.2824
6.75691
6.76963
7.43444
6.85981
6.68366
5.67098
8.30387
6.35539
6.46661
6.0605
6.25317
7.50224
5.91105
7.09733
9.25487
6.83704
7.3865
7.43552
7.14008
6.21008
5.41211
6.15914
5.70143
6.00985
5.96178
7.18304
7.06112
6.44824
6.63101
7.0468
8.64163
7.8912
6.62028
7.90847
5.76499
6.77866
6.38925
5.48082
6.98661
6.12635
6.31454
7.30525
6.37052
6.16987
6.40312
6.40128
6.96009
5.03978
6.44587
7.52545
5.85532
7.41995
6.71601
8.22107
7.41927
8.24068
6.24154
7.34971
6.35128
7.38576
8.21529
6.93543
9.25095
6.79736
7.59404
6.58515
7.03769
6.2732
6.74515
6.53186
5.27184
6.17145
6.12504
6.41032
6.51513
5.50331
5.80153
8.53415
7.13518
6.66752
10.289
6.10794
7.15426
6.17028
6.1646
6.6305
6.648
6.366
7.39777
5.74306
6.0197
7.16123
6.85112
8.16515
6.15529
7.20586
11.9563
6.70601
6.01317
6.26392
6.22548
6.26471
6.10056
5.85572
6.59053
6.59385
5.76428
5.33308
7.20654
6.18632
5.91714
7.0705
6.16537
6.78108
6.00268
9.39417
8.00599
6.56487
7.51685
6.86431
6.68263
7.39256
5.77118
6.98754
7.4405
6.41983
6.54794
5.75303
7.58003
5.35048
6.32063
7.95346
8.14516
6.23552
5.56468
6.96763
6.3437
6.44607
6.53309
10.5965
6.81157
10.4792
8.99108
7.00507
6.58945
7.60256
6.69843
8.54377
6.36134
9.09862
5.74164
7.56903
7.37005
6.67922
7.43683
6.60071
6.89773
7.02264
7.46093
8.74005
6.15243
6.46983
8.08741
6.16823
6.66934
8.2598
6.50121
7.38924
5.9466
7.48495
7.83665
6.69964
7.5784
7.8975
6.73128
5.22908
5.6727
5.31442
8.65007
7.16766
5.42906
8.30094
6.4042
7.11532
5.9685
5.84632
7.62687
5.61853
6.70657
5.63216
8.97014
5.88789
6.50744
6.18076
7.48272
7.1768
7.7779
6.57378
8.25728
6.93952
6.31218
7.23282
6.09924
6.30016
6.77993
5.66985
6.23327
7.0964
6.07942
6.22761
7.25055
5.34092
6.68508
5.88764
7.07692
6.56965
6.3257
5.9473
6.22761
7.18831
6.70277
6.11627
5.94397
5.61113
7.98279
6.1428
5.57348
5.96829
6.35247
5.75418
6.98222
5.67881
6.93806
6.61762
7.85795
6.45181
6.72237
8.03168
6.63132
6.93946
6.32405
7.55121
7.05739
6.71328
6.16529
8.11901
10.1727
5.20752
6.64012
7.07542
5.84398
6.35538
6.1885
7.7674
6.89968
6.13604
6.96092
11.5136
7.75437
6.70168
6.7965
7.01684
6.2017
6.77519
6.79185
5.80651
5.9765
8.34454
8.03201
7.0083
6.76497
6.76331
5.49536
9.88919
6.01665
8.2576
6.05865
9.39837
7.7964
7.97098
7.49088
6.84826
7.50481
6.71794
6.39867
6.6261
5.63738
10.0005
5.91271
5.32208
5.92125
7.98763
7.23721
5.81054
7.45434
7.0593
6.57137
8.85284
5.5845
6.14924
7.78768
5.51068
7.18633
5.83004
6.40377
7.40185
6.78306
8.19382
6.55591
6.8696
6.6496
6.8749
6.05419
6.77448
6.75144
6.0508
6.02178
6.94033
6.78208
7.27442
7.88291
7.56287
6.69312
6.34854
7.00238
6.18407
6.69097
5.42317
7.50394
6.58951
6.19349
6.87695
8.67547
6.09776
5.77043
7.62868
6.66918
5.56892
5.76502
6.56692
5.26675
8.33239
5.62268
5.54959
6.27412
6.16852
10.2016
6.24144
6.00518
6.61086
5.45767
6.70581
6.79183
5.17099
6.41908
6.50534
6.71065
5.97972
5.93778
6.66129
7.00193
6.58217
6.77206
8.55703
6.28902
5.26928
8.02414
6.95362
6.67997
7.58333
5.74872
6.98694
7.09264
8.53606
5.7799
6.16135
7.80657
7.4216
7.02148
6.44344
7.29618
6.74368
6.43846
6.18449
6.66927
9.00081
5.93659
6.10105
7.42382
6.77917
6.2844
7.53477
6.91873
5.6108
8.48991
6.50088
6.91744
7.38949
6.10661
6.89829
6.00438
7.57196
6.80016
8.33851
7.9091
6.69346
6.82872
6.79197
6.16358
7.59597
9.27185
7.06276
6.00912
7.03235
7.84022
5.02548
7.61567
6.21033
8.14533
8.76015
5.88446
5.97157
5.98607
6.81522
5.73754
6.70374
6.98996
6.86542
5.81656
7.4128
6.25184
10.2363
6.32837
5.86948
6.03879
7.63492
6.12847
5.49282
6.39475
9.8405
6.47249
6.7889
6.86373
6.6356
5.90981
7.41106
7.41303
6.7062
8.12313
6.08817
6.80634
6.9214
6.78919
6.35846
5.74409
6.51461
5.57175
5.38047
6.65395
6.12161
7.15385
7.13747
7.05228
7.50039
5.49633
5.94882
6.16027
7.20475
7.44975
5.45032
6.79905
6.82486
6.24242
4.97009
6.36868
9.35347
7.57937
6.37318
5.98081
5.98908
7.11595
7.27714
8.17068
5.89082
7.44624
7.24636
5.77027
6.40966
6.86233
6.89639
7.1474
7.18659
5.98118
6.32127
7.01309
9.44784
8.26085
5.58931
7.52481
7.74564
7.4841
6.88627
7.4945
7.35478
6.09305
6.50964
5.91498
6.14574
6.37291
7.34768
6.7932
5.47761
6.95098
6.2841
7.0263
7.54585
7.13916
5.51735
6.86432
7.4165
8.73183
6.46943
6.29071
7.00376
7.8677
6.45866
6.72839
6.25737
7.62767
6.46791
6.98829
5.78324
10.7676
5.94047
7.07558
6.04766
7.59991
6.02148
6.54894
6.47703
6.115
6.91439
7.9794
6.63746
6.46818
7.68873
5.73527
7.00412
6.45937
6.14979
7.18478
8.22186
5.70196
6.8296
8.044
5.30222
5.88204
5.56263
7.61587
7.07697
6.20412
6.29465
7.31471
6.90965
6.82997
6.40918
6.33805
5.28492
7.63148
5.90289
6.62865
6.51167
7.24076
6.74997
8.67643
6.29974
7.39856
6.37152
6.0579
6.84318
6.79551
7.19377
6.58028
5.61281
6.37272
5.72799
6.55587
5.69183
6.63805
7.37143
9.07014
6.12348
5.3362
7.88285
5.35346
10.7179
9.86531
5.87969
7.47829
5.83172
7.34725
6.12422
5.98371
6.73622
6.1523
7.01922
7.39716
6.2783
7.84926
7.38968
7.66243
8.9055
6.05675
7.52562
5.34256
5.85363
7.74034
5.5692
7.3223
8.17891
6.01166
6.35549
8.59736
6.86836
6.17861
6.58029
5.9608
7.8169
6.90325
5.56753
8.86716
6.84215
7.60485
7.34656
6.21959
6.23622
7.17366
7.72985
7.16748
6.76295
7.22935
6.72361
6.44723
6.10982
5.98787
6.6783
6.8934
5.92649
5.8728
6.33399
5.78532
6.77437
8.60731
6.37274
8.21903
10.1195
6.75431
7.07618
5.90108
5.90294
6.95734
6.68212
6.01954
5.94579
9.81902
6.3192
6.04648
6.57206
6.06479
6.0124
7.92156
8.26905
6.94963
5.24696
7.16007
7.08047
7.85145
7.72197
6.18441
6.23168
5.79827
8.10418
5.91062
6.31425
7.81194
6.89915
7.78488
6.35399
6.8755
6.18293
6.67221
6.84438
6.57701
5.61834
6.12106
7.68253
6.76015
6.58681
5.98348
6.10338
6.89927
6.71486
6.50933
7.11563
7.26254
5.47916
6.31501
6.92149
7.24801
7.20416
6.94399
5.98164
8.61831
5.01721
7.49428
6.84385
6.82113
7.18449
6.17906
5.69719
8.36088
6.75899
7.57045
6.80627
5.70414
6.59738
5.80761
7.2983
6.54885
6.85956
5.96808
6.09726
6.31576
5.8078
6.46364
6.32481
6.22322
6.83362
5.96363
5.44683
7.63874
8.41829
10.0083
7.68972
5.57481
5.48924
6.92105
5.86389
6.817
5.7798
6.81021
6.15008
5.41106
5.73467
7.70772
6.79179
11.8088
7.64127
6.60264
6.55345
7.27923
6.68136
7.35946
6.35395
7.20785
7.61824
6.56011
5.45898
5.46775
6.09943
7.81543
5.19783
5.6968
5.89568
6.8371
7.39449
6.08087
7.80223
7.55646
7.6813
6.8701
5.68322
6.16564
5.02626
5.05575
6.68125
5.85893
6.51999
6.42336
6.38835
6.92559
5.61883
6.34036
5.74552
7.13201
4.96642
7.97019
6.17557
8.06146
5.88148
6.53243
5.97825
6.43348
6.80834
7.78926
8.15634
7.5432
6.37824
6.32389
6.90051
7.79207
6.31725
5.63103
7.10476
5.90076
7.14113
5.7173
5.80159
6.40409
7.5019
6.70015
6.56177
6.08076
6.76303
5.26882
7.20107
6.76851
6.33892
7.89667
5.82108
6.75621
6.26095
5.31019
6.30387
5.23602
8.10207
9.58397
5.77436
6.91398
6.29873
5.67131
6.46043
7.992
5.77312
6.87859
6.94092
6.50973
8.06011
5.46585
5.6298
6.53644
7.22987
7.34023
9.39967
6.08675
7.01622
6.29188
8.97426
5.89672
6.80229
5.80341
5.66422
6.06963
7.06265
5.37964
7.04202
5.93161
6.30275
7.25888
6.38755
6.99906
6.74483
8.59243
6.1849
5.96618
6.11542
6.05126
6.81911
7.02914
6.38446
7.33722
7.11056
6.53827
6.48836
6.23525
6.82985
5.62556
6.00678
6.42333
6.93427
6.70823
6.74489
7.6582
5.74795
5.87753
6.04941
6.82644
8.95587
7.09975
5.50356
6.85556
7.38072
6.82192
5.56075
5.80626
7.17612
6.77117
7.6869
7.06764
8.34693
6.32252
5.78727
7.59739
5.78792
6.3764
8.45349
5.58954
6.90268
6.46585
6.77369
5.44633
11.2285
6.61563
6.15442
6.12151
6.54815
7.21706
6.04764
6.64781
6.43656
7.42078
5.81039
6.28735
6.58469
6.93785
6.19416
5.9203
6.383
7.0734
6.49404
5.53767
7.11767
6.82636
6.33068
5.84564
5.69387
6.64271
6.75195
5.77782
6.18533
6.67766
6.24311
7.25415
8.28733
7.13997
5.76301
7.18219
6.1432
6.91003
8.14769
6.43776
7.51886
8.51725
6.36366
6.33578
6.77571
6.05258
7.16043
6.7886
6.51227
8.28933
7.47397
7.61468
5.80811
6.3585
6.1685
6.7917
7.56554
6.72693
8.66498
6.53925
6.51033
6.40046
5.98263
6.78979
6.55606
6.20615
7.21769
6.42832
6.22738
11.3976
7.04801
6.99356
6.32066
7.79858
6.20942
6.32784
6.15129
5.79778
7.04825
5.77888
9.96912
5.19994
7.52859
8.01396
7.6099
6.14888
6.01003
7.2036
8.28135
6.89159
7.61276
6.21019
5.52986
6.33145
6.90418
6.838
5.97524
7.13479
5.57042
5.58846
6.45915
5.92142
5.11421
6.21946
7.43528
7.63948
5.95337
7.60376
7.0652
6.79064
7.59697
6.56677
6.0455
6.41198
8.78252
6.10295
8.15015
6.92454
5.85537
6.12305
6.27988
6.7021
6.86576
5.81542
6.41067
8.82316
5.79321
7.58543
8.14424
6.96735
6.17112
6.5203
7.53506
7.44052
6.20642
5.30079
6.46725
6.63841
6.66113
7.02055
6.8994
6.94912
8.04251
5.4838
6.67672
6.97016
5.56462
10.3186
7.24248
5.6458
7.26365
6.79861
6.62937
6.55078
5.33866
9.09437
6.01166
8.95397
5.95365
8.89681
6.92474
7.16949
6.47056
8.92894
6.66236
6.02618
5.35044
6.57363
6.52465
6.37763
7.35063
7.0561
8.0183
6.93667
6.23217
10.0038
6.20104
5.05954
6.08448
7.27619
6.87603
6.94238
6.38092
6.56703
6.07969
6.97142
5.54858
7.90311
5.39335
6.48071
6.02319
6.82381
5.9988
6.34458
7.71158
7.22716
8.34475
6.85145
7.18317
7.25717
6.33493
10.4355
7.33847
6.71515
5.37513
7.0441
7.46872
6.92348
9.69406
6.845
7.42666
8.42634
6.83301
6.38497
5.8455
8.26901
6.53956
6.17231
6.94694
6.59923
6.73951
6.05692
6.63034
6.37771
8.13759
6.56047
5.00936
6.12901
11.1938
6.9857
7.11303
5.98084
6.31295
8.65072
6.95443
6.16252
9.68181
7.43663
6.7386
7.24743
6.97497
6.0603
6.42196
7.65477
5.89931
5.84093
7.06898
6.63763
6.97821
6.27547
7.24386
6.85666
6.61234
7.71628
5.91985
6.21643
6.34246
6.08995
6.16221
6.64268
7.79819
6.27474
6.93232
7.30621
5.69423
7.89117
5.8862
7.3057
6.93792
7.97948
6.86061
8.01553
6.35696
8.86908
6.64898
6.67689
6.64141
7.07587
4.89728
5.7603
6.22197
6.67909
7.64925
5.90269
7.26374
7.13043
6.61921
7.05396
8.53441
5.29681
6.13534
6.14864
6.23204
7.76692
5.51723
7.06409
7.20909
6.01967
7.93173
5.94237
7.06421
6.63735
6.9579
5.42797
5.72584
7.55994
6.16515
5.8405
6.92037
7.41019
8.94571
6.05117
8.15869
5.54388
6.18316
6.81766
6.8907
5.83655
7.05657
7.97852
6.0615
6.93776
8.13111
7.58584
7.45635
6.90971
7.2468
10.4106
5.45534
5.88315
7.11262
6.40297
6.52337
6.10823
8.2943
7.53132
7.26954
8.0317
5.89262
7.53706
5.74461
7.59079
7.30524
7.44476
6.90658
6.91122
6.31662
6.2193
8.13687
6.86592
4.9874
6.97397
5.88857
5.85661
7.31171
7.55487
5.94264
7.41821
5.94819
6.06139
7.6396
7.19707
6.68043
7.66164
6.49086
6.63214
7.67221
7.30504
7.40865
5.96831
6.00308
7.01965
6.83004
6.0682
6.10346
6.81108
7.76851
6.66371
5.98061
5.69604
6.57586
6.06347
8.45215
7.55762
6.06702
6.62136
7.68747
6.22961
6.96017
7.88794
8.52179
6.89004
9.10833
5.52452
6.56534
7.25496
5.79809
6.23807
5.47793
7.85582
6.36012
5.57275
6.17517
6.20641
5.90262
6.95291
6.34053
6.63155
6.18295
6.35227
6.7879
7.89852
5.00233
6.9865
5.38234
5.48311
5.95132
7.15052
8.22841
6.17783
7.55655
8.13591
7.2288
7.5243
6.04723
6.10181
6.52724
6.44509
7.5567
5.58472
6.28821
6.79352
6.15624
7.86092
6.99138
8.78313
6.14139
5.3081
7.33744
5.8355
7.13491
6.57131
6.32332
7.58622
7.12327
5.97201
7.60134
6.80919
6.38632
5.97024
6.22194
7.04028
6.32622
10.2854
5.53416
6.12948
6.29398
6.31908
7.93504
6.53779
6.59601
6.98907
5.79064
6.70471
7.76396
6.90448
7.42541
6.88859
6.29623
6.95974
5.61925
7.75475
6.36264
9.99682
7.20932
6.79783
7.07796
6.84268
6.51619
8.73527
5.6252
6.3528
5.97937
8.30236
5.87959
6.81038
8.80717
7.08957
6.0249
6.85114
6.36532
6.98753
8.89355
8.53255
5.90123
6.66927
8.00151
6.19263
5.98894
6.61777
6.5938
6.6643
6.50705
8.71632
6.07145
5.70052
8.0304
6.44995
5.21313
6.4732
6.70283
5.89815
6.94395
5.74079
6.59648
5.67095
6.51961
7.48503
7.03831
6.1992
5.82595
5.74709
6.14075
7.14441
5.60588
7.45048
5.91993
10.1186
6.18965
9.78487
6.59506
6.21838
6.26687
7.39239
6.06706
5.36709
6.35875
7.6382
5.58491
6.41863
6.35168
7.6214
7.14842
7.4834
8.2639
6.78782
8.31648
8.96548
7.31727
7.68967
8.22939
7.92319
8.07514
7.06334
7.26214
6.41556
6.23946
6.9376
6.92231
6.79659
5.50161
6.23501
7.71106
6.80422
6.57456
7.36011
6.96795
7.50608
5.67813
6.73969
6.99664
6.95181
7.9043
6.54205
5.81144
6.00675
7.48787
5.8784
6.87972
5.86658
7.92235
5.93433
8.57858
7.4924
5.19528
4.90705
7.90396
6.68274
6.48395
6.80588
6.9398
5.46125
6.91904
6.64918
6.0724
5.8418
5.98511
5.43409
6.57254
5.64906
6.9321
5.60057
7.43762
8.72708
9.73484
6.80339
6.04836
6.18866
8.52305
5.89111
5.49899
7.03532
5.85095
5.66426
6.2657
6.137
6.25556
5.70897
6.35848
6.3185
6.86011
6.84993
5.53586
8.37646
6.98106
6.27021
6.16874
6.0904
5.78546
5.55259
6.32321
7.15366
6.20468
6.98476
6.35976
5.99899
6.31601
7.21543
6.02712
7.35867
5.99129
8.4145
5.85343
7.37115
6.69098
7.47908
6.39924
6.30154
6.39452
7.06185
6.33422
5.75962
7.22566
6.92194
8.96839
6.06596
8.44643
7.3366
7.19399
5.94722
6.68238
6.85478
5.92523
6.57494
8.6274
6.25471
7.09837
8.15176
6.08761
6.48147
5.87983
6.51763
6.59972
6.3959
7.95557
6.61991
6.9377
5.93658
7.48569
6.57196
7.19657
8.74249
7.24248
6.20545
6.11744
8.50393
7.14549
7.62965
6.85495
6.22851
6.0436
7.09051
6.13681
7.17375
5.76202
6.14915
5.32363
6.89541
6.36898
7.30744
5.87458
6.16531
6.60189
7.6346
5.65833
7.38766
7.81504
7.2193
7.56909
6.24334
7.72683
5.53181
6.17859
7.57221
6.89354
6.47279
7.09904
6.3327
6.60861
6.37491
7.72881
5.88547
6.41029
7.59276
5.82679
5.6422
6.1096
6.65539
6.18198
6.02012
5.42325
6.05416
7.84713
5.62997
5.23329
7.39764
6.92007
6.627
7.24481
6.11609
5.99772
6.75687
6.26469
6.38851
5.81252
7.178
5.91136
6.2104
5.58326
7.48946
6.14659
6.38689
6.66293
6.05753
5.59854
6.73408
6.89712
5.16728
6.4599
6.63133
6.72521
8.14982
6.62694
8.46761
5.92159
6.83753
7.46875
6.23072
5.95966
5.58797
8.26904
5.74735
6.29865
8.10381
5.77626
6.09975
7.20145
6.94048
7.50631
6.9041
5.47023
5.67584
7.18462
5.69151
6.15848
5.81066
8.50822
6.85844
7.71811
6.22942
6.01139
8.63505
7.83172
5.76352
5.35499
7.69462
5.44492
5.78491
5.46813
6.20767
6.54927
5.6198
8.67567
5.67149
7.22361
4.89016
7.01109
7.476
6.61255
5.66958
6.84551
7.1393
6.6546
5.73943
5.75756
6.15899
5.92627
6.1041
11.2338
6.74091
6.22887
6.72367
5.67269
6.14521
6.42768
6.16134
6.22642
5.99863
6.40211
5.98274
5.95708
6.89518
6.11922
9.52905
7.22892
7.18698
8.34636
7.2777
7.48741
5.33769
7.2939
6.08383
5.82782
6.88059
7.70439
5.86636
7.49214
6.72012
5.14553
5.94704
5.74552
6.39015
6.72874
6.83292
5.85214
6.63382
6.54702
6.30446
6.1894
5.98982
7.89656
7.15512
6.90747
8.44337
6.67632
6.4055
5.99469
6.64042
6.10205
6.56544
7.28255
6.85851
7.29303
8.19885
7.09868
7.11418
7.87304
5.61419
6.70292
7.31193
7.09818
6.08101
6.37481
6.17967
6.54142
6.53007
5.06632
5.71163
7.48635
6.20545
7.04732
6.06846
7.8679
5.10458
6.54976
6.46148
8.1667
6.83931
6.1272
7.99257
7.14399
7.23608
5.73348
7.89764
8.66468
7.89489
7.74007
7.38613
5.86724
7.86687
8.04134
6.74146
7.12469
4.94621
6.8905
6.37333
7.87257
8.4391
5.84406
6.31917
5.86632
6.37421
7.39002
6.71619
5.75845
6.91128
7.93014
7.14632
6.61582
6.99983
5.90365
9.18728
6.89148
6.68802
7.00523
6.35645
7.03822
6.37081
6.78576
6.86941
6.48391
7.42398
8.02338
6.08783
5.39433
6.96407
6.89821
5.69603
6.94137
6.61828
6.48229
9.18834
5.75626
6.63791
6.81998
6.61714
7.71482
6.40122
6.87027
7.51314
5.99164
7.82044
6.80709
5.74382
6.44867
7.26074
7.79349
7.30016
6.0872
6.65455
6.93703
7.17319
6.53173
6.46289
6.48241
6.88679
7.06094
5.78228
6.28407
7.56803
6.89807
5.68628
6.58562
6.70615
5.2633
7.84049
7.18872
6.74451
5.958
6.18284
5.39568
6.02974
7.46992
6.193
6.12094
6.93254
6.28229
7.93718
7.08633
6.49209
7.59484
6.16698
6.17393
7.62761
5.6153
5.84503
7.30188
5.59652
7.93218
6.62345
6.77216
6.591
8.49603
8.93537
6.55956
6.9992
5.90844
7.74174
6.22911
6.47057
7.0466
6.93253
6.95656
5.48492
7.01765
5.98328
6.768
6.14395
7.5167
6.44926
7.09876
6.23679
6.7246
6.93519
6.44849
6.36869
5.42968
8.43039
6.02246
8.16453
8.64317
6.05771
5.312
6.83349
6.82767
7.98265
8.15968
7.82385
6.63438
5.71338
5.54553
5.5952
7.90732
7.73526
7.63318
5.98168
6.81127
7.31258
9.32524
7.66305
5.90026
6.59645
7.15886
8.18601
6.26783
6.01622
6.7093
6.31477
5.13017
6.95152
7.21355
7.27314
7.45759
6.74772
14.6936
6.52962
5.79991
5.90111
8.33949
6.78471
6.49581
6.58991
7.22596
6.97098
6.26446
8.2828
6.41205
6.79122
6.24635
6.7836
5.61843
8.31549
6.93756
7.26847
6.71533
6.10878
6.18393
5.71527
7.59434
6.32525
7.41767
5.84456
6.21482
6.59158
8.03684
6.2861
6.7834
7.56666
6.17087
8.04985
5.93953
6.52317
7.41981
5.85191
6.09345
6.03053
7.90859
8.88972
5.85101
6.89878
7.38695
6.28122
6.48683
5.86428
8.08113
6.15768
5.76981
7.10226
6.61422
9.00442
5.84578
7.84089
7.38194
6.79619
6.21298
8.34685
5.72493
6.80041
6.5182
6.08838
6.01585
7.79444
7.34834
6.72531
5.54063
7.22943
7.51227
5.54181
6.87527
7.61806
8.11022
6.59257
6.40041
7.01431
5.97634
7.38798
6.10526
6.15017
6.41914
9.45027
6.67346
7.41025
6.40042
6.66954
8.7206
6.85276
5.97949
6.01491
7.57557
6.47955
5.94508
6.48152
7.32589
7.31452
5.64696
6.07163
5.81062
6.36962
7.13896
9.21343
5.72827
7.21467
6.42133
5.94408
7.74206
8.57788
7.62802
5.99598
6.14019
6.30926
5.98305
7.59361
7.1662
6.11761
7.69264
7.43916
6.7369
7.63994
6.12153
6.75787
8.21638
8.15727
6.11407
7.72594
6.7913
5.92542
6.56076
6.33216
7.5178
6.57861
6.07871
6.7548
7.87383
8.63933
5.15218
6.24436
11.6215
7.46236
8.03853
6.67215
6.26107
6.00398
8.03363
7.15972
5.76519
6.46293
6.91374
6.99462
10.1503
7.87242
8.06521
6.39805
5.77724
5.74841
5.52677
7.08395
5.16896
5.96724
7.53269
6.67939
6.82019
6.21362
8.9063
6.65202
6.38713
5.75882
6.42201
6.63826
7.2841
6.55225
5.994
7.38096
6.28739
6.16917
7.81797
6.57943
6.12544
6.28131
7.5697
6.79191
5.77024
7.19309
5.54355
5.81424
6.58162
6.67542
6.30956
5.3133
8.75416
5.6722
6.54648
7.32502
6.46741
6.8762
7.43076
6.6913
7.22152
7.04455
6.37439
9.16396
5.59992
6.0947
5.12294
7.29448
6.36972
6.22929
6.83434
6.41914
7.18017
7.24904
6.41193
8.14895
6.07289
6.43934
7.35946
6.90389
6.08906
6.47268
6.23782
6.25197
6.57624
6.61698
7.53703
7.79159
5.84073
6.26189
5.60581
5.86795
6.0314
7.13361
7.53437
6.39011
6.29505
7.98147
6.55969
6.24892
7.71904
5.86266
6.43741
8.28646
5.66808
6.51018
6.60744
6.42435
5.81702
6.53449
6.2381
5.70508
6.81634
6.9536
6.62172
9.0278
5.58793
6.96619
5.90871
6.44874
8.49314
6.28115
8.81403
6.72904
5.87116
8.45288
7.20887
5.77577
8.70312
8.84345
5.6651
6.1742
6.27102
5.73839
5.99724
7.44895
6.18864
6.52049
6.88912
6.26295
6.2122
7.25817
7.04475
5.5522
6.26501
6.76555
6.99927
6.69125
7.23373
6.05155
7.19288
6.1778
6.9217
5.67209
9.87472
6.59182
5.64359
5.19504
6.43658
6.31555
6.06699
7.97283
6.66365
6.59339
7.75796
7.35548
6.3705
6.05936
7.51945
5.99513
6.08091
6.85604
6.14117
8.17059
7.67567
6.26641
5.20463
7.77354
5.43368
5.82045
5.16382
8.1021
6.94397
7.53342
6.61577
6.74985
6.49782
6.85262
7.52475
6.51765
10.0399
7.27253
5.04536
6.65508
6.86982
6.16588
6.80664
8.01485
7.03724
8.61335
6.81991
6.18586
6.60534
6.28382
7.46466
6.0285
5.9742
6.2492
6.1393
6.31103
6.80601
6.37022
6.54443
7.87315
8.48565
6.83108
7.4928
6.74298
6.97196
6.97996
7.26005
5.93697
6.43399
7.97696
5.40626
6.70462
7.38606
7.52111
8.8943
8.14793
5.61979
7.33403
6.68032
7.05227
6.41392
7.22409
6.98345
6.1922
8.4601
7.71352
5.72743
6.67774
7.00786
7.47205
5.61456
5.85522
6.79863
6.59208
8.279
5.70719
6.51563
7.73734
7.27801
6.71718
8.0957
6.68255
7.94278
5.79714
8.27198
6.63102
5.89887
6.84106
6.44165
8.00683
6.1923
6.26261
7.24674
6.36693
8.85504
6.22892
9.44154
6.83872
5.65594
8.67654
7.30429
5.54896
7.46964
7.1242
6.63309
8.15114
5.82267
6.65342
6.51535
6.0714
6.05336
9.53814
5.45439
7.34036
6.62266
6.52665
7.56699
6.41503
5.32201
6.88603
5.35516
7.1215
5.44307
5.68162
6.10552
6.0558
6.5941
8.66868
7.05714
6.60543
5.43081
5.8534
7.4172
6.50802
6.34364
6.57187
5.5335
6.04598
5.80247
6.15035
7.51502
6.4859
5.81524
8.17208
5.31417
7.07139
8.081
6.52735
5.4004
6.49011
5.21813
6.58917
5.01063
7.99685
6.60404
9.42882
5.42215
6.11769
5.51662
6.54367
7.09679
9.23926
6.62998
6.24304
6.06699
6.18867
6.5058
8.18496
6.28414
6.55636
5.58108
6.4241
5.49928
5.65038
5.88331
6.60295
5.26107
6.57492
6.21938
5.99653
6.9222
6.51265
6.83885
6.0382
5.77642
6.4053
6.15971
6.85617
7.306
7.41399
6.09555
9.22362
6.32374
7.11044
6.97791
6.31034
6.28191
5.70944
6.9327
6.77617
6.04748
7.41104
9.05558
7.28646
5.30813
5.64903
5.24103
8.65909
9.80458
7.36196
6.61629
6.21329
6.11023
6.23891
6.72576
6.89765
6.06021
6.0212
6.55736
6.42421
7.10953
6.944
7.28151
6.26946
6.57996
6.75069
6.35956
7.50732
8.12379
5.39644
6.62357
5.48789
7.29592
5.66512
5.68654
5.84007
8.01175
6.59183
6.25687
6.15237
7.37129
6.46705
5.4335
7.33931
6.1964
6.98669
7.43455
6.03283
6.35983
5.44487
7.36892
7.6201
8.9022
5.12321
6.1122
6.99628
6.45449
6.50405
7.11289
6.48689
7.66128
7.05447
6.00483
8.65669
6.60044
7.30181
7.58858
7.32861
5.82307
5.81419
8.57844
7.42974
8.93392
6.30848
6.40824
5.87881
6.77102
5.7932
6.10515
7.25838
7.29739
5.81262
6.54883
6.16637
8.36364
6.01834
5.70351
5.01412
6.99058
6.73163
5.98261
6.12149
8.03024
6.26838
7.57617
8.0334
6.35901
5.96407
6.67631
9.49762
6.45073
5.79842
8.1212
5.6662
6.17969
6.11641
7.54397
5.45257
6.07452
8.41348
6.11364
6.37625
6.7187
6.49533
6.14217
6.84281
6.70548
6.12709
11.2892
7.87993
6.90155
6.16432
6.7961
5.85631
6.25029
7.37163
6.37193
5.59986
7.69564
8.73924
6.54225
6.81164
6.35074
6.03057
7.84572
9.55048
7.85803
5.61436
6.93598
6.46627
6.78575
8.41596
5.74786
7.13192
6.90782
6.79563
7.46797
7.53778
7.676
5.87358
5.7321
8.25266
8.16845
6.54859
5.68757
6.46175
6.40906
7.6051
6.38377
5.81025
5.93561
5.94212
6.18696
9.28968
6.35154
6.82304
6.89769
5.32126
6.61685
5.46678
6.32392
6.21904
6.53682
5.52042
6.90286
7.94769
6.01661
6.01014
7.15825
7.71684
11.7325
6.92457
5.62813
6.32753
6.00044
6.91283
6.43673
7.15307
5.96137
6.92119
6.20261
7.33603
5.62599
6.77085
6.80773
8.33282
7.60829
6.5848
7.49291
6.62847
7.05709
7.54704
6.86577
6.03129
8.14582
7.48016
6.11287
7.43557
6.35178
7.52941
6.66775
7.1411
5.96126
5.71015
6.16213
6.92256
6.11033
6.60176
6.66514
6.67486
7.4991
7.31861
6.0429
5.748
6.9915
5.32968
5.53876
6.0862
7.82551
6.38865
6.0925
7.84315
6.66154
7.51883
5.40524
5.78304
7.01303
5.63185
7.2325
7.38297
8.38572
6.39972
5.93688
7.29213
6.25732
6.76252
8.11091
6.68609
5.64694
6.4751
6.97396
6.89653
6.466
8.90419
6.23419
5.63036
7.47048
6.26009
6.02995
6.22375
6.29401
6.54556
5.21899
6.64067
7.08585
5.85375
6.17481
6.90162
8.34778
8.01269
6.96068
6.00379
7.26867
6.21186
7.6826
6.75931
6.15161
6.72665
6.93018
7.12542
5.56537
7.12036
6.96383
6.18377
6.15735
7.01709
6.43946
6.91084
7.36346
5.96446
7.54459
6.05563
7.90655
5.86925
5.5644
7.63924
7.13093
6.87411
6.93088
8.34039
6.33158
7.7955
5.86115
7.83009
5.55622
6.71936
5.95111
6.08117
6.39196
6.1874
6.88558
6.98549
7.8544
6.18878
5.84207
6.42997
5.59048
6.28926
6.32269
5.97428
5.98516
7.14293
8.47883
6.17955
8.20563
5.82684
6.84167
6.50553
7.13384
5.70434
6.10325
6.78547
6.10727
6.50982
7.55665
5.39345
5.97753
7.27652
6.83174
8.32426
6.04463
6.23276
6.57533
6.54247
7.66133
5.90744
6.31376
7.14176
7.00193
5.3748
7.08057
6.2436
6.78533
7.53924
5.91432
6.05238
6.65048
6.90649
5.92137
5.80261
6.16527
6.94264
6.47864
6.95084
9.27662
7.03164
5.40896
6.45177
7.10912
7.11517
7.46927
7.38777
7.74107
5.55107
6.90489
5.64856
6.64355
6.99903
7.13724
7.14839
6.63867
6.33107
6.22434
5.74565
11.1623
7.34679
5.96999
6.16108
7.35675
8.51171
6.31776
7.46389
5.23171
8.40839
5.13137
6.47834
8.38538
8.35998
5.41433
6.29209
8.86198
6.39401
7.76166
7.64209
5.93449
7.26725
7.49793
6.43302
6.82977
6.61144
7.56698
6.43471
7.3243
5.85043
6.56012
5.56787
5.62468
7.35968
7.12646
5.59538
7.17819
7.1467
5.90411
7.43848
5.83147
7.01212
7.03426
5.65679
6.21982
6.07879
5.97292
5.67963
6.37625
6.30445
6.03889
7.24603
6.37532
7.91164
5.74768
5.07406
7.22752
6.59336
6.19619
7.10112
5.65948
5.81507
7.32222
7.54095
6.32323
8.2253
7.82095
5.94469
6.91656
7.51587
8.10278
6.16773
6.60619
7.51618
6.5287
6.94063
5.31489
6.04627
6.06357
5.79508
6.00903
8.71732
5.79399
5.7174
6.91029
7.35214
6.44171
6.31139
6.39166
6.22593
6.53621
6.31471
6.07032
6.85572
8.49016
7.6034
5.47481
6.40457
6.04338
5.73412
5.55103
6.28477
5.49371
8.1865
7.07085
5.80617
7.7259
6.18181
7.49505
8.21164
5.68917
6.0668
5.52065
6.12546
6.58819
7.5851
6.09425
6.30969
6.9276
6.20834
8.63173
7.75073
5.98786
8.83722
7.12733
5.69587
6.10669
10.8934
6.21884
7.73781
5.91865
7.03888
7.58876
6.81366
6.31728
5.86187
7.6817
6.60104
5.77878
6.52645
6.60495
6.49502
8.82148
5.32523
5.88843
7.17341
6.05631
6.51294
6.40716
7.70372
6.91562
6.17829
8.55956
8.69733
7.96094
6.95252
6.92588
7.20292
6.8405
5.67325
7.49314
6.07161
6.53493
5.85035
7.17248
7.77753
5.55368
5.91361
8.20801
9.1031
6.84191
6.62159
6.93571
6.55941
6.20726
7.12649
5.86412
5.7372
6.75039
6.26699
6.46769
5.45771
6.09652
7.70229
8.42364
7.49211
5.98064
7.30435
7.25299
7.27324
8.54314
5.62739
8.02315
5.71032
7.92426
7.14442
5.96665
6.1877
6.84261
5.37766
7.92927
7.94212
5.44255
6.04949
7.10287
8.40647
7.19673
6.15097
6.99108
6.43063
7.27238
6.25666
6.31739
6.64719
5.94073
7.26682
6.88919
6.32486
7.0428
7.28879
10.386
6.51924
6.8151
6.5283
6.7702
5.70059
6.40874
5.7547
6.62374
6.76717
7.12658
6.08409
8.6624
6.35188
6.60563
6.29528
6.775
7.16884
6.40819
5.76546
6.27319
6.9858
9.05634
8.26624
6.51069
6.3258
6.20503
6.15659
7.23043
6.48371
7.24902
5.4318
6.8693
7.85051
5.93518
7.80435
6.86064
6.01117
6.37786
5.75574
5.44701
5.42164
6.12523
7.82561
5.79823
6.4385
6.89279
7.03554
7.49144
6.72747
5.50846
7.30169
6.30378
6.06014
6.16974
5.80294
7.45021
7.48108
6.96367
6.15473
6.40249
6.10921
6.33926
5.47776
6.62098
5.515
6.37234
5.85837
5.71095
6.43819
5.7796
6.93842
5.61956
5.93829
6.45063
6.31395
5.84303
8.20745
6.25106
6.43789
6.10843
8.51352
9.95946
7.31929
6.93188
6.49273
6.86298
6.76833
7.00478
5.73882
5.6957
6.40578
6.33185
5.93382
6.4696
7.78566
8.41394
6.67362
6.08599
5.61214
6.89362
6.37796
6.58644
4.99396
6.18479
7.77232
5.91579
5.99112
8.77745
7.38502
6.48049
5.4773
6.32586
6.30783
8.04609
6.20611
7.0855
5.66285
7.08989
6.10363
5.83145
9.05279
8.45092
7.97224
6.04824
5.42622
6.72573
6.2632
6.19404
7.3334
5.72017
5.43446
6.44678
7.10415
6.53184
7.33041
7.12813
7.81745
5.33495
6.29606
6.22748
6.62708
5.42204
6.85586
5.83865
6.78352
6.63496
7.06893
6.58943
7.24886
4.86843
6.37154
8.63712
5.51695
5.63953
10.6866
5.99366
5.82223
6.36471
5.70277
7.71918
6.208
7.18075
6.83001
6.11341
5.90945
6.75213
5.57853
5.71561
5.83591
6.1195
6.09216
5.98356
6.36956
5.60578
5.7216
7.04587
7.31653
7.62301
5.6331
5.16355
10.3107
7.28522
7.04679
6.06838
6.09136
5.92168
7.32693
7.14038
5.70724
6.79004
6.10268
6.16985
9.58261
6.06714
6.35168
6.5035
6.99133
6.05689
6.10948
5.56208
6.03211
6.02642
6.33571
6.06002
8.13422
7.28998
6.01059
6.19161
6.1826
11.122
7.17645
6.76292
7.30186
7.11433
5.9842
7.79557
5.99449
9.37796
6.40815
6.15931
7.20754
6.70519
6.30253
5.59896
7.45793
5.71611
5.94059
6.18253
8.91317
6.7221
7.32939
5.66925
6.37235
7.70208
5.75087
8.43226
7.15437
6.05055
6.31607
6.90987
6.34413
5.53995
7.88459
6.49611
5.92161
6.55663
7.31816
6.52254
6.87442
6.87467
7.35135
5.71059
6.7644
7.40271
6.84634
6.0573
7.20549
5.82693
7.68227
6.87713
5.59111
6.3455
5.66627
6.21331
7.0692
6.56906
6.85102
6.39994
7.05329
6.28136
7.83628
6.21314
8.35172
10.0645
6.93584
7.484
6.17814
6.07239
6.58154
5.54991
6.43529
6.92526
6.63162
6.52479
6.94653
6.69519
6.49495
5.87636
6.91749
6.89455
6.88443
7.20938
6.94485
6.19729
8.3777
7.93757
9.26234
7.9831
5.72236
6.94356
5.45973
6.52305
6.76076
7.34419
5.10584
8.93894
5.41156
8.91556
7.07224
5.3873
6.41459
6.31853
6.6203
7.02906
6.35076
6.90728
6.46011
8.00533
6.52381
6.86691
7.60018
6.32927
8.03833
6.96018
5.88539
6.71174
7.05117
6.00128
5.8956
6.62459
6.37371
6.65521
7.86314
5.91706
5.93246
5.10025
7.02988
5.42353
9.00149
7.05058
7.17173
5.85003
5.7827
9.0518
7.17876
6.63193
6.84896
6.46022
6.20099
8.9772
8.67522
8.03045
5.65321
6.92518
7.56071
5.97935
6.17663
5.66133
8.21996
6.07367
7.04971
5.41755
9.34957
6.16963
7.20561
5.26497
6.50679
6.8143
5.9448
5.81467
6.54247
9.26821
7.94589
6.60235
6.94394
6.63806
7.10842
5.97288
9.59307
5.49387
6.43172
6.30674
6.354
6.36922
5.75921
6.7332
5.86768
6.2831
6.70237
5.27792
6.67989
5.98172
7.10423
7.49488
6.69801
5.62564
7.35963
5.86908
6.28386
6.44347
6.46128
7.36486
6.50346
8.15294
6.56217
5.97767
7.77741
9.43804
6.55385
7.97349
5.68507
5.67583
6.52765
6.30603
6.06264
6.32079
5.41708
5.5738
6.23462
5.99531
9.22373
8.92378
7.03541
8.1431
7.53239
5.37821
6.88788
6.88678
6.364
6.96597
6.20575
7.36625
8.15648
6.11611
6.85317
6.81794
5.95689
7.57794
6.65313
6.13248
6.73637
7.81403
5.84758
7.42498
7.00237
6.00151
6.1379
7.96226
5.69521
6.23452
5.49848
8.11254
6.80219
6.23814
7.82832
7.91265
8.72327
8.55079
6.83531
7.22801
5.67153
6.77173
7.54458
6.69282
5.35739
6.98704
5.88884
5.95361
6.46065
8.35285
8.00173
6.48225
5.66146
7.73285
5.97187
6.73048
6.53671
5.40644
6.35302
6.51253
6.49547
5.78068
6.33785
7.10437
7.10727
6.16946
6.50843
6.76549
5.84359
6.42794
5.54842
7.60383
6.61172
7.22549
7.25293
7.1231
6.3864
6.18807
6.50474
6.83714
6.37433
7.16357
7.49109
5.82578
6.38486
7.9339
8.57991
6.43375
6.54024
6.34723
6.45398
5.85115
7.56962
7.51558
6.36574
6.73456
6.36854
6.23443
5.43643
5.75318
6.68517
5.66926
6.59667
6.88659
5.96849
8.46418
6.75116
7.90554
7.18306
8.24372
11.5815
8.77479
8.29704
8.56186
6.45987
5.37607
6.75623
7.40825
6.69289
7.98422
6.75847
6.60333
5.67275
7.98026
7.63485
6.39151
6.4769
6.13114
7.19614
6.82701
6.97036
6.52728
7.48983
7.29493
7.20906
8.54573
7.02907
7.62719
7.24612
10.2456
6.59645
6.64815
6.68202
7.58634
6.27565
7.58055
6.93325
7.11611
6.54418
9.23595
6.63219
6.00367
5.10538
8.13884
10.8721
5.99885
6.08896
5.44604
6.42763
7.63018
6.82837
7.07161
7.08595
8.09454
5.59248
6.58193
5.49684
7.35414
6.59588
6.21433
10.3166
6.79127
8.71807
6.18184
5.84698
6.16462
5.60253
7.45036
5.25737
6.89645
6.36197
6.66646
10.1756
6.17287
6.26862
5.4462
5.83979
8.62957
6.51141
6.29148
5.77028
6.61602
6.80806
7.49046
7.19508
6.43397
5.79375
6.42614
6.49501
6.25284
6.44739
7.54651
8.56964
7.30201
6.20883
6.93664
6.28921
6.47113
8.05843
7.6587
5.61726
6.27076
6.13938
6.71362
7.11258
7.01445
6.88685
7.4932
6.48657
6.09931
10.0584
6.78369
6.05956
6.75895
6.42698
8.53624
7.08369
6.85009
6.13834
6.6595
6.25815
5.87735
6.99486
8.29415
6.01443
9.35599
6.66711
6.66548
6.14111
6.61319
6.3463
8.0108
6.02532
8.96515
5.74273
8.48593
6.17489
6.2289
10.0808
6.55437
10.3793
5.2765
7.69834
5.89584
8.03184
8.85655
5.80789
6.5214
7.61928
6.22402
7.16713
5.9779
9.01712
10.4552
9.67611
6.58142
7.31686
5.66967
7.41025
6.78823
5.83656
6.51994
5.71061
8.92248
7.37911
7.19059
5.74426
7.08676
8.46827
5.81849
6.87061
5.83947
6.29407
6.43167
6.21335
7.58078
6.31457
6.70507
6.08089
7.01884
6.71564
7.9223
6.02199
7.83584
6.03896
5.46742
6.45361
6.48414
5.90877
7.54464
6.40756
6.94618
7.17216
5.46927
6.26352
6.43097
6.92366
6.17322
7.09814
6.51365
7.21175
6.29553
7.0356
5.96769
9.95613
5.24633
7.50744
6.57722
6.517
6.78443
6.13199
6.22475
5.93169
6.84076
7.84302
5.43985
6.1305
7.46494
5.61919
5.68212
6.72724
7.40487
7.0915
6.1753
8.91232
5.9718
8.47494
6.60626
6.99494
5.33245
5.91127
7.59196
5.41472
5.60137
8.32723
5.21541
6.26887
6.36132
7.0915
6.83811
7.64644
6.70446
9.13337
6.75752
7.00493
7.41866
7.80521
7.71981
6.20984
7.38041
6.66294
6.1407
6.17987
5.65205
8.14034
6.34911
7.44724
6.77901
7.289
6.86461
7.63048
6.68799
8.13707
7.41863
5.97768
8.97645
6.80834
6.04136
6.71938
6.95554
6.11648
6.62557
5.54466
6.64608
5.8088
5.61301
6.34816
6.5036
9.57233
7.13298
6.42408
6.72465
6.71066
6.39578
6.12231
6.98677
7.04601
8.69404
6.97913
6.19565
6.60487
6.30757
5.50865
5.66441
7.00941
5.8104
5.73968
5.62098
6.6013
6.76304
6.16359
6.23962
7.87979
6.49183
7.41511
6.16734
6.04601
6.40948
6.4305
5.61339
8.74582
6.35449
7.45602
7.58314
6.22692
6.736
5.93539
8.5114
6.65935
6.97353
5.53903
7.55989
6.17029
6.87316
6.70883
5.86621
6.11896
5.86307
6.49288
6.51097
7.30128
6.31259
5.81942
6.32713
5.85427
6.76261
6.91595
8.34442
7.27135
8.04219
5.52764
6.65173
7.12074
6.16844
6.42142
5.82109
6.36379
7.10424
6.17723
6.14528
7.16965
6.71968
6.67146
6.96413
6.16668
11.1879
7.90633
8.47276
7.11832
6.97067
6.60154
6.36875
5.79685
6.67938
6.26995
5.54627
6.63195
6.07948
5.79951
5.75218
6.55467
6.80053
7.99508
6.85243
5.617
6.97221
6.63339
6.46923
7.29797
5.90911
6.25761
6.76992
6.88701
8.46745
7.62421
6.67307
7.51367
7.49804
6.85663
7.70559
5.7385
8.94751
5.6158
6.0231
6.03866
7.62174
6.79837
5.79821
6.20914
6.31935
7.5907
6.55989
6.01712
6.62589
7.00185
7.48431
7.04743
8.02832
5.68173
6.31994
9.48068
7.09131
7.9849
5.42371
6.26216
6.66052
6.15411
6.57943
5.94122
8.13042
6.35526
6.80952
5.81013
6.34905
5.40321
7.75394
6.68569
7.29271
7.78057
6.95366
6.52979
7.08894
8.41219
6.78827
6.20566
10.9578
6.55877
6.27248
7.59417
8.07338
6.19602
7.84801
5.98937
7.54728
5.38532
8.91726
6.98271
5.96164
6.32471
7.25768
5.82403
5.7123
5.75111
6.33826
5.38815
6.30094
7.0343
8.55618
7.91588
7.33392
7.45199
6.60264
6.61514
6.76755
6.71615
5.30186
6.44983
5.96865
6.96298
6.68877
8.19023
7.84995
8.49797
6.2299
6.79081
6.21822
7.13518
6.30316
8.885
6.37876
6.70126
6.17676
5.52276
7.07556
6.56267
5.94968
7.66668
7.15047
6.03376
6.53919
6.81957
8.14556
7.44973
7.72893
7.05143
6.55091
5.88677
6.33267
6.20167
8.9583
6.46154
7.3472
7.73744
6.33829
7.79042
6.3591
6.93524
8.0832
6.56208
9.44745
5.8019
7.73506
6.62779
6.41036
7.08268
7.43903
6.88955
6.93552
5.76314
6.55869
6.21798
6.46313
7.17635
6.35713
8.3436
5.88869
5.48656
6.39319
7.41061
7.71245
5.83516
7.67511
8.0776
6.33618
5.97164
7.15688
5.72661
6.28235
6.63964
6.2919
5.38193
5.99416
7.45264
7.66302
6.86246
6.29729
5.84662
5.51967
5.01365
6.61331
7.86692
8.87093
6.06512
6.61872
5.88459
6.34975
6.08198
7.76909
10.2035
5.76721
5.95749
6.20148
6.66967
5.79331
6.01269
6.39866
5.35954
6.14093
8.59212
7.92029
7.62128
6.23133
9.43355
6.14614
6.70301
6.12679
7.69729
7.1351
5.60816
5.90073
7.14497
6.83663
7.72734
6.87676
8.62526
7.66422
5.32744
6.96187
6.6523
7.90343
6.88669
5.22837
5.82729
7.12915
5.31149
5.89299
6.50189
8.60768
7.91481
7.35633
5.8979
6.3575
6.51455
5.98227
5.94392
6.80944
7.31639
6.33105
6.1856
6.28065
5.64926
6.22479
7.66751
7.11964
7.71063
6.04194
7.45382
6.20218
5.88414
7.85939
8.00766
6.7147
7.66328
5.22003
6.45937
8.30996
6.84189
5.76555
6.70095
5.37563
6.39892
6.94985
6.29198
6.07193
5.83973
8.40864
6.25759
6.49781
7.23567
5.04008
5.75528
6.16009
7.18281
7.10007
5.7508
8.73019
6.59263
7.54956
10.11
7.7941
6.77991
7.33926
6.08595
7.14012
6.16302
7.26003
6.7205
6.23847
7.57348
6.45604
6.08224
6.11603
7.21932
5.59737
6.86169
7.84196
6.80323
6.38066
6.29231
8.29801
6.19171
7.70812
6.45039
7.06339
7.65276
7.09397
6.27569
7.95583
6.71528
6.54392
7.6412
6.05813
7.1367
5.90319
7.77428
5.99605
5.91082
5.75986
6.24124
8.06679
6.43908
6.93423
6.26995
6.48178
6.37908
5.95833
6.07207
6.61063
7.99724
7.36855
6.34315
7.71587
6.93134
6.28273
7.26451
5.34168
6.50565
5.87733
6.16009
7.71873
6.91675
6.03913
6.32696
5.65197
6.79333
6.28406
7.95971
6.16424
6.02713
8.37265
5.53179
5.61106
6.79035
6.22938
5.69317
6.29268
8.15418
5.04532
5.67589
6.70262
7.44543
7.57245
6.79183
6.65725
6.20307
8.38655
6.65196
5.83372
6.8651
6.53635
6.81426
6.09516
6.1817
7.22138
7.03186
10.6241
6.1082
6.76582
6.26334
6.32984
7.80543
6.71003
10.7202
7.2303
7.0323
6.71184
5.89813
6.82018
6.01206
6.04373
8.12488
7.91476
7.35725
4.99043
6.43459
6.73625
7.49103
7.74297
5.97809
5.87647
5.52945
7.16761
6.45626
7.42361
6.11831
5.63246
6.45975
5.95323
7.03129
6.69873
7.72869
6.03622
7.49407
7.03385
5.92541
7.6177
7.00023
7.22816
6.35065
5.72984
6.24497
6.24904
6.59613
5.70273
6.7608
7.70322
6.4143
7.75653
6.67795
6.20644
6.69396
7.36281
7.6223
6.63691
6.9035
5.96922
5.83387
6.40853
8.12587
6.72317
6.0049
7.47227
7.32382
6.39302
5.8728
6.90334
6.201
7.07853
6.3102
6.60582
7.69146
6.36458
6.15732
5.56867
6.36098
6.92544
7.31871
5.27474
6.32238
6.17955
8.45906
8.48368
6.72269
6.17763
8.11043
7.41612
7.36206
7.85532
7.40223
6.88051
6.1877
9.89888
9.18211
5.97214
5.529
7.47418
7.61355
6.78067
6.13901
6.46024
6.78871
6.86879
7.97512
5.7579
7.32747
6.5261
6.07829
7.28135
6.69731
5.9151
7.17296
5.33774
8.19761
7.1204
5.54997
6.84694
6.96514
8.99239
8.09043
6.03463
7.586
6.41175
6.92404
7.81517
5.44224
6.96957
6.40199
5.99624
5.349
8.74029
5.8286
8.02805
5.70004
6.12225
5.53069
6.35335
6.38795
7.21668
6.62235
6.27111
6.21808
6.21963
5.2505
6.51067
5.91643
6.97294
7.72318
5.87198
6.74751
8.69802
7.16676
5.87014
5.9095
6.13834
5.68786
8.34377
5.66995
7.06317
7.02051
7.23655
6.87646
6.6449
6.51455
6.70637
7.02512
7.33781
6.28943
6.02561
6.38015
9.13191
5.64392
6.73143
5.75081
6.21366
5.8344
6.1658
5.88264
10.8327
8.1646
7.68452
6.56417
5.95226
6.86277
6.39787
5.73172
6.94451
7.14805
6.20527
6.54818
7.34003
5.86638
7.12065
9.43091
6.15438
5.59905
6.04699
6.4024
7.44193
6.20233
6.57406
9.8655
6.07546
6.70969
6.24257
6.22799
5.60153
5.20042
8.38857
7.60967
6.88384
8.11346
6.08176
6.89874
6.69472
6.15953
10.2605
5.89578
6.92919
6.39437
8.26033
9.15732
7.58068
5.71058
6.65272
5.99993
7.07003
6.95902
7.62161
6.93859
6.70679
8.81714
6.18598
7.42026
5.7467
6.73605
5.72022
7.17736
9.59935
5.99542
7.20266
6.54258
9.85133
6.15935
7.71207
7.13923
7.30739
6.58603
6.31068
6.59689
6.19048
5.66856
6.03143
6.56816
9.33778
8.9151
6.45004
7.79318
6.03036
5.62708
6.2481
7.24784
6.29292
6.20179
7.16756
5.89981
7.17541
6.62042
6.59881
10.2765
6.80136
6.33961
7.16683
7.31864
6.30769
9.67506
7.27558
6.90261
5.96151
5.59142
5.58141
7.35738
6.23796
5.48755
8.79195
6.31034
7.10791
6.3771
6.13086
6.05774
6.42535
5.67838
5.78333
5.81836
8.94595
6.62347
5.70637
7.13188
7.06332
6.04544
5.39981
7.00964
8.42534
6.4903
9.5411
7.08076
8.85267
6.98178
7.10322
7.87401
6.77949
6.4912
10.23
5.65061
6.68036
6.79612
5.95404
5.70431
6.46974
8.07129
6.06837
7.25993
6.84991
5.54039
5.99771
5.73708
6.80977
7.77562
5.80037
8.13383
6.72693
5.15303
5.54293
5.77273
5.89573
6.84096
5.70003
6.64058
7.83878
6.42175
5.85937
5.79987
7.68278
9.46573
6.53203
5.70181
6.97153
7.47437
6.82525
6.17205
6.68892
7.66168
6.17223
7.70758
5.80315
7.39683
5.26321
5.72683
7.52648
6.20348
6.04316
8.79695
5.61377
6.23881
6.50271
8.17075
5.85622
6.86192
7.76641
6.23512
6.4945
6.51768
5.64369
6.74227
7.94965
7.34368
6.44923
6.8911
8.06036
8.64894
5.36516
6.65094
5.46439
6.62285
6.27236
8.29816
7.19603
7.54171
9.20068
6.06308
7.59749
6.49598
6.00279
5.62707
6.5122
6.01634
8.0026
5.83242
6.00588
7.43725
7.09214
7.05963
7.39897
7.6398
5.56128
5.69434
6.46858
5.33577
8.18981
8.04133
6.75067
5.82946
6.99609
7.26379
5.58074
8.31805
6.66163
5.92558
10.3886
6.48815
7.55934
6.69926
6.45055
6.14612
6.56813
6.63568
6.92811
7.75651
7.39875
6.41468
5.78072
7.26212
6.72473
6.54472
7.35826
5.71366
8.06783
6.47987
5.85287
5.3762
6.64964
6.68202
6.27535
5.7003
6.98777
6.35332
6.47303
6.50721
7.72179
7.17188
6.31347
7.28504
5.87249
6.46193
6.07079
6.5092
6.38077
8.02477
6.56967
6.51821
6.22761
8.79497
7.24669
5.856
5.44197
7.83211
7.15774
7.8998
8.3058
8.80161
6.77275
7.88194
6.43944
10.0978
5.91544
6.67876
5.89998
5.24076
7.23513
6.01546
5.75631
6.94006
5.9579
6.65402
6.19505
6.33536
6.42789
7.23778
7.32404
6.65317
7.44942
7.45598
5.62966
7.54764
5.66082
6.0176
6.12253
9.6108
6.50346
8.55223
7.2865
6.42977
6.71926
6.02938
8.11179
7.06193
5.85222
8.29533
6.88516
6.38391
9.11129
6.49449
6.33243
8.88839
5.69788
6.91518
6.82043
8.08293
6.26784
7.83381
6.23083
5.7069
7.19712
6.0244
6.52179
5.92536
7.06532
8.41817
6.12202
6.62813
7.34804
6.04313
7.85016
5.74052
7.65244
7.88532
8.11403
6.2178
7.28452
6.29014
6.77138
6.324
7.17384
5.49714
6.77075
6.99707
7.22649
6.3818
6.22609
6.08475
7.50433
6.09033
5.69116
6.05789
6.1585
5.94262
6.11536
6.5071
5.31878
6.51759
6.64161
6.5106
8.06153
7.77605
8.28198
5.8402
8.66782
6.90781
9.32168
6.8936
5.9362
6.03355
6.41758
5.65125
5.84626
6.06576
5.18923
5.37838
7.19503
5.72128
5.66063
6.3779
7.09804
6.74124
6.23373
6.39304
7.19086
5.5633
5.79753
6.86092
6.06568
6.0424
7.68207
6.54591
6.88147
7.29091
7.00668
7.06491
6.76882
5.81525
6.10083
6.61815
6.93844
6.84286
6.42362
6.54774
6.60863
5.56946
6.81681
6.48084
6.88643
6.61202
5.76289
6.29593
5.25849
6.36151
6.88565
9.45131
6.07833
6.31907
5.86303
8.13895
6.95332
5.57535
5.8758
6.55837
6.61529
5.19829
6.64341
6.28532
6.79251
5.8707
5.75892
5.95118
5.78759
6.32038
7.23474
7.26912
7.93676
7.28702
5.75047
7.76627
6.6161
5.93413
7.86117
5.34612
7.41669
6.28554
8.47264
6.4843
6.36811
6.81019
6.23932
5.8892
5.6269
6.76794
5.96834
6.38818
6.56392
7.11634
6.96132
6.92985
5.2139
5.89959
6.43687
7.86132
8.10734
5.17699
6.4396
5.80885
6.27986
4.98924
6.71117
6.52667
5.51758
6.37182
8.29178
6.02642
6.6155
6.9953
6.57105
5.95273
6.41509
6.70746
5.52544
6.14652
6.34683
5.55453
6.26131
5.6344
5.92158
6.49275
6.02876
5.72607
6.54943
6.05805
5.94664
7.76571
6.18046
7.64788
6.68129
5.68822
7.08412
5.39022
6.21717
7.60371
5.64335
6.33028
6.0422
6.14803
6.00514
10.6793
6.44966
6.04587
6.82601
7.52734
6.19336
5.60258
6.02191
7.98563
7.57569
5.56644
6.359
5.63115
6.15389
5.91405
7.88824
5.87098
6.40895
7.06494
6.35123
5.49863
6.31477
6.55514
6.96831
6.46835
7.35415
5.88218
5.54416
5.76938
9.27648
6.31968
6.17922
8.92627
6.59705
5.74483
6.90787
7.915
5.73841
5.96139
7.00819
6.90081
6.40695
6.65222
6.37937
8.97442
5.79222
6.94386
5.91884
7.32761
5.90954
7.02591
8.10185
8.7172
7.65755
7.06837
6.90607
8.39656
8.10545
5.94635
7.0368
6.86316
6.80002
10.9777
5.96979
5.14211
5.66343
5.27608
5.95107
6.74195
6.16478
6.27888
6.41951
5.53773
6.3091
9.35374
7.42967
7.07614
7.90723
6.66939
8.76392
6.75419
5.94198
7.65401
6.28846
7.06182
6.52712
6.06995
6.05626
6.41782
5.74606
5.79551
6.23856
5.68485
6.59278
5.57306
7.46731
7.33698
5.93489
6.12465
5.29492
5.88232
8.71273
5.72738
6.57376
6.91362
5.91269
6.21591
5.8792
6.84389
5.5584
7.34531
6.43332
5.98021
8.13283
5.60349
6.37028
6.75955
6.94611
6.73021
6.37557
6.64777
5.98315
8.72572
6.89746
6.25166
5.79153
6.05727
7.36271
6.68362
6.80338
6.2739
6.1105
6.33924
7.04675
7.31762
6.67734
7.44518
6.18094
6.11716
6.58944
7.85525
6.20902
6.53277
6.35799
8.23682
7.81059
6.22158
5.65799
6.91924
6.6092
6.79786
6.3292
6.20938
7.25512
5.67048
6.3825
6.15062
7.37153
7.23727
5.59814
6.54555
7.73927
7.14536
7.27024
5.90221
6.49178
7.43606
7.13772
6.35237
6.87602
6.74483
6.06471
5.66207
6.46537
6.28412
6.67034
7.329
6.0942
6.28123
8.65481
8.82107
6.01281
5.49329
6.34494
6.51697
6.46711
6.30722
6.70845
6.36256
6.14879
6.81475
5.96248
6.64305
5.94443
5.89115
5.96123
6.34483
7.11415
6.80747
5.97189
6.54457
7.90759
6.95112
5.54113
8.77869
10.3549
6.32267
5.982
7.68837
6.54997
6.63362
7.35279
7.04441
10.2503
6.20565
9.22343
6.34434
7.68751
7.6164
6.79128
6.54073
7.30261
6.14291
6.94802
6.03519
8.07595
5.6114
5.62697
6.52367
6.88447
8.51521
5.98817
7.42618
7.28882
7.13875
6.04543
8.45835
7.11041
5.74348
7.88071
6.00407
6.60715
6.17178
6.64968
7.60106
7.54522
5.97468
5.50016
6.05264
7.44574
6.70026
6.93968
6.40662
7.22932
5.66383
5.92624
5.5491
6.54206
6.54655
7.8884
5.53169
7.30815
5.85225
6.50382
6.04326
6.31951
8.51574
6.60257
5.75061
7.50616
6.52629
8.40708
6.47109
6.99958
7.08052
6.75937
6.66824
6.25719
6.19863
8.68724
6.90161
6.35227
6.05712
6.81986
6.76704
6.87338
6.71846
6.35735
6.10259
9.04523
8.11064
9.65279
7.13111
8.36089
6.92184
7.94706
5.78358
5.95705
5.92835
6.21044
5.89334
6.97615
8.05004
7.13189
7.33318
5.77775
5.55851
7.78143
5.95935
5.83312
6.02885
9.1395
7.91657
7.53119
7.70153
7.41985
9.02307
6.23828
6.55951
6.51177
5.03473
6.39246
7.34483
7.14804
5.7754
6.67544
7.39252
8.65736
6.75895
8.35216
6.48387
7.86032
6.11913
6.00378
6.06556
6.70458
5.97185
6.56039
8.31079
7.42703
8.39008
8.94811
6.55652
5.44502
7.43418
6.63512
5.83532
5.98277
6.28399
6.88211
6.47433
7.70042
7.01434
6.65535
7.078
6.17671
6.93484
7.26355
5.90634
9.18786
5.37826
6.1704
6.33966
6.06087
6.82864
6.03961
7.17376
6.67207
7.83074
5.96801
7.07188
6.50489
5.66897
7.40276
6.6481
6.20963
5.52621
7.864
6.56976
7.89903
6.15134
6.53697
5.97792
6.01189
6.53995
7.69865
6.29848
5.95878
6.28407
7.04337
7.60052
8.08155
8.23357
7.78935
7.46835
7.51465
5.54729
6.18609
6.39056
5.46963
5.82353
6.26084
6.16493
6.5274
7.62525
7.48303
7.12597
6.24609
6.76294
5.74504
5.47322
7.18954
9.97065
6.49277
7.49506
7.57634
5.32595
6.82047
6.04641
7.5592
6.05848
7.63773
6.69362
5.89835
6.27056
6.43818
6.68936
7.10834
5.87595
7.61679
6.41211
6.12365
7.27577
6.37903
6.76283
10.1016
7.29878
7.01002
8.55961
6.30431
10.2011
6.05514
6.40144
5.88101
7.05665
6.96805
6.48534
8.52412
5.60236
5.98299
6.84103
7.50532
7.31547
7.77748
7.19614
7.01057
6.32628
9.66613
6.96434
6.40636
6.51264
7.45894
7.23328
7.88262
7.00437
6.6779
7.03851
8.46195
7.34819
7.56393
7.56819
7.8598
6.2352
5.89642
6.16307
6.80147
7.75301
7.79659
6.92229
8.69984
7.40634
5.72244
6.45449
7.34561
8.41285
7.95321
6.0811
7.14769
7.75318
5.66484
5.67031
5.37178
7.14254
7.78656
6.14191
5.86293
6.52829
7.18491
6.48993
6.21159
8.01907
6.56571
7.44316
5.4255
7.34526
6.62502
6.57873
8.62867
8.68144
7.49806
5.99681
6.68379
6.55425
8.98557
8.24693
8.32689
7.10048
5.65603
5.8926
6.97127
6.28386
8.45285
6.91245
6.12037
5.51159
6.37162
6.72152
6.00393
5.44154
7.50311
5.41817
7.08149
6.04969
5.98983
8.99273
7.91875
6.90929
6.2852
6.48678
5.91952
7.38325
7.55384
8.22712
6.20855
6.3404
6.48732
7.39487
7.46567
7.11992
7.45164
6.60584
6.96797
7.0304
6.14912
6.83846
5.98039
7.07902
7.51857
6.83141
7.71105
6.54976
6.79033
7.78465
7.88878
7.16538
7.14354
7.36794
6.23006
7.09193
6.71205
5.60545
7.51854
6.43819
6.52254
6.32151
6.57983
5.13461
7.19007
8.33658
6.22872
6.39097
6.22472
8.0997
6.53749
6.75226
5.6715
5.39344
6.67398
8.50621
5.95533
7.59666
6.48109
8.50872
9.12697
6.63449
6.37065
7.0943
6.10936
10.6503
6.21726
6.09869
5.7386
5.86913
6.58897
6.16138
6.24642
6.66956
7.2957
6.02402
10.3907
5.8494
6.4809
5.92656
8.1005
6.05184
7.43321
7.53634
7.60012
6.19589
6.35931
6.67198
6.94949
7.12402
7.39588
7.2727
5.78393
5.96024
7.62851
6.6065
5.75036
5.25335
7.59427
7.34852
6.15697
6.78078
7.16396
5.77292
7.13288
5.89638
7.05184
5.22138
7.15386
6.53709
6.41226
6.4733
6.1666
6.88817
5.58691
8.9251
5.93085
5.47471
5.75003
5.27769
5.85064
5.57581
5.6365
8.29927
6.10147
6.49006
7.36863
6.02632
5.12878
5.77932
7.44421
6.02006
6.22267
6.39113
5.82862
7.27041
6.0112
7.3845
6.16605
9.03935
6.96142
7.36704
6.95657
6.39734
5.99392
7.36609
5.45436
7.45915
6.268
8.22474
6.68203
6.0242
6.91555
6.27447
6.71748
6.3697
5.91135
7.67587
6.94288
6.32271
7.59568
7.15844
5.80291
7.73455
5.18397
6.14777
6.68475
6.59606
7.10911
7.99854
7.6084
6.01817
6.61006
7.65586
6.14297
5.61128
7.46918
7.50977
8.7675
6.27457
5.99204
6.79773
5.58729
6.41329
6.17517
7.26565
6.68659
6.18408
6.51936
8.10755
6.22089
6.67391
10.7045
6.94298
6.10121
5.64683
5.26469
6.57279
5.17455
5.93601
5.82191
6.13413
5.99334
8.03276
7.66907
5.74909
6.82135
6.03499
7.79312
6.88938
9.62875
6.09806
5.98139
7.53257
9.46023
6.86619
5.70515
6.47725
6.03651
7.27284
6.94555
5.69763
6.54532
8.4321
5.98148
6.84671
7.4545
6.48894
6.84682
6.42899
5.69931
9.44726
7.69201
5.66369
6.54276
6.69365
8.49519
6.62898
7.17516
7.14223
7.86327
6.17783
7.23625
5.99783
7.25789
6.05167
6.81965
6.1009
6.40927
6.75092
9.86317
7.01225
5.39678
6.00629
6.0433
5.09067
5.75416
6.39691
8.99472
6.08757
6.25183
6.09801
8.14912
11.4535
6.4234
7.35974
7.48488
7.0377
5.58121
6.58813
6.94092
5.98824
5.90016
6.22557
6.34317
8.7283
6.03661
6.57275
7.14136
5.82894
7.79303
6.91635
6.60958
7.41651
6.6926
5.96746
5.50005
10.3287
6.64557
5.59266
5.90693
7.01616
6.34288
6.79965
6.87338
6.03066
6.09963
6.48442
6.9627
7.05447
6.41921
6.30384
9.4808
5.99961
7.60302
5.79731
6.01534
5.74421
6.76888
7.57571
6.22041
6.89506
6.38389
6.00412
7.51416
5.23982
6.88066
6.13038
6.09781
5.50129
7.91639
5.82684
6.15332
6.49734
6.41084
6.48011
6.03077
5.55655
5.41447
6.52015
7.21106
5.45673
5.58655
6.09955
8.02481
6.21229
6.76734
7.07416
5.90861
7.25597
6.39445
7.49201
7.71095
6.05042
6.69358
7.95669
8.88105
6.70543
7.96781
7.93289
5.85216
9.64092
5.28808
7.22004
6.07699
6.51413
6.24837
8.48082
5.91435
6.03955
6.73515
6.32632
7.056
6.35712
9.24908
7.29018
6.16726
6.16966
6.53528
6.99473
7.45115
7.95381
8.48505
7.64447
6.2645
6.68776
6.8403
7.34748
6.49634
8.28096
9.43298
5.40266
6.73247
6.43923
6.23027
5.72816
6.46467
6.7061
6.00739
6.32118
5.91465
8.57173
8.89224
5.87068
6.66192
5.86154
6.71412
6.98965
6.71356
6.54016
6.75872
6.5404
5.5827
6.07175
6.33108
5.37257
6.23661
5.896
6.47896
6.08032
6.53864
7.3314
6.21932
5.68797
5.92912
6.00145
6.3493
7.15337
6.19068
6.74673
5.74071
5.35793
6.24757
7.36379
7.15129
6.73957
7.50035
9.69183
6.44315
7.32812
7.45627
6.07423
5.11675
5.68523
6.58909
6.75995
7.07009
6.66569
6.0386
6.86982
7.22332
6.97719
5.93594
7.60809
7.80641
7.62382
6.48129
6.65904
7.05086
7.75345
7.40781
6.32332
5.93815
6.36288
5.8598
5.9169
5.87772
9.89207
8.11778
6.82535
7.42329
7.36418
6.89348
5.76046
6.2862
8.89473
7.34349
6.24986
6.97608
7.52067
6.51219
5.64198
5.38152
6.85823
6.70165
5.76126
7.45978
6.34035
7.37697
6.8351
8.12337
6.91787
8.14996
6.4622
7.25059
7.76883
7.60968
7.42509
6.57944
6.94596
6.81975
6.25844
5.58313
7.0033
6.15199
6.58888
7.18519
6.06431
6.25541
6.30903
6.42467
7.68598
8.31911
7.66701
6.3371
7.45813
10.0854
5.9912
5.7236
7.92885
6.75227
