7.00583
7.00741
8.23301
7.56436
8.21364
8.86115
10.7661
8.51053
7.58337
7.47132
7.15507
8.00391
7.64168
9.88134
8.40718
7.36821
6.79847
7.2734
7.78591
7.03608
11.5675
7.54209
7.81138
7.23396
10.4925
7.16372
10.0208
15.0788
9.39647
7.90623
8.2731
7.1128
7.40611
7.56775
9.53183
7.77861
8.22772
8.72386
10.1441
7.10303
8.02764
7.0939
10.179
9.34351
6.83037
6.85625
8.03384
6.88266
9.26347
9.25808
7.44636
7.66965
8.87591
7.92082
7.54683
7.95191
7.27399
7.87061
8.57139
9.126
8.23572
7.42192
8.34411
6.81472
6.92332
8.46298
7.35516
6.66044
8.49894
7.50168
7.47672
7.23569
8.52936
7.96497
7.82723
8.01226
7.72325
8.39247
7.12006
8.03609
9.36586
6.78837
7.42626
7.51249
7.71637
8.46029
6.61911
8.02453
8.49171
9.42787
8.28996
10.0534
8.6254
8.09096
7.59968
9.22367
9.32606
7.36689
8.02874
7.42414
7.08991
7.96254
7.50538
8.7655
8.30256
7.64155
8.10826
8.49238
7.23593
7.6167
8.31706
8.07872
8.05688
7.40234
7.3049
7.72609
7.46784
7.64257
7.76421
6.924
7.52402
7.29524
7.109
7.69041
8.37004
6.78832
7.51838
7.39169
7.15085
8.19269
8.2978
6.62907
7.96406
8.01483
7.51421
7.27569
9.07794
8.90169
6.73139
7.67886
7.06373
8.91735
7.82128
6.99873
9.71175
7.81957
7.51548
7.31102
6.91465
7.85777
8.28253
8.94799
7.82654
8.05024
8.34434
8.78762
6.99542
7.50255
7.71729
9.35991
9.1005
7.54753
9.28862
7.05667
9.44884
7.75797
9.00557
9.87515
8.07958
8.58978
9.53351
8.25741
8.16163
7.78776
7.45448
8.51508
7.66627
9.27455
7.62435
7.77931
7.88825
7.75607
9.12557
7.95192
7.01238
10.9132
7.71299
7.16164
7.08916
9.20454
8.69987
9.62046
8.40127
7.74327
7.52317
7.53849
7.30932
8.3544
8.42568
8.2757
7.94897
7.62178
7.23075
8.46572
12.5385
8.98392
8.25841
9.06006
8.34391
8.19965
8.88438
8.81262
7.65166
8.94765
8.40048
6.78268
7.97574
8.22667
8.74803
8.37742
8.0532
8.0473
7.7929
14.7148
7.92616
8.60389
7.58353
8.90244
6.64166
7.21157
8.62402
6.92944
7.65727
8.68193
7.46223
7.91546
7.7688
8.34219
8.40713
7.32422
7.17763
7.35945
8.66467
7.16893
7.55623
7.37899
8.37999
7.56609
8.00297
8.39471
10.4497
6.95096
9.44145
6.75932
7.82157
7.24374
7.33021
8.4982
8.3329
8.54163
8.69379
7.98079
7.44945
6.99672
8.31141
6.57313
8.01256
8.2452
7.1452
8.2173
7.10625
7.39667
7.57304
9.41612
7.72863
7.29211
7.88019
8.26228
9.14166
7.17529
7.60172
8.648
12.6695
6.9697
8.14926
7.39591
7.61164
8.6677
8.44168
8.70517
7.79957
8.25146
7.09018
8.08744
7.64492
8.77603
7.0704
9.64086
6.99903
7.97304
7.22909
7.81242
10.7801
7.6856
8.07357
6.84986
6.73766
9.15921
8.66011
7.77917
7.33326
7.40234
7.85006
7.9491
7.56614
8.07844
7.54565
10.2741
9.35129
8.80756
9.24979
9.40854
7.44968
8.99857
9.91043
9.00601
8.03628
6.82353
8.28022
8.83789
7.53496
8.4949
7.75701
9.2582
8.14143
11.4351
6.44648
7.023
8.07971
8.83459
7.83098
10.4227
8.17991
8.93196
8.17622
13.3084
9.92181
6.58874
7.28819
7.5544
10.6611
7.55599
9.21328
8.43416
7.82426
7.97812
7.73619
8.14253
9.8723
7.49895
8.21863
7.89351
6.85389
6.30712
8.1553
8.23117
8.37668
7.11245
7.96044
7.2302
7.02953
7.73903
8.23306
7.44843
7.79656
10.0185
9.87615
7.57706
9.91891
7.0849
7.37629
7.94311
6.78919
7.66138
7.1554
8.50519
7.97596
7.93073
8.60248
8.49032
8.98811
8.18791
8.30899
6.88384
8.00331
8.10057
8.9231
8.28251
8.46529
7.44481
9.79374
7.8936
8.21818
9.45366
8.97344
11.4566
8.05629
8.21797
7.94429
7.70715
9.45184
7.1184
8.90729
9.21754
10.7421
7.43481
6.76557
7.5553
10.6609
8.38144
7.8457
7.56171
7.7315
8.30804
9.34357
7.45096
7.75692
9.84908
7.13007
7.00529
8.39137
7.87759
6.61854
7.88497
7.74859
7.66633
7.82544
8.14097
7.71348
9.66695
7.11859
6.63259
8.70772
9.88313
7.91095
7.29695
9.04201
8.92418
7.10638
10.6571
8.4034
8.0294
7.02751
7.7708
8.28846
8.48742
7.81806
7.79413
8.24088
8.12981
7.12561
7.16304
7.31856
9.76633
7.35109
7.48583
8.12445
7.80942
7.82453
7.78157
7.52019
9.27578
7.79891
7.33376
8.83168
8.17469
7.64745
6.98983
8.61066
8.50453
6.87356
7.30337
9.28169
7.35318
8.31666
8.01342
7.02328
8.58268
8.53548
8.14427
9.03398
8.07344
7.46058
7.55699
8.67247
7.65022
7.42933
6.95592
8.87583
8.08856
8.48642
6.98765
8.27933
7.70333
7.20758
10.0807
7.45488
11.1963
8.20132
8.05627
7.667
8.69031
7.14567
8.6275
7.51758
8.32253
7.34834
8.38335
6.79371
8.09971
9.34665
10.4021
8.49258
8.43957
8.5629
7.26876
8.55494
8.17129
8.79436
8.43001
8.88743
9.24843
7.55917
8.15009
8.14127
9.32603
7.64987
7.25962
7.71045
7.7955
7.2143
7.65569
9.63584
8.58403
8.99155
7.22979
7.78739
9.75034
11.3993
8.02088
7.25684
6.73262
7.29642
7.70956
7.21154
8.77204
8.63873
6.33337
9.60683
8.89305
8.36165
7.5317
8.17554
9.55501
9.38901
7.79664
7.52077
8.47905
7.66432
7.29865
8.71451
9.80278
6.4688
8.5219
7.60538
5.97539
8.36467
7.42949
7.15024
7.48058
6.81111
9.73748
9.17742
6.86961
8.06057
11.6967
8.39481
9.71394
10.8064
10.6114
8.65651
7.61384
8.09618
7.59887
6.77986
8.51433
8.31077
8.15393
8.34434
7.76939
7.73308
7.16812
7.78715
8.2991
10.0151
8.68179
7.75622
10.956
9.32866
8.19163
9.24779
7.11688
8.22733
7.83555
8.48426
8.66159
7.53056
7.92796
8.60076
7.09773
9.3291
7.7574
10.3619
7.68605
7.45578
8.13634
9.22204
9.73176
8.57167
7.2602
8.17433
7.33748
7.7216
6.47887
7.26793
7.91132
7.51086
8.04259
8.86152
8.47295
8.05331
7.74217
8.43899
7.73956
9.44904
7.62433
9.78285
9.15471
8.13209
7.98822
8.34135
7.89817
7.80346
8.74745
7.71736
7.48327
8.20323
7.49409
9.06683
8.74206
6.99943
7.84451
8.33752
8.39429
8.15571
7.62842
7.66349
8.43667
7.34077
7.47585
7.34517
7.9721
8.32902
7.68659
9.06804
8.36212
8.02947
8.72078
7.99116
9.2951
7.51365
9.031
7.19146
7.93326
7.27437
9.21132
7.95576
8.71349
6.89794
10.6411
7.51966
6.7101
8.71968
8.01546
8.02738
7.74361
8.28656
9.33091
7.45245
8.20652
8.89506
7.74374
7.67125
8.26366
7.88319
8.80228
7.18344
7.51511
7.73316
7.74671
11.3128
8.74771
7.4543
8.62594
7.21029
8.32627
7.28303
9.24083
9.46643
8.3439
7.61383
7.73895
7.30652
8.21511
8.09324
7.10099
7.45172
8.08579
8.33237
8.12634
7.94515
7.4262
7.94547
6.91445
7.49424
7.82907
9.26361
8.97627
8.22353
8.08365
7.59419
9.18799
7.93869
7.59242
7.67821
7.83866
9.40094
6.99338
7.73814
9.08503
6.59471
7.28057
7.2012
10.0916
8.1862
8.89774
6.5883
7.69474
7.60205
7.16663
8.18316
11.9183
8.61948
6.68796
7.31512
7.47468
8.24196
9.00396
6.95879
10.0342
8.43489
7.46406
8.32559
7.138
8.04578
8.00666
8.06115
6.51595
9.32395
7.98022
8.80509
9.54481
11.0786
7.3846
9.57963
7.53831
9.49552
7.40979
7.84207
9.49907
7.71471
9.97406
6.78924
6.29083
7.96779
7.74857
7.26158
7.58911
7.67216
8.88087
7.84944
8.71232
7.70901
7.38111
6.69403
7.07631
8.12058
7.34914
7.85765
7.84088
8.94164
7.73262
7.16417
8.67699
8.42607
7.79606
8.27932
7.40837
7.87688
9.22412
7.56785
7.79469
7.18725
9.2487
7.4395
8.584
7.91963
6.73472
7.9514
7.75741
6.96319
10.1257
9.49237
6.98389
9.20187
8.95004
8.62834
9.46436
9.04973
7.11154
7.56051
7.9357
7.27161
8.54394
10.0176
8.03343
7.38488
9.27456
8.46436
8.41496
7.63157
9.98828
6.92849
7.21864
7.24656
7.46235
7.40356
8.71778
9.4293
7.52173
7.31736
6.77223
7.76182
7.73161
7.76508
7.48394
7.78608
8.96034
7.65147
7.97177
9.74052
8.52125
8.79301
7.3958
7.43706
9.93364
8.29064
7.36264
7.48748
8.08494
7.85587
7.626
8.57222
9.57712
7.13622
9.99431
8.16517
7.74239
9.95165
9.14395
8.39618
8.72894
8.04771
9.63514
7.85155
7.2685
8.57779
8.39748
7.7781
8.75354
6.8467
8.52102
9.38731
7.86073
7.52305
9.96214
8.33034
7.86651
7.57603
8.60964
7.51716
7.05032
7.40909
7.7195
7.65516
7.36152
7.21426
8.19187
8.53192
7.04446
7.08223
9.22601
7.36483
7.1163
8.46245
10.0052
7.77684
7.64777
7.07715
8.77569
7.52346
7.64531
9.81482
8.21776
7.58835
8.24172
7.68609
7.70047
9.84096
8.31885
8.02647
6.91832
8.89545
8.88547
8.30235
8.24964
7.34986
7.14499
7.46139
9.83939
7.76352
10.0776
7.80154
8.08852
8.47568
7.42377
10.0435
8.24287
8.2281
7.02166
9.4354
7.66083
7.88473
7.36322
7.75073
7.51378
7.3555
7.64849
7.03341
8.78699
7.66563
8.66045
7.34107
9.02209
9.46412
7.4886
8.20178
7.52233
11.6564
7.08286
7.73137
7.31482
8.17536
8.69602
9.88435
6.90173
7.43265
8.92536
8.64418
8.51999
8.24032
10.0336
7.47878
6.53204
8.56904
8.60039
8.40603
8.82338
7.74589
7.91369
9.20306
9.85395
7.33955
7.32002
7.7591
8.32316
7.77721
7.77305
10.0948
8.36889
11.7884
7.46473
7.5173
7.40835
8.34157
6.83001
8.66108
7.75366
7.64176
7.70797
8.05103
9.33345
7.04399
8.31496
8.41762
9.2504
8.1852
7.41862
9.42298
7.39454
8.15791
6.92321
7.001
7.37922
9.10133
10.14
7.57502
9.52597
7.89584
8.43595
8.19978
10.4822
9.68736
8.28176
7.81986
8.08491
9.27031
8.10424
10.1734
8.80576
9.75591
9.33958
8.07627
8.62094
9.41099
7.6839
8.67246
8.40648
8.38595
7.3504
9.84267
8.18298
9.57103
8.84598
7.72235
7.38025
9.17371
8.22858
7.58526
8.69263
7.19901
11.7549
9.18495
7.65688
7.62519
7.6831
8.68697
8.8514
8.83993
8.44764
8.23531
7.19474
9.57265
6.71346
8.52194
8.71542
8.38969
7.36515
6.71335
8.14865
9.52636
10.2107
10.4167
8.60748
8.40211
7.79588
9.47697
8.24441
7.30699
10.9441
8.16372
8.13145
8.82439
7.43377
8.92011
7.81241
8.43014
7.99621
7.64925
8.97359
8.96616
8.68742
9.80362
7.68617
9.71257
7.64209
7.02239
8.00094
7.65031
9.24879
7.45374
7.62425
8.46621
11.0057
8.24327
7.81684
7.96216
8.05704
9.31063
7.46955
8.43227
9.75375
8.27036
8.00292
10.0272
9.44581
7.84421
7.3818
9.30507
7.39358
8.84554
6.88926
8.3119
8.5095
7.02403
10.3325
7.23315
7.20912
8.66141
6.79654
8.51113
8.93767
7.12736
7.21639
8.969
8.62287
7.57644
10.0588
7.27305
8.27261
6.66954
8.80102
9.00861
8.15753
8.07272
6.49557
9.81822
10.3453
10.1656
7.34625
9.61016
8.66281
7.58089
7.44704
7.26027
7.56414
6.80978
8.87016
8.92015
9.92861
7.4358
7.40614
8.25999
7.91167
7.22725
7.99599
7.32975
8.26744
7.9443
6.96392
9.17736
8.66127
8.8305
8.30101
8.03265
8.88741
8.21784
9.1897
7.9508
7.91009
7.07561
8.42368
7.139
9.77135
9.92249
9.27623
8.35239
8.10176
8.69262
7.62853
8.3016
7.35864
7.24504
10.0214
7.90582
7.55615
7.46403
7.45429
7.98984
9.24003
8.49924
8.04363
8.21169
8.2448
11.7456
8.27015
7.89228
6.7364
6.78211
8.44834
7.98043
8.79691
7.50253
11.0516
10.2071
6.88347
7.46639
8.02309
7.8695
7.86138
8.30456
6.44164
10.926
7.02281
6.74346
9.58651
6.90831
7.70362
11.0894
7.20517
9.60482
8.20884
8.5949
7.41044
7.75017
9.15588
8.36091
7.21721
9.49728
8.9741
9.61984
7.48334
7.32083
7.92927
6.93648
8.97075
9.35098
8.31457
7.09605
7.93515
8.33097
7.40018
7.75702
8.38365
9.36964
10.0745
8.07437
8.27508
8.02294
6.63508
7.99989
8.51935
7.41043
8.03661
8.34908
8.36012
8.61008
9.72268
10.1037
6.93629
8.1336
8.5668
9.80625
6.91943
8.08446
7.98143
8.9817
7.8774
7.76228
7.71049
6.99071
7.49014
7.78347
9.3076
9.66627
8.72201
7.43621
8.2469
8.58938
7.5533
8.02066
7.29949
8.01206
8.29731
7.30114
10.187
8.30873
7.01267
7.77773
6.99643
8.26868
7.42399
7.71612
8.03665
6.94622
8.40946
8.97352
8.46768
8.96405
12.3132
7.54708
7.65223
8.53368
7.51824
9.02421
7.36378
7.62197
10.3489
8.13675
9.2596
7.56148
7.2109
10.8194
8.15048
8.27467
6.63421
7.45642
6.79382
7.07243
8.23596
8.3576
7.30652
6.94038
9.25961
8.54439
7.52284
8.32078
7.29622
7.91648
8.33663
8.59277
7.77032
12.5036
8.2154
9.72768
8.21891
6.71464
8.39145
7.10434
7.59025
7.66722
8.60831
8.91579
7.50465
8.45473
8.13594
9.34144
8.90598
6.86905
7.39904
8.91617
7.51456
7.53526
8.09095
10.0446
7.96937
8.73382
8.5623
7.28332
7.25833
8.87827
8.34257
7.47474
8.50296
8.90191
7.6417
8.62241
8.43669
9.85104
7.35608
8.15347
9.44447
9.70205
7.17278
8.10984
7.36722
8.39392
7.13992
7.55542
8.41748
7.25937
9.23961
7.65852
7.16954
7.77057
7.63592
8.17053
8.26031
8.48532
7.33176
7.55806
7.92592
7.96649
8.15129
8.13381
7.34925
6.90122
7.39675
7.0716
6.894
7.58286
7.08718
9.16344
7.68397
7.07607
7.59476
10.0235
7.84453
8.10404
8.60244
7.55154
9.53236
7.07089
7.12963
8.16994
7.59418
7.68131
7.9763
10.4682
7.72279
7.84522
7.72318
8.1052
10.0198
7.67104
7.7147
6.89025
7.01028
8.40406
7.11075
9.314
9.60446
9.17665
8.57629
8.50335
8.57734
7.82598
6.87686
7.01368
7.05316
7.14443
8.58919
8.11518
7.17734
9.01622
7.91445
8.92296
7.53313
7.83543
7.19718
8.79935
8.16101
8.56964
7.05327
7.59141
10.5599
7.93308
7.5541
8.95806
8.12234
9.29848
8.65266
7.1763
9.27383
7.90607
6.87401
8.14608
6.65454
6.952
8.24855
7.0933
7.80048
7.79207
7.98738
8.302
7.90958
9.12505
7.22253
8.48653
7.08257
9.68253
9.13888
8.3369
7.91846
6.89023
8.86063
7.64348
9.20276
9.89521
10.0286
7.99257
6.85228
6.98457
7.14913
6.66181
7.45763
7.79933
7.92723
8.85985
7.7315
8.54026
7.17283
7.69903
8.05851
8.18729
8.8305
8.39244
7.86871
7.9112
7.48328
7.18971
7.1867
7.95593
7.19914
8.22812
8.14101
6.48088
9.97847
7.45627
9.63185
8.2036
7.2267
9.64062
10.0545
9.55714
7.78377
8.38326
9.12664
8.16307
8.18828
8.98273
8.9111
7.21219
6.47399
8.00537
9.05181
8.91236
8.64665
8.69256
7.84674
8.03523
7.83167
8.15277
8.54862
7.82646
6.55163
6.73459
9.61431
7.03183
7.69786
8.84229
6.94523
7.45817
7.87791
7.16126
7.74787
8.27094
7.42372
7.4988
6.80887
6.98223
7.98466
8.27017
8.47387
7.48457
7.39125
7.11144
6.46248
7.19921
8.93993
6.97875
9.55808
7.47364
8.28936
7.31934
8.53618
13.9244
8.5147
6.38185
8.17962
8.10248
9.51333
7.57715
7.1737
8.96987
9.47373
7.329
8.4115
7.11441
7.91839
7.61063
9.08753
7.40208
7.86478
7.40228
9.9942
7.54444
10.3884
7.6025
7.48094
7.12493
7.67938
7.07034
10.8294
8.41428
10.1235
6.19568
9.83881
8.18471
7.94563
7.04159
7.71774
11.9159
8.18701
8.29133
7.17063
6.63662
9.12836
7.79424
7.20748
9.2192
7.64046
7.03797
7.4282
8.02347
7.11088
7.14122
7.13887
9.27099
7.54894
8.58188
8.8077
9.93534
7.56897
9.80353
7.75763
8.46068
9.9327
7.59639
8.5219
7.38986
8.07632
7.17444
7.17682
7.07495
7.13505
8.14651
8.00449
7.39015
8.09784
7.38447
8.29478
7.70848
9.05477
7.19313
7.35119
8.70173
7.82576
7.82839
6.85474
7.76226
9.47318
7.34747
8.13413
7.68771
7.54609
7.39546
9.73785
7.70837
7.15049
11.4882
6.40826
7.68132
8.41643
7.81027
7.60362
7.71083
9.43658
8.01358
8.92017
9.10971
7.46248
7.26773
8.19298
7.26473
6.93204
7.57948
7.65102
9.11439
10.0727
7.21985
7.39356
7.46448
7.59507
7.57298
8.71892
10.1828
8.09255
9.66872
7.62343
8.60604
9.1265
9.26572
6.57125
10.5437
7.07893
8.08528
6.96993
8.54265
9.18973
9.68768
8.12449
8.64303
6.71356
7.20574
7.73412
8.13241
7.27353
8.29006
8.0963
7.11023
7.63641
7.00695
9.34281
8.06858
9.62129
9.52144
8.94623
7.75638
7.10747
7.46949
9.09399
8.35866
7.33075
9.69531
10.4152
8.46851
6.86903
7.42318
9.55335
7.14566
8.56882
6.90839
7.92422
8.78265
7.63909
7.85397
8.05464
7.30843
7.58147
8.84752
7.5513
7.31614
9.38006
7.54353
7.24257
7.6389
7.04202
9.21739
8.47599
7.09244
8.14587
6.63663
6.79272
9.24277
7.60737
8.79687
7.89832
7.55155
11.2539
8.26155
8.75975
8.15678
7.3887
9.10684
8.85133
7.32643
7.62991
7.67218
7.66918
9.88468
6.8356
8.55711
7.74802
9.37443
9.4321
6.738
7.80736
12.5254
7.35485
8.56518
8.25497
7.78921
8.93912
6.8615
8.57813
8.19679
7.11888
8.94885
7.23833
10.0976
8.05196
7.47927
8.90794
7.88673
7.96515
8.1069
8.24073
7.19998
8.55533
8.79243
8.96606
7.75631
11.2734
10.2334
6.73397
8.34173
7.79728
8.93953
7.57862
7.39144
9.86893
8.4433
7.29533
8.44041
8.47218
7.12321
9.18696
7.83057
6.73363
7.9545
7.64565
8.86115
7.56348
7.24001
7.02292
9.14217
7.94877
6.84351
8.01089
9.6091
7.44115
7.54118
7.46664
7.1212
7.62094
6.93861
9.45252
8.80667
7.87562
8.59354
8.54243
9.25974
8.33691
7.65756
8.70757
8.11739
8.28763
7.11231
8.2252
7.70412
6.78277
7.99879
8.76739
6.94163
8.17122
7.51144
8.84844
9.03534
7.39762
7.30123
7.25678
6.49405
7.05457
7.84139
8.29107
7.09235
6.92127
8.46668
8.54337
11.3773
6.76255
8.58805
9.95885
8.81957
7.2534
7.79614
6.96263
9.54419
8.59292
11.0526
8.92373
10.2586
7.73998
7.68051
11.9552
8.15374
7.69349
8.98957
6.89126
8.68434
8.23221
9.50762
7.3136
7.22483
7.88771
8.72822
7.59777
7.9078
8.09799
6.94342
7.8374
8.5542
7.22245
7.74151
8.44702
10.5862
7.5723
6.66749
7.99242
6.8628
8.04999
9.76077
7.44214
7.75844
8.20492
6.71568
7.51908
7.4324
7.60306
7.39304
7.48062
9.01395
7.86195
7.43876
7.45373
8.58886
7.01062
7.23101
6.82515
7.18282
6.56319
10.5982
8.2681
7.0713
6.43922
8.19396
7.29968
7.60806
7.28172
7.1658
7.69427
9.4789
8.00094
9.76171
8.25819
7.21374
7.69343
6.96427
7.33008
7.06785
7.33287
7.12318
7.73897
9.23064
7.28947
8.42713
8.36254
7.14394
7.09717
7.65826
6.76988
7.41352
8.56846
7.07034
7.59513
7.45081
7.65767
8.31959
8.82481
7.00518
7.3922
7.07801
7.64651
8.57214
6.91692
7.11235
7.47932
8.80166
7.15574
10.5453
7.80547
8.14316
7.67505
10.1992
7.88689
8.22584
7.72064
10.2677
6.57499
7.67699
10.5081
7.66664
7.39493
7.11047
8.23153
10.0247
7.79471
7.45125
8.106
10.1585
8.666
9.54201
8.24719
8.3834
6.89801
7.3784
7.92577
6.88241
8.64964
8.69009
7.18827
7.44926
8.79961
8.36232
8.75845
7.48658
9.80168
7.0886
8.09674
8.46967
8.92511
7.23251
7.51564
9.64098
8.4116
7.73921
7.06017
7.2514
7.52089
7.6836
8.76716
8.17586
6.94468
7.11018
7.76423
8.01724
6.96391
9.24684
7.28221
9.00632
6.84196
9.05601
7.76705
9.88875
8.28524
9.13699
7.67959
8.95069
7.78879
7.9303
7.4855
8.53855
8.65698
8.2017
9.44911
9.13062
6.72179
8.98723
7.10488
7.16071
7.54059
7.76984
7.32059
7.37928
7.48494
9.73488
7.84345
9.26531
7.87932
7.94128
7.87652
7.2938
7.28998
10.1119
6.60896
9.18264
7.3586
7.94594
8.336
8.03922
8.71574
6.87779
7.01978
8.90081
6.54733
8.266
7.94764
7.51475
11.2445
8.50606
8.09221
7.10193
7.01156
7.3426
6.88261
7.66974
8.42332
6.72682
6.7548
7.49344
9.10755
7.96496
8.14156
8.19296
8.34699
7.67107
8.04505
8.22466
11.4645
9.90246
7.75158
8.12382
9.91801
7.08587
9.41515
7.80635
8.09416
7.58895
8.00296
7.48226
7.36689
8.33532
7.20681
7.43096
7.11559
7.70097
7.61462
7.9335
7.33048
8.1018
9.09964
7.1582
9.82965
7.83495
6.80185
7.87184
7.46298
9.78459
7.50098
7.3577
8.37595
9.83454
8.09605
8.35591
7.50346
8.47789
9.22461
7.81059
9.23494
7.71916
7.96586
7.71722
7.73454
7.45985
7.78804
8.40721
9.83172
8.43675
8.12394
8.40814
7.69357
7.68753
7.72358
8.30581
9.79812
8.39918
7.21334
7.42895
8.80927
7.32891
8.11346
8.95108
7.83787
7.02529
8.52113
7.58401
7.67906
8.30292
9.70122
7.49034
8.84182
7.28366
8.71383
7.73543
11.8628
7.08389
10.0207
6.97061
9.00933
8.6159
6.92064
11.0217
6.92586
6.93395
8.08389
7.97874
8.38746
7.79604
7.61778
8.62168
8.2989
7.34367
7.16296
8.18106
8.17473
7.54508
8.92335
7.68403
8.53685
7.88938
9.38928
6.91471
7.48523
9.01842
7.6452
7.40156
8.08037
7.67917
7.85105
7.90087
7.28246
8.61381
8.15683
8.21962
8.56318
11.3105
7.1376
7.54942
6.70136
7.855
8.77863
7.23876
7.60478
8.59467
8.83047
6.88479
8.7807
9.75401
7.10993
7.46113
7.37863
8.15198
7.9802
7.47687
9.40499
8.07113
9.00857
7.2069
8.69003
7.38328
7.38515
7.40352
8.31692
8.29861
7.25987
6.93093
7.97475
8.48724
7.68929
6.80514
11.3651
8.90099
8.86573
7.84755
9.23338
8.80022
8.02975
7.78761
8.45094
7.07809
8.20082
7.84808
7.02034
7.76982
9.72997
9.77289
8.6406
7.56041
7.49411
8.38696
7.75863
9.98056
8.12227
8.12021
7.76288
6.84715
11.3027
7.30517
8.00755
7.8829
6.88674
7.05118
7.28809
9.33763
8.86183
6.63435
7.74108
8.5732
8.17887
6.76843
8.51446
7.44526
6.70539
7.69365
6.92804
7.54847
7.90067
7.45868
8.81136
7.68519
6.61338
7.91921
11.8664
8.40915
7.47224
10.905
11.4812
8.90024
8.82474
8.50423
9.35982
6.9145
8.50169
8.63179
6.83501
7.69333
11.0517
8.15236
8.48443
7.44065
7.37135
8.33616
8.76856
7.8544
7.63656
8.33579
8.22164
7.56792
9.20731
8.49723
8.053
8.51341
7.30453
8.87863
7.93372
9.23267
7.60817
7.37073
7.77999
8.1835
8.20033
8.00261
7.33758
10.7609
8.166
7.04664
8.98364
8.26287
7.40012
7.38849
7.84333
7.90506
8.18927
8.31783
8.62952
8.00005
7.67345
8.74466
7.99954
8.5144
9.13714
8.5324
7.57856
6.89897
6.95569
6.86288
6.59978
8.27991
7.75422
7.4658
7.15995
7.66042
9.27921
7.94309
7.25259
9.34686
8.38165
7.08661
7.48995
8.8081
7.62506
8.04932
8.95647
9.65717
7.60528
9.06981
7.77192
6.73321
8.90977
8.9521
7.63686
6.79755
7.57814
7.25416
9.3581
7.82138
8.1657
7.92247
7.08865
7.44464
7.24484
8.98347
7.42825
7.46057
8.24521
8.72866
10.0143
8.18224
7.29543
7.07859
7.66354
7.32329
7.36514
9.22626
9.54601
8.27082
7.85622
7.058
7.53319
10.0836
6.80419
7.67326
8.0256
8.02757
7.5238
8.25788
8.11464
7.40463
7.28171
9.8283
7.26525
8.62406
8.3049
7.51551
8.72216
8.19181
8.87315
8.56105
7.39174
8.52261
9.46747
8.03344
14.1415
6.76339
7.99527
7.56767
7.93318
12.1768
8.02486
8.67976
7.09305
7.90494
8.02665
7.74626
7.86349
8.17988
9.78662
8.15672
7.23721
10.3455
8.02103
10.1771
9.50308
7.12896
6.70546
6.70718
6.56417
9.73935
7.31675
7.73464
7.58471
7.62119
7.28655
7.64255
8.70793
8.43916
7.83923
6.98206
8.74978
7.03692
7.72197
7.75654
6.74269
10.1048
7.98873
7.62917
6.98271
7.67065
10.1304
7.08231
8.08639
6.9164
11.9091
7.99314
7.86302
8.34125
7.5812
7.41849
8.98931
7.109
6.77522
8.93634
8.0557
8.1279
8.72919
7.9889
8.12505
8.49661
6.91425
9.18059
10.0065
8.84055
6.88415
9.16811
7.41514
7.69836
7.97928
10.4745
7.49751
7.36321
8.22947
7.31736
7.61146
7.75157
8.19031
7.72361
9.10546
7.21936
8.048
8.55698
7.6989
8.69928
7.6329
9.33123
7.59144
7.39632
8.9376
7.82229
7.64167
8.64455
7.5359
8.79107
7.52722
6.80363
8.67245
7.4779
7.54187
7.42822
8.04078
9.77186
7.98001
7.58783
8.9856
7.81498
7.33087
6.98326
8.99642
7.19173
7.89895
8.31454
8.138
7.69729
7.00053
7.80924
7.87535
7.6258
8.24643
7.19683
7.85116
8.91681
11.1487
6.91904
7.93473
6.68263
9.84099
9.11218
7.94143
7.1942
8.74758
8.32604
8.47775
7.44638
8.86133
7.9512
8.01554
9.12135
9.10748
7.15651
8.50903
7.73523
7.35529
8.59311
9.42034
6.87673
8.24608
7.46303
9.67076
8.70403
8.4933
8.98936
8.52749
7.47595
11.6283
7.78929
7.58253
7.17954
7.28402
7.63864
8.52962
8.15868
9.56283
8.29899
7.07314
7.72673
8.18507
7.94326
10.2796
7.36374
7.93738
8.49246
8.48574
7.99758
8.59594
6.87993
8.15682
6.732
7.94668
8.44738
8.0227
9.76912
6.61497
7.87762
6.95861
9.07882
7.0883
8.41198
7.54058
9.34123
7.62814
8.4323
7.07103
7.39742
7.28802
6.72209
8.14517
7.00262
7.72762
7.5082
6.96667
10.1074
6.3972
7.40383
7.98203
7.49665
8.25371
7.53703
7.38312
7.63949
6.98449
6.66535
8.66918
8.49665
7.54752
7.68602
8.33659
7.67847
7.13153
8.31688
7.27365
7.77691
7.73698
7.74515
8.41328
7.0353
7.71374
7.82772
6.7673
7.69947
7.36209
9.13289
7.56982
8.2114
7.89394
7.7813
8.44227
7.57496
8.10025
10.1138
8.37921
9.41142
8.13535
7.23812
10.0721
7.23695
8.35333
6.56119
7.64717
7.10886
8.0721
7.7322
9.60384
7.41761
7.37077
7.84251
7.83515
7.66848
7.30733
8.19398
8.53659
7.21764
9.4997
8.32875
8.18019
7.78434
8.72367
7.28344
7.19445
8.52918
7.50366
8.03479
7.24091
8.39456
9.20974
7.0597
11.6914
7.142
7.76214
11.5094
10.535
8.61728
8.63309
8.22531
6.43298
7.03574
6.66427
8.68638
7.1172
8.91504
8.07489
8.55089
7.11299
6.50594
8.01966
10.1083
7.16852
7.70011
7.59927
9.08798
8.45108
7.32622
7.3977
7.02341
7.81836
9.9361
7.9962
8.27662
8.63215
7.97795
8.19706
7.42204
9.17345
7.27637
7.20377
9.1794
7.33369
7.43343
7.41562
8.42453
8.72125
8.27736
6.68561
9.24131
7.54311
8.78917
7.77098
7.60508
7.31261
7.32219
8.73257
7.9326
9.20882
8.51253
7.94074
7.12245
7.15854
7.10665
8.99176
7.12605
8.82789
10.7002
9.42861
8.09573
7.97662
7.3815
9.07773
8.43306
8.45151
7.28559
7.44865
8.49401
7.38897
7.64406
8.05641
9.83998
7.45506
8.40555
7.34315
9.17177
8.16857
8.31337
7.23883
8.17551
7.15273
9.65368
7.39505
7.17722
9.22119
11.7674
7.5533
7.4449
7.23268
7.75644
7.27713
7.31301
9.27186
7.40618
8.53206
9.86514
6.91303
9.08256
8.807
6.50297
6.58576
7.45667
7.42786
8.74693
7.48094
8.23767
7.0901
8.32687
8.26913
8.53485
8.03607
11.2487
7.52269
14.908
9.40969
8.10735
9.53039
8.51015
7.82967
9.07859
11.2431
7.71137
7.9358
8.22498
7.31743
8.09757
8.11226
7.24623
6.97151
8.96777
8.31831
8.72796
8.03191
7.42872
7.65855
7.24818
6.81245
8.05514
7.33817
7.59664
7.89441
7.57201
9.3232
7.94192
7.25359
8.66796
8.18426
7.96562
6.57445
7.53356
8.36616
8.24165
13.1979
6.90482
7.97972
7.40114
6.78044
7.71589
9.17806
8.32091
7.2594
7.63041
7.40053
8.11763
6.56925
10.4005
8.15679
7.50172
8.32945
7.01848
8.76611
7.44341
11.3824
8.71393
7.81838
9.2072
8.54755
7.28476
7.70607
8.48084
8.12175
7.96544
8.57961
7.76779
8.58035
8.41598
7.96747
7.57995
8.31347
8.48531
6.66907
7.38292
7.74939
7.92644
6.94478
6.71854
8.05063
8.96392
6.73982
8.22056
9.07402
9.26021
7.99058
7.19045
8.19277
6.86746
8.21168
8.90512
9.32705
6.47367
8.79445
9.34432
7.24947
8.37164
8.52646
9.29629
7.93944
7.97716
6.95217
11.2663
8.30505
7.33868
7.10579
8.10201
7.70458
7.64304
7.00396
8.49161
7.67888
8.69335
8.41284
7.19975
9.43706
8.23143
8.22701
8.53371
9.22135
8.3978
10.4701
7.33182
7.92944
7.94675
7.99578
10.2875
9.75753
7.3786
8.09098
7.45094
7.59521
7.44592
8.09531
7.97195
9.14612
9.27369
7.47822
8.46481
8.48551
7.59253
7.33626
9.82712
7.08415
9.30311
8.7557
9.53674
7.37396
9.06262
8.05754
9.66624
7.39593
7.93046
7.53019
8.01353
8.68205
8.05108
8.28447
7.89875
7.77369
7.19994
6.77116
7.69103
11.3072
7.82317
8.26287
8.51913
7.30876
7.78069
7.8448
7.91879
7.85156
7.53936
7.90717
6.77839
7.99162
7.68601
7.75076
8.6042
7.02077
9.20668
8.38504
7.70877
7.40631
8.04279
7.83643
7.39366
8.19144
7.57444
8.2754
7.93451
7.61093
9.48085
6.99854
9.12234
8.44392
7.45612
8.41083
10.9758
7.52015
7.6527
7.71547
7.01724
8.28374
8.52849
8.05319
8.54324
7.48517
8.77792
7.54668
12.974
9.78768
6.89927
8.70415
7.02718
7.46175
7.82144
8.05011
7.87345
8.27128
9.56643
8.16184
7.77068
7.81378
8.07578
8.23302
7.75936
6.8366
7.47056
11.6781
7.61924
7.05658
8.58098
8.08088
7.7896
7.13586
7.36557
7.53385
8.42169
8.12081
7.71938
10.0433
11.8559
6.8936
7.37026
7.8562
7.56831
6.80957
7.67402
8.09863
6.76379
7.44404
7.91569
7.45407
9.59484
7.78786
8.74815
7.36515
10.0532
8.66083
9.46031
11.084
7.42134
7.02016
7.19974
7.23031
6.8804
8.55052
7.58061
9.51926
8.24746
7.21641
7.47974
7.079
7.36045
7.93908
8.73319
8.3543
7.99524
7.69335
8.45271
8.97503
6.78378
8.52942
8.93519
7.7921
7.26611
7.86479
7.28441
8.45454
7.32276
8.22834
8.30583
8.65154
7.4023
7.63061
7.88687
10.4833
7.0372
7.54859
8.11295
8.73417
10.2426
8.01111
7.15757
7.50983
9.638
7.53182
7.77337
7.63302
8.89063
6.68188
9.92424
7.9506
8.50983
8.67405
7.40438
10.8735
8.94872
6.46406
9.57491
7.61085
8.36308
8.30321
8.28876
11.9437
7.55123
7.12925
7.88451
6.86682
8.29473
8.95647
9.93919
6.81282
10.6555
7.09512
8.55361
8.87629
8.40571
10.0911
7.2538
9.11136
11.173
8.0496
7.83004
6.70054
9.92313
7.66275
8.80972
8.42045
9.91079
8.45907
7.66906
7.3887
7.11787
7.53524
7.87755
7.82811
9.70609
8.09852
7.17567
8.42239
9.78184
8.08479
7.98108
8.0557
7.07267
6.7729
8.06018
8.43383
7.57129
10.2238
7.06779
7.66113
13.0965
9.26849
7.96795
8.52493
9.02144
7.73363
7.75505
8.55022
9.1441
9.36425
6.97037
7.02908
8.6095
8.0821
8.54535
8.46248
7.75277
7.26878
7.17162
8.36671
9.5109
6.99794
7.81862
7.72099
7.8405
8.24349
7.80478
7.884
7.36896
11.1184
7.62295
9.37145
7.95387
7.42266
7.25564
8.83199
7.3205
7.67749
6.83009
9.03548
7.90373
7.7915
7.15556
7.61871
7.039
7.59603
8.40911
7.42916
10.2022
7.81497
7.01906
8.18598
7.76969
7.48222
7.57827
8.30595
7.33443
10.4012
8.46589
8.54282
8.62379
7.68545
7.73389
8.01457
8.64201
8.19933
6.68269
7.48924
7.78411
7.35606
8.2014
9.39489
9.0972
8.42933
7.69206
7.24311
8.15401
7.73515
8.78271
8.95108
7.96518
8.00515
10.5762
8.67916
6.97444
7.0427
7.7073
9.74669
8.55779
8.58573
10.4221
8.7988
8.50896
6.81538
7.89513
7.53536
7.24681
8.2601
7.91333
7.31525
7.27025
8.34711
8.28441
7.71707
7.14599
7.60555
7.57809
7.9454
7.04555
7.38563
7.28423
8.10845
7.45621
8.41213
10.9772
9.06633
8.70352
9.49585
7.95608
7.52794
7.00059
9.40311
7.45462
7.5858
10.6831
10.983
6.91514
7.88814
8.72304
8.62031
6.78729
7.68166
7.53659
7.85735
7.46664
7.47662
8.53934
7.34492
8.46353
8.37803
7.82863
8.21351
8.29555
10.4268
7.37344
7.98489
6.86946
8.46139
8.19039
7.83209
7.38242
8.61893
7.85949
6.70511
7.19091
8.04178
7.83484
7.10923
7.45436
7.46301
7.99686
8.40438
6.78289
6.50674
9.6214
9.74273
8.1119
9.02358
10.1428
7.88926
8.34018
9.33004
7.02454
6.89777
7.63238
8.87327
8.13635
8.29237
7.31525
7.38154
8.4839
7.59813
8.3391
7.3696
10.185
7.07008
8.61537
8.49219
9.80465
7.43671
9.37647
7.00992
7.31377
8.23856
7.44611
9.01689
7.73032
7.90836
7.86867
8.90882
9.83406
8.68765
7.89594
7.72026
7.95485
7.65895
7.55978
7.15866
10.2956
7.96044
7.35121
8.23611
10.269
9.83593
8.69413
10.0209
7.60851
8.83705
7.12825
8.49997
9.79138
8.6483
7.69642
7.61761
8.64671
9.67335
6.96889
11.7061
7.71149
10.1191
9.25177
8.1312
7.02386
7.76397
9.08016
8.29181
7.49207
6.80288
6.83425
6.87045
7.50619
8.44798
9.23695
7.26895
13.3302
7.53902
7.37
9.5329
8.65851
10.1004
6.59897
7.71217
7.65922
7.97533
10.4169
7.86789
8.74291
7.08718
8.71685
8.42012
8.18625
7.59262
7.72384
8.20414
10.9474
8.74416
6.60012
9.13686
7.5306
7.5285
8.66925
7.90727
8.3097
7.36351
7.78375
7.16277
11.0433
6.92768
9.17087
7.33034
7.92241
7.94675
8.54401
7.12489
6.68361
7.92801
8.23805
7.87673
8.14646
8.14518
8.22133
10.9003
7.83456
7.35917
9.10468
7.84361
8.08737
7.59166
8.68174
8.02714
7.32904
7.84658
7.41435
8.10556
9.92113
8.05474
8.44505
8.79919
6.34717
7.90306
9.10553
8.40681
7.82352
7.64432
7.17065
7.28083
8.17492
9.31845
8.12658
7.7893
9.67958
7.07232
11.2664
8.60779
7.96351
9.16189
6.58654
8.01592
7.69738
7.87216
9.04844
8.75437
7.34446
7.24021
8.99211
7.99477
7.36708
8.17571
7.61929
7.76835
7.73294
10.0982
7.90453
10.1321
7.82013
7.96129
7.33471
8.78385
7.23819
7.30644
7.71224
9.05622
8.90538
6.78943
7.08974
8.8947
9.9416
7.86824
8.5594
8.16305
8.42937
9.10143
7.6909
8.32062
7.66532
8.1859
7.50121
7.39675
9.80831
7.3245
9.30538
6.80239
10.1619
8.31086
7.12591
6.8594
8.08281
8.36002
9.05336
8.09588
7.24671
8.37064
12.5844
10.2999
7.19546
8.22005
11.0757
8.44337
11.5408
7.22895
8.93094
6.66726
7.67505
8.3843
8.46288
8.69749
8.01462
9.27669
8.64457
8.79446
8.12019
8.05708
8.31245
8.07189
8.66882
7.68842
8.41596
6.97077
9.23902
8.37162
7.62972
7.91944
8.36404
7.336
8.5689
7.37971
10.525
7.35061
7.1388
7.79703
7.78033
7.84806
6.92323
7.94919
7.76323
7.54266
8.32456
8.67129
9.65074
7.50668
8.24089
7.36612
7.52544
8.2664
10.0023
7.3128
7.66406
8.00888
7.42406
7.97437
10.1581
8.05865
8.26148
8.75469
7.9856
9.05081
7.768
8.76487
8.38783
8.63579
6.85017
8.7432
8.48102
7.69623
7.73679
7.89382
8.41492
7.40267
7.74749
7.95188
6.91105
7.73973
8.33459
9.66534
8.71744
8.07203
8.14234
7.39742
7.34538
7.41468
9.40211
8.15114
10.3954
7.72251
9.53188
6.82074
8.93212
9.16376
7.2401
9.17627
9.13765
9.58291
8.1402
7.18601
8.83891
8.72714
7.76006
8.20483
6.86936
9.73002
6.64782
7.43952
8.24124
6.94345
8.76304
7.13124
8.0153
8.13196
7.28455
8.17713
8.8137
8.58106
7.89605
7.69846
9.10353
7.78094
7.31863
9.24341
7.41524
8.66531
7.98132
8.292
7.87948
7.69626
7.59912
7.61364
7.84411
8.12769
7.80229
7.97349
7.66187
8.68124
8.71226
8.0634
7.97088
9.06825
8.74113
8.09747
8.87328
7.49558
7.13293
7.18822
11.1013
7.68188
7.40245
7.62911
8.06359
6.90154
7.83069
9.66778
7.32984
7.65435
6.92288
7.81954
7.39226
6.78208
7.71799
7.87765
7.83503
7.71358
8.10701
9.40974
7.97105
8.92891
8.15394
7.70269
7.9354
6.85177
6.7779
7.44349
9.41018
8.03885
9.6714
8.06084
8.35367
7.44336
7.69735
8.43952
7.53831
10.9184
7.84769
8.31749
8.0748
8.25308
8.01836
7.58522
9.22069
9.48319
8.78877
8.25554
7.53468
8.20702
9.42637
7.07045
8.41813
10.1222
8.39086
8.18434
7.78872
7.73264
7.68213
8.06516
8.76032
7.64543
8.30986
7.55866
7.8255
6.79111
9.30615
8.61285
8.06045
6.89941
7.7776
6.84443
8.34817
8.32359
7.94409
6.78896
8.32641
7.21109
8.2256
7.73704
8.48959
7.9926
7.97311
7.63977
9.88573
7.61535
8.68528
8.33538
9.09939
7.74825
8.37517
6.7822
7.94032
7.30634
7.48892
7.12393
7.80089
7.94307
9.12572
7.56737
7.66518
7.55755
7.15601
7.85627
8.92233
6.92009
8.34737
7.98949
7.88107
9.50888
7.9646
7.83031
7.47701
8.2193
7.83684
9.35771
7.8373
7.38229
6.86635
6.67724
8.57963
8.07823
6.80315
7.81829
8.52235
8.25919
7.19686
9.2017
7.11325
8.59551
7.38836
9.28558
7.09383
6.84539
8.17916
7.70998
8.65421
7.51692
9.95972
9.46171
7.33156
6.91994
7.72666
9.91275
7.6364
7.71838
8.10703
7.05116
7.26873
10.6667
9.40487
8.93533
8.55686
9.19616
7.67913
7.00583
8.38916
8.59088
7.29298
8.3101
8.07257
7.98858
7.58512
7.87812
7.91145
7.31908
7.69478
9.24758
7.54563
8.31931
8.3633
8.13587
8.392
7.7962
7.91274
8.074
7.88113
7.7841
7.79882
6.99952
7.3578
7.74733
7.78173
7.73874
7.61981
8.28424
9.07475
6.73739
8.41002
7.58535
7.65702
6.99229
8.0308
7.75691
7.29999
9.12733
8.71025
8.44523
9.94717
9.15976
6.929
7.64027
7.73277
7.5725
7.63097
9.63217
6.85669
8.9458
8.01883
8.61893
8.39617
8.18231
8.65464
8.30714
7.47863
8.4698
7.12504
7.23809
7.57878
8.00332
7.29051
9.3709
8.03254
8.43364
8.07123
7.55469
9.26039
7.75773
7.68166
9.27794
7.43715
6.63575
6.87136
6.96281
7.14842
7.01722
8.25626
8.4916
6.44626
8.22843
7.72609
8.14503
7.02524
8.06272
7.15487
7.82495
12.0053
6.94516
8.95764
8.35342
8.14285
6.73933
6.91029
7.35887
8.1242
7.39754
7.34058
7.81234
9.8782
7.47462
7.78822
7.78181
10.6679
8.5492
6.90748
10.2302
9.1813
7.02608
7.23392
8.27402
7.85043
7.37417
6.76113
7.78872
7.6207
8.09466
8.32605
8.83051
8.39303
8.1078
7.52442
7.83646
7.54087
8.17889
7.29044
7.13932
7.29248
8.24439
8.54194
12.7328
10.062
7.68929
8.45182
8.36487
8.15076
10.4838
8.06852
7.68303
7.71371
8.10821
8.6188
7.87274
7.28491
7.14164
8.69393
7.88424
6.90041
8.32912
8.26455
7.29767
7.2916
6.66368
7.63494
7.29801
9.41291
8.70235
11.2708
8.39555
8.00551
8.95933
9.47582
7.8226
8.16765
7.97666
8.54945
7.52651
10.4813
7.77916
8.20299
6.9091
7.96363
7.79756
6.59666
8.03579
8.10492
8.15291
8.11168
7.24503
8.13689
9.02771
8.37406
9.8518
8.47515
6.45815
8.91924
6.48355
9.05902
9.00726
7.05494
7.66525
8.32461
7.90681
9.18379
9.21209
7.13851
8.00447
8.82581
8.83776
8.15404
8.41949
7.75529
9.19197
10.0207
6.61461
9.45198
9.75663
7.60102
7.14488
8.18921
6.57795
7.61136
8.22043
8.12133
8.95656
7.66486
7.03306
10.2983
9.05065
7.95828
8.13584
7.74023
7.87579
8.55887
7.31009
7.40364
9.23181
9.63951
7.32911
7.44805
7.02013
10.0627
7.26677
8.76791
9.61068
7.14719
9.1013
6.99222
8.84373
9.14523
9.66673
7.86177
6.37746
6.91509
7.27777
6.73942
9.59765
6.98065
7.56194
7.82106
7.9467
7.78926
8.54041
9.94051
9.31772
8.78196
8.82116
7.94932
7.70111
9.00352
8.37179
7.923
6.97551
7.5797
7.15499
8.7924
8.87037
7.62226
7.79381
6.98577
8.71682
8.00981
11.1431
8.00932
8.23071
7.13813
7.93318
10.9633
8.10344
7.58806
7.9319
7.92694
7.91235
8.16723
8.14153
10.4468
8.39204
8.98124
6.89901
7.81246
7.58164
8.16402
8.98521
7.33746
9.71547
7.8883
8.05103
7.30154
7.74427
7.57776
8.08776
7.70377
8.81163
9.03429
9.06177
10.5129
8.23242
7.4933
6.88455
6.98862
8.22614
8.35863
7.50177
7.40939
7.92143
7.47295
7.95433
7.13401
7.23644
8.00359
9.13485
7.18742
7.82244
7.95804
7.15582
7.894
6.79323
10.9119
7.20667
8.36722
7.67336
8.32543
7.76311
8.94048
10.4853
7.00119
7.27246
8.35339
6.99182
9.27438
7.69489
7.86554
8.60997
8.61874
7.19419
7.8219
7.15339
7.62527
11.6763
10.0244
7.72438
8.50303
7.66708
7.81115
7.95542
7.6956
8.39329
7.67664
7.28488
7.60155
7.65515
6.97181
7.63114
7.77514
7.46871
9.59139
7.30565
6.97474
7.3088
9.46429
7.9548
8.54093
7.1445
8.49025
7.39528
7.85404
7.00894
7.11845
7.96624
8.10765
7.67401
9.07
7.61835
8.08518
7.39508
8.63418
8.95116
10.0301
8.10507
7.9951
8.0431
7.05323
8.21783
6.99573
7.96969
6.84727
8.08002
10.3148
8.90303
6.96313
7.9901
8.67249
8.69815
6.66977
7.6979
7.97225
8.11834
8.05139
8.58724
8.93548
7.05418
10.4005
9.44409
7.42373
9.0721
7.53036
8.2938
8.48612
9.0083
7.62594
11.5364
7.8484
8.52648
7.8328
6.91697
7.46845
9.58199
12.6701
6.66526
7.80133
10.3181
8.18651
9.02177
8.0922
7.23672
8.01217
7.39621
7.74021
7.37406
8.69239
8.32834
9.36379
10.1179
8.42924
10.3926
8.87855
7.79992
7.94112
8.16208
8.23892
8.57214
11.7664
7.48776
7.47189
11.2125
8.45273
8.54173
8.39906
7.6583
7.9417
7.55957
7.68341
7.4241
9.38554
9.4272
7.82031
10.1695
8.56877
8.67716
8.45009
7.35536
7.30257
7.96815
8.26724
9.79675
8.41132
8.02492
7.04903
9.62899
8.35163
8.96668
8.21919
8.75832
8.43791
7.09964
7.34591
6.96998
8.39637
8.38406
6.8928
7.22299
7.81445
8.89375
9.01304
7.41785
8.10873
6.97152
7.63022
6.63893
9.26179
7.3312
7.34482
8.87789
10.3453
7.4927
7.86396
7.25359
7.43869
9.84113
7.35193
7.20314
7.6092
8.39592
8.14864
7.83633
8.18488
8.25336
7.16398
7.79409
7.29174
7.55656
6.34973
6.9807
8.46068
7.71843
7.67185
8.12337
7.68099
6.97698
7.9632
7.57918
6.70566
6.77152
8.34409
6.49311
8.45314
6.83741
8.3648
7.72545
7.83299
7.29819
9.30825
7.10383
6.9965
9.58172
7.47584
7.90695
8.15114
8.68081
8.00243
9.22073
8.87601
8.40209
7.76901
8.36319
8.22664
7.86258
8.28984
9.65444
7.58682
6.8561
8.84173
11.0355
6.72422
8.4399
6.77706
6.68924
8.10036
8.45016
6.99352
8.40391
8.30358
8.24914
7.44863
7.84097
9.55716
7.47655
10.6206
8.06143
7.28538
7.25405
9.94153
8.6253
7.47614
7.89209
8.37305
7.68855
7.80749
9.51142
7.9394
8.2156
9.64038
6.52851
11.1813
10.7836
7.53256
9.69077
7.22497
10.627
7.39948
8.79354
8.41973
7.79492
7.17637
7.75176
9.02734
7.19087
8.77272
7.23548
9.23035
7.1381
6.88791
7.37177
9.152
8.22112
9.88107
8.83984
7.36282
7.87682
8.01036
8.98104
9.02719
6.63584
8.24615
9.20187
7.89467
8.46292
8.32569
10.9975
8.15025
8.5476
7.98664
8.18302
8.19373
7.86319
8.448
6.76057
8.60201
7.21912
9.3783
11.3515
8.4591
8.50761
7.55398
8.15643
11.7861
7.9874
9.07157
8.36672
8.06054
8.25415
8.77121
9.74779
8.12734
7.20298
8.72583
6.45977
8.6862
7.96215
7.49769
7.95477
8.47777
11.2308
7.87387
8.05983
7.46281
7.66889
7.76728
6.61121
7.56105
7.89777
6.5061
7.9105
7.70417
7.13859
9.4531
7.1902
10.0546
8.96683
6.86796
8.67644
6.80038
7.59538
7.9874
6.26379
7.8696
11.3862
9.26251
7.6695
7.09768
7.90205
8.94663
8.0622
7.87002
8.30186
7.61089
7.39766
6.51813
9.46855
8.27973
7.85567
7.24079
9.3143
7.29367
8.10659
7.1164
8.74624
8.73129
7.11975
7.60494
8.34309
11.0267
7.53684
10.2499
8.07064
8.16356
10.9243
7.7781
7.8911
7.74377
8.69292
8.0404
7.32948
7.08654
7.85984
7.61147
8.15471
9.17866
7.3235
7.57687
7.70049
10.033
7.36191
8.27597
7.44071
7.91883
8.47894
7.48177
8.1378
8.65111
7.89947
8.71164
8.76939
8.98834
9.49257
8.75821
8.58087
7.87474
8.29922
9.60734
7.96655
7.42102
9.52318
7.27267
7.05521
8.6265
7.87364
7.4929
9.65983
8.56779
7.57294
7.45786
9.02827
8.40751
7.34509
7.79262
9.76136
8.93598
9.14916
8.62092
8.44862
7.58365
9.18924
7.25665
7.31135
7.53739
7.71654
8.26972
7.6754
7.86787
7.78246
10.7451
7.84749
11.4183
8.30365
8.35334
7.99988
8.49193
7.33505
7.7077
7.42069
8.1024
7.0289
8.21166
10.2409
8.56812
8.23931
7.41618
7.74769
7.28732
10.5184
7.49625
8.00873
7.12469
6.89531
9.06913
7.3052
6.75341
6.86076
7.27643
7.6827
8.42267
8.26569
8.13924
7.16022
7.06506
7.31889
7.93418
7.25417
8.43752
7.67839
6.64376
7.5508
8.94908
7.94852
6.89311
7.61783
8.56629
7.94653
7.65169
7.2681
7.22109
7.58891
8.06292
8.89413
7.11341
9.85239
7.67035
8.90052
6.80644
7.57115
8.51568
9.1355
7.69506
8.49437
7.60494
8.19959
7.94863
7.66039
7.56051
7.9338
7.14764
10.1156
9.71379
8.14215
7.90582
7.79535
8.80205
8.05059
8.08029
8.18711
7.22176
7.48725
6.96032
7.48649
8.3988
7.18723
9.97861
6.8196
7.42346
7.74941
10.1768
6.83248
8.11293
8.95288
8.09199
8.7421
7.42103
7.79678
8.22694
9.79031
7.30476
7.32701
8.04991
7.22933
8.89803
8.40457
9.16605
11.0364
7.20624
8.56646
8.70461
6.81818
7.38811
12.5622
8.29742
8.66112
8.25046
7.8179
8.04808
7.69289
8.67072
8.29312
7.00837
8.87409
6.94812
7.88656
7.23992
7.77815
8.16266
8.2095
7.86697
7.61652
8.44415
7.37842
8.33868
6.92532
9.57158
7.41283
7.26731
7.74764
9.76558
7.69276
8.25744
8.33278
7.85793
7.4997
7.77633
12.9481
7.56982
10.9599
7.25114
7.63117
8.5629
9.17781
7.6827
8.49373
7.27269
10.3652
7.76097
7.84128
9.99962
7.39209
8.95065
7.66254
7.98939
7.65989
8.55225
7.46673
7.75448
7.0408
7.97011
7.44087
9.28411
7.17413
7.8485
8.08528
7.56255
8.61834
9.76869
9.09471
8.45423
8.14539
7.19975
7.78555
7.79681
9.22232
7.1753
10.2813
8.52358
8.7968
7.62891
8.18336
8.77366
7.46577
8.83952
9.44051
8.09563
7.6811
7.19315
8.04801
9.02963
10.1674
7.06935
8.49124
11.248
8.27884
7.67904
9.15483
7.94503
7.22558
7.70242
7.73148
8.6655
7.88494
11.8548
7.44537
7.90054
10.2536
6.63002
8.53373
9.9369
9.80651
7.27709
7.2663
9.91237
8.62469
8.61323
7.65625
8.00234
10.5169
8.41236
7.34732
8.04351
7.72472
7.45249
8.08927
7.9518
7.41667
7.30245
8.57381
8.64283
8.72485
10.1905
8.07826
7.76289
8.23932
8.13953
8.12916
8.49871
7.83905
9.27712
7.53624
7.17027
8.6201
9.92815
7.80745
7.79906
7.22083
7.44723
8.93234
7.30402
7.66585
7.27376
9.29336
8.58583
8.03025
8.69211
11.5043
8.82005
7.87325
7.09661
7.64871
7.01367
7.89374
7.70268
8.73838
6.61651
8.70053
8.13749
7.92013
8.06723
8.9214
9.21396
8.21393
7.51431
8.79928
9.03715
6.95021
7.71786
8.24962
7.48167
7.27876
7.38042
7.20383
8.58611
6.91438
8.19341
6.83687
8.90308
7.62208
10.8674
9.06026
7.40488
8.05673
6.82109
8.45412
7.75119
7.34809
9.54916
8.09943
7.95194
7.94168
7.89954
7.18714
8.39583
6.48091
7.69404
7.94083
11.4487
10.1522
8.12225
6.70275
9.64057
8.84318
7.88454
8.13109
10.6578
6.77799
9.32326
8.49024
8.36829
8.12282
11.0147
6.36406
7.5294
6.87375
8.4611
8.57274
7.311
8.11993
8.45915
8.61401
7.4167
7.0415
8.45982
8.98467
9.50859
10.359
10.1923
6.81459
7.37048
7.74647
8.09974
9.28677
7.80242
7.2971
8.30982
7.82637
7.63176
7.02497
8.13886
8.44691
8.61837
7.71716
7.75465
13.2899
8.13976
11.972
11.5743
7.89363
7.785
7.58609
7.32194
8.09387
7.69354
8.82335
8.16636
7.8883
7.13496
7.44095
6.97091
9.25501
6.9617
7.13643
8.63788
8.0047
8.30069
8.31012
7.69344
8.69543
9.12762
8.06456
7.65349
8.53887
8.23425
7.08781
8.5013
6.8676
7.70646
6.90718
6.55242
7.66292
6.91648
8.2273
7.73754
7.73486
8.91984
7.23219
8.66027
7.09804
8.23989
7.71456
6.7486
8.26917
6.86725
8.96456
7.74735
8.9021
8.85415
8.86087
9.18735
7.73995
7.53334
7.16617
7.41537
8.25824
8.01779
11.478
9.10147
7.21371
7.67728
7.70934
7.42171
6.88897
9.04318
10.3907
7.01459
7.48425
8.32103
8.10518
8.10447
7.64004
6.65898
7.72
6.29864
7.74915
7.44259
7.28103
8.64313
7.19653
8.27356
7.89866
7.14162
8.16426
6.72876
9.19087
10.3914
7.04326
7.92022
7.38833
7.84807
8.54825
7.36257
7.6858
8.09006
10.1671
8.1708
7.71757
6.85226
7.03388
7.52251
9.28217
9.30487
7.58611
8.87298
6.87096
9.93451
9.43408
7.01519
9.21668
7.39718
6.69026
6.99885
7.85392
6.85974
9.04677
7.9013
7.09818
8.33217
7.94559
8.65717
7.67125
9.24288
8.43597
7.56391
7.65934
8.19181
8.09969
9.91559
8.27536
7.99603
7.84767
7.71888
7.97304
9.32789
7.20594
7.83481
7.15296
8.43554
6.52469
7.67789
7.74314
8.2807
8.56468
8.42408
8.11477
7.45947
7.43227
7.45383
8.81442
8.61585
7.7311
6.56463
7.28252
7.78873
7.80828
7.53094
6.75522
7.53708
7.55103
7.59255
8.2133
8.11285
7.76183
6.73666
7.87764
7.60755
8.89219
7.93865
10.0064
7.5288
7.77907
8.30039
7.2328
7.18996
7.63418
7.98542
6.90682
6.91841
8.32134
7.95169
7.14721
8.29986
7.73583
7.71624
6.99859
8.13808
7.79902
9.76478
6.88788
7.30626
10.4102
9.4972
8.42948
7.90702
9.16686
10.9044
7.50869
8.13543
7.27972
10.0742
7.74607
7.47793
9.06236
9.20265
7.53388
7.75909
7.40972
8.47744
8.05654
8.48481
8.57052
8.24108
6.71972
9.06244
6.97486
7.25709
7.96587
7.7207
7.46001
9.66704
8.97763
8.69766
10.0269
9.30903
6.94447
13.1986
7.40679
7.52168
7.82981
7.99327
9.39812
8.49391
8.52408
8.27974
7.17672
7.86969
7.73522
7.59569
8.25126
8.44824
7.78678
6.92766
10.2788
7.35894
8.31143
8.00945
6.98828
7.84804
8.48296
8.80576
9.97537
7.81636
9.5372
7.94637
8.66319
7.84517
9.13849
7.86571
7.31178
7.3808
7.88294
7.1435
9.85142
7.44652
7.77412
6.72083
7.88111
10.0351
10.1254
8.50614
6.78554
7.78973
9.02384
8.2296
8.57149
7.88953
8.14134
7.02271
8.32266
6.613
8.51032
8.87002
6.99024
7.42184
7.41223
7.11814
7.02565
6.49867
7.27427
8.07612
8.7824
8.03637
9.39079
7.71881
7.41181
7.76664
7.56406
8.6434
7.25938
8.00738
7.52373
9.28542
7.90441
8.49372
8.81609
7.77077
7.16662
7.81888
7.58666
8.39966
8.43882
6.79496
8.03949
8.55961
7.25178
7.3628
8.924
9.35749
7.44035
8.19648
8.67962
10.042
7.8584
7.72837
6.92123
7.63563
8.48854
7.34444
7.37256
7.93886
11.1085
8.53042
7.49937
9.23525
10.7735
9.32195
6.87647
8.96761
6.65184
9.98067
8.61703
8.40506
7.64013
8.26258
7.64669
8.79368
7.26385
8.29759
8.49209
8.22811
8.25852
8.84949
7.95816
9.142
9.58457
8.10397
7.82847
6.50986
9.59537
8.74555
7.76791
8.12186
9.99423
9.16599
7.51383
12.1992
7.5924
8.8591
7.95252
8.81296
6.72406
7.08318
9.62772
7.32993
8.77685
7.77199
8.64305
8.29795
7.35049
7.09239
8.4415
7.12852
7.33573
7.39501
8.69713
8.22169
6.96867
8.53056
7.52797
10.0398
7.38497
8.73688
9.51223
8.05908
7.14283
8.2634
8.43039
7.7215
7.04809
7.59713
9.05744
7.65894
7.2594
8.88847
7.47481
10.0963
8.08698
7.98665
7.80204
9.43221
7.9913
7.46018
8.04842
8.13091
7.85468
7.7461
6.80643
8.11915
7.57561
9.23371
7.96174
6.53775
8.57393
7.24395
9.53625
10.4772
9.7352
8.05408
6.88742
8.8201
7.6879
8.21407
8.72701
10.2161
8.23937
7.46448
7.65453
7.86849
9.43846
8.9741
9.36881
7.46377
7.27
8.19204
7.27588
7.36096
7.68009
7.89669
8.08715
8.00763
8.96896
8.38304
7.398
7.21992
7.17205
7.25569
8.15539
7.99766
8.58002
7.52851
8.30048
8.37771
7.0349
7.07332
7.26627
8.49569
8.79987
8.14911
8.3833
9.21107
9.03571
7.68612
7.30633
9.49716
7.59701
9.22765
8.0335
8.07218
6.09196
8.14547
8.11675
8.33026
8.04946
7.07908
7.46966
8.2358
7.37819
9.51926
7.74279
8.62928
9.25699
6.98777
7.74552
8.83954
7.50532
7.31137
7.97564
6.98639
9.08388
8.61068
7.7551
8.80922
6.5737
8.39649
8.48743
8.77203
7.67852
6.97731
7.8665
7.31909
7.44444
8.89359
9.77295
9.38036
6.9878
10.8885
7.67762
6.78328
7.52863
7.93368
8.99364
6.87131
7.92062
8.19163
7.34519
7.86139
8.17215
9.78039
8.19971
8.254
7.89937
7.3884
6.51146
7.83263
8.73377
7.1495
8.24653
8.26342
9.13616
9.2271
8.28453
7.96337
9.91399
8.62497
7.82557
7.38817
8.72118
9.01171
8.58053
7.9254
8.07638
8.75641
7.74621
10.1361
8.32471
8.54725
7.16342
8.51219
7.04414
9.31712
7.02061
8.74325
8.25937
7.85384
7.26935
6.66511
8.39127
9.0166
8.8344
8.95425
7.82352
8.04974
10.0716
7.23679
8.93596
7.53388
8.91842
7.62135
8.6536
7.82363
7.94113
7.61517
7.78588
7.89698
7.27112
7.90656
6.80944
7.34275
8.37371
10.9256
7.92068
7.47397
8.04265
7.4408
8.0938
8.14709
7.5697
7.81245
8.16331
8.20869
8.8367
11.0696
7.38479
7.90215
8.72153
7.7285
8.02833
6.93951
9.82367
8.75135
7.2449
8.35986
9.55658
8.38184
8.39304
7.27051
7.15329
8.9092
7.94493
9.21208
7.70175
9.36694
6.68388
7.46169
6.7852
6.42092
7.23568
8.43806
9.44157
10.6186
7.57696
7.46596
7.07604
9.75906
9.3954
7.87748
7.788
7.67855
8.90918
7.60721
7.94446
9.79213
7.22322
8.10409
8.45426
9.53401
7.25686
9.68223
7.55074
8.38927
7.21519
7.14395
9.05671
7.35603
9.04954
8.86754
7.03955
7.45803
8.14466
8.15399
9.19464
9.33185
8.09018
8.07675
8.44099
10.0341
7.52831
8.40153
9.40522
8.46259
7.32429
7.78558
7.71513
10.7476
8.39035
7.46116
11.5068
8.89093
7.25535
7.9023
6.84277
10.6148
7.8013
7.01081
7.38444
8.16693
6.8562
7.98405
8.31821
7.01439
8.1533
7.23294
8.54153
9.2175
7.64934
8.51859
7.77004
8.69319
7.35582
10.2873
12.6147
7.87265
7.68507
7.57745
8.3189
7.51383
9.59567
7.58993
7.22497
8.93142
7.70538
8.49738
8.43344
9.44517
8.46751
7.79593
8.62672
8.876
6.91058
7.69729
8.31654
7.64449
8.0488
7.39034
8.03923
7.9339
7.85409
7.14892
10.2076
8.20166
6.57167
6.70637
8.59084
7.24837
7.48054
8.37183
7.61934
9.10328
8.6094
11.9507
8.68864
7.2281
6.76785
7.06511
7.64396
10.5183
8.81855
7.53422
12.3273
8.92493
7.5939
7.99664
8.03871
8.30266
8.19978
7.91965
7.50752
9.39078
7.15652
6.30366
7.51034
8.03537
11.5136
7.01037
7.80914
7.3604
7.65044
7.25211
7.51469
10.187
9.24821
8.12835
7.89775
10.4177
7.26848
9.0643
7.59558
11.0466
8.36973
8.79151
7.87498
7.85856
9.48929
7.76399
9.5686
8.75333
7.424
7.8141
8.32853
8.71203
7.72721
7.6963
11.7819
8.36385
8.44448
7.84171
6.93059
7.11422
7.87593
7.59919
10.3453
9.32905
7.83322
7.6422
7.33631
7.36853
7.89239
8.40173
7.85946
9.06725
7.46301
7.1507
7.87844
7.95252
7.36294
7.03881
9.20727
7.0383
7.2693
7.75236
6.49622
6.8569
7.86886
12.6048
7.85463
7.44527
8.39702
6.7941
8.09447
8.5361
8.42774
7.44589
7.0291
6.90492
7.51472
8.15957
7.16428
8.42578
6.8674
7.44591
7.3445
7.49283
8.15943
10.4477
7.74931
9.82717
7.40599
7.01084
7.26517
7.29018
6.9133
7.65397
7.99217
7.98341
7.64954
7.42458
8.65866
7.19838
8.97945
7.33946
9.19411
7.07967
8.61173
7.41834
9.15803
8.95277
7.39614
9.55994
10.8573
7.79436
7.88709
7.15396
7.3688
7.00685
7.54068
8.76434
8.58945
7.91483
8.03195
7.59511
8.19268
6.97312
10.233
7.46106
10.2713
8.43413
7.32468
7.4059
8.40111
8.29467
8.20783
7.96606
10.0037
8.35916
8.80601
7.87767
10.1156
7.25025
8.50884
8.0995
7.20715
8.01372
8.18493
7.76974
7.62295
8.86091
7.87114
12.9486
7.10372
10.2885
7.05574
6.89985
8.27541
8.16159
8.07165
8.74111
8.8669
7.79224
10.1883
8.8329
7.47555
7.38496
7.59744
7.50293
9.42766
7.86108
8.05436
7.14236
7.5556
8.37667
9.86604
10.0211
8.50332
8.80916
9.95093
8.52871
9.30137
6.97269
7.51838
10.1451
7.53133
9.49958
7.91935
9.84753
9.39216
8.61913
7.10753
8.64124
8.30745
7.52497
7.13271
8.62476
8.10312
8.34516
8.3612
7.73758
9.05355
8.71797
7.83257
9.079
9.2738
7.84289
8.74686
8.24921
8.45395
7.52586
7.34909
8.90825
8.56491
7.11187
7.85299
7.13818
8.87433
8.30444
11.0679
7.22084
12.7343
7.76389
8.45885
8.18473
11.5792
8.17969
7.68596
8.02469
8.93849
7.37741
7.50429
7.1953
7.38962
7.0859
7.0695
7.49784
8.76344
7.20278
7.24442
8.14982
6.92011
9.42437
6.87155
6.8239
7.86416
7.96162
9.71602
7.80066
7.75598
7.76841
7.75735
7.75075
7.23406
7.41526
7.71069
7.24967
7.34203
7.48211
7.03739
8.37804
7.32855
7.92772
7.98312
8.00855
8.19691
7.11307
10.629
7.09547
8.12308
8.38346
7.36699
9.86059
7.36185
8.82566
7.70267
8.19027
7.79709
10.5754
7.19897
7.76488
7.7108
8.85444
8.45874
7.83296
7.88365
7.30235
9.85152
7.31837
10.9654
6.90512
7.81205
7.16824
7.5712
7.61659
8.52119
8.28278
8.80234
7.00651
7.80989
7.52318
7.79889
7.3004
7.00515
8.57272
7.1771
8.1813
8.41751
6.82979
8.55606
7.97131
7.2652
7.92644
8.27496
7.40983
8.38641
7.46258
6.52725
7.36435
7.92006
7.97416
8.67896
9.49075
7.08101
8.02284
7.22424
7.70592
6.48713
8.86636
8.37157
8.38512
8.49594
7.88643
8.68958
8.06597
6.75647
7.22086
7.48298
10.8633
7.74584
7.01481
14.7056
8.15673
7.65387
7.87097
7.49153
7.16783
8.30526
8.01551
7.75856
7.09482
7.47967
9.08861
7.02348
7.12557
6.71707
7.13028
6.33405
8.39703
9.9683
9.15529
7.72677
8.03104
7.68546
7.94916
7.09199
7.55097
7.54966
10.1415
7.6856
8.40652
8.31314
6.43709
8.59456
9.0442
7.69158
7.27759
7.16293
9.03528
7.43212
7.31721
7.40792
7.17594
8.40776
10.8114
8.81287
7.98551
8.13467
8.57696
7.65414
7.43307
7.96523
8.1429
7.64337
7.38075
7.09863
7.96119
8.48142
7.63028
8.90871
8.52393
8.40001
8.85462
8.86642
7.02049
7.75524
7.75228
8.03905
7.76562
8.42731
7.39028
8.28176
7.97599
6.4997
6.99996
7.76112
8.38588
9.4155
8.52224
8.18631
9.04494
6.76317
7.66685
8.92133
7.94067
7.71646
8.14916
10.7639
8.5658
9.27808
7.82458
7.21134
8.24702
7.9763
8.07577
8.51412
8.8257
7.23511
6.83856
8.12463
7.96296
8.53118
6.39814
8.04701
8.18862
7.45385
9.50556
8.05546
8.29043
14.4929
8.35646
8.49044
7.21616
8.97028
7.32768
9.91715
7.86649
7.16315
7.821
10.6405
8.19639
7.94486
9.06163
7.25128
7.87052
7.03077
9.0318
8.58882
7.74475
7.46722
7.63645
7.14721
8.56363
8.24991
7.82795
8.11849
6.5959
11.1219
7.69934
7.01125
7.4803
9.87246
7.29313
8.75437
6.9416
7.50487
8.54543
7.19479
7.21086
8.01205
7.28699
8.00721
7.50269
10.6294
7.8793
7.65413
7.99227
7.47008
7.8458
7.31232
7.76856
7.23473
8.69153
7.42408
9.53685
7.82811
7.52887
8.25116
7.64627
9.25942
7.64586
7.66158
7.07249
8.84557
7.89522
7.55458
8.43363
8.41061
9.2775
7.67443
7.57743
8.50838
7.31259
7.30911
8.70678
8.39319
10.5135
7.79643
7.17163
7.65847
7.36122
8.04007
7.50178
7.73311
7.1122
10.5963
8.49001
7.24474
7.89296
7.22105
7.22588
7.75618
7.4293
8.70311
7.50057
7.23355
7.1154
6.99835
7.35513
9.14585
7.87836
7.34215
6.82126
8.76599
9.36051
7.21291
8.17716
7.78588
7.65316
8.32303
7.77771
8.27953
9.55154
7.75255
6.95699
9.32163
7.18752
8.04017
7.5783
7.82788
7.77409
8.89757
9.05459
8.62102
6.92616
7.81516
7.81157
8.87103
9.3108
7.38423
7.26775
8.37263
7.7943
9.23277
9.60707
8.29248
7.32278
7.06702
10.0257
8.14695
8.43083
7.80638
8.02869
8.39033
7.80314
6.87964
6.89661
9.63627
8.68061
8.27221
8.25046
8.60414
7.20097
8.14845
9.71011
8.10033
11.0237
8.29264
8.18023
8.18849
7.91933
7.70857
8.50395
8.2782
7.60626
7.90982
6.27167
8.09733
8.10331
7.07482
7.04189
9.86874
7.20792
7.61511
8.13091
9.49086
8.24061
7.77731
7.42822
6.87099
8.35508
7.09061
7.92423
9.97293
8.84592
8.03808
7.75351
8.01288
10.2929
9.27554
8.42212
6.95906
8.89136
7.08284
8.14928
8.75995
8.02597
8.82801
8.52521
7.62934
7.1758
7.43954
9.02898
7.65724
7.62057
7.93217
9.3566
9.85304
7.65476
7.81583
10.803
7.69975
9.52456
7.5811
8.18944
7.16176
7.17908
7.61183
8.75043
7.12616
8.4128
6.33343
9.19095
8.02874
7.5306
8.34823
8.00625
7.84983
7.99996
7.12467
7.95425
7.58118
7.36475
7.47918
7.32869
7.26263
7.73925
8.76363
10.1265
6.97135
8.48737
7.90053
10.0844
10.9837
8.73107
7.50036
8.35136
7.74649
7.82108
7.71154
9.22634
9.67143
10.9384
7.19258
7.55831
9.86958
6.64544
8.71949
8.80693
8.58658
8.99665
7.68564
7.3648
8.53141
8.68275
8.43387
8.04873
10.0742
8.15744
7.78157
9.48192
7.49644
8.21698
8.2817
9.14892
7.17331
7.11728
7.74477
9.43179
7.3082
6.89286
7.06361
8.13442
7.90702
7.78231
7.5041
7.95033
7.04503
7.35504
7.87769
8.16945
8.60999
7.12749
7.04551
7.44164
7.30777
6.84053
8.52958
8.95951
8.77461
8.91955
7.06862
8.56423
8.74026
8.97364
7.0246
9.4316
10.718
7.758
7.84184
7.82994
9.25735
9.67476
7.73218
7.41007
8.61875
10.8924
8.32822
8.65332
10.2199
7.92775
8.68297
7.7699
8.00077
10.3175
9.10099
7.85249
8.65072
8.64369
8.29041
8.26166
8.96717
6.45041
8.81385
8.77678
10.7106
8.84096
7.4759
7.40487
6.48667
9.41213
7.31468
7.5788
6.93001
7.81443
7.40162
8.33367
8.83263
7.66966
7.6952
10.1371
7.99598
8.43052
7.42282
6.94616
8.53076
8.55335
7.20254
7.87334
8.22928
7.63321
8.63729
8.0062
8.42747
8.21512
8.39736
8.02745
7.57996
10.1857
7.1543
7.48423
9.7103
7.14626
7.78112
7.49853
8.85648
7.83676
7.50385
9.00078
7.65557
8.06128
9.10967
7.79661
9.86164
8.78595
7.38578
7.90046
7.65664
7.43322
8.88678
7.74926
9.13566
7.84938
7.61797
6.6812
7.4685
9.3281
7.93969
7.6214
8.72853
7.05399
8.45404
9.07262
8.75387
9.26902
6.54153
8.27998
8.37631
7.14585
9.66712
8.06711
9.16552
7.73758
8.11991
7.22086
9.38276
8.76472
9.93498
8.12836
10.1874
7.39684
10.5806
8.1106
7.58613
9.32412
8.30737
7.63386
7.52322
8.67434
7.85757
6.95321
7.42399
7.70066
7.46918
9.16667
8.70824
8.93729
8.7535
8.25342
7.29601
7.28801
7.19345
8.46548
9.08752
8.61262
9.93182
7.32468
7.2262
7.20014
7.41831
7.18682
8.21049
9.15143
7.19345
9.43755
7.45028
8.89296
8.077
7.16702
7.91041
7.11697
6.89665
10.2305
8.77357
9.69816
7.42006
6.79768
7.51086
6.68791
7.45936
8.96879
9.15407
7.5208
8.32975
8.08258
8.12586
8.22349
8.73361
7.97142
9.21983
9.3191
7.82993
7.47213
7.74293
8.15026
7.33358
8.55438
7.72945
8.084
7.25384
7.79288
9.24386
9.80549
7.19382
7.87557
7.49834
7.71336
8.56642
8.37822
7.52204
7.29841
8.9683
7.95146
8.5683
7.33607
9.12883
7.86639
7.50224
6.83551
9.08757
7.9569
7.99742
6.77675
8.29559
6.80411
7.35524
9.12453
8.03498
7.93682
7.93996
7.96669
7.53874
10.002
7.21002
7.12961
6.82425
7.13609
8.66118
7.88391
11.4032
8.93143
8.31971
6.93
7.77925
8.1706
7.59117
6.56067
9.58981
7.94777
7.6404
7.17326
7.50135
7.76932
7.99343
8.08888
7.63378
8.09875
8.70158
7.25543
6.2598
10.0579
8.66475
7.54898
8.67388
8.52813
8.0806
8.38702
8.2595
9.86472
9.38858
7.93286
7.47099
8.61611
8.08178
8.50505
6.7162
7.45846
10.9085
8.29008
8.06435
7.35925
7.41641
7.02739
8.18384
7.82231
7.91156
9.17497
7.38034
8.11254
8.67267
9.00429
7.93708
9.46866
8.79178
7.54523
7.3745
7.94937
8.51727
7.97998
9.38685
8.82809
8.16567
8.40442
6.50283
8.38863
10.5814
7.74164
7.70937
7.94087
7.69656
7.27134
10.5682
7.2364
7.20637
8.07797
8.0948
8.14546
8.1094
7.19051
7.79507
8.54295
8.33122
8.17877
7.1038
7.82031
8.41814
9.57216
9.94611
9.37671
7.05614
8.92367
7.82242
8.46826
8.33418
6.95569
7.16678
8.20981
8.26372
7.50812
7.60528
8.15583
6.77071
8.42177
10.2194
7.91595
7.52152
8.9979
8.93212
7.7399
11.2714
10.3713
6.93192
9.17659
12.2167
6.85988
7.66146
7.53296
7.86536
8.20549
7.36064
9.23095
8.01038
7.82245
6.86668
8.45732
8.86435
8.13464
6.78884
10.6207
7.46463
8.76616
7.7507
6.59363
8.80978
7.21338
8.52053
8.19636
7.18684
8.29783
6.99095
7.31085
7.98236
8.08152
8.89987
7.68591
7.57845
6.63081
7.10115
7.35222
6.93625
7.49281
8.77419
10.2265
7.12988
7.35414
7.25258
7.83651
8.4881
7.54379
6.67814
9.21473
6.97818
8.45092
7.59373
9.28012
7.34887
6.67596
10.3879
8.44847
8.86378
8.07677
7.39011
8.27502
7.0639
7.26547
6.48049
8.23142
7.91725
11.1145
8.02819
7.8618
7.63187
8.18735
8.11848
8.01104
9.00737
7.38646
8.67321
7.34308
8.4268
6.7915
8.27724
8.12854
6.08853
8.88547
9.20763
7.54685
7.40241
7.63618
8.54123
7.40563
7.74444
7.60444
8.05928
7.5336
7.22472
7.68991
11.0085
8.60708
7.7332
7.66024
7.26922
7.62399
8.07891
7.51392
8.22994
7.5725
7.07965
8.75169
8.90177
7.05687
8.48163
6.73268
8.08663
6.66703
7.77509
6.52362
10.036
8.65594
8.75033
8.15186
7.32215
8.52954
7.31107
7.43927
8.17265
6.91337
7.71761
8.49168
7.22261
8.23497
7.60953
8.25781
9.42132
9.88266
8.4946
8.48393
9.02534
7.39603
7.52748
8.40138
9.68929
6.60878
8.32919
8.02426
9.69214
7.04726
7.33542
7.06144
8.32176
8.14381
8.03344
8.38755
8.52647
9.02972
8.73359
7.39909
8.10716
7.53248
9.06989
8.01462
9.64007
7.35771
7.62163
6.74499
8.12078
8.07234
7.72768
8.48955
6.91586
7.58709
7.56886
7.29199
8.13106
9.86669
8.86104
7.33785
9.66033
6.86597
8.30257
10.9458
8.78013
7.32936
8.93752
8.26538
7.48344
7.54161
8.48396
8.67
8.09452
7.76665
9.06246
7.93774
7.23869
7.2867
7.82871
8.26985
8.33526
8.99673
6.91101
7.38519
7.73811
8.3233
7.38557
6.76687
7.62531
7.95487
6.76964
7.44119
10.3653
8.06997
9.10596
7.82318
7.55095
8.90398
8.33168
7.94489
9.39182
7.75011
8.27439
7.45819
8.15066
7.80422
7.1584
8.61912
7.96242
7.57091
10.1537
6.61777
8.79372
7.44549
8.60929
7.17436
8.2613
8.56936
7.39064
7.42609
7.67368
7.86968
8.15193
8.56526
9.4539
8.19484
8.57373
7.68165
7.87006
7.06642
7.48519
7.64876
8.20249
7.44323
7.10304
8.43642
10.7023
7.61462
9.04119
7.55473
7.85427
7.02742
8.36849
7.41566
9.24985
7.76934
6.79952
8.27572
9.60653
8.25005
7.15443
7.72469
7.82733
7.73437
8.25487
8.97204
9.05184
7.78518
10.9932
9.35305
9.81303
8.88792
9.23399
6.95026
8.0452
10.9754
7.14493
7.16818
7.60824
7.81636
8.04286
7.53199
6.63413
8.20331
6.8681
7.39963
9.35241
8.679
8.35474
7.26568
6.53119
7.61479
7.07452
7.09046
8.98437
6.96051
8.36961
7.84095
8.63511
9.39682
8.42892
8.12865
8.24559
7.83775
10.7566
9.81826
7.5154
6.59068
8.12372
8.47656
7.54046
8.39827
7.56206
10.0341
7.3498
8.05247
8.71675
7.89474
7.58616
7.21548
7.96495
8.75088
9.39853
9.68036
8.51044
7.22475
7.77591
7.95791
8.43753
8.46704
8.16749
7.50365
10.7245
8.73301
8.00138
7.21656
7.09107
8.02079
7.8188
7.04916
10.8066
7.69548
6.80116
8.30829
8.36787
8.3314
7.49427
9.44955
7.89428
8.04094
7.90992
8.08488
7.17944
7.38771
9.01048
6.92182
7.64653
7.961
7.81606
8.8369
8.36617
6.85562
7.36672
7.48025
7.45199
8.51839
6.44756
7.82708
6.92921
7.94467
6.9598
7.73976
9.228
9.42531
9.71654
11.3364
9.46665
7.13278
7.56575
7.98938
7.78581
8.31615
6.79505
8.25906
7.24291
10.6761
8.91242
7.85386
7.88682
8.31798
6.86613
8.12882
8.16483
7.65508
6.80242
7.66272
7.64554
9.44933
8.50188
9.26906
7.3855
7.74656
7.29448
9.47784
9.26724
8.37189
9.76426
7.83024
9.17103
7.23194
7.7798
8.40974
8.24828
9.16049
7.00492
6.79959
7.75879
8.59583
7.38728
9.37082
9.53643
8.0543
9.31624
7.63105
6.99136
7.6427
7.09321
8.64805
7.95787
7.74618
7.41408
7.14054
8.12539
7.5514
7.63244
8.62528
7.00103
8.11413
8.81832
9.25787
7.33042
9.65918
7.50794
8.31328
8.62291
8.06799
8.18823
8.08507
10.0989
9.73626
10.9499
7.35633
8.92589
6.84997
7.78775
7.70193
7.2098
7.41138
6.95369
9.6945
8.0211
7.50247
9.50183
8.41912
7.11853
9.10783
9.67802
8.20705
7.41068
8.20978
6.81519
10.1734
7.54143
6.92762
9.46085
8.16603
7.75851
6.93691
10.0339
7.68513
10.6196
8.80653
9.17236
8.7269
9.67666
7.69873
7.97839
8.08506
10.0327
7.4667
7.81059
8.14798
8.37032
7.70778
7.9038
9.06064
7.21228
8.16563
7.36086
10.4667
11.4148
9.33746
8.714
7.62671
9.02254
7.42533
7.35776
8.32548
7.31743
7.65377
7.65696
9.13971
8.45703
6.89282
7.73549
8.16425
7.66937
7.36713
7.49945
8.09814
6.72636
9.07286
8.54229
7.3421
7.21118
6.84844
8.12763
8.25924
7.62587
9.20753
7.10939
6.762
7.60185
10.1741
8.50651
9.07027
7.44904
8.49425
8.36021
7.98102
7.79078
7.39666
7.42065
7.26876
8.4032
7.82668
8.06015
8.17532
7.84556
13.0719
6.67686
8.28351
7.94612
7.42352
7.43047
7.67225
9.19318
7.15057
7.50162
7.197
8.79574
7.18889
7.33046
8.46946
10.6411
6.8146
7.74365
9.4763
9.11077
8.86716
8.44207
7.48364
7.97468
7.49934
10.2134
8.22698
8.4957
7.52921
6.87297
7.44671
8.25256
8.44603
8.18217
8.40027
9.81786
7.47454
7.33342
7.59734
6.84862
6.88672
8.94891
7.85438
7.83361
8.53381
7.76251
7.65098
7.74012
6.89185
9.39428
8.71935
7.07225
7.72669
7.60198
7.14111
8.47298
7.31525
7.8365
7.47514
9.15811
7.67086
7.58025
8.45926
7.97452
7.91955
7.51413
6.6809
8.55481
7.77812
8.21929
8.32294
7.61305
7.03161
8.27372
7.89127
11.0381
7.60102
9.93767
8.25453
8.43468
9.79703
7.32004
8.78652
8.20849
8.7482
9.56025
7.10427
9.29984
8.65408
7.69236
8.73235
7.14067
8.14319
9.12811
7.76352
8.08767
8.05411
8.63035
10.2199
8.37722
8.29189
6.74402
7.92365
8.96423
8.23261
7.98455
8.43385
6.77601
7.99955
7.37362
8.91214
7.76768
7.79305
7.68077
6.81446
8.70068
6.94977
9.79842
7.62373
9.37853
7.1687
7.83858
6.65748
8.47439
7.71345
9.09998
7.79318
8.72683
8.66221
7.21885
8.36241
8.79992
7.15417
7.59515
7.69236
7.35092
7.5443
8.28888
8.10147
7.37364
7.74955
7.72677
7.01959
8.18265
8.75787
7.24628
8.51634
9.38886
9.60803
7.64476
8.42774
7.58538
7.07883
11.3267
7.78257
8.6231
7.61056
8.02923
8.67908
8.66067
8.20336
7.12937
7.73018
10.6237
6.92265
8.37512
8.00346
7.54723
8.03943
7.05479
7.43829
11.8493
7.42085
7.54818
7.46872
7.41274
7.78059
7.29075
7.78879
7.57061
10.9465
9.00921
7.41856
9.19144
9.35179
7.95795
6.62666
8.25945
7.18748
8.43345
7.36261
8.70792
10.0357
7.48317
7.70031
8.18723
7.90443
7.44818
8.15601
7.99798
9.0835
8.49073
8.31914
6.93971
8.11233
7.29385
7.79222
7.39535
7.00638
10.6105
10.4431
8.84466
8.02181
7.52661
8.5744
9.15867
8.48509
9.27774
7.62091
8.03719
7.25544
9.83419
7.55629
8.02925
7.47778
11.0769
7.47349
7.71423
10.5927
6.6281
7.38793
8.4949
7.66859
6.93166
8.4833
7.31568
10.0992
8.05691
8.18783
12.1204
8.32904
7.26506
9.21329
6.87091
7.60421
7.25458
10.1172
8.07551
8.59906
8.06696
8.3062
7.9058
9.07946
8.6846
8.96094
6.79281
9.16
8.03865
8.36839
6.95328
7.40613
7.79931
11.6908
7.53349
7.4391
7.35203
9.09748
9.59641
8.4847
7.67882
10.9199
7.16185
8.03101
7.11293
8.33645
8.41693
8.84033
8.13504
6.98384
7.05566
10.863
8.55367
7.73051
8.39614
7.51103
8.4093
7.25542
7.56415
8.88861
9.84481
8.38976
6.98283
9.19438
8.44669
8.6474
7.91761
9.07367
7.42793
9.2604
6.61473
7.16136
6.65007
7.42836
8.27098
8.82724
7.93701
9.04671
9.10207
8.93721
8.00203
8.56159
7.4456
7.21263
7.21281
7.71048
8.1254
7.13065
10.5544
10.606
12.2899
10.7352
8.88531
7.38846
7.90794
8.36096
7.22263
8.41058
7.0516
9.00231
6.75269
7.59537
7.28403
7.88821
7.76265
6.71182
7.22137
8.96859
7.12966
8.26782
7.55388
8.02877
8.8451
7.48438
8.76357
9.70411
8.2541
7.66428
9.83769
7.5819
8.39283
9.17114
7.29837
8.36113
6.89235
8.83404
7.33032
8.96881
8.05466
7.94978
8.8778
7.81329
7.46658
7.73947
8.03434
8.43838
8.1618
8.49663
8.89928
9.70776
7.93373
7.00347
7.48887
8.43018
8.60767
8.90505
8.04798
7.19005
7.88356
7.19443
9.06879
7.37284
9.53215
8.02734
8.02771
7.2254
10.1502
6.9919
7.8028
10.7133
8.02646
6.91118
6.95142
8.65952
8.00808
7.00102
8.65061
7.92883
7.66474
9.02865
7.4098
8.30324
7.03445
7.99005
9.08526
7.00551
7.31612
8.22623
6.64237
7.34471
8.73871
7.61681
7.66501
8.13024
7.44968
8.22329
8.74581
7.04235
7.6261
7.15289
8.32129
9.13891
6.71764
8.06516
6.63074
7.40323
7.39857
7.44642
7.36468
6.57199
7.79395
9.81926
7.74887
8.24607
6.67691
6.97522
7.16747
7.20423
7.89029
7.57096
7.58471
7.9601
8.39307
7.27292
10.0932
7.63728
7.38928
7.19423
7.08509
7.76728
7.28936
8.0474
6.41523
7.23534
6.80414
6.90831
7.99377
9.06443
7.90571
9.86634
6.56794
6.11632
8.25867
10.1601
8.11226
8.32935
7.28499
9.73233
8.21719
7.63361
10.2218
7.38636
13.0869
6.7405
9.1098
9.40519
7.17414
8.84265
7.9856
8.60387
10.2273
8.46501
8.18706
7.31222
9.65632
8.24847
7.35746
7.73382
8.02327
7.54408
7.44006
7.54052
9.47435
10.2637
7.13704
7.86913
7.4817
8.57712
8.98524
8.08355
8.56308
8.99353
8.10948
7.62602
8.07356
6.60422
8.71654
6.84109
8.94135
8.03977
8.43469
7.8382
8.11461
6.71938
9.52642
8.9455
8.0194
7.37328
8.29979
8.80855
10.3249
10.7331
7.83987
9.18791
6.80703
8.06275
8.10355
9.23539
7.31935
10.3626
8.36989
8.64177
7.892
7.30872
8.52946
8.34587
6.99233
7.83168
7.13276
7.53317
8.29919
8.66175
7.91572
9.61187
9.26561
7.55453
8.6544
7.65493
8.54477
7.87001
8.33579
7.64906
8.99617
8.22319
6.90364
8.89974
7.28879
7.34972
7.88845
7.50644
7.84321
7.73447
8.41888
8.28931
7.91833
8.14435
7.84792
7.67061
9.89215
7.79251
9.20705
9.34818
9.62888
8.53146
7.92874
8.71127
9.54881
6.96239
6.96987
8.54806
8.60335
7.10387
7.98418
7.32163
8.11597
7.42279
8.12584
7.34883
7.65831
8.52968
9.23047
7.54774
8.32948
8.6763
8.58078
8.63084
8.09224
8.02473
11.0751
9.03922
7.2299
7.8039
6.63817
7.30887
7.04215
9.07953
7.43681
8.46664
9.16439
6.86457
6.79987
8.33215
8.97964
6.95595
6.92811
7.96881
7.58425
8.09192
8.65569
7.60317
8.79102
9.27766
11.4107
8.42859
7.43978
7.95518
7.17402
8.2897
7.64364
8.24359
6.91546
9.81484
7.48548
8.23402
7.41358
7.07432
7.23936
8.19219
8.56853
9.756
7.27379
7.20151
7.11379
8.68706
7.79512
7.01121
8.42764
12.1236
7.74043
8.12394
7.88554
7.21751
8.85927
8.33299
7.88906
9.48443
8.06926
7.52879
8.36699
8.23294
10.2766
7.4467
7.97671
10.8884
7.26594
7.60118
7.26312
9.1925
10.1218
7.62395
7.93421
9.24103
9.69464
6.85339
10.6377
8.03465
8.71455
7.56748
7.96703
8.34801
6.98283
7.10425
8.85228
8.22301
8.71921
7.94539
8.12139
8.15615
8.02903
10.9414
8.91566
8.19895
8.345
7.65044
8.27505
7.37587
7.5374
7.54172
7.30089
7.31307
8.52727
8.0027
7.08281
7.473
7.48541
12.0203
8.3721
7.76862
7.16296
9.94811
6.58059
7.44134
6.87936
8.09964
7.82948
7.75074
9.38529
8.15497
8.14067
7.89489
7.25613
8.32637
7.69681
8.42343
8.86626
8.00227
8.29248
7.90069
6.9654
6.84985
8.48268
10.6136
8.48836
7.69076
7.48123
6.63889
7.3739
7.82824
8.58406
7.40538
8.07783
8.39111
7.72287
8.80207
8.11782
7.68236
7.50914
7.60013
7.84522
6.90391
7.63223
8.15088
6.90008
7.65102
7.9105
7.29504
7.18938
9.12741
8.30405
7.82945
7.63452
7.97215
8.69363
7.50544
10.6215
7.93453
8.33541
7.25153
8.77781
7.0297
7.18711
6.86268
7.53522
8.06079
7.67813
9.11855
7.39753
9.12273
7.33294
7.40563
6.93431
9.42672
7.13232
9.17761
7.36269
8.37838
11.6975
7.88062
6.98963
9.61167
9.26202
7.0346
8.16443
9.08118
13.8156
6.99177
7.65887
7.08772
9.08074
9.12677
7.63942
7.59174
8.38264
7.37057
8.16673
7.62516
8.61871
11.3165
7.66424
9.16096
8.51445
8.38936
9.56726
8.24616
7.55727
6.78502
7.43397
6.95691
7.73621
8.00191
8.07783
7.72013
7.53897
7.69522
7.36837
9.43672
9.57507
8.15595
7.67445
7.83328
8.99992
7.05881
7.60436
8.35862
10.9382
8.9937
9.33003
8.22675
7.38479
7.75125
7.56356
8.90096
8.1601
9.21482
7.69011
7.57702
10.3982
8.37468
7.21485
7.64534
8.11147
8.54108
7.79716
7.88156
7.28716
7.47776
8.38846
8.71099
10.0419
8.14611
9.32168
8.04337
8.27513
7.8722
9.95006
10.5289
7.78643
6.20814
7.07266
7.93117
7.10875
7.36596
7.85435
8.72053
7.47577
7.65376
7.79286
7.89752
7.26747
7.52306
9.6959
10.6575
8.28353
11.1015
10.5373
8.76619
7.82963
9.88997
8.42432
8.27474
7.38499
9.61036
9.60895
7.14753
7.84013
8.20789
8.17556
7.56865
7.90483
6.82571
8.19856
8.32304
8.04132
10.6385
6.83229
7.65773
7.99044
8.61167
7.95148
8.20712
8.69864
7.5373
7.37539
6.92016
8.25284
7.82672
9.19625
9.07997
9.55599
8.33795
7.10807
7.26164
7.69963
8.5122
9.18564
10.1077
7.63037
9.79773
8.63759
6.76232
7.00828
7.89828
6.76933
7.63727
6.65363
8.5986
7.55873
10.1939
10.313
6.97499
7.31859
7.44087
7.2474
8.42817
7.73831
8.70892
7.56835
7.96256
9.90599
11.0866
9.42662
7.43512
7.66966
10.0839
7.99022
7.92686
7.53171
8.53724
8.5545
8.44635
8.20126
8.05633
8.20371
6.65378
7.33098
8.12577
8.77102
6.96887
8.03023
7.9709
7.5487
7.23543
7.60948
8.60732
7.29028
6.9874
7.85359
8.51423
8.36445
9.98508
7.39655
7.88055
9.25419
8.84914
8.21454
7.54843
9.59792
7.11243
7.34072
8.02256
8.68749
8.39446
7.96218
6.93431
11.1152
7.36403
7.30162
6.8587
7.84588
7.27739
7.03207
8.95188
7.98434
8.85937
7.30665
8.7229
10.6337
8.19587
8.37724
8.30936
8.96812
6.47231
8.72428
7.07333
7.94703
9.66688
7.57459
7.55772
8.39183
8.10696
7.74946
8.84799
10.7682
10.6276
8.61312
7.76221
8.62148
6.86652
7.54586
7.37316
8.56416
7.79671
7.71726
7.73614
8.52459
7.65843
8.23329
8.48405
8.26705
7.11225
8.00006
8.12724
7.91845
8.2836
7.28293
9.9351
8.93939
8.11316
7.1495
7.64043
8.4318
7.762
8.43034
7.48969
8.85816
10.419
7.23474
6.6021
8.16086
8.7154
7.67732
7.93212
7.69072
7.44317
7.96625
6.85792
7.51374
7.59248
8.21612
8.0446
8.06084
7.71776
7.75371
8.85762
9.06918
8.13446
6.77966
9.11271
6.67072
7.93865
9.1465
7.51731
7.22673
7.22768
7.30843
7.96777
7.52891
9.08604
8.63849
10.0234
8.71104
8.26624
7.15832
9.11421
7.04532
7.1498
7.63917
8.51537
7.57669
8.06573
9.3323
7.11626
8.22257
9.0451
7.94083
7.63921
7.61157
6.55636
7.69658
9.25735
6.49673
6.89447
9.97965
6.9711
7.85789
6.91046
9.08044
8.40173
7.88363
9.88523
6.56921
10.6231
7.88634
10.1443
7.36292
8.63396
8.9119
12.0024
7.36165
7.32134
8.35328
8.36246
7.35405
8.30803
10.3893
6.90109
7.64681
7.23738
8.15487
8.97133
8.1033
7.64361
7.07496
9.68546
8.63468
8.06189
8.26669
7.18634
8.74081
8.73683
9.018
8.32717
7.54728
7.23025
6.97282
8.06345
6.41624
7.54544
9.30708
9.83445
8.57052
12.1894
8.45532
10.8952
7.62314
7.6736
7.96221
8.53956
7.44919
8.31878
9.4097
9.27997
8.06135
7.68829
7.521
8.77125
7.35671
6.45293
7.6025
8.52686
7.08691
7.64946
7.97179
6.99548
8.7085
7.97342
6.83017
9.84585
10.9265
7.25532
7.53989
7.56904
9.12673
7.60355
7.86291
7.88041
8.84664
8.43581
8.5393
7.51982
7.58353
7.5862
7.96511
7.78588
9.62862
8.78627
8.32839
6.54763
7.26257
8.131
9.1959
7.55853
8.99891
8.17855
7.18285
6.9655
6.94725
9.69923
8.59253
8.18332
7.61997
6.80461
9.04375
8.02568
7.01122
7.84834
7.88288
6.88314
7.93285
8.53374
9.36522
7.34016
7.2472
8.88953
7.23517
7.45962
7.67685
7.54101
9.80233
7.39457
7.97551
8.28394
7.77449
8.09858
7.69244
7.5845
14.3367
9.73912
8.12281
8.089
8.37426
8.31622
7.41519
8.6367
7.71078
9.29172
8.82767
7.38952
8.85577
6.88333
7.78017
7.48944
9.79306
7.62048
7.34688
8.12926
8.45026
9.36918
7.70059
7.93557
7.43532
6.84086
9.06385
7.0656
8.84135
7.3165
11.1223
8.16529
8.2684
8.50199
7.38968
8.57084
7.98333
7.6608
7.20713
6.86151
10.0172
9.76999
7.7279
7.83182
7.23754
7.21288
7.80252
7.88915
7.66363
7.66382
8.54223
10.2232
7.45338
9.40071
7.77818
8.29565
9.79642
8.19228
7.12859
7.41906
7.16341
8.28257
7.89637
8.83036
9.12895
8.12865
9.34349
7.58169
7.98659
6.69775
8.13275
6.64271
7.15906
7.98862
7.42988
8.06378
8.04054
8.53328
7.38783
9.75332
6.72034
8.99379
7.40416
7.09896
9.81713
8.61156
8.99221
9.43059
7.70774
7.95842
6.39328
9.93413
7.26029
7.87407
7.66931
7.77114
8.74717
8.67497
7.28161
6.90759
7.1276
6.76829
8.21182
8.69657
8.80708
7.53983
7.82117
8.1365
7.76246
9.28746
8.36505
7.06408
8.06222
7.96735
8.47155
7.53457
7.401
8.6813
8.91207
7.72947
9.66419
7.49987
8.3467
8.72924
7.81302
7.88797
11.3548
7.88366
8.84988
7.34091
8.35611
7.256
8.28368
7.26729
7.12794
8.70893
7.45465
6.70311
8.813
8.84694
6.97572
8.19508
8.4633
7.28238
8.73651
7.39686
8.69108
9.08418
7.99144
8.54752
7.69042
9.1876
10.5451
7.59968
9.06547
7.43112
7.97688
8.71603
10.4292
7.55899
8.16386
9.43343
8.77229
8.34572
7.50546
8.17958
8.85353
7.0324
7.12542
7.8572
7.87217
8.33017
7.5812
10.2135
8.26162
8.56847
8.20819
7.63678
9.67379
9.05342
7.57038
8.92943
9.42738
7.20753
10.3138
9.36103
7.76432
10.9595
6.95465
7.60588
7.74186
10.1848
7.56946
8.52662
7.40036
8.19999
7.58636
9.02086
8.03008
8.37833
6.81383
7.25909
8.47393
7.70914
7.60417
7.42732
8.07774
7.648
7.01076
6.4345
8.58759
8.25864
8.1492
6.81289
7.37279
7.14571
7.41722
7.95987
7.50821
9.01802
7.28846
7.22353
7.20975
8.0333
7.64638
7.42895
8.2877
6.31423
7.56871
9.50619
7.72007
8.26591
10.7598
8.53631
7.99402
8.26084
7.89887
7.89251
7.32536
7.85067
8.32435
8.22091
6.83243
7.93961
8.24276
7.36147
8.2239
7.83912
8.84643
8.01825
7.25687
7.89914
7.77436
11.1153
8.28348
7.19821
6.96421
8.3809
6.59897
9.72441
7.40597
8.48143
9.54381
8.46894
7.66942
7.33556
7.74336
7.22007
9.0991
7.88356
8.26952
9.24783
7.54902
7.63165
7.95648
6.88191
7.09042
9.604
8.85524
8.36354
7.06217
7.59829
7.70319
9.07481
7.25615
9.02868
8.72038
8.79458
7.76229
7.38073
8.11115
8.82285
8.17698
8.16442
8.82791
8.14368
7.53084
7.3353
6.55172
8.6946
7.06779
7.66977
7.03301
7.15866
7.58455
7.7014
7.41819
6.82469
7.41491
7.49868
8.29298
9.72024
7.80965
9.96982
7.90754
8.027
8.62021
7.59755
9.46231
8.18501
8.08261
7.51247
8.90654
7.30423
8.75709
11.2987
8.6496
6.94791
8.5471
7.45457
6.70667
7.89049
8.66486
7.88815
7.0996
7.66608
11.3151
8.14894
9.39149
8.9753
10.131
6.78646
7.91991
6.98102
8.32637
8.10007
9.37417
7.57008
8.32535
8.67319
8.62673
8.4683
7.25041
7.91801
7.35866
7.69443
7.86129
7.29635
7.72831
7.96832
8.52188
8.07906
8.07554
7.75132
7.55418
9.16289
7.00242
8.78309
7.02562
8.61311
7.78499
8.91618
8.35025
7.70964
6.81075
8.78345
6.89098
7.12438
7.36739
7.46989
8.49856
9.19116
8.13267
7.24975
7.39142
6.36271
9.50109
7.91259
7.13329
9.71087
8.26783
7.0737
6.8101
7.24848
9.68726
7.35386
6.61666
9.28615
7.19172
8.77139
7.08313
6.65497
7.84887
11.81
8.02407
8.31151
9.89473
9.92326
8.9701
7.2402
8.71149
7.26472
7.08984
11.3596
7.49176
9.23099
9.58168
9.14913
7.85884
7.40502
7.36402
8.28343
8.20852
6.96649
8.2157
7.57785
11.9313
10.7351
11.5465
8.32537
7.75662
7.41653
10.8715
9.47825
7.92181
7.37994
7.62077
7.99217
7.5812
9.04619
6.87189
8.24184
10.0269
9.1468
8.28404
6.8095
8.12958
7.51159
7.83694
8.12577
7.83983
6.62612
11.1185
7.89399
8.72584
9.09294
7.82633
7.88085
7.43586
7.66528
7.59467
7.95697
7.63059
6.93809
8.51242
8.06094
7.58063
8.47636
7.72333
9.22442
7.42954
8.00663
7.25166
6.69202
8.45755
9.34266
7.20932
7.82972
8.48361
7.22093
8.55843
8.92881
9.68063
7.7912
8.62741
8.10812
7.69855
9.81575
8.33742
7.18469
8.29286
8.33213
7.73661
10.1683
7.69093
9.22001
8.32793
7.17481
8.46499
8.18239
9.21425
7.23315
7.61974
7.69609
10.7183
7.70032
7.29953
7.47446
7.67045
7.2419
6.30068
8.29165
9.28558
10.697
7.01397
6.91567
9.85394
7.8154
9.35656
7.27675
10.1817
7.19284
9.14909
8.16812
8.05558
8.09915
9.02186
8.55532
8.15655
8.34739
8.96294
7.44054
7.86395
8.34974
7.31201
6.66634
8.69121
10.1801
8.22187
7.86725
8.36619
11.0336
7.46713
8.5263
7.58063
7.5875
7.74736
7.36684
8.25773
8.19281
7.41576
8.14318
7.17432
8.16844
8.33875
7.29006
8.0004
8.47515
9.57539
7.23684
7.53761
7.2979
8.92903
8.09098
9.30845
8.43767
6.82939
8.35299
7.94709
8.0898
7.32884
6.46333
9.32069
7.73252
9.87685
9.13562
10.9412
7.55607
9.21511
8.18779
6.93917
7.35559
7.93871
8.30167
7.03004
7.4997
7.34353
7.71971
9.7075
7.01125
7.40801
7.51642
9.84902
7.02694
8.13038
8.58809
7.86507
7.46165
8.35832
8.51199
9.09757
7.95732
6.91737
8.42826
7.91851
6.9612
8.19493
7.64183
8.11444
7.70699
8.80719
7.9065
7.93124
7.65775
8.48103
8.44227
12.106
7.6405
7.31852
6.73617
7.35196
8.15447
6.80716
9.29131
7.18054
7.6358
7.37115
8.10422
7.42886
9.11626
8.08785
9.45435
9.35836
8.05913
7.84903
7.29182
9.09496
7.06056
8.54974
7.75507
7.9956
7.6128
8.37941
9.75574
6.8315
11.2573
7.2782
7.15613
8.20642
6.65881
9.44751
9.91165
7.63887
7.78603
9.73161
8.34981
7.37515
7.06268
7.77922
8.14556
6.56648
7.72365
8.14911
7.64014
9.00677
7.20384
7.89019
7.70877
7.00784
9.254
11.7717
7.79506
10.3447
9.89462
9.9249
8.5909
7.21671
7.17214
8.37588
6.879
8.18837
7.58535
9.13643
7.90514
7.13773
7.18292
8.0025
8.5402
6.87419
7.17093
8.77409
8.15107
8.48316
7.79232
8.04417
8.36065
7.35858
8.19084
8.38027
8.07594
8.74427
8.00979
9.08017
7.59359
8.04292
7.45182
9.02406
7.53657
7.45774
7.91954
8.42797
7.55478
7.85582
8.76499
8.32918
7.29618
7.47739
7.21324
7.13787
7.67688
7.1307
7.8531
7.31974
7.67457
7.93964
9.42184
8.95851
7.75304
8.07951
7.38616
8.52385
7.46361
7.6166
7.19477
8.05614
6.93038
6.79304
8.0463
7.91526
6.92589
7.73885
8.79849
7.36781
7.70097
8.15534
8.77615
7.21876
7.27186
8.63551
7.70845
8.40641
7.00412
7.93979
8.71493
8.119
7.45594
7.86655
8.36547
8.21989
8.479
8.16788
9.62071
8.81603
8.09632
7.77689
8.08661
8.46209
8.13546
7.81463
8.07742
9.01487
9.15157
7.19876
9.532
7.79542
11.4042
10.3085
9.13246
10.2453
9.55978
7.22523
8.96144
9.55534
7.13821
6.87282
6.94254
8.35635
7.79386
8.38236
7.29214
13.119
8.04482
6.80928
6.78939
7.27037
7.02581
7.26074
6.90259
9.09865
6.9093
8.13382
10.6898
7.90178
7.15714
7.61027
8.59854
8.20642
8.08925
7.38277
7.71734
8.10128
8.16977
8.05339
8.37348
8.19789
7.70617
7.8937
7.34524
7.76015
6.86945
7.13728
7.4999
7.84813
7.63415
7.96972
9.63819
7.2008
7.35191
7.73847
8.46792
7.45464
6.98126
8.75216
7.61561
6.93661
7.632
9.45893
8.61428
8.41972
8.16477
8.14959
7.36565
8.01629
7.78284
9.11743
9.27046
8.72748
6.85171
8.24347
6.81922
7.86507
7.61238
9.18994
8.61339
10.7542
7.53389
9.03647
8.85857
8.80917
7.62801
9.8559
7.42768
7.12576
8.98942
7.60621
7.17154
8.91034
6.8599
7.22484
8.7744
9.42162
7.60541
9.42282
8.1776
6.93545
7.25002
7.29867
6.72689
8.77169
7.8986
8.59008
7.75509
7.12948
7.57039
8.12813
7.40837
6.99479
9.20672
9.95639
8.2956
7.85792
7.36996
11.0468
8.39043
8.26275
7.80433
7.66247
8.03307
7.43838
8.51039
8.5028
8.6934
7.82365
8.08609
7.73456
7.94888
7.78809
7.0299
8.62468
8.12912
7.49355
6.93259
8.34996
7.87575
6.79881
6.89839
8.05936
8.05417
7.83098
7.68353
7.10663
6.76156
7.22479
7.42933
7.04432
8.03687
7.48575
8.1371
7.68769
8.74075
8.04896
7.05861
7.18701
7.62217
8.33086
6.90668
7.73039
7.75141
7.54126
7.77443
9.42666
8.52089
7.81689
9.5171
8.13135
8.58792
7.50434
8.07032
7.72971
8.6172
8.50123
7.71847
10.4536
9.7688
8.33482
10.0116
11.1637
7.13672
8.0051
6.54039
10.2364
7.27023
9.69785
10.2433
7.63854
7.90475
7.48362
8.70239
7.57375
8.0195
7.96442
7.43147
8.55323
8.41666
8.44279
7.50735
8.09651
8.31801
10.3411
7.17866
7.21671
7.33986
8.04416
7.39566
9.59446
8.96732
7.93442
7.14076
9.02433
9.48484
8.37482
7.54676
7.11037
9.65394
9.55669
8.58068
7.67909
9.74453
7.4344
9.74148
9.42682
8.26607
10.3823
6.77069
7.28513
7.64993
7.99112
8.48276
7.44263
9.0878
7.97926
7.35136
8.3586
8.18087
8.71681
9.83506
7.16163
7.60683
7.61635
9.05058
7.76753
7.62061
8.97489
7.58613
7.63139
8.12115
8.28312
9.25473
9.46423
7.63509
10.7968
7.68933
8.45463
9.05213
8.63173
7.81971
7.26012
7.99546
6.65544
9.32137
7.60829
9.68072
7.8441
7.28674
7.72932
7.86452
7.24273
8.33237
7.69208
8.08585
7.12725
11.3543
7.20097
7.38391
9.18291
6.89932
7.48761
6.9944
8.06204
7.45793
7.65522
8.08091
8.06563
7.57537
7.88699
8.66323
6.6299
8.03219
7.39603
7.22752
7.70567
6.75311
7.64609
8.01138
6.29079
7.00309
7.66957
6.90381
7.07735
9.25938
7.89906
7.71926
11.8594
7.59153
7.74621
7.69268
6.7713
6.95219
8.36645
9.1798
7.83576
7.62307
7.37519
8.58753
7.4946
8.39519
7.24278
7.42072
7.50853
7.08807
7.93665
10.0992
8.46724
7.49471
8.07562
7.97676
8.43332
7.0116
8.63919
8.702
7.37478
8.66984
9.76741
9.38796
7.15303
8.46944
9.46997
7.94886
7.84953
10.3767
6.73845
7.23381
8.58563
8.1377
8.35014
7.5664
7.82006
7.4167
10.1415
7.6863
8.41457
7.15205
7.63001
7.41014
7.33436
7.71177
7.66357
8.21304
11.7425
8.42731
7.13753
6.81107
9.77611
7.25882
9.5284
8.31288
8.39678
10.7229
9.12032
7.36875
8.95631
7.50199
8.76384
9.51998
7.94132
9.2959
7.20717
6.65874
7.63818
8.0356
8.44671
6.91126
7.14655
8.35451
7.83667
7.84262
6.94705
8.22306
7.53913
7.82891
8.4796
10.0806
9.69208
8.3754
7.49654
7.33032
10.6975
7.0829
7.6165
7.56953
9.77328
7.38424
6.86322
9.67209
8.42853
7.64555
10.3259
9.43077
7.148
7.26679
6.7084
8.30048
6.88456
8.31391
8.45672
6.61964
7.56737
10.0512
8.03991
8.19048
8.01401
7.08294
6.95564
7.6616
8.05861
7.81305
9.437
9.00586
6.67084
8.43159
7.55565
9.67142
8.23306
8.2725
7.87838
8.34272
7.84585
7.60496
8.72079
8.0523
8.50913
7.50367
8.52134
8.74986
7.3558
8.32448
7.15394
8.12501
7.39743
7.6942
7.51254
8.39431
7.40909
10.2246
7.23287
7.44069
7.404
