0.534869
2.00626
0.855966
0.634229
0.523557
16.6209
0.378922
7.46283
0.357336
0.402132
0.434776
0.495376
2.19001
4.14045
0.779634
8.11103
0.386952
0.386439
0.54654
0.510573
0.513833
0.44749
0.511704
5.773
3.06826
0.576485
0.466356
0.435563
0.500654
0.461138
0.382227
0.574565
0.528855
0.581071
0.597736
2.80509
8.43436
1.09391
0.529414
0.429452
0.490046
0.433626
0.380257
0.509471
0.466229
0.581835
0.456661
0.835859
0.851887
0.439895
0.542595
0.576511
0.517348
0.691457
2.46014
0.605454
1.98797
0.617609
0.60246
0.728136
2.44423
1.11874
0.420697
5.93115
0.930231
0.540271
0.451207
0.456857
0.530876
1.89168
0.653393
0.396451
0.383389
0.467024
13.1736
0.412388
0.547276
0.584625
0.490862
0.675611
0.559951
0.543244
0.497698
0.626741
1.06965
2.13591
0.564372
0.541907
0.424573
0.781503
0.385033
0.505385
6.25154
4.0579
0.470674
0.800976
0.489589
0.58992
0.306224
0.360623
0.433719
0.478093
0.503002
0.464179
0.428307
30.8861
0.499348
0.542162
0.307787
0.39128
0.912755
0.440952
0.671563
0.507051
0.455892
12.9597
3.98699
0.536731
0.481246
7.10163
0.525899
0.578543
0.658999
0.549543
0.686476
6.99305
0.740913
0.48761
0.541716
0.356767
0.454511
0.370345
0.366797
1.71967
0.291526
0.485584
22.2865
0.544124
0.961263
2.39952
12.9673
0.458904
4.05801
2.94254
5.62652
3.12407
0.428499
0.649955
0.622117
1.24978
0.53216
0.604597
0.72497
0.682677
0.476794
0.329773
0.427383
1.9965
0.394996
0.850244
0.388368
0.583026
0.518952
0.415471
1.04334
0.358513
0.617746
0.984376
2.12863
9.86875
0.681616
0.481607
0.427828
0.515812
0.621875
1.76628
0.593667
0.513155
0.730776
0.481856
0.438998
0.594046
0.482427
0.396963
0.995854
1.13144
0.492092
0.448309
5.68259
0.682442
25.4224
0.523319
0.461737
0.689298
0.674383
0.928397
0.467829
11.0831
0.498722
0.309455
5.56191
0.726793
0.457221
0.965587
6.75541
0.529841
0.365587
7.80093
0.523974
0.466339
1.36241
0.459648
1.51195
0.923982
0.318404
0.424938
1.86426
0.437372
0.466853
0.628979
0.559206
6.46302
0.383316
0.48635
0.474249
0.568301
0.336021
0.461168
0.398918
3.06875
1.92182
0.408315
0.711191
0.728727
0.419776
0.688706
0.679873
0.63296
0.446543
0.497698
0.519611
4.85133
0.328926
0.790473
4.76553
0.859695
0.494015
0.544176
0.544329
0.53104
0.534677
1.38881
0.328757
0.459249
1.97719
0.62443
0.473494
0.605839
0.323021
3.23771
7.95312
1.75116
0.527913
0.503672
0.857257
0.511776
1.77617
0.356599
0.480307
0.465429
8.85917
0.638838
0.409456
0.492791
0.451192
2.2205
2.70244
0.537548
0.620514
0.455743
2.28627
0.362419
0.606504
3.39887
1.51268
0.436322
0.416934
0.5557
0.368965
0.480075
31.9025
0.59556
0.471395
0.428002
0.54525
2.15471
3.24478
7.06118
6.52637
0.38051
0.507237
7.07123
0.924198
0.649461
0.401391
0.535012
0.552411
0.427984
9.05561
0.58939
0.42103
2.25425
1.88264
0.446501
0.69611
1.92353
0.549001
0.343247
0.451063
0.431384
0.437601
0.356009
0.523405
0.80622
0.504405
3.14642
0.472075
0.481077
6.56408
0.344032
0.41075
0.507562
0.335802
0.499647
0.345465
0.561738
0.520948
2.14216
0.363469
1.27938
2.51683
1.99877
2.75398
2.59322
0.32444
0.541747
0.582367
0.316019
0.634146
0.499185
0.527131
0.9629
3.43297
0.377715
1.75237
0.469392
0.383718
1.6239
0.682383
0.472737
0.364682
3.81697
0.649926
0.370014
1.12779
7.57067
2.88843
0.465186
10.0976
0.486177
0.447649
0.67287
2.35766
0.862409
0.650549
0.501301
0.711396
2.05261
0.480586
0.498737
0.440623
6.56548
0.483039
0.566391
0.472233
0.624982
0.464519
0.527759
0.533856
0.406496
0.483494
3.8985
0.532779
0.312063
6.27228
3.46436
0.337156
4.43815
0.328009
0.630094
13.6896
0.775963
3.14052
4.90782
0.389558
0.397638
0.58156
0.496183
0.536295
11.464
0.790643
0.334295
7.62898
0.377358
0.462601
0.638935
1.24188
0.751203
0.417626
0.450199
3.63753
0.482264
0.567931
0.522783
0.329841
0.514236
0.706262
0.395065
0.51909
0.523664
0.500569
0.678596
1.44791
0.533145
2.86197
0.388733
0.714297
1.13619
16.0257
1.41455
4.77228
3.64501
0.473596
1.24253
0.479285
0.537135
0.355619
1.05228
0.383651
4.56992
2.27185
0.633803
3.61855
0.949862
0.638156
0.564408
0.655619
0.50736
0.482628
0.433388
0.553422
0.582592
0.555485
0.438278
0.584514
0.358437
0.731212
0.519814
0.410061
0.46773
0.42867
0.609828
3.02228
0.649428
0.512401
2.33311
0.630596
0.588188
0.545037
12.9081
1.98097
0.617202
0.346346
0.498472
0.51153
0.493636
2.57377
0.42466
2.48218
0.433052
0.724059
0.455938
0.732832
0.304782
0.518022
0.469535
0.938588
0.470647
16.2364
1.76601
0.593938
9.93837
8.04054
1.10768
0.899134
0.298729
0.588821
0.659272
0.367994
0.420646
0.583668
0.506457
0.756564
0.457895
6.11119
0.469112
0.430281
0.480748
4.55554
2.47771
0.536207
1.49668
0.680808
0.477043
0.573374
1.09117
0.555651
0.682351
8.08292
1.15723
0.484436
0.453002
0.413832
0.897763
0.414888
0.42625
0.413614
0.677129
0.442765
0.330913
0.485405
0.815739
0.431043
0.369008
0.591122
7.23536
1.256
0.499006
3.96339
0.633276
0.417979
17.8594
2.85059
0.616097
2.14998
0.515039
0.465974
0.481202
0.812973
0.677671
0.404298
0.324326
0.675005
1.59575
0.552628
0.457011
2.76265
0.462784
4.28525
4.19077
0.605167
0.65782
0.52074
0.486767
4.00113
0.535764
0.459038
0.732901
0.649949
0.560602
0.464025
0.4812
0.454636
0.565835
0.471303
0.381458
0.578609
0.418174
0.604022
0.571046
0.539688
1.34863
0.508234
0.54392
0.47826
0.400731
11.1569
0.483475
1.13395
0.438599
3.90741
0.310961
0.715045
0.651284
5.3643
0.52392
0.712161
1.33409
1.37458
0.375754
0.591549
0.404047
0.401969
0.330137
0.489277
0.551739
0.399843
0.420732
1.49157
0.6011
0.481707
1.1772
0.471981
0.610438
0.831626
0.508379
0.555825
0.420557
0.508309
1.66341
3.98421
0.467849
0.655434
2.00062
2.70808
26.6075
0.424567
0.339849
0.522887
0.449256
0.403287
4.94729
0.513827
2.32009
2.75413
4.85305
0.800225
0.683069
0.447356
1.32793
2.7373
0.68534
1.68479
0.324261
0.33819
0.465084
0.324772
0.749398
2.43997
0.45386
1.44232
0.973125
0.410611
0.574694
0.555807
3.37532
0.395192
0.412013
0.59397
0.360751
1.47665
0.434129
0.495008
6.37616
1.76306
2.95148
1.2805
4.09761
0.333052
26.0683
11.1716
0.608365
5.0021
25.5322
0.400693
0.521795
0.536375
0.40189
0.467971
0.523913
0.450502
0.599618
0.844004
3.5678
0.536127
0.488439
1.14072
0.407855
0.509051
0.57357
0.367055
0.633505
0.428569
0.574509
4.57
0.365371
0.688099
0.634626
0.416714
0.592967
2.57521
0.509887
0.796986
0.467788
0.57847
3.46703
0.39683
2.99532
0.410882
5.97218
0.568881
4.36048
0.445232
0.630911
0.532452
0.58808
0.49426
0.680571
0.480603
1.47377
1.76221
0.447791
0.39698
13.4823
0.580291
0.505342
0.857658
4.77487
0.517313
0.371093
0.490525
0.618194
1.41811
0.352335
0.42108
0.599895
0.550659
0.454531
0.414138
0.468309
7.29882
0.531156
0.388532
2.53047
0.531009
0.471604
0.513752
0.502469
2.80465
2.29764
0.405835
0.542876
0.44579
0.541174
0.558108
0.438681
0.491922
1.48415
3.61247
2.07792
0.574864
0.634554
0.468733
0.684432
8.72607
0.461648
20.2319
0.38545
0.50402
1.22999
0.386729
0.622095
0.455198
1.09969
3.67908
6.03699
0.5185
0.364359
4.4323
0.324767
3.52826
0.424392
1.38663
0.467114
0.700301
0.675676
0.417467
0.464648
0.662893
0.473794
9.06832
0.53051
0.449178
0.500468
0.598062
1.09752
0.637924
0.520517
0.474737
2.32999
0.460674
0.573997
0.507878
0.572641
0.585002
0.50763
3.69884
0.420126
0.405515
0.703748
4.23165
0.527296
0.724847
0.419366
1.12656
0.391126
0.566402
7.10422
1.93878
0.525755
0.477304
0.975749
0.554888
0.399641
0.38885
0.384984
0.794447
0.457983
2.28445
1.39905
0.700408
0.330734
1.82243
1.3201
0.607448
0.423908
0.604685
0.961852
0.676582
0.44898
1.64645
0.417395
0.614744
2.51531
2.73471
0.446394
7.15983
0.422213
0.41061
0.489408
0.408619
0.438812
0.45335
0.580738
0.41281
0.438649
0.46666
2.42668
0.523667
0.400644
0.517152
0.4543
0.487192
0.342628
0.591092
1.04221
0.49215
2.84724
0.675445
6.82599
0.414684
0.402757
10.4293
0.523783
3.29604
0.567653
1.76255
1.63813
0.817516
0.519715
0.425792
0.409528
4.46098
0.559318
0.522206
0.748104
0.492268
0.641609
0.428021
0.411948
0.612701
0.624358
1.89416
0.487583
0.482356
0.433733
0.474243
0.432182
0.462291
0.505336
0.453325
4.1345
0.418253
0.539827
0.844773
0.484798
0.473804
0.442392
0.547762
0.702852
0.663959
0.582385
0.571935
0.385966
2.4762
11.8649
0.580175
0.51897
0.470341
0.517979
0.439864
0.911696
0.408494
0.626768
0.568939
0.724515
0.435594
0.486589
1.87551
1.55049
0.643255
0.384695
0.49977
0.364972
0.489743
4.07349
0.534953
0.814134
0.410173
6.52821
0.568687
0.923913
4.65138
0.504912
0.522437
0.534103
8.66272
0.408846
0.299326
0.39234
3.23073
0.483268
0.474977
0.452362
0.489718
2.29125
0.566248
0.503348
0.461889
0.436077
0.504088
0.442638
5.49523
0.436289
0.460571
0.350983
0.5311
0.538262
0.74389
4.52013
0.445587
0.36272
1.62118
13.2005
0.578591
1.36947
1.50169
1.28103
1.30995
0.480724
0.544539
0.548854
0.611642
4.1018
0.595611
0.591668
2.39986
1.83667
0.491864
0.41195
0.503882
0.336116
0.46838
0.372072
0.515413
0.385313
0.51662
0.425809
0.605752
0.608109
0.431548
0.424122
0.502251
0.60681
0.446672
3.31015
1.65685
0.634799
0.714873
2.84283
0.492205
0.416668
0.350494
0.601769
1.12371
0.791708
0.508944
4.60266
8.98322
0.507015
0.407531
9.28299
0.873573
0.477426
8.30412
3.01003
0.655741
0.383707
0.413903
0.509261
0.61253
0.536895
0.463594
0.437187
2.3925
2.71388
0.614591
0.870936
4.26345
1.24884
0.399119
0.328597
2.14536
1.90173
0.449158
0.498609
0.406201
1.91244
1.26588
0.669105
0.652495
0.374136
0.413449
0.614478
1.42877
0.316603
0.366867
0.485598
16.4386
0.422177
2.46139
0.498761
0.454191
3.37417
0.511972
0.457106
2.80435
0.428906
1.96698
0.534771
0.943434
0.279026
0.598392
7.29141
0.455298
0.653458
0.541388
0.415251
0.319966
0.413774
0.343165
0.447177
0.62315
0.505304
0.47012
0.519112
0.450368
0.526057
0.532771
1.41197
0.739858
0.716967
0.43431
0.610651
1.09481
0.605658
0.47365
0.412399
0.621189
0.486256
0.461648
1.82727
0.449823
0.511821
0.508712
1.53699
2.86336
1.67101
0.5697
6.75304
1.60675
0.71642
0.399396
1.03566
0.483326
0.472145
0.647777
0.517326
1.28425
0.386266
0.4123
0.324306
1.59747
20.9334
0.646475
0.665372
5.30439
0.815765
2.38895
0.782082
6.40864
2.30859
0.595158
0.486365
19.5887
0.443907
0.965458
3.60139
0.414502
0.61085
0.770027
0.543915
0.729678
1.72748
0.567854
0.420743
0.616566
0.510417
0.445792
0.552775
0.450402
0.521494
0.620871
1.94071
0.531738
0.512838
0.446634
2.12665
0.331802
0.526881
5.5965
1.19429
0.566932
0.603461
0.456184
0.640716
0.543628
0.550917
0.55906
6.60703
0.583023
0.500075
1.58112
14.8136
0.577483
0.409916
0.463904
0.727713
0.590436
13.6531
0.432667
0.403304
0.620174
7.80747
0.392607
12.9749
7.48112
0.4813
14.6783
0.423211
0.577466
0.54691
0.376661
0.846033
0.692477
0.719291
0.59194
0.497674
0.554851
0.455546
1.91264
0.539442
0.412302
1.533
0.414729
0.63952
0.544186
0.368592
0.664234
0.752808
0.554205
1.46654
0.728167
3.23858
1.8153
0.405745
0.694096
1.28843
0.800097
17.8022
0.303291
0.570383
0.303947
0.422244
0.397032
0.444352
2.03588
0.386405
0.615269
0.590919
0.538634
0.670905
7.92181
0.609486
0.367403
0.606295
0.379821
0.717532
5.09202
0.634638
0.441701
0.533738
0.422962
0.480475
0.562416
0.619603
0.580161
0.715783
2.69758
0.455549
0.404673
4.54658
0.381261
0.496551
8.65624
7.30347
1.94693
0.661719
0.508201
2.1728
0.4497
4.72497
0.697075
6.59046
10.1612
1.15054
11.3775
0.384765
4.4614
0.405035
0.4521
0.717438
0.399697
0.357351
0.521084
0.320686
0.530386
9.76685
3.82464
0.44903
5.65854
0.799234
0.610909
3.7251
0.750763
0.67355
0.555999
0.39522
0.466833
0.500772
0.473761
0.493846
0.408552
2.79403
9.96891
0.393966
0.400444
0.562706
0.45948
0.385382
0.585068
0.692883
0.388827
1.91418
0.392222
0.429187
0.459793
0.58332
0.4283
0.451284
0.489403
1.44265
0.511848
11.3752
0.550346
0.50051
0.48323
5.94263
0.372383
14.1504
0.42369
2.69587
0.399548
0.525457
0.642845
0.482301
0.483972
5.53041
0.493528
8.44973
26.8582
3.4358
0.510309
2.5165
0.554037
0.528133
3.43557
4.57973
3.35977
0.416857
0.332566
0.529423
0.444078
0.601956
0.567871
0.698375
0.515579
0.523677
0.499876
0.530997
13.855
1.37321
0.686788
0.554648
23.6201
0.57028
0.635997
0.561062
0.427948
4.62134
0.923033
0.572465
0.466928
0.54525
1.96823
0.489524
0.5196
15.6485
0.4267
0.695517
0.618691
0.60562
0.543243
0.509799
0.501591
0.667029
1.78945
0.369724
0.511417
6.44754
0.541897
0.387623
0.58711
1.73911
2.70264
0.372177
1.74332
3.49757
0.591965
0.557902
5.01326
0.763023
0.407339
5.97453
15.5732
0.516183
0.420837
0.342237
0.846966
0.339407
0.480962
0.493413
0.372091
0.583508
1.23234
0.856151
0.619741
0.425249
0.573544
0.482391
0.915085
0.667535
0.579757
0.441034
0.6845
0.478973
0.541462
0.416842
0.586699
0.435959
0.466139
0.296359
0.523044
0.353092
1.07724
0.669543
0.507913
0.386965
0.823142
0.542314
0.656708
0.998325
0.457197
13.2361
2.41374
0.397785
0.4154
0.751771
0.431697
2.91206
0.418122
0.623238
0.453834
0.453767
0.322946
0.397648
0.444646
0.427022
0.623381
0.395457
0.375166
2.76958
0.562613
4.47852
4.66014
0.397279
0.449678
0.370679
0.524528
0.330283
0.427273
0.754479
0.58113
0.408645
0.47247
8.59788
2.70778
0.547217
4.38046
0.499973
0.49156
1.9921
4.69083
0.514415
2.76974
4.74592
1.62724
0.509301
0.461157
0.567277
0.501358
0.372077
0.447259
0.684661
0.405036
0.881768
0.414398
12.7721
5.09283
0.397436
0.414672
8.79068
0.8288
0.416803
0.481084
0.622344
0.458236
0.469479
0.359434
0.900409
9.49646
0.478822
0.420601
0.637459
0.638968
0.519413
0.602673
0.493023
0.785937
1.73333
1.89522
5.1837
0.478236
0.332239
2.96347
0.848048
0.638633
0.419579
9.18313
0.565997
2.15955
0.43148
0.455041
0.330829
2.29391
0.536846
0.631184
0.422726
0.428988
0.447567
5.39148
0.40439
0.541916
0.565685
6.03339
22.4679
0.454974
5.94311
0.577135
0.628905
2.50602
0.49165
1.64561
0.66919
0.547686
0.39451
0.579211
0.523254
1.3423
0.358206
9.81518
0.558133
0.53391
0.56692
0.233962
0.445307
2.12035
1.28483
4.1182
0.453268
4.76467
5.18134
0.638756
5.21771
0.480889
0.487044
0.435225
0.769548
0.501859
0.428349
0.588594
0.431356
11.1576
0.604318
0.509642
0.731485
0.579231
0.206066
3.38736
0.800788
0.537288
0.437533
10.1778
3.55154
0.368257
0.355584
0.35006
0.435153
1.36798
0.542151
0.937843
0.372846
0.604387
1.92636
0.829354
0.503929
2.96034
0.610507
2.977
4.97827
5.23956
0.44609
0.630793
0.520357
0.598569
0.840087
0.499451
0.443632
0.447641
0.479642
0.411049
0.421541
0.4883
0.470032
0.407652
0.41812
0.988232
17.3574
0.614594
6.88195
0.737356
0.449951
0.489216
0.625853
0.442055
0.448785
0.585505
0.541614
0.373396
0.445143
0.493094
5.38785
0.546283
0.529901
0.402968
0.650705
0.432921
0.445429
0.415476
0.728088
0.56727
0.486123
12.398
0.431277
0.517865
0.589323
0.644893
0.834636
0.647732
0.507933
2.61309
0.580998
4.00845
0.433328
0.536947
7.82699
0.681421
3.02217
0.433288
0.774091
0.872719
0.339671
0.603202
16.3427
0.341433
26.7118
0.638771
0.481178
0.63623
9.19737
12.5259
0.524158
0.386475
0.69187
0.358456
0.582065
0.349433
0.466102
0.569205
0.340492
0.552263
0.721639
1.44229
0.388143
3.13003
0.521309
2.28756
1.5512
0.519488
0.788741
3.66466
0.658695
0.546644
3.52904
13.2424
0.578784
0.713676
4.80602
0.381198
0.583271
2.07353
0.393436
23.8632
0.38805
0.89551
0.398251
0.762962
2.49401
0.539187
8.80837
0.592037
0.333671
0.485582
1.03701
0.480675
0.534488
0.596425
0.46015
0.532279
1.1587
0.577757
1.03534
0.46085
24.5142
0.451908
1.90199
0.629276
0.495187
0.403071
0.589625
4.14813
0.607949
0.416285
0.876327
0.500926
0.401356
0.452842
0.446534
0.68008
0.547375
0.366212
0.60812
2.35324
0.438674
3.68386
0.455849
0.428952
0.937631
0.888626
0.956381
2.79959
0.422013
0.530068
0.518007
12.2093
0.560102
0.723347
0.510803
1.38849
7.98055
12.6643
1.90665
24.7874
0.672425
0.699379
0.521784
0.356904
0.363637
0.339504
0.433517
0.563642
0.448843
0.389787
0.516264
0.591907
0.668791
0.818823
0.451314
0.398126
0.469169
0.450621
0.451811
3.09348
0.477794
0.593211
5.27938
4.13462
0.475878
0.445086
0.83616
0.427408
0.565102
1.96257
0.451461
0.522507
0.470551
0.658621
0.533852
0.409081
0.403088
0.481625
17.6501
0.532997
5.88237
0.540292
0.45999
1.14029
0.563999
0.727989
0.55406
0.564184
0.696283
4.50921
1.72931
4.58109
0.4978
0.404191
0.58532
0.464337
8.62067
0.449747
0.372614
0.580235
0.465187
0.368577
0.525629
0.709933
0.575954
0.49315
0.630143
0.370389
0.545404
0.32995
0.398597
0.345051
0.408488
0.342229
0.765418
0.544121
0.58916
1.56724
0.404522
0.599637
2.25176
0.297808
0.443603
2.29414
8.62143
0.709051
0.399716
0.604046
0.877023
4.37805
0.48878
2.38528
0.506768
0.424835
0.517714
0.50161
1.02575
0.692134
0.506709
0.411707
0.554193
0.733061
0.650635
0.49546
0.477293
0.352948
0.36466
0.499648
0.566762
0.571922
0.40453
0.645687
0.514367
1.14434
7.87134
0.723405
0.438443
1.26642
0.339802
0.643688
0.55289
0.446655
0.469558
9.55428
0.508251
0.508229
0.523757
2.17535
0.649284
0.485142
0.397477
2.29703
0.754066
0.646841
0.470461
0.392391
3.87761
1.27367
0.621014
0.579235
0.564211
10.5073
0.601524
0.760294
3.23047
0.509753
0.767698
2.44501
0.549341
0.490264
0.788324
0.892442
1.94192
0.395055
0.453394
7.02982
1.00967
1.72166
0.816451
0.66037
0.43791
0.914653
0.467567
0.344066
2.41521
0.554593
0.657394
0.574783
9.43762
0.430434
4.15932
0.483728
0.457229
0.368768
2.47487
0.579647
3.67401
0.73372
8.68394
3.80272
0.365333
0.514223
0.583923
8.58447
0.514234
0.647352
1.91996
3.00071
0.830304
0.884245
1.12515
0.521099
8.9326
2.06995
1.92762
3.34203
0.397886
0.704867
2.2393
7.36974
0.637186
0.699234
3.14222
0.480332
0.535833
0.49335
0.444699
0.656978
0.806449
0.374013
2.25083
0.395498
0.556804
0.740343
0.4533
1.35927
1.94475
0.446218
0.558833
0.420821
0.417417
0.363433
0.644719
11.2479
0.892595
0.619034
4.36458
0.516772
0.725013
1.62917
0.640783
19.1657
0.358897
0.675901
0.513155
0.668156
1.62238
5.29284
0.434505
0.443464
0.398492
0.504327
3.79006
0.408135
0.513966
1.35934
0.469956
0.30323
0.375823
0.46928
0.749405
0.486008
2.4529
1.09741
12.6804
0.725718
1.95315
3.41305
0.466556
0.606831
0.353132
0.542785
0.497713
0.456037
0.612663
6.75308
1.07082
0.431924
1.10392
0.581404
1.53423
0.32737
0.582954
2.01162
0.584684
0.361545
0.632711
0.410474
0.46559
0.392642
0.475315
0.744236
0.543671
2.03516
0.380803
0.506949
0.492112
1.75179
3.31625
0.504843
0.377994
7.46421
0.619293
0.676591
3.0686
0.568062
0.782463
2.80268
0.465626
0.449655
0.445983
13.2378
0.483009
8.106
1.65448
0.47357
0.363858
2.1014
0.285008
1.79354
0.670998
0.606257
0.481535
13.5241
0.569784
0.500097
0.552599
0.499695
0.447979
3.72335
0.451599
0.568832
0.474608
0.680116
0.561259
0.495498
2.49209
0.755052
0.567515
8.73123
3.93607
0.581419
0.481851
1.05521
0.509865
1.24658
0.642948
0.562724
0.425412
0.443054
0.65742
0.548265
0.480314
0.410832
0.316555
0.510097
0.492752
0.624343
3.25111
0.603169
0.865709
0.560767
0.387959
4.87464
1.05608
0.610201
0.495582
0.475106
0.489684
5.20062
0.825325
0.648706
0.477222
0.651882
0.523969
0.559944
2.56724
0.683038
0.470931
0.448206
2.08613
0.53454
0.486515
0.418925
0.48313
0.480562
0.39157
4.38401
2.91237
0.547683
0.622032
0.545888
1.9926
0.348345
0.473149
0.469665
0.973412
0.505641
1.64798
5.27165
0.389902
0.354319
1.39839
0.741709
0.498454
0.548062
6.04714
0.487429
0.532422
0.613644
0.421113
2.06205
0.908782
0.431834
0.463394
4.06019
0.37991
0.39996
0.506512
0.558772
6.87167
1.17688
0.459073
0.451497
0.429808
0.314192
0.353627
0.361541
0.472391
0.482769
0.530975
0.440586
0.722314
0.344354
0.935494
0.300281
1.70005
0.342009
0.551656
4.14332
0.68025
0.393106
0.613265
0.523411
5.2482
0.978893
4.70692
0.566661
0.628983
0.338185
0.462429
0.34633
0.622786
0.55248
0.58065
0.378919
0.424153
1.94039
0.392115
0.650541
1.1955
0.392721
0.508208
0.489571
0.550065
8.28566
0.344107
0.466736
0.482957
0.538659
26.4275
0.288263
0.372048
0.565364
0.565686
0.453014
0.40501
0.475051
9.51767
0.456905
0.732267
0.359533
0.436687
0.537441
0.275816
0.362996
0.408705
0.662169
0.414188
0.535646
14.6851
0.484833
0.478511
0.439703
4.93534
0.490382
0.731592
0.581463
1.34792
0.645613
0.504694
0.667258
0.600328
2.69844
0.307722
2.89504
0.668711
5.5027
0.658822
0.516918
0.879539
1.36795
0.412996
0.824447
0.519092
0.410419
0.743904
0.601834
0.519715
0.526486
0.370117
0.3612
1.4914
0.637902
0.496549
0.413489
0.511684
2.20505
1.54749
0.453572
0.51818
2.43324
3.34808
0.38843
0.398816
0.437246
3.60298
0.469774
0.501131
0.624725
15.1733
8.71476
6.95064
0.478953
1.76478
0.618479
0.528302
3.45287
0.489512
0.457626
2.5675
8.46672
0.451205
0.649446
12.0336
0.529371
9.00745
0.30191
8.72467
1.49058
7.14485
1.58832
0.598249
1.94966
0.857265
0.528333
0.571731
0.507884
0.52049
0.475069
0.35231
1.24532
0.55733
0.553626
0.623227
1.47504
15.7987
1.69916
1.01599
0.557476
1.74082
0.782923
0.383801
0.529286
2.01811
0.483191
2.98927
0.35227
0.515869
0.530962
0.532271
0.776259
5.41482
0.433299
0.374617
1.31612
0.42784
1.21716
1.81303
0.588556
0.420448
0.566127
0.490383
3.42118
20.9796
0.455389
7.2948
0.504488
4.18818
0.548835
0.455973
0.408413
2.48778
8.54271
0.363048
0.465546
4.5025
0.727394
0.412476
0.547908
0.355016
0.478227
1.53633
4.44129
0.428067
0.556776
1.14516
3.08694
0.486784
0.561229
0.451574
0.649453
0.400728
0.349542
0.489863
0.931919
0.914335
0.412151
0.392133
0.368683
0.863386
0.538124
3.52491
0.441576
2.63182
4.71778
6.07822
0.529864
2.03369
2.24023
1.58558
0.387943
0.732114
0.457893
0.496583
0.569419
0.552573
0.396826
0.795077
0.429103
0.45899
4.9751
0.453516
0.49763
1.91873
2.75816
0.444546
0.761362
1.38141
0.567895
0.420343
0.406227
5.2168
0.398644
0.528917
0.410465
0.486113
3.80954
0.707254
13.407
0.655984
0.430984
0.606695
0.390229
0.406866
0.665344
0.490989
0.387877
4.13686
0.363193
0.523683
0.364322
0.405088
0.402793
0.547953
0.469175
0.627913
0.447772
0.428125
0.430508
1.6381
0.484956
0.366536
0.413856
0.584495
0.457375
0.372686
0.522
0.957036
0.450837
0.462102
0.624053
0.608215
0.425765
1.72894
0.77144
0.492312
0.525328
0.942247
0.371903
0.37181
0.800654
1.82318
2.51683
0.445228
1.30379
1.12707
4.00368
1.18883
0.481838
0.599953
0.366301
0.584461
2.42814
0.550771
0.573732
7.50061
0.647972
0.486046
0.452432
5.2604
0.899202
0.443021
0.434496
0.452307
0.76691
0.529592
0.311458
3.33997
0.500328
0.46208
6.56569
0.385936
0.650301
0.435937
0.406467
0.391017
0.408151
1.78138
0.7013
0.391474
3.36412
0.875043
1.32094
0.476167
0.518344
0.371846
2.06975
0.553396
0.396707
0.684914
0.595494
0.382186
0.58079
0.499383
0.433564
10.5154
0.40755
0.367803
0.516089
0.549968
2.71415
0.437429
0.733617
0.750295
0.755917
0.684522
0.700338
0.959543
0.484877
1.15105
0.584409
0.640165
0.688526
0.759948
1.19411
0.564548
4.60908
0.498067
0.522962
0.854425
1.57447
3.43858
0.498239
0.45662
0.562521
0.528167
0.606724
20.9306
0.468164
0.625277
0.485485
0.542803
0.456917
0.462389
0.379055
0.542316
0.401354
0.625854
12.7066
0.50146
0.371706
1.49465
0.496964
1.04177
0.364492
0.662155
1.07949
0.488634
0.520739
0.428389
0.63323
0.847754
3.80127
0.635391
0.948476
0.613054
2.34573
1.28958
0.541574
0.439227
0.370137
0.45747
0.409516
0.374233
0.381645
0.525243
0.530066
0.478676
7.27433
0.556686
0.505283
0.611498
6.23928
0.446708
0.583331
0.348819
0.752364
0.450451
4.29486
2.04976
0.394944
0.920097
0.368481
0.532033
5.63289
0.336197
0.457932
0.460352
0.462829
0.60151
0.443566
0.526489
0.484303
1.22072
0.451278
3.57061
0.585559
0.420827
0.511949
0.583042
0.636535
0.431791
0.544323
0.848993
1.13633
0.490506
0.555997
0.681796
0.548778
2.18238
0.602841
0.546162
0.524821
2.68058
0.601398
0.997456
0.372692
6.14978
0.428335
1.36939
0.488816
2.98277
0.487898
0.553766
0.4493
0.39714
0.464457
0.794583
15.736
0.624307
0.484154
0.875663
0.445473
0.596932
0.543446
0.626652
2.02328
2.99663
3.6817
0.687605
0.47383
1.17861
0.422439
9.30557
0.478122
0.413927
0.503008
0.540148
0.612769
0.348751
0.687675
0.45413
2.04939
18.4377
12.5067
0.539091
0.481288
0.616001
0.710869
0.424991
0.44886
4.33667
0.344495
0.664702
0.606233
0.450724
0.54129
1.44922
0.367647
0.570263
0.516318
0.609449
0.517942
2.77052
0.565513
0.518099
0.44744
0.542071
0.383359
4.45531
0.536277
2.39531
0.504801
0.787343
0.630517
0.373272
0.495913
1.17122
0.421982
7.88603
0.33157
0.547589
1.17214
0.413279
0.399716
2.96392
0.51917
0.833513
0.496844
0.453212
1.36671
0.553905
0.475271
5.49087
0.470663
0.945168
0.596317
0.719504
0.593592
0.431689
0.397282
0.410672
0.648049
3.91401
1.96569
0.649945
0.664562
0.364993
0.323971
0.473829
1.24495
0.685839
0.963283
0.505995
0.586969
0.504386
2.11397
0.416453
0.467193
0.516871
0.770608
6.9954
0.490267
1.23948
0.893561
0.663511
0.541573
0.417123
0.789833
0.380706
0.548752
0.534398
0.665645
0.447646
0.471626
0.565437
0.797185
0.48618
0.952328
0.442601
0.606459
0.972757
0.488889
0.416689
0.467264
0.395234
0.430772
0.548939
3.78176
6.0855
0.496713
0.376158
0.394805
0.635698
0.577494
8.39346
0.506524
0.472698
2.09079
5.32639
1.77034
0.516048
0.329993
0.49755
0.316888
0.645017
1.2691
0.396136
0.698794
0.488465
0.477038
5.16249
10.0088
0.516497
0.605844
0.331467
0.555153
0.494975
0.311922
0.427873
0.431755
0.685353
2.5034
0.947532
0.480035
0.434034
0.388102
0.409393
1.95264
0.594966
0.601004
0.875616
2.1299
0.481123
0.743958
0.476864
0.767274
0.409967
0.58621
0.492251
1.12771
1.25058
0.430607
0.601261
1.249
1.88507
0.465714
0.445626
0.544227
2.80329
0.493774
0.570386
0.568436
1.77097
0.57849
0.453051
0.343353
0.437448
5.12635
0.37738
4.32897
0.631124
0.76287
0.698848
0.711097
0.427297
0.56433
0.463397
0.364002
0.388096
0.43885
0.484733
0.725618
0.571115
0.463618
0.349814
0.6741
0.430252
0.432927
0.980791
0.391551
0.37489
0.712468
0.59747
2.25445
0.523521
1.80675
4.85651
0.497305
0.486101
0.486235
0.716228
0.507705
0.375583
1.11038
0.692087
0.448763
0.320792
0.416873
0.597429
0.622934
2.10722
0.971781
3.64587
0.453981
0.516965
7.34234
0.613364
0.428683
0.471722
0.581497
3.15186
0.973538
0.670249
0.447091
0.468089
0.792517
0.579487
3.41777
0.838216
0.485917
0.333731
0.502506
0.503398
2.04921
2.32147
0.748348
0.682072
11.7002
0.407698
3.51326
0.565115
0.511737
0.4538
0.453274
0.566063
0.579415
1.06003
0.530875
3.84532
0.482183
0.42266
0.612054
0.404134
0.424363
0.581369
0.409281
1.16215
0.49485
0.968423
0.44185
9.11329
0.956901
0.644641
1.54458
0.471784
0.789405
1.51705
2.72131
0.999008
0.74057
0.454755
1.53881
0.511673
0.591043
1.06805
0.51265
0.435694
0.3774
0.93582
0.677099
0.460729
0.410508
0.432003
2.71932
1.08543
0.582044
0.557828
0.400619
3.82263
0.49067
0.389104
1.62955
0.504333
0.285859
0.435003
0.370697
0.366156
0.394589
1.2169
0.906069
0.446806
0.410309
2.61631
3.58629
0.442721
0.594312
0.416445
0.47686
4.61033
0.498672
1.79707
1.51748
0.526289
0.51783
0.454307
0.323994
0.700702
0.502492
0.449846
0.540412
6.09783
2.18616
0.503776
0.493091
0.69673
0.428778
0.565057
8.45341
1.91621
0.36267
0.598838
0.284841
0.52339
0.344094
0.449549
0.402764
0.370581
4.84414
0.696566
1.59718
0.55318
1.03959
0.327391
0.606528
0.390686
0.570991
9.88972
0.408113
0.543227
0.386424
0.520644
0.4344
0.529664
0.375667
0.37455
0.660409
0.57058
7.88334
0.582321
9.75732
1.17636
0.537685
0.547285
0.488774
0.380186
0.583364
3.18412
0.432181
0.835878
1.45076
4.91882
0.650208
5.28895
0.654379
0.47801
0.936417
1.30862
10.0634
0.443192
0.423748
0.542666
0.607222
0.601011
0.579876
0.505525
3.48155
0.670816
0.41228
0.691124
0.456504
0.379784
1.12257
0.653384
0.528051
0.508842
0.416862
0.515815
0.413193
0.336203
2.03536
0.407346
0.555998
0.356502
5.65714
0.586828
0.428517
0.686213
0.433533
0.522644
10.6423
1.79928
12.5138
0.785378
0.382908
0.412666
0.420994
6.35308
0.553919
0.461703
4.78993
0.401288
0.466111
0.467705
0.401863
0.503893
0.722569
0.405258
0.747571
10.2298
0.547659
0.521057
0.781714
13.6969
7.62115
0.457891
9.35328
0.46135
0.762579
3.96428
0.468863
0.439664
1.13281
0.685973
0.486501
31.4924
9.79419
0.488765
0.496409
7.99612
0.487036
0.391333
0.745651
0.523651
0.41656
0.559168
0.592123
0.533542
1.8509
0.423691
4.44047
0.634612
0.798688
0.377512
0.573466
0.457102
0.46849
0.722237
0.517146
2.86817
0.612765
0.700571
0.639524
0.350989
0.442883
0.458737
0.365557
2.13951
0.855444
0.320966
0.631597
0.336838
0.511208
1.9052
1.07714
0.443506
0.421914
0.71696
0.555905
0.683561
8.49303
0.53807
0.467564
2.88298
0.572273
0.459933
0.460592
0.608996
0.444066
2.9441
0.426921
0.541305
1.87175
0.641448
0.478017
0.404078
1.05711
0.439763
12.9476
0.455856
1.56116
2.63537
0.474257
0.52288
3.92831
4.7701
0.544567
0.842655
2.70776
0.483951
0.462224
0.455886
0.4372
0.510095
1.73431
0.505345
0.334029
0.573111
0.365675
0.461603
7.09391
1.76902
0.474312
0.506408
0.432957
7.23034
0.387756
0.399873
0.917364
0.619424
0.401248
0.462038
1.48841
0.591706
0.574633
1.46795
4.82726
0.55843
0.45022
0.457155
0.38169
0.445566
0.329111
0.65865
0.337219
0.462823
0.506871
0.441715
2.13451
0.461885
0.441398
0.427135
0.339873
0.553686
4.18571
0.460654
0.533963
0.505133
0.677514
7.12031
0.413486
0.348218
0.385051
0.798726
0.524731
0.433336
5.57389
0.431696
0.498585
0.577169
0.464499
2.37143
0.423861
7.50803
0.359303
0.34085
0.636709
0.596277
1.72814
0.602259
1.05945
2.02092
1.46012
0.365274
0.532651
7.15964
0.716057
1.08044
7.58769
0.484623
0.289147
0.53382
0.628264
0.441091
8.61103
2.07829
0.724535
0.701987
9.11392
0.557295
0.365067
0.535191
0.402786
0.468178
2.07426
4.77113
1.72611
1.85033
0.535644
0.452227
0.375926
0.623865
0.550107
0.836154
0.647023
2.31244
0.672583
0.531266
0.633388
0.507227
7.46883
1.02959
0.296414
0.656779
0.593001
0.468728
1.8057
0.473434
0.42065
0.685695
0.637317
0.501013
0.653934
0.459902
1.49925
1.13354
0.662002
0.519071
0.675271
0.378087
0.366665
1.8706
2.35066
0.589521
2.27995
1.31586
0.514382
0.90869
0.489829
0.345679
2.22382
0.629323
1.99367
0.712905
0.416657
0.531911
0.594945
0.74686
0.448097
0.420512
0.54043
0.998287
0.636363
0.462434
0.577793
9.66069
0.608076
0.473061
1.21363
0.595729
0.44089
0.71187
0.558905
0.707519
5.03952
0.423141
4.25744
0.424917
0.906068
0.671843
0.416161
0.442171
4.54976
0.465578
1.20636
0.534889
3.81448
0.693792
0.668789
0.380535
11.828
0.515406
0.450064
0.423889
0.549861
0.37918
0.482592
0.483505
0.564624
0.425404
0.341123
0.400959
0.637392
0.429807
2.43303
0.463932
0.637095
0.438139
0.526383
8.8802
0.566165
2.13328
0.47962
0.513663
0.317069
0.588328
6.27609
5.11534
1.06464
0.616729
0.476627
1.63506
0.665886
2.86603
0.581551
0.428208
2.8367
0.447361
0.455334
0.958017
0.595973
0.40756
0.762276
0.587587
0.668078
1.19111
0.476675
38.6876
0.510991
0.633833
2.08931
5.5083
1.56197
0.436022
0.518194
0.330239
4.93434
6.74277
3.2987
0.427035
0.535949
3.9527
0.578661
0.391769
2.42835
0.446993
0.535476
3.19543
0.460599
3.00378
0.685292
6.04049
0.677199
0.452737
5.70342
0.340086
0.628241
6.70595
0.49306
3.9308
0.536422
0.679807
0.685663
0.455586
4.19353
0.77612
0.685597
0.391786
0.683361
0.745457
0.55
2.43357
5.43754
2.53889
1.0272
2.21147
0.674548
0.439649
0.539518
1.16948
0.348587
0.51989
3.18069
0.872925
16.6845
5.08169
1.72851
0.650807
4.95129
0.569708
0.593654
0.497842
0.373467
6.49483
0.732145
0.514246
2.74616
3.39429
10.3961
1.88407
0.53117
0.477272
0.411141
0.487863
0.487751
0.405867
0.426804
0.5381
0.825783
0.466216
0.645951
0.625346
0.879653
0.562571
0.397992
0.35288
1.30863
0.468169
0.582915
0.40566
0.975043
0.528319
0.348688
0.394235
0.571368
0.921797
0.404369
0.643071
0.522997
0.42225
0.513982
0.465208
0.561593
0.693733
2.89961
0.39273
1.41365
1.00174
0.83758
2.36787
4.96815
0.453803
0.522599
17.6957
3.45843
24.1492
0.432035
0.564796
2.48282
1.71208
0.370615
1.62586
16.473
7.17969
1.26854
0.507303
0.292594
0.66219
0.481847
0.628481
0.434027
0.362041
0.57094
0.429083
0.513938
0.402643
1.57887
1.56193
0.800279
0.650103
1.22076
3.97793
0.775228
0.678887
0.507744
0.847755
0.486913
0.584056
1.33752
2.9684
5.29367
11.7525
3.01173
0.414957
0.513532
0.430358
0.473498
0.560246
0.671284
0.56166
0.639412
0.50651
0.439636
1.8589
2.74041
0.49075
0.689547
0.530313
0.989154
1.38979
1.75065
0.575186
0.460004
0.460108
3.79662
1.23565
0.308773
0.4215
0.651189
0.425842
0.633335
0.545092
0.678942
0.551631
0.378859
0.528413
1.71977
0.529305
0.699845
0.456527
0.667543
0.797507
0.581178
0.431973
0.36582
0.505912
0.789847
5.15487
7.04363
0.443296
3.46898
0.435812
0.8319
0.623174
0.465955
0.801184
0.513488
0.538194
0.578364
0.540579
0.531488
1.22182
0.654015
0.44566
0.413434
4.86442
0.625234
0.710343
0.492942
0.667306
0.449093
0.678617
0.481411
2.8274
0.42943
1.63272
0.668566
0.432766
1.0218
0.353175
0.487836
3.48744
1.20316
0.709685
2.07354
3.40864
11.0576
0.403485
3.48805
0.470761
1.08068
4.30185
0.597363
0.680665
0.424533
0.543403
21.103
4.13595
0.41962
5.27244
0.480577
10.7154
0.366183
0.5751
0.407375
1.29117
0.427981
5.88193
9.0692
4.52739
1.75066
0.717504
0.520125
0.400735
1.05965
0.532469
0.99183
3.56843
0.588484
0.651309
4.38446
3.90464
0.725297
5.10857
3.27482
0.348466
1.73125
0.401994
0.486399
0.734564
0.434258
1.70719
0.473923
0.505024
0.400624
0.568787
0.37617
0.431359
0.392465
24.7415
24.2718
0.407912
0.454179
0.527519
0.286164
0.31684
0.529702
4.12183
12.1648
0.62188
0.380866
0.359813
1.49856
0.576344
0.435621
9.13259
0.55044
0.541284
1.01203
7.3235
0.394501
0.803961
0.43007
0.462143
0.492033
0.432363
4.23619
0.652
0.723765
0.636188
0.412495
0.588974
1.88359
0.414844
1.17052
0.361137
0.400292
0.430678
0.8623
3.04907
0.437193
0.659622
3.18004
0.42631
0.556751
1.05811
0.831892
7.43839
0.522315
0.558122
0.435758
0.69062
15.1276
0.687822
0.372235
0.479291
0.781638
0.623383
0.537938
0.67843
4.37711
1.30387
0.389067
10.0875
0.50241
0.36934
0.389712
17.7251
1.29665
0.33346
1.40594
5.01112
0.436233
0.673241
0.347823
0.663645
0.570542
0.600793
0.419949
0.513418
0.708098
1.32759
2.07432
0.816989
0.952693
1.22415
3.56292
0.390398
0.406958
14.3801
0.566681
8.71054
0.844318
0.597214
0.549265
7.34178
0.441977
0.374372
0.447353
0.387096
2.34549
0.364808
0.395447
0.626697
0.347747
2.50691
0.496985
3.1474
4.65263
0.577358
0.833406
0.444682
0.306691
0.398594
1.46864
0.531124
0.460277
0.820863
0.39588
0.426211
0.607463
0.431306
0.325355
0.793103
5.56515
0.463193
0.518569
0.406377
0.491532
0.666972
1.02647
0.392401
0.478902
0.341051
0.495859
0.612211
0.560789
0.489344
1.68641
0.61943
0.408147
0.42777
0.493297
0.402961
0.728707
3.79983
0.499962
0.547901
3.03089
0.58743
2.96232
0.631633
0.546136
0.490736
0.670092
0.47798
0.528163
0.499072
0.48164
2.20898
0.509676
0.524736
0.505099
0.484075
0.423369
2.51396
0.669628
0.548398
0.567746
0.34883
0.665695
0.35702
0.45654
0.575211
0.581732
0.453399
0.60946
1.30112
0.367152
0.395428
2.76864
0.696595
0.338915
7.12926
0.395715
0.810704
0.329262
0.403054
0.390044
0.459198
0.637365
0.661396
0.497473
0.733673
0.444544
4.35436
1.90495
4.7896
0.394503
0.59175
0.573048
0.609331
0.597911
0.619538
0.425906
0.710999
0.403658
0.467963
1.04304
1.30876
6.36081
0.495229
0.921314
0.509212
0.631879
0.427249
4.11931
0.406464
9.24664
0.321729
0.430226
3.2313
0.487594
0.428141
0.496328
0.538943
0.685206
0.409359
3.22284
0.592863
3.17852
0.559459
0.720477
0.641822
0.799916
0.845014
0.447122
0.444743
2.18383
0.501262
0.458707
1.07607
0.357537
0.441202
0.50623
1.24879
0.442494
0.392781
0.355947
0.768947
0.354593
0.713079
0.374053
0.681617
0.449794
7.19707
0.345411
0.450899
0.409337
0.447022
0.50162
0.472923
4.8036
3.62482
0.807033
0.419568
0.540184
0.328225
0.428601
0.664694
2.80119
0.512972
0.386427
0.384073
0.421434
0.450747
0.549781
0.569843
0.381227
1.0464
0.883737
0.567803
0.579523
0.952087
1.01425
0.58776
0.503367
0.439245
0.468985
3.06169
0.507015
2.48019
0.566456
0.425221
0.563792
0.589665
0.428385
0.606087
0.510564
1.14916
0.742124
0.539744
0.371388
0.560353
0.512569
0.43997
2.50382
0.567634
0.603138
0.913829
0.393727
0.96136
0.408897
0.4396
19.1639
0.462967
0.571926
0.762212
5.08715
0.559344
0.484201
0.370747
0.402035
1.30024
0.689882
0.303494
0.519887
0.352185
6.59553
0.384131
0.642182
0.481836
0.335278
0.407943
0.491532
0.617688
0.617274
13.2019
19.4557
0.457684
0.552783
1.18155
2.71994
9.89272
0.510638
0.801683
0.635135
0.571441
0.516254
0.515027
0.477385
0.415649
0.587712
0.734307
0.51313
0.549304
0.438141
8.22551
0.535726
8.8438
2.51724
0.532426
0.36436
17.2282
0.333021
0.391181
0.467475
1.01134
1.59141
0.469173
0.508854
0.58966
5.62944
0.594465
0.507301
0.502261
0.582207
0.385418
0.350137
0.437751
20.6069
0.362491
0.765603
0.673128
0.670697
0.835124
0.633275
2.36402
0.827133
0.462344
1.92551
0.675889
0.508694
0.408015
2.44852
0.538291
9.02216
0.528409
0.334575
0.589691
19.7266
0.495195
0.725737
1.30762
0.605577
0.536423
0.447928
0.604591
13.3899
0.542152
0.682633
0.532663
0.527342
0.640769
0.512975
0.422104
0.748921
0.52395
0.453446
0.477183
0.501968
0.316457
0.398659
2.05212
0.635942
0.64773
5.32438
0.531383
0.522833
0.546386
0.533523
1.43672
0.477035
0.306228
0.564212
0.585048
0.498116
2.62215
0.856361
0.554787
0.402777
0.546242
0.687278
0.669898
0.497929
0.536932
0.538412
0.347295
3.22093
0.663873
10.0495
3.53951
0.651909
1.48384
0.921432
0.515812
1.41536
1.49933
0.520436
0.571383
0.664143
0.415537
0.373875
0.720927
0.399808
0.436311
0.443751
0.421676
0.483243
0.418105
0.53416
0.38282
1.69231
0.429801
3.44062
1.74153
2.19709
2.13815
0.381643
6.75265
0.555864
0.460632
0.624334
0.384287
0.766626
0.421208
0.354406
0.287091
0.396321
0.578218
0.760002
0.519309
0.585585
0.745494
2.0285
0.822421
5.31694
0.875233
0.347122
6.58111
3.05048
0.595377
0.478475
0.602013
12.1276
0.413773
1.21715
0.52422
0.580214
10.2992
0.544965
0.445189
6.71634
0.298046
0.571067
0.647842
0.591194
1.63767
0.476372
0.617171
2.78284
6.79175
0.400942
10.7252
0.469524
0.434578
0.95451
0.722153
0.467884
0.389509
0.318479
0.603465
0.395374
0.572239
0.527784
1.98341
0.470812
0.406796
0.389224
3.95276
0.491395
0.530456
0.345475
0.657553
0.397588
2.148
0.587186
0.514921
0.505547
0.650148
33.9209
0.353264
0.483877
0.431549
1.32392
0.510491
0.721198
0.416178
0.391577
0.45825
0.340869
13.0578
0.650092
0.564153
10.0641
3.46228
0.626015
0.632619
0.498212
0.864104
0.49437
0.747618
0.556537
2.23802
0.457562
0.537133
0.45275
0.724401
1.43937
16.0698
0.716822
0.44389
0.552398
7.51629
0.534957
0.421689
0.445539
0.434516
0.507232
1.31403
0.489992
0.45236
3.64089
0.419451
6.57529
4.89496
0.397949
3.14792
0.501668
0.530253
0.46937
0.598708
2.02266
0.414949
2.70376
2.45019
1.1471
1.45724
0.479718
0.537364
0.465197
0.554175
0.962484
0.534869
1.97004
1.8286
0.343479
0.474923
0.449513
1.84744
0.515068
0.4758
0.668498
5.31359
0.453919
0.448838
17.1819
3.90849
0.581296
0.38852
0.430075
0.495067
0.64844
0.540283
0.463537
0.390305
0.602228
3.94985
1.11228
0.446412
0.47263
3.06295
0.497985
0.509257
0.505442
1.11183
0.670685
0.416026
1.87346
0.380122
0.435253
21.8728
1.57171
0.41764
1.77876
1.53943
0.394979
0.374583
0.414787
0.781331
0.69978
0.370454
0.330845
0.464707
0.54337
0.409196
3.95122
0.542555
1.27676
0.657105
0.390113
0.500297
0.471904
0.443846
1.80199
1.36921
1.22651
0.522359
0.519388
3.7908
0.612456
10.7875
0.683412
0.574078
0.467475
0.358471
0.525631
0.602719
0.784324
0.63401
0.349575
9.23351
25.0563
0.400205
1.26816
0.460415
0.40465
8.43386
0.470456
0.586544
0.561781
0.618682
0.548389
6.29314
0.238995
0.411719
0.627334
0.514065
0.466554
0.631413
0.481145
0.492163
5.15579
0.727782
0.495954
0.457694
0.352209
0.556931
18.5386
0.777692
0.457441
0.409955
0.617138
2.71448
0.720674
0.481812
0.917703
0.67656
1.85005
0.58084
0.458836
0.547247
6.33619
0.775961
10.5177
0.301619
0.537397
0.428784
0.586891
0.607746
0.664269
0.918949
2.67898
0.483555
1.32066
0.465073
0.621672
0.540646
6.76215
0.401161
0.343008
0.601589
2.25323
0.497598
0.624907
0.396992
1.88595
0.824205
2.07685
0.567588
0.505601
0.459414
4.37587
0.500569
1.37268
0.348447
0.448783
0.459131
6.08475
3.67834
0.554047
0.454053
0.801951
0.461017
0.571835
0.629392
0.396086
0.402191
0.48881
0.507725
0.748137
5.70511
0.532615
0.301432
0.37928
0.530202
1.33195
0.427007
0.400588
0.609539
3.31367
0.408012
4.17593
0.522713
0.548445
0.690128
0.634716
0.580121
0.453052
8.79121
1.61152
0.435076
24.9794
0.463415
0.433397
0.608568
0.576694
0.467245
0.719452
0.525968
0.384302
0.482146
0.497739
0.424932
0.695583
0.479823
0.554706
0.489167
0.664398
4.8705
0.513465
1.06797
5.9338
0.561348
0.664721
0.502154
0.360712
1.03471
0.47439
4.76477
0.430626
0.512008
0.590915
0.432675
0.628078
1.12087
0.537245
0.327608
0.557915
21.9338
0.668132
4.02862
1.71357
0.382673
0.411976
0.593088
0.506933
1.5948
0.618062
0.583844
0.411793
0.386666
0.729786
0.381617
0.873232
21.2709
0.482308
0.443625
0.466402
0.58145
0.500546
0.577966
0.291463
0.395979
2.10162
0.428772
0.536597
2.05386
0.448786
1.68573
0.721459
7.24229
0.389846
0.519292
0.423728
0.369012
0.534956
0.525081
1.50694
0.492683
0.620736
0.914599
0.506684
0.727826
0.533829
0.468773
1.27708
0.389822
9.39983
0.587157
0.462617
1.01788
0.554563
2.30585
0.471965
2.56149
8.33366
0.638995
0.359907
0.972845
0.477882
0.366399
1.87446
1.22894
0.493248
0.536298
0.694561
0.798833
0.565796
2.8512
0.358431
17.2757
1.33306
0.52238
0.475152
1.01689
3.80271
0.486427
0.653381
0.48532
0.626803
0.608542
1.59392
0.521132
2.71163
0.752807
0.726309
0.348622
0.357418
0.429781
0.584589
6.92447
1.05617
8.62798
9.4262
2.93072
4.40317
0.539347
0.464782
1.60395
0.699672
0.597411
0.552787
0.538331
15.2651
0.339096
0.428194
3.23245
0.48174
0.400975
0.48703
0.430497
0.407732
0.514777
0.398072
0.649072
1.63754
0.398915
0.576077
0.586434
0.828037
6.72606
0.592756
4.0098
2.85419
0.482244
0.505505
0.442067
0.565528
0.898696
0.436153
0.461143
0.41997
4.45183
0.622162
3.18131
4.69855
2.42717
2.63429
1.3551
0.796353
0.672956
0.393426
0.485389
1.45461
1.50195
0.613097
0.422863
0.641336
0.394485
4.04131
0.334101
0.613782
1.64409
0.631715
0.399411
0.305399
0.560644
0.475658
0.313569
0.488574
0.642384
0.643313
0.463946
0.866299
0.698347
0.393422
0.76486
0.495728
0.463808
2.38737
1.68605
0.577872
1.47033
0.977722
1.60586
1.08839
7.55374
0.520817
0.448465
1.00198
0.548287
0.835954
0.409715
0.439635
0.59216
0.408396
0.758457
0.63557
0.410694
0.584018
2.41436
0.351456
1.08722
0.496125
0.490438
1.52242
0.497404
0.370516
0.435945
3.23572
4.28336
0.34081
1.9329
6.33321
0.376007
0.43238
0.51697
0.523949
0.514388
0.578339
8.09999
0.539103
0.613304
0.769986
2.25545
0.495846
2.69638
0.96961
0.511076
0.43819
2.48974
7.1842
1.39374
2.19164
0.482793
0.534949
0.544128
0.470449
0.566561
1.77051
0.63159
1.6465
0.743646
0.472792
4.35471
0.417083
0.446273
0.383226
0.489834
0.56109
3.23441
1.46075
0.457323
2.17952
0.641093
0.404446
0.45188
0.573908
0.916429
0.500755
0.418615
0.871262
0.463408
2.9112
0.5995
0.444549
3.1004
0.604448
2.09929
3.1156
0.427055
1.83359
0.785833
0.503245
0.473961
2.56811
0.610882
0.505506
0.572591
0.430942
0.716175
0.398233
0.62306
0.636302
0.572021
2.11863
0.435589
0.595649
0.365499
0.573415
0.492575
0.611116
0.444557
1.99922
0.657247
1.79014
2.22779
0.4576
0.687599
0.62028
5.13998
0.412881
0.535074
0.730105
0.375424
0.503459
0.597595
1.54271
0.61432
2.99221
0.434606
3.11665
0.520068
2.026
0.506294
0.906998
0.439816
0.675579
0.467631
1.55142
1.49903
0.566776
0.458075
0.40658
0.473311
1.3435
3.24775
0.744262
0.62318
14.6
0.637421
0.651551
0.531395
0.3086
0.496918
0.485664
0.497601
1.4168
10.806
4.47748
0.420237
3.27786
0.693034
1.26624
17.7019
0.739702
2.09607
0.651844
0.466502
0.621865
9.47942
0.450866
0.364071
0.5629
0.495019
0.559456
0.987833
0.409163
0.367681
4.93272
1.66322
0.439289
1.07321
0.406057
0.427638
0.379279
0.416642
0.605088
0.889732
0.503451
0.933956
0.522286
0.578467
0.538217
0.445752
0.382913
0.552849
0.501694
0.393868
1.08877
0.592188
0.602967
0.344495
0.485162
1.7546
0.584142
0.468555
1.83658
2.00301
0.470899
0.478702
0.526377
0.387859
0.799955
0.478354
0.425031
0.457691
0.407001
0.60066
0.797343
8.5742
0.535801
10.0857
0.605404
1.63073
0.467957
0.595092
0.355171
0.453654
0.428757
0.585789
0.471438
0.448494
0.410974
0.351024
0.469563
0.462256
0.490348
1.28624
2.48404
0.48126
1.79354
5.37986
0.618891
0.493313
0.557958
0.481131
0.316575
0.334734
8.15992
0.758738
0.494374
0.512913
1.45936
0.400073
0.327598
1.07977
0.601933
0.521199
2.09244
0.444985
0.512358
0.461814
0.558164
0.416927
0.436673
0.402991
0.337466
5.54375
1.39519
1.94523
0.337334
0.515357
0.479657
2.76399
1.21416
0.551399
4.4485
0.515607
0.563687
0.576336
0.493985
0.447061
0.726382
2.46841
0.640299
0.422468
3.07857
0.480517
0.529532
0.552901
0.453681
5.60189
0.469805
0.421475
3.40004
0.590724
1.40562
0.576248
0.49917
1.7468
0.845046
0.38077
0.569703
0.492019
0.441381
0.489735
4.95361
0.821456
0.392216
0.495728
0.496831
0.476699
0.436242
6.97102
1.2338
0.370204
0.482612
10.8088
0.796843
0.39037
8.24006
0.576188
0.61315
6.68843
0.356192
0.690456
3.64818
0.678194
0.51379
0.564751
0.411738
0.636265
0.637814
0.613741
1.7375
6.24907
12.449
3.55293
0.398849
0.98677
0.544568
0.540552
0.455415
1.82617
3.7529
0.360036
0.621692
0.556961
1.35648
1.69154
0.586347
0.860233
3.08367
0.367919
0.57597
0.589802
1.34698
0.587889
0.628977
0.598643
1.89857
1.07277
2.22395
2.89843
0.543474
0.453686
0.522146
0.435687
0.962595
15.0962
1.32622
0.392246
4.88373
2.58767
3.02083
4.20744
0.500019
2.14324
0.699238
2.90754
1.32774
0.505255
0.491936
0.463947
1.22903
1.64987
7.69507
0.382692
1.60359
0.564465
0.306925
0.897738
0.535535
0.675412
2.31743
2.07531
0.630045
0.514471
0.392646
1.69683
3.62958
0.58033
0.530375
0.600429
0.458165
0.398945
0.342669
1.26516
0.529659
0.510624
0.577582
1.64138
0.442447
0.530217
0.463614
1.57104
0.499992
0.693335
2.41003
14.0354
0.448479
23.3447
0.3575
1.04569
0.437689
0.690702
0.782097
0.485788
20.77
0.434273
0.993354
0.463449
0.501962
0.599008
0.411096
0.431199
0.878322
3.24048
9.42882
6.22384
8.36392
0.768434
1.37804
0.491582
0.751787
0.553877
0.345715
0.40413
17.6643
0.593426
4.13552
0.477216
6.41943
1.13328
0.316568
0.521954
0.713151
0.429958
29.6634
0.759774
0.643427
12.4501
1.51164
18.2066
6.83451
0.426759
0.639281
0.708557
0.561959
0.424541
21.6037
0.655312
29.6802
0.643457
0.933485
10.5924
0.393924
2.43083
0.583052
0.598087
4.59406
0.795086
8.76991
0.494407
0.574385
0.392643
0.486616
0.358172
0.597709
0.524045
1.06932
0.53641
0.986276
3.81236
0.447298
13.9299
0.386077
0.583765
3.30484
2.82373
0.478927
0.471522
9.509
0.736006
3.2895
0.926072
0.651835
0.930351
0.664971
0.880941
8.38919
1.08987
0.539359
0.637332
2.53251
0.668136
0.821684
0.512055
7.2139
0.393761
0.710216
0.476099
0.456695
2.23897
2.74937
0.326258
0.491581
0.639709
0.666806
0.484615
0.453575
0.376363
5.22247
0.959705
0.613536
0.429555
2.50792
0.667632
0.505476
4.20871
0.569725
0.425539
1.04336
0.549331
1.36963
0.439111
0.722262
0.509727
0.547053
0.844256
0.624047
0.582511
0.580634
0.421683
1.31775
0.549584
0.759537
0.512299
12.4022
0.522053
4.44684
0.67747
0.438659
6.52182
2.07855
0.466608
0.464171
0.45043
0.483512
4.51537
0.505413
0.470857
13.6204
0.415328
0.892683
0.588338
0.557115
1.87901
0.367572
0.534811
0.451253
0.493621
1.53875
0.514047
0.526949
0.47132
0.684943
0.527105
1.01474
4.93431
0.384697
0.352177
0.49779
0.513739
0.331195
0.586215
0.640982
6.46579
0.472761
0.537918
0.41629
0.708255
0.584999
0.431634
0.543515
0.497547
0.605386
0.329689
0.599403
0.529788
0.441175
0.442035
0.616544
0.388953
6.93323
0.469422
0.696589
0.482669
1.13516
2.28543
3.20557
1.40739
0.373926
0.454059
0.419467
0.453453
0.718038
0.492799
0.647133
0.62962
0.595087
0.368031
2.92564
5.58647
0.674567
0.568802
0.634806
0.597166
0.55569
0.521206
0.522134
1.00972
0.506617
0.38462
0.448392
0.671904
0.446351
0.754596
0.454423
0.544232
14.9279
0.718571
3.06816
0.351002
0.473021
0.7397
1.86179
0.700555
1.04008
0.412945
9.20314
0.389973
0.720004
0.49244
0.484529
0.571894
0.530293
0.49436
0.617677
0.56015
0.485307
3.60383
3.46052
0.379861
1.68384
1.19952
1.40103
0.66622
1.09284
0.340386
0.685697
0.624962
0.510503
0.463167
0.428461
0.379371
0.453026
2.79588
0.543889
0.567702
0.636255
3.35169
0.568823
0.372024
0.39512
7.35636
1.56964
0.572202
0.514293
11.854
0.454199
0.804788
0.423294
0.503221
1.19554
0.45786
0.437674
0.563225
2.2888
0.411741
0.624946
0.76452
0.411737
0.49181
0.559009
0.588937
0.49002
0.490237
0.361581
0.942081
0.388673
0.491466
0.612006
7.55858
0.402557
0.502595
0.442841
0.374786
3.18973
0.506123
1.32649
0.408988
0.38368
0.497203
1.22905
0.49522
0.432475
0.80867
0.605573
0.580245
0.462697
7.20386
0.417522
0.66655
0.40983
0.71558
0.629332
1.26977
0.578106
2.82989
3.99057
28.5135
0.721925
0.671104
1.23005
0.359224
0.573388
0.37909
2.31745
2.36842
0.39371
2.78952
0.703435
0.398229
0.44699
0.610727
0.510279
4.51003
1.27178
0.398758
0.407309
0.349598
0.357484
0.382677
0.583674
7.59746
14.4711
0.870041
5.1737
0.58977
3.04089
1.03161
0.420636
0.413872
0.492543
0.485533
0.692036
4.44853
0.984707
1.82018
0.385055
0.411371
0.471404
2.82353
3.8573
1.19569
0.383416
0.572117
0.642338
0.615583
1.71969
0.325159
0.75127
0.704784
0.958865
0.695113
1.1686
0.514919
0.380251
0.429119
0.713909
1.0301
0.424728
0.532035
0.463633
16.6725
0.501263
0.458675
0.453359
3.12865
0.533849
1.72318
0.528659
0.553464
0.748072
0.44139
1.72861
0.587837
0.6507
0.498085
0.719737
0.478553
1.57319
0.464207
0.498337
0.710778
0.530913
6.58887
0.552512
0.608686
0.517027
0.373647
0.501235
0.437754
0.650419
0.455811
8.5191
0.368959
7.70582
0.760427
0.385341
0.482993
12.6311
37.2968
0.467538
0.533703
0.84273
0.577538
0.552718
0.381463
0.709277
1.31098
0.405251
0.488613
1.01938
0.454175
0.493305
5.35768
0.528534
0.511487
0.34243
2.13669
0.493801
0.601086
0.433342
0.433826
2.44919
0.527615
0.524087
0.630757
0.600744
36.4205
0.543594
1.97691
0.553847
0.396412
0.316976
0.58452
6.09774
0.570925
0.503599
0.43689
0.593807
4.10923
0.459696
0.504131
0.482205
0.586541
1.90425
0.429391
0.790252
0.475154
2.24525
0.342197
0.869966
0.617098
3.74703
0.411923
0.512728
0.450173
2.46966
13.5716
0.662148
0.418086
0.576331
2.18751
0.424413
5.44665
4.05818
0.488748
0.405238
0.423659
0.531326
0.551583
6.47785
0.517786
0.323742
0.355888
0.475067
0.463542
2.8708
0.471108
0.456172
0.307655
0.68142
0.430027
1.25635
19.8261
0.355814
2.70403
0.564265
0.501552
0.341339
0.374056
0.441448
1.42626
0.537037
0.601493
0.46972
0.724496
0.450977
0.397741
6.78586
0.396918
0.509016
0.435058
24.1398
0.415042
27.6884
0.736768
3.34956
0.339174
0.746632
0.719307
0.920142
0.630497
0.651888
11.0571
0.425879
1.19114
0.309992
1.6805
0.473115
0.639366
0.544865
0.3928
0.882711
2.47324
0.49038
0.468616
8.99707
0.475069
0.488045
0.570794
7.80968
1.61647
1.907
0.662615
1.03639
0.477547
0.756113
0.494863
0.657164
0.593856
3.95715
0.410159
0.649261
0.489902
0.468092
0.764236
2.01915
0.660943
0.561998
0.620999
0.358369
0.395349
0.477854
0.448691
0.478748
0.581194
0.357291
0.360756
4.09605
0.406006
0.736158
0.577068
0.485153
0.367485
0.435287
0.851523
0.662713
12.0385
0.537294
0.548408
2.0938
19.8323
0.49424
1.87289
0.677687
2.0159
0.390418
0.595339
0.545027
0.729003
1.81052
0.426896
0.580704
0.713853
0.602708
0.598311
0.474493
0.416335
0.656314
2.13677
0.436445
7.52887
0.449055
5.75511
0.560565
11.5532
0.66543
3.58924
8.45085
2.15236
0.581263
0.443317
0.540636
3.95111
5.63212
0.357193
1.69612
0.36497
0.660737
2.32395
0.38459
0.968878
0.363817
0.349813
3.18467
0.426323
0.417583
6.61104
0.484944
1.76671
0.448696
0.480104
5.2857
0.368646
0.684717
0.381936
0.399186
0.455691
5.22221
3.12647
0.42716
0.583884
0.320898
0.458933
0.647119
0.473979
0.452523
0.56673
0.444018
3.71991
0.316213
0.456939
0.612328
0.482231
0.546037
4.32079
2.71031
2.21408
0.666398
0.379893
0.412997
0.502161
0.447388
0.417639
0.435718
0.583048
0.357278
0.423986
0.31785
0.520569
2.2338
1.51037
0.468587
3.64005
0.770032
4.18246
0.338236
0.594324
0.553803
0.464824
0.686105
0.566232
2.90073
0.311243
0.474779
0.630225
0.632198
0.590734
0.430937
0.514759
0.354586
0.569997
1.06013
1.05309
0.928226
0.622352
0.739393
0.518434
0.536882
0.470934
0.384451
2.36211
3.32545
0.79497
0.376572
5.076
0.69104
0.448327
0.598415
0.728002
2.33401
4.59541
0.701008
0.493
0.576517
0.677953
0.36045
0.607662
5.80742
0.786587
0.705729
1.08533
0.350367
0.638718
6.03337
0.379842
6.73684
0.462976
0.540318
0.899125
0.432661
2.9585
0.385003
0.514001
0.741781
0.962664
0.409001
1.0481
1.8418
1.694
0.616211
0.453377
0.734561
1.56915
3.3285
9.19602
2.96851
0.470983
4.51564
0.587623
0.372565
0.568523
1.80077
0.577349
0.627955
0.431587
0.630921
0.42321
0.346391
5.04878
0.494352
0.469036
0.436191
0.483918
0.626029
0.404544
0.475853
3.90844
0.345011
0.696388
0.577268
0.497154
0.547057
0.530446
0.726991
0.520614
4.25476
0.60228
0.411553
0.665147
0.761997
0.398065
0.393111
0.503967
0.582608
0.343776
0.57449
2.37863
0.412298
1.29038
2.55536
3.32139
0.612739
0.461529
0.756488
1.74002
0.390052
1.10253
0.296373
0.731745
1.47647
0.670585
0.624166
1.91185
0.436513
0.410764
0.741637
3.09893
0.531223
0.44164
0.660177
0.562591
0.478745
2.35063
0.687626
0.416765
0.471884
1.03518
0.87532
0.727797
6.61445
0.450501
0.62839
5.56116
0.503635
0.54854
0.421208
0.556348
0.406902
4.1015
1.45306
0.535199
1.19405
6.77952
12.5465
0.524323
0.396428
0.666397
0.771682
0.430407
0.472757
0.458863
0.470199
2.59993
1.68167
0.666326
0.698908
0.720172
0.591331
0.608946
1.30613
0.551406
0.55517
0.455795
1.13166
0.606672
0.330135
0.501671
0.627838
0.4075
0.604494
2.56406
5.86793
4.12237
0.685015
0.395544
0.420788
0.687149
3.00954
0.501831
0.513388
2.36976
0.755428
0.300643
0.574747
6.00262
0.744212
0.330387
0.457988
0.351911
0.469772
6.53207
0.593817
0.541064
0.600691
0.431157
0.445889
0.381708
0.41725
0.352972
0.547828
0.413258
0.690743
0.585642
0.816604
1.68031
0.417477
0.396493
1.3087
0.369613
0.49258
0.554951
0.338368
0.529168
0.530319
0.55997
0.689746
0.449709
0.418609
0.443874
4.48569
0.430497
4.233
0.673163
0.649709
0.691143
0.507181
2.009
5.16743
0.43927
3.74939
1.4751
1.77521
1.16147
0.63857
0.553989
0.340013
10.433
0.552585
0.555176
0.831058
0.415626
0.856473
0.582464
0.641947
0.461547
2.318
0.382887
0.514897
0.725579
0.494813
0.943081
0.448017
1.23646
0.580699
0.742301
0.52442
0.469407
12.37
0.353061
7.77971
0.429772
0.430888
1.11274
0.444601
0.433602
0.380276
4.52623
0.334671
0.605982
0.48265
0.517494
0.365062
0.500636
3.74575
8.42747
1.18506
0.42963
0.468642
1.64194
0.514498
1.75545
26.3852
7.74999
0.507539
0.360902
0.642267
0.546132
0.466518
1.61714
26.2546
0.558924
0.343886
1.43179
0.413807
0.706698
0.455148
0.889216
0.465674
0.378025
0.486327
0.415557
8.91525
1.82416
0.468407
4.33257
0.3564
11.5693
0.477361
26.0622
0.376247
0.324437
0.375257
0.806638
0.653849
7.87986
0.800063
0.35084
0.442671
0.53207
1.53696
0.674717
1.99549
1.92408
9.1009
0.507395
0.384019
0.522762
0.678428
2.70036
1.73334
0.507328
0.406702
0.328686
0.544797
0.486045
0.431553
0.346996
0.694067
0.315574
0.585983
0.384824
0.582061
0.60003
0.501877
0.672209
0.758308
0.517777
2.53454
0.669172
0.650072
0.454227
1.56441
0.486779
0.431534
0.627356
0.403219
1.65391
0.646315
1.97706
0.386504
0.570175
0.362591
3.38956
1.29867
0.614466
0.387631
5.98969
0.55075
0.582791
1.97609
0.603656
1.84027
0.450686
0.433722
0.764944
0.876159
0.439616
0.560013
9.42112
2.09094
0.427824
0.671073
0.529276
3.61402
0.463424
0.588409
0.384088
0.431217
0.909242
0.518485
1.8277
17.8439
0.651401
0.451537
1.52691
8.51536
0.633186
0.370145
3.12268
2.59197
0.447141
0.538068
24.2354
0.479308
0.457187
0.741887
0.516641
0.426371
0.484418
1.43647
4.63327
0.413472
0.447026
8.18613
0.60282
1.00733
0.443187
10.0736
0.477207
17.5567
0.570434
11.3719
0.518948
0.674401
0.744858
0.378263
16.4573
0.554049
0.596641
8.87713
1.07874
0.588756
0.351409
0.439602
0.417313
0.536053
0.719371
0.432997
0.448662
0.47164
0.950628
6.81803
0.550719
0.442552
1.40057
7.27904
4.08061
0.498491
5.24839
14.2292
0.458677
0.468301
0.785013
0.521692
1.30765
0.91079
0.606125
0.474835
1.40392
0.659005
0.497723
0.606181
13.1715
0.426987
0.546567
35.0824
1.18341
0.489544
10.7049
1.957
0.527351
0.645624
0.713795
0.429217
0.394632
10.619
4.34436
0.725382
0.426672
0.415333
0.511326
0.527247
0.675052
1.16985
0.378177
1.33639
0.377721
2.63585
0.365317
0.401539
0.49709
0.787701
0.810174
0.465695
0.516677
3.96504
3.9814
0.441593
0.516521
0.486036
5.1219
0.508402
0.673904
0.378498
0.448238
0.479369
0.703432
0.663919
0.557239
13.9835
0.361382
0.530853
0.544561
0.55447
0.577102
1.67412
0.556504
0.758545
3.73554
1.61205
0.655375
7.7039
0.39881
0.639748
1.54376
16.6507
0.385893
1.53586
0.756756
0.47412
0.51873
11.242
0.515385
0.396875
6.83486
0.508534
0.352727
0.423083
0.4669
0.617589
2.84956
0.474128
0.535248
0.488919
0.397029
0.412609
5.33773
0.567954
1.55976
0.481042
0.508223
0.550741
5.04682
0.46108
0.537591
0.811148
0.904767
0.52595
0.775429
0.476084
0.488685
0.64034
0.704747
0.54778
0.515801
0.753916
0.404942
1.10131
0.892008
3.07634
0.327755
0.40619
0.626913
0.502358
0.417695
0.531221
0.682682
1.52625
0.562315
0.334441
1.35247
0.571172
0.575154
2.00834
0.379676
0.517422
0.532328
1.57516
0.514229
0.585794
0.705015
3.55084
0.388901
0.513852
0.485663
0.399166
4.23358
0.501331
0.510115
0.574534
0.590056
0.720416
0.594815
0.661272
0.46908
0.398626
0.842654
0.379992
1.56226
0.434185
0.335261
0.499646
0.430833
6.75756
0.679812
0.727621
5.54053
0.439622
0.371039
0.48705
0.36951
0.464035
0.487552
0.476845
0.487038
1.87219
1.65324
0.791593
0.705976
3.55941
14.1044
0.351267
0.382751
0.476536
2.36799
0.605055
0.418139
0.405948
1.29699
3.64669
0.808051
0.637578
0.321841
0.547001
4.48227
0.564462
0.722036
0.503726
0.417214
0.493396
1.43419
0.33831
0.32483
0.472108
0.364178
0.680932
0.618576
1.67483
0.604934
0.624783
0.670155
1.14107
0.691122
0.428173
0.50598
3.53944
0.630428
0.453161
0.342211
3.71276
6.20052
0.4635
0.477097
2.20164
0.366623
0.418388
0.429277
0.609501
2.29877
0.440195
0.358999
0.610452
1.38685
0.535161
3.04416
0.489029
0.480399
0.812514
0.669363
1.61553
0.407589
9.12934
0.676504
0.807999
1.05636
0.587477
1.77404
10.8762
30.2448
1.13166
0.956535
0.435177
0.496821
0.668616
7.46094
0.418379
0.468673
2.04131
0.445146
5.64908
0.41521
1.14499
0.43041
0.457166
0.91788
0.521266
0.535493
0.947357
29.8244
0.458898
7.47565
0.413559
0.468604
0.469986
0.455344
0.581604
0.442751
0.55994
2.38247
0.35482
0.67277
0.64147
1.80982
0.516758
3.30888
0.562413
0.436288
0.785175
0.503779
0.456792
1.14553
1.45194
0.48665
0.404903
0.454191
0.54291
0.653942
0.440569
6.9539
0.306406
0.45075
4.5402
0.593164
4.80305
5.81934
1.39399
0.384653
1.38745
0.320263
0.461219
0.603899
1.40266
10.3752
0.491438
0.398646
3.1308
0.919509
16.5681
0.624086
8.45218
1.48521
16.3055
2.66033
0.812063
1.73476
0.70103
0.378821
4.65604
0.339612
0.650288
1.35039
2.62516
0.422734
8.03024
0.467135
9.55387
0.407098
0.510422
3.5011
2.10897
0.700367
4.93453
0.401754
0.546465
0.675894
2.38777
3.68304
0.524221
0.497723
0.570545
0.572487
1.30909
0.576355
1.52936
0.501011
0.524657
0.997702
0.596404
9.47005
0.5457
0.458217
2.49112
0.490942
0.574232
0.397063
4.46056
0.562083
0.523571
0.447906
0.525161
0.390838
3.51581
0.371598
0.624224
0.510609
0.446445
0.606795
0.441265
0.416254
0.615898
0.461621
3.05303
0.491107
0.455626
0.462081
0.370747
0.483293
0.528315
3.09921
0.469897
0.451439
0.495537
1.55671
4.29939
0.487901
0.415619
0.532718
0.433641
0.517239
0.363466
3.85794
0.41747
0.405482
1.86821
0.474988
0.472721
0.562976
0.495301
0.578421
1.71463
1.11398
0.457719
5.95201
0.57617
0.571032
0.366309
4.76565
2.96691
0.531471
17.9474
0.71835
8.47868
3.35396
0.66471
0.710436
0.485624
0.615397
3.8089
4.22968
5.01869
0.363219
0.544738
0.384312
0.546191
0.615386
0.523024
0.507318
0.495303
0.534961
2.15827
1.42122
0.377463
0.511436
0.39789
1.63799
0.408553
0.531618
2.76166
0.393054
0.412755
1.39095
0.656211
0.514904
0.658879
0.493614
0.410718
0.612298
0.576617
0.520978
0.594742
0.45734
0.484875
0.543121
29.3381
3.38496
0.531365
0.485357
0.481259
0.516995
2.78622
0.571825
2.46653
0.485884
0.437573
0.548364
11.4856
19.1575
0.456215
0.638402
0.404628
5.32149
0.632516
0.634482
0.549179
4.58738
0.515313
11.9848
4.68784
0.642797
0.411427
0.410941
0.44762
1.96006
0.987187
0.577768
3.52775
2.74028
0.529663
19.2253
0.584069
0.462267
0.492194
0.466301
0.515991
0.32816
0.612087
0.859149
0.432804
10.835
0.434327
0.458268
0.47394
0.599556
9.35958
0.416783
0.862418
0.528034
0.483646
1.36709
0.532786
0.514989
0.4625
0.496616
0.442768
2.04646
0.658912
0.416951
1.10904
0.514598
0.57861
0.873
1.41008
0.570018
0.336184
0.824287
0.663475
0.467005
0.425718
0.591492
0.554039
0.345262
0.398275
0.35126
0.377841
0.482259
0.412084
0.876198
0.478043
0.936111
0.604888
5.05814
0.390738
0.481957
0.404124
4.00757
0.512844
0.48838
1.27278
0.569686
0.559007
0.482399
0.459226
3.94145
0.540609
0.568941
1.32523
0.542255
0.366119
3.99687
4.65458
0.464122
1.65871
2.88648
32.7273
0.505594
0.945008
0.317465
0.592296
0.368805
0.599675
0.412248
0.476762
0.919294
0.929473
0.547702
0.784856
2.50867
0.572005
0.43028
0.609443
0.84686
0.506064
1.99025
1.08403
0.62718
0.521757
0.566399
0.446252
0.359032
0.505881
0.43224
0.463153
0.428406
0.57649
3.08155
0.642627
0.35495
0.374059
1.42642
7.97869
0.57116
0.368135
10.9205
0.761072
0.461731
0.690043
0.763813
8.20406
5.06558
0.382072
0.360351
0.650717
0.505986
0.473693
0.391875
0.758504
1.62971
0.485667
0.365668
0.743183
0.509188
0.402113
0.537644
0.580184
0.367418
3.15595
0.462532
2.28608
0.424085
0.591928
0.573828
0.540434
0.34639
0.512389
2.83978
0.556867
0.593653
0.570943
0.502333
0.490986
0.488276
0.51337
0.394434
0.55983
0.786198
0.617812
6.24134
8.85571
0.781393
0.642051
31.0268
0.590543
0.449121
4.28833
6.6356
6.72277
0.381085
12.6977
0.370547
9.893
0.594454
0.45124
0.511563
0.479646
0.482426
0.6385
0.490076
0.936274
0.542807
0.525904
0.711744
2.90851
3.90331
3.4293
9.79307
0.508536
0.453148
0.378109
0.592524
0.617373
2.66696
0.502118
0.640876
2.72794
4.8865
0.345107
6.75261
2.1796
0.551689
0.620155
0.46538
0.541806
0.436115
0.476779
7.16166
1.03752
18.351
0.423638
0.457355
0.438703
0.391598
0.834828
5.12373
0.434482
0.36195
0.480638
0.39885
0.403518
0.468507
0.439764
1.29385
0.602524
0.546919
0.581012
0.400222
0.716166
0.505653
0.543702
3.44767
5.1083
0.46457
0.717743
0.979802
0.457184
0.581321
0.456774
0.568011
0.751852
2.21803
2.7135
0.455351
6.77229
0.403028
3.18591
0.459704
0.503095
1.15233
0.541214
0.745214
0.328565
0.511699
0.577703
6.75034
0.87136
0.642003
0.650746
2.03797
0.427315
1.00081
7.43786
0.287314
1.39798
0.312609
4.67428
0.408486
1.91171
0.452066
0.538204
7.88994
0.759029
1.77646
0.635135
19.8938
0.649729
0.451787
0.369279
0.608448
0.52854
1.06575
0.311871
0.422399
1.93808
0.756818
8.11932
0.262205
0.794048
0.682551
0.656736
9.16893
0.491091
0.555364
0.732939
0.483925
0.399794
0.506407
4.39999
0.447817
1.79722
0.663913
1.51403
1.28731
0.69019
0.519426
0.453173
0.405836
0.434993
0.614284
19.8666
0.385689
1.78882
0.509908
0.632923
40.301
0.46029
1.92779
0.466902
0.450579
0.345762
0.407216
0.79445
0.655817
1.16235
0.732842
0.557495
0.648012
2.12576
0.532368
0.433751
0.514204
0.587599
0.822442
3.77249
4.3853
3.86475
1.44928
0.510938
1.64325
0.518991
0.400712
0.5416
0.395814
0.459307
0.533607
18.1724
2.85835
0.452736
0.46102
0.786145
6.77097
0.542674
0.425034
0.82352
0.492282
0.716004
7.35298
0.565965
0.497073
1.61173
0.455677
0.323689
0.370773
1.53453
0.510322
0.475337
15.7421
0.606497
0.561876
0.415874
0.555764
0.540659
0.37291
0.486773
0.521793
0.382462
0.664161
0.50832
0.630388
6.7601
0.897811
12.7758
0.519189
0.620095
1.14148
0.460791
0.467939
0.457135
0.394036
1.40479
0.476877
4.29377
0.61999
0.561926
0.632819
9.63333
0.538896
0.595647
4.19153
0.821565
0.452574
0.361517
0.602599
0.404501
0.497416
2.44596
1.44746
0.38175
0.562913
3.86486
0.540889
0.516831
0.664544
0.403467
0.57165
8.95044
0.764716
0.530385
0.418092
0.410109
0.485497
0.426742
3.34028
0.455554
2.86437
0.559652
5.85382
2.07262
0.414701
25.4004
1.20764
0.387862
0.398235
0.572237
0.306695
0.874779
0.443154
0.87674
0.442851
0.55418
0.607231
0.475861
0.675551
0.719876
0.507394
0.523363
0.468929
2.66853
2.85965
0.522984
0.486383
0.595063
5.38319
0.58433
0.488787
13.5962
0.676271
0.677217
0.551257
0.681851
10.8653
0.508661
0.615513
1.05049
0.408098
0.59072
0.527073
0.430243
0.524746
0.440478
1.29077
0.869157
0.451207
5.02012
0.534533
0.437899
4.58555
0.914029
0.531075
0.96305
2.41281
0.926927
4.24047
3.15016
2.28079
1.58789
0.46992
0.898576
0.396868
5.3471
0.413045
0.417191
0.559771
3.20904
2.191
10.0054
0.561597
0.462642
3.19132
0.664553
0.629388
0.464378
0.555494
0.690964
0.446305
0.405201
0.355714
0.477026
0.425318
0.425908
11.5154
4.13141
0.68414
0.368941
1.78343
0.452098
0.460843
0.426721
3.36159
0.4198
0.425138
0.625966
0.659294
0.387025
1.33681
0.501212
0.544436
0.441275
0.386532
0.544038
0.511772
16.8631
0.499417
0.545226
0.511379
0.546663
0.493579
0.633074
0.447557
0.376778
2.31231
2.71253
0.56857
0.448778
0.469011
0.651986
12.1242
0.681401
0.432435
4.99064
0.578932
1.90155
2.51081
0.467703
0.582774
1.35106
0.262337
0.537223
10.9771
0.551341
0.56801
0.687035
0.517084
0.648279
0.384528
0.919231
2.0347
0.487965
0.483006
0.452455
0.685113
8.95421
0.617798
0.513081
4.6437
0.582078
0.397984
3.52088
0.806789
2.9907
0.487353
0.349866
0.568483
0.413751
0.565627
0.554054
5.12114
0.919219
5.16793
0.55096
0.328039
0.853998
0.457663
0.445567
0.377538
0.422273
0.432674
0.508314
0.387294
0.5388
0.447074
1.60991
5.97428
0.384426
0.352076
0.343094
2.27765
0.318053
0.566061
1.03792
0.603206
0.383003
0.494838
0.477666
0.425266
0.404173
0.404207
0.419277
0.42374
0.575044
4.02141
0.392656
2.4567
0.725392
1.04002
0.654173
0.454153
0.518123
3.04306
0.56638
0.585039
0.492699
1.42058
2.95324
0.469208
6.23829
1.76991
2.00768
0.347869
1.87675
0.486973
0.495882
0.618603
0.456974
0.579838
0.33132
1.12922
0.661531
4.09058
0.536308
0.62471
0.518098
0.425943
0.569977
0.5488
0.690334
0.334597
0.369618
0.366573
1.82315
0.552793
1.2367
0.619869
0.500534
2.25622
0.706448
0.564207
0.806108
10.9982
0.612954
3.88758
0.383832
6.90306
0.450149
0.378229
4.1795
0.466159
0.379311
0.756353
5.4339
0.65757
0.405063
9.98024
4.34032
0.410947
0.45226
0.430068
0.569783
0.425702
0.485395
0.430402
0.340494
0.673495
0.603942
3.22811
17.5571
0.746744
3.13363
6.86237
0.445211
0.430867
0.575216
0.403514
0.838604
0.501249
0.472844
0.491286
0.634315
3.38576
1.86153
0.481387
0.596936
0.438686
0.560634
0.514512
0.540851
0.476118
0.602558
0.641794
0.748545
2.30405
0.69118
0.514518
0.418256
11.7282
0.508847
0.478968
5.57173
0.695605
0.520268
0.476027
5.26753
0.319588
0.490094
0.494816
0.464536
0.396404
0.922653
0.700146
1.25163
0.559901
0.392905
3.67898
0.603807
7.86702
0.583448
1.4707
0.529121
5.1136
4.35688
7.6864
0.479933
1.45825
9.1685
0.381365
0.641206
0.45702
4.08701
7.21698
0.930669
0.702926
0.475785
0.50231
0.303514
0.598212
0.852497
0.49668
0.457388
0.547531
1.5193
0.617757
1.33356
2.54856
1.41063
0.671606
0.42169
0.400786
0.547545
0.808279
0.496362
0.404067
15.9414
9.07843
0.476773
0.407102
1.82087
0.469267
0.770401
0.850528
0.371806
1.60103
0.362993
7.50276
0.417169
0.369109
0.497309
0.464562
0.385359
0.488736
0.652534
0.543487
5.29502
0.43026
0.450877
2.14961
0.465225
0.790585
0.476379
0.897492
0.444278
1.37113
1.24082
0.745615
0.464142
0.557335
0.438581
0.71341
0.324305
0.75555
1.18293
5.25412
0.639277
0.682572
1.7035
0.652302
0.454333
0.568819
0.395697
0.430405
0.666314
11.5863
0.560026
0.400514
0.95218
0.356336
0.6236
0.784795
0.594324
0.396297
0.557989
12.0746
0.406352
0.460543
2.53416
0.635788
0.570668
0.612057
0.643966
0.514999
0.510115
0.525228
2.11381
0.47985
0.827763
0.418446
0.560174
0.782096
0.507245
0.463007
15.4372
0.912032
0.462038
0.440932
0.553493
0.541347
21.3803
0.875437
0.536819
0.600091
0.633276
0.389415
8.31573
0.515376
0.569419
0.866069
8.68988
0.399939
0.40242
0.798897
0.452725
0.541306
0.81833
0.641298
0.409494
0.387113
0.459331
0.554333
0.504379
3.39677
1.22038
3.28451
0.391673
0.400374
1.74724
0.442518
0.49257
8.02985
3.08484
0.340267
0.770422
2.56939
0.466069
0.409011
0.683064
4.8558
0.477679
0.4507
0.463992
8.03148
0.631415
0.518268
0.646071
7.75426
0.312628
0.423913
0.342581
1.48893
0.346847
5.16663
0.448017
0.537348
0.76935
0.452342
0.59095
6.8246
0.528111
0.591471
0.822813
1.01642
0.425327
0.4954
2.98638
5.35163
0.407142
0.421586
0.434876
0.453421
3.02148
3.43547
2.91675
0.587787
0.50419
0.648603
0.390276
0.877277
0.449055
0.45846
0.562875
0.375181
1.65025
0.803832
0.435932
0.583891
0.400824
0.454565
0.497695
0.646438
0.735493
4.19114
0.40077
0.376733
0.832937
3.41913
0.60126
2.56321
0.566755
0.852888
0.385841
0.385915
0.497288
0.609136
0.4442
0.451382
0.426761
0.687946
3.47075
20.71
0.358738
0.526611
0.540537
5.53271
0.506344
0.524685
0.580293
12.0436
0.735415
4.49044
3.54472
0.397695
1.24351
0.458315
0.462177
0.708004
0.646327
0.570577
0.383669
0.500721
0.983446
1.2036
0.573264
1.44123
0.411468
0.953296
0.425608
0.483484
0.451809
1.72522
0.588134
0.512351
0.563103
0.431156
0.522577
0.423752
0.469986
0.405354
0.417118
0.450166
0.786697
2.56248
0.863234
0.381147
0.50327
0.426939
0.651847
0.458039
1.03446
0.35701
9.20026
0.392665
0.474634
4.49987
2.50766
0.496891
0.485057
0.652102
0.629508
0.314374
0.588076
0.500262
0.435667
0.344338
4.98752
0.617321
0.678658
0.475389
0.504611
0.495735
0.426276
1.87126
0.388283
1.90081
0.843546
5.4552
0.488534
0.565823
1.09112
0.419186
0.445672
0.624293
0.419303
1.58513
18.2212
0.628093
0.443627
1.23062
0.476229
0.539293
0.48178
0.517403
7.05283
0.322052
7.72296
0.735835
0.625999
2.10878
0.563664
17.8901
0.725397
0.612496
1.53549
0.381051
0.583153
0.476313
0.431582
0.641216
0.339682
0.929774
0.837286
0.440037
0.43653
0.674499
0.456325
0.413887
0.425987
9.02651
0.500068
0.769737
1.35385
0.654601
0.504697
3.7246
0.659556
0.570278
4.58104
0.336972
0.477295
0.515153
1.80423
0.483748
0.457799
0.491744
0.803897
0.61509
0.473609
3.5872
0.490806
0.365461
1.93491
1.2403
1.18098
0.529975
0.6479
0.481095
0.571957
0.406876
0.397768
0.649988
0.755049
1.38523
0.512271
0.396574
0.421683
1.08006
0.509811
0.698893
0.427164
0.582829
0.493307
0.390282
0.463475
0.59253
3.71858
0.951088
0.468675
0.457255
1.92597
0.444263
0.417806
0.333323
0.820296
0.530265
0.915926
8.01673
0.521342
0.414833
0.515936
0.575746
0.389324
1.03827
0.850931
0.398645
0.470622
0.470408
4.52072
1.09397
0.499327
0.554245
1.51332
0.423106
0.604467
0.77363
0.45235
0.459274
32.0114
0.567735
12.207
0.476181
0.540986
0.444536
0.838562
0.594566
0.513662
2.57879
0.354596
0.486512
0.706495
0.633365
0.497877
4.63737
0.63414
0.396427
0.429142
0.508804
0.399841
0.576814
0.57732
0.609889
2.49529
0.492291
1.52001
0.429566
0.733024
0.354009
0.430482
0.384637
0.471317
0.754474
0.425105
0.571281
0.426935
0.741437
0.367722
0.460478
1.80055
5.25028
0.424046
6.97047
0.62801
5.9365
0.390936
3.54074
0.563443
4.6126
0.415506
0.417645
0.74497
0.50616
0.386543
1.51633
0.477827
0.484803
2.83494
0.743434
1.26718
0.949219
0.466983
0.472506
12.3406
0.473836
15.9393
0.436412
0.726632
0.504945
9.54138
0.469847
0.561052
4.92474
0.491098
0.556387
0.492473
1.05079
0.490019
0.403882
0.41787
0.724231
9.23648
0.270311
3.0022
0.454298
0.539772
0.520195
0.398763
4.30464
0.739678
0.690207
0.56916
0.458584
0.466465
0.526903
1.81807
0.509991
2.19511
1.23296
0.468508
0.502463
0.406856
0.444774
0.491734
6.12542
2.63538
0.826875
0.41474
0.423133
0.397575
0.525227
1.48877
2.10638
0.396682
0.426358
5.35768
0.473938
1.19793
0.945362
6.58188
0.587367
0.432815
0.488582
0.492729
0.848759
0.399754
0.340959
0.576106
0.465699
0.451116
0.410463
0.437166
11.7702
0.711889
0.37673
0.426965
13.4079
2.24681
3.85266
6.94563
0.572484
0.389127
0.541062
1.09892
0.432489
0.615953
0.459291
0.382461
0.489776
1.96208
0.391635
0.420053
0.378967
0.582664
0.434696
0.528503
0.807508
0.371763
0.484694
0.540035
0.396028
0.741695
0.423801
10.1349
0.54623
2.80236
0.613297
0.537175
3.51629
0.577351
1.84194
0.530478
0.898707
0.459223
0.750137
0.383881
0.514821
2.20858
0.693323
0.469086
2.21588
0.359244
8.66282
1.15337
0.725819
1.09588
0.581608
4.61796
0.58054
1.3072
0.296275
0.356291
0.360639
0.418907
0.540469
7.97397
0.386618
0.587658
0.682383
0.379713
0.557486
0.296336
0.728612
0.46513
0.568921
0.410152
16.3743
0.547762
2.39572
6.07376
9.24118
0.294831
0.324472
0.512437
8.52134
0.654141
1.27343
2.41413
0.530107
0.345089
0.512205
0.514047
0.586912
0.400883
0.632787
5.35043
0.439783
0.508968
2.33472
13.2763
0.570902
0.510793
2.57983
0.365231
3.535
0.361365
0.568333
0.612239
0.513949
0.412723
6.56878
0.613437
0.667677
0.467529
0.730917
0.674112
0.483809
0.406517
8.75215
0.721051
0.478581
0.410315
2.47388
5.29718
0.514337
0.68224
0.417037
0.394581
0.382552
0.526804
0.515689
0.493378
14.1981
0.495241
0.446408
0.409479
3.84601
0.441074
0.608734
10.5327
1.93223
0.340575
0.289337
11.5284
0.659915
1.20485
0.481862
0.887042
0.399984
0.487737
2.01712
3.24152
0.42585
0.589215
2.36733
1.98628
0.439491
0.88939
0.487659
0.472054
0.646059
0.313842
2.21975
0.619889
2.20341
0.508761
0.722099
5.28945
3.40817
0.52458
0.407955
0.450088
0.525213
0.740881
0.577704
2.75863
0.555347
0.691
4.79354
0.468127
1.67823
0.373846
0.521828
0.705465
7.28483
1.95036
1.16999
0.360374
0.61645
0.453899
0.63209
0.484576
4.40056
3.90316
0.413227
0.688698
0.595897
0.368373
0.345438
0.437013
0.676434
5.07578
6.28938
0.377924
0.834943
0.604173
5.77787
0.459182
0.532617
2.07593
0.391423
0.489649
0.669657
0.95677
1.02865
10.7607
0.447436
0.459632
0.546127
0.454477
0.527881
0.54333
0.410671
0.692562
0.487519
0.49437
2.25594
3.1524
0.325546
0.439493
0.525262
0.527234
0.425112
0.486078
0.560322
0.465277
0.570655
0.473567
0.450447
2.82228
1.87952
0.535745
5.05637
0.864704
0.541961
0.463449
0.827378
0.540927
0.319495
0.337104
2.65426
2.52965
11.3226
3.40902
11.427
0.707413
0.480003
0.454356
0.470855
0.442659
0.398701
0.619209
0.541691
1.29645
0.684568
0.570171
0.346682
0.602401
1.4084
0.356342
0.502867
0.514087
0.516919
2.25177
0.736709
0.6415
0.580766
0.539801
7.75346
8.77956
0.605948
0.486963
0.598168
0.432639
0.355424
0.573108
4.87347
17.5976
0.484246
0.790015
0.453934
0.462409
0.400503
0.364692
1.10555
0.509723
0.482652
0.41909
0.522332
1.37877
0.37728
2.2548
0.766169
0.473265
4.8425
0.76311
0.444731
3.20008
0.506635
4.86628
0.364115
0.46953
0.576086
0.385502
5.88599
2.33623
0.462829
1.00694
9.41133
0.579878
0.494479
0.415933
0.445714
0.415877
0.552624
0.688645
0.485864
4.08481
0.51177
0.586105
0.356934
0.542905
6.75244
0.507878
0.406252
0.685351
0.60156
0.803139
0.406134
0.977205
0.478745
0.380607
0.352869
0.514114
0.468301
0.678828
0.419365
0.326608
2.13421
0.675072
0.554231
0.498841
18.7517
0.614688
0.517615
3.20713
4.0587
0.428639
0.434591
0.39965
0.394057
0.521043
0.751857
0.798589
0.312542
5.07688
0.474457
0.354366
0.368537
0.372889
0.497447
0.344727
22.772
0.612464
0.551678
0.876592
0.491049
0.455553
0.513895
0.434243
2.37661
0.376598
0.4765
3.54542
0.367629
5.17781
0.810671
0.63731
4.86104
7.47399
2.13116
6.05106
0.56825
0.359004
0.506916
2.36176
0.490967
0.48863
0.440169
0.679124
0.514183
4.02147
4.24899
2.80112
0.735296
0.678593
0.375985
0.413343
0.446539
1.40327
1.0303
20.459
0.633671
0.418355
2.06009
0.376909
0.591136
0.367742
0.529688
0.763975
0.408591
8.39476
4.90375
0.627669
5.6507
0.469005
0.857171
0.713878
0.347293
0.483
0.529519
0.568775
0.338408
8.11341
0.447063
0.725145
0.552622
0.50361
0.632966
0.408005
28.7064
0.736271
0.551222
0.381774
0.598905
0.494673
0.729174
0.434726
3.13436
4.8587
0.793623
0.65807
3.41795
0.473088
0.495005
0.440581
0.417213
0.402461
0.47343
0.469693
18.0429
0.768577
4.15156
4.30226
0.423635
0.73704
1.75567
0.384912
0.351339
0.481787
0.399984
0.491556
0.403944
0.458487
0.613226
5.98311
0.450882
0.544046
7.32674
0.420672
0.491315
0.687908
0.415982
0.646965
0.792456
3.22828
0.457874
5.64
0.480732
0.544735
0.45582
2.61448
0.31461
1.58223
0.35178
0.384572
6.05029
6.89736
0.693854
0.43022
0.603282
2.42601
0.376906
0.421223
0.416703
0.617001
0.431979
0.313848
0.542248
3.68817
0.371623
0.638508
0.60212
0.711824
0.703065
0.345255
1.44775
0.455677
2.62925
4.08866
0.622997
1.22465
0.353715
0.507531
0.40777
0.400972
0.947435
0.979114
0.578551
0.378141
0.564095
26.3124
0.424609
0.521859
0.567772
0.638056
0.639371
0.674657
0.981535
0.751605
0.424547
0.436654
0.41052
0.832774
4.93501
0.318509
0.476112
0.411378
0.574989
0.637441
1.20062
1.87546
0.6813
0.355885
0.518935
0.440662
0.542009
0.47231
0.984017
0.573657
0.513976
0.364004
0.686869
0.54115
0.441643
0.632131
0.639546
0.689832
1.74197
0.503824
0.569215
0.781468
0.519097
0.4306
0.375542
2.08227
6.06342
3.55909
1.13432
0.510697
0.435818
0.403086
1.4276
1.48968
1.44447
1.54733
1.45202
0.495555
0.572865
0.530443
0.35179
0.66189
0.570448
0.393147
1.8122
0.497927
0.787523
0.398833
0.537407
0.601549
3.06095
0.731503
0.342442
0.386844
0.517386
0.750626
1.58113
0.568785
1.6222
0.519473
5.11551
0.518032
0.737123
0.484458
0.339178
1.79533
0.623337
2.37024
0.424954
0.605733
0.529326
0.5133
4.20409
1.24017
0.380429
0.351612
2.73801
0.904407
4.1056
0.42212
1.85797
6.68919
0.422228
0.402059
0.441994
0.723453
10.4181
7.69831
0.415949
2.50991
0.37584
0.645225
6.32968
0.331184
0.39735
4.46995
0.566461
1.19078
1.39085
0.420539
0.80492
0.645593
2.02614
0.525231
0.441012
0.648092
0.618837
0.575236
0.646707
2.87432
0.535375
10.0386
0.731221
0.558303
0.569107
0.432839
0.401337
0.985945
0.376676
0.794809
0.386278
0.487904
0.53069
0.273599
0.602244
0.545593
0.539577
0.568747
0.50157
2.29714
0.718636
0.550789
0.439532
0.555737
0.786667
0.567103
0.4331
2.62391
4.30578
0.466994
0.540111
2.76972
0.466277
0.51261
0.556021
0.388993
0.524233
0.667015
0.435315
0.410273
0.414523
1.4003
0.459457
0.455832
0.459686
0.418128
0.422898
3.04376
0.743604
0.597708
0.463733
0.624384
0.612824
1.52981
0.548813
0.559327
0.371106
0.538154
0.787005
0.658598
0.501816
0.470043
0.524239
0.885444
0.521166
0.41314
0.55696
3.0611
3.2005
0.44912
1.6137
0.430201
0.540779
0.356167
0.529063
0.455803
0.379394
0.954137
0.680968
0.389795
0.410789
11.1239
0.774694
1.95439
0.818093
0.392203
0.495482
0.698812
0.723253
8.38744
0.580377
0.500217
0.342868
0.38961
0.50684
0.517729
0.417947
0.374151
0.483282
0.575114
0.667085
1.98819
1.12347
0.477581
0.538668
0.438643
0.708899
2.63084
0.474753
0.333767
0.512031
0.594316
0.655257
3.70091
0.394515
5.40573
0.304194
2.66967
4.34546
2.42095
0.476803
1.39822
0.594629
0.673884
2.33357
0.431414
0.518243
2.25468
0.754824
0.484921
0.474405
0.453754
0.48609
0.673894
0.502365
0.484503
0.501556
0.726091
0.368477
0.433486
0.545941
0.362725
0.510108
0.577567
0.393247
0.457832
0.468515
0.639955
0.722269
0.885102
0.412372
0.479758
0.429223
13.0261
0.837736
0.423686
0.400367
0.533633
0.726757
1.94538
0.531347
0.347165
0.676112
3.20617
0.659808
0.339155
0.509225
10.3236
0.577828
0.531543
0.395284
0.31946
1.15044
0.818602
2.5683
0.440235
0.340777
0.592893
0.590132
6.89972
0.711031
1.85356
0.777526
0.428891
0.39773
23.8355
0.418525
0.374477
1.72813
0.444282
4.44543
0.48543
0.577027
0.470784
0.621708
3.18714
1.38343
0.465823
0.505812
0.647149
10.4179
2.16312
0.765273
0.488698
0.558818
0.494312
0.465017
0.576941
0.698308
12.2481
0.516488
1.56819
0.828977
0.505981
0.54104
0.836108
0.479072
0.39747
9.54853
1.59866
0.65626
21.8608
0.941203
4.13945
6.71275
0.314956
0.578969
1.19131
0.592246
0.53743
0.544451
5.39581
0.624469
0.411809
0.328206
0.46566
0.727499
0.839373
0.611877
0.566172
2.35185
0.598912
0.585806
2.58357
4.02819
0.55005
0.578755
2.82676
0.550818
1.61227
0.500368
0.354894
0.58115
2.68259
1.19188
0.631991
0.404877
4.4532
0.594328
0.885886
0.572284
0.679856
0.386052
0.400695
0.666148
4.15278
0.441975
0.47308
0.428613
0.479258
0.579384
2.48578
1.7324
1.6146
0.637681
0.402326
0.628678
7.53032
0.46871
0.332617
0.630045
4.9909
0.414233
5.42117
0.401579
0.725678
0.514671
2.71268
0.645251
0.474599
0.399184
0.368051
0.551051
0.61907
0.907574
0.47435
0.441461
0.516979
0.486096
1.49477
0.4895
0.442897
0.374494
0.627672
0.413868
1.86382
0.432299
0.551778
0.734348
0.449082
10.1984
0.882747
0.628655
0.440112
0.664936
0.418823
0.536549
0.438172
0.503724
1.16876
0.265481
9.27764
0.475334
0.326455
0.399727
1.61076
0.350198
4.7985
0.691642
0.355484
0.509021
0.529895
0.40544
0.339416
0.46678
10.3541
0.51523
1.60275
0.349323
0.396869
0.464213
0.559529
0.67774
0.420662
0.452533
0.477529
0.396623
5.09002
0.711778
0.31779
7.57101
0.525677
0.690776
0.430398
0.486214
0.481343
0.581636
0.373218
1.15085
0.936134
4.03812
0.806608
0.478581
0.453765
0.424229
1.60885
0.411023
2.52543
0.838659
2.19237
0.451785
0.573148
0.437947
3.33738
10.0268
0.457548
0.571034
0.406161
2.12614
0.407504
0.504127
1.50825
0.391436
14.5376
0.720597
0.658125
0.463713
0.399123
0.465598
0.472419
0.521114
0.630645
4.57274
0.600929
0.330774
0.737983
0.554226
0.31715
0.704053
0.544099
0.476774
0.49146
0.448014
0.501599
5.94343
0.496477
0.570959
2.12237
0.756372
0.36526
0.574007
0.512533
0.508507
0.485756
0.576701
0.784193
0.492393
0.494321
0.440194
3.12746
3.63909
0.582916
16.8401
0.427995
0.428413
0.576997
0.504484
0.400781
1.67954
0.809964
0.524921
0.501094
0.50172
0.949192
0.727245
0.539855
5.24634
0.394446
0.419823
0.367293
2.21968
0.43359
0.914902
2.51217
1.66085
3.41352
0.779763
0.545022
3.59351
0.384397
0.631384
0.736851
2.19547
0.335232
9.23095
0.608938
0.568987
14.2248
12.9037
0.363676
0.578886
0.551518
0.523414
2.33716
1.66753
0.83748
0.588911
0.543973
17.8829
0.541429
0.514063
0.678939
6.67346
0.370868
0.741263
1.38491
0.346971
0.575081
0.55044
0.526659
0.429167
0.416129
0.403408
1.36315
0.396094
0.28348
0.365876
3.74091
0.894013
0.42269
0.557295
0.544675
0.555396
3.98603
0.528137
0.445764
0.366424
1.93606
0.46975
8.09242
0.444099
0.736248
6.77415
0.394075
0.549364
0.587465
0.355449
0.502892
5.70831
4.76638
0.631814
0.555655
0.421719
0.611174
8.30095
0.832348
1.7008
0.52866
0.644148
2.14762
1.4976
0.525427
0.422589
0.774208
0.490372
0.421762
0.402819
0.414396
6.14674
0.456033
0.5348
4.22954
0.610619
0.480309
1.34294
0.423426
0.600156
2.10646
0.603115
0.357365
1.73199
0.541353
0.527851
0.511213
0.494511
4.7947
20.1673
0.540003
6.00006
0.464486
0.497524
0.753061
0.328764
0.522159
0.555128
0.449693
0.48517
0.545681
0.701429
0.513255
0.415503
0.46084
1.52604
0.764978
0.604211
0.515001
0.41445
0.564967
0.582231
6.4714
0.491241
11.797
0.456611
0.422032
0.508653
0.405445
0.671062
0.695452
0.358542
7.26355
0.612515
1.20238
0.32582
0.696825
0.444953
0.492523
0.591324
1.23704
0.57729
0.583151
0.33033
2.55908
4.09218
0.491207
2.1979
0.436335
2.93391
0.411536
1.31403
0.4358
5.02278
0.444584
2.04772
0.5738
0.459292
0.593542
0.474474
0.639746
0.415296
0.351545
0.359847
0.586586
1.07229
0.281001
0.545391
0.595463
0.356888
0.579543
0.524507
0.433767
0.817369
0.837506
0.418267
0.530452
0.758696
0.781851
0.455821
0.781861
1.00905
2.3654
0.485972
0.414105
0.61415
1.7202
2.41059
0.580891
0.758279
1.31581
9.85577
0.662336
0.470252
0.500382
0.569645
0.720122
0.485415
2.06441
0.389489
0.4961
2.63497
0.49654
1.10167
0.576291
0.435165
0.523475
0.337816
2.82609
0.411485
1.09666
3.56953
0.524655
0.613378
0.431961
1.60094
0.353017
0.547703
0.8159
0.447503
0.435043
0.489416
0.465864
0.590183
0.513635
1.57004
0.536575
0.621534
3.19196
0.575524
0.513926
0.645396
3.74534
0.43614
1.78184
0.50889
0.576967
0.344967
1.22211
2.27866
2.19337
1.07408
0.443772
0.514286
0.37513
3.0945
0.459228
1.53671
0.390294
8.82927
0.489936
0.554164
0.410746
0.62136
0.364448
0.425506
3.53042
0.528984
1.45443
0.513657
0.72474
0.452706
3.89735
1.06797
7.07895
0.378901
0.657647
0.6066
0.369837
0.503613
0.455906
0.572918
0.579086
0.886193
0.847521
14.095
0.505325
0.445545
0.38513
0.702434
0.448115
0.339851
0.508681
0.539797
0.346329
1.73023
1.66547
4.52372
0.497875
0.51853
0.429253
0.496555
0.585575
0.534817
0.4003
0.462317
0.656729
0.562884
2.68291
0.805668
3.89712
0.481187
2.37611
0.546562
0.420705
0.472322
0.799758
0.485029
5.6051
0.569929
3.80782
22.6187
17.1699
0.367926
0.626159
0.542023
2.03614
0.764749
0.525286
0.311134
0.606818
0.483865
0.474396
12.9641
3.69235
0.497427
0.352008
10.3247
0.584907
0.480822
0.431619
0.446942
0.569651
1.93513
0.583513
0.331847
0.485027
0.558861
0.407418
7.61433
0.364214
3.66449
5.65656
2.72107
0.683015
4.99469
0.503838
0.385311
11.8175
0.563079
15.448
2.74132
0.339387
0.538778
0.430339
0.514977
0.409375
0.387713
1.13457
0.320082
0.544677
0.335916
0.539971
0.538116
0.303181
0.572322
2.13004
0.569764
0.443324
0.358197
0.411921
5.58486
0.435157
0.546751
1.76339
0.520787
0.320816
0.426983
0.492544
0.476539
12.7388
0.518574
0.387318
0.509081
0.408198
5.04223
0.499457
6.42228
0.360744
0.362095
0.508711
0.675002
6.94148
0.340559
0.562642
0.456082
7.94216
0.551285
1.56079
0.536299
0.418802
0.504226
6.84903
0.717664
0.882824
0.439667
0.486394
16.1383
0.378463
1.1433
0.53686
3.99333
0.459699
0.605306
0.361516
0.681241
0.440048
0.38881
6.66154
0.80349
0.441021
0.915225
0.515176
0.37594
0.4874
1.26922
2.01495
0.62343
0.443274
0.820122
0.506768
0.611653
1.1583
0.358602
1.06555
13.7429
8.36539
0.4703
0.455401
1.90198
0.565875
0.440796
0.608264
0.923588
0.34893
0.461821
1.96159
0.593881
0.545315
0.566529
0.480555
2.95255
0.407831
48.8155
0.501041
0.696054
0.567595
0.505862
0.353689
0.553899
0.411224
1.56576
0.588142
0.595029
0.433618
0.475098
0.505684
0.533202
1.1349
0.455943
0.390438
1.10724
0.743846
0.701868
0.506621
10.5751
5.52215
0.797476
0.525081
6.42898
1.28166
0.580744
0.476936
0.387125
0.598645
0.587546
0.759653
0.833583
0.564182
0.436808
0.435274
5.62175
0.517289
0.502718
0.509829
0.434793
0.465999
0.523238
0.429676
0.520104
1.23952
1.05471
0.548856
0.556058
0.841773
3.00624
0.54221
0.740812
2.0668
4.00634
20.2127
0.467464
0.903084
0.42337
0.484622
1.4551
0.478662
0.714675
0.409838
1.14941
0.395687
0.523958
0.50929
0.423149
1.11185
0.619044
0.606967
4.65932
0.433141
0.485407
0.640492
0.630387
0.386754
0.49098
4.00871
2.00324
12.983
0.440237
0.456879
2.30036
0.500377
0.52449
1.95255
0.398914
0.378038
0.461715
0.355009
0.527099
0.516944
3.41821
0.749413
0.698646
0.534931
4.90605
14.2148
2.76618
0.588214
0.343726
0.635262
0.406666
0.635159
0.494503
0.454336
0.78842
0.508513
0.599424
15.7312
0.498394
0.392852
0.392453
6.78853
0.532039
0.445223
0.571575
0.591137
0.470644
2.77955
0.958004
0.474515
0.433223
7.31293
1.1378
0.52979
11.3801
0.506928
0.350145
1.23091
0.49812
0.550513
0.498956
0.550359
9.23078
0.394256
0.599415
0.708397
2.24292
0.508103
0.411105
11.4589
19.7011
0.340332
0.76536
0.974536
0.48778
0.467783
0.69339
0.376989
0.620471
18.7838
0.413914
5.77595
0.490916
4.88392
0.377488
0.539818
0.587813
0.506199
0.524105
0.714542
0.783011
0.516106
1.21069
0.37523
0.42041
0.65326
0.518112
0.649292
0.555142
0.722622
0.426088
1.25463
0.470141
0.640652
0.486601
0.45194
7.14851
0.535927
0.629878
0.477009
0.39909
0.47224
0.420243
0.545373
0.513375
0.419383
1.08053
0.639172
0.580779
1.04495
0.601038
0.956105
0.388751
0.450014
0.582971
3.91457
0.592852
0.355128
0.447499
0.551072
0.476316
7.67013
0.536245
0.532607
3.21086
0.325912
0.441638
4.72869
0.524683
4.22406
0.54373
0.41932
0.434094
3.92056
13.9851
0.320693
0.894213
0.508245
2.88898
1.01706
0.553815
0.397261
0.463248
42.8618
7.30571
0.44154
0.40009
0.689669
0.437447
0.499907
0.659548
0.586056
0.446739
0.448918
0.526972
1.18463
1.55458
0.590734
0.660982
0.501803
0.506581
0.443304
0.352554
1.49636
0.421741
0.644431
0.640011
0.370241
0.379637
0.527852
16.9584
1.09338
0.47348
0.466697
2.583
0.54543
0.610487
0.597689
0.49475
0.817385
0.499205
0.646972
0.388287
0.58695
1.8632
0.444137
0.462181
2.63955
0.995719
0.564122
11.0829
0.48027
0.590768
0.460158
0.41566
0.618261
0.479936
0.605439
0.382278
0.747672
0.458704
0.53855
12.5635
0.612405
0.897852
2.82941
0.648787
2.29991
0.587591
0.569609
0.61809
