0.19679
0.629539
0.249027
0.174209
3.11292
0.512448
0.358159
0.167414
0.991055
2.70169
2.61157
2.66213
1.99835
0.249042
14.6293
0.389753
0.328519
0.220551
0.557097
0.334909
0.463943
4.03859
0.3286
0.208921
0.250405
0.215133
0.216795
0.293552
0.294405
0.425256
0.245707
0.292272
0.328201
1.68501
0.42543
0.701477
0.46296
0.163325
0.39024
0.389076
0.201822
0.422036
0.198589
0.14501
0.214635
0.191474
0.194314
0.322021
15.5283
0.420182
0.201312
0.444694
0.151186
0.322149
5.38446
0.258772
0.331603
0.288498
0.267271
0.281054
1.27651
0.777841
0.119184
0.293344
0.385518
0.35456
0.29295
0.384552
0.213126
0.1468
0.10533
0.338564
0.600997
0.497835
0.439937
0.205403
0.150128
0.382081
0.331112
4.61314
0.334636
0.23116
0.312993
0.109925
0.221348
0.331045
0.416064
0.220579
0.334743
5.09616
0.171793
0.244658
3.17607
0.144825
0.302765
0.213941
0.192181
0.192722
0.298307
5.27658
3.23188
0.432022
0.247204
0.27197
0.297762
3.47317
1.6805
0.272909
0.247413
0.249303
0.219505
1.37345
0.238489
0.335415
0.193271
0.165324
0.350699
0.436147
0.217248
0.152647
0.377785
0.354882
0.454775
0.188961
0.413593
0.160917
0.328063
0.282136
0.290017
0.245099
0.377017
0.275955
0.205468
0.354624
0.171637
0.202886
0.271668
0.331671
0.278733
0.167432
2.38601
0.334251
0.245053
3.85797
0.247861
0.889706
1.123
0.2528
0.335148
0.227827
0.478847
0.384377
0.253151
0.296197
0.156917
0.276366
0.132804
0.245014
2.89568
0.215873
0.244981
0.259079
0.221093
0.109408
0.218192
0.242857
0.194181
0.345679
0.273081
0.325994
0.754744
0.221814
0.413837
0.176172
0.145931
0.991257
0.348122
0.231834
0.352142
0.310621
0.47499
0.255465
0.241352
0.152491
0.193231
0.350611
0.137099
0.307342
0.316806
0.211611
0.570501
0.182079
0.171317
0.330952
0.326558
0.161243
0.169146
0.251162
0.154574
0.331202
1.81679
0.403548
0.223486
0.448071
0.193525
0.21318
0.370276
0.353013
0.145205
0.259717
0.182305
0.222792
0.642248
3.07013
0.59516
0.62543
0.462335
0.268055
0.233445
1.6167
0.17944
0.159359
0.216565
0.23318
0.892703
0.170116
0.324159
0.259111
0.363497
0.29635
5.49401
0.249954
0.214084
0.561492
0.292382
0.468512
0.490179
5.82481
0.336893
0.162003
0.487284
3.09909
0.13571
0.155805
0.356193
0.245341
1.13225
0.21888
0.314544
0.137866
0.181414
0.254474
7.62275
0.22102
0.235931
0.315415
0.338638
0.292634
2.34234
0.246826
0.159883
0.685762
0.313343
0.259867
0.379366
1.18889
2.29326
0.234896
2.12706
0.125036
0.386335
0.4129
0.310815
1.78641
0.251623
0.650338
0.65783
0.271274
0.225723
2.41644
0.803586
0.239275
0.440656
0.213367
0.82659
0.365044
0.640284
0.642932
1.04387
0.211034
2.08004
0.125343
0.298707
1.93097
0.255934
0.41481
0.747874
0.204643
0.310363
0.376744
0.336424
0.281578
0.199353
0.187628
0.284537
0.318778
0.227405
8.46292
6.91001
0.415797
0.469161
0.276233
0.449093
0.270724
0.439442
0.32726
0.437734
0.162171
1.79137
7.37022
0.998299
0.337108
1.52516
0.27975
0.200507
0.297065
0.140752
0.334517
0.225532
0.638096
2.77983
0.266188
0.3836
5.16548
0.320844
8.06754
0.28221
0.391519
0.398487
1.66737
0.246207
0.240942
0.301643
0.227355
1.82096
0.39955
10.9083
0.435419
0.091705
0.318341
0.240662
0.831448
0.153922
0.138805
1.27926
0.205074
0.165166
0.364493
0.263085
0.289792
0.622965
0.135279
0.244803
0.157398
2.23143
0.320587
0.232096
0.109266
0.974488
0.393497
5.07127
0.147945
1.50681
0.199685
0.201599
2.08509
0.361283
0.436775
0.78421
1.45672
0.387572
0.232506
0.194069
0.169789
0.336125
4.71891
0.314769
0.360849
0.266022
0.426049
0.352872
0.0794462
0.274318
0.197818
0.211611
0.190962
0.425761
4.3176
0.245109
0.349552
2.32955
0.166746
0.159999
0.243513
1.17802
0.392758
0.223724
0.139258
1.51252
0.130946
0.183834
0.269617
0.275597
0.305383
0.298566
0.423042
0.32737
7.26504
0.311652
0.306024
0.18108
0.206674
0.128003
0.341678
0.315697
0.296988
0.213346
0.142671
0.238076
0.356525
0.383316
0.485843
0.18878
0.237596
0.20805
1.47272
0.170183
0.374702
0.636715
0.420724
0.481475
1.69757
0.765345
0.301524
0.355228
4.56815
0.547635
0.31599
0.530505
0.27263
0.339956
0.240386
0.204244
0.135342
0.398042
0.345861
0.18137
0.707728
0.192325
0.46016
0.219628
0.339322
0.589825
0.357094
0.232436
0.287297
0.396616
0.131313
0.198554
0.395384
1.17333
1.3258
0.779719
7.9259
0.304966
3.31532
1.97113
0.396815
0.215019
10.3599
0.290182
0.267438
0.211907
5.9152
0.212858
2.16961
9.05738
0.245094
3.39622
0.341766
0.160264
0.310058
0.323251
0.265418
5.57174
0.278478
0.305545
6.4225
0.377739
0.192047
0.225743
1.07988
0.393376
0.600701
0.362374
4.20337
2.32304
3.68596
7.72115
0.254939
0.244876
0.229693
0.237268
0.120844
0.315866
0.200081
0.279575
3.03862
8.11827
0.183872
1.7626
0.201021
0.37389
0.244048
0.321206
0.131124
1.59876
1.53138
0.476823
0.332186
0.316778
0.491781
0.368545
0.249248
8.018
0.262022
4.54811
12.3169
0.160797
0.52563
0.148736
0.261063
0.304615
0.257002
0.196485
0.134272
0.212303
3.94289
0.254537
0.125229
0.559472
0.0901076
0.15912
0.329082
0.404736
0.227333
0.545037
0.396284
0.0846452
0.291601
0.484226
0.186204
0.231378
0.743521
0.239581
0.352158
0.273323
0.378367
0.144208
0.292182
0.496322
1.71782
0.487252
0.258763
5.08336
0.543064
0.354184
0.406955
0.198874
0.218219
0.252852
0.376198
0.360376
0.879034
0.320036
1.27139
0.111335
0.336353
0.256107
0.271203
0.210854
0.255307
0.395909
11.2749
0.223296
0.228166
0.427051
0.22689
3.96757
0.509114
0.902508
0.55225
1.03813
0.175743
0.165208
0.288962
4.11775
1.03121
0.15273
0.347886
0.304518
0.578937
0.34137
0.317458
0.21363
0.208759
0.284176
0.203787
0.218824
0.2229
0.10973
0.289225
0.35722
0.31799
1.48786
0.661571
5.18174
0.180855
0.125015
0.469833
0.133395
0.353785
0.255984
4.70108
0.305022
1.82415
7.71026
0.253948
0.3273
0.276955
6.15457
1.18171
0.248105
0.480945
3.16811
0.162807
0.313294
0.277284
0.294785
0.226231
0.216883
0.367414
37.3633
0.150317
0.280499
0.220236
1.05381
0.411993
0.138082
2.53573
0.409909
0.246998
0.235063
0.728499
0.425109
0.13469
1.9272
0.229039
0.245144
0.20921
0.411439
0.237515
0.113036
0.563484
7.85007
0.280406
0.453174
0.11136
0.184167
0.279548
0.12039
0.423794
0.354669
0.192958
0.231679
0.308066
5.01516
3.97837
0.311315
1.22485
0.4633
3.96646
0.3376
1.17137
4.05529
0.635042
0.185249
0.480148
0.139607
0.149153
0.210302
0.304907
0.450414
1.76863
0.274902
0.207965
0.159057
0.195287
1.77693
0.360396
1.55815
4.24658
1.70032
0.159802
1.67783
0.254662
0.176724
0.153791
0.194243
0.655895
0.311801
0.25044
0.264619
0.467956
1.59518
0.265372
1.00652
0.517932
1.88178
0.142645
0.143777
0.225149
0.361614
0.236286
0.319387
0.292538
0.335946
0.178773
0.200009
0.951887
2.87858
3.21383
17.4954
0.17869
0.222225
0.296848
0.330276
0.196494
0.407758
2.59718
1.70872
0.211967
1.23992
0.443972
0.161373
0.222063
1.47956
0.294701
0.17278
0.211617
0.43951
0.204025
0.120989
0.561521
0.230093
0.167795
7.8722
1.43529
0.183112
0.355954
0.120786
0.294192
0.305071
0.429115
0.189792
0.251151
0.1705
0.230189
1.56645
0.368337
0.273412
0.213521
0.441943
1.92562
1.58364
0.122876
0.27184
0.298321
0.239381
2.06411
0.14935
0.424484
0.2704
0.137774
0.230823
0.162536
0.292031
0.276783
0.463833
0.110183
0.243395
0.606793
0.53172
0.144589
0.398167
0.306392
0.288431
0.525462
0.261273
0.183336
2.43012
0.169464
0.282667
5.87577
0.16479
0.359011
0.171718
3.24807
0.15508
0.205305
0.111166
0.378602
1.16409
0.691
0.366598
0.128197
0.130531
0.510232
0.1525
0.222665
0.429102
0.405697
0.53543
0.322819
0.246694
0.0935999
0.7153
1.06619
0.246644
0.314241
0.386736
0.305743
0.263659
1.04612
0.157652
0.18898
0.36721
4.14209
0.137542
0.342936
5.79775
0.200945
0.309391
0.306186
0.243178
0.26992
9.25134
2.98222
0.650588
1.24633
0.212501
0.348457
6.70831
0.251364
0.288597
0.1527
0.588199
0.372954
0.819034
0.600435
0.160224
0.294531
0.263089
0.210745
0.244399
2.44633
0.259267
2.74644
0.214056
0.325118
0.337059
0.592808
1.22372
0.301165
0.253134
0.369884
2.72795
0.166357
0.327002
0.383679
0.234437
0.244266
0.388295
0.498164
0.289542
0.271486
0.151502
0.164282
0.305598
0.337054
0.153844
0.288849
0.189875
0.286734
0.547929
0.172565
0.294765
0.347786
0.173515
0.343159
0.356934
0.325534
0.267981
7.4217
6.54151
2.13475
0.194848
0.462588
0.214531
0.188559
0.212909
0.24805
0.228913
0.273016
0.510271
2.43539
0.468971
0.137509
0.314772
0.271306
1.80259
3.36834
0.131106
0.198237
1.6348
0.428315
0.15435
1.18641
0.346437
0.530502
0.348551
0.381875
1.86142
0.400912
0.206522
0.417429
0.0972783
4.76044
0.218056
1.04977
0.117803
1.90883
0.29002
3.06868
2.48408
0.330937
0.212573
0.434232
2.55458
0.353942
0.257834
0.597214
1.14217
0.322814
0.224907
0.400676
6.73055
0.186663
0.249233
0.170105
0.601501
0.491413
0.141167
0.092542
0.48702
0.26431
0.332101
10.0367
0.409861
1.63919
0.223934
4.73586
0.311686
0.428863
0.277795
0.391335
0.442437
0.219578
0.349055
0.180609
0.193955
0.141981
0.326303
0.246342
0.203635
0.216725
0.144447
0.265964
0.162155
0.243065
0.242605
0.36973
0.483792
4.9642
0.1705
0.454539
0.328941
0.568819
0.267838
0.217602
0.27259
0.239089
0.276052
1.85504
0.240691
0.476782
0.586757
0.331145
0.240898
2.61862
1.13208
0.181001
4.52057
0.36019
10.6644
0.345079
0.18074
0.403734
1.65149
0.35532
0.264635
2.0045
0.186343
1.5243
1.52823
2.18204
0.327545
0.316714
4.50425
0.237764
0.290984
1.04313
0.315038
0.322223
0.271462
0.401187
3.60559
0.172804
0.201662
0.470867
0.400923
0.347949
0.377547
0.18708
0.277838
0.875082
0.291434
0.217957
0.217381
0.512509
1.54394
0.466801
0.423204
0.282889
1.36178
0.153291
0.326417
0.216386
0.183938
0.230687
0.259366
0.135403
0.595154
1.02984
0.376127
0.133903
0.207938
0.296796
0.205624
0.327191
0.345633
0.310883
0.188743
0.146453
0.326023
0.488087
0.302217
0.344599
0.25088
0.732717
1.64435
2.17924
0.417559
0.494575
0.235039
0.40374
0.199847
0.292089
0.458151
0.313388
0.301964
0.164933
0.322098
0.281764
0.252513
0.0820372
0.469001
0.205846
0.186614
0.381011
0.472721
11.2971
0.0791535
1.5304
0.103478
15.3794
0.602324
0.312713
4.18796
0.396095
0.632968
3.03205
0.134226
0.27373
0.327856
0.157342
0.228802
2.62439
0.267164
0.735177
0.189759
0.334525
0.164652
0.425099
0.452582
0.402173
1.13024
0.471337
1.55769
0.113367
0.180575
0.280586
0.236631
0.447561
1.03561
0.364759
1.61583
0.723271
2.92524
0.529616
0.301405
0.318163
0.386965
0.675418
0.263079
0.349957
1.86416
2.14053
0.276487
0.436713
0.462098
0.145852
0.149409
0.395428
2.80839
1.36176
0.277673
3.44375
0.35081
0.181993
2.91435
0.239931
0.305181
0.264877
0.618198
5.89399
0.214474
0.466363
2.21349
5.72107
0.277652
0.609149
0.54789
0.243454
0.27042
1.02061
0.257566
0.246965
0.186878
0.382384
0.236688
0.255221
4.80455
0.927624
0.229948
0.311284
0.483297
0.148073
0.225974
0.344045
0.19571
0.187454
0.471503
0.296619
2.49274
0.145565
0.183552
0.380498
1.37731
0.135566
0.232511
0.11976
0.256631
0.269752
0.319733
1.78355
0.319108
0.253689
0.37423
0.235082
0.19118
0.470923
0.307074
3.107
4.84037
0.378977
0.344034
0.178686
0.120678
0.422088
0.184913
0.1464
0.159817
0.4685
0.17305
0.444097
0.271837
1.33432
0.182582
0.297861
0.340528
0.190676
0.340851
0.479174
0.129651
0.265776
0.420714
0.203069
0.332117
0.399385
0.40115
0.182217
0.287666
0.208011
0.220878
0.384248
0.152513
0.242607
0.122287
0.363362
0.27396
0.327208
0.572632
0.244443
2.98136
0.301431
1.4074
0.365656
0.365117
0.242374
0.4038
0.535779
0.319091
0.310208
1.18
0.259389
1.91744
0.457478
0.263038
0.178548
0.212428
0.331025
1.62353
0.218272
0.279024
3.91271
0.339986
0.389967
0.190004
0.203646
1.87226
0.258406
0.24041
18.7957
1.19129
0.320259
0.148675
3.63753
0.265077
0.311407
0.550838
0.306789
0.260054
0.15941
0.355004
0.352831
0.173115
0.177694
0.398003
0.506784
0.277822
0.181925
0.315604
0.23446
0.122864
0.433244
0.279518
0.214472
0.39276
0.424855
0.469745
1.88296
0.388974
0.170074
0.113485
0.208816
0.150019
0.402962
0.302484
0.143234
0.209533
0.205743
0.24507
12.0219
0.255151
1.57719
0.167988
0.238464
0.21085
0.183807
0.391705
0.4237
0.231958
0.119482
0.131159
0.48657
0.563167
2.03345
0.199785
0.0898038
0.0639383
0.305312
0.299388
0.426712
0.512547
0.262038
0.550335
0.302335
0.365076
6.3578
5.6035
0.255303
0.610619
0.330771
0.30855
9.18665
0.306439
5.73393
0.290386
0.167034
0.337682
0.302096
0.228035
0.131424
2.18159
0.379593
0.24828
0.164947
0.247261
0.241589
0.386542
0.430657
0.227886
0.18069
1.6684
0.26421
0.152847
0.295985
12.97
0.490136
0.500664
0.218017
0.232052
4.30343
16.3157
0.289473
0.289849
0.603508
1.16474
0.240294
0.155913
0.201951
0.186242
0.197701
1.2593
0.134152
0.403466
0.318234
4.14208
0.4741
0.368915
0.461666
0.307112
0.349709
0.292415
0.0841303
0.318772
0.287916
0.556653
0.380976
0.522712
1.14246
0.174649
1.83592
4.70399
0.282819
0.346183
0.343349
0.291401
0.153421
0.31719
0.896085
5.51223
0.210635
0.866924
0.171416
12.9998
0.476572
0.262257
1.60141
0.197818
0.264739
0.25183
1.77369
7.96394
0.181021
2.47707
0.191802
0.714865
0.215266
0.235593
0.369475
0.33686
0.0845624
0.398307
1.45371
3.30285
0.967096
0.232425
0.208909
0.245185
5.83829
0.624302
5.4669
0.300257
11.2363
0.514625
0.208211
0.181072
0.302035
0.464027
0.223417
0.309384
0.317384
0.192632
3.76508
0.503051
0.36312
0.189604
0.732102
0.158642
0.141573
1.26198
11.8084
0.413336
0.325142
0.268175
0.193429
0.36875
0.253944
0.303481
0.327529
0.387289
0.250702
0.226283
11.8824
0.192863
0.201955
0.183538
0.241964
0.204488
0.479551
0.347555
0.330805
0.373465
0.10087
0.57441
0.197364
0.480507
3.88692
0.114327
0.458846
0.266426
0.268623
13.4112
0.296
0.299219
1.75973
0.184884
0.235083
5.21234
0.249251
1.45446
0.290291
3.50246
0.16067
0.17199
0.200061
0.735037
0.354449
4.18757
0.154794
0.198625
0.307229
0.450932
0.432663
0.167328
0.240375
0.367764
0.261666
0.254662
0.175742
1.10665
0.28555
3.41849
0.800577
0.175168
0.33111
0.235652
0.161152
0.220773
0.0884015
0.390519
4.04502
0.215769
0.251361
0.0936651
0.270556
0.218542
1.02188
0.303086
0.534699
0.631704
0.504643
0.332094
2.06208
0.335753
0.320764
0.337335
0.136483
0.201428
0.279693
2.96651
2.08082
0.445047
0.19145
0.32883
0.24824
8.45974
0.146242
0.137848
0.405162
3.97882
0.510662
0.452216
0.579716
0.688614
0.290576
0.303073
1.48754
1.79393
0.0821203
0.511563
0.220079
0.188369
0.394374
0.264251
0.35054
0.916494
0.253272
0.441883
0.539883
0.230274
0.432238
0.211389
0.264015
13.5163
0.515598
0.36095
0.982923
0.919027
0.346749
0.330585
0.318466
0.121629
0.297699
0.150545
0.498499
2.0053
0.225713
0.507072
0.32078
0.52047
0.129752
0.240303
0.31121
0.266538
2.25121
4.49893
4.11527
0.219699
0.457121
0.191716
0.202457
0.149448
0.449314
0.313549
0.598223
0.166063
0.299699
0.219209
1.29448
0.163181
0.518977
0.252813
0.236177
0.204433
0.193051
1.50565
0.249361
0.129369
3.29558
0.62799
0.258448
0.186048
0.135413
6.15786
0.20048
1.37675
0.261237
0.307865
0.388091
0.340151
0.212492
10.2063
0.342924
0.320807
0.984631
0.170951
7.79895
0.343241
0.198921
0.433903
1.69515
0.262778
1.24777
0.137081
0.255576
0.319338
0.540952
0.201064
0.252599
0.429038
0.313385
0.153029
0.104752
0.163032
0.620435
0.5704
0.389348
0.273637
0.178751
0.495478
0.23915
0.303088
0.229563
0.272314
0.121415
0.208732
0.560692
0.419175
0.274152
0.209663
0.0887102
0.217295
0.406752
0.524355
0.354119
0.298089
2.75343
0.39898
0.137458
0.271598
0.235886
2.06941
0.13806
0.562457
0.256155
0.19118
0.288411
0.456078
0.246161
0.240126
0.221002
0.232394
0.128683
0.365847
2.41849
0.27141
0.303401
0.457001
0.684667
0.230194
2.60289
0.194895
0.225544
3.10998
0.402111
0.254643
0.210685
0.234873
0.123572
0.311666
0.274219
0.448776
19.1326
0.170079
0.134247
0.45579
0.971117
0.218376
9.0461
0.160959
0.187215
0.270083
0.407743
0.185487
0.1878
0.492365
0.389804
0.450997
4.33292
0.236837
3.07621
0.384771
6.25227
0.278944
2.28381
0.524258
0.199667
0.102825
0.129105
0.339606
0.565913
0.341911
0.241966
0.518229
0.247645
0.783673
0.483204
0.269612
0.184532
0.264125
0.606982
0.163038
0.277139
0.41597
0.35848
1.67585
0.123807
0.228788
0.326612
0.587115
3.36435
0.431798
6.12248
0.250462
0.305861
0.104891
0.286837
10.3559
0.217456
0.264361
0.262383
0.264405
0.527251
0.149331
0.352353
0.514034
0.56564
0.40074
0.215126
0.139043
0.406483
0.139871
4.38355
0.483677
0.46747
0.280755
1.29043
0.463902
3.19105
0.446139
0.53377
12.6719
0.237404
1.25819
1.42981
0.232911
0.382049
0.978745
0.473934
0.215542
1.91319
0.205443
0.414598
0.259099
0.153957
0.303982
0.692011
0.326489
0.17989
0.117129
0.329597
5.85194
0.336339
0.293333
0.396736
7.76057
0.210798
1.02584
1.48896
7.3896
6.68198
0.409064
1.41627
2.97313
0.391741
0.276281
0.14235
0.262058
0.425084
0.709786
0.165774
0.398454
0.293495
0.273847
0.22714
0.227579
0.182207
0.370047
0.838672
0.106204
4.32354
0.134494
0.319834
0.192588
0.279567
0.281346
0.468605
1.25356
0.128568
0.147037
0.229678
0.363286
0.527004
0.371102
0.233545
0.140005
0.23394
0.195487
0.37264
0.20647
7.75563
0.215998
0.237834
3.5279
0.30475
0.272651
0.396405
1.8596
0.335774
0.276777
0.627734
0.127238
0.347894
0.598302
0.53697
0.395728
0.344353
0.43893
0.187968
2.04324
1.69036
0.136736
0.277667
1.37199
6.32839
1.01009
0.129906
0.317319
0.590917
0.352309
0.388931
0.178473
0.386973
0.250074
0.299322
0.196568
0.223178
3.13874
0.207938
0.234062
0.496086
0.3541
0.299884
0.564689
3.92065
0.207454
0.352617
0.284068
0.402888
0.25262
2.33425
0.246563
0.242593
0.0916995
0.301893
0.236288
0.801017
0.422831
1.97124
0.431516
0.199984
0.249134
7.96589
3.11347
6.75959
0.248932
3.81794
0.412413
0.14941
0.192027
0.113626
0.26996
0.460705
3.27055
0.133926
1.54778
0.384665
0.209681
3.4975
0.255335
0.247567
0.729305
0.261411
0.27714
3.01332
0.277593
0.254121
0.447188
0.512439
0.172854
3.19826
7.64292
5.56575
0.456689
0.334952
0.183105
0.400377
0.240388
0.291691
0.213992
0.306292
1.05322
0.310552
0.310415
0.346036
0.389325
0.427782
0.159974
0.129247
0.43782
0.233899
0.0974177
0.300975
0.366503
0.259118
2.65876
4.80943
5.34714
0.251565
0.403413
0.294396
0.531321
0.250876
0.268409
7.87943
0.293515
0.206901
0.437028
0.613451
1.23467
6.50259
0.284545
0.268806
0.318447
0.482137
0.134359
0.200666
0.641583
0.228459
0.378674
0.31377
0.242194
0.218494
0.475828
0.441579
0.283906
0.230309
0.311257
0.324973
0.227583
9.32683
0.140918
5.28114
0.199884
0.333145
0.439182
0.667842
0.283266
1.39867
0.175434
0.744843
2.87995
0.268483
0.960308
0.386405
3.29005
2.40285
0.223609
0.733771
0.505381
0.198963
0.306552
0.259041
0.526321
1.27708
0.729472
2.89354
0.191946
0.259177
1.19873
0.219404
0.215906
0.293737
0.283464
0.186944
0.164508
0.247111
0.21773
0.290367
0.212215
0.357586
0.261305
0.382681
0.360612
0.974486
0.706693
4.60895
0.196163
0.14506
0.198435
0.238363
0.187727
0.178449
0.356066
0.250059
1.82115
0.224213
13.5963
0.82231
0.357187
0.319898
0.375754
0.153726
3.3816
0.203589
0.168243
2.0294
0.211188
2.40761
0.461132
0.223883
0.504891
0.159823
0.374213
0.258337
0.205006
0.403321
0.213222
0.140328
1.15458
0.0787685
0.543331
5.96717
0.331789
0.51711
0.664237
1.77867
2.44691
0.261673
0.261269
0.291363
15.2076
0.108659
0.199548
0.144529
0.209859
0.268131
0.13325
2.95497
0.185181
6.60818
0.287061
0.495112
0.328683
0.498897
0.536707
0.378538
0.363221
2.52977
0.40862
0.196482
0.224968
2.16891
4.50018
0.200664
0.444428
0.207229
0.21171
0.419781
0.299157
2.84214
0.531037
0.269034
0.2563
0.153092
0.974293
0.370293
2.05966
0.332366
0.29827
0.147147
0.354075
0.293259
0.137713
4.32453
0.298648
0.20757
5.68533
0.216488
0.168483
0.103067
0.502189
0.157493
2.46359
0.207664
0.13733
2.30761
0.185546
0.177206
0.311658
0.220927
14.2388
0.225711
0.460327
0.289804
1.05791
0.382596
0.230096
0.162533
0.192801
0.103041
0.608132
2.91541
0.269236
5.57484
3.00315
0.0845581
0.283438
2.91904
0.148142
0.387341
0.124134
2.3281
0.137331
0.242584
2.31091
1.19895
10.299
0.365229
0.410844
2.70596
0.220926
0.493909
0.290264
0.213097
0.319799
0.305011
0.329434
0.259896
0.326878
0.268671
0.171883
0.119059
0.553584
3.56178
0.11701
0.421248
4.81703
0.236944
0.400158
0.117022
0.350231
0.248865
0.248944
0.177434
0.36037
0.358116
0.165041
0.460168
0.445726
1.06938
0.234725
0.38858
0.454411
0.134135
0.324832
0.256909
0.673024
9.89132
0.154765
0.134511
0.270225
0.187948
0.0845302
0.232768
1.2537
0.701728
0.352192
0.381456
0.267519
0.143838
3.02826
0.178826
0.245397
1.29195
0.249459
1.48192
0.199994
0.467725
0.289976
0.112269
9.29959
0.44501
0.22454
0.360817
0.371303
0.27361
0.215158
0.341398
0.439863
0.197436
0.139236
0.161859
10.3012
0.661372
0.236092
1.09812
0.413818
0.190864
0.155643
0.143036
0.143438
0.313632
0.161591
0.33502
1.76737
0.26347
11.1399
1.76073
0.112263
1.96959
2.16062
0.578929
0.239906
1.53791
0.246215
0.24588
0.182787
0.489467
0.328913
0.395054
0.199455
1.47849
0.360395
0.176677
0.45768
0.930433
0.195147
4.51082
0.0779689
0.314692
0.148813
0.300749
0.277655
0.28911
0.407896
6.42294
0.311903
0.261942
0.170582
0.203226
0.199238
0.162389
0.718998
0.230193
0.22868
0.379367
0.31056
0.41339
0.239873
1.39696
0.357371
7.71789
0.0721307
0.232285
0.261683
0.357854
0.334394
0.208832
1.33954
0.204766
0.341101
0.260858
0.214237
0.404544
0.338561
1.54953
3.19034
0.139815
0.650978
0.582611
1.63963
0.554466
0.847446
0.105589
0.219403
2.76728
0.101793
0.333938
0.282089
0.389057
0.143714
6.94285
0.305078
0.287024
0.386016
0.1781
0.34558
0.421932
0.158261
0.175043
0.335891
0.399328
9.60598
0.214161
0.165341
0.247274
0.177499
0.365841
0.439002
0.258464
0.94212
0.252227
0.296007
0.31373
0.359299
3.42022
0.156613
0.446427
0.170124
0.30446
0.787169
0.489976
0.271708
0.134867
0.60233
0.34636
0.187525
0.262925
0.094194
0.184655
2.15709
0.423694
0.259049
3.94813
5.90998
0.170816
0.558285
0.240799
0.203163
2.8883
0.234372
0.305755
0.162165
0.264263
0.136365
0.216815
0.186447
7.74128
2.04714
0.152156
0.255618
0.458409
1.12198
0.176797
0.33046
0.210112
0.28806
0.378997
0.193141
0.332059
0.436545
4.19024
0.16761
2.53841
0.474922
0.326002
0.733927
0.24702
0.250486
0.222049
0.343039
0.144852
0.160914
0.488294
0.255012
0.188386
0.381455
0.270602
0.183354
0.553752
2.74584
3.95439
0.189535
0.237206
0.236091
1.9128
0.354199
0.682992
3.33971
1.56759
0.193771
2.72089
9.75987
0.151294
0.265277
0.17433
0.216316
0.428823
0.125562
0.376972
0.207915
0.240426
0.123678
2.0127
0.383508
11.3491
0.362764
0.152094
0.09902
3.3942
0.395735
0.310854
0.355947
0.188798
3.47862
0.181147
0.183892
0.0941344
3.03342
0.276191
0.305705
0.194805
0.231623
0.194646
0.178411
0.282088
0.350487
0.399349
0.145838
0.2049
0.097362
1.63251
2.30084
0.175404
2.7974
0.318061
0.545343
0.138239
0.393682
0.238732
4.30193
3.9066
0.237243
0.131346
0.262543
0.947064
0.197589
0.247753
0.486676
1.59755
0.343293
1.70866
0.173487
0.720501
0.46857
0.384634
0.297704
6.29324
0.257311
7.89624
0.316889
0.19424
10.8946
0.133772
0.484884
0.284499
6.02285
0.157226
0.213409
0.128506
0.868023
2.37174
0.229337
0.240379
0.83139
0.445495
4.40636
0.276077
0.412271
0.270672
0.174969
1.55965
0.809079
0.361347
0.174457
0.241141
0.319849
0.631023
2.81493
1.42965
0.283283
0.486524
3.94413
2.55047
0.253175
0.0919767
0.153527
0.403803
0.365697
0.151423
0.389001
0.124531
11.094
0.379453
0.262627
0.393154
7.51707
0.166419
4.75594
0.157349
5.12914
0.218578
0.486337
0.430347
0.332437
0.244329
0.224788
0.458588
0.689987
1.17584
0.152143
0.314548
5.85986
0.139887
0.166431
0.347288
0.200311
0.282764
8.38911
0.499712
0.311147
0.333438
0.181214
0.225653
0.325133
0.491759
0.2546
0.10505
0.19696
0.254709
0.723681
0.242667
0.312683
0.261905
0.362364
1.4605
2.70132
9.64909
1.76552
0.359312
0.31454
0.320929
0.199073
1.15032
0.289708
0.135052
0.145519
1.27082
19.4917
0.284811
0.242085
0.657181
0.16745
0.363383
0.182693
0.328349
0.219016
0.210623
0.230146
0.711082
0.142152
9.70576
0.133323
11.2168
0.109013
0.203376
0.474986
0.418822
0.286399
0.754477
0.172798
0.20458
0.263596
0.219739
11.1326
0.463087
0.609291
0.200801
0.370361
7.55308
0.417162
0.193355
0.137686
5.2705
1.29855
0.340441
0.145351
0.298536
0.356507
0.312063
0.176038
0.283328
0.302721
0.255502
0.400504
1.30026
0.199595
0.4363
0.283164
0.189474
0.239475
0.281326
6.10678
1.81634
0.17209
5.1879
0.203773
0.45666
0.336839
1.08811
0.406232
0.240842
0.310489
0.172078
0.981596
0.271982
0.306081
0.442799
0.407196
0.321674
0.378017
0.92637
0.191296
0.343669
0.136988
1.64511
0.565275
0.126589
2.41071
1.60274
0.247396
0.17771
0.182628
0.306352
0.216048
0.188447
0.303966
0.198523
2.80978
7.03579
0.191681
0.164296
0.310434
1.28763
0.199687
0.592646
0.150189
0.22984
4.21261
2.51685
0.406216
0.619627
0.217687
0.114662
1.37072
0.293034
0.373586
0.497196
0.183413
0.6083
0.135462
0.250456
0.25522
0.292286
0.194464
0.196067
0.2448
0.328848
0.202729
0.279457
0.180662
0.388023
0.349087
0.298562
6.94981
0.265517
0.143856
0.219057
0.231942
2.05145
0.163696
0.201032
0.144214
0.306501
0.287193
0.257539
0.260039
3.9212
0.166668
0.306257
5.74776
3.88345
0.299979
0.150658
0.176877
0.182956
0.296464
0.2977
0.533925
0.262026
0.214659
0.478473
0.132019
0.313517
1.39244
0.264636
0.22344
0.413788
0.392367
0.784066
0.237917
0.229714
0.240072
0.404327
0.304694
0.231893
0.11542
0.263955
0.168917
0.874109
0.439718
0.342649
0.173191
0.183468
0.288331
0.193137
0.363811
0.226266
0.267486
0.901506
0.216873
0.389001
0.331325
0.149728
11.9459
0.169274
0.269336
0.440197
0.0858115
0.201598
0.714363
0.31358
0.345431
0.301493
0.113244
0.314112
0.449815
0.145731
0.161095
0.336719
0.204081
0.371769
0.189258
0.260548
0.497363
0.144938
0.106002
1.80701
0.21219
0.37157
0.421499
4.93727
0.281524
0.270209
0.313349
9.57927
0.328937
0.163605
0.929506
0.716142
0.20393
0.169182
0.309468
0.232294
15.7489
0.588604
0.220724
0.236882
0.223463
1.17221
1.23604
0.15902
0.280667
0.53625
0.255702
0.225659
1.21567
0.302781
0.112263
0.330945
0.213441
1.4866
5.72107
0.228295
0.212684
0.257467
0.214502
0.347052
0.149012
1.8753
0.415966
2.92553
0.242306
0.480671
0.22709
0.603705
0.331249
0.351983
1.06685
0.27959
4.33388
0.388315
0.158774
0.343603
0.914901
0.255642
0.268563
0.224155
0.326993
0.225624
0.235064
0.253096
0.776223
6.78435
0.330587
5.02997
3.82094
0.282565
0.23483
0.16207
0.308955
0.173823
0.310453
0.211834
0.161559
2.25224
0.141551
0.315509
5.77615
8.70224
0.182972
0.547816
0.096785
0.26175
0.415292
0.135443
0.205234
0.262594
16.2107
0.162991
0.172464
0.290315
0.334345
0.225549
0.723625
0.23747
7.3311
0.281094
0.344918
0.111987
0.231297
0.353959
0.244363
6.16419
4.4142
0.419038
0.382752
3.03382
0.226162
0.125304
0.323662
0.265072
0.218423
0.263362
3.71694
0.218914
0.0705818
0.366804
0.240933
0.307848
0.474014
0.18815
0.244619
0.288282
0.305445
3.91109
0.241167
0.219025
1.06812
0.218726
1.34768
0.331052
0.643998
0.321118
0.220671
0.313333
0.473955
0.692854
0.285877
0.172156
0.26351
0.279259
0.266388
0.335692
0.307972
0.301433
0.363332
0.150038
0.264911
0.340922
0.280673
0.286466
0.198702
2.16408
5.18052
0.14213
0.256167
0.246356
0.194188
0.268108
21.6032
0.438724
0.234208
0.228791
1.22478
0.220055
2.86859
13.7715
4.69378
0.122345
0.137752
0.245546
0.313826
0.300225
0.224784
0.189146
0.368021
0.11463
0.184199
0.145955
0.232663
0.425429
0.293818
0.404667
0.166767
0.210357
0.271745
0.277646
0.149555
0.222257
0.435308
0.316022
0.116479
0.116911
0.253139
0.316625
0.337086
0.224913
0.124439
1.17634
0.14738
1.50284
0.240721
1.74607
0.321867
0.212921
0.610992
0.0844795
0.535902
0.489153
2.34774
0.217365
0.111058
0.245836
1.99938
0.261785
0.47525
0.341759
1.04194
0.338854
0.264021
1.79816
0.254786
2.43501
0.264722
0.222102
0.184137
1.73796
0.845251
0.189736
0.236115
0.23252
1.23036
0.202776
0.514494
1.35483
1.98723
0.557447
0.188462
0.512329
0.175444
0.306621
0.22223
0.569322
0.458187
3.40878
0.243536
0.284417
0.147039
6.12523
0.531479
0.222576
0.184888
0.264494
0.171012
0.37346
0.308566
0.268057
0.258889
1.27278
0.608594
1.51134
0.444425
0.239122
0.248252
0.951886
0.26661
0.330067
0.272025
0.225713
1.40525
0.284818
0.263177
8.8612
0.397553
4.4285
0.172576
0.317365
0.565212
0.229679
2.74957
0.94234
0.116347
1.22794
0.554511
3.69421
0.179214
2.18111
2.80951
0.213013
0.22883
0.218984
0.76293
0.143459
0.127966
3.66657
0.436195
0.306281
0.241148
0.380257
0.288476
0.253349
0.300122
0.291373
0.142327
0.259971
0.224895
0.276216
0.156339
2.60504
0.277493
0.209877
0.264768
0.268044
1.89861
0.155331
0.495761
1.67188
0.498783
0.303912
0.188176
0.542692
0.201804
5.59543
0.21398
0.199696
0.161029
0.262448
1.22037
0.260587
0.26922
0.202505
0.151968
0.359877
1.88535
0.292792
0.147453
0.253674
0.896128
2.03725
0.361698
0.498566
11.5166
0.338536
0.33611
4.21218
0.22215
6.38523
0.390538
0.17957
0.171977
6.66738
0.433162
0.201293
0.363438
0.289125
0.344401
0.1575
0.22188
0.237072
0.469587
0.246313
0.373958
0.24216
0.275905
0.129014
0.0458949
0.241816
3.00838
0.128544
1.24986
0.755059
0.0651045
0.652272
0.38984
1.34145
0.189383
2.0271
0.55373
0.173607
0.242724
0.263014
4.04344
1.05586
0.231049
0.370888
0.165695
0.192967
0.207126
0.307996
0.78023
0.34262
0.144748
0.23708
0.33838
0.262513
0.162212
0.167138
0.422133
0.343663
0.121121
7.423
0.1737
0.229069
0.304797
0.264025
0.174069
0.140586
0.306606
0.13682
0.109588
0.321046
1.55876
0.28577
0.273082
0.556876
0.22959
3.29594
0.158478
0.43714
1.24394
0.233267
0.279422
0.395909
0.228297
0.56257
0.376245
0.311241
0.267961
5.62605
2.06428
7.43657
1.58272
0.116775
1.10511
2.78639
0.446703
0.326667
0.465622
0.514346
0.270178
0.317458
0.176078
0.207775
0.283781
1.41395
0.265852
0.111979
9.26588
0.226629
0.313105
0.158248
0.246246
0.322753
0.160985
0.327821
0.156603
0.150417
0.200002
0.546875
0.157111
0.322745
2.13806
1.13725
0.366174
0.183996
0.354793
0.212736
0.4504
0.247546
1.71436
0.635252
0.276086
6.07455
0.303037
0.251269
0.254062
2.74543
0.243276
0.606888
0.241562
0.203577
3.98928
0.203845
0.205794
0.141727
0.3849
0.164421
0.51067
0.139716
0.289323
0.437197
7.0112
20.204
0.568329
0.29996
0.23395
0.48221
0.435713
0.26649
0.222605
0.253319
0.510004
0.569809
0.34373
0.309124
1.61305
0.286708
0.207636
0.200191
1.75644
0.484567
0.307246
0.401722
0.267055
0.16319
0.170177
0.196342
0.22644
0.234585
0.33574
0.284665
0.266006
0.406529
0.339395
0.327022
2.43054
0.166015
0.359014
0.240322
0.240024
0.30477
0.373025
1.03332
1.38125
0.204838
0.437055
1.87473
0.503875
0.0813552
0.312716
0.155003
0.420144
0.70877
2.95503
0.171519
0.425597
0.336981
0.260091
0.318689
0.286804
0.203524
0.184232
0.29338
4.98266
0.254028
0.291118
0.380273
3.63198
4.22228
0.813853
0.742229
0.241553
0.293163
0.322759
0.358606
4.91544
0.45547
4.3503
0.357868
0.314276
0.313375
0.855503
0.894238
0.24475
0.14356
0.226559
0.422819
0.301831
0.261034
0.387032
0.23544
1.09113
0.241543
0.435281
0.474331
0.353255
0.192285
0.200479
0.235406
0.194073
0.178623
0.232077
0.221285
0.357212
0.301541
2.33595
0.967469
0.447302
0.24327
0.284727
0.274764
2.84149
0.219947
0.0581604
0.222924
0.188747
18.0098
0.438609
2.11305
0.0941093
0.204129
0.215344
0.235841
5.7273
0.102986
2.61698
0.194663
0.304005
0.218327
0.493878
0.473989
3.14963
0.411593
0.312765
0.195837
0.16656
0.203439
0.351304
0.89596
3.36676
2.27994
7.76462
0.344123
0.327916
0.13493
0.351844
0.431276
0.174007
12.3205
0.22882
0.157801
0.275119
0.273381
7.01745
0.350301
0.210952
0.259097
0.271574
0.26765
0.434567
0.153827
0.165366
0.189965
0.483204
0.281797
0.502244
0.158541
0.225155
0.245254
0.385956
0.168159
0.256444
0.198662
3.02057
0.483776
0.235258
0.218655
0.245674
0.611792
0.379098
0.235449
0.297299
0.16563
0.43425
0.330981
0.257554
0.286409
2.9144
0.172586
0.282227
0.421983
0.610739
0.206649
0.165805
0.311497
0.175888
0.196912
0.225301
0.312286
0.313306
0.18772
0.333884
0.297536
0.346543
0.141273
0.0665451
0.475384
0.36269
0.226328
0.198025
0.173066
2.25256
0.451232
0.318237
0.347091
0.169119
0.216092
0.195026
0.235411
0.341647
0.248617
0.232049
1.78039
0.202942
1.16286
0.503707
0.304625
0.814772
0.420069
0.804159
0.285073
0.219544
0.146524
0.226565
0.311708
0.246449
0.19698
2.63082
0.388601
12.1506
0.201545
0.220203
0.308312
0.216883
0.391483
0.316957
1.0064
0.169062
0.444484
0.237363
0.262405
0.22223
2.58201
0.313942
0.346664
0.191426
3.93378
0.0691736
0.248808
0.131359
0.23994
0.137798
3.00248
0.308596
0.161008
0.275164
0.340705
0.212265
0.0808865
0.21334
0.299381
0.2303
0.196787
0.165604
1.48442
0.223326
0.262966
0.333891
1.26818
0.436727
0.303432
0.225782
0.463889
0.367129
0.291742
0.172996
0.243151
0.474146
0.277569
0.397989
0.1117
0.722979
0.474955
0.237987
0.177933
0.218831
0.202037
5.47048
0.191438
0.469482
0.365805
0.889046
0.388971
0.363563
0.197286
0.725384
3.52451
0.672402
0.166873
0.235243
0.164408
0.270375
0.217175
0.107094
0.215226
0.252531
0.120947
0.48931
0.262507
0.510441
0.415626
0.161711
0.442672
0.201399
0.352454
0.228426
0.39554
0.378475
0.136379
0.17602
0.193637
0.154745
1.05675
0.202079
0.25824
0.291673
0.276147
0.650956
0.728154
0.222705
0.166977
0.331305
0.407004
0.390784
0.212733
0.282254
2.35108
0.348423
0.729425
0.230239
0.351747
0.330822
1.64474
0.211827
0.284329
0.489463
0.309103
0.164375
2.69132
0.690588
0.192451
0.28945
5.74885
0.173338
0.892659
0.263205
0.221355
0.18442
0.353788
0.304406
0.107382
1.51775
11.5868
0.296676
0.328191
0.199033
2.6006
1.0095
0.438882
0.173788
1.72245
0.109867
0.0877924
0.210414
2.0855
0.343616
0.284011
0.642234
4.35532
0.62516
1.18124
0.491576
0.213972
0.252614
0.170943
0.249958
0.368957
0.475204
1.0543
1.90947
0.262676
0.322158
0.326916
0.305312
2.2024
0.319055
0.176016
0.263821
0.129679
0.121464
0.0888925
0.288282
0.419876
0.611407
0.201971
0.236302
5.10306
0.232817
0.425294
0.313203
0.457463
0.183073
0.354075
1.8897
1.83005
0.17045
0.170433
0.0956603
0.604275
2.19142
0.221086
0.131059
0.388573
5.81466
0.200636
3.2639
2.63902
0.139694
0.301149
0.186687
0.157613
0.129681
3.04884
6.38264
0.153047
0.374204
0.385441
0.302849
0.662098
0.187704
0.229301
0.241926
0.530358
0.218264
0.396658
1.14719
0.510137
0.464509
0.224803
0.323754
0.289789
0.155518
0.280628
0.365926
0.212662
3.27204
0.471195
3.2787
0.485936
0.1853
0.337495
0.124445
0.159042
4.27751
0.341156
0.211237
0.167259
0.297022
0.466722
0.493576
0.450396
0.26086
0.293408
0.279258
0.206309
0.322748
0.19481
0.330143
0.191951
0.361452
0.383031
0.263655
0.482662
0.152133
0.41297
7.94987
0.224641
0.202061
3.36221
0.360937
0.264362
0.264365
0.298918
0.254534
0.180737
0.19523
0.428484
0.14863
0.459627
0.291974
0.358624
0.192423
1.19941
0.148557
0.219449
1.10693
0.480418
1.89645
0.210921
0.316887
0.404729
0.768668
0.453427
0.289757
0.195595
0.296696
0.0997413
0.288088
0.281929
1.56775
0.383144
0.194819
0.360526
0.382308
0.341617
0.182818
3.69372
1.24797
0.202647
0.236555
0.196397
0.358059
0.11784
0.272408
0.187424
0.46152
2.20426
0.309509
0.386975
2.74447
0.319298
0.222322
0.431432
0.355532
1.95941
0.286193
3.85121
0.412421
0.329477
0.676245
0.171655
0.265581
0.231719
0.303271
0.236834
0.310031
0.215675
0.385932
0.541625
0.357083
0.63997
0.298879
0.25988
4.16025
6.21175
0.182161
0.205558
0.29964
4.22838
0.368178
0.485173
0.22383
0.15472
0.328589
0.328374
0.303524
1.19191
0.172803
0.118646
0.258146
0.177757
0.323059
0.303285
0.305106
0.216872
0.18662
1.93231
0.301874
0.256801
3.47278
0.189611
0.244105
0.458974
0.317642
0.239761
0.130301
0.143193
0.399581
0.472701
0.662132
0.622402
0.228551
0.736392
0.392582
0.297022
0.161229
0.427711
0.308492
0.418559
2.50346
0.18449
0.268182
0.283509
0.291287
0.301509
0.284989
0.344456
2.86571
0.134635
5.20469
0.18533
0.180439
0.178212
0.261916
0.522003
0.19875
5.19225
0.237117
0.47933
0.134595
0.204198
1.01002
0.291215
8.97874
0.9465
0.213821
0.149369
13.3681
0.385216
0.3232
0.299827
0.766776
0.423144
0.140807
0.328276
2.85253
0.329482
0.229246
0.219309
0.133376
0.295096
0.273736
0.319143
0.343605
1.61046
0.280369
0.285817
0.412022
0.460379
0.238436
0.176663
0.382046
0.274222
0.10423
0.215374
0.275186
0.310947
0.510643
0.367929
0.145451
0.338149
0.155498
0.217882
2.58348
0.249302
0.271676
0.0782616
0.699797
3.54699
0.237506
0.305984
0.339926
0.324421
0.192714
0.440917
1.5411
0.133168
0.313359
0.24457
0.296918
0.261232
0.156904
0.167772
1.57987
0.254769
0.291001
0.592392
0.118105
0.52133
0.181736
4.33331
3.84956
0.14302
0.195847
2.52881
0.439984
1.78891
0.297763
0.332667
0.272994
0.367214
0.165098
0.289601
0.289698
0.408067
0.32457
0.10582
0.365295
2.26543
0.38056
1.44765
0.390073
0.831234
0.461815
0.300335
0.2261
0.236389
0.39295
1.50295
0.304346
0.183143
8.41529
2.26192
0.210354
0.762322
0.21944
0.192928
0.334037
0.164181
0.184141
0.514657
0.310352
0.423318
0.40957
0.740174
0.309311
0.266084
0.325587
0.441208
0.285424
0.72604
0.608894
0.224037
0.156184
0.223249
0.311498
2.30689
0.177356
0.105702
0.397556
0.158416
0.239771
0.166117
0.782676
0.592978
0.322469
0.197498
0.5118
0.373484
0.448412
0.65866
0.375286
0.179584
0.208793
1.89411
0.619669
0.327279
0.309219
0.196751
7.03747
0.265075
0.345537
0.168189
4.14784
0.429404
3.3431
0.387491
9.83343
0.404519
0.175312
5.57091
0.594303
6.10045
0.660993
4.40754
0.233117
2.17481
0.084953
0.557476
0.289534
1.24082
0.311865
0.371985
0.188622
0.250502
0.23795
0.207668
0.498705
0.423631
0.179161
3.41939
0.140493
0.260209
4.60408
0.296586
1.82413
0.157228
0.215787
0.140971
0.487849
0.131855
0.475678
0.323065
0.240685
0.3227
0.336442
0.236598
0.321286
0.277092
11.8938
0.205843
0.233649
1.18961
0.384829
0.384405
1.7347
0.411507
0.288938
0.161155
0.250497
0.244398
0.236855
0.521704
0.213578
1.15821
0.199688
0.347161
0.14705
0.36464
1.43608
0.263829
0.327888
0.418157
4.90414
0.315537
0.254532
0.170646
0.247693
0.122786
0.354692
0.496599
0.132537
0.239567
0.300877
0.201307
0.155694
0.172295
0.269616
0.102945
0.333367
0.818155
0.212418
0.384395
5.4956
0.16721
0.354383
0.120566
0.366033
0.255477
0.259165
0.310394
0.218413
0.271835
0.259556
0.354622
0.198394
0.31411
0.235295
19.1651
0.25929
0.581472
0.449596
0.273714
0.154016
0.256332
0.363249
0.397029
0.385067
0.118158
16.1678
1.91475
0.564321
0.416937
0.201377
0.405056
0.254763
0.303846
11.2899
0.520428
0.260662
8.38937
3.04867
0.187828
7.25661
0.244611
0.390075
17.0849
0.270486
0.12746
0.376727
0.451399
0.203403
0.137391
0.290768
0.296507
3.28531
0.494337
0.362553
0.377661
0.475152
0.322678
10.0812
0.219524
2.14091
0.205178
0.358018
0.466498
0.18061
0.220768
0.210945
0.35976
0.477293
0.20849
0.282423
0.376002
6.28601
0.35914
0.404851
0.247885
0.426495
2.1198
1.09449
0.134914
0.252158
0.475552
3.76372
0.195476
0.400505
2.40355
0.235197
0.968463
0.192977
10.0985
0.204946
0.216853
0.290928
2.12415
0.19185
0.548508
0.312009
0.246443
0.319251
0.417006
0.161878
6.04358
0.519611
0.371784
0.301802
0.932794
1.81274
0.242263
0.292551
0.670389
0.282002
0.658235
0.712413
1.0986
0.274939
0.16691
0.393208
0.173284
0.399993
0.19679
2.48636
1.38055
0.514057
0.347656
0.324235
4.60187
0.329651
0.205065
0.171782
0.308013
2.14116
0.22948
3.52691
0.27602
0.22288
14.844
0.585292
0.125409
0.397551
0.249227
0.375117
16.3209
0.301774
0.257632
0.171197
0.184717
0.326109
0.128801
0.19353
0.147869
0.614154
9.39329
0.367069
0.19436
0.287126
0.137541
0.288219
1.66874
0.221211
6.85781
0.231828
0.353403
0.278049
0.178508
0.244801
0.253577
0.38261
0.321055
0.160064
0.645514
0.884747
2.09865
0.35575
1.63423
0.124254
0.15478
27.4481
1.57562
0.171442
0.227884
0.620547
0.4184
0.122742
4.29222
0.283503
2.81824
1.71417
0.272947
0.298977
0.220897
0.150384
0.249885
0.560781
2.62331
0.174001
0.241644
0.193809
0.293012
0.512274
0.361669
0.111536
0.184749
0.284182
0.209504
0.216049
0.386564
0.213549
0.346655
0.131026
0.299652
0.385461
0.158238
0.286328
0.231536
0.232635
2.24655
0.314115
0.196785
2.01271
0.358996
0.212916
0.150357
0.33546
0.176578
0.292449
0.309007
1.56459
0.202775
0.264343
3.29918
1.82679
0.837441
0.167714
1.46165
0.321818
19.7992
0.249797
0.169867
0.307068
0.154986
0.158535
0.0653858
0.416568
10.7056
0.263723
0.271075
0.248476
1.67237
0.357408
0.762115
15.9596
0.422423
0.563271
0.280358
0.270186
2.08526
0.326192
0.280243
0.255293
3.63629
2.41566
0.265799
0.243871
0.361324
0.248581
0.276527
7.06702
0.173077
0.389172
0.25807
2.70826
0.295057
0.616819
0.106629
2.26822
0.265813
0.340984
0.302045
0.224971
0.372127
1.5953
0.319411
0.408838
0.33011
1.82748
0.172056
0.185155
0.272625
0.200076
0.110288
0.393635
6.78664
0.215019
16.3069
0.267198
0.264855
0.408729
4.5222
11.5184
0.997429
1.23069
0.211048
0.407157
0.199462
0.244891
0.152901
0.363651
0.382499
1.07785
1.79555
0.243152
0.177915
0.0908698
0.331569
5.74161
0.351234
0.331862
0.338668
0.273851
0.227727
0.221735
0.226499
0.257817
0.190733
0.290241
6.72324
0.186939
0.221075
2.18768
0.421739
0.306563
1.47645
0.280603
14.5786
0.691901
0.396621
0.364902
0.462213
0.215935
0.170872
0.144587
1.07443
11.3079
0.147022
0.370732
0.202374
3.49141
0.315635
0.209104
0.395002
0.496773
0.709982
0.550403
0.168833
0.218524
0.182036
0.237193
2.96191
0.419912
0.459253
0.44117
0.340516
0.23764
0.356913
0.246312
0.115118
0.281377
0.214363
0.244245
0.345163
0.496716
0.376764
6.43953
0.320816
0.397338
0.719149
0.230208
0.138453
1.101
25.5621
0.854655
0.275672
0.170855
0.197923
0.121825
0.298573
0.402019
0.610228
0.240816
0.318122
0.141381
0.21351
1.90219
0.40626
1.69207
0.562029
0.270071
0.203306
0.378793
2.33938
2.91896
0.188166
0.240137
0.202265
0.24034
0.187337
0.20424
0.622859
0.570668
0.989852
1.00488
0.211271
0.297322
0.352828
0.302144
0.354042
0.380873
0.249736
0.362482
0.445353
0.270384
0.262953
0.330131
0.821711
0.105992
0.454012
0.192278
0.213537
0.329639
0.250322
0.477373
0.212764
0.389829
0.273717
0.168178
0.181786
0.155054
8.9793
0.217055
0.430335
2.31845
0.968663
3.02389
0.324117
2.82644
0.53546
7.77953
0.110262
0.22591
0.200434
0.189615
0.379866
0.310276
0.4196
0.271027
1.57229
0.490307
0.403474
0.461564
2.23381
0.281523
0.16159
0.406326
0.0850777
0.314871
0.194083
0.383816
1.57401
0.366104
0.295217
0.328909
0.262149
0.290625
0.555493
0.255815
0.412897
0.205887
0.192719
0.350406
0.473925
0.442928
1.15038
1.01174
8.48579
0.336066
0.242138
0.44722
2.01789
0.309119
0.276596
0.199709
0.371163
0.27749
0.249562
0.410265
0.271035
0.295896
0.238257
0.297048
0.240943
0.257509
7.59027
0.251919
0.191701
0.123634
2.04406
0.275534
1.85003
0.100365
0.61821
0.147599
0.302507
0.355506
0.856399
0.255676
2.4138
3.72211
2.2486
0.435466
0.301145
0.278932
3.65653
0.545015
0.0433415
0.147592
0.0907626
0.174948
0.473556
0.273154
0.209981
0.242768
1.55182
0.382304
0.354235
0.173958
2.04714
0.346832
2.40212
0.821894
0.316101
0.323466
0.189932
0.289309
0.409411
0.280543
0.280348
0.170076
0.282024
0.255178
0.23578
0.4287
0.25169
0.432709
0.124645
1.18441
0.128699
0.170154
0.513553
0.378563
0.345077
0.196053
0.129655
0.140786
1.95406
0.444667
0.178343
0.276059
0.189796
0.323574
0.525883
1.46541
0.183663
20.7219
3.53102
0.372906
2.81875
0.189133
0.41616
0.209677
0.380663
0.208721
1.91481
0.308754
1.64797
0.368842
4.14821
5.45488
0.191977
6.72378
0.239631
0.581734
0.526796
0.427001
0.397146
0.36213
3.50343
0.370963
0.73573
0.403315
0.321702
0.364991
0.23811
0.378693
0.200021
0.197877
0.216984
0.521161
0.373313
1.41822
0.318863
0.231496
0.524738
9.97391
0.304315
0.306329
0.363048
0.225311
0.239476
0.257097
0.267047
0.245298
0.283158
0.244622
0.149059
2.54676
0.37113
0.581953
0.187912
2.611
2.76306
0.109121
0.149541
0.295602
0.127616
0.239206
0.131444
0.375458
0.285853
0.212504
0.302428
3.67604
0.303377
0.36142
0.342491
1.39108
0.175436
5.39031
0.935006
0.431036
0.258152
3.30378
0.336274
0.31673
0.399645
0.153426
0.355578
1.02434
0.256344
0.264955
0.243326
4.51111
0.169119
0.29404
0.26002
0.184306
0.23011
0.279535
4.43608
0.276226
1.78249
0.220499
0.225134
0.527269
4.17285
0.153074
0.254766
0.454402
0.528028
0.217494
0.398219
0.443
0.37218
0.240401
0.113141
0.255353
0.223829
0.377613
0.340988
0.118881
0.314205
0.305502
3.17087
0.178884
0.586453
0.166363
0.376055
0.774447
0.198122
0.219333
0.231441
0.229858
0.530349
1.41532
0.176317
0.0860379
6.40995
0.200701
7.40109
0.199137
0.262714
0.38578
0.195905
0.16526
0.203993
0.191808
0.503794
0.400284
0.222935
4.35724
0.154435
0.353229
0.142072
4.58397
0.359119
0.526478
0.215917
0.242302
0.250484
0.311522
4.5474
0.382326
0.436376
3.49319
0.251333
1.14886
0.929877
0.297575
0.352335
0.136001
1.5004
0.712712
0.223651
0.234869
2.0686
0.274103
0.326326
0.465678
0.179904
0.142262
0.380083
0.228952
0.277923
0.301458
7.55674
0.399158
0.567824
2.78257
0.154046
0.180538
0.325861
0.407146
0.13531
0.407024
4.95336
0.17663
0.0963286
0.293892
0.308747
0.308378
0.18078
0.48355
1.48444
0.214756
0.242872
1.66008
0.31478
0.329122
0.303238
0.331105
0.664398
0.367289
0.25298
0.210103
0.160073
2.40699
0.429761
0.337134
0.166056
0.25618
0.263353
0.215163
0.183694
1.34625
0.497276
0.269353
6.87922
0.421676
0.449199
6.68633
2.44138
2.81994
5.64554
0.190508
1.5366
0.248073
0.240113
0.336764
0.265082
0.151066
1.48299
0.32187
0.181715
3.18047
0.407515
0.456178
0.563744
0.441845
0.152508
0.272859
3.73316
0.446976
0.320213
0.358513
0.449317
0.339889
0.190953
1.81008
0.238667
0.211999
0.311653
1.18865
0.39696
0.239977
0.134493
0.189117
0.244721
0.181253
0.304725
0.273041
0.317951
0.244033
0.368353
0.250828
0.322302
0.228712
0.294125
0.293196
0.396611
0.734111
0.351224
0.536396
1.59581
0.653843
0.218326
0.236012
0.253752
0.188636
0.146971
0.139108
0.508322
0.3723
0.182816
0.189151
3.39676
0.530916
0.358388
0.281165
0.217031
0.277369
0.194829
0.355267
0.484731
0.176358
0.224679
2.38632
0.177899
0.281361
0.413577
0.231852
0.535042
0.345197
1.58196
0.196829
4.3654
11.1944
0.202442
0.249616
0.483587
0.143628
0.256267
1.26157
0.2885
0.361481
0.26155
0.14835
0.293922
0.263654
1.41026
2.26526
0.2794
0.236356
0.139235
0.12314
0.370838
0.281922
1.01474
0.498917
0.432147
0.270723
2.38182
0.220157
0.213125
5.19191
2.71158
0.268313
0.27977
1.73221
0.273484
0.325631
0.233012
0.170715
1.4509
0.35143
0.265218
0.163705
12.9421
0.373077
0.279146
0.296617
0.190958
0.409686
0.476262
0.204643
0.883668
0.360492
0.234375
0.167273
0.123772
0.29224
0.218999
0.21042
0.692336
0.436058
0.278532
0.193377
0.308482
0.344717
0.374364
0.947584
0.253351
0.329879
0.197757
2.14709
0.131884
1.26412
0.221898
0.256184
0.252027
0.4067
0.195569
0.155223
1.20992
0.755104
0.202572
0.285425
0.29627
0.243397
0.20316
1.61567
0.330837
2.54308
0.223156
0.40884
2.823
0.302989
0.258804
1.84657
0.274314
0.30534
0.126507
0.294675
0.269614
0.432848
0.143946
0.213709
0.433967
0.0970832
0.239718
0.240903
0.310707
0.39103
1.36999
0.408801
0.341949
0.20602
1.22863
3.73027
1.66176
0.295206
0.136584
0.349503
0.380163
0.119132
0.273854
0.365451
0.252872
0.216691
11.7031
0.293418
0.133949
0.166279
0.220421
2.5726
0.221543
0.21884
0.159138
1.36635
0.176758
0.595532
1.64972
0.243256
3.122
0.14348
0.454394
1.31487
1.42981
0.14028
0.180536
0.311821
0.15748
0.191512
0.182258
0.358486
0.460993
0.380581
0.409774
0.456312
0.168248
0.158334
0.248217
0.316526
5.22625
0.343912
0.208406
0.296676
0.274229
0.268279
0.293045
0.474512
0.34324
0.307218
0.187373
0.159789
0.4288
0.258448
0.390067
0.353526
0.874145
0.365265
10.8841
0.219518
0.257529
0.313717
0.247446
1.05452
0.205514
0.346738
0.133997
0.192323
0.15318
0.164348
0.246875
1.43413
0.324746
0.228755
0.244068
0.366721
1.87686
0.298528
0.347248
0.351425
18.5339
0.123815
0.682706
0.161624
0.35414
0.305699
0.161561
8.30332
0.383393
0.619203
0.376266
0.360727
0.328267
0.24881
2.19517
0.320347
3.71027
1.22772
0.271681
0.430397
0.293367
0.388579
0.210485
0.346708
0.295433
0.42105
0.987249
1.08965
1.42245
0.509046
1.31393
0.188902
0.537433
0.117108
0.218771
0.146618
1.65495
0.226997
0.215178
0.29225
0.247643
0.285955
0.277356
0.459697
0.236761
0.262708
4.31666
1.10392
1.93398
0.327618
0.262327
0.452734
0.413164
4.316
0.295577
0.271304
3.76159
0.217539
0.291334
1.52828
1.06839
0.264428
0.23379
0.179758
0.27275
0.341606
0.179743
0.177438
0.230592
0.26199
8.59217
0.37047
0.248698
1.50558
0.316434
0.201133
2.53988
0.172217
1.63709
0.125219
0.0958394
0.35916
0.27002
7.61855
0.170976
0.827025
0.547469
0.208427
0.20806
0.886743
3.66457
0.21178
0.28443
0.458356
0.324835
3.11379
0.280532
0.149956
0.337916
0.493644
0.440764
3.66081
0.282125
0.210489
0.960677
0.465194
0.226878
0.326358
0.723712
0.225138
0.198683
0.22204
0.516936
0.322038
0.312879
0.549649
0.330253
1.88386
0.184212
0.190938
0.292248
0.596656
0.271233
3.82661
0.151417
0.422354
0.861198
0.992725
0.364786
3.87528
0.223433
0.304956
0.306381
4.21643
0.225955
0.72792
0.484081
0.922429
0.149514
0.324808
0.195111
0.453865
0.211484
0.433582
0.209282
1.071
0.303253
0.527888
0.221633
0.239772
0.160309
0.287459
0.223695
0.124725
0.282945
1.53537
0.305202
0.384328
0.383961
0.140541
0.407029
1.6589
0.191147
6.2813
0.375302
0.426981
0.230162
0.222357
0.420695
0.47575
0.863024
0.319142
0.309056
0.273587
0.648767
0.213956
0.293776
1.8439
0.316084
0.296146
0.182456
0.33351
0.254543
4.37975
5.30402
0.399168
1.7016
0.402253
0.34627
2.92619
1.01602
1.29868
0.173699
1.24326
0.235175
0.304622
0.446965
3.88691
0.225322
0.498102
0.552258
0.364762
0.412218
0.227575
0.328787
6.01191
0.291137
0.467716
0.243196
0.918471
0.327714
0.327651
7.00563
0.504019
0.221767
0.212493
3.94627
0.672281
0.356872
0.464288
0.140049
0.257225
0.187241
0.118828
0.229778
0.394562
8.20255
0.242311
0.268231
0.224738
1.49434
0.209188
0.162258
0.369565
0.203421
0.126996
0.250634
0.25906
0.392993
0.14928
0.272094
0.252313
0.21081
0.284171
0.148201
0.427413
0.249912
0.180999
0.132843
1.00452
0.274585
0.27712
0.54902
2.22752
0.202882
2.99096
0.682096
0.343073
0.0887692
0.39093
0.117789
0.572507
0.169618
0.208556
4.76503
0.342816
0.105076
0.135838
0.166987
0.356304
0.224839
0.205026
0.167653
0.0722977
0.328385
0.149929
0.991539
0.306047
0.444145
0.44382
0.406232
0.394663
0.902245
0.194735
0.301118
0.111291
0.492541
0.783721
0.245213
0.393675
0.209181
0.31993
0.404157
6.85037
0.423665
0.114221
1.8557
0.240571
0.143002
0.200209
0.280007
0.450971
0.20089
3.44179
0.934002
0.304517
0.312116
0.430765
0.131317
0.230039
0.215379
2.20317
1.81305
0.423488
0.1697
0.529354
0.296823
0.233127
0.598552
0.34394
0.117032
0.379532
0.223814
0.165843
0.291469
0.419784
0.21629
0.311132
4.07054
0.241578
0.267742
14.996
0.267084
0.573158
0.150011
0.264348
0.267343
0.238854
0.0959531
0.370168
0.85137
0.581119
0.3237
0.445231
4.09093
0.316564
0.137485
0.0985822
0.260696
0.311953
0.306527
0.186482
0.182734
3.94733
0.303153
0.479521
0.19063
0.211645
0.249535
0.524563
0.764999
0.288394
0.379903
0.141849
0.409395
0.401471
0.148039
0.355722
0.15727
2.14938
3.28478
0.321037
0.210117
0.629596
0.125165
5.00197
0.326679
0.178783
0.242091
1.29678
0.347483
0.431819
0.284697
8.79124
0.621087
0.235065
4.02098
0.243199
0.58288
0.354178
0.27067
0.576163
0.175858
0.232888
5.01029
0.226377
0.116653
0.189941
0.509511
0.56197
0.372243
0.272064
0.17248
0.4927
0.399421
0.106841
0.133048
0.203644
0.453198
0.356066
0.212796
0.208001
0.26609
4.57016
0.712082
0.114081
0.407412
2.63685
9.7278
0.0783672
0.368128
0.230245
5.53971
6.68541
0.314965
0.234484
0.30247
0.302493
0.240321
0.354353
0.858697
0.115264
0.106137
0.18854
0.465889
0.217255
3.15287
0.223335
0.535509
0.4649
0.276844
0.354987
0.570123
0.223494
0.228667
3.33859
0.221232
0.26194
0.512453
7.42427
0.290612
0.299489
0.228108
0.360006
2.37492
0.329088
0.31679
0.314055
1.66994
1.99912
0.0879208
0.307249
0.266225
4.09792
0.515404
0.513717
0.297701
0.208789
0.183637
0.521909
1.79413
0.110614
0.162229
1.73563
0.308432
0.208671
5.21286
0.282326
0.370636
0.357221
0.203759
0.216015
0.210996
0.403002
0.278124
0.507592
0.185552
0.270855
0.22827
0.917938
0.203429
0.191018
0.328754
0.300612
0.264297
0.238351
0.558609
0.265133
0.394358
4.64432
0.373937
0.304827
0.410463
0.138114
0.103115
0.159005
1.12864
0.399468
0.31796
0.356623
0.227913
0.261434
0.174144
2.23071
0.219029
0.243623
0.295791
0.208059
0.410759
0.290761
0.434731
0.290106
0.393932
0.366294
1.20806
0.357057
0.165583
0.353193
0.444671
10.0819
2.55515
1.24447
0.262401
0.428334
0.208766
0.275921
0.426098
0.258436
22.0936
5.82591
0.839116
5.1343
0.166283
0.167105
0.288666
0.213906
0.485639
0.106946
0.25086
0.433524
0.300424
1.48952
0.205692
0.337231
2.64504
0.27896
0.327851
0.110334
0.140548
0.404161
2.3699
0.143982
0.258221
0.248873
0.168568
0.338953
0.366599
0.165138
0.315843
0.321822
0.358546
0.228464
0.414915
0.278692
0.880564
0.229269
0.26353
2.5781
0.344132
0.522555
0.341008
0.181508
0.58062
0.774758
0.165544
0.174184
0.265081
2.27517
0.117657
0.35995
0.277723
0.32565
0.348964
0.402007
0.380316
0.344224
0.42555
0.354361
0.19906
4.57295
0.166097
5.52106
0.285326
1.92579
0.191696
0.28075
0.221601
0.264289
0.578004
0.324976
0.676419
0.136038
0.366882
0.255736
0.259125
0.238025
0.149191
0.174138
0.318177
0.540422
5.32086
0.357411
0.328324
0.323395
0.206836
0.396166
0.232569
0.273589
4.70093
0.353605
0.869458
0.306271
0.22273
0.218028
0.147645
0.432516
0.126568
0.401653
0.16967
0.243984
0.390498
6.0005
0.281995
0.273612
0.256178
0.180964
0.113409
0.255418
0.282578
0.187899
0.232633
1.99248
0.235387
0.34371
0.339062
0.229153
0.327037
0.349347
2.24372
0.153961
0.149582
0.108765
0.486686
3.96506
0.442243
0.395154
0.262477
0.346511
0.298664
0.257352
4.50183
0.228303
0.308307
0.166225
0.372291
0.369914
0.341522
0.648345
0.395827
0.152863
0.44298
0.484315
0.140045
0.192686
0.18097
0.124046
0.236709
0.27725
0.22474
0.269612
0.191479
0.329664
0.224687
0.273122
0.347097
0.218464
0.268231
0.269159
0.419069
1.71806
0.499169
0.286439
0.536928
0.425288
0.304403
0.62552
0.275215
0.993228
0.294236
0.35405
0.237173
0.393843
0.316617
0.156932
0.249322
0.438619
0.257143
0.274546
0.5819
0.163387
0.696599
0.222988
0.225306
0.268887
0.273727
0.171782
0.309401
1.80326
0.236408
0.319219
0.136895
1.01151
0.162493
0.424393
0.135618
0.25161
0.458792
2.55393
0.268857
0.445778
0.276864
0.199338
0.294661
0.245446
0.20693
0.202954
0.351113
0.253612
0.261205
0.326894
0.128512
0.161652
0.338353
0.291297
13.1644
0.252871
0.364114
0.378301
0.691853
0.125539
0.307256
0.481128
0.116083
1.8969
0.230162
0.344075
0.213011
0.142757
0.30004
0.246507
7.20197
0.509906
3.83223
0.250549
0.19731
0.381745
0.315034
0.361976
1.65425
0.475429
0.209174
1.59038
0.423636
0.254676
0.293748
0.378549
8.52908
0.314493
0.345316
1.09406
0.245865
0.209119
0.283568
0.310074
0.358848
1.17247
0.801058
0.377436
1.6342
0.274552
0.266941
0.245514
0.219669
0.598047
0.740192
0.386202
0.418906
0.285882
0.269551
0.287072
0.184094
6.83644
0.177452
0.432865
0.519861
0.872626
0.342737
0.247956
1.6374
0.48171
0.462279
0.278689
0.190852
0.137148
0.612653
0.28481
0.368042
1.59612
0.140281
0.317849
7.44256
1.36935
0.319633
0.334234
0.218428
0.45686
0.45786
0.0801897
0.307691
0.226826
0.26235
0.234935
1.73208
1.361
0.365132
0.251362
0.299941
1.4773
1.523
0.2519
0.427663
0.428956
0.362262
0.217426
0.636766
0.732664
0.59675
0.581729
0.202227
0.355396
0.207662
0.20006
0.323364
0.288657
0.220024
0.24318
0.193945
0.448672
0.295957
0.259463
0.262546
0.192995
0.745468
0.367686
0.129934
4.61724
0.2278
0.17437
0.0690078
0.468528
0.463752
0.278924
0.790021
8.86116
1.32134
1.06633
0.167367
0.229614
0.243924
0.14227
3.74893
0.273007
5.45631
0.387369
0.0626335
1.02591
0.303408
0.507012
0.398504
5.17724
0.737968
0.332036
0.304959
0.393487
2.08628
0.368383
0.235357
0.446639
0.197362
0.332832
0.137177
0.291591
0.256668
0.369809
0.344591
0.238398
0.198518
0.20126
0.185177
0.107714
0.198257
4.61383
0.423977
0.193254
0.310808
0.669274
0.339684
0.184915
0.504844
0.234155
0.372136
0.238374
0.212616
1.9259
0.161687
0.309262
0.461151
1.5602
0.158884
20.6813
2.90469
0.295556
1.05803
0.160288
0.359923
8.21848
0.400912
0.304758
0.960598
0.161625
0.373907
0.227705
0.779562
0.544237
0.327354
0.2967
0.639403
0.55838
0.353946
0.182799
12.1174
0.336793
0.360553
0.233696
0.178966
0.286786
0.243792
0.373367
0.0834875
0.451491
0.311184
0.459774
0.331025
3.22953
0.233059
2.01416
0.466103
0.350059
9.41215
0.271513
0.417785
0.374554
0.302906
0.233145
0.53469
0.277233
0.405239
0.259046
0.22075
4.78352
0.42355
4.98799
3.34087
0.707943
6.05561
0.312313
0.325876
0.487433
0.335076
0.197407
0.276177
11.571
0.269514
0.36851
0.366045
0.190379
0.322608
0.378625
0.221102
0.267055
0.189106
0.194564
0.364515
0.75026
0.304608
0.185602
0.464512
3.22104
0.525403
0.262984
0.223514
0.203649
0.231898
0.289325
5.96302
0.202691
0.434317
0.443527
0.137804
0.131052
0.0971341
0.21539
0.232492
0.530993
0.246454
0.366181
0.426858
0.211137
0.187384
0.456112
0.320014
2.67046
0.400951
11.4857
0.351722
0.256149
0.384509
0.242484
0.162059
0.292438
0.370009
0.353681
0.659418
0.394632
0.381104
0.287364
0.170081
0.292511
0.358715
1.09301
2.33647
0.206439
7.67646
0.323497
0.281537
0.209834
0.196618
0.182337
0.348774
0.184272
0.838271
0.234707
12.2732
0.295176
0.239949
0.322179
0.212807
0.40332
0.253695
0.223348
0.258572
0.974046
0.590057
0.53672
1.24778
0.248961
0.268549
0.178945
0.115936
0.5616
0.316473
0.429369
1.90556
5.78434
0.331063
0.237916
0.308383
0.407748
0.204951
1.60547
3.79366
0.326479
0.233355
0.299391
0.197825
0.201452
0.230854
0.291211
1.81994
0.176911
1.79032
0.16139
0.473295
3.15153
0.235328
0.466102
0.24337
0.328089
0.48371
0.33123
0.223949
0.362013
0.112374
4.61421
1.42145
0.320825
0.210207
0.19474
0.301213
0.232211
0.430141
0.248248
0.220676
0.370151
0.266605
0.387173
1.02813
0.468553
0.196806
2.20461
0.182149
1.21778
0.270639
2.68489
0.478114
0.271893
1.01361
0.193993
0.316068
0.243062
0.307773
0.284261
0.197033
0.131976
0.203908
0.223164
2.33497
0.564656
0.246272
0.25309
0.278583
0.317495
0.964602
0.298934
0.434056
0.128799
0.296589
1.65015
0.627026
0.312111
4.69441
0.218984
0.773856
0.282431
0.146827
0.192159
0.169241
0.342376
0.14615
1.4887
4.18439
0.467522
0.342731
0.143467
0.21038
0.37084
7.6016
0.411813
0.789542
0.158759
0.245068
0.226497
0.134831
1.11893
3.11106
0.267026
0.280701
4.40818
0.346746
2.55717
0.315078
0.338983
0.236435
0.169482
0.133522
0.391984
0.762418
3.69104
0.174771
0.285331
2.4436
0.52115
0.237714
0.553508
0.142848
0.274329
0.435045
0.067294
1.88739
0.160325
0.263156
5.18132
0.245299
0.272005
5.77835
0.880132
0.286785
0.313692
6.73524
0.274684
0.447565
0.312296
1.11753
3.30266
0.291189
4.19621
0.352275
0.207955
2.23242
0.476391
0.451249
1.11818
0.652492
0.37485
0.194658
0.185175
0.360556
0.244169
0.255295
2.28758
0.294432
0.251717
0.499832
0.135195
4.24517
0.329804
0.286288
0.139204
0.191594
0.28263
0.115624
0.461175
0.262296
0.37153
0.149795
0.216738
7.09741
0.601134
0.259632
0.196914
0.453165
2.0033
15.9178
0.27159
0.164556
0.224851
0.261137
0.700247
0.240501
4.37256
0.593663
0.179779
10.5258
2.18928
0.242618
0.422987
0.432871
0.580892
0.281357
0.360073
1.00779
0.29581
0.221055
0.233059
0.272148
0.25833
0.181825
0.261291
2.17504
0.310287
0.221917
0.242008
0.422048
0.603099
0.851664
0.402577
0.0902672
0.309075
0.169927
0.210179
0.452543
0.345622
0.158292
0.848847
0.384489
0.144765
1.64021
0.132941
0.157849
0.32586
0.292826
0.473108
0.187489
0.402764
0.235067
2.18365
2.39797
0.261618
2.82503
0.331109
0.227668
0.167152
0.478724
0.240964
3.55362
0.3856
0.42587
0.15978
0.373102
0.998535
0.643717
0.186874
0.221685
0.224328
0.862807
0.266096
0.308869
0.214637
0.123535
0.170399
0.22296
0.636023
0.530568
0.171544
0.668192
0.30174
0.292468
12.4283
0.162241
0.433121
0.187834
1.37123
0.320954
0.226694
0.304498
1.62741
0.22018
0.328983
0.253102
4.26642
0.320004
21.0794
0.251992
1.75233
0.349965
0.205237
0.229089
0.234733
0.419786
0.516611
0.18639
0.330421
0.338105
0.213813
0.337208
0.227041
0.201042
2.35705
0.239346
0.226462
0.35587
0.192581
0.305494
0.426084
0.392949
0.17349
0.333586
1.82782
0.290976
0.134527
0.357443
0.351476
0.116961
0.448863
0.120351
0.296223
0.12225
0.193999
0.377529
0.286137
0.312787
0.30467
0.28283
0.245381
0.159822
0.52041
0.303084
0.199182
0.181001
0.275466
0.297027
0.200845
0.284084
0.34178
0.304519
0.27698
0.385248
0.639001
0.384315
0.643955
0.453327
5.8409
1.56793
1.4362
0.262123
0.123303
0.337124
0.209419
0.285574
0.155002
0.278015
0.376963
0.291525
0.14069
6.62009
0.21759
0.119128
0.105551
0.179482
0.403024
0.179012
4.93815
0.225653
0.216771
0.303929
0.165227
0.378076
1.946
0.409178
0.38788
0.189559
1.23215
2.1419
0.267703
0.163576
0.876011
0.208893
0.862624
0.336203
0.791461
0.138316
0.5809
0.120881
0.222385
0.279436
0.280078
0.232894
0.103536
0.13077
0.17409
2.70517
0.862016
0.222105
0.133814
0.341377
0.309576
0.398793
2.95783
0.215676
0.233649
0.171187
0.0996355
0.230859
0.269009
0.221167
0.254478
0.226333
0.15582
0.241783
0.0963102
0.263177
0.296203
0.375948
0.373716
0.37565
0.288868
0.296192
0.12508
0.316966
1.07414
1.37807
0.290451
0.591095
0.25946
0.187056
8.89413
2.29503
0.407302
0.211556
0.498057
0.147167
0.174663
0.230586
0.47901
0.197174
0.505783
0.300228
0.107276
0.318004
0.356042
0.219104
0.340805
0.151129
0.276202
0.275569
0.22809
0.141069
0.396835
0.129711
0.52925
0.248028
6.35563
0.297981
0.655237
0.362337
0.202561
0.236332
0.206505
5.20967
0.153238
0.459354
0.287227
0.282373
0.24663
0.254495
0.326127
0.142075
0.367275
5.64027
1.84868
0.328624
0.224169
0.608565
0.35731
0.178888
0.374658
0.694435
0.430798
0.273666
0.124208
0.293667
0.388675
0.265979
8.76528
0.697721
0.212307
4.14806
6.59456
0.255501
7.10107
0.519045
2.19776
0.265006
2.45057
0.171495
0.223413
2.73667
0.24677
0.337886
6.27729
2.26582
0.312347
0.347391
6.53161
0.191289
0.299917
0.195469
0.279384
0.321285
0.264674
0.270677
0.319119
0.300256
0.515549
0.246195
0.219513
7.6502
2.0672
0.274058
0.126156
0.275008
0.35125
0.254188
0.306435
0.31624
0.231912
0.333328
0.160267
0.327586
0.477811
0.173031
0.456875
0.137238
0.156512
0.18788
0.716325
0.275625
0.485384
0.365056
0.146796
7.36511
0.304694
3.19004
3.55592
0.239601
0.310286
0.23073
0.503355
0.372089
0.807522
0.14319
0.167302
0.662469
0.616701
8.59758
0.283706
0.239593
0.167623
2.31955
4.96926
3.36891
0.250649
0.376953
1.06439
1.28313
0.191554
0.355844
0.242338
0.533515
5.60904
0.348729
0.295854
1.28338
0.230705
0.295749
0.240597
0.241406
0.334553
1.48702
0.379787
0.293556
0.311533
0.189559
0.232315
0.298493
0.0991371
0.152797
0.512462
0.206865
0.213522
0.136459
0.540182
0.175537
0.195435
0.388278
0.0842732
0.221035
0.158726
0.264289
0.352352
0.301762
0.276477
6.83222
0.314772
0.268169
2.5179
5.31661
2.35337
0.282984
16.5322
0.427778
0.274604
0.394899
0.2182
0.306161
0.318617
0.356425
0.468895
0.504711
5.12846
0.387659
1.37307
0.306705
0.7057
0.365607
0.162522
7.6101
0.418213
0.0666393
0.554357
0.285377
1.49038
0.344273
0.373173
2.09152
2.20945
0.668502
9.71124
2.94532
0.142872
0.267331
0.421516
0.720944
0.29018
0.21064
0.17433
1.69255
0.348436
0.174336
1.4591
0.165152
0.356893
12.7671
2.0116
0.222053
0.176147
0.406227
0.583754
0.195418
0.688549
0.266278
1.29524
0.324144
5.10768
0.366155
0.128791
0.275599
0.53071
1.79871
0.151319
0.237335
0.915529
0.294782
0.244873
0.213916
6.05986
0.298207
6.80436
0.338065
1.33399
0.161363
0.275261
0.201695
0.729458
0.229333
0.312848
0.570912
0.229704
0.24991
0.330425
0.279488
0.158742
0.465834
0.279521
0.251715
0.309032
0.281738
0.178876
4.10933
8.10984
0.280101
0.179487
1.71578
3.19782
0.467709
2.74588
0.533298
0.156731
0.15168
0.305419
2.60575
0.220391
2.01136
0.188614
0.158427
0.357649
0.318122
0.21626
0.556554
0.407435
0.314229
0.229464
0.192431
0.115082
0.88589
0.313861
0.186433
0.193222
0.322689
4.68735
0.256637
0.321242
0.113067
0.23436
0.365494
0.367075
0.300349
6.18637
0.134547
0.363713
4.72399
0.35889
0.276228
0.203165
0.285416
0.198345
0.640576
0.613506
0.194612
0.228636
3.17832
0.607825
0.243097
1.93092
0.744405
0.16882
0.169439
0.46078
0.385972
0.270786
0.361997
0.240047
3.24077
0.288673
0.258015
0.226067
0.231918
6.5844
0.272878
0.241868
0.181151
0.352262
0.166998
0.230894
0.304986
0.197533
0.365141
0.834584
0.463557
0.258365
0.292562
0.311004
0.358815
1.18331
8.86149
0.944705
0.25291
0.180918
0.450732
0.162157
0.33443
0.768346
0.331186
0.30955
0.297497
8.76562
0.233063
0.607038
15.827
0.199821
0.301271
0.12909
0.225622
0.311516
0.162617
0.260419
0.400662
0.211383
7.18853
0.411849
0.288102
0.450142
0.320676
15.4772
0.367919
1.7342
12.9627
0.228574
0.234823
9.11421
0.21198
0.295851
0.181331
0.17876
0.263521
0.251275
0.358802
0.329916
0.450539
0.152666
0.415241
0.221541
0.19939
0.469239
0.178763
0.346397
0.208796
0.85429
0.510237
0.354146
0.259279
0.12388
0.269258
0.312033
0.367917
0.29552
0.475454
0.174312
0.252952
0.241797
0.262722
0.402866
0.318343
0.197811
0.310274
0.381194
0.297734
1.13109
0.338708
0.42787
0.680901
0.287533
3.11153
1.28994
0.158275
1.09564
0.157236
0.289699
0.31671
0.32994
0.876067
0.364701
0.612655
0.266733
0.409282
0.175495
0.236328
0.335819
0.381309
0.243536
0.255979
0.320991
6.66359
0.223882
0.379035
0.187644
0.238695
3.88179
1.16066
0.314748
0.257855
1.37496
2.53756
0.362565
0.252744
0.192487
0.317825
0.899101
0.163121
0.189177
1.31267
0.157236
0.256718
0.167211
0.125151
0.259586
0.560907
0.988967
0.148805
3.79176
0.244116
0.186713
1.60115
0.159922
9.94311
0.270155
7.94127
0.441286
0.224682
0.0565173
0.110169
0.392431
0.184233
0.274255
2.40677
2.1031
0.217576
0.132113
2.05469
0.340729
0.337037
0.181727
0.208062
0.243501
0.234437
0.569014
0.225997
0.22787
0.141895
0.257234
0.131313
2.36045
0.196653
0.174469
0.182411
0.145727
0.25298
0.386134
0.461903
0.60462
0.314278
1.02112
0.130507
2.41856
0.199056
0.24307
0.500029
0.392017
0.144809
5.61653
0.311806
0.210379
1.03011
0.932478
2.89157
0.2424
0.083886
0.344755
0.459562
0.283733
0.299628
0.139033
0.359541
0.371383
0.249464
0.346578
0.483651
0.463008
0.217839
0.476854
0.239491
0.316422
0.222296
0.154362
0.125036
0.214415
0.65628
0.216144
9.18354
0.124695
0.307668
0.355956
0.273153
0.210824
0.216312
0.148506
0.469529
0.314927
0.234455
0.237364
0.871472
0.226357
0.226323
0.285953
0.220545
0.311162
0.391413
7.73732
0.161371
0.707099
0.202836
0.547547
0.368428
0.170814
0.144393
0.311924
0.185297
0.155001
0.287553
0.274622
5.36719
1.06704
0.218623
0.423208
0.0568995
0.387384
0.442527
0.22543
0.41971
0.346731
0.239243
0.430259
18.8786
1.02745
0.289611
0.284352
0.344788
0.134961
3.46408
4.54671
0.164466
0.496874
1.83318
0.156651
0.180709
0.219346
0.160451
0.43059
0.271583
0.256778
0.206749
0.2913
0.337976
0.506034
0.284678
0.224417
0.117744
0.398391
0.516523
0.287127
0.254687
0.107711
0.304624
0.317899
0.254097
0.447825
0.181261
5.33141
0.259618
0.546358
0.26376
0.382703
0.407898
0.207265
0.0794233
0.272132
0.212402
2.55651
0.884063
0.20533
0.250509
0.451676
0.254654
0.378475
7.31511
0.229211
0.22318
0.192591
0.357154
0.196323
1.83586
0.962275
0.127127
0.203733
0.217861
0.22933
0.22911
0.083886
0.463563
3.37532
0.676607
0.313211
0.336585
0.10893
0.343504
0.30337
0.200657
0.229189
0.373871
0.120955
0.334214
0.188209
0.430167
1.58951
0.2077
0.260714
2.43171
0.127782
0.473107
0.201066
8.91147
13.248
0.253185
0.236809
0.223021
0.23899
0.348034
1.59495
0.181118
0.226466
3.88489
0.26211
0.0941257
0.72395
0.310375
0.474642
0.275873
0.227155
0.15356
0.454669
0.112235
0.394652
0.305729
0.399075
0.235096
1.31956
0.307663
0.107605
0.220005
0.190439
5.90602
0.301198
0.256925
0.117847
2.12486
0.28887
0.378922
0.199024
0.943426
6.34644
0.273081
4.29376
0.154675
2.29327
0.417181
0.447899
0.158893
0.234755
2.44501
0.265842
0.203111
0.237998
0.845082
0.384575
7.47907
0.342543
0.330603
0.302338
0.604037
0.15992
0.188409
0.263326
0.175566
0.235705
0.333467
0.163337
0.180857
2.03925
0.419355
0.356484
0.398593
0.506776
0.520728
0.268895
0.289236
0.285003
0.259043
0.457662
0.4448
0.576736
4.52371
0.154778
0.197158
6.1105
0.243661
0.180198
0.160398
0.121139
0.1405
0.337425
0.759083
0.630321
0.222742
0.218577
0.132553
1.25133
0.25921
0.524333
9.40671
19.782
4.2666
0.36726
3.48228
0.219074
0.356148
0.245408
0.358959
0.135883
0.246335
0.234333
4.49555
0.215207
0.34158
0.377232
0.612244
0.385702
0.365384
0.22008
0.14616
0.251692
0.220579
0.237757
0.263663
0.725552
0.203311
0.242268
0.24745
1.56349
0.278998
0.235293
0.234257
0.310425
0.189131
0.128688
0.225877
0.286644
0.234995
0.360709
0.138696
0.250746
0.35745
0.226208
0.135515
1.64447
0.327588
0.33181
0.166192
0.129353
0.188216
0.235147
0.281397
0.259049
0.247883
0.161193
3.31088
0.208523
0.274873
2.50966
0.914397
0.191936
0.193765
0.956988
0.406044
0.313826
0.285805
0.199849
3.4487
0.418821
0.235501
0.159971
0.161916
0.399845
0.13686
0.429261
0.116312
0.207622
0.426399
0.364817
0.488983
0.483837
0.33831
0.238859
0.391381
2.86932
4.2553
0.158692
0.254139
2.4047
0.139175
0.221339
1.46216
0.173486
1.32337
1.40509
0.309391
15.0195
0.405642
6.98819
0.511336
0.280753
0.300796
0.454999
0.360067
0.216199
0.235747
1.80044
0.573922
5.62583
0.229574
0.388146
0.289798
0.399426
0.176535
2.12911
0.261452
0.279309
0.116826
0.357862
0.245402
0.302894
1.88015
2.29982
5.04564
0.169105
0.349351
0.187319
0.422519
0.552738
0.377732
0.308392
0.312745
0.204589
0.260867
0.187868
3.94931
0.359233
0.32015
0.199032
0.20338
0.391388
0.167984
7.00227
0.410082
5.40134
0.462657
0.362268
0.485621
3.28198
1.01915
0.403007
0.805816
6.04209
0.140041
0.145564
0.214207
0.19439
2.65605
3.96144
0.282577
0.257993
0.250252
0.409288
0.321596
1.21925
0.231131
9.55399
0.39446
0.235762
0.503436
0.227075
0.139162
1.72166
0.201169
4.89699
12.6688
5.48969
0.210586
0.235656
0.183261
0.482568
2.44224
0.191053
0.423722
0.155404
0.354336
3.00457
0.158346
0.374527
0.175844
2.41953
3.13429
0.441191
7.11934
0.270966
0.232641
0.266379
0.143739
0.246912
0.243021
0.572785
0.292294
0.191043
0.647907
0.250369
0.257257
0.343517
0.32849
0.314731
2.02091
1.21205
0.251057
5.57793
4.14848
0.147355
0.32922
9.08243
0.138334
1.90079
0.24519
0.138156
0.137289
0.291692
0.331825
0.173058
2.13195
0.146457
0.869623
0.303658
0.30008
1.63796
0.303462
0.210452
0.430195
0.391101
4.06808
0.634442
0.383789
0.806313
0.466134
0.424497
0.453112
0.278793
1.86406
0.317593
0.28254
1.19506
0.358477
0.189986
0.419528
0.295648
0.219351
2.21901
11.1288
1.30798
1.7944
0.325217
0.207268
0.296592
6.01799
0.339124
1.00615
0.274046
0.258049
0.386137
0.151328
0.338325
2.83007
0.110725
0.123535
0.215602
0.239746
0.185905
0.143042
0.518666
1.698
0.282736
3.28741
0.580902
7.37823
0.397821
0.356391
0.333636
0.279229
0.305779
0.358362
0.182878
0.357946
7.0848
0.277438
0.266264
0.304059
12.0619
0.140149
0.547541
0.22285
0.255792
3.5929
1.86517
0.253544
0.0898786
0.329286
0.299933
0.264301
0.55745
0.292297
0.204039
0.266548
0.207446
0.137837
0.165782
0.57397
0.380878
0.387107
0.476266
0.337431
0.223455
0.186868
0.560876
0.242577
0.402708
0.172432
0.187675
0.215634
0.140601
0.333383
5.05511
0.270192
0.397716
0.248628
0.406818
0.31068
0.464215
0.205628
0.386007
0.284536
0.340974
0.13135
0.211753
0.146814
0.210188
0.296604
2.52038
0.896155
0.208456
0.293345
0.319298
0.244639
0.234014
0.365256
0.358254
0.329589
0.227647
3.01764
2.72228
0.237278
4.8583
0.242903
0.229566
0.208074
0.221957
0.260629
0.197041
0.334121
0.113852
0.161487
0.28391
0.173644
0.27516
0.243566
0.159744
2.663
0.545121
0.135701
0.210555
0.187995
0.232179
0.371846
0.0991152
0.16152
0.207286
0.226941
0.159067
0.290193
3.77473
0.468562
0.545961
0.516057
0.280715
0.196555
0.304809
0.355723
0.132147
0.17184
0.345389
0.343357
0.172332
0.279119
10.044
0.340683
0.485913
0.179692
0.124903
0.344087
0.294939
8.30141
0.187197
0.226594
0.418806
0.475299
0.391304
0.190125
0.423455
0.315031
0.829312
0.501686
0.14007
0.466604
0.109277
0.21361
0.406811
0.285496
0.189451
0.598125
1.14595
0.267507
0.179612
0.616417
0.451187
1.38472
0.144103
0.355171
0.201919
0.331403
0.227972
0.328929
4.07237
0.200346
0.128894
0.138541
0.121482
1.95057
0.32098
4.24838
0.25282
0.318998
0.181883
0.285746
0.306379
0.623157
0.239483
6.17424
0.156325
0.322605
0.158729
6.38084
0.213286
0.213664
0.0968589
0.266148
0.233647
0.310311
0.490332
0.336058
0.376942
0.92067
0.261904
0.145057
0.223988
0.803534
0.470707
0.357814
0.233889
0.204448
4.10661
0.504727
0.573316
0.108807
6.88175
0.23277
1.25876
0.249231
4.80328
0.97888
0.384259
0.248143
1.77443
0.27206
9.77828
0.403896
0.30482
0.180139
0.147003
3.10752
0.597788
0.847733
0.33837
7.79922
0.334132
0.235355
0.181333
0.297432
0.386982
5.06466
0.154192
0.417905
0.314534
0.288613
0.27812
0.272455
0.455037
0.358972
0.441081
0.286321
0.136101
0.516094
0.458577
3.55195
0.277456
0.262835
0.20281
0.23373
0.261011
0.144221
0.38253
0.226752
0.11283
0.154775
0.206457
0.231567
0.367669
0.325403
0.493327
3.62101
9.51245
0.187517
4.96138
0.175919
0.181403
1.6347
0.375625
0.125875
0.191837
0.391384
0.166496
0.325586
0.240983
0.301002
0.619866
1.16869
0.200651
3.94739
0.322303
0.220648
0.339516
1.25671
0.261109
0.356929
0.188393
0.449872
0.204148
1.45333
0.313332
0.41132
0.2172
0.253232
0.253982
0.215734
0.321377
0.264078
0.294885
0.264037
0.674108
0.213536
0.765243
0.101627
0.15461
0.279108
0.160538
12.6526
0.447786
0.104198
0.215623
0.397115
0.344997
0.167082
0.25154
0.30647
15.7287
0.494459
0.316289
0.345844
0.28862
0.185621
2.15349
0.467417
0.247502
0.246721
0.144546
0.145081
0.913848
0.151044
3.90997
0.426339
0.327356
0.587294
0.273891
0.223559
0.327597
0.143037
0.384702
0.185502
0.306122
0.155561
2.49548
0.32271
5.74202
0.29101
0.175482
1.99498
0.13298
0.186986
0.152493
12.942
0.228101
2.72632
0.301842
0.294461
0.676402
0.150474
0.12265
4.14142
0.178967
0.715447
0.293958
0.952708
0.401733
4.97565
1.21486
1.92334
0.311237
0.463655
0.136254
0.346183
0.123759
0.995701
0.254976
9.60652
0.622285
1.22649
0.274625
0.293455
0.146123
1.05202
0.625544
3.72935
0.335327
0.23289
0.817268
0.223072
0.271004
1.01144
0.196161
0.283414
1.65008
0.217517
0.135162
0.44918
0.204293
0.33953
0.191931
0.397778
5.86693
0.223702
0.305742
0.213397
0.304827
0.192235
9.59286
1.00916
2.36484
3.10696
0.294534
0.502627
0.46618
2.48868
0.42096
0.294004
0.255341
0.37777
0.80534
0.173059
4.28898
0.550183
0.147048
0.339761
0.41796
0.262569
0.305408
0.244294
1.29929
0.195326
0.65083
0.34125
0.338804
0.455014
0.479341
0.254788
0.410844
0.21413
0.274098
1.65456
0.401573
0.49932
0.235468
0.810356
0.35388
3.04859
0.379949
0.265727
0.369676
5.68382
0.223845
0.619768
0.684736
3.54314
0.440591
0.295867
0.446646
0.275541
2.4927
0.222478
0.613473
0.208847
0.227564
0.832384
0.141799
12.0659
0.195001
0.526419
0.276206
1.1462
0.224019
0.36268
0.272837
0.323484
0.323783
0.284653
0.282411
0.27613
0.376933
1.77555
0.590548
0.116226
0.57362
0.379118
0.221537
7.91816
0.287169
0.332781
0.334313
0.356498
0.335836
0.281385
0.267451
0.267662
0.228844
0.294957
0.225604
0.26815
0.246151
0.289229
0.103007
0.260713
0.387449
0.259476
0.183939
1.70755
0.207886
3.13154
0.25564
0.145646
11.663
0.274902
0.296077
0.173579
0.277717
0.154967
8.38024
0.383429
0.224787
0.271713
0.25647
0.32233
0.204894
0.169489
0.276632
0.340883
0.236131
0.355521
0.265149
0.518849
5.10891
0.511422
0.248536
0.190914
1.36872
0.345587
0.182128
0.213156
0.362093
10.0602
0.220516
0.703917
0.261114
0.157744
0.223064
0.300481
0.188903
8.57762
0.303719
0.653282
0.324428
0.17204
0.216139
0.256789
5.01974
0.95285
1.44217
10.9323
0.310404
0.0864968
0.361723
0.183799
0.392285
4.8904
0.403707
0.641056
0.504469
2.07581
0.244003
0.259592
0.45416
0.176186
0.182191
0.197628
0.104544
6.86086
0.282911
0.0957274
0.397335
3.75259
0.291035
2.07425
0.213234
0.206943
0.212315
0.255339
0.343836
0.510539
0.129756
1.89303
0.310267
0.246575
0.144302
0.335404
0.477075
0.156099
0.155928
0.214866
0.266235
3.4634
0.359368
0.540194
0.21494
0.34131
0.321105
0.252916
0.283013
1.08601
0.195826
0.242941
0.738353
0.0932534
0.322488
4.47347
0.205908
0.313874
1.62082
0.26451
10.4217
0.161726
0.132375
0.318717
2.75426
0.138423
0.331331
0.225707
1.01757
0.181867
5.80469
0.205405
0.171166
0.336039
0.142666
0.201269
0.236495
0.106055
0.270124
0.29986
0.417859
0.258613
0.274781
0.550402
0.329662
0.456201
0.114479
0.197752
1.42795
2.93237
0.309152
0.199906
0.157413
0.324967
0.140527
0.143175
0.481368
0.418552
0.219589
6.81099
0.218892
1.52542
0.226873
9.01113
0.200291
0.21334
0.0922647
6.19648
0.232432
0.183906
0.44431
0.284412
0.251313
0.268142
2.90154
0.473651
0.264633
0.305336
9.36337
1.40969
0.728483
0.155062
0.284922
0.355109
0.222319
0.529191
3.62974
0.279214
0.246004
0.20415
0.601822
0.178808
0.234961
0.326555
0.138494
0.186156
0.120659
0.302828
0.135967
0.290905
0.302269
0.221525
0.251783
0.236603
4.1585
0.66139
0.234775
0.194613
1.19784
0.389112
1.27548
0.35119
0.218365
5.27732
0.574968
5.15319
0.31925
0.605307
0.301534
1.59926
0.284142
0.387567
0.392894
0.175315
0.353763
0.26422
0.836594
0.250175
0.240139
0.264457
0.270473
0.202038
1.65962
0.26006
0.264051
0.590405
0.151011
3.6317
2.2309
3.94359
0.305128
0.216781
0.249174
0.30035
0.20526
0.247121
4.16578
0.268328
0.739725
0.203155
0.405627
0.446698
0.228906
0.344512
0.144217
0.172149
0.583317
0.293474
0.252462
0.25987
0.277593
0.449107
0.14771
7.35644
0.104812
0.466297
0.303853
4.67244
0.230345
0.27542
0.196554
0.146295
0.577021
0.371121
0.203413
0.29463
2.11986
0.343247
0.171855
0.501714
2.23067
0.512857
0.273786
3.78797
0.299533
0.227371
13.8016
0.17514
0.260039
0.127765
0.148152
4.25717
0.514349
0.263143
0.389249
0.247605
0.359
2.414
0.339732
0.280648
0.191419
0.334587
6.73974
0.365917
0.182884
0.675183
0.302684
0.634342
0.263115
0.349451
0.159321
0.248882
0.431658
0.272921
0.38876
0.317507
0.343565
0.294646
0.412758
0.18915
0.189751
3.42781
0.364244
0.52092
0.283601
0.280848
0.17116
0.275765
0.316369
0.220866
0.143999
0.316367
0.167151
0.286826
0.377725
7.12321
0.189358
0.170366
0.258955
4.91447
0.451334
0.314845
0.184886
0.317228
0.302442
4.84415
0.515267
0.30478
0.307912
0.277682
0.164154
0.947187
2.09199
3.91114
0.221886
0.202142
0.213774
0.313168
0.401244
0.541476
5.94466
1.30381
0.211502
0.342825
0.529947
0.18409
0.15686
0.305286
1.38377
0.166294
0.247648
0.244845
0.228674
0.453558
0.165551
0.397209
0.213949
0.158397
0.226818
0.275753
0.355899
0.395811
0.207334
0.276176
2.00862
9.19189
0.287584
0.24151
0.255102
1.88619
0.169227
0.294389
0.212424
22.2517
0.290426
0.254109
0.320409
0.483179
1.03092
0.693253
0.382744
0.240138
0.189315
0.137866
5.14707
0.259255
0.347476
0.0853549
3.80101
0.351176
0.346249
0.211949
0.381598
0.108359
0.225476
0.141303
0.275133
0.290842
0.152098
0.215706
2.656
0.252914
7.64957
3.62522
0.35803
0.750515
0.222259
0.16018
0.277231
0.287704
0.233952
1.04812
0.441666
0.339401
0.233067
0.263058
0.146466
0.389087
8.32298
0.205994
0.318478
0.274928
0.405406
0.162441
0.166147
0.900037
0.487357
0.15378
0.152903
0.397021
0.371713
0.269489
0.248325
0.22601
0.144418
0.181306
0.2105
0.0956915
0.247058
0.326367
2.00141
5.85759
1.62856
4.2463
1.23757
0.890202
0.229923
0.231742
0.236646
0.260697
0.243898
0.213241
0.2556
0.265607
0.331019
0.271683
0.434038
2.54068
0.247522
0.225353
1.1173
0.275109
0.180232
7.09432
0.204865
0.173876
0.38219
0.378633
2.3491
0.495466
2.96963
0.153702
0.226445
0.162159
0.216525
0.318077
0.363684
0.234187
0.715153
4.57171
0.235305
0.332097
0.296608
0.389451
0.239482
0.231506
0.140119
0.205599
0.349356
0.342843
0.485282
0.90349
0.352189
0.226137
0.430662
0.196501
0.330647
1.82168
0.295768
0.202879
0.239192
0.270871
0.448269
0.28086
0.572322
0.141952
1.77787
0.642669
0.405227
19.7703
0.548981
1.32288
1.95991
0.212587
0.800385
0.888166
0.293706
0.198975
0.405629
0.532038
1.98963
0.318279
0.762481
3.63445
0.280469
0.354452
0.202966
0.114846
0.204231
0.181797
0.234791
0.13204
0.27751
1.91324
0.262577
0.410574
13.3824
0.285606
0.359639
0.235686
0.197445
0.117876
0.334815
4.99614
0.906199
0.181505
0.378903
0.213868
0.253849
0.605674
0.459836
0.270397
0.199912
0.226239
0.25859
2.34573
1.80586
0.158905
0.211589
0.280753
0.151279
0.116491
0.328037
0.193776
3.54068
0.21971
0.211682
0.356939
0.257088
0.427141
0.399759
0.744784
0.49382
0.871054
0.794725
0.361333
0.130343
0.415847
0.352093
0.360042
0.161287
0.308894
4.40838
0.347802
0.42553
0.177164
0.803016
0.216247
0.259505
0.518722
1.03899
0.153641
0.203104
0.186648
0.481428
1.89919
0.697025
0.462582
0.160956
0.360744
0.187844
0.278837
2.41988
0.285189
1.13004
6.34554
0.895367
0.191858
0.313534
0.339234
0.289079
0.842318
0.6683
0.248886
0.228636
0.204391
0.245663
0.343549
0.376256
0.154311
0.345439
0.152584
0.283206
0.293383
0.291937
0.152272
1.74167
0.145976
0.527161
0.102158
0.437958
0.655356
0.219181
0.415947
0.153839
0.264242
0.653261
0.22509
0.300095
0.106999
0.301177
0.366155
4.59993
1.03533
0.330626
0.206439
0.384172
0.241164
0.151907
0.111145
2.28078
0.0957095
0.259963
0.232586
0.228141
0.142837
0.231347
2.62299
0.195408
0.160665
0.354358
0.256596
0.171198
0.154235
0.226329
0.201422
0.388127
0.237647
6.32445
0.341171
0.180422
2.67282
0.287456
0.451683
0.32908
0.408698
3.1881
0.20921
0.723672
0.207135
0.39671
0.225729
0.194493
0.19413
0.228435
0.202116
0.131842
0.147227
0.0782987
0.121512
0.154343
0.442856
0.313825
0.335279
0.322341
0.218507
0.543315
0.200802
0.371486
0.237902
9.1164
0.286748
0.247884
0.224121
0.438034
0.176903
6.02384
0.157934
2.57998
0.253105
0.484616
1.70792
0.338973
0.661964
0.457478
0.25378
0.268201
0.349113
0.241465
11.4946
0.682746
1.27476
0.257307
0.430573
0.373089
0.36533
0.309923
0.209854
0.43599
0.130403
0.266047
0.239076
0.244695
0.5791
0.259641
0.484345
0.354043
0.243018
0.181518
0.181239
2.24483
0.238478
0.242055
0.391384
12.415
0.423042
0.280487
0.235235
0.219911
6.6908
0.160698
0.837826
0.124773
0.301306
0.207097
0.340717
1.93369
0.275112
3.68053
0.136389
0.184646
0.494388
0.201952
0.210035
0.171039
0.245209
0.250541
0.303804
0.355345
0.246218
1.35189
2.32013
0.131499
0.227696
0.187971
6.26762
0.306336
1.16955
0.633768
5.92918
1.38896
0.17602
0.122728
0.338227
0.280925
0.305853
0.308953
0.187352
0.411651
0.523079
0.526485
0.367293
0.28962
0.419482
0.261994
0.325463
0.327534
0.216273
0.191966
0.404262
0.312919
2.77127
0.442894
13.8255
0.379179
0.35467
0.244989
0.166834
0.342574
4.68912
0.184482
0.374897
0.367095
0.311779
0.358615
0.285853
0.144512
0.132328
0.160909
0.1535
3.43099
0.480968
0.306913
0.146271
1.38286
0.265561
0.148385
0.308603
0.190941
1.59184
0.155002
0.130914
0.249331
0.180475
0.102823
0.489088
0.334113
2.10498
0.321406
0.178072
0.245857
3.01143
0.786895
0.399411
0.185278
0.962732
1.24354
0.377774
0.292431
0.18832
0.329303
0.165104
0.359475
0.190135
0.225803
2.63243
1.20183
0.277898
0.230605
0.458742
0.304344
1.72811
0.283512
0.443864
0.361549
4.75504
0.317503
0.451733
0.148774
0.254257
0.253851
0.295685
0.184981
0.18828
0.246334
0.273827
0.145938
3.22488
0.829321
0.184573
0.19737
0.245819
0.294514
0.291616
4.08896
0.112437
0.963101
3.04337
1.02025
0.213479
0.20621
0.30685
0.363487
10.136
0.377774
4.29056
0.146931
0.15119
0.244039
1.96969
0.643662
0.393059
1.86643
0.350225
0.198156
0.294062
3.29575
0.992682
0.315771
0.212288
0.123594
2.77012
0.20349
0.191896
1.93757
0.419644
1.30664
0.171466
0.369846
0.394548
0.274602
0.291725
0.197321
0.257763
0.309983
5.98078
0.339228
0.206934
0.248937
1.47035
6.21681
0.211927
0.36037
8.10392
0.519998
0.16355
0.295554
0.186373
0.532267
0.157467
0.526229
0.225883
0.212381
0.329135
1.38709
0.240907
0.341853
0.300331
0.308903
3.39571
1.49936
0.102272
6.22785
0.10395
0.161861
0.241888
0.27287
0.463698
0.380852
0.388192
0.234456
0.429689
2.53114
0.296185
0.267131
0.355805
0.299507
0.327911
0.181952
0.301803
0.899387
0.193236
0.210379
0.705285
0.34399
0.266495
0.1554
0.216173
0.32341
0.209285
0.275577
0.765017
0.251224
0.213416
10.8616
0.234976
0.322422
9.28772
1.96733
0.385294
0.124271
0.147937
0.545429
0.232897
0.390994
0.333096
0.178532
0.373787
0.213418
0.258592
2.40084
0.218712
0.627104
0.226005
0.222515
0.587635
0.268027
0.342899
0.214737
0.179898
0.452174
0.268783
3.17188
0.340643
0.253705
1.9066
0.253824
0.574331
0.345751
1.88178
0.332733
0.338444
0.201199
0.247505
0.156746
0.40476
0.244138
0.298148
0.508104
0.252946
0.473103
0.151883
0.211618
2.74869
0.185784
3.94013
0.303544
0.448942
0.225571
0.198305
3.66016
0.324725
0.25655
3.78157
0.209983
0.260104
2.134
0.409909
4.02839
0.18413
0.28123
0.459942
0.361094
0.24239
0.193689
0.741161
1.20784
0.702971
0.20693
0.638822
5.88525
0.300661
0.713793
0.760005
0.29102
0.421755
0.213606
0.468429
0.158445
0.313944
5.52073
0.215772
0.259833
3.34793
2.07929
0.618368
3.21765
0.38872
0.294222
0.287538
0.254432
0.142982
0.132043
5.81078
0.374997
2.38347
0.194666
0.275731
0.510905
0.222126
0.157843
4.86855
5.41772
0.187265
0.234864
0.787589
0.164696
0.630868
0.242996
0.147583
0.620134
0.445556
0.295871
0.352231
0.236603
0.140166
0.275383
1.017
3.76731
0.543793
0.250205
0.28073
0.372147
0.374237
1.12076
0.699351
0.596693
0.394942
1.19471
0.521476
0.126817
0.228759
0.371884
0.318978
0.203535
1.26606
1.43648
0.432976
0.395063
0.218211
0.216031
3.05617
0.316755
0.165889
0.325605
0.272332
2.44578
0.359463
0.236925
0.167391
2.45416
0.196569
0.164939
0.310107
0.356166
0.960512
0.391649
0.203756
0.204374
0.159603
0.258671
0.175093
0.386315
0.176152
0.318238
0.239933
0.200154
0.884764
0.28683
0.269579
0.168481
0.189153
2.54673
0.131771
0.14934
1.80725
0.209675
0.270704
0.105098
0.318143
0.364496
0.281377
1.76821
0.460143
1.18496
3.53798
0.339895
3.95997
0.228577
0.195272
0.760574
0.261823
0.40749
7.21211
0.239494
0.219045
0.271688
0.438978
4.46296
1.16144
0.484696
0.640385
0.304812
0.183131
0.466054
0.49849
1.82947
0.188065
0.814903
0.305181
2.46192
0.344147
0.236659
4.45908
1.77343
0.202737
3.09575
0.261561
0.227326
1.78653
0.245923
0.232597
1.43556
1.89561
6.26121
0.212162
0.415972
0.568979
0.288602
1.34944
0.0961365
0.237356
0.112048
0.133111
1.36939
0.427301
0.222938
0.326487
0.244839
0.223793
0.446289
0.381485
0.114824
0.267905
0.305019
2.35636
0.118001
0.885098
0.253205
0.302239
0.201013
3.67632
0.350196
0.256655
3.16646
2.54703
0.181437
0.404687
0.330688
0.279882
0.236828
0.203345
0.412761
0.127079
0.227934
8.89086
0.369633
2.08967
5.53765
3.48779
0.155693
0.313879
0.311577
0.175571
0.228545
0.253923
0.206421
0.255258
0.327046
0.159823
2.4232
2.25688
0.164986
3.60601
0.250458
0.195944
0.204977
0.491729
0.149259
0.344841
0.215255
0.277372
0.196418
0.350519
0.212815
2.81945
0.314377
0.220654
0.564904
0.282649
0.190058
1.25145
0.481655
0.208196
7.94381
0.384848
0.677172
0.288072
0.284087
0.327942
0.435342
0.340802
0.254085
0.200753
0.823817
1.88345
0.375906
0.392141
4.30113
0.389875
0.495613
0.175345
0.423882
0.149656
0.266833
0.213213
11.2001
1.25797
10.0584
4.05759
0.310384
0.35682
2.1653
0.161803
0.118032
0.217821
0.286993
0.218054
0.305774
9.88153
0.178141
2.28307
0.379408
0.683336
0.226594
0.262138
0.176968
0.199702
0.375903
0.241191
0.384106
0.338592
0.641992
0.401633
1.73124
5.59657
6.17499
0.268584
0.143378
0.284208
0.292099
0.709662
0.193765
6.7896
0.190059
0.312483
0.40102
3.41468
0.155894
0.147336
0.383933
0.370592
0.283412
0.217292
0.201618
4.56356
0.271506
4.75362
0.393688
0.632359
0.382549
1.15794
0.151507
0.464858
0.202693
0.352861
0.319973
0.352174
0.292704
0.327121
0.276391
0.400182
0.197122
0.152869
0.18249
0.365252
0.127098
4.15623
0.21885
0.301214
0.139198
0.552545
0.498974
0.319903
0.103533
0.344074
0.335345
0.326135
0.260359
0.237931
0.326523
0.395192
0.137017
1.5674
0.188094
0.295842
0.125041
0.307783
0.18722
0.226754
0.328518
0.297869
0.161734
0.254289
2.67578
0.327089
0.439691
1.96001
0.507959
0.253542
0.310283
0.955826
4.69585
3.60454
0.296396
0.919322
1.06922
5.33144
0.16373
3.04785
0.491507
0.14945
0.135109
0.244287
0.253105
0.208662
0.40978
0.212837
0.771196
4.55486
0.593799
2.1871
0.174332
1.55277
15.0855
0.383406
0.32985
0.229318
1.77809
0.288538
0.240124
0.187708
0.271851
0.209787
0.256175
0.383727
0.205687
0.182202
0.295126
0.360516
0.170157
0.229517
0.279309
1.95554
0.26816
0.391415
1.80351
0.153127
0.134856
0.259422
3.20142
0.406362
0.380721
0.205095
0.220335
2.20737
0.199519
5.31004
0.27963
0.265208
1.02839
2.00221
0.332727
7.10857
0.436276
0.187679
0.346157
0.531447
0.112946
0.0892062
0.196237
0.163283
1.17245
3.96649
0.255185
0.174648
0.129213
0.282979
0.448708
0.19102
0.666138
0.283325
11.0385
0.311721
0.197606
0.46481
0.371184
0.160903
0.594475
0.371389
0.510693
0.277182
0.317905
0.165486
2.11038
0.183549
0.308589
0.484643
0.205468
0.389019
0.222356
0.365696
2.09433
2.80823
0.358382
0.207659
0.237988
0.622086
0.156224
0.232637
0.395561
0.15484
0.198207
0.0875812
0.32171
0.193454
0.156425
5.65353
0.347696
0.233594
0.291846
0.151784
1.19117
0.582137
0.363909
0.167294
5.14662
0.166764
0.392617
0.115801
0.454127
2.07093
0.494285
0.269818
0.177854
1.70305
0.278872
0.315485
0.168223
0.167742
0.232334
4.43022
0.168984
0.322716
0.404983
0.390082
0.388512
0.244765
0.252538
0.15981
0.243593
0.61685
0.36878
14.7083
0.235439
2.69202
0.598449
0.214667
0.206052
0.245519
0.748353
0.343801
