0.177802
0.394993
0.463002
0.985878
0.225012
1.76407
0.659412
1.18757
0.296893
0.188763
0.226243
0.195876
0.265227
0.265998
0.424037
0.221999
0.770341
0.351534
0.379638
0.181887
0.291065
0.299607
0.359038
0.34832
0.264683
0.0951668
0.305896
0.449799
0.402859
0.302347
0.282792
0.0993183
0.4351
0.299102
0.375918
0.302443
0.155217
0.397857
0.130851
0.193298
0.174126
0.223351
0.245727
0.269031
0.669862
0.503931
0.364602
0.174622
0.149372
0.341333
0.410894
0.170729
0.220562
1.99557
0.340639
0.249328
0.185642
3.04524
0.245454
1.157
0.221408
2.72614
0.47995
0.347288
0.141776
0.119989
0.221373
0.195043
0.221343
1.54683
0.19976
0.312324
0.246731
0.200411
0.373906
0.314531
0.209465
0.280649
0.224818
0.137777
0.316781
0.12387
0.515453
0.16451
1.37762
0.295049
0.226928
0.503964
0.299244
0.409135
0.404836
0.174851
0.192611
0.162126
0.442311
0.884059
0.700967
0.292881
0.26547
0.996417
0.871371
0.146371
0.140771
0.180401
0.517533
0.163909
0.213166
0.264398
1.37668
0.234793
0.21223
0.280824
0.457071
0.203943
0.726047
0.192779
0.341978
0.190671
0.451581
0.374785
0.340391
0.254408
0.180117
0.169523
0.257082
0.288019
0.205463
0.249579
0.244601
0.39704
0.146523
0.268401
0.914908
0.346587
1.02269
0.25498
0.472161
0.595759
0.0828563
0.287625
0.185287
0.329323
0.26183
0.163917
0.698561
0.360478
0.180417
0.350176
0.210072
0.175343
0.303693
0.38494
0.318823
0.178731
0.564973
0.172536
0.202137
0.125821
0.166096
0.243602
0.307081
0.364692
0.115652
0.30871
0.285235
0.268331
0.19276
0.322124
0.34633
0.187976
0.575278
0.435018
0.691497
0.246323
0.307153
0.217191
0.122283
0.16387
0.173767
0.198436
2.42327
0.991887
0.27554
0.358526
3.12663
0.192319
0.624742
0.292061
0.239808
0.251608
0.327408
1.12243
1.8891
0.23034
0.180775
0.16613
0.631108
0.290213
0.118472
0.430814
0.286212
0.444329
0.332984
0.225198
0.23674
0.145282
1.66755
0.633172
0.177526
0.492446
0.341859
0.130293
0.26399
0.448432
0.907154
0.320008
0.197163
0.436249
0.100593
0.231395
0.190509
0.20615
0.385845
0.204997
0.45999
0.267865
0.26108
1.75818
0.137859
1.14994
0.883492
0.184124
0.971986
1.61516
0.0991418
0.322752
0.231284
0.295719
0.434538
0.321854
0.331962
0.135813
0.253433
0.198986
0.223165
0.658206
0.384091
0.206939
0.214597
0.409447
0.100615
0.541442
0.252575
0.798322
0.281276
0.418596
0.433819
0.842427
2.25226
0.275487
0.406953
0.176443
1.30197
1.62096
0.144382
0.23009
0.138952
0.281715
0.239086
0.422802
1.10174
0.239766
0.801797
0.203424
1.89685
0.469872
0.441078
0.298407
0.177535
0.368413
0.145802
0.576014
0.156109
0.397102
0.497672
0.151604
0.765863
0.109132
0.38771
0.171479
0.188211
0.154048
0.13494
0.383525
0.244309
0.12448
0.208551
0.146853
0.951749
0.513415
0.130638
0.359748
0.47476
2.30149
0.456551
0.255392
0.148889
0.32437
0.140117
0.185495
0.883925
1.84109
0.840099
1.06143
0.137785
0.366551
0.483767
0.22289
0.222845
0.34942
0.276242
0.238219
0.796149
0.58522
0.309846
0.279538
0.243875
0.423321
0.191997
0.227109
0.137966
0.616097
0.786122
0.542499
0.266112
0.220817
0.23425
0.193402
1.6204
0.346658
0.211816
0.350829
0.245291
0.136884
0.14843
0.276111
0.266323
0.322494
0.176047
0.540576
0.170365
0.192365
0.12424
1.38534
0.386987
0.139457
0.479314
0.345028
0.362228
0.262036
0.299005
0.793321
0.921767
0.203206
0.153691
0.503857
0.0836126
0.440027
0.202327
0.250991
0.399746
0.939121
0.222572
0.183986
0.130509
0.896676
0.146509
1.05691
0.437111
0.581394
0.297202
0.479681
0.196605
0.44969
0.530141
1.17348
0.163537
0.2391
0.168363
0.234168
0.29594
0.286155
0.262907
0.28464
0.15613
0.425433
0.341118
0.196406
0.251898
0.294921
0.506774
0.122338
0.582515
0.294565
0.273056
0.861979
0.446854
0.21236
0.364783
0.413944
0.283149
0.272827
0.291018
0.254577
0.423747
0.185984
0.168608
0.344247
0.753192
0.0934932
0.282539
1.02559
0.296221
0.14216
0.171449
0.691162
0.102428
0.948187
0.272323
0.287464
0.750497
0.907062
0.249808
1.25057
0.357273
0.25088
0.21678
0.275734
0.250861
0.550373
0.232714
0.223135
0.168846
0.21385
1.23405
0.606629
2.26823
0.436663
0.204169
0.310848
0.601147
0.165841
0.343783
0.122485
0.108204
0.231868
0.243723
1.19536
0.288317
0.22921
0.172733
1.35366
0.944675
0.310839
1.11794
0.109034
0.167071
0.144396
0.423295
0.156352
0.401246
0.245608
1.27047
0.307671
0.172278
0.380119
0.183475
0.300071
0.199566
0.328301
0.247525
0.220857
1.90648
0.364838
0.288302
0.413336
0.237658
0.16132
0.893255
0.171671
0.183997
0.532696
1.1653
0.683867
0.757274
0.281359
0.497688
0.234961
0.144029
0.709748
0.156411
0.235948
0.251015
0.598159
1.49461
0.571203
0.39144
0.260238
1.53032
0.129413
0.189315
0.529899
0.353909
0.107953
0.118503
0.713799
0.968243
0.180508
0.463091
0.791216
0.273163
2.22556
0.5517
0.305099
0.835182
0.342966
0.224324
0.149031
0.404963
0.597354
0.140869
0.182465
0.168272
0.178625
1.25482
0.121208
0.892019
0.287528
0.333318
0.41712
1.10705
0.2642
1.09548
0.344216
0.472275
0.255529
0.31278
0.310219
0.615711
0.19031
0.92615
0.467088
0.227531
0.163554
0.194495
0.076403
0.209998
0.188751
0.221527
2.47769
0.791693
0.515721
0.419253
0.477289
0.279532
0.286759
0.328083
0.373453
0.242299
1.76444
0.333169
0.204449
0.174254
0.182469
0.165828
0.218617
0.398086
0.298886
0.0911373
0.518985
0.658624
0.936444
0.439246
0.270347
0.167044
0.262281
1.16184
0.664114
0.139858
0.277585
0.390915
0.151183
0.158784
0.678975
0.299161
0.212914
0.502976
0.159339
1.04745
0.19495
0.0846274
0.24445
0.60804
0.303356
0.289813
0.304786
0.123313
0.181992
0.462215
0.132131
0.124547
0.366068
0.461388
0.523779
0.588154
0.323153
0.0741965
0.198843
0.170193
0.238754
0.399246
0.190992
0.465848
0.326122
0.785092
0.313291
0.345407
0.109893
0.450399
1.20178
0.203934
0.47025
0.217116
1.06737
0.24082
0.567147
0.40596
0.560144
0.15004
0.198057
0.147435
1.56609
0.228419
0.213388
0.184707
0.2253
0.23351
0.168096
0.122347
0.310042
0.307329
0.191989
1.53577
0.289852
0.154456
0.237423
0.123854
0.230916
0.937557
0.506451
0.869682
0.228226
0.0946446
0.560569
0.309576
0.351779
0.247233
0.843829
0.246039
0.1097
0.328879
0.506591
0.189432
0.768702
0.47376
0.124194
0.245392
0.213125
0.124739
0.508185
0.216956
0.116266
0.330547
0.4589
0.274126
0.618603
0.176089
0.363311
0.230073
0.190356
0.111649
0.824723
0.654779
0.444856
0.40748
0.380397
0.406263
0.473672
0.0929031
0.116647
0.306838
0.851495
0.30892
0.218619
0.243597
0.166726
0.977905
2.50157
0.111861
0.206712
0.530464
2.75294
0.923279
0.238853
0.134922
0.464435
1.02332
0.125627
0.422364
0.41914
3.32451
0.214497
1.13795
0.18562
0.374594
0.234099
0.625239
0.162532
0.975225
0.303886
0.190458
0.369593
0.249623
0.128615
0.236772
0.384068
0.149778
0.360007
0.164626
0.121516
0.854893
1.4923
0.328232
0.335294
0.21101
0.211367
0.336684
0.195156
0.275345
0.246343
0.358156
0.303375
1.17632
0.567164
1.30119
0.357544
0.169831
0.533899
0.722224
0.795305
0.597279
0.448219
0.270948
0.510202
0.318593
1.27023
0.0828514
0.272763
0.213488
0.382032
0.180687
0.225095
1.04651
0.102662
0.121003
0.189449
0.250398
2.42356
0.165437
0.880042
0.280586
0.351759
0.535295
0.605968
0.21133
0.331139
0.227291
0.26599
0.480054
0.24251
0.186937
0.394859
0.554259
0.242869
0.402013
1.14401
0.181304
0.579676
0.206415
0.283494
0.197411
0.398971
0.256512
0.208086
0.293617
0.205624
0.865865
0.255934
0.828056
0.349121
0.202033
0.234046
0.475536
0.659085
0.173425
1.49357
0.195073
0.265394
0.339457
0.897162
0.26235
0.191738
0.323082
1.24969
0.325817
0.431575
0.638504
0.215364
0.169613
0.321709
0.225931
0.322722
0.339497
0.183945
1.65453
0.19081
0.456174
0.144401
0.23341
0.192648
0.126788
0.0711682
0.467214
0.319158
0.33662
0.0981746
0.224576
0.120393
0.749957
0.450759
0.342013
0.328174
0.187233
1.46794
0.270291
0.479798
0.799075
0.26949
0.195599
2.48205
0.142296
0.187626
0.160108
1.22031
0.41591
0.261841
0.636877
0.0930985
0.477822
0.133848
0.817421
0.818428
0.219177
0.329988
0.371201
0.446252
0.262256
0.288941
0.255362
0.958338
0.242747
0.107571
0.380602
0.214081
0.361547
0.105731
0.224852
0.224924
2.35581
0.149116
0.402718
0.351086
0.121192
0.23212
0.434937
0.169813
0.0763739
0.210308
0.318209
0.161571
0.698867
0.422595
0.261996
0.202874
0.194397
0.366688
0.178386
0.146241
0.129597
0.145999
0.222457
0.854957
0.442239
0.410626
0.0704456
0.284327
0.134454
0.261214
0.368538
0.154123
0.14672
0.342761
0.280594
0.322888
2.55375
0.209872
0.236433
0.825594
0.308189
0.235688
0.36551
0.610457
2.28968
0.848104
0.0954007
0.0919707
0.301716
0.344875
0.348769
0.312235
0.303481
0.360797
0.149387
0.223414
1.93981
0.851215
1.41856
0.141501
0.442698
0.121854
0.312939
0.966907
0.382812
1.59011
2.52795
0.504416
0.217565
0.123207
2.39182
0.230953
0.159738
0.189838
0.342427
0.300787
0.223185
0.226317
0.309939
0.654396
0.230406
0.244492
1.6516
0.503424
0.709048
0.806316
0.803222
0.925101
0.450633
0.195443
0.387446
0.187853
0.733445
0.384937
0.170581
0.163668
0.166149
0.249542
0.276207
0.494497
0.209274
0.175865
0.161196
0.254869
1.21876
0.360816
0.131766
2.18077
0.287371
0.69543
0.355695
0.214351
0.118673
0.223847
0.432511
1.17023
0.423358
0.347521
0.286312
0.175498
0.438098
0.142056
1.26247
0.402509
0.37249
0.464324
0.157624
1.54772
1.22854
0.138713
1.27545
0.342839
0.355219
0.142166
3.53916
0.30036
0.414339
0.12639
0.313778
0.25548
0.451495
0.281124
0.293761
1.4296
0.177956
0.912084
0.219252
0.282512
0.3274
0.845711
0.28419
1.35406
0.131478
0.197884
0.1903
0.128436
0.120459
1.09527
0.254148
0.258764
0.681677
0.156125
0.238161
1.45444
0.334625
0.724164
0.48276
0.1244
0.307592
0.26973
0.322107
0.657505
0.255989
0.273511
0.230848
0.180336
0.394202
0.254181
0.49077
0.184111
0.367034
0.28053
0.707931
0.276547
0.400074
0.172838
0.291795
0.274636
0.179367
0.521552
0.173186
0.28048
0.235948
0.180419
1.20063
0.135698
0.533251
0.559839
0.196683
0.365617
0.335349
0.337539
0.122392
0.230593
0.264083
0.1757
0.221179
0.183167
0.16323
0.315404
0.430953
0.209562
0.147901
0.181634
0.130299
3.30007
0.234948
0.523615
0.276706
0.650998
0.236743
0.193947
0.11928
0.354507
0.21496
2.66026
0.107924
0.662228
0.309587
0.174501
0.686047
0.299355
0.152941
0.365341
0.182146
0.645434
0.406413
0.335897
0.235407
0.191716
0.254359
0.244137
0.97623
0.147819
0.184253
0.279608
0.199426
0.143676
0.203885
0.192846
0.206267
0.690069
0.232624
0.134634
0.37583
0.434291
0.31802
0.601118
0.143454
0.310449
1.33755
0.203853
0.212383
1.18113
0.2553
0.212171
0.146432
0.279144
0.145971
0.127892
0.285066
0.494957
0.0874462
0.806805
0.122374
0.473245
0.237256
0.262302
0.203786
0.653802
0.311636
0.101181
1.02742
0.292431
1.36581
0.217685
0.278144
0.260465
0.197891
0.415279
0.2831
0.428223
0.258293
0.626251
0.238084
0.5986
0.308027
0.253591
0.258825
0.128416
0.175451
0.211609
0.12446
0.283545
0.170895
1.02395
0.10357
0.166426
0.210214
0.245524
0.250856
0.135125
0.200811
0.394154
0.10563
0.203211
0.112318
0.29081
0.192377
0.441955
0.196391
0.429393
1.68642
1.3788
0.200671
0.16637
0.18321
0.464851
0.462895
1.39024
0.807685
0.200787
1.47655
0.132852
0.604689
0.753207
0.224298
0.652248
0.257336
0.529633
0.359193
0.834721
1.69462
0.358987
0.192459
0.206751
0.129617
0.115618
1.64614
0.278994
0.271164
0.128594
0.234886
0.679991
0.249564
2.07324
0.23922
0.46692
0.541555
0.490328
0.182332
0.145491
0.235443
0.243243
0.182966
0.137304
0.60568
0.730733
0.305871
0.303678
0.200715
0.155383
0.391366
0.18187
0.214197
0.747901
0.218484
0.703195
0.0588226
0.171109
0.156856
0.219303
0.335101
0.278277
1.07232
0.130781
0.879302
0.14656
0.151011
0.206966
0.238549
0.127021
0.302731
0.290068
0.396568
1.05483
0.105507
0.295147
0.420695
0.464716
0.159088
0.187726
0.496031
0.282893
0.222486
2.82172
0.662531
0.173405
0.330842
1.62714
0.219802
1.23288
0.218254
0.184176
0.128052
1.3917
0.435681
1.43958
0.201126
0.773196
0.514828
0.279296
0.857094
0.187601
0.2776
0.147444
0.204591
0.367303
0.306646
0.410944
1.11129
0.573999
0.216864
0.275363
0.185074
0.379604
0.554957
0.304466
0.234995
0.287939
0.183886
0.166455
0.265072
0.229517
0.772929
0.324004
1.62388
0.129708
0.204699
0.235847
0.349688
0.212722
0.30048
0.714018
0.173731
0.181135
0.388947
0.272446
0.404142
0.219797
0.0525485
0.184433
0.194566
2.60665
0.53897
0.0930491
0.41792
0.17588
0.197261
0.74414
0.282586
0.150488
0.183809
0.317407
0.809509
0.874338
0.317895
0.206741
0.142575
0.247002
0.451894
0.234097
0.14941
1.06551
0.48407
0.508558
0.221589
0.151934
0.2317
0.212558
0.355992
0.55276
2.33183
0.212731
0.891779
1.00616
0.299044
0.258774
1.07832
0.155933
0.254995
0.158917
0.177912
2.0922
0.268827
0.602882
0.327694
0.20449
0.178917
0.156367
0.407693
0.28753
0.3136
0.195241
0.212696
0.308682
0.258106
0.455104
0.379537
0.257566
0.19836
0.132386
0.204704
0.222669
1.09723
1.11446
0.21446
0.237086
1.24151
0.818737
0.343996
0.216789
0.27882
0.30783
1.12998
0.624656
0.177799
0.149625
1.41476
0.394587
0.331704
0.250786
1.06909
0.100922
0.215024
0.160765
0.996483
0.607521
0.150772
0.148544
0.244286
2.15715
0.237178
0.461189
0.181966
0.305948
0.670557
0.357374
0.174953
0.139814
0.68438
0.18258
0.233323
0.26353
0.201216
0.760766
0.333742
0.255019
0.314804
0.779258
1.25326
0.256894
0.442235
0.279278
2.50471
0.156613
0.199996
0.166625
0.275034
0.26805
0.521383
1.64636
0.099266
0.190111
0.516741
1.72224
0.444144
0.154448
1.0132
0.23733
0.238365
0.109744
0.0803153
0.182483
1.71243
0.571757
0.384257
0.282982
1.13104
0.154003
0.153987
0.0864301
0.35108
0.126215
0.234317
0.142405
1.14802
0.666012
0.218583
0.197204
0.474713
0.460914
0.292515
0.25355
0.330618
0.439048
0.571589
0.308238
0.190855
0.442655
0.445951
0.567998
0.498823
0.186402
0.291606
0.176013
0.298288
0.326576
0.202965
0.182564
0.32611
0.601506
0.229974
0.163298
0.176392
0.415277
0.959095
1.17603
2.30566
0.28631
1.07514
0.261798
0.268068
0.0901173
0.254725
0.346174
1.58781
0.246123
0.416988
0.279644
0.431693
0.20087
0.321227
0.258578
0.372626
0.908995
0.155092
0.239955
0.624417
0.348693
1.15275
0.412515
0.299905
0.164585
0.270728
0.332653
0.139791
1.4016
0.274237
1.52111
0.291887
0.472764
0.272747
0.232022
0.171316
0.220551
0.286993
0.216627
0.557524
0.588435
0.756193
1.23652
0.405862
0.48377
0.324924
0.256154
0.25749
0.311219
2.88684
0.167448
0.766263
0.236643
0.471635
2.10879
0.121608
0.263116
0.193189
0.134956
0.850503
0.120506
0.266622
0.31045
0.369685
0.415957
0.157768
0.467165
0.0941732
0.194592
0.408054
0.280944
0.461371
0.332427
0.848182
0.140494
0.0707101
0.632274
0.617101
0.307127
0.258632
0.398373
1.42191
2.53369
0.236026
0.534043
1.01518
0.166649
0.379575
0.729155
0.246653
0.149168
0.261657
0.0956097
1.13483
0.352435
0.271356
0.204284
0.672935
0.688765
0.174312
0.148339
0.166373
0.464997
0.370051
0.279465
0.34892
0.892793
0.20242
0.141114
0.281441
0.0955032
0.216635
0.150089
0.291354
0.462416
0.405145
0.162255
0.188646
0.377365
0.2957
0.279382
0.239498
0.577022
1.02042
0.866948
1.94836
0.451888
0.848308
0.0767559
0.18763
0.126937
0.267968
0.142057
0.481309
0.440776
0.119132
0.291892
0.291563
0.303979
0.290285
0.250355
0.185981
0.211105
0.717837
0.347697
0.226326
0.214001
0.471365
0.18042
1.95572
0.377809
0.110938
0.216451
0.271846
0.181882
0.140671
0.899201
0.347305
0.151076
0.330715
0.234159
0.197338
0.320405
0.179251
0.596858
0.351888
0.376707
0.470211
0.221008
0.352436
0.927765
0.244387
0.115161
0.309241
0.262712
0.267897
0.34122
0.18538
0.421486
0.199466
0.431239
0.689893
0.339722
0.726628
0.385342
1.26899
0.227827
0.185171
2.58005
0.311049
0.495583
0.281903
0.439442
0.288447
0.376769
0.469474
0.33591
0.218887
1.063
0.355268
0.862225
0.177802
1.12117
0.155207
0.207337
0.201374
0.528817
0.772968
0.225179
0.599334
0.133601
0.554895
0.331651
0.124269
0.260409
0.199866
0.209459
1.02091
0.22118
0.229109
0.345692
0.583228
0.139845
0.609996
0.378028
0.256148
0.135874
0.225773
0.506671
0.157211
2.35085
0.175108
0.26474
0.462845
0.326772
0.166922
0.192943
1.35523
0.209195
0.210188
0.283806
3.88691
0.290765
0.27018
0.654131
0.381663
0.50892
0.558476
0.509883
0.156377
0.351621
0.233169
0.266587
0.240165
1.32372
0.33622
0.680168
4.3684
0.369389
0.298257
0.155454
0.246319
0.180771
0.294138
0.619436
1.24639
0.239299
1.36938
0.190684
0.180216
0.21969
1.5382
0.205753
0.172329
0.262235
3.73877
0.381045
0.276983
1.37342
0.329693
0.417614
0.570624
0.928483
0.188928
0.497294
0.152543
0.197439
1.38023
0.398601
0.30766
1.87488
0.322474
0.222546
0.10401
1.4647
0.220678
0.649759
0.249072
1.91699
0.496338
0.287426
0.953083
0.36706
0.507798
1.66873
0.866846
0.182748
0.184533
0.562759
0.313413
0.268633
0.27299
0.344123
0.327506
0.402381
0.244294
0.298277
0.0957646
0.173725
0.192933
2.21848
0.164245
0.196111
1.57367
0.656311
0.500684
0.0996228
0.204112
0.181094
0.171319
0.442997
0.364542
0.417027
0.900106
0.177342
0.47
0.330779
0.554551
0.231132
0.186021
0.316595
0.428196
0.474028
0.666207
0.303639
0.404068
0.249907
0.215267
0.268386
0.780125
0.248948
1.24237
0.273318
0.393448
0.252018
0.492426
0.0391595
1.59216
0.427862
0.23688
0.345416
0.157172
0.292255
0.261394
0.369907
1.56918
0.253297
0.153665
0.387335
0.112618
0.407823
0.31178
0.177136
0.127201
0.161134
0.249422
0.47514
0.170884
0.189445
0.343933
0.185534
0.278962
0.475965
0.3858
0.358826
0.327188
0.290661
1.28246
0.215135
0.196047
1.37442
0.474106
0.274951
0.216369
0.751221
0.255836
0.16978
1.81223
0.115302
0.216125
0.33923
0.258271
0.274105
2.12726
1.66903
0.252562
0.993298
0.350305
0.477078
1.80035
0.336269
0.579844
0.10741
0.150311
0.198169
0.207679
0.536151
0.179922
0.237364
0.540568
0.177002
0.149314
1.42907
0.455183
0.36166
0.139533
0.128364
1.2783
1.0407
0.345435
0.202071
0.212207
0.294839
0.420745
0.128535
0.343409
0.20686
0.27237
0.360644
0.139182
0.163118
0.122254
0.278956
0.278623
0.436892
0.297365
1.42403
1.01678
0.144627
0.194402
0.299035
0.243363
0.224136
1.61952
0.136489
0.290813
0.368194
0.412161
0.762495
0.890358
0.403847
0.172528
0.553201
0.281582
0.358657
0.287271
0.220486
0.332811
0.226626
0.206644
0.265745
0.696119
0.197259
0.170434
0.459274
0.1709
0.323807
0.196089
1.00809
0.159341
0.634926
0.254213
0.483416
0.362344
0.177837
1.00879
0.289662
0.537197
0.852444
0.236313
0.595794
0.21355
0.125801
0.111259
0.450777
0.390449
0.244601
0.192561
0.242423
0.252775
0.154243
0.31752
0.239627
0.147909
0.337078
0.252211
0.267996
0.325708
0.21176
0.111829
0.197867
0.593928
0.174718
0.311455
0.228905
0.178676
0.703075
0.231465
0.227709
0.367457
0.176699
0.682244
0.219912
0.183557
0.298914
0.201624
0.369391
1.31226
0.273754
0.233832
0.275877
0.1143
0.392094
0.217658
0.289999
0.123405
0.330188
0.121025
0.150235
0.197724
0.143783
0.159703
0.538069
0.219785
1.35192
1.49354
0.164671
0.323896
0.412283
1.3889
1.05396
0.871473
0.323549
0.247768
0.242393
0.264769
0.169293
0.144371
0.387425
1.24025
0.33002
0.198337
0.729489
0.22357
0.121068
0.1384
0.331336
0.485548
0.269723
0.789608
0.479296
0.183374
0.111868
0.319969
0.276202
0.346399
0.325921
0.224803
0.732765
0.485576
0.197662
0.264051
0.237359
0.237015
0.530701
0.245126
0.308644
0.1624
0.160317
0.23671
0.334723
0.181725
0.441383
0.113136
0.0865918
0.324504
0.494644
0.191345
0.256986
0.41413
0.253463
0.30531
1.68457
0.204986
0.203415
0.377352
0.200615
0.494435
0.290964
0.496613
0.172514
1.04011
0.136807
0.329588
0.275531
2.8236
0.135088
0.293467
0.176284
0.391746
0.481515
0.273992
0.708375
0.11269
0.347244
0.346913
0.126981
0.367755
0.172703
0.207953
0.678911
0.872421
0.267571
0.301329
1.46405
0.419486
0.312858
0.49897
0.329566
0.425151
0.712978
0.455387
1.04959
0.419489
0.232405
1.26014
0.21893
0.24235
0.885783
0.183793
0.234064
1.24751
0.386172
0.120025
0.248091
1.20133
0.0802039
0.153252
0.188432
0.281904
0.203144
0.185243
0.51494
0.296699
0.135463
0.276516
0.982535
0.400996
0.175945
0.272063
0.137208
0.445016
0.221552
0.188997
0.28906
0.36516
2.38101
0.217359
0.407456
0.181506
0.282
0.207842
0.194597
0.382626
0.153326
0.268183
0.210632
0.596091
0.202218
0.8876
0.241907
0.958552
0.238841
0.86264
0.215807
0.33445
0.769221
0.590789
0.124219
0.235541
0.276951
0.165102
0.963695
0.433252
0.172236
0.225457
0.260567
1.30558
0.128162
0.142095
0.513203
0.113088
0.295157
0.161532
0.450283
0.313954
0.257227
0.661713
0.297201
0.210416
0.105397
1.29392
0.460348
0.507746
0.336325
0.245813
0.445159
0.36088
0.120211
0.183995
0.321709
1.5989
0.284574
0.882895
0.273285
0.273305
0.0958957
0.170348
0.201786
0.789649
0.515112
0.201929
0.206603
0.236665
0.262571
0.71945
0.206098
0.325269
0.356559
0.297334
1.16952
0.245783
0.188536
1.28196
0.184098
0.458615
0.172587
0.271606
0.504709
1.08729
0.370857
0.143663
0.28728
0.322213
0.205922
0.236208
0.811161
0.220116
0.267251
0.840959
0.262113
0.33095
0.954951
0.940757
0.149606
0.237082
0.757969
0.932676
0.384984
3.04983
0.260813
0.193266
0.271792
1.00789
0.271436
0.304692
0.0996876
1.59661
0.224859
0.152303
0.758504
0.247484
0.20642
0.251801
0.207147
0.746963
0.308104
0.157377
0.106305
0.325218
0.250926
0.315293
0.31101
0.384488
0.320169
0.179853
0.173199
1.13988
0.331482
0.23106
0.234122
0.287476
0.322924
0.296644
0.316663
0.230917
0.153298
0.352819
0.668076
0.254785
0.247211
0.231459
0.230772
0.268112
0.169768
0.212674
0.310545
0.306346
0.207042
2.73282
0.237151
0.206274
0.278558
1.96765
0.334221
0.525592
0.138113
0.400237
1.08778
0.112077
0.501061
0.203055
0.243597
0.173004
0.297854
0.313605
0.197384
0.243188
0.378633
0.451004
0.873823
0.319888
0.355841
1.0405
0.225265
0.396297
1.46838
0.147622
0.155207
0.288417
0.383443
0.122533
0.227332
0.242915
0.402765
3.21184
0.192074
0.186963
0.317234
0.236002
0.305705
0.263189
1.10822
0.228472
1.23203
0.113426
0.277609
0.207954
0.310875
0.222722
0.460705
0.390538
0.327049
0.429555
0.265404
0.324223
0.461483
0.24806
0.241184
0.323006
0.557824
0.348937
0.243542
0.469699
0.894876
0.417674
1.39995
0.893381
1.51484
0.33253
0.28718
0.288792
0.412777
0.278002
0.204939
0.271
0.386398
0.327307
0.575324
0.661969
0.321103
0.180756
0.219715
0.175231
0.40538
0.234427
1.37727
0.117397
1.17694
0.0623492
0.207458
1.01164
0.349992
0.0565899
0.666761
1.40372
0.332837
0.212648
0.403543
2.05839
0.334126
0.311342
0.215395
0.181841
1.57168
0.280818
0.456131
0.336228
0.215373
0.192101
0.430174
0.279421
0.91166
0.547645
0.267038
1.83754
0.268072
0.165161
0.637221
0.33734
0.407926
0.210571
0.599541
0.377473
0.338413
0.755198
0.250483
0.23405
0.19945
0.452693
0.639633
0.4404
0.288938
0.178359
0.249529
0.243509
0.330726
0.29148
0.342091
0.606991
0.44528
0.419691
0.183999
0.905617
0.765515
0.39241
0.400731
0.210059
0.479758
0.330848
0.385671
0.169303
0.289136
0.362263
0.317784
0.231433
0.347407
0.219086
0.348647
0.264221
0.319555
0.57257
0.259636
0.15367
0.864642
0.18652
0.177647
0.924018
0.315121
0.21206
0.266695
0.216796
0.192274
0.229216
0.533122
0.484932
0.224938
0.242636
0.10475
0.507411
1.27156
0.299119
0.278627
0.368404
0.294977
0.210838
0.833911
0.497371
0.213932
0.812492
0.101531
1.37782
0.542076
0.209805
1.06839
0.334435
0.349815
0.423342
0.244525
0.924807
0.490206
0.178021
0.184233
0.228669
0.28686
0.27009
0.435478
0.267971
0.566524
0.197854
0.13266
0.152911
0.632929
0.422411
0.309661
1.16045
0.204642
0.623604
1.0369
0.153128
0.5001
0.247859
0.0608008
0.144855
0.237764
1.2155
0.318284
0.407708
0.799622
0.175875
0.167307
0.325766
0.266022
2.7104
0.12215
0.297981
0.258664
0.255359
0.104468
0.748176
0.444379
0.195825
0.23458
0.148678
0.203155
0.53638
0.813746
0.382173
0.524841
0.254209
0.199725
0.164281
1.70051
0.200504
0.218657
0.381324
1.23077
0.189899
0.312273
0.143019
0.304506
1.53985
0.142618
0.264571
0.212386
0.236374
2.32114
0.2057
0.151024
0.217713
0.348394
0.337101
0.581605
0.240421
0.528271
0.201447
0.574653
0.603719
0.272625
0.264248
0.16971
0.275117
0.297239
0.22868
0.379281
0.168405
0.298539
0.305482
0.173999
0.580126
0.355033
0.121547
2.75692
0.661537
0.267641
0.17528
0.258528
0.680963
0.27384
0.179963
0.268367
0.181466
0.308802
0.275136
0.348076
0.577344
0.347232
0.409585
0.236831
0.189212
0.140046
0.107634
0.729281
0.274603
0.149285
0.369696
0.884343
0.171269
0.241872
0.109217
0.200927
0.252473
4.25984
0.118152
0.157292
0.200674
0.120903
0.279705
0.542089
0.194865
0.243052
2.1175
0.45557
0.140785
0.218454
0.237783
0.501489
0.339672
0.267613
0.286382
0.169007
0.15781
1.64585
0.271259
0.715205
1.23784
0.206081
0.117195
0.478183
0.80397
0.592013
0.327375
0.213529
0.415031
0.259513
0.229939
0.128366
0.296915
0.202539
0.322833
0.38923
0.112223
0.404977
0.239436
0.305283
0.176608
0.252426
0.290284
0.666952
0.24456
0.288327
0.465803
0.113983
0.229662
0.144803
0.551654
0.156335
0.412791
0.123996
0.169751
0.24903
0.438549
0.132631
1.6096
1.77371
0.690779
1.34783
0.454786
0.151159
0.216475
0.151449
0.34058
0.961687
0.321509
0.218954
0.482036
0.267307
0.302272
0.343141
1.00616
0.186904
0.869531
0.158599
0.199707
0.238788
0.242294
0.340499
0.248107
0.356795
0.197146
0.423652
0.277111
0.637607
0.0602093
0.500867
0.337166
1.16404
0.740819
0.26218
0.190315
0.156369
0.312258
0.527427
0.330824
0.506276
0.249006
0.136718
0.214435
0.145793
0.945623
0.25255
0.227427
0.161616
0.253074
0.162168
0.141608
0.137045
0.275949
0.323139
0.658241
0.502852
0.35275
0.207323
0.103978
0.500981
0.283576
0.168445
0.174578
0.682097
0.290245
0.102157
0.271369
0.121564
0.32426
0.249575
0.257876
0.179207
0.175834
0.206575
0.549176
0.708384
0.152531
0.15309
0.34873
0.244658
0.327068
0.216885
0.246548
0.208615
0.264333
0.280995
0.228507
0.462594
0.14651
0.29923
0.279681
0.268792
0.548464
0.18054
0.116634
0.281457
0.235291
0.362002
0.999338
0.678775
0.407067
0.137935
0.375175
0.423962
0.161514
0.312973
0.234261
0.332416
0.267005
0.263942
0.49652
0.269005
0.813914
0.298104
0.240996
0.36979
0.158561
0.213524
0.303416
0.23128
0.489837
0.20228
0.169538
0.215664
0.284378
1.16819
0.228356
0.173914
0.170923
0.421002
0.361029
0.151077
0.234538
0.506785
0.134447
0.220561
0.244088
0.203003
0.0510639
0.0995387
0.119365
0.307852
0.304517
0.164193
0.486446
0.51411
0.204191
1.11349
0.128204
0.177678
0.157635
0.775649
0.417334
0.54628
0.179849
0.219617
0.451781
0.354191
0.130836
0.281719
0.21901
0.31149
1.69228
0.125618
0.335548
0.313137
0.418332
0.196819
0.430842
0.216383
0.285891
0.139468
0.112971
2.14553
0.392309
1.34173
0.190481
0.19544
0.211832
0.204515
0.1458
0.651819
0.183264
0.154332
1.28494
0.281827
0.566999
0.140045
0.259807
0.248124
0.0514093
0.724707
0.388743
0.772143
0.509574
0.707131
0.724323
0.245378
0.263192
0.257209
0.427619
0.230113
0.097318
0.287225
0.775844
0.404615
0.345776
0.226337
0.408094
0.207094
0.174008
0.184074
1.2061
0.0757918
0.407183
0.596819
0.109284
0.301965
0.485641
0.115452
0.181665
0.228755
0.201502
0.253818
0.204614
0.428844
0.205236
0.138743
0.410798
0.276229
0.360569
0.277976
0.172064
0.232134
0.106476
0.942661
0.852394
0.143561
0.240191
0.321147
0.298703
0.545754
0.144489
0.39209
0.301291
0.163406
0.570626
0.360133
1.34646
0.261328
0.257503
0.234048
0.413502
1.08704
0.521086
0.139843
0.22015
0.144921
2.17926
0.126943
0.197487
0.47374
0.331823
1.11288
0.211722
0.340833
0.132057
0.199295
0.524568
0.252077
0.116271
0.204082
0.258985
0.21232
0.325904
0.322959
0.204382
0.295979
0.299794
1.28581
0.170055
0.254245
0.223965
0.145639
1.66463
0.258228
0.378409
0.387841
0.105089
0.187589
0.215812
0.229617
0.125746
0.156746
0.279538
1.07429
1.02648
0.207422
0.739609
0.612906
0.323332
0.315642
0.490151
0.282568
0.32457
0.583085
0.353623
0.370514
0.327312
0.438764
0.728063
0.131518
0.193539
1.48601
0.255311
0.290565
1.90932
0.437459
0.45486
0.205164
0.260888
0.165578
0.172618
0.382837
2.69262
0.292963
0.24482
0.415237
0.129869
0.582075
0.771391
0.296794
0.284363
0.297453
0.124987
0.221531
0.124825
1.06079
0.299808
0.15636
0.274358
0.274181
0.190145
0.388685
0.353364
1.16339
0.383537
0.409391
1.33616
0.705472
2.23726
0.357585
0.909067
0.247604
0.23315
0.136727
0.100041
0.111615
0.167967
0.468619
0.255455
0.359435
0.323784
0.741432
1.10152
0.250668
0.274721
1.68258
0.201348
0.297513
0.270992
1.39048
0.184351
0.985959
0.149785
0.344127
0.304872
1.06017
0.506757
0.219171
0.363851
0.155794
0.169566
0.127035
0.301215
0.244121
0.367564
0.185787
0.348761
1.01795
0.424344
1.71544
0.24661
0.323686
2.0773
1.76898
1.11659
0.235481
1.06634
0.220064
0.14433
0.717359
0.335967
0.487759
0.143719
0.423351
0.666403
0.686707
0.486026
0.155259
0.591742
0.30781
0.439027
0.162353
1.10017
1.01308
0.169135
0.429437
0.347866
0.126554
0.257948
0.171171
0.162281
0.407652
0.130198
0.40897
0.205975
0.181015
0.116457
0.10976
0.276816
1.34962
0.495219
0.454599
0.443019
0.340571
0.131061
0.211321
0.974824
0.0983082
1.06687
0.225183
0.72879
0.2242
0.364924
0.132819
0.305721
0.301891
0.377581
0.260765
0.251284
0.246166
0.41113
0.398521
0.258693
1.23405
0.466296
0.414328
0.211177
0.779668
0.130305
0.101943
0.139841
0.186536
0.209223
0.445726
0.1639
0.173327
0.560055
0.181291
0.291204
0.199358
0.170215
0.283099
0.371632
0.229475
0.238598
0.266432
0.23856
0.609064
0.139691
2.42198
0.145048
0.0941441
0.358798
0.276899
0.446749
0.28577
0.16771
0.222915
0.136469
0.385201
0.29577
0.530626
0.295987
0.129236
0.347582
0.167603
0.535282
0.397584
0.110816
0.161698
0.36297
1.81372
0.281205
0.418917
0.485515
0.312779
0.884582
0.248127
0.244854
0.306736
0.306769
0.317193
0.359397
3.43409
0.202117
0.276241
0.275414
1.73705
0.454128
0.421198
0.265636
0.341319
0.306978
0.860818
0.176479
0.230203
0.193468
0.362826
1.24083
0.319734
0.505668
0.240087
0.334006
1.30165
0.618666
0.403549
0.201011
0.554279
0.752067
0.128117
0.176185
0.471209
0.202403
0.327685
0.541362
0.292271
0.39726
0.340563
0.342537
0.3221
1.94417
0.241645
0.241836
0.203835
0.242277
0.20988
0.234439
0.131592
0.25092
0.202635
0.245496
0.291229
0.213347
0.321216
0.468785
0.606517
0.400615
0.195284
1.16217
1.03228
0.0781507
0.275789
1.80801
0.354433
2.20489
0.364753
0.39069
0.234544
0.410338
0.178559
0.0864906
0.174358
0.534648
0.186975
0.191828
0.461277
0.117236
0.130378
0.303041
0.856379
0.141037
0.316208
0.964786
0.48807
0.308377
0.228512
0.255705
0.2195
0.0842554
0.283589
0.146121
0.119602
0.203928
0.35693
0.923031
0.15465
0.303614
0.1289
0.0958217
1.63496
0.270926
1.22711
0.248267
0.297853
0.279322
2.13112
1.44462
0.12936
0.378165
1.00097
0.197771
0.180965
0.0833621
0.166161
0.401439
0.256969
0.627544
0.242269
0.427948
0.239098
0.858104
0.320844
0.252273
0.222267
0.474155
0.295045
0.125131
0.273608
0.122847
0.262836
0.227489
0.213774
0.428747
0.197295
0.887328
1.08141
0.35017
0.158399
0.238726
0.755871
0.244375
0.238573
1.52599
0.195864
0.271369
0.223276
1.40047
0.183553
0.366488
0.471753
0.155538
0.527032
0.265156
0.234796
0.250808
0.274534
1.6869
0.208119
0.177589
0.183785
0.266201
0.766323
0.155273
1.6292
0.205432
1.00735
0.234948
0.46472
0.223713
1.13867
0.172949
1.389
0.330609
0.165237
0.234259
1.03653
0.944415
0.334628
0.28687
1.31587
0.170899
0.171442
0.256236
0.253749
0.285842
0.74847
0.151022
0.819764
1.63698
0.465548
0.333826
0.250889
0.825542
0.309746
1.17781
0.141724
0.150248
1.21567
0.206609
0.440764
0.143113
0.204933
0.218206
0.152899
0.265984
0.191927
1.18926
0.171048
0.124564
1.32167
0.0979031
0.20372
0.262779
0.137422
0.190148
0.228511
0.657814
0.144724
0.259944
0.210578
0.237676
0.287748
0.2484
0.150116
0.440332
0.138149
0.767336
0.204202
1.09531
0.0864582
0.502115
0.821309
2.20809
0.207737
0.209381
0.235543
0.192665
0.571266
0.299079
1.73288
0.342098
0.447658
0.138872
0.559245
0.287386
0.21159
1.58311
0.2126
0.300053
0.209168
0.185761
0.438457
0.177541
0.183304
0.88199
0.192074
0.265366
0.824026
0.366489
0.640736
1.35867
1.22534
0.555359
0.184525
0.212136
0.1193
0.237241
0.370958
0.258048
0.212944
0.302508
0.229355
0.244306
0.469403
0.20441
0.143573
0.253663
0.136682
0.105251
0.19851
0.361186
2.7711
0.326468
0.117766
1.08085
0.617047
0.145725
2.17105
0.384471
0.195382
0.234466
0.183506
0.145425
0.173346
0.603815
0.184669
0.137861
0.255879
0.265074
0.263768
0.0923009
0.755417
0.271139
0.0966745
0.298724
0.217894
0.13725
1.78599
0.129054
0.231837
0.350355
0.653845
0.203948
0.182614
0.0707437
0.752384
1.10697
0.302927
0.223965
0.159833
0.89079
0.413335
1.06426
1.31896
0.67109
0.474517
0.232479
0.240376
0.216007
0.221084
0.234588
0.756234
0.219569
1.53199
0.382222
0.212537
0.198692
0.112734
0.187114
0.307841
0.446684
1.1468
0.189768
1.06292
0.493463
0.946657
0.205726
1.33125
0.674419
0.159036
0.110886
0.571855
0.253819
0.279142
2.37572
0.463681
0.560667
0.261674
0.236715
0.29593
0.195405
0.365255
0.67954
0.400159
0.320448
0.331674
0.324012
0.130568
0.145383
0.138689
0.534561
0.277299
0.132157
0.450755
1.14988
0.278826
0.172517
0.789016
0.225273
0.0929014
0.290394
0.691636
0.360872
0.1674
0.170149
0.297529
0.149173
0.251083
0.286867
0.408145
0.134419
0.229724
0.229357
0.170113
0.222565
0.263478
0.186313
1.30693
0.253279
0.179036
0.981812
0.191805
0.378902
0.154921
0.439981
0.248105
0.178282
0.280073
0.306496
0.147769
0.142273
0.204087
0.191889
0.297376
0.279097
0.0924037
0.0939195
0.146243
0.246541
0.77281
0.344104
0.241355
0.321473
0.19008
0.692458
1.26419
0.140405
0.292204
1.1605
0.226983
0.192824
0.212303
0.291311
0.348117
0.4928
0.783085
0.201045
3.17403
0.242165
0.309812
0.194017
2.23139
0.408543
1.62638
0.305787
0.181785
0.223624
0.141622
0.365705
0.459077
0.137228
0.17917
0.357511
0.235006
0.421913
1.1211
2.61226
0.175
0.669646
0.186963
0.577182
2.45248
0.27165
0.644919
0.26294
0.611316
0.143157
0.283651
0.452489
0.351213
0.259794
0.229882
0.440162
0.119302
0.249126
0.212202
0.711594
0.148805
0.569995
0.219549
0.402564
0.318244
0.213774
0.491322
0.226062
0.253643
0.336239
1.01262
0.539118
1.26057
0.343484
0.183896
0.502866
0.197156
0.286191
0.149882
0.246054
0.324778
0.15124
0.149024
0.353859
0.184096
0.144203
0.233712
0.21952
0.180841
0.152224
0.13493
1.14693
0.849652
0.206521
0.17643
0.23656
0.368171
0.19791
0.275401
0.169918
0.31094
0.213824
0.183175
2.94282
0.222194
0.210154
0.375835
0.514078
0.202199
0.275588
0.106616
0.547573
0.316406
0.23189
0.393551
0.16393
0.759574
0.854007
0.252877
0.213977
0.114818
1.08801
0.333967
0.206492
0.176231
0.194485
0.798625
0.177466
0.316697
0.214515
0.261075
0.199363
0.224567
0.347714
0.260276
0.256675
0.307918
0.229568
1.13796
0.586697
0.241086
1.0143
0.106643
1.07718
0.27627
1.61873
0.933307
0.877096
0.129543
0.263915
1.21584
0.342089
1.80559
0.346888
0.196325
0.355701
0.625028
0.361568
0.164881
0.272149
0.450828
0.289035
0.302987
0.522898
0.552553
0.269127
0.458946
0.863598
0.147932
0.13503
0.122073
0.946475
0.228683
0.37024
0.696784
0.457553
0.920606
0.207191
0.260697
0.24562
0.164621
0.207371
0.899297
0.88568
0.138352
0.252648
0.239618
2.49607
0.169569
0.102048
1.30107
0.157796
0.255987
0.281643
0.178539
0.335368
0.537114
0.335554
0.28723
0.165838
0.667206
0.351482
0.215025
0.210189
0.357394
0.27587
0.179082
0.951818
1.47885
0.314147
0.211054
0.263686
0.137138
1.0227
0.410308
0.285043
0.151991
0.151556
0.221148
0.22817
0.14439
0.220088
0.968705
0.996312
0.193954
0.18617
0.192075
0.167528
0.33755
0.309816
1.41165
0.220397
0.383947
0.334777
0.344615
0.246018
0.45416
0.444216
0.551107
0.351979
0.75974
0.477892
0.344777
0.346442
0.506903
0.147017
0.21748
0.302159
0.957645
0.604379
0.119168
1.25791
0.427527
0.11298
0.202979
0.45346
2.2382
0.470686
0.22111
0.886591
3.16614
0.122362
1.08517
0.301565
0.30827
0.353933
0.215956
0.163614
0.257879
0.149157
0.338589
0.410307
0.283067
0.181964
1.05114
0.236267
0.169491
0.258665
0.169776
0.903937
0.168872
0.333704
0.291608
0.239456
0.292555
0.366529
0.426638
0.190756
0.209201
0.445909
0.459477
0.397024
0.488006
0.303146
0.190666
0.379455
0.414686
0.403702
1.28632
0.458048
0.126052
0.21057
0.273656
0.216615
0.172352
0.172868
0.175898
0.239851
0.273193
0.37054
0.825912
0.169622
0.212174
0.121474
0.203938
0.141964
0.219335
0.47707
0.461593
0.20549
0.16485
0.819601
0.160535
0.946933
1.38786
2.47455
0.266812
0.195994
0.0937013
0.199847
0.234625
0.219132
0.207494
0.768876
5.25188
0.136467
0.257904
0.217502
0.136164
0.252795
0.516016
0.147473
0.159736
0.433952
0.42109
0.259024
0.470536
0.435088
0.187342
0.19416
0.300903
0.597135
0.275982
0.368475
0.188623
0.164246
0.263289
0.226972
0.296664
0.238017
0.207941
0.210065
0.345494
0.256171
0.763628
0.257761
0.248741
0.201886
0.218689
0.385045
0.168311
0.342866
0.297413
0.147259
0.257556
0.941574
0.272829
0.1893
0.319797
0.183051
1.03502
0.182921
1.14131
0.873611
0.26814
1.3502
0.36921
0.168091
0.597957
0.135846
1.86337
0.411236
0.235263
0.423867
0.275132
0.287013
0.575703
0.267885
0.189075
0.337505
0.275987
0.408173
0.573798
0.215188
0.730823
0.34373
0.390138
1.4731
0.236163
0.236247
0.192125
0.686457
0.161159
0.181231
0.357023
0.377927
0.769876
0.527709
0.189646
0.391722
0.198009
2.62577
0.381469
0.41351
0.464204
0.188057
0.180292
0.406793
0.492375
0.690391
0.228707
0.717871
1.44686
0.161552
0.165777
0.847912
0.949816
0.13982
0.238783
0.566317
0.703891
0.169399
0.903783
0.18907
1.09444
0.794437
0.196503
0.128168
1.64895
0.150691
0.15716
0.209661
0.272807
0.299057
0.635591
0.252766
0.356781
0.417549
0.460264
0.47689
0.199545
0.816329
0.266376
0.927297
2.06929
0.868729
0.517609
0.630337
0.379232
0.278152
0.243286
0.0757273
0.16854
0.198597
0.363441
0.632368
0.293282
0.095724
1.10292
0.314227
1.63204
0.235868
0.203603
0.439794
0.44647
0.236798
2.57597
0.493645
0.138858
0.464746
0.186085
1.2123
0.679908
0.321619
0.243837
0.774725
0.179179
0.178332
0.225265
0.282489
0.178849
0.229224
1.7103
0.220279
0.507353
0.352135
0.458757
1.46072
0.575593
2.75325
1.73189
0.106833
0.394324
0.710385
0.267237
0.743698
0.494201
2.41249
0.2548
0.264486
0.214244
0.152563
0.253568
2.33285
0.21617
0.575875
0.157667
0.209469
0.291019
0.41066
0.281217
0.790498
0.139587
0.175033
0.387135
0.330334
0.381937
0.402935
0.326316
1.05036
0.403522
0.117376
0.478217
0.343731
0.531706
0.159391
0.240756
0.0929925
0.269377
0.257641
1.03575
1.09688
0.403241
0.110245
1.74779
0.365262
0.211521
0.324105
0.13929
1.21789
0.200622
0.182977
0.566904
0.216133
0.409768
0.17883
0.152445
0.446456
0.180803
1.4998
1.05431
0.224413
0.326431
0.458655
0.62128
0.178068
3.02513
0.241112
0.162198
0.209989
0.180375
0.109405
0.267686
0.796164
0.105026
0.237965
0.256422
0.327955
1.93533
0.178108
0.900699
0.180751
0.351029
0.290908
0.379286
0.280958
0.514415
0.323974
0.367867
0.68023
0.463054
0.550902
0.133108
0.200201
0.243643
0.210642
1.57088
0.190219
0.157066
0.396898
0.414708
0.206841
0.321429
0.518869
0.209992
0.257828
0.220894
0.141356
0.159665
0.183885
0.183901
0.416772
0.506604
0.311276
1.06105
0.190712
0.241864
0.491828
0.722053
0.246452
0.214615
0.242096
0.181964
0.192853
0.108721
0.274279
0.273101
0.292749
0.379288
0.246563
0.193634
0.808856
0.476805
0.169171
0.178643
0.857881
0.240821
0.183629
0.177011
0.266345
0.247494
0.744771
0.190316
0.306172
0.202511
0.265833
0.340812
0.355159
0.180819
0.247113
0.403074
0.358844
1.39045
0.297804
0.261873
0.465328
0.200378
0.364863
0.126991
0.225373
0.710549
0.240906
1.23475
0.288965
0.165202
0.141708
0.157532
0.446364
0.113035
0.289974
0.251503
0.368924
2.67104
0.340153
0.336504
0.723677
0.231395
0.509189
0.217203
0.634747
0.168476
0.425779
1.39903
0.488831
0.492328
0.29941
0.0624102
0.368649
0.11128
0.393652
0.371021
0.383077
0.166134
0.247103
0.0968699
0.324892
0.947788
0.164882
0.320288
0.193671
0.290354
0.408436
0.0957374
0.177219
0.286684
0.145762
0.478838
0.643642
1.79808
0.16894
2.15909
0.272989
0.24492
0.192433
0.31049
0.388406
0.238524
0.147528
0.870654
0.215457
0.331366
1.26624
0.197957
0.246081
0.223865
0.308763
0.325891
0.222328
1.59782
0.342047
0.233114
0.15286
0.139268
1.37643
0.291717
0.57129
0.303641
1.31256
0.229897
0.512616
0.299283
0.523695
0.14234
0.216049
0.425847
1.69256
0.232405
0.358814
0.224604
0.154015
0.719221
0.398661
0.251921
0.267831
0.848226
0.235049
0.191132
0.542415
0.147718
0.226674
2.35873
0.231496
0.208225
0.236349
0.505489
0.996594
0.38841
1.63398
0.351052
0.223421
0.154389
0.367743
1.17903
0.293061
0.201407
0.319428
0.148777
0.269065
0.386638
1.31681
0.26872
0.873697
0.428119
0.621617
0.370726
0.435326
0.226716
1.18335
0.546849
0.349863
0.225794
0.756889
0.239306
0.425323
0.354315
0.113184
0.722819
0.836882
0.140964
0.197929
0.613615
0.667631
0.281585
0.196665
0.136055
0.765392
0.965771
0.209036
0.307112
0.139447
0.172657
0.272725
0.486284
1.23775
1.92203
0.162347
0.205892
0.334896
0.272632
0.288412
0.261384
0.314838
1.68599
0.128213
0.243966
0.29376
0.377537
1.1145
0.199159
0.78939
1.3317
0.26097
1.28697
0.520629
0.687052
0.274737
0.977592
0.114599
0.211954
0.143749
1.49955
0.163904
0.313991
0.34237
1.74996
0.141237
0.347192
1.10501
0.263738
0.372108
0.238405
0.208224
0.468921
0.172781
0.224436
0.239804
0.297547
0.354108
0.10298
0.269658
0.402389
0.124461
0.333309
0.185763
0.271415
0.444463
0.132026
2.01924
0.101279
0.202368
0.706906
0.273397
0.26273
0.131737
0.156106
0.209752
0.244354
0.149584
0.923511
0.270267
0.117277
0.0833596
0.216971
0.251361
0.590366
0.298513
0.525023
0.397889
0.163471
0.114142
0.228115
1.04349
0.573874
0.549063
2.66647
0.949335
0.892342
0.185885
0.181204
0.280441
0.395894
0.132888
0.231558
0.307776
0.349631
0.162898
0.144359
0.154631
0.275528
0.422833
0.351618
0.346628
0.395975
0.361168
0.223591
0.175185
0.330626
0.293139
0.311918
0.230702
0.166314
0.385879
0.254242
0.25684
0.932046
0.279707
0.721114
0.22906
1.21469
0.219955
0.70545
1.33247
0.338806
0.26909
0.227316
0.261234
0.168738
0.283286
0.702942
0.14398
0.243099
1.58833
0.297382
1.13648
0.473223
0.248371
0.622408
0.262896
0.767968
0.233062
0.335196
0.289369
1.26761
0.16885
0.290771
0.562104
0.188724
0.201881
2.18204
0.341176
0.2355
0.812897
0.185551
0.165237
0.272282
0.123994
0.286581
0.143048
0.614266
0.283437
0.240723
0.226666
0.947726
0.163612
0.475871
0.240676
0.465472
1.77776
0.183088
0.329591
0.21254
0.24666
0.259663
0.12112
0.384169
0.184985
0.281196
0.271978
0.358019
0.232329
0.121394
0.272073
0.258323
0.141686
0.420726
0.319147
0.950407
1.43374
0.205284
3.33062
0.152851
0.238562
0.249738
0.320045
0.117721
0.41364
0.16469
0.306155
0.132218
0.3691
0.156626
0.208328
0.269999
1.3876
0.2324
0.158106
1.08563
0.855629
1.44504
0.186725
0.267661
0.262795
0.407266
0.284956
0.264183
1.04245
0.671319
0.154883
0.924732
0.191749
0.245063
1.32566
0.187247
0.221077
0.167598
0.138849
0.340528
0.291246
0.185948
0.486087
0.252929
0.190893
0.497913
0.0842212
0.380071
0.0505232
0.816978
0.981008
0.238693
0.287499
0.181313
0.587137
0.107392
0.657914
0.524065
0.249258
0.295854
1.00193
0.666792
0.208535
0.271128
0.256518
0.352467
0.880141
0.204884
0.623423
0.267879
0.293988
0.201218
0.244436
0.177863
0.383408
0.324608
1.15338
0.252384
0.300225
0.192788
0.360457
0.268367
0.401475
0.68982
0.794846
0.210103
0.9436
1.03862
0.257428
0.221361
0.772336
0.465749
0.148118
0.175779
0.181077
0.129766
0.263553
0.186247
1.18628
0.336595
0.49665
0.344354
0.182119
0.429962
0.209716
0.253054
0.1266
1.74418
0.451018
0.172553
0.319643
1.29808
0.162924
2.06365
0.115614
0.155048
0.192801
0.344077
0.603318
0.789184
0.181103
0.490013
0.190278
1.2002
0.205403
0.238341
0.177833
0.179691
0.522294
0.417251
0.2341
0.248959
0.400947
0.182721
0.224366
0.531131
0.178031
0.201305
0.269188
1.7597
0.286735
1.65033
0.556706
0.462909
0.699163
0.28276
0.303855
0.243161
3.91173
0.209879
0.244625
0.437343
0.110317
0.276309
0.370584
0.266398
0.418957
1.2764
0.316641
0.108556
0.286129
0.230253
0.137255
0.309957
1.79936
0.231018
0.193289
0.279217
0.0982894
0.265575
0.220716
0.260895
0.424848
0.37401
0.350882
0.196649
0.194808
0.240036
0.229929
0.21558
0.085255
0.47289
0.62427
0.242778
0.288126
0.49437
0.295898
0.483903
0.228747
0.186059
0.424434
0.389858
0.950801
0.133149
0.287166
0.8543
0.572436
0.279617
0.12367
0.09308
0.176585
2.12365
0.271276
0.231192
0.400676
0.208896
0.194505
0.470562
0.214891
0.253421
0.274564
0.142758
0.175314
0.37557
0.721443
0.126577
0.192199
0.242722
0.270304
0.128954
0.133861
0.34255
0.18437
0.14241
0.633102
0.167105
0.254821
0.774442
0.101566
0.891961
0.136911
1.18448
0.292532
3.53797
0.261787
2.2303
0.0669517
0.24825
0.658755
0.58612
0.364606
0.770307
1.68631
0.291822
0.337313
0.610659
0.511435
0.428732
0.285368
0.501745
0.467819
0.14125
0.193219
0.154714
1.58475
0.393818
0.16076
0.151895
0.171562
0.468752
1.53049
0.234036
0.936482
0.127782
0.161234
1.85571
0.147294
0.305787
1.37999
0.595987
0.491746
0.224079
0.374032
0.648053
0.238363
0.167693
0.302449
0.323719
0.342029
0.250453
0.0753791
0.261787
0.429765
0.173992
0.189826
0.15589
0.233621
0.310166
0.119183
1.65911
0.228574
0.271978
0.143127
0.167129
0.24561
0.21925
0.221578
0.30338
0.129787
1.07753
0.252499
0.385046
0.137758
0.66362
0.249193
0.25896
0.18407
0.198652
1.85976
0.158956
0.395048
0.527003
0.543255
0.253415
0.492725
0.279264
0.181436
0.0725481
0.270778
2.62362
0.190535
0.469465
0.189361
0.344766
0.33296
1.76495
0.5188
0.169403
0.284024
0.117868
0.375061
0.421846
0.398805
0.546756
0.289966
0.139819
0.253921
0.137543
2.04782
1.29709
1.08947
0.137708
0.151913
0.497224
0.391959
0.194272
0.350327
0.530385
0.285161
0.363054
0.258753
0.345365
0.272938
0.576427
0.150861
0.233733
0.332769
0.288969
0.109776
0.155007
0.238831
1.4087
0.231776
1.29569
0.171248
0.255175
0.475954
0.194523
0.191451
1.7226
0.156408
1.04644
2.07313
0.388865
0.21241
0.126719
0.134104
0.225908
0.525559
0.223271
1.0917
0.196968
1.08795
0.230139
0.200944
0.151539
0.115074
0.891774
0.181165
0.204042
0.299578
0.146584
0.195124
0.320319
0.223404
0.203241
0.373561
0.210667
0.237762
0.148036
0.543582
0.309228
0.177559
0.274844
0.175317
0.418073
0.288833
0.144855
0.436193
0.241012
0.253473
0.154504
0.606715
0.292998
1.83695
0.482556
1.30481
0.400343
0.345129
0.241474
1.18979
0.19434
0.472092
0.325944
0.145234
0.245489
0.138565
0.119238
0.125895
2.57834
0.296694
0.23718
0.111083
0.231182
0.336766
0.965091
1.29342
0.720679
0.345521
0.169307
0.327536
0.267449
0.552623
0.219292
0.226647
0.128187
0.211823
0.371212
0.438631
0.857497
0.495248
0.389248
0.167005
0.174748
0.296234
0.262383
0.846782
0.352075
0.455344
0.279916
0.305192
0.257074
0.204156
0.25458
0.249105
0.473947
0.536397
0.410398
0.1154
0.371227
0.261666
0.859714
0.175684
1.0944
0.519582
0.272727
0.247798
0.16281
0.164345
0.260036
1.64282
0.464984
0.225563
0.297771
0.0909627
0.180089
0.310068
0.576006
0.156433
1.13397
0.261097
0.150752
0.32055
0.351055
0.252828
0.188681
0.139734
0.432967
1.07495
0.243155
0.150099
0.143474
0.143614
0.150763
0.124793
0.28845
0.533723
1.14144
0.2197
0.490068
0.249001
0.429281
0.472827
0.314046
0.208027
0.347871
0.152264
0.164245
0.149429
0.970649
0.371997
0.283338
0.054834
0.768543
0.434475
0.175257
0.294243
0.306487
0.422051
0.796541
0.647014
0.948272
0.258854
0.17926
0.24257
0.164136
0.244159
0.298205
0.272344
1.06435
0.127044
0.454832
1.84774
0.656938
1.61329
0.216823
0.237837
1.04277
1.78908
0.153693
0.112738
1.28788
0.344225
0.267457
0.348021
0.770374
0.0699517
0.224822
0.286937
0.23419
0.364169
0.410508
0.292717
0.294357
0.386096
0.204341
0.241507
0.720781
0.322917
0.129046
0.654906
1.06284
2.22545
0.77852
0.349166
0.282716
0.182177
0.305819
0.751785
0.223792
0.962923
0.352033
0.256199
0.1898
0.29903
0.268877
0.218965
0.319662
0.157197
0.434168
0.244499
0.362166
1.11994
0.259467
0.789597
0.302965
0.142729
0.244731
2.55485
0.240706
0.224794
0.641468
0.153652
0.335148
1.21069
0.320184
0.71814
0.363697
0.269153
0.378746
0.258124
0.239677
0.307422
0.952575
0.290215
0.214251
0.205244
0.85547
0.367242
0.128546
0.223626
0.146277
0.122835
0.721133
0.421124
0.158426
0.163508
1.19379
0.278005
0.0728362
0.166591
0.303374
0.240021
0.186586
1.85172
0.126742
0.110687
0.423218
0.250057
0.333639
0.238642
1.21071
0.25986
0.762948
0.0931994
0.884491
0.222338
0.609559
0.22442
0.223092
0.275246
0.337036
0.448725
0.491783
0.440421
0.233734
2.08879
0.628717
0.405418
0.282932
0.260272
0.249367
0.512171
1.01368
2.45625
0.314646
1.82967
0.114087
0.0947887
0.662309
0.871341
0.269536
0.293355
0.490669
0.306115
0.127127
0.257267
0.166084
0.305533
0.341494
0.119124
0.175862
0.141553
0.299714
0.13829
0.309162
0.188038
0.2072
0.197201
0.190792
0.142452
0.142526
0.271713
0.561057
0.199541
0.198737
0.138222
0.960357
0.133649
2.02465
0.150532
0.612086
0.196871
0.736281
0.222006
0.236019
0.606578
0.169197
0.146191
0.570113
1.74445
0.320947
0.386641
0.408014
0.18557
0.243252
0.298481
0.345004
0.149522
0.232358
0.313565
0.418047
0.201493
0.258443
0.701908
0.487617
0.244169
0.164131
0.227401
0.132595
0.216396
0.600532
0.438136
0.167452
0.237163
0.304987
0.330727
0.235451
0.234394
0.15761
1.51624
0.522635
0.252917
0.29461
0.261873
1.76666
0.128529
0.563333
0.660727
0.851202
0.308981
0.25031
0.123827
0.296576
0.166213
0.168282
0.118186
0.366563
0.508908
0.317532
0.266507
0.720864
1.28252
0.823438
0.228711
0.125299
0.177458
0.230656
0.210945
0.397528
0.201936
0.186654
0.215595
0.304503
0.214226
0.112757
0.265155
0.152803
0.132546
0.338596
0.236026
0.215299
0.467954
1.31805
0.220632
0.391671
0.310188
0.300688
0.346312
0.290872
0.188799
0.200027
0.196533
0.315648
0.40103
0.517217
0.229014
0.61674
0.255781
0.294556
0.136481
0.366093
0.211063
0.226436
0.251732
0.222271
0.3853
0.205702
0.223155
0.283226
0.279681
0.243652
0.228352
0.185361
0.182946
1.53601
0.192737
1.04903
0.13792
0.245854
0.487727
0.300504
0.244804
0.285201
0.2976
0.0876163
0.25453
0.24343
0.265452
0.774065
0.221204
0.172439
0.401588
1.80035
0.303556
0.263234
0.300405
0.331585
0.157981
0.274419
0.382193
0.294237
0.290854
0.635193
0.356689
0.486119
3.43711
0.658535
0.366606
0.304448
0.148419
0.515901
0.236887
0.564716
0.255408
0.574959
0.172152
0.374502
0.271133
0.191953
0.520546
0.51726
0.2025
0.21404
1.18142
0.461914
0.296645
1.90261
0.333637
2.61616
0.621231
0.209957
0.145595
0.231486
0.225316
1.09921
0.30239
0.262135
0.519106
0.324285
0.266275
0.081528
0.332213
0.635232
0.38558
2.38413
0.193286
0.265756
0.201285
0.479074
0.251417
0.622622
0.169024
0.38097
0.857146
0.413279
0.258988
0.320334
0.181749
0.24811
0.378248
0.174264
0.222896
0.130943
0.319699
0.226695
0.306336
0.744118
0.227669
1.00496
0.171138
0.274763
0.170603
0.127001
0.197245
0.264577
0.510015
0.319716
0.190365
0.300685
0.205836
0.513373
0.4378
0.338064
0.355681
0.323607
0.271179
0.410443
0.556393
0.48923
0.347571
0.219464
0.0988352
0.173856
1.08252
0.406638
0.244755
0.149415
0.40402
0.576672
0.14182
1.03557
0.268421
0.136306
0.126158
0.672223
2.14587
0.223584
0.257071
0.176775
0.264496
0.128719
0.182886
0.33536
0.224752
0.141898
0.122128
0.245243
0.357959
0.217305
2.17049
1.00955
0.438648
0.219723
2.9048
0.456826
0.285653
0.37915
0.341939
0.141331
0.188686
0.280897
0.209723
0.496572
0.193956
0.399638
0.642251
0.221162
0.0983129
0.513873
0.329262
0.187779
0.28305
0.230487
0.446113
0.866645
0.631836
2.24348
0.134165
0.399315
0.371293
0.697416
0.500466
0.357918
1.55517
0.246212
0.171196
0.124172
1.09194
0.242308
0.199164
0.19244
1.02742
0.122338
1.47267
0.26836
0.134511
0.46411
0.359049
0.1196
0.119592
0.138187
0.741776
0.290706
0.243501
0.20413
0.280075
0.794983
0.489025
0.917418
0.573846
0.348978
0.200234
0.662
0.872596
0.35753
0.156319
0.928032
0.172342
0.345081
0.307612
0.261326
1.1054
0.930873
0.13667
1.1449
0.311684
0.15547
0.233772
0.344714
0.496759
0.658956
0.273008
0.221835
0.865041
0.197293
0.258461
1.17084
0.285475
0.349942
1.16324
0.147807
0.210327
0.166332
0.284321
0.275181
0.287104
0.258727
0.38503
0.432812
0.126432
0.327239
0.360785
0.197421
0.190057
0.199651
0.262294
0.153099
0.811952
0.394318
0.891358
0.14462
0.416709
0.222692
0.196445
1.15945
0.277411
0.460256
0.210747
0.197858
0.177154
0.211686
1.76864
0.854764
0.270948
0.119608
0.415498
0.32555
0.154077
0.118095
0.103582
0.533476
0.256868
0.431421
1.166
0.120601
0.220383
0.237283
0.486171
0.309417
0.277362
0.0820997
0.283896
0.175247
0.314266
0.331032
0.288266
0.487041
0.157429
0.762594
0.365323
0.283816
1.11412
0.143086
0.131159
1.50331
0.282919
0.320814
0.311961
0.442483
0.110271
0.743679
0.450313
0.151268
0.32203
0.363812
0.763524
0.17236
0.243162
0.183449
0.313389
0.286543
0.167316
0.583875
0.269515
0.117885
0.364363
0.767389
0.441452
0.144821
0.263393
1.50011
2.53496
0.295033
0.149767
0.193017
0.230672
0.582145
0.328923
0.826711
0.257556
1.0827
0.431541
0.133212
0.614948
1.31976
0.124077
0.145867
0.721428
0.782165
1.57567
0.161504
0.489175
0.205708
0.206343
0.444678
0.427671
0.394773
0.375234
0.195988
0.394145
0.195485
0.16372
0.407053
0.329356
0.286613
0.319663
0.566937
0.854445
1.23707
0.187906
0.4172
0.25214
0.560906
2.36364
0.386516
0.193681
1.05483
0.496279
0.646423
0.192642
0.209727
0.46988
0.39886
0.301918
0.334533
1.14878
0.179624
0.347558
0.416133
0.113223
0.254881
0.321494
1.24417
0.190538
2.73601
0.335302
0.19313
0.354657
0.996031
0.462852
0.09174
0.255915
0.141216
0.193676
1.13028
0.436241
1.21647
0.580287
0.768238
0.188225
0.390525
0.958271
0.564322
0.178153
0.324152
0.24077
0.174532
0.137255
0.404093
0.193748
0.16227
0.739004
0.252452
0.775754
0.645637
0.178587
0.484344
0.177903
0.319507
0.570967
0.126846
0.232009
0.551419
2.52846
0.104006
0.464419
0.406246
0.147199
0.28197
0.160469
0.202498
0.351207
0.463636
1.15914
0.268218
0.263623
0.494832
0.135307
0.455378
0.201982
0.313875
0.194067
0.166386
0.152362
0.389883
0.328962
0.22851
0.440536
0.188099
0.393661
0.412369
0.151552
0.326917
0.207509
0.715622
0.778083
1.97004
0.349826
0.71877
0.305761
0.288039
0.578593
0.254692
0.453624
0.26812
0.139048
0.241223
0.279761
0.187572
0.137294
0.126883
0.208759
0.263111
0.189403
0.160645
0.165716
0.723496
1.65149
0.234585
0.205613
0.699763
0.361014
0.138367
0.584349
0.192785
0.199724
0.717784
1.24967
0.150013
0.654987
0.291601
0.259797
0.199959
0.167514
0.383485
0.256248
0.185577
0.364137
0.801284
0.225595
0.323709
0.430783
0.192747
0.461034
0.462591
0.166997
0.298439
0.0777049
0.152711
0.319655
0.157169
0.167272
0.0804966
0.0906242
0.155932
0.244934
0.446883
0.250925
0.522755
0.5329
2.96695
0.0826042
0.319376
0.14225
0.246633
0.315015
0.334872
0.505735
0.206845
1.03751
0.258701
0.213532
0.294905
0.384391
0.264377
0.213502
4.81424
0.265805
0.258315
0.300849
0.757702
0.232444
0.363713
0.288171
0.209254
0.181684
0.35041
0.23466
0.183858
0.409526
0.201242
0.245789
0.190483
0.19773
0.131745
0.30593
0.999598
0.467455
0.171057
0.212484
0.163848
0.110804
0.137121
0.132799
0.442516
0.128511
0.57725
0.17343
0.190187
0.21293
0.137091
0.119892
0.197659
0.174854
0.302571
0.167702
0.303938
0.331742
1.21932
0.209125
0.173405
0.330709
0.176588
0.218957
0.284038
0.424149
0.228008
0.580253
0.431221
0.214632
0.159737
1.1279
0.334988
0.31065
0.233272
0.40453
0.151133
0.181338
0.235381
0.153819
0.251025
0.302912
0.230075
0.344039
0.148643
0.119353
0.258819
3.87671
0.411934
1.69983
0.300355
0.166815
0.312007
0.182988
0.219926
0.281484
0.42063
0.175296
0.272801
0.0834411
0.232824
0.493574
1.77856
0.448024
0.293459
1.04901
0.292976
0.713459
0.260859
0.187209
0.382439
0.225356
0.31126
1.29622
0.373961
0.257829
0.810804
0.209727
0.355264
0.110703
0.255251
0.960289
0.174127
0.439158
0.21838
0.801684
0.254999
0.305163
0.195339
0.291881
0.549967
0.114856
0.184443
0.424672
0.153893
0.732803
0.32682
0.332287
1.35686
0.32154
0.21496
0.301519
0.804292
0.387007
0.233912
0.219438
0.173747
3.32353
1.37702
0.248315
0.275393
0.407791
0.927597
0.546121
0.673447
0.379228
2.29986
0.434528
0.270168
0.162972
0.281496
0.240701
0.207265
0.285297
0.393929
0.239644
0.145532
1.67536
0.281362
1.08179
0.296299
0.276739
0.485939
0.151937
0.335374
0.334993
0.508258
0.308083
0.287567
0.290433
0.180495
0.0894406
0.221199
0.292218
0.307077
0.280012
0.23089
0.74629
0.480423
0.237747
0.2993
0.268875
0.225438
0.43568
0.195439
1.35405
0.179819
0.1765
0.846416
0.0802473
0.22675
0.276233
0.506108
0.169897
0.358253
0.2047
0.317384
0.994864
2.49977
0.353264
1.07047
2.26037
0.398921
0.349072
0.128327
0.743602
0.167346
0.173237
0.530806
0.726097
1.99756
0.201836
0.370956
0.227277
0.124621
1.09271
0.260893
0.367776
0.306652
0.33485
0.102496
0.724499
0.365125
0.256602
0.321488
0.265506
0.58556
0.960396
0.250649
0.23482
0.111704
0.220312
1.04902
0.225551
0.204002
0.19429
0.748872
0.112206
0.235724
0.606143
0.629824
0.308867
0.236767
0.2654
0.197194
0.31339
0.208383
0.610495
0.150466
0.446182
3.42182
0.140725
1.73971
0.527773
0.377217
0.195132
0.340293
0.27065
0.189152
0.484089
0.245669
0.827924
0.461438
0.285957
0.797687
0.317512
0.29374
0.387734
0.429049
0.317498
0.245425
0.266959
0.0940522
0.421426
0.486448
0.444235
0.464224
0.333284
0.205542
0.212525
0.269129
0.347003
0.142017
0.1495
0.158477
0.337832
0.652906
0.118891
0.148882
0.107823
0.334639
0.428359
0.260252
0.16432
0.335178
0.904042
0.609467
0.102317
1.49862
0.226725
0.309364
0.629846
0.276407
0.203428
0.379341
0.501347
0.54368
0.412188
0.357891
0.220238
0.15682
0.139733
0.30884
0.247768
0.23847
0.274687
0.373233
0.226738
0.795302
0.178498
0.934727
0.586088
0.227485
2.45394
0.31833
0.431309
0.268227
0.290124
0.184095
0.174497
0.136623
2.22442
0.532178
0.118152
0.332932
0.237845
0.378697
0.235785
0.141152
0.399722
0.711747
0.35158
0.745467
0.624479
0.438991
0.132471
0.598892
0.344458
0.385885
0.291867
0.522482
0.248324
0.294242
1.02883
0.27782
0.207313
0.241131
0.213391
0.275951
0.284349
0.464869
0.191478
0.188694
0.302517
0.274284
0.13954
0.258583
0.173454
0.28841
0.494603
1.04446
0.261792
0.239816
0.23141
0.162135
0.115396
0.262408
0.256236
0.145492
0.134643
0.299975
0.229685
0.0910716
0.422252
0.279868
0.716572
0.169998
0.400056
0.849365
0.193611
0.248274
0.116484
1.49066
0.570382
0.514611
0.16426
0.229038
0.413155
0.43451
0.39847
0.830333
0.423453
0.468491
0.211023
0.158192
1.61355
0.479358
0.3286
0.149614
0.132434
0.141083
0.390412
0.336676
0.472673
0.605636
1.23161
0.46816
0.476388
1.94528
0.438812
0.344819
0.325924
0.539119
0.222237
0.140746
0.240593
0.0904843
0.234443
0.608893
0.190924
0.91908
0.343776
0.356939
0.169205
0.435485
0.387475
0.217031
0.299038
0.256932
0.27173
0.419106
0.113914
0.107611
0.0980105
0.291469
0.327918
0.229059
0.871832
0.345921
0.288755
0.653567
0.452595
0.277616
2.67294
0.186675
0.255381
0.246874
0.117475
0.594638
0.775006
0.280784
2.23588
0.193888
0.676755
1.99858
0.307805
0.476933
0.198578
1.06207
0.718291
0.234623
0.443364
0.172032
0.355246
0.634796
1.64505
0.298091
0.296377
0.327139
0.209634
0.214738
0.312641
0.275579
0.523056
0.126835
0.294411
0.206788
0.352281
1.08366
0.730051
0.294959
0.953283
0.321939
0.130686
0.192766
0.523953
0.229351
0.210201
0.756844
0.18154
0.097453
0.362045
0.415547
0.145719
0.159763
0.282257
1.47176
1.75297
0.248705
0.133936
0.20623
0.365554
3.12789
0.236159
2.25457
0.339184
0.214395
0.2803
0.156425
0.156459
0.928521
0.269783
0.21864
0.980015
0.216367
0.395958
0.444986
0.526974
0.364639
0.841058
0.207736
0.103923
0.165952
0.339314
0.250104
0.2705
0.158707
0.206856
0.234832
0.263728
1.22256
0.131605
1.41261
1.81596
1.14892
0.172027
0.352587
0.499985
1.16375
0.210413
0.131209
0.280648
0.376397
0.424054
0.246223
0.380757
0.240301
0.130998
0.578928
0.326491
0.22976
0.180947
0.245838
0.200176
0.125053
0.162464
0.231658
0.191194
0.426528
0.237166
0.399543
0.307766
0.268445
0.364555
0.308729
0.270144
0.191394
0.121511
0.200263
0.408814
0.208579
0.547653
0.850149
0.191785
0.094409
0.309099
0.61997
0.660461
0.2752
0.995348
1.08561
0.207003
0.386825
0.277478
0.215535
0.218546
0.58806
0.25798
2.0255
0.179392
0.224873
0.186148
0.212745
0.115179
0.371368
0.195497
0.200636
2.05406
0.369893
0.601874
0.375216
0.338039
0.318679
0.240576
0.259887
0.206473
0.23538
0.239324
0.761281
1.44071
0.236439
0.118447
0.417176
0.722935
0.335068
0.179388
0.492167
0.184014
0.809282
1.9639
0.351933
0.311304
0.214336
0.328632
0.297439
0.349809
0.1158
0.159767
1.34544
0.414505
0.26232
0.725053
0.228383
0.966673
0.510142
0.385451
1.13403
0.202894
0.274486
0.224984
0.29832
0.43735
0.265975
0.314663
0.269896
0.246366
0.24029
0.528859
0.502342
0.269358
0.302979
0.367673
0.938288
0.128324
0.259754
1.45801
0.219259
0.408537
0.258654
0.554585
1.54171
0.281211
0.750949
0.170011
1.0936
0.909415
0.0942659
1.20111
0.313575
0.324889
0.137901
0.853683
0.345109
0.436612
0.801282
0.266749
0.160433
0.297636
0.359249
1.25502
0.252727
0.223579
0.621457
0.445052
1.32964
0.404016
0.262479
0.191952
0.142276
0.146815
0.243484
0.251936
0.276847
1.72165
0.966708
0.240172
0.512424
0.229054
0.330568
0.175505
0.410347
1.25931
0.220769
0.308388
0.261043
0.247403
0.233438
2.00593
0.600785
0.351972
0.309551
0.2621
0.341658
0.201273
0.281743
0.245716
0.365739
0.292063
0.641258
0.185457
0.233597
0.264798
0.356949
0.164992
0.274107
0.566214
2.06589
0.0987412
0.382315
0.252523
1.69804
0.368824
0.201285
0.185186
0.221549
1.41657
0.202224
1.29029
0.270141
0.39954
0.200932
0.208693
0.0987115
0.295357
0.194933
1.27628
0.382875
0.302036
0.0862729
0.60384
0.386411
0.0856941
0.306264
0.628408
0.183219
2.56198
0.726149
0.320387
0.17608
1.17837
0.316465
1.07193
0.642415
0.322738
0.134544
0.43982
0.128753
0.198372
0.120474
2.25715
0.121653
0.169448
0.215295
0.347546
2.61118
0.361718
0.164131
0.171813
0.186802
2.59082
0.326055
0.405786
0.230732
2.00505
0.495056
0.880546
0.307315
0.391945
0.269675
1.24736
0.291516
0.194867
0.202762
0.214294
0.180687
0.301718
0.45544
0.209734
0.14108
0.19318
0.256226
0.190088
0.622821
0.182944
0.969021
0.654543
0.418779
0.152139
0.0904371
1.48204
0.415036
2.52947
0.851863
0.176915
0.362144
0.463996
0.353322
0.239169
0.117254
0.306982
0.682545
0.177922
0.218954
0.245088
0.175147
1.7152
0.422529
0.390514
0.490006
0.3063
0.0857177
0.261477
0.141254
0.361296
0.266689
0.35319
0.495033
0.510044
0.258113
0.261397
0.0671662
0.176533
0.17523
0.105346
0.27815
1.24008
0.324132
0.226785
0.59046
0.595655
0.530855
0.19283
0.741535
0.188302
0.209045
0.21872
2.90792
0.271763
0.184371
0.147091
0.148732
0.260347
0.168416
0.277506
0.384557
0.334351
0.114035
0.349296
0.349205
0.259908
1.38841
1.56751
0.391318
0.486908
0.285927
0.261441
0.288095
0.130529
0.43704
0.265102
2.21598
0.303537
0.687293
0.429256
1.65052
0.399593
0.330278
0.237758
0.324151
0.207581
0.131687
0.713504
0.202794
0.197143
1.54005
0.307781
0.168339
0.723576
0.158446
0.206269
0.385363
0.190578
0.195618
0.398297
0.159158
0.102061
0.302467
0.187236
0.216265
0.244161
0.53385
1.04463
0.121526
0.26044
0.148799
0.0910009
0.796591
0.313323
0.482647
0.921221
0.283639
0.184522
0.384171
0.23931
0.21134
0.212637
0.238122
0.358868
0.204363
0.242392
0.292088
0.42799
0.128601
0.158839
0.164255
0.822399
0.335456
0.527857
2.97539
0.146608
0.174707
0.379982
0.210487
0.229673
0.338417
0.951346
0.254217
0.268356
0.183986
0.206605
0.459839
0.328367
0.407063
0.228303
0.357968
0.191066
0.174918
0.275947
0.152266
0.170529
0.195504
0.463453
1.27969
0.287233
0.272755
0.223104
0.208733
0.197506
0.275627
0.152822
1.22474
0.349989
0.15699
0.273221
1.31484
0.842204
0.27719
0.302772
0.366075
0.239076
2.27262
0.492904
0.27814
0.610624
2.19672
0.190118
0.259446
0.16091
0.974071
0.231348
0.284517
0.197952
2.02783
0.103598
0.120528
0.268968
0.150306
0.220389
0.925943
1.37195
0.166761
0.186965
0.28995
0.654237
0.242791
0.914749
0.450244
0.30535
0.718516
0.269209
0.207465
0.132992
0.20194
0.163934
0.288347
0.0927997
0.252638
0.986355
0.120802
0.3555
0.156397
0.471279
0.342817
0.185591
2.35149
0.17838
0.166562
0.438955
0.205809
0.459959
0.1934
0.237883
0.222707
0.438113
0.427587
0.622589
0.569018
2.0793
0.267146
0.596678
1.75205
0.925898
0.086949
0.627032
0.551102
0.310022
0.17262
0.600608
0.288478
0.304027
0.162844
0.0580397
0.313428
0.268373
0.318204
1.25969
0.507897
1.43934
0.18675
0.441077
0.711772
0.250253
0.415809
0.384084
0.327872
0.126766
0.645378
0.300882
0.642984
0.919435
0.0910683
0.420954
0.159387
1.65453
0.563369
0.312517
1.00043
0.31246
0.244461
0.214759
0.111875
0.428114
0.418997
2.08357
0.229907
0.203054
0.218666
0.240893
0.207887
0.16897
0.104375
1.15038
0.211894
0.183237
1.54784
0.274733
0.273176
1.12472
0.110359
0.271981
0.179028
0.269145
0.152977
0.132297
0.631163
0.348313
0.44605
1.51117
0.350602
0.417327
0.373048
0.231129
0.2843
0.324001
0.272611
0.155236
1.80976
0.22349
0.72083
0.197435
0.23519
0.0817165
0.286647
1.56999
0.144723
0.194185
0.228082
0.31619
0.299279
1.7222
0.276456
0.949999
0.547667
1.37388
0.916222
0.106859
0.35217
0.108179
0.416488
0.389904
0.340038
1.67107
0.71279
0.3015
0.18649
0.115546
0.257739
0.296573
0.177067
0.693993
0.414261
0.741713
0.309263
0.50651
0.186628
0.65884
0.604217
1.84151
0.217095
0.219561
0.34801
0.300334
0.518322
0.399893
1.76311
0.294534
3.06556
0.33536
0.716846
0.242657
0.157169
0.358973
0.387522
0.301197
0.373068
0.205692
0.408699
0.621386
0.538825
0.100594
3.07455
0.127368
0.329187
0.533082
0.218833
0.13986
0.401739
0.218536
1.91896
0.374568
0.129706
0.198913
0.376243
2.03575
0.304488
0.366672
0.87896
0.849578
0.531187
0.350474
0.21238
0.201264
0.180645
0.363797
0.205826
0.860221
0.200645
0.202987
0.244581
0.251716
1.29418
0.160343
0.472548
0.216749
0.167312
0.307372
1.04232
0.950632
0.124204
0.555951
0.153805
1.55425
0.250202
0.310664
0.156495
0.212363
0.472547
0.186254
0.2309
0.180117
0.427304
0.293238
1.15822
0.449379
0.0879935
1.31257
0.334491
0.351964
0.176499
0.282655
0.275378
0.795707
1.9636
0.169471
0.157634
0.154815
0.426283
0.323465
0.256347
0.175855
1.46128
0.183521
0.224147
0.874949
0.162518
0.37374
0.0708386
0.376538
0.201053
3.73664
0.262761
0.234673
0.428058
0.509398
0.262149
0.275303
0.229287
0.901011
0.129725
1.81245
0.974578
0.153077
0.441732
0.248515
0.413097
0.239334
0.866147
0.135425
0.24869
0.475221
0.230864
0.109573
0.195529
1.88996
0.0971812
0.242272
0.705874
0.241904
0.21012
0.50716
1.13997
0.433943
0.303298
0.0838899
0.401414
0.353446
0.553584
0.231245
0.337994
0.302892
0.384575
0.188479
1.20881
0.186439
0.327282
0.334259
0.483011
0.523569
1.85402
0.245041
0.302287
0.176491
0.171813
0.222997
0.208073
0.360064
0.913878
0.330737
0.24528
0.317501
0.191642
0.205132
0.200056
0.315579
0.167206
0.1543
0.175134
0.136225
0.561239
0.188226
0.303367
0.820281
0.174891
0.248866
0.313709
0.391407
0.127127
0.550814
0.334885
0.412981
0.318567
0.245823
1.32922
0.239485
0.286809
0.23527
0.372029
0.67326
0.190219
0.399605
0.246447
0.172565
0.38541
0.187786
0.200119
0.290441
0.156592
0.221591
0.42909
0.0924524
0.161304
0.917017
0.300731
0.39023
0.208868
0.312061
0.306228
0.327395
0.147755
0.144554
0.286097
0.244333
0.186899
0.776961
0.407344
0.199911
0.777369
1.85511
0.905317
0.163672
0.162215
0.195288
0.303552
0.530482
0.335415
2.87161
0.234829
0.230602
0.477879
1.03993
0.269223
0.168199
1.75891
0.29384
0.175023
0.461881
0.449813
0.11521
0.244947
0.139249
1.13801
0.304135
1.28094
0.309789
0.25397
0.264775
0.227188
0.903482
0.17286
0.591402
0.253788
0.154291
0.201633
0.322941
0.201715
0.53687
0.19466
0.138256
0.243224
0.317917
0.789214
0.129609
1.75368
0.220646
2.22113
0.242059
0.182085
0.194294
0.199356
0.620706
0.226896
0.27259
0.391901
0.155532
0.455187
0.237149
0.0954394
1.23144
0.202436
0.205732
0.207928
0.190272
0.170826
0.263965
0.235064
0.196413
0.249295
0.962572
0.118728
0.284595
1.17919
0.220779
0.187619
0.537961
0.362557
0.208013
0.335167
0.156462
0.391405
0.146759
0.507698
0.185626
0.539028
0.292046
1.30217
0.31213
0.43767
0.493537
0.234617
0.27478
0.832869
0.189287
0.239064
0.201124
0.282038
0.155111
0.312976
0.568603
0.167484
0.306135
0.267419
0.472154
1.20109
0.217872
0.201887
0.153983
0.404149
0.178259
0.274853
0.387993
0.254005
0.35624
0.271085
0.485886
1.60979
0.150818
0.185751
0.170049
1.13916
0.124767
0.765456
0.707466
0.483612
0.265103
0.735329
0.205957
0.160504
0.254746
0.330933
0.191656
0.303541
0.474013
0.316931
0.205927
0.893444
0.234285
0.30433
0.174765
0.300295
0.260544
0.375549
0.251927
0.352903
0.267885
0.311214
1.98512
0.204932
0.618633
0.309765
0.30996
0.129538
0.243175
0.303507
0.589905
0.321831
0.166875
0.223386
0.287077
0.456217
0.225941
1.15696
0.299104
0.402695
0.175552
0.777283
1.1693
0.318217
0.144741
0.349207
0.314335
0.359193
0.490394
0.142252
0.250197
0.216105
0.20977
0.407391
0.557231
0.619037
1.13879
0.242729
0.26555
0.289039
0.263111
0.886273
0.192145
0.166857
0.11595
0.246163
0.444108
0.581458
0.255357
0.415466
1.4817
0.315213
0.693749
0.183269
0.400837
0.220603
0.324289
0.195989
0.327939
0.208066
0.977641
0.157545
0.210073
0.49067
0.151035
0.272827
0.55727
0.32047
0.478389
0.242323
0.159065
0.226325
0.98252
0.207512
0.190904
0.123052
0.273356
0.237609
0.124242
0.191614
0.28524
1.24957
0.168352
2.72696
0.30225
0.263479
0.34719
3.16651
0.157353
0.408192
0.38701
0.178201
0.203671
0.185016
0.15735
0.202637
0.253235
1.15869
0.263699
0.261817
1.20731
0.18087
0.658926
0.118314
0.984882
0.423842
0.397003
0.629832
0.192011
0.548661
0.386234
0.41548
0.162833
0.254642
0.173187
0.212866
0.468301
0.334448
0.386724
0.557184
0.320461
0.193999
0.339655
0.429744
1.14831
0.118778
0.161644
0.282676
1.38934
0.169677
0.173389
0.541958
0.304517
2.55895
0.214962
0.725966
0.24665
0.731729
0.225346
0.12078
0.227303
0.220819
0.283511
0.644024
0.147058
0.198197
1.20004
0.265411
0.513412
1.80926
0.222088
1.49124
0.188284
0.186458
0.202347
0.237962
2.22323
0.193493
0.228757
0.270624
0.234155
1.17605
0.656323
0.225892
0.289865
0.264444
0.190817
0.934692
0.823374
0.623923
0.0883479
0.237381
0.229568
0.204338
0.227293
0.17885
0.195978
0.198859
0.163705
0.113781
0.153737
0.270092
0.215231
0.123941
0.129266
0.364621
0.0947992
1.91216
0.21793
1.6574
0.418106
0.26274
0.217064
0.491716
0.176245
0.257892
0.28057
0.13181
0.500253
0.151682
0.319114
0.227101
0.983453
0.426108
0.290268
0.308882
0.342286
0.385246
0.660197
0.657352
0.282777
0.166196
0.335006
0.37163
0.122814
1.44523
2.69674
0.338326
0.202923
0.233034
0.263804
0.379446
0.160643
0.635996
0.205859
0.41723
1.07174
0.217868
0.267748
0.143007
0.398662
0.149077
0.303648
0.476785
0.583145
0.187172
2.37452
0.797193
0.270471
0.243715
0.24247
1.0808
0.463068
0.486708
0.443586
0.277664
0.476555
0.154157
0.378858
0.112931
0.3517
0.215763
0.183921
2.14737
0.155904
0.279199
0.0879696
2.06854
1.00818
0.146316
0.345347
0.346335
1.01656
0.633897
0.163302
0.29714
0.629356
0.214871
0.201113
0.371271
0.430806
0.209734
0.2976
0.234289
0.20318
0.417196
0.271797
0.181705
0.130959
0.151422
0.114693
0.455325
0.426547
0.257871
1.21654
0.162238
0.138775
0.432782
0.367494
0.790025
0.61489
0.648052
0.170418
0.254294
0.244872
0.52808
0.14487
0.329581
0.473676
1.49423
0.20068
0.691791
0.176527
0.100241
0.21691
0.201284
0.424144
0.336959
0.184977
0.442931
0.351727
0.376481
0.240559
0.305284
0.349004
0.189067
0.20416
2.12591
0.263093
0.253214
0.389652
0.312571
0.272959
0.188565
0.309397
0.696597
0.217439
0.212033
0.25148
0.27899
0.23069
0.286371
0.295203
0.320147
0.239897
0.220925
0.351878
0.157223
0.291535
0.23766
0.3452
0.220814
0.513846
1.45514
1.11062
0.167085
0.748791
0.156195
0.395451
0.449751
0.127105
0.31541
0.364683
1.50935
0.676956
0.271106
0.276606
0.191409
0.316062
0.221531
0.648107
1.36935
0.298858
0.299514
0.25583
0.237699
0.168412
0.184691
0.362271
0.315261
0.291924
0.526699
0.156632
0.413246
2.02394
0.989304
0.150874
0.287623
0.15244
0.515058
0.847595
0.243911
0.194374
0.285688
0.330601
0.193673
0.0882833
0.217414
0.608455
2.00425
0.405327
0.975927
0.320949
0.207609
0.198024
0.369545
1.42935
0.245665
0.131926
0.124735
0.353808
1.69435
0.302563
0.178059
0.226127
0.81703
1.48937
0.225386
0.340523
0.355711
0.170675
0.233053
0.57709
0.199826
0.370963
0.561283
0.218406
0.142718
1.00171
0.429125
0.247125
0.157758
0.476975
0.187668
0.205084
0.204338
0.386701
0.534512
0.412041
0.219303
0.11794
0.23841
0.138041
0.351603
0.149809
0.967767
1.34815
0.530176
0.103603
0.140328
0.780195
0.221353
0.208661
0.632864
0.184609
0.994781
0.410934
0.22829
0.664199
0.226387
0.286055
0.158703
0.493076
0.157434
0.270777
0.203772
0.978368
0.624399
0.306956
0.380152
0.190222
0.24014
0.281055
0.198189
0.291066
0.785991
0.230201
0.294979
0.329802
0.82761
1.68062
0.184617
0.383132
0.29335
0.840332
1.00484
0.148773
0.770936
0.6161
0.250635
1.5369
0.217008
0.189277
0.57702
0.367457
0.155455
1.61277
0.139625
0.123997
0.131121
0.242522
0.386338
1.10804
0.224504
0.333443
0.286304
0.22443
0.260001
0.890816
0.287558
1.00202
2.27798
0.188086
0.385222
0.322655
0.278542
0.820197
0.436267
0.217638
0.308662
0.174583
0.19704
0.301888
0.170746
0.301556
0.50532
0.309692
0.36376
0.278635
0.192694
0.365292
0.508343
0.198856
0.274786
0.349887
0.32166
0.163936
0.242508
0.0852472
0.259024
0.214623
0.198492
0.166622
0.355738
0.256222
0.165355
0.358678
0.417208
0.353248
0.203289
0.148237
0.231729
0.150682
1.78536
0.232695
0.143559
0.205121
1.98429
0.204616
0.255468
1.64011
1.65263
0.200907
0.200697
0.46528
0.178872
0.347772
0.195451
0.174087
0.190135
0.191821
0.198661
0.490501
0.283841
0.285204
0.133754
0.256224
0.292512
0.214574
0.190066
0.156459
0.120622
0.163234
0.258708
0.318349
0.198603
0.265006
0.203533
0.656946
0.134317
0.108274
0.461369
0.357591
0.18034
0.407508
0.515447
0.205285
0.141782
0.733071
0.284465
0.698945
0.248992
0.254193
0.119773
0.319724
0.289719
0.740499
0.387897
0.252809
0.183156
0.333291
1.01372
0.235526
0.36929
0.37368
0.448483
0.101897
0.544766
1.2062
0.259141
1.33752
0.436262
0.15855
0.771212
0.0910443
0.290296
0.143916
0.211816
0.410596
0.165392
0.549133
0.247117
0.251797
1.73064
0.426203
0.136816
0.246471
1.66592
2.14229
0.205933
1.22767
0.325155
0.25503
0.271549
0.324345
0.17095
0.0955611
0.782816
0.547555
0.233687
0.896673
1.09222
0.482057
0.776703
0.317723
0.850656
0.25404
0.272766
1.19825
0.722088
0.820615
0.23341
0.25842
0.328199
0.230577
0.265678
0.254843
0.300441
2.38289
0.228182
0.156433
0.329399
0.319534
0.561402
0.207376
0.432511
0.364835
0.155386
0.223151
0.284135
0.352499
0.21184
0.435651
0.187968
0.210142
1.29053
0.111156
0.390099
0.343389
0.266534
0.628405
0.464841
0.455697
0.0661928
0.382665
0.295158
0.150634
0.308289
0.164717
0.355629
0.409092
0.902521
0.28454
0.544491
0.30409
0.490332
0.187188
0.19451
0.814805
0.581016
0.284003
0.164604
0.214957
0.758872
0.167221
0.242289
0.352168
0.655678
0.607563
0.226275
0.312414
0.212966
0.243195
0.153301
2.50671
0.434625
0.713712
0.254391
0.269444
0.274172
0.253785
1.05672
0.3292
0.684119
0.430051
0.191887
0.799817
0.139021
0.502015
1.07928
0.702984
0.270761
0.38362
0.18475
0.212137
0.17764
0.183616
0.238139
0.175713
0.220432
0.295851
0.176428
0.219514
0.234785
0.460563
0.227627
0.459253
0.211438
0.202288
0.739478
0.345002
0.499342
0.424979
0.643508
0.274438
0.273665
0.651619
1.80306
0.264216
1.14289
0.220058
0.312475
0.400079
0.139872
0.184822
0.381382
0.231706
0.248509
0.226064
0.253675
0.152883
0.175881
0.752264
0.29392
0.179526
0.244464
0.157893
1.62613
0.159782
0.292606
0.393699
0.385181
0.109661
0.447999
0.206971
1.26788
0.307132
0.505906
0.537363
1.19403
0.695826
0.2845
0.448012
0.137922
0.237045
0.256696
0.165549
0.543308
2.11457
1.25606
0.287065
0.353092
0.155091
1.23657
0.0719125
1.78942
0.711027
0.29703
0.272702
0.48148
0.12022
2.00674
0.0936808
0.217217
1.1006
0.106863
0.22802
0.33177
0.121316
0.204965
0.239231
0.522359
0.260161
0.381333
0.219764
0.334585
0.243525
0.121552
0.512217
0.145732
0.218328
0.150529
0.251079
0.275803
0.359961
0.160102
2.57173
0.189313
0.302844
0.232232
0.779037
0.205717
0.209709
0.59246
0.254773
0.217056
1.63015
0.218108
1.59856
0.173062
0.185298
0.885634
0.246138
0.82497
0.243258
0.143098
0.317518
0.205288
0.214812
0.782888
0.204036
0.917342
0.38835
0.151956
0.308401
0.701362
0.274744
0.251939
1.03535
0.257409
0.393892
0.268333
0.311121
0.0871676
0.259036
0.579461
0.397466
0.894797
0.413749
0.364055
0.0826089
0.346313
0.229174
0.178995
0.154938
0.193964
0.439534
0.181687
0.207715
0.184391
0.890098
0.19339
0.480913
0.313597
0.441516
1.24591
0.302753
0.19101
0.16595
0.395295
0.226699
0.0958196
0.134262
0.6448
0.744856
0.53062
0.270252
0.186162
2.41393
0.427674
0.28056
0.613128
0.270645
0.649479
0.136298
0.189684
0.231417
0.198526
0.987325
0.150811
1.69116
0.276858
0.163897
0.12731
0.289274
0.200975
0.188986
1.11282
0.191208
0.126666
0.434051
0.315483
0.227755
0.15446
0.308962
0.246532
0.533801
0.283314
0.230069
0.434262
0.102642
0.321347
0.254325
0.293474
0.281167
0.362827
0.290295
1.48219
0.193382
0.267556
0.472063
0.374748
0.236169
1.37766
0.323355
0.29335
0.22438
0.191014
0.207067
0.117413
0.952344
0.389214
0.78488
1.13812
0.135626
0.113752
0.229516
0.375175
0.199994
0.222927
0.209221
0.240855
0.183311
0.252796
1.71216
0.154677
0.140843
0.296218
0.299895
0.30482
0.184746
0.328515
0.323616
0.897404
0.151219
0.160198
0.169561
1.55233
0.651611
0.397315
0.233417
0.305384
0.150026
0.244304
0.21464
0.234903
0.212006
0.313381
0.174467
0.148081
0.299256
0.222602
1.38322
0.488459
0.13963
0.510159
0.31737
0.159967
0.267362
0.217171
0.751392
1.18936
0.283646
0.118489
0.129344
0.625074
0.554546
0.132295
0.310888
0.227871
0.834001
0.168258
0.289109
0.523854
0.656794
0.492606
0.250079
0.410381
2.78027
0.259907
0.540237
0.581609
0.253208
0.140622
0.178856
0.293103
0.216073
0.10501
0.310164
0.538252
0.3079
0.206002
0.197708
0.380959
0.231786
0.371827
0.209421
1.64294
0.170799
0.32837
0.21397
0.184524
0.169014
0.188554
0.380846
0.607777
0.414718
0.247058
0.142473
0.220524
0.248985
0.128902
0.229073
0.444259
0.155227
0.383142
0.293341
0.339888
0.230845
0.193747
0.182485
0.208678
0.28353
0.273637
0.476061
0.0951943
0.126299
0.587845
0.248919
0.199908
0.233957
0.247835
0.226945
0.167269
0.064243
0.224997
1.43146
0.314574
0.13926
0.201098
1.14262
2.5499
0.532453
0.221805
0.183214
0.242338
0.395268
0.264227
0.41972
0.226264
0.12749
0.324106
0.439865
0.198776
0.183124
0.228487
0.181816
0.352952
0.417375
0.725337
0.215926
0.391945
0.451143
0.211258
0.135303
0.276712
0.237937
1.08692
0.374772
0.905198
1.19756
0.637931
0.381245
0.205252
0.410136
0.513045
0.104736
0.282998
0.755579
0.115265
0.212236
0.193355
0.874294
0.18319
0.25792
1.0186
0.137229
0.225893
0.240045
0.134621
0.235727
1.39916
0.685644
0.657787
0.981812
0.707495
0.184006
0.145001
0.549838
1.92295
1.695
1.84625
0.379916
0.591778
0.289512
0.313121
0.203745
0.372023
0.15958
0.231261
1.10689
0.264998
0.52201
1.70586
0.282324
0.690897
0.525586
0.262913
0.160293
0.492841
0.336798
0.313682
0.141451
0.277079
0.398116
0.282562
0.173675
0.272391
0.177136
0.976455
0.206889
0.608664
0.234722
0.307185
0.974442
0.87479
0.198676
2.24928
0.279444
0.270426
0.678106
0.132031
0.245708
0.340114
0.188492
0.481356
1.11886
0.165914
0.237353
0.133425
0.310677
0.302231
0.181369
0.467652
0.207484
0.432424
0.108772
0.211897
0.326806
1.23112
0.0922911
0.224816
0.201769
0.369566
0.158699
0.238719
0.255711
0.215229
0.535913
0.156277
0.533172
0.230316
0.193618
0.285749
0.1902
0.377861
0.308864
0.638229
0.751187
0.234815
0.172323
0.190939
0.600075
0.265183
0.892291
0.222343
0.272285
1.3138
0.0982495
0.688243
1.69785
0.22749
0.361693
0.543458
0.121926
0.239471
0.207843
0.199314
0.295901
0.419047
0.189355
0.276454
0.521441
0.256242
0.139238
0.669458
0.336031
0.207393
0.22101
0.213827
0.371527
0.238846
0.145406
0.471044
0.290112
0.132528
0.359287
0.893894
0.274237
0.395301
0.303953
0.271005
0.415811
1.96236
0.169578
0.407627
0.250981
0.480216
0.285526
0.351894
0.552275
0.292694
0.23237
0.306756
0.16866
0.22353
0.267658
1.4973
0.754317
0.200076
0.189183
0.475869
1.46478
0.185503
0.583291
0.150298
0.135603
0.296986
0.385845
0.287131
0.292886
0.336255
0.138859
0.0998901
0.152782
0.78922
0.193216
0.184805
0.411988
0.414058
1.27756
0.182518
1.25746
0.199717
0.239698
0.402492
0.353976
0.33125
0.220125
0.583912
0.21221
0.264741
0.320352
0.380299
0.442236
0.139069
0.0956783
0.262642
0.212209
0.348484
0.3002
0.394626
0.276466
0.228813
0.188852
0.5069
0.14649
0.462735
0.179498
0.14696
0.165397
0.480361
0.215672
0.839152
0.200992
0.157086
2.86084
0.174506
0.406036
0.163484
0.389806
0.25955
0.21995
0.105861
0.30699
0.276175
0.326859
0.369732
0.252251
0.191173
1.01007
1.65303
0.476362
0.166372
0.107065
0.112261
0.224498
1.1987
0.874916
0.342387
0.47556
0.339773
0.22084
0.767201
0.7022
0.250334
0.363952
0.735907
0.583519
0.330205
0.426621
0.244865
0.303179
0.143808
0.39789
0.211814
0.31086
0.517684
0.100333
0.191948
0.15424
0.325999
0.204639
0.138135
0.293232
1.50973
0.298901
0.202399
0.226353
1.04369
0.193247
0.239747
1.35752
0.188235
0.671142
0.614159
1.10439
0.257608
0.183603
0.124004
0.180728
0.270512
0.703151
0.214259
0.217209
0.518484
0.218782
0.268109
0.385031
0.2585
0.792766
0.295523
0.212717
0.228216
0.17145
0.250784
1.1719
0.18408
0.131999
0.347229
0.379496
0.298915
1.76304
0.216931
0.122749
0.375838
1.18052
1.91158
0.270237
0.39076
0.876534
0.130674
0.395721
0.342327
0.121327
0.251904
0.273817
0.494822
0.195097
0.316805
0.144082
0.266593
0.516964
0.187435
0.344029
0.284853
0.0688391
0.21109
0.69175
2.08748
0.944235
0.173731
0.18077
0.343551
2.24059
0.211893
0.279278
0.299836
0.194619
0.24648
0.178247
0.253349
0.232661
0.313478
0.169492
0.172008
1.44983
1.08507
0.619618
0.423616
0.345424
0.21855
0.898474
0.136623
0.211509
0.37526
0.133813
0.877197
0.128552
0.348988
0.167208
0.32086
0.174197
0.232536
0.158617
0.0952943
0.180188
0.226456
0.239875
0.23247
0.153583
0.221285
0.2399
0.26947
0.296799
0.559134
0.30413
0.333285
0.371298
1.60945
0.173059
0.375082
0.276475
0.577366
2.0245
0.194184
0.85343
0.282878
0.205972
0.176433
0.9885
0.121161
0.232985
0.82533
0.280839
0.135507
0.259992
0.444833
0.218928
0.239415
0.300544
0.211123
1.16977
0.237897
0.242515
0.294562
0.217007
0.348918
0.285667
0.199493
0.256367
0.748384
0.244015
0.184554
0.639487
0.446883
0.396543
0.280216
0.199927
0.963945
0.174784
0.236739
0.186835
0.601435
0.154157
0.170662
0.277476
0.135765
0.211503
1.00608
0.299984
1.76149
0.214375
0.211959
0.2251
0.242135
0.752931
0.789427
0.372293
1.19131
1.14162
0.202015
0.140008
0.359783
0.426812
0.291172
0.900026
0.287022
0.200707
1.14082
0.177072
0.234766
0.151229
0.187925
0.295216
0.164001
0.701931
0.292177
0.261977
0.272421
0.177203
0.117817
0.162952
0.894675
0.279655
0.359765
0.214319
0.479866
0.333077
0.165179
0.532456
0.208084
1.83051
0.2355
0.826665
1.15423
1.24252
0.493307
1.19239
0.130906
0.325023
0.829586
0.286473
0.281464
0.180934
0.567424
0.11657
0.186943
0.23527
0.223065
0.144843
0.367264
0.183947
0.278421
0.236281
0.184008
0.303448
1.08729
0.431831
0.292032
0.243318
0.43726
0.918704
0.279673
0.614518
0.400025
0.201683
1.18329
0.252039
0.592679
0.260384
0.165696
0.284131
0.185728
0.256979
0.695581
0.201706
2.63928
0.225698
0.355502
0.248277
0.273014
0.680788
0.267262
0.416466
0.270551
0.30369
0.13446
1.61213
1.78887
0.17054
0.321446
0.288661
0.630992
0.35116
0.225668
0.490782
0.683201
0.240588
0.514629
0.733953
0.151961
0.149688
0.206689
0.340182
0.132611
1.30293
0.169103
0.359018
0.310052
0.394179
0.376414
0.381991
0.169973
0.182019
0.418854
1.81998
0.235152
0.241292
0.446955
0.163407
0.263722
1.45854
0.25627
0.350821
0.29802
0.360161
1.99668
0.199286
0.26481
0.644049
0.286079
0.222698
0.303934
0.361601
0.304465
0.371693
0.261974
0.15675
0.349048
1.27552
0.288704
0.30407
0.172631
0.717069
1.59796
1.23356
0.306926
0.406845
0.275952
0.313767
0.235998
0.123032
0.306767
1.64249
0.188895
1.26281
0.233961
0.742971
0.252686
0.328276
1.23288
0.181448
0.23193
0.604974
0.416846
1.30733
0.281332
0.886794
0.157225
0.559036
0.63482
0.18196
0.268941
0.259993
0.153395
0.906093
0.246261
0.309397
0.210864
0.120086
0.306591
0.289365
0.296672
0.494441
0.390357
0.273268
0.264683
0.134116
0.242595
0.291208
0.375653
0.175378
0.328078
0.259101
0.345398
0.361097
0.474744
0.225031
0.363179
0.186803
0.297581
0.255124
0.199025
0.251097
0.185734
0.1736
0.84363
0.246552
0.39574
0.386499
0.211025
0.253042
0.103177
0.283292
0.163201
0.12477
2.30744
0.88527
0.142229
0.31814
0.28234
0.306729
0.325538
0.402767
0.375032
0.923095
0.573566
0.831228
0.148901
0.248373
0.258882
0.167715
0.171323
0.230685
0.288249
0.628659
0.445993
0.428434
0.546369
0.386978
0.552198
0.242858
0.219914
0.237983
1.3995
1.67334
1.24863
0.190386
0.234899
0.34039
0.1756
0.717383
0.548653
0.291139
0.340234
0.762243
0.315534
0.122195
0.109317
0.248738
0.397802
0.176667
0.434015
0.363429
0.147998
0.176976
0.319121
0.515058
0.794155
0.434263
0.227958
0.204072
0.616355
0.218335
0.15991
0.227558
0.206748
0.334406
0.242324
0.239346
0.837468
0.576989
0.108743
0.565606
0.588473
0.361272
0.125505
0.14236
0.32239
0.186151
0.189261
0.238879
0.255418
0.348668
0.272536
0.988484
0.0746876
0.313359
1.22019
0.209122
0.311947
0.229454
0.336918
0.228315
0.258906
0.17375
0.158111
0.406024
0.327507
0.377292
0.278412
0.220414
0.202049
0.30572
0.393726
0.377326
2.45169
0.629104
0.113717
0.435139
0.343224
2.15007
0.272041
0.244736
1.04427
1.40742
1.13926
1.1049
0.740284
0.162994
0.396373
1.4044
0.411599
0.849141
0.188175
0.247703
1.37991
0.498453
0.228412
1.87951
0.536857
0.180541
0.141463
0.250302
0.282801
1.79592
1.20705
1.95397
0.453171
0.130642
0.11174
0.325815
0.186288
0.677879
0.319978
0.307244
0.16758
0.206793
0.459882
0.454198
0.384151
0.28278
0.143757
0.346906
0.24585
3.63487
0.22069
0.249012
0.27402
0.328573
0.844869
0.149645
0.205746
0.158848
0.298203
0.169143
0.295412
0.374869
0.36763
0.535066
0.211433
0.139593
1.10957
0.269928
0.385739
0.133074
0.21934
0.278619
0.374156
0.671596
0.256713
1.42694
0.140548
0.128035
0.154911
1.01323
0.165953
0.436742
0.444949
0.13734
0.822132
0.357842
0.238027
0.334817
0.365437
0.369214
0.190553
0.156226
0.356987
0.280992
0.309089
0.183018
0.303168
0.273005
0.206483
0.680611
1.0993
0.279567
0.409826
0.163353
0.422316
0.218142
0.224224
0.253694
0.98462
0.209226
0.554822
1.17094
0.371274
0.258747
0.322642
0.34418
0.65831
0.158727
0.206319
0.167478
0.282024
1.58394
0.343371
0.241436
0.38644
0.321164
0.393179
0.180121
1.96278
0.663399
0.429057
0.412995
1.5675
1.49075
0.16336
0.436077
0.144111
0.352625
0.227224
0.336545
1.28539
0.258445
0.497021
0.249811
0.35394
0.209575
0.262376
0.138888
0.302584
0.33254
0.234496
0.274479
0.554363
0.379797
0.276406
0.244931
0.1365
0.171176
0.289083
0.270842
0.11972
0.181165
0.151333
0.159314
0.311226
1.72066
1.25812
0.638447
1.63349
0.673153
0.308984
0.281422
0.215413
0.201868
0.256913
0.328021
0.347357
0.21099
1.04678
0.27355
0.18871
0.162766
0.633858
0.425118
0.407458
0.160862
0.152471
0.150395
0.283566
0.345676
0.282712
0.3039
0.333292
0.502259
0.458821
1.87622
0.600205
0.209317
0.149667
0.203072
0.200253
0.246836
1.16247
0.234144
0.381316
0.250192
0.158793
0.230199
0.178108
0.231497
0.449154
0.21447
0.131096
0.219277
0.680841
2.43335
0.683345
0.220392
0.288358
0.348952
0.153442
0.222567
0.496188
0.358331
0.897729
0.316773
0.363918
0.213523
0.105579
0.335282
0.142475
0.24347
0.205099
0.186996
0.242302
0.248676
0.420895
0.46623
0.286341
0.261167
0.276548
0.153283
0.777351
0.189903
0.220744
0.665409
0.310988
0.473018
0.432263
0.134908
0.254718
1.54135
0.359557
0.494879
0.106373
0.148527
0.175631
0.24155
0.119523
0.745452
0.190256
0.106114
0.221339
0.150317
0.391173
0.231561
0.523623
0.128376
0.933314
0.213118
0.51575
0.239416
0.209563
0.146576
0.343987
0.2858
0.277477
0.581292
0.354223
0.288989
0.217754
0.312937
0.470404
0.64289
0.532183
0.121998
0.376984
0.335186
0.237911
0.446941
0.2265
0.288108
0.486033
0.176122
1.05696
0.265466
0.294133
0.235437
0.178997
0.177423
0.995102
0.204178
0.199087
0.337506
0.236599
0.382569
0.248588
1.31164
0.240128
0.307806
0.171346
0.136173
0.111304
0.264509
0.542104
0.156491
0.319949
0.637867
0.167306
0.357857
0.826825
0.110957
0.404599
0.398422
0.192425
0.103512
0.875661
1.36844
0.142884
0.350406
0.905821
0.12254
1.96792
0.237539
1.87834
2.49399
0.895659
0.201872
0.222254
0.235204
0.238641
0.1412
0.225697
0.387422
0.126417
0.412539
0.356184
0.26551
0.308071
0.982024
0.259335
0.226804
0.44748
0.25769
0.30735
0.185785
0.2022
0.159058
0.721445
0.171867
0.743818
0.189291
0.476394
0.318524
0.249301
0.361083
0.295769
2.33353
0.227129
0.282043
1.06814
0.156817
0.245941
0.0681459
0.185899
0.198593
0.357807
0.190578
0.231814
0.16812
0.279466
0.279199
0.152133
0.153445
0.145219
0.37422
0.137747
0.162287
0.21652
0.336696
0.175222
0.211476
0.187192
0.523611
0.224308
0.418709
0.21929
0.23501
0.217146
0.316349
0.280081
0.47349
0.22413
0.288897
0.3436
0.273552
0.712632
0.321599
1.88173
0.331449
0.809532
0.566362
0.58499
0.984444
0.152849
0.248905
1.37709
0.261986
0.280069
0.231232
0.211824
1.36244
0.930858
0.264955
0.299601
0.205382
0.344345
0.128634
0.140812
1.40843
0.301873
0.346325
0.345219
0.414363
0.397421
0.453239
0.344679
0.40607
0.79861
0.64874
0.262707
0.196038
0.259594
0.305943
0.374019
0.148388
0.814358
0.209013
0.186116
0.157758
0.133549
0.895115
0.159424
0.191152
1.17034
0.316917
1.42703
0.16933
0.13001
0.221097
0.32972
0.197744
0.104736
0.253358
0.905959
0.231747
0.620937
0.398461
0.280572
0.28787
1.10071
0.270575
0.274765
0.667695
0.260209
0.463602
0.407776
0.167124
0.236279
0.297387
0.306073
0.276646
0.275274
0.188947
0.297089
0.157666
0.202355
0.164194
0.740978
0.389541
0.230263
0.844145
0.137405
0.96146
1.1046
0.342124
0.187065
0.949511
0.57085
0.169199
0.369067
1.33882
0.207073
0.539465
0.275676
0.276989
0.570589
0.156712
0.62708
0.140812
0.356745
0.582188
0.30353
0.207957
0.487993
0.225861
0.153664
0.202041
0.169022
0.883523
2.81891
0.790708
0.156586
0.215597
0.293311
0.236407
0.25525
0.141632
0.156185
0.578954
0.131501
0.264269
0.158773
0.408335
0.772468
0.172422
0.548381
0.291821
0.156749
0.82379
1.95703
0.138629
0.146758
1.12212
0.473932
0.190726
0.259115
0.702517
0.413608
0.169075
0.15204
