0.201278
0.918178
0.254706
0.178182
0.343066
0.524135
0.366327
0.171232
0.476887
0.161449
0.131309
0.398644
0.178611
0.254722
0.231209
0.398641
0.336011
0.225581
0.569802
0.342547
0.474523
0.261664
0.336094
0.213686
0.256116
0.220039
0.221739
0.300247
0.301119
0.434954
0.25131
0.298937
0.335685
0.38761
0.302767
0.717475
0.473518
0.16705
0.399139
0.397949
0.206424
0.43166
0.203118
0.148317
0.219529
0.195841
0.198746
0.329364
0.287155
0.429764
0.205903
0.454836
0.154634
0.329496
0.178406
0.264673
0.339165
0.295077
0.273366
0.287463
0.516192
1.80906
0.121902
0.300034
0.39431
0.362646
0.299631
0.393322
0.217986
0.150148
0.107732
0.346286
0.614703
0.509189
0.44997
0.210088
0.153552
0.390794
0.338663
0.114526
0.342267
0.236431
0.320131
0.112432
0.226396
0.338594
0.425553
0.225609
0.342377
0.27491
0.175711
0.250237
6.94342
0.148128
0.30967
0.21882
0.196564
0.197117
0.30511
0.333489
0.169653
0.441874
0.252841
0.278172
0.304552
31.261
0.330814
0.279132
0.253056
0.254988
0.224511
0.417774
0.243928
0.343064
0.197678
0.169095
3.99164
0.446093
0.222202
0.156128
0.386401
0.362975
0.465147
0.193271
0.423025
0.164586
0.335545
0.288571
0.296631
0.136857
0.385615
0.282248
0.210154
0.362712
0.175552
0.207513
0.277863
0.339235
0.28509
0.171251
13.2769
0.341874
0.250642
0.276326
0.253513
3.5641
0.263938
0.258565
0.342791
0.233023
0.489767
0.393143
0.258924
0.302952
0.160495
0.282669
0.135832
0.250602
0.25748
0.220796
0.250568
0.264988
0.226136
0.111903
0.223168
0.248396
0.19861
0.353562
0.279308
0.333428
0.539897
0.226872
0.423275
0.18019
0.149259
0.29113
0.356061
0.237121
0.360172
0.317705
0.485822
0.261291
0.246856
0.155969
0.197637
0.358607
0.140225
0.314351
0.324031
0.216437
0.583511
0.186231
0.175224
0.3385
0.334006
0.16492
0.173003
0.25689
0.158099
0.338755
6.40663
0.412751
0.228583
0.458289
0.197938
0.218042
0.378721
0.247256
0.148516
0.26564
0.186462
0.227873
0.469432
0.416799
0.437862
0.639693
0.472879
0.274168
0.238769
0.24302
0.183533
0.162993
0.221504
0.238498
0.109378
0.173996
0.331552
0.26502
0.371787
0.303108
0.313301
0.255654
0.218967
0.574297
0.29905
0.479197
0.501357
0.139429
0.344576
0.165697
0.498396
5.08505
0.138805
0.159358
0.364316
0.250936
0.270833
0.223872
0.321717
0.14101
0.185551
0.260277
0.361638
0.22606
0.241312
0.322608
0.34636
0.299307
0.315464
0.252454
0.163529
0.701401
0.320489
0.265794
0.388018
0.123897
2.12434
0.240252
0.267557
0.127887
0.395146
0.422316
0.317903
0.218785
0.257361
0.66517
0.27126
0.277461
0.23087
0.296456
0.821912
0.244732
0.143171
0.218233
0.242224
0.373369
0.252728
0.566166
0.286806
0.215847
32.0759
0.128202
0.305519
0.423308
0.261771
0.42427
1.02556
0.20931
0.317441
0.385335
0.344096
0.287999
0.203899
0.191906
0.291026
0.326048
0.232591
0.254391
0.173105
0.425279
0.47986
0.282533
0.459334
0.276898
0.449464
0.334723
0.447717
0.165869
0.655071
0.165707
0.341169
0.344795
0.2649
0.28613
0.20508
0.30384
0.143962
0.342146
0.230676
0.652648
0.192557
0.272259
0.392348
0.28477
0.328161
0.174814
0.288646
0.400448
0.407575
0.39828
0.251821
0.246437
0.308522
0.232539
0.295413
0.408661
0.218791
0.445349
0.0937963
0.325601
0.246151
0.18765
0.157432
0.14197
2.88891
0.209751
0.168933
0.372805
0.269085
0.296401
0.176816
0.138364
0.240061
0.160987
0.718302
0.327898
0.237389
0.111758
10.7125
0.40247
0.221292
0.151319
0.156782
0.204238
0.206196
0.420786
0.369522
0.446736
0.233028
0.161188
0.396411
0.237809
0.198494
0.173661
0.343791
0.220165
0.321948
0.369078
0.272089
0.435766
0.360919
0.081258
0.280574
0.20233
0.216437
0.195317
0.198879
4.84232
0.250699
0.357524
0.459578
0.170549
0.163648
0.249066
0.308071
0.401715
0.228826
0.142434
0.222519
0.133932
0.188026
0.275766
0.281882
0.312348
0.305374
0.432689
0.334836
0.587557
0.318759
0.313003
0.185209
0.211387
0.130922
0.34947
0.322897
0.303761
0.218211
0.145924
0.243505
0.364656
0.392058
0.496923
0.193085
0.243015
0.212795
0.707952
0.174064
0.383247
0.651235
0.430319
0.492456
0.44563
0.782799
0.3084
0.363329
0.268353
0.560124
0.323196
0.542603
0.278847
0.347709
0.245868
0.208902
0.138428
0.40712
0.346275
0.185506
0.339655
0.196711
0.470654
0.224637
0.34706
0.603276
0.365237
0.237737
0.293848
0.405661
0.134308
0.203082
0.404401
0.258721
0.44356
0.797501
0.198099
0.311921
0.351528
0.35288
0.405865
0.219923
0.890677
0.2968
0.259839
0.21674
0.100923
0.217712
1.06709
0.23423
0.250684
0.320526
0.34956
0.163919
0.317129
0.330623
0.271471
0.177049
0.284829
0.312513
0.262735
0.386353
0.196427
0.230891
0.161361
0.159964
0.272063
0.370638
0.203278
0.19497
0.354013
0.350673
0.260753
0.250461
0.234931
0.242679
0.1236
0.32307
0.204643
0.28595
0.270995
0.175137
0.188065
0.374378
0.205605
0.382417
0.249613
0.328532
0.134114
0.543782
0.212546
0.487697
0.339762
0.324002
0.502996
0.37695
0.254932
0.335246
0.267998
0.384286
0.320064
0.164464
0.537617
0.152128
0.267017
0.311561
0.262863
0.200966
0.137334
0.217145
0.438866
0.260342
0.128085
0.572231
0.0921625
0.162749
0.336586
0.413966
0.232517
0.557467
0.405322
0.0865755
0.298251
0.495269
0.19045
0.236655
0.212081
0.245044
0.360189
0.279556
0.386996
0.147496
0.298846
0.507641
0.42603
0.498364
0.264664
4.41213
0.555449
0.362261
0.416236
0.20341
0.223195
0.258618
0.384777
0.368594
0.211027
0.327334
0.357348
0.113874
0.344024
0.261947
0.277388
0.215663
0.261129
0.404938
0.352486
0.228389
0.233369
0.43679
0.232064
0.401872
0.520725
0.263987
0.511851
0.242754
0.179751
0.168975
0.295552
0.90338
0.319762
0.721929
0.355819
0.311463
0.59214
0.349155
0.324698
0.218502
0.21352
0.290657
0.208435
0.223815
0.227983
0.112232
0.295821
0.365366
0.325242
0.481411
0.0982363
0.425072
0.18498
0.127866
0.480548
0.136437
0.361853
0.261822
2.43278
0.311979
0.424873
0.252468
0.259739
0.334764
0.283271
0.171428
0.279224
0.253763
0.491913
3.43012
0.166519
0.320439
0.283607
0.301508
0.231391
0.221829
0.375793
0.329755
0.153745
0.286896
0.225259
0.239387
0.421389
0.141231
0.454314
0.419257
0.252631
0.240424
0.745113
0.434804
0.137762
0.113465
0.234263
0.250735
0.213981
0.289033
0.242932
0.115614
0.444436
0.21045
0.286801
0.463509
0.1139
0.188367
0.285923
0.123135
0.433459
0.362758
0.197358
0.236962
0.315091
0.291372
0.172523
0.318415
0.487314
0.473866
0.234361
0.345299
0.402531
0.228406
0.649525
0.189474
0.491098
0.142791
0.152554
0.215098
0.311861
0.460685
0.115572
0.281171
0.212708
0.162684
0.19974
0.287621
0.307841
0.234905
0.608495
0.260448
0.163446
0.391133
0.26047
0.180755
0.157298
0.198673
0.229971
0.318911
0.256152
0.270653
0.478627
0.304308
0.271424
0.411202
0.529743
0.311381
0.145898
0.147056
0.230283
0.369861
0.241674
0.326671
0.299209
0.343608
0.18285
0.20457
0.259261
0.187439
0.379918
1.83024
0.182765
0.227293
0.303617
0.337808
0.200975
0.417057
0.664743
0.80316
0.216801
0.246497
0.454097
0.165053
0.227127
0.111874
0.301422
0.176721
0.216443
0.449534
0.208678
0.123748
0.574327
0.23534
0.171621
0.542922
0.477836
0.187288
0.364071
0.123541
0.300901
0.312028
0.438901
0.194121
0.256878
0.174388
0.235438
0.206658
0.376737
0.279648
0.218391
0.144368
1.02217
1.06655
0.125678
0.278039
0.305124
0.24484
0.317635
0.152756
0.434164
0.276567
0.140916
0.236087
0.166243
0.298691
0.283096
0.474411
0.112696
0.248945
0.620631
0.543846
0.147887
0.407248
0.31338
0.295009
0.537445
0.267232
0.187517
0.191584
0.173328
0.289113
0.195536
0.168548
0.367199
0.175635
0.230007
0.158617
0.209987
0.113701
0.387237
0.476762
0.706758
0.374958
0.13112
0.133508
0.521868
0.155978
0.227743
0.438888
0.414949
0.547641
0.330181
0.25232
0.0957345
0.367326
0.193848
0.252269
0.194065
0.395555
0.312716
0.269672
0.196664
0.161248
0.19329
0.375584
1.92038
0.140679
0.350757
0.291912
0.205527
0.316447
0.313169
0.248724
0.276075
0.245204
0.222222
0.665425
0.135674
0.217347
0.171019
0.25578
0.257096
0.295179
0.156183
0.302739
0.38146
0.181589
0.614128
0.163878
0.301248
0.269089
0.215551
0.249973
0.276325
0.26518
4.14394
0.218938
0.332532
0.344746
0.606327
11.1109
0.308033
0.258907
0.37832
3.23838
0.170151
0.334459
0.392429
0.239784
0.249836
0.39715
0.509525
0.296145
0.277678
0.154957
0.168028
0.312568
0.344741
0.157353
0.295437
0.177894
0.293273
0.560424
0.176501
0.301487
0.355717
0.177472
0.350985
0.365074
0.332958
0.274092
0.0829727
1.45625
0.24149
0.199292
0.473138
0.219423
0.192859
0.217764
0.253707
0.234133
0.279243
2.54389
0.452912
0.479667
0.140645
0.32195
0.277493
0.416339
0.233947
0.134096
0.202758
0.399776
0.438083
0.15787
0.171483
0.354338
0.5426
0.356499
0.390584
0.42858
0.410055
0.211231
0.426949
0.0994967
0.142312
0.223029
0.156728
0.120489
0.176786
0.296634
0.295693
0.160036
0.338484
0.21742
0.444135
0.260671
0.362014
0.263714
0.478146
0.229445
0.330176
0.230036
0.409814
0.203575
0.19092
0.254917
0.173984
0.615218
0.50262
0.144387
0.0946525
0.498126
0.270338
0.339675
0.500679
0.419208
0.384464
0.229041
0.491497
0.293419
0.438643
0.284131
0.400259
0.452527
0.224585
0.357015
0.184728
0.198379
0.145219
0.333745
0.25196
0.208279
0.221668
0.147741
0.272029
0.165853
0.248608
0.248138
0.275715
0.494825
0.300575
0.174388
0.464905
0.336443
0.171394
0.273946
0.222564
0.278806
0.244542
0.282348
0.21295
0.24618
0.487655
0.600139
0.338697
0.246391
0.301926
0.467903
0.185129
0.255501
0.368404
0.384539
0.352949
0.184862
0.412942
9.97686
0.363423
0.27067
9.72647
0.190593
0.254852
8.78823
0.274975
0.335014
0.323937
0.44081
0.243186
0.29762
0.465599
0.322223
0.329572
0.277652
0.233916
1.00873
0.176745
0.206261
0.481605
0.410066
0.355884
0.386157
0.191346
0.284174
0.357876
0.29808
0.222927
0.222338
0.524197
0.112861
0.112581
0.432856
0.28934
0.24516
0.156786
0.333862
0.22132
0.188133
0.235948
0.265281
0.138491
0.608726
4.01375
0.384705
0.136957
0.212681
0.303564
0.210314
0.334653
0.353516
0.317973
0.193048
0.149793
0.333458
0.499218
0.309109
0.352458
0.256602
0.749427
0.415448
0.310272
0.427082
0.505854
0.240399
0.412948
0.204404
0.29875
0.468599
0.320535
0.30885
0.168694
0.329443
0.28819
0.258271
0.0839081
0.479697
0.21054
0.19087
0.3897
0.483501
2.54047
0.0809586
1.45618
0.105838
2.18789
0.300643
0.319844
0.325571
0.405128
0.332634
0.187444
0.137287
0.279973
0.335332
0.16093
0.23402
0.163802
0.273257
0.751943
0.194086
0.342154
0.168407
0.434794
0.376416
0.411344
5.93157
0.183503
0.210244
0.115952
0.184693
0.412817
0.242027
0.457768
0.522939
0.373078
1.32701
3.97051
0.294675
0.186739
0.308279
0.325419
0.39579
0.228383
0.269078
0.357938
1.27506
0.351446
0.282792
0.446672
0.302379
0.149178
0.152816
0.404446
0.270237
0.280668
0.284006
2.72572
0.35881
0.186143
0.259692
0.245403
0.312141
0.270918
0.210346
0.320658
0.219365
0.476999
0.34305
0.339309
0.283983
0.623041
0.560385
0.249006
0.276587
0.397334
0.26344
0.252597
0.19114
0.391105
0.242086
0.261042
0.264555
8.23704
0.235192
0.318383
0.494318
0.15145
0.231127
0.351891
0.200173
0.191729
0.482256
0.303383
0.439726
0.148885
0.187738
0.389175
0.4708
0.138658
0.237813
0.122491
0.262483
0.275903
0.327025
0.215024
0.326385
0.259474
0.382765
0.240443
0.19554
0.481662
0.314077
0.239169
0.144447
0.38762
0.35188
0.182761
0.12343
0.431714
0.18913
0.149739
0.163462
0.479185
0.176996
0.454225
0.278037
0.538869
0.186746
0.304654
0.348294
0.195025
0.348624
0.490102
0.132607
0.271837
0.430308
0.2077
0.339691
0.408493
0.410298
0.186373
0.294226
0.212755
0.225916
0.393011
0.155991
0.24814
0.125075
0.371648
0.280207
0.33467
0.585691
0.250017
0.160172
0.308306
1.76829
0.373995
0.373444
0.247902
0.413009
0.547997
0.326368
7.02571
10.6274
0.265305
11.9955
0.467911
0.269037
0.18262
0.217272
0.338574
0.354986
0.22325
0.285388
0.139522
0.34774
0.39886
0.194337
0.208291
0.274637
0.2643
0.245892
0.166032
0.191808
0.327562
0.152066
0.360185
0.271122
0.318509
0.5634
0.313785
0.265985
0.163046
0.3631
0.360878
0.177063
0.181746
0.40708
0.518341
0.284158
0.186074
0.322802
0.239807
0.125666
0.443124
0.285893
0.219363
0.401717
0.434544
0.480458
0.170541
0.397845
0.173952
0.116073
0.213578
0.153441
0.412152
0.309383
0.1465
0.214311
0.210435
0.250658
0.203719
0.26097
0.400638
0.171819
0.243903
0.215658
0.187999
0.400638
0.433363
0.237247
0.122206
0.13415
0.497666
0.335108
0.197229
0.204341
0.0918518
0.0653965
0.312275
0.306215
0.436444
0.524236
0.268013
0.562885
0.30923
0.373402
0.243394
0.280165
0.261125
0.624544
0.338314
0.315586
0.415065
0.313428
0.248199
0.297008
0.170843
0.345383
0.308985
0.233235
0.134422
0.353117
0.388249
0.253943
0.168708
0.252899
0.247098
0.395357
0.440478
0.233083
0.184811
1.38554
0.270235
0.156333
0.302735
0.435272
0.501313
0.512082
0.222989
0.237345
0.819954
0.215429
0.296075
0.296459
0.303585
0.481063
0.245774
0.159469
0.206557
0.190489
0.20221
0.930644
0.137211
0.412668
0.325492
0.532961
0.484912
0.377328
0.472194
0.314116
0.357684
0.299083
0.0860489
0.326042
0.294482
0.569347
0.389665
0.534632
0.149774
0.178632
0.251601
0.226839
0.289268
0.354078
0.351179
0.298046
0.15692
0.324423
0.282356
0.183739
0.215438
0.180371
0.175325
0.180438
0.487441
0.268238
0.485509
0.202329
0.308728
0.257573
0.0937226
0.170774
0.185149
0.241185
0.196176
0.731167
0.220176
0.240966
0.377901
0.344542
0.0864909
0.40739
0.177146
0.23168
0.28022
0.237725
0.213673
0.250776
0.293435
0.63854
0.504374
0.307104
0.303866
0.526361
0.21296
0.185202
0.308923
0.474609
0.228512
0.31644
0.324622
0.197025
9.37059
0.514523
0.371401
0.193928
0.194859
0.16226
0.144801
5.25429
0.164828
0.422763
0.332557
0.274291
0.19784
0.37716
0.259735
0.310402
0.334999
0.396122
0.256419
0.231443
0.261996
0.197261
0.206561
0.187724
0.247482
0.209151
0.490487
0.355481
0.338349
0.381982
0.103171
0.58751
0.201865
0.491465
0.95902
0.116935
0.46931
0.272502
0.274749
0.182599
0.30275
0.306042
0.297242
0.1891
0.240444
2.25458
0.254935
0.301014
0.296911
0.308778
0.164334
0.175912
0.204624
0.7518
0.362532
0.48597
0.158324
0.203155
0.314236
0.30479
0.44253
0.171144
0.245857
0.376151
0.267633
0.26047
0.17975
0.180277
0.292062
0.400338
22.8214
0.179163
0.338661
0.241026
0.164827
0.225808
0.0904175
0.399425
0.370903
0.22069
0.257094
0.0958012
0.276726
0.223526
1.04518
0.309998
0.546893
0.399755
0.404502
0.339667
0.365397
0.34341
0.328079
0.345028
0.139595
0.206022
0.286071
0.355131
4.26312
0.37827
0.195817
0.336329
0.253901
0.246125
0.149577
0.140992
0.414402
11.4005
0.522308
0.462529
0.592937
0.678996
0.297202
0.309985
0.256233
0.212224
0.0839931
0.523229
0.225098
0.192664
0.403368
0.270278
0.358535
1.86705
0.259048
0.45196
0.552195
0.235526
0.323122
0.216209
0.270036
0.192406
0.527357
0.369181
0.413322
0.197404
0.354657
0.338124
0.325729
0.124402
0.304488
0.153978
0.509868
0.379051
0.230861
0.518636
0.328096
0.532339
0.132711
0.245783
0.318307
0.272617
0.331155
0.48734
0.456418
0.224709
0.467546
0.196088
0.207074
0.152857
0.459561
0.320699
0.884549
0.16985
0.306534
0.224208
0.289528
0.166902
0.326382
0.258578
0.241563
0.209095
0.197454
0.354376
0.255048
0.13232
0.372924
0.315881
0.264342
0.190291
0.138501
0.612293
0.205052
1.07953
0.267195
0.314886
0.396942
0.347908
0.217338
0.579029
0.350744
0.328123
3.35572
0.17485
0.269305
0.351069
0.203457
0.443798
0.367252
0.268771
27.3681
0.140207
0.261405
0.32662
0.333227
0.20565
0.258359
0.438823
0.320532
0.156519
0.107141
0.16675
0.634584
0.583408
0.398227
0.279877
0.182828
0.506778
0.244604
0.31
0.234799
0.278524
0.124184
0.213492
0.573479
0.428734
0.280404
0.214444
0.0907332
0.222251
0.416029
0.536313
0.362195
0.304887
0.281731
0.408079
0.140592
0.277792
0.241265
0.433012
0.141209
0.575284
0.261997
0.19554
0.294988
0.466479
0.251775
0.245602
0.226042
0.237693
0.131617
0.37419
0.330107
0.2776
0.31032
0.467423
0.700281
0.235444
0.851719
0.199339
0.230687
0.300644
0.411281
0.260451
0.21549
0.240229
0.126391
0.318774
0.280472
0.459011
0.265969
0.173958
0.137308
0.466185
0.161397
0.223356
0.28213
0.164629
0.191484
0.276242
0.417042
0.189717
0.192082
0.503593
0.398693
0.461282
0.210232
0.242238
0.438243
0.393546
0.342765
0.285306
0.249519
0.536214
0.204221
0.10517
0.132049
0.347351
0.578819
0.349709
0.247485
0.165034
0.253293
0.250772
0.494223
0.27576
0.18874
0.270148
0.620824
0.166756
0.283459
0.425456
0.366655
0.176402
0.12663
0.234006
0.334061
0.600504
0.338598
0.441646
0.277933
0.256173
0.312836
0.107283
0.293378
0.199559
0.222415
0.27039
0.268366
0.270435
0.118789
0.152736
0.360389
0.525757
0.57854
0.409879
0.220032
0.142214
0.286306
0.143061
0.213952
0.494707
0.478131
0.287158
0.223715
0.474482
0.205985
0.456313
0.862232
0.318141
0.242818
0.397034
0.311164
0.238223
0.390762
0.287018
0.484742
0.220458
0.325253
0.210129
0.424054
0.265008
0.157468
0.310914
0.707793
0.333935
0.183992
0.1198
0.337113
0.469131
0.344009
0.300022
0.405784
0.166004
0.215605
0.40317
0.446975
0.384096
2.872
0.418393
0.342787
0.613242
0.400674
0.282582
0.145597
0.268035
0.434778
0.21669
0.169554
0.407541
0.300189
0.280093
0.23232
0.232769
0.186363
0.378486
0.374124
0.108626
0.189541
0.137561
0.327128
0.196981
0.285943
0.287762
0.479292
0.324239
0.1315
0.15039
0.234916
0.371571
0.539022
0.379565
0.238871
0.143198
0.239275
0.199945
0.381139
0.211179
0.318788
0.220924
0.243258
0.441488
0.3117
0.278869
0.405445
0.285443
0.343431
0.283089
0.64205
0.13014
0.355828
0.611946
0.549216
0.404753
0.352206
0.448939
0.192255
0.363734
0.414835
0.139854
0.284
0.393269
3.65242
0.302764
0.132869
0.324556
0.604393
0.360343
0.397801
0.182543
0.395798
0.255777
0.306149
0.201051
0.228267
0.259468
0.21268
0.2394
0.507399
0.362175
0.306723
0.577567
0.237802
0.212185
0.360659
0.290546
0.235639
0.258381
0.412507
0.252186
0.248126
0.0937907
0.308778
0.241676
0.272878
0.432474
10.3461
0.399094
0.204544
0.254816
0.444926
0.416996
0.182215
0.254609
0.20524
0.421819
0.152818
0.196406
0.116217
0.276117
0.471212
2.74065
0.13698
3.38082
0.393437
0.214463
2.9873
0.261158
0.253213
0.745937
0.267373
0.28346
0.289937
0.283923
0.259916
0.457386
0.524126
0.176796
0.277292
0.612401
0.208981
0.467104
0.342591
0.187281
0.409508
0.24587
0.298343
0.218872
0.313277
0.241992
0.317634
0.317494
0.353927
0.398204
0.437538
0.163622
0.132195
0.447804
0.239234
0.0996393
0.307839
0.374862
0.265027
0.18474
0.655143
6.60124
0.257302
0.412613
0.30111
0.543438
0.256597
0.27453
0.552214
0.300209
0.211619
0.446994
0.627441
0.31622
0.258579
0.291034
0.274936
0.325709
0.493133
0.137423
0.205243
0.656214
0.233669
0.38731
0.320925
0.247718
0.223476
0.486679
0.45165
0.290381
0.235561
0.318355
0.332385
0.232773
2.06968
0.144132
0.384323
0.204443
0.340742
0.449198
0.683072
0.289726
0.185359
0.179435
0.310233
0.18474
0.274606
0.301562
0.395217
0.501441
0.248796
0.228709
0.480873
0.183191
0.2035
0.313543
0.264948
0.538324
3.53553
0.746108
0.144799
0.196324
0.265087
0.379899
0.224408
0.22083
0.300435
0.289929
0.191207
0.168259
0.252747
0.222695
0.296989
0.217054
0.36574
0.267264
0.391408
0.368836
0.23927
0.722809
0.498462
0.200636
0.148369
0.202961
0.243799
0.192008
0.182518
0.364186
0.255762
0.261904
0.229326
0.354063
0.841063
0.365333
0.327193
0.384323
0.157232
0.27941
0.208232
0.17208
0.41028
0.216004
0.30965
0.471648
0.228989
0.516406
0.163468
0.382747
0.264229
0.209682
0.412519
0.218084
0.143528
0.249849
0.0805649
0.294805
0.465345
0.113931
0.528903
0.679385
0.331028
0.244172
0.267641
0.267228
0.298008
0.397201
0.111137
0.204099
0.147825
0.214645
0.274246
0.136289
0.372913
0.189404
0.468647
0.293607
0.506403
0.336179
0.510275
0.548947
0.387171
0.371505
0.224403
0.266169
0.200963
0.230098
0.144761
0.166979
0.20524
0.454563
0.211955
0.216538
0.429355
0.305979
0.216332
0.543148
0.275169
0.262145
0.156583
0.492736
6.16918
0.22463
0.339945
0.305072
0.150503
0.298496
0.299947
0.140854
0.290703
0.305459
0.212304
0.349457
0.221425
0.172325
0.105418
0.513642
0.161085
0.670755
0.212399
0.140461
0.198207
0.189778
0.181248
0.318765
0.225965
0.496858
0.230859
0.470825
0.296413
0.159064
0.391322
0.235344
0.166239
0.197198
0.105391
0.622
0.181328
0.275376
1.66177
0.318605
0.0864865
0.289902
0.332894
0.15152
0.396174
0.126965
0.192461
0.140463
0.248116
0.250123
0.232173
2.34971
0.373559
0.420213
0.294135
0.225964
0.505173
0.296884
0.217957
0.327092
0.159854
0.212036
0.265823
0.334332
0.274798
0.175803
0.121774
0.566209
0.243021
0.119678
0.430855
0.175727
0.242348
0.409284
0.119691
0.358219
0.254541
0.254622
0.181481
0.368588
0.366283
0.168805
0.296806
0.455891
0.357405
0.240077
0.397441
0.464774
0.137194
0.33224
0.262768
0.0759364
0.406042
0.158294
0.137579
0.276388
0.192234
0.0864579
0.238076
0.204867
0.169055
0.360224
0.390155
0.27362
0.147119
1.72119
0.182904
0.250993
0.448368
0.255148
0.538687
0.204555
0.478392
0.296589
0.11483
0.20276
0.455159
0.22966
0.369046
0.37977
0.27985
0.220064
0.349184
0.449894
0.201939
0.142411
0.16555
0.456596
0.676454
0.241476
4.11826
0.423255
0.195216
0.159192
0.146298
0.146709
0.320785
0.165276
0.34266
0.254954
0.269479
0.366036
0.277962
0.114823
2.73912
0.222744
0.592132
0.245377
0.192453
0.25183
0.251487
0.186955
0.50063
0.336414
0.404063
0.204003
0.254314
2.11593
0.180706
0.468118
0.0904414
0.199597
0.12271
0.079747
0.321869
0.152207
0.307608
0.283987
0.295703
0.417198
0.32708
0.319016
0.267916
0.174472
0.20786
0.203782
0.166093
0.735395
0.235443
0.233895
0.388018
0.317642
0.422817
0.245343
0.0778051
0.36552
0.304831
0.0737756
0.237582
0.267651
0.366015
0.34202
0.213594
0.315392
0.209435
0.34888
0.266807
0.219123
0.41377
0.346282
0.194771
0.258162
0.143004
0.665824
0.604167
0.598511
2.5677
0.288763
0.107997
0.224407
0.276516
0.104114
0.341554
0.288522
0.397929
0.146992
1.51334
0.312036
0.29357
0.394819
0.182162
0.353461
0.431555
0.16187
0.179035
0.343551
0.408435
0.288254
0.219046
0.169111
0.252913
0.181547
0.374184
0.449014
0.264358
0.963606
0.257979
0.302757
0.320885
0.367493
0.271525
0.160184
0.456608
0.174004
0.311403
0.252985
0.50115
0.277904
0.137943
0.616066
0.354259
0.191802
0.268921
0.0963421
0.188866
0.393849
0.433356
0.264957
3.46705
3.16318
0.174711
0.571017
0.246291
0.207796
0.0958293
0.239717
0.312728
0.165863
0.270289
0.139475
0.22176
0.190699
0.245212
1.04806
0.155626
0.261447
0.468863
0.421075
0.180829
0.337997
0.214903
0.29463
0.38764
0.197545
0.339632
0.4465
0.379973
0.171432
0.378458
0.485753
0.333437
0.231599
0.252654
0.256199
0.227113
0.350862
0.148156
0.164584
0.49943
0.260828
0.192682
0.196965
0.276774
0.187535
0.56638
0.326306
0.419167
0.193857
0.242616
0.241475
0.332984
0.362277
1.36489
0.443081
0.22865
0.19819
0.281493
0.446833
0.154744
0.271327
0.178306
0.221249
0.438602
0.128425
0.385569
0.212656
0.245909
0.126498
0.251802
0.392254
0.265908
0.371037
0.155563
0.101278
6.09986
0.40476
0.317943
0.364064
0.193103
0.43563
0.185279
0.188086
0.0962811
0.305739
0.28249
0.312676
0.199248
0.236905
0.199085
0.18248
0.288521
0.35848
0.408456
0.149164
0.209573
0.0995824
0.114715
1.87514
0.179404
0.372013
0.325314
0.55778
0.141391
0.40266
0.244176
0.36978
0.233673
0.242653
0.134342
0.26853
0.134948
0.202095
0.253403
0.286197
0.472415
0.351122
0.359921
0.177444
0.736933
0.479256
0.393406
0.304494
0.364435
0.263179
0.256136
0.324116
0.19867
1.47504
0.136823
0.495942
0.290988
0.128839
0.160812
0.218276
0.131437
2.14225
3.54983
0.234567
0.245861
0.201463
0.455655
0.16689
0.282373
0.421672
0.276845
0.178959
0.324892
0.226027
0.369587
0.178436
0.24664
0.327144
0.214663
13.327
0.221753
0.289743
0.49762
0.235035
1.4728
0.258948
0.0940743
0.157028
0.413012
0.374037
0.154877
0.397873
0.12737
1.10971
0.388106
0.268616
0.40212
0.538065
0.170214
0.168656
0.160937
0.376349
0.223563
0.497428
0.184808
0.340018
0.249901
0.229914
0.469046
0.353951
0.398649
0.155612
0.321722
0.490084
0.143078
0.170226
0.355208
0.204879
0.289212
4.76616
0.511109
0.318243
0.341043
0.185347
0.230799
0.332547
0.502974
0.260407
0.107446
0.201452
0.260518
0.201825
0.248201
0.319814
0.314329
0.370628
0.410776
0.216357
0.568146
0.521675
0.367506
0.321714
0.328248
0.203613
0.393387
0.296315
0.138132
0.148838
1.42968
0.243505
0.291307
0.247606
0.829333
0.171269
0.37167
0.18686
0.335837
0.224011
0.215426
0.235395
0.262461
0.145394
0.213888
0.136363
0.341626
0.111499
0.208014
0.485818
0.428373
0.29293
0.771683
0.176739
0.209246
0.269607
0.22475
0.379281
0.190713
2.53513
0.20538
0.378807
0.174695
0.426676
0.197765
0.140826
0.270869
0.245551
0.348205
0.148666
0.305344
0.364637
0.31918
0.180053
0.289789
0.309624
0.261328
0.409638
0.251031
0.204146
0.44625
0.289621
0.193795
0.244937
0.287742
0.182704
0.157165
0.176014
0.371893
0.20842
0.467074
0.344521
0.235768
0.415496
0.246334
0.31757
0.176003
0.261055
0.278184
0.313061
0.452898
0.416483
0.32901
0.386638
0.53314
0.195658
0.351506
0.140112
0.216721
0.578166
0.129476
0.124327
8.15346
0.253038
0.181762
0.186793
0.313339
0.220975
0.192745
0.310898
0.20305
0.348515
0.287174
0.196053
0.168042
0.317513
0.279551
0.204241
0.606161
0.153614
0.235082
0.285765
0.217805
0.41548
0.633758
0.222652
0.117277
0.18688
0.299717
0.382106
0.508534
0.187595
0.299225
0.138552
0.256168
0.26104
0.298951
0.198899
0.200539
0.250383
0.336347
0.207352
0.28583
0.184782
0.396872
0.357048
0.305371
0.310905
0.271572
0.147137
0.224052
0.237232
0.27426
0.16743
0.205617
0.147503
0.313491
0.293742
0.263412
0.26597
0.225408
0.170469
0.313241
0.482223
0.178398
0.306821
0.154094
0.180911
0.187128
0.303225
0.304489
0.294575
0.268002
0.219555
0.595222
0.135029
0.320667
0.417478
0.270671
0.228536
0.423225
0.401315
5.85671
0.243342
0.234952
0.245547
0.413548
0.311642
0.237182
0.118052
0.269974
0.172769
0.278809
0.449746
0.350464
0.17714
0.187652
0.294907
0.197541
0.372108
0.231426
0.273586
0.164603
0.221818
0.397872
0.338881
0.153142
0.183992
0.173134
0.275478
0.450235
0.0877685
0.206195
0.730654
0.320731
0.353308
0.308369
0.115826
0.321275
0.460073
0.149054
0.164768
0.344398
0.208735
0.380247
0.193574
0.26649
0.219265
0.148244
0.108419
0.139822
0.217029
0.152137
0.431112
0.480095
0.287944
0.276371
0.320495
0.548211
0.205482
0.167336
0.598751
0.181594
0.208581
0.17304
0.316526
0.237592
0.201574
0.602028
0.225757
0.351788
0.228559
0.274061
0.274575
0.162647
0.287068
0.54848
0.261533
0.230806
0.344742
0.309686
0.114823
0.338492
0.218309
0.203695
0.0755501
0.233502
0.217534
0.263339
0.219394
0.354967
0.15241
0.259304
0.425453
0.196338
0.247832
0.491632
0.232269
0.617473
0.338803
0.36001
0.229968
0.285967
0.0245853
0.39717
0.162395
0.351439
0.294357
0.261472
0.274687
0.229267
0.33445
0.230769
0.240425
0.258868
1.42854
1.18304
0.338126
0.286444
0.386488
0.289009
0.240185
0.165766
0.316001
0.177787
0.317533
0.216665
0.165244
0.271524
0.144779
0.322705
0.246169
0.217923
0.187145
0.560309
0.0989922
0.267719
0.424763
0.138532
0.209914
0.268583
0.328801
0.166709
0.176397
0.296936
0.34197
0.230693
0.740128
0.242885
0.434316
0.287505
0.352784
0.11454
0.236571
0.362031
0.249936
0.672679
1.97546
0.428594
0.391481
0.994109
0.23132
0.128162
0.331043
0.271117
0.116508
0.269368
0.55311
0.223906
0.0721914
0.375169
0.246427
0.314869
0.484825
0.192441
0.250198
0.294856
0.312411
0.267804
0.259736
0.22402
0.193366
0.223714
0.19603
0.338602
2.11198
0.328441
0.225704
0.320479
0.484764
0.120312
0.292397
0.176082
0.26952
0.285628
0.272463
0.343348
0.314995
0.308307
0.371618
0.153459
0.270953
0.348697
0.287074
0.292999
0.203234
0.365213
0.445621
0.145372
0.262009
0.251974
0.198617
0.274222
0.120051
0.448729
0.239549
0.234009
0.28125
0.225073
0.404673
0.233837
0.413435
0.125135
0.140893
0.251146
0.320983
0.307071
0.22991
0.193459
0.376413
0.117244
0.1884
0.149283
0.237969
0.435131
0.300518
0.413895
0.17057
0.215154
0.277942
0.283978
0.152966
0.227325
0.134277
0.323229
0.119136
0.119577
0.258912
0.323845
0.344774
0.230042
0.127277
0.503473
0.150741
1.0372
0.246211
0.359252
0.329207
0.217777
0.624926
0.0864061
0.548124
0.500309
1.97238
0.222322
0.113591
0.251443
0.273064
0.267755
0.486088
0.349553
10.5519
0.346582
0.270042
0.13281
0.260597
0.234147
0.27076
0.227167
0.188336
0.423827
0.864528
0.194063
0.2415
0.237822
1.12651
0.2074
0.526227
0.39919
0.382689
0.300528
0.19276
0.524013
0.179446
0.313614
0.227298
0.330019
0.468636
0.488104
0.258741
0.290904
0.150393
0.219733
11.0692
0.227652
0.189105
0.270526
0.174912
0.381977
0.315603
0.27417
0.264793
0.314169
0.133084
0.324836
0.45456
0.244576
0.253913
0.181847
0.27269
0.337594
0.278228
0.230861
0.672105
0.291314
0.269179
0.185393
0.406619
0.244614
0.176512
0.324603
0.578101
0.234917
0.155805
0.627384
0.119001
0.352668
0.194578
0.334168
0.183301
0.423516
0.327802
0.217871
0.234049
0.223978
0.780328
0.146731
0.130884
0.378122
0.446143
0.189939
0.246648
0.383355
0.295054
0.259127
0.306967
0.298018
0.145573
0.265899
0.230024
0.282515
0.159904
3.60332
0.283822
0.214663
0.270806
0.274157
0.0914123
0.158873
0.262985
0.417072
0.510157
0.310842
0.192468
0.555068
0.206406
0.107628
0.21886
0.20425
0.164701
0.268433
0.275939
0.26653
0.275359
0.207124
0.155433
0.368084
1.03931
0.299469
0.150816
0.259459
0.269633
0.195664
0.369947
0.509936
2.40038
0.346257
0.343775
0.126389
0.227216
0.499332
0.399444
0.183665
0.175899
0.353401
0.44304
0.205883
0.371726
0.295718
0.352255
0.161092
0.22694
0.242478
0.480296
0.25193
0.382486
0.247682
0.282198
0.131956
0.0469416
0.247331
0.311361
0.131476
0.905468
0.203917
0.0665893
0.721772
0.398731
0.448884
0.193702
0.292344
0.3692
0.177566
0.248259
0.269012
0.20023
0.161405
0.236319
0.379346
0.169473
0.197368
0.211849
0.31502
0.238047
0.350433
0.148049
0.242487
0.346097
0.2685
0.165911
0.170949
0.43176
0.351501
0.123883
0.823954
0.177662
0.234293
0.311748
0.270046
0.185686
0.143792
0.313598
0.13994
0.112087
0.328368
0.359178
0.292287
0.27931
0.569576
0.234826
0.15735
0.162092
0.447109
0.2854
0.238587
0.285795
8.0899
0.233503
0.575399
0.384826
0.318339
0.274072
0.201238
0.428579
0.225106
0.147225
0.119438
0.183881
7.53998
0.45689
0.334117
0.476241
0.526076
0.27634
0.324698
0.180093
0.212513
0.290253
0.369929
0.271915
0.114533
1.14159
0.231797
0.320245
0.161857
0.251862
0.330113
0.164656
0.335297
0.160174
0.153847
0.204563
0.559347
0.160694
0.330106
0.283656
0.225477
0.374525
0.188192
0.362884
0.217588
0.460672
0.253192
8.15346
0.64974
0.282382
0.164696
0.309948
0.256999
0.259856
0.38341
0.248824
0.620728
0.247071
0.20822
0.196165
0.208494
0.210487
0.144959
0.393678
0.168171
0.522316
0.142902
0.295921
0.447168
3.30421
0.879476
0.58129
0.3068
0.239285
0.493207
0.44565
0.272568
0.227682
0.259096
0.521635
0.582803
0.351569
0.316173
0.237493
0.293246
0.212371
0.204757
0.419528
0.495617
0.314253
0.174092
0.273145
0.166912
0.182921
0.20082
0.231604
0.239935
0.343396
0.291157
0.272072
0.4158
0.347135
0.33448
0.228513
0.169801
0.367202
0.245803
0.245498
0.31172
0.381532
0.499841
0.911788
0.20951
0.447022
0.178744
0.515367
0.0832106
0.319848
0.158538
0.429726
0.724934
0.174888
0.175431
0.435302
0.344666
0.266023
0.325957
0.293344
0.208165
0.188433
0.300071
0.275976
0.259821
0.297757
0.388945
0.398686
0.224762
0.137374
0.320477
0.247062
0.299848
0.33012
0.366784
6.76925
0.465857
1.21617
0.36603
0.321443
0.320522
0.875013
0.230715
0.250332
0.146834
0.231726
0.432462
0.308715
0.266987
0.395859
0.240809
0.33723
0.247051
0.445208
0.485149
0.361311
0.19667
0.205051
0.240775
0.198499
0.182697
0.23737
0.226332
0.365358
0.308418
0.208448
7.23782
0.457503
0.248818
0.291221
0.28103
0.636565
0.224963
0.0594868
0.228008
0.193051
0.19828
0.270843
0.228625
0.0962555
0.208784
0.220255
0.241219
0.224628
0.105335
0.147986
0.199103
0.310937
0.223306
0.505141
0.338499
0.214877
0.42098
0.319898
0.200303
0.170358
0.208079
0.359316
0.916393
0.172125
0.464241
0.233653
0.351971
0.335394
0.138007
0.359868
0.441111
0.177975
1.35291
0.234038
0.1614
0.281393
0.279615
0.397832
0.35829
0.215763
0.265006
0.277767
0.273754
0.359184
0.157335
0.169137
0.194297
0.494224
0.288224
0.258219
0.162156
0.230289
0.250847
0.394757
0.171994
0.262293
0.203192
0.238566
0.494808
0.240624
0.223641
0.251277
0.625744
0.387744
0.240819
0.304079
0.169407
0.444153
0.338529
0.263427
0.292941
0.504687
0.176522
0.288663
0.431606
0.17186
0.211362
0.169586
0.318601
0.1799
0.201403
0.230439
0.319407
0.320451
0.192001
0.172552
0.304322
0.354446
0.144495
0.0680627
0.486225
0.370961
0.23149
0.202541
0.177013
0.161881
0.461523
0.325495
0.355007
0.172976
0.22102
0.199474
0.24078
0.349439
0.254286
0.23734
0.257048
0.20757
0.230507
0.515194
0.311572
0.833353
0.429649
0.198006
0.291574
0.224551
0.149866
0.231732
0.318816
0.25207
0.201472
0.244843
0.397464
0.438685
0.206141
0.225225
0.315343
0.221829
40.6802
0.324186
0.229674
0.172918
0.454621
0.242776
0.26839
0.227298
0.199639
0.216675
0.35457
0.195791
0.753719
0.0707511
0.254482
0.134355
0.245412
0.140941
0.217438
0.315634
0.16468
0.28144
0.348475
0.217106
0.0827311
0.218205
0.306208
0.235552
0.201274
0.169381
0.232347
0.228419
0.247611
0.341505
0.389539
0.446687
0.310352
0.230931
0.194615
0.375501
0.298395
0.176941
0.248696
0.484959
0.283899
0.407065
0.114248
0.711726
0.328008
0.243415
0.181991
0.223821
0.206644
0.979149
0.195804
4.09034
0.374147
0.277885
0.397841
0.371854
0.201785
0.741927
0.221333
0.687736
0.170679
0.240607
0.168158
0.276541
0.222127
0.109536
0.220134
0.25829
0.123705
0.500468
0.268494
0.522082
0.297687
0.165399
0.193654
0.205992
0.171644
0.233635
0.40456
0.387106
0.139489
0.180034
0.198053
0.158274
0.416074
0.206688
0.26413
0.298325
0.282444
3.85874
0.280183
0.227784
0.170784
0.338861
0.416286
0.399696
0.217584
0.288691
0.112357
0.356369
0.74606
0.23549
0.359769
0.338366
1.64332
0.216658
0.290813
0.500626
0.316153
0.168124
5.10505
0.195688
0.220913
0.296051
0.418569
0.177291
0.212811
0.269208
0.226403
0.188626
0.361856
0.311348
0.109831
0.274307
0.141028
0.303442
0.335675
0.203572
0.289589
0.304777
0.448891
0.177751
0.291126
0.112373
0.0897945
0.215212
0.276404
0.351452
0.290488
0.599313
0.410648
0.639417
0.354504
0.502787
0.218852
0.258375
0.174841
0.255658
0.377371
0.486041
0.324468
0.137496
0.268667
0.329505
0.334372
0.312275
0.244825
0.326332
0.18003
0.269838
0.132636
0.124234
0.0909197
0.294857
0.429452
0.625351
0.206577
0.241691
0.35133
0.238127
0.434993
0.320346
0.150734
0.187248
0.36215
1.62917
0.22513
0.174337
0.174319
0.0978419
0.618056
0.219497
0.226128
0.134048
0.397435
0.260334
0.205211
0.191569
0.776788
0.14288
0.308016
0.190944
0.161207
0.132638
0.241911
0.197609
0.156538
0.382738
0.394231
0.309755
0.677197
0.191985
0.23453
0.247443
0.737792
0.223242
0.405704
0.119483
0.521771
0.475102
0.22993
0.331138
0.296398
0.159064
0.287028
0.374271
0.217512
0.207666
0.144538
0.490374
0.497018
0.189526
0.345192
0.127283
0.162669
0.196584
0.348936
0.216055
0.171074
0.303796
0.477365
0.504833
0.460668
0.266809
0.3001
0.285626
0.211014
0.330108
0.199253
0.337672
0.196328
0.369695
0.391767
0.269668
0.49367
0.155602
0.422387
0.108914
0.229764
0.206669
0.278666
0.369168
0.270391
0.270394
0.305735
0.260339
0.184859
0.199682
0.438255
0.15202
0.470109
0.298633
0.366803
0.196812
0.628471
0.151945
0.224453
0.210243
0.491374
0.234446
0.215731
0.324113
0.413959
0.210405
0.463767
0.296365
0.200056
0.303462
0.102016
0.294658
0.288358
0.363153
0.391881
0.173687
0.368748
0.328209
0.349407
0.186988
0.352359
0.240908
0.207268
0.24195
0.200876
0.366224
0.120527
0.278621
0.191698
0.472045
0.130617
0.316567
0.3958
0.184549
0.326579
0.227392
0.441271
0.36364
3.84558
0.29272
0.263977
0.421826
0.336991
0.691667
0.17557
0.271637
0.237003
0.15245
0.242235
0.317102
0.220593
0.394733
0.332227
0.365226
0.654565
0.305695
0.265806
0.508689
0.351999
0.186316
0.210245
0.306473
0.256557
0.376575
0.496238
0.228934
0.158249
0.336082
0.335863
0.310446
0.176387
0.176744
0.121352
0.264034
0.181811
0.330427
0.310201
0.312064
0.221818
0.190876
0.3589
0.308759
0.262657
0.461956
0.193936
0.249672
0.469441
0.324886
0.245229
0.133273
0.146458
0.408694
0.483481
0.247118
0.636596
0.233763
0.753186
0.401535
0.303796
0.164905
0.437465
0.315528
0.428105
0.225775
0.188697
0.274298
0.289975
0.29793
0.308385
0.291488
0.352311
0.213178
0.137705
0.267203
0.189557
0.184554
0.182277
0.267889
0.533908
0.203282
0.167411
0.242525
0.490261
0.137665
0.208854
0.12212
0.297856
0.244679
0.196724
0.218697
0.152775
0.11974
0.394001
0.33057
0.306665
0.233882
0.25824
0.144018
0.335762
0.332105
0.336996
0.234474
0.22431
0.136417
0.301826
0.279978
0.326421
0.351441
0.272958
0.286763
0.292335
0.421419
0.470878
0.243873
0.180692
0.390758
0.280476
0.106607
0.220285
0.281462
0.318039
0.522288
0.37632
0.148768
0.34586
0.159044
0.222851
0.205873
0.254988
0.277872
0.0800463
0.715756
1.62903
0.242923
0.312962
0.347679
0.33182
0.197109
0.450972
3.09198
0.136205
0.320505
0.250147
0.303689
0.26719
0.160482
0.171598
0.311114
0.260579
0.297637
0.888374
0.120798
0.533219
0.18588
0.664421
0.162417
0.146281
0.200314
0.322357
0.153476
0.1072
0.304553
0.340253
0.27922
0.375589
0.168864
0.296206
0.296304
0.417373
0.331972
0.108234
0.373625
0.446728
0.389239
1.6407
0.398969
0.369087
0.472347
0.307185
0.231257
0.305123
0.267922
0.235003
0.311287
0.187319
0.176754
0.180612
0.215151
0.779707
0.224444
0.197328
0.379266
0.167925
0.18834
0.526394
0.317429
0.432972
0.41891
0.20338
0.316365
0.272152
0.333012
0.209018
0.291933
0.211339
0.62278
0.229147
0.159746
0.228341
0.318601
0.350716
0.1814
0.108113
0.406622
0.162029
0.245239
0.169906
0.979266
0.286506
0.329823
0.202002
0.523472
0.382002
0.458638
0.282698
0.383844
0.183679
0.213554
0.346243
9.58428
0.334743
0.316271
0.201238
0.237576
0.27112
0.166304
0.172025
0.166019
0.439197
0.141127
0.396328
0.34548
0.413744
0.17931
0.219732
0.607857
0.250664
0.676067
0.297028
0.238434
0.326923
0.0868904
0.57019
0.296137
0.183983
0.318978
0.380468
0.192924
0.256215
0.243377
0.212404
0.510078
0.433292
0.183246
2.31603
0.143697
0.266143
0.433163
0.30335
0.323108
0.160814
0.220708
0.144186
0.498974
0.134862
0.486526
0.330432
0.246174
0.33006
0.344115
0.241994
0.328614
0.283411
0.233906
0.210537
0.238978
4.04075
0.393606
0.393172
1.85962
0.420892
0.295528
0.16483
0.256209
0.249972
0.242256
0.533602
0.218448
0.281669
0.204242
0.355078
0.150404
0.372956
0.299819
0.269846
0.335366
0.427694
0.0766905
0.322733
0.260336
0.174538
0.253342
0.125586
0.362781
0.507924
0.135559
0.245031
0.307739
0.205897
0.159245
0.176224
0.275765
0.105293
0.34097
0.286752
0.217262
0.393161
2.42856
0.171023
0.362465
0.123315
0.374381
0.261303
0.265076
0.317472
0.223394
0.278035
0.265475
0.36271
0.202918
0.321274
0.240661
1.19537
0.265203
0.0883252
0.459849
0.279957
0.921208
0.262177
0.371533
0.406083
0.393848
0.120852
0.480467
0.267461
0.57719
0.426446
0.205969
0.414294
0.260573
0.310775
0.503161
0.532296
0.266607
0.20809
0.211852
0.192111
0.182663
0.250189
0.39897
0.241091
0.276655
0.130367
0.385318
0.461694
0.208041
0.140524
0.297399
0.303269
0.296375
0.505611
0.370821
0.386273
0.485988
0.330037
0.316559
0.22453
1.89413
0.209857
0.366183
0.477137
0.184729
0.225803
0.215756
0.367964
0.488178
0.213244
0.288864
0.384577
0.240364
0.36733
0.414083
0.253538
0.436221
0.227049
0.366304
0.13799
0.257908
0.486398
0.31317
0.199934
0.409638
16.5886
0.240561
0.362327
0.197378
0.377817
0.20962
0.221799
0.297562
0.386212
0.196225
0.561017
0.319125
0.252063
0.326532
0.426516
0.165569
0.368234
0.531461
0.380263
0.308685
0.898006
0.37051
0.247788
0.299223
0.685678
0.288433
2.90814
0.223044
2.09789
0.281209
0.170717
0.402176
0.177236
1.08353
0.201278
0.541089
0.268708
0.52578
0.355585
0.331629
0.562146
0.337168
0.209741
0.1757
0.315037
0.564596
0.234713
0.253079
0.282314
0.227963
0.249179
0.59864
0.128269
0.406617
0.254911
0.383672
0.341387
0.308656
0.263508
0.175101
0.188929
0.333546
0.131738
0.197944
0.151242
0.62816
0.251599
0.37544
0.198792
0.293674
0.140677
0.294792
0.325356
0.226256
0.132388
0.237115
0.361462
0.28439
0.182579
0.250384
0.25936
0.391335
0.328376
0.163714
0.660235
0.0928824
0.384777
0.363863
0.20631
0.127088
0.158309
0.791534
0.199632
0.175352
0.233081
2.41903
0.427942
0.125541
0.213856
0.289968
4.24491
0.860704
0.279172
0.305795
0.225934
0.153814
0.255583
0.57357
0.276088
0.177969
0.247155
0.198229
0.299695
0.523957
0.369917
0.114079
0.188962
0.290663
0.214281
0.220976
0.39538
0.218419
0.354561
0.134014
0.306485
0.394251
0.161847
0.292858
0.236816
0.237941
0.397535
0.321278
0.201273
0.18904
0.367183
0.217772
0.153786
0.34311
0.180605
0.299119
0.316054
0.447678
0.2074
0.270371
0.215033
0.976318
0.19584
0.171539
0.107837
0.329157
0.296645
0.255493
0.173741
0.292926
0.15852
0.162151
0.066877
0.426068
0.320358
0.269737
0.277257
0.254143
0.622888
0.365559
0.315745
0.389593
0.432056
0.576116
0.286752
0.276348
0.177736
0.333631
0.286634
0.261115
0.181073
0.0690904
0.271861
0.249433
0.369564
0.25425
0.282833
1.22442
0.177024
0.398048
0.263955
2.33828
0.301786
0.630885
0.10906
6.45243
0.271875
0.34876
0.127643
0.230102
0.380613
0.343256
0.326695
0.418162
0.337638
0.559031
0.175979
0.189378
0.278842
0.204639
0.112803
0.402612
0.333352
0.219923
0.300408
0.273291
0.270895
0.41805
0.354354
0.5078
0.246932
0.172842
0.215861
0.278229
0.204011
0.116734
0.156388
0.371944
0.391222
0.230671
0.245955
0.248697
0.181973
0.0929421
0.33913
0.935372
0.359244
0.33943
0.346391
0.280097
0.23292
0.226791
0.231665
0.263696
0.195083
0.29686
5.02771
0.191202
0.226117
6.66552
0.431357
0.313555
0.952712
0.287002
0.399976
0.488088
0.405666
0.373224
0.472753
0.220859
0.174769
0.147885
1.09893
0.318072
0.150375
0.379186
0.206989
0.453168
0.322833
0.213873
0.40401
0.283497
0.236853
0.562955
0.172684
0.223508
0.186187
0.242602
0.470628
0.308126
0.469726
0.451231
0.348282
0.24306
0.365052
0.25193
0.117743
0.287794
0.219251
0.249815
0.353034
0.508044
0.385356
0.251841
0.328133
0.4064
0.73555
0.235458
0.141611
0.294845
0.167241
0.244838
0.281959
0.174751
0.202437
0.124604
0.305382
0.411187
0.624144
0.246308
0.325377
0.144605
0.218379
0.811912
0.415525
0.323326
0.574846
0.27623
0.207943
0.387432
2.38327
0.262366
0.192457
0.245614
0.206877
0.245821
0.191609
0.208897
0.637063
0.301719
1.32903
1.0278
0.216089
0.304102
0.360874
0.309034
0.362116
0.389559
0.242453
0.370748
0.45551
0.27655
0.26895
0.33766
0.17056
0.108409
0.195041
0.196662
0.218407
0.337156
0.256031
0.48826
0.217616
0.39872
0.27996
0.172013
0.185932
0.15859
0.170712
0.222005
0.440149
10.1065
0.158299
0.257908
0.331508
0.444224
0.301742
0.508086
0.112777
0.231062
0.205005
0.193939
0.435057
0.317352
0.429169
0.277208
0.215721
0.501488
0.412675
0.47209
0.232553
0.287944
0.165275
0.415592
0.0870179
0.322052
0.198509
0.392569
0.226357
0.374453
0.301949
0.33641
0.268128
0.297253
0.568161
0.261649
0.422313
0.210583
0.197114
0.358397
0.484733
0.453029
0.207298
0.296137
0.282099
0.343731
0.24766
0.457419
0.342518
0.316169
0.282904
0.204263
0.250666
0.283818
0.255254
0.419621
0.277216
0.302644
0.24369
0.303822
0.246437
0.263382
0.313459
0.257664
0.196073
0.126454
0.179289
0.281818
0.309041
0.102654
0.104604
0.150965
0.309406
0.282117
0.188694
0.261507
0.158257
2.94623
0.464879
0.445397
0.308013
0.285293
2.32379
0.557444
0.0443299
0.150958
0.0928325
0.178938
0.484355
0.279384
0.21477
0.248304
0.164364
0.391023
0.362314
0.177925
0.3183
0.354741
0.404122
0.209731
0.32331
0.330843
0.194263
0.295907
0.418748
0.286941
0.286741
0.173955
0.288456
0.260997
0.241157
0.438477
0.278557
0.442577
0.127488
0.244149
0.131634
0.174034
0.198352
0.387197
0.352946
0.200524
0.132612
0.143997
3.01146
0.454808
0.18241
0.282355
0.194124
0.330953
0.537875
2.45756
0.187851
0.196579
0.206063
0.38141
0.180759
0.193446
0.425651
0.214459
0.389344
0.213481
1.00747
0.315795
0.193807
0.350556
0.380742
0.175686
0.196355
1.99111
0.245096
0.860953
0.53881
0.436739
0.406203
0.370389
1.06751
0.379423
0.752509
0.412512
0.329038
0.373315
0.243541
0.387329
0.204583
0.202389
0.221932
0.533047
0.381827
0.326592
0.326135
0.236776
0.536704
0.268047
0.311255
0.313315
0.371328
0.23045
0.244937
0.26296
0.273137
0.250892
0.289616
0.250201
0.152459
0.451524
0.379594
0.193973
0.192197
0.17392
0.36425
0.11161
0.152952
0.302343
0.130526
0.244661
0.134441
0.384021
0.292372
0.217351
0.309325
0.53743
0.310296
0.369663
0.350301
0.341278
0.179437
0.408535
0.207718
0.440865
0.264039
2.64487
0.343943
0.323953
0.408759
0.156925
0.363687
0.134446
0.26219
0.270997
0.248875
0.249576
0.172976
0.300746
0.26595
0.188509
0.235357
0.28591
0.0931686
0.282525
0.435302
0.225527
0.230268
0.539293
0.309925
0.156565
0.260576
0.464765
0.54007
0.222454
0.407301
0.453103
0.380668
0.245883
0.115721
0.261176
0.228933
0.460972
0.348764
0.121592
0.321371
0.312469
0.180738
0.182963
0.599827
0.170157
0.384631
0.364938
0.202641
0.224335
0.219072
0.2351
0.542444
0.520271
0.180338
0.088
0.399715
0.205278
0.410831
0.203678
0.268705
0.394578
0.200373
0.169029
0.208645
0.196182
0.515283
0.409412
0.228019
0.224483
0.157957
0.361284
0.145312
0.179656
0.367309
1.80252
0.220841
0.247827
0.256196
0.318626
0.214073
0.391045
0.446327
0.188561
0.257065
0.151764
0.224592
0.304361
0.776705
0.139102
0.301451
0.310314
0.228751
0.240226
0.326942
0.280354
0.333768
0.476298
0.184007
0.145507
0.388751
0.234173
0.284261
0.308333
0.195933
0.408261
0.25062
2.83029
0.157559
0.184655
0.333292
0.416431
0.138396
0.416306
0.227782
0.180658
0.0985254
0.300594
0.315788
0.315411
0.184903
0.494578
0.286471
0.219654
0.248411
0.162749
0.321959
0.336628
0.310153
0.338656
0.67955
0.375665
0.258749
0.214894
0.163723
0.20414
0.439562
0.344822
0.169843
0.262023
0.269359
0.22007
0.187883
1.99376
0.508616
0.275496
0.230851
0.431292
0.459443
0.209884
0.244895
0.292275
0.357341
0.194853
0.144548
0.25373
0.245588
0.344444
0.271127
0.154511
0.354805
0.329211
0.185859
4.16575
0.416809
0.466581
0.5766
0.451922
0.155986
0.279082
0.301317
0.457169
0.327515
0.366689
0.459563
0.34764
0.195308
0.302483
0.24411
0.216834
0.31876
0.246921
0.406013
0.24545
0.13756
0.19343
0.250302
0.185387
0.311674
0.295588
0.325202
0.249598
0.376753
0.256548
0.329652
0.233928
0.300833
0.299882
0.405655
0.336867
0.359234
0.548629
0.343387
0.668754
0.223305
0.241394
0.259539
0.192938
0.150323
0.142281
0.519914
0.380791
0.186986
0.193464
0.241744
0.543024
0.366561
0.287577
0.22198
0.17955
0.199272
3.41721
0.495785
0.18038
0.229803
1.91231
0.181956
0.287778
0.423008
0.23714
0.547244
0.353069
3.4824
0.201318
0.488283
0.233529
0.207059
0.255309
0.494616
0.146903
0.262111
0.9191
0.295079
0.369724
0.267515
0.151733
2.50883
0.269667
3.32286
1.76105
0.285772
0.241746
0.142411
0.125949
0.379295
0.288351
0.233032
0.510295
0.442002
0.276897
0.207243
0.225178
0.217986
2.94781
0.245858
0.274432
0.286151
0.221503
0.279721
0.333057
0.238326
0.174608
0.15662
0.359444
0.271266
0.167439
0.267342
0.381585
0.285512
0.303381
0.195313
0.419029
0.487123
0.20931
0.333134
0.368714
0.23972
0.171088
0.126595
0.298905
0.223993
0.215218
1.76222
0.446002
0.284884
0.197787
0.315517
0.352578
0.382901
0.248844
0.259129
0.337402
0.202267
0.250775
0.134892
0.258695
0.226958
0.262027
0.257775
0.415975
0.200029
0.158763
0.231386
0.772324
0.207192
0.291934
0.303027
0.248948
0.207793
4.72542
0.338382
0.512127
0.228245
0.418164
0.40916
0.309899
0.264706
30.2534
0.28057
0.312303
0.129392
0.301395
0.275763
0.442719
0.147229
0.218583
0.443864
0.0992972
0.245185
0.246397
0.317793
0.399948
0.26134
1.0368
0.349747
0.210719
0.384193
0.229523
0.26627
0.301938
0.139698
0.357474
0.388833
0.121848
0.2801
0.373785
0.258639
0.221633
0.188534
0.300109
0.137004
0.170071
0.225448
0.116197
0.226595
0.22383
0.162768
3.55913
0.18079
0.609113
0.411622
0.248804
0.148803
0.146752
0.1317
0.333274
0.416698
0.143479
0.184653
0.318933
0.161072
0.195879
0.186414
0.366661
0.471506
0.218489
0.419119
0.466719
0.172085
0.161945
0.253878
0.323745
0.120944
0.351755
0.213158
0.303442
0.280482
0.274397
0.299728
0.485333
0.351068
0.314225
0.191646
0.163433
0.438579
0.264342
0.398963
0.361589
0.84938
0.373595
0.238877
0.224524
0.263402
0.320872
0.253089
0.362819
0.210201
0.354645
0.137053
0.196709
0.156674
0.168096
0.252505
1.61587
0.332152
0.233971
0.249634
0.375085
0.282303
0.305336
0.355167
0.359439
7.3362
0.126638
0.250602
0.16531
0.362216
0.312671
0.165246
0.195951
0.392136
0.266574
0.384847
0.368954
0.335753
0.254485
2.56336
0.327653
0.199946
0.436098
0.277877
0.440212
0.300057
0.397441
0.215285
0.354615
0.302171
0.430653
0.343099
0.202206
0.20221
0.520655
0.492946
0.193209
0.54969
0.119778
0.22376
0.149962
0.190873
0.232174
0.220085
0.298915
0.25329
0.292476
0.283681
0.470181
0.242161
0.268699
0.238379
0.375152
0.506237
0.335089
0.26831
0.463059
0.422586
0.193774
0.302318
0.277491
3.1662
0.2225
0.297978
0.266778
0.205832
0.270459
0.239122
0.183857
0.27897
0.349396
0.183842
0.181485
0.235851
0.267964
0.32342
0.378919
0.254369
0.251944
0.32365
0.20572
0.621747
0.176145
0.29596
0.128074
0.098025
0.367351
0.276178
0.256551
0.174875
0.249056
0.559955
0.21318
0.212805
0.156282
0.133352
0.216609
0.290917
0.468809
0.332243
0.323342
0.28693
0.153376
0.345622
0.504902
0.450816
0.440315
0.288559
0.215289
0.413635
0.475803
0.232052
0.3338
0.202274
0.230273
0.203214
0.227103
0.163908
0.329382
0.320014
0.562184
0.26122
0.290951
0.188413
0.195292
0.298913
0.610263
0.277419
0.278671
0.15487
0.431986
0.32237
0.148565
0.373105
0.0971112
0.228529
0.311911
0.313369
1.59155
0.231108
0.74452
0.312171
0.229397
0.152924
0.332216
0.19956
0.464216
0.216307
0.44347
0.214055
2.41162
0.310169
0.539927
0.226687
0.24524
0.163964
0.294015
0.228797
0.127569
0.289397
0.346789
0.312162
0.393093
0.392718
0.143747
0.416311
0.141699
0.195506
0.1394
0.383861
0.436718
0.235411
0.227428
0.371572
0.299744
0.882705
0.326421
0.316104
0.279827
0.649853
0.218836
0.300476
0.204113
0.323293
0.3029
0.186617
0.341115
0.260348
0.142508
0.0862591
0.408271
3.18274
0.411426
0.354167
0.160239
0.16386
0.203738
0.17766
0.174161
0.240539
0.311569
0.457158
0.392003
0.230461
0.509462
0.564852
0.37308
0.421619
0.232765
0.336285
0.487496
0.297776
0.478383
0.248742
0.217905
0.335188
0.335123
8.54234
0.515514
0.0897506
0.217339
0.559946
0.687612
0.365011
0.474876
0.143243
0.263091
0.191511
0.121538
0.235018
0.40356
0.514691
0.247837
0.274348
0.229863
3.84939
0.213959
0.165958
0.377993
0.20806
0.129893
0.25635
0.264968
0.401956
0.152684
0.2783
0.258067
0.215617
0.290651
0.151581
0.43716
0.255611
0.185127
0.135873
0.313536
0.280847
0.416044
0.561541
0.40678
0.207509
0.220387
0.697651
0.350897
0.0907936
0.399845
0.120476
0.585563
0.173486
0.213312
0.218917
0.350634
0.107472
0.138936
0.170795
0.36443
0.229966
0.209702
0.171477
0.0739464
0.335874
0.153348
0.461313
0.313026
0.454274
0.453942
0.415497
0.403663
0.311017
0.199176
0.307985
0.11383
0.503774
0.801594
0.250805
12.9771
0.213952
0.327227
0.413374
2.02223
0.433327
0.116826
0.177491
0.246058
0.146263
0.204775
0.286392
0.461255
0.205472
0.226351
5.85598
0.311462
0.319234
0.440589
0.134312
0.235285
0.220291
0.111139
0.151564
0.433146
0.17357
0.541426
0.303592
0.238443
0.612202
0.351784
0.119701
0.388187
0.228918
0.169625
0.298116
0.429358
0.221222
0.318228
0.322566
0.247087
0.273848
0.156736
0.273175
0.586229
0.153432
0.270377
0.27344
0.244301
0.0981414
0.378609
0.870786
0.594372
0.331082
0.455384
0.153125
0.323783
0.140621
0.10083
0.266641
0.319067
0.313518
0.190735
0.186901
0.27282
0.310066
0.490457
0.194977
0.216472
0.255226
0.536525
0.782445
0.294971
0.388566
0.145084
0.418731
0.410626
0.151416
0.363834
0.160856
0.135469
0.324254
0.328359
0.214909
0.337077
0.12802
0.484942
0.334129
0.18286
0.247612
0.324355
0.355408
0.380155
0.29119
0.155889
0.635252
0.240426
0.144069
0.248745
0.596173
0.362255
0.276842
0.589302
0.179868
0.238199
0.1734
0.23154
0.119313
0.194273
0.52113
0.574786
0.380732
0.278269
0.176413
0.503936
0.40853
0.109277
0.136083
0.208288
0.463533
0.364186
0.217649
0.212744
0.272158
0.465052
3.13912
0.116683
0.416703
0.565209
0.292291
0.0801544
0.376523
0.235496
1.94063
0.266557
0.322148
0.239832
0.309368
0.309391
0.245801
0.362434
0.277805
0.117892
0.108557
0.19284
0.476514
0.22221
0.164991
0.228429
0.547722
0.475502
0.283157
0.363083
0.583125
0.228591
0.233882
0.231754
0.226277
0.267914
0.524139
4.39472
0.29724
0.306319
0.23331
0.368216
0.385965
0.336593
0.324015
0.321217
0.198007
0.271678
0.0899259
0.314256
0.272296
0.264836
0.191003
0.499857
0.30449
0.213551
0.187825
0.331509
0.11435
0.113137
0.165929
0.55586
0.315466
0.21343
0.14874
0.288764
0.379089
0.365367
0.208406
0.220942
7.5665
0.412192
0.284466
0.519168
0.189783
0.277032
0.233475
0.213478
0.208068
0.195375
0.336252
0.307467
0.270324
0.243787
0.571348
0.27118
0.403351
0.33069
0.382465
0.311779
0.419824
0.141263
0.105466
0.162631
0.234998
0.408578
0.325211
0.364756
0.233111
0.267396
0.178115
0.154772
0.224024
0.249179
0.302537
0.212804
0.420126
0.297392
0.444645
0.296722
0.402916
0.374648
0.727287
0.365199
0.169359
0.275075
0.454811
1.47069
0.293885
0.164452
0.268385
0.438103
0.213527
0.282214
0.435816
0.26433
0.29907
0.433402
0.383374
0.194702
0.170075
0.170915
0.295249
0.218784
0.214578
0.109385
0.256581
0.443411
0.307275
2.39423
0.210383
0.344922
0.284251
0.285321
0.335328
0.11285
0.143754
0.413378
0.241841
0.147265
0.26411
0.254549
0.172412
0.346683
0.374959
0.168904
0.323046
0.329161
0.366723
0.233674
0.705709
0.285047
0.900646
0.234498
0.26954
0.213639
0.35198
0.534472
0.348785
0.185648
2.76076
0.138398
0.16932
0.178157
0.271126
0.381689
0.120341
0.368159
0.284057
0.333077
0.356923
0.411175
0.388989
0.352074
0.435254
0.362443
0.2036
6.18213
0.169885
0.157384
0.291833
0.169744
0.196067
0.287152
0.226655
0.270316
0.591186
0.332387
0.126006
0.13914
0.375249
0.261568
0.265034
0.243454
0.152593
0.178109
0.325433
0.552747
0.220128
0.365561
0.335812
0.33077
0.211553
0.405201
0.237873
0.279828
0.444313
0.361669
0.889286
0.313256
0.227809
0.223001
0.151012
0.44238
0.129455
0.410813
0.173539
0.249548
0.399404
0.256273
0.288426
0.279852
0.26202
0.185091
0.115995
0.261242
0.289022
0.192184
0.237938
0.366818
0.240755
0.351548
0.346794
0.234379
0.334495
0.357314
0.50567
0.157472
0.152993
0.111246
0.497785
0.379503
0.452328
0.404166
0.268463
0.354413
0.305475
0.263221
2.06456
0.233509
0.315338
0.170015
0.380781
0.37835
0.34931
0.663131
0.404854
0.156349
0.453083
0.49536
0.143239
0.197081
0.185097
0.126875
0.242107
0.283573
0.229865
0.275761
0.195846
0.337182
0.229811
0.279351
0.355012
0.223446
0.274348
0.275297
0.428626
0.303994
0.510553
0.292971
0.549173
0.434987
0.311345
0.639785
0.281491
0.264743
0.300946
0.362124
0.242582
0.402824
0.323837
0.160511
0.255008
0.448622
0.263008
0.280807
0.59517
0.167114
0.202424
0.228073
0.230444
0.275019
0.27997
0.1757
0.316457
0.385921
0.241799
0.326499
0.140017
1.94542
0.166199
0.434071
0.138711
0.257348
0.365392
0.20404
0.274989
0.455944
0.283178
0.203884
0.301381
0.251043
0.211649
0.207583
0.35912
0.259395
0.267162
0.334349
0.131442
0.165339
0.346069
0.29794
0.526112
0.258638
0.372418
0.386929
0.145662
0.128402
0.314263
0.492101
0.11873
0.218213
0.235411
0.351922
0.217868
0.146013
0.306882
0.252129
0.32613
0.521535
0.151556
0.256263
0.20181
0.390451
0.322218
0.370231
0.23329
0.486271
0.213944
0.146985
0.433297
0.260484
0.300447
0.387182
0.310413
0.321665
0.353191
0.212555
0.318587
0.213888
0.290035
0.317145
0.367032
0.296513
0.104503
0.386044
0.170459
0.280813
0.273029
0.251113
0.224679
0.611686
1.38313
0.395009
0.42846
0.292401
0.275699
0.293619
0.188292
0.551367
0.181499
0.442736
0.531716
0.30516
0.350553
0.253611
0.408877
0.492695
0.472822
0.285044
0.195204
0.140276
0.626625
0.190745
0.376436
0.0820917
0.14348
0.325097
0.303308
0.729865
0.326922
0.341857
0.223409
0.467279
0.468302
0.0820184
0.314708
0.231999
0.268333
0.240292
0.234657
0.288918
0.280182
0.257095
0.306782
0.349506
0.286893
0.257645
0.437416
0.438739
0.370523
0.222384
0.651288
0.749373
0.0956555
0.199365
0.206839
0.363501
0.212398
0.204622
0.330738
0.29524
0.225042
0.248725
0.198368
0.458904
0.302707
0.26538
0.268534
0.197396
0.243711
0.166326
0.132897
0.343157
0.232995
0.178346
0.0705815
0.325387
0.474328
0.285285
0.672063
0.342372
1.36809
1.25792
0.171184
0.23485
0.249487
0.145514
0.276067
0.279233
0.234669
0.396203
0.0640618
0.161552
0.310328
0.518574
0.407592
0.138853
0.754797
0.339609
0.311913
0.402461
0.26188
0.376784
0.240725
0.456825
0.201863
0.340423
0.140305
0.298241
0.262522
0.378242
0.35245
0.243835
0.203045
0.20585
0.1894
0.110171
0.202778
0.386522
0.433646
0.197662
0.317896
0.379381
0.354848
0.189132
0.516357
0.239495
0.380622
0.24381
0.217465
0.335038
0.165374
0.316315
0.471668
0.370462
0.162507
0.21491
0.211255
0.302296
0.428441
0.163944
0.368131
0.345764
0.410055
0.311708
0.668583
0.165311
0.382434
0.232898
0.79734
0.556648
0.33482
0.303467
0.653985
0.571114
0.362018
0.186968
1.73119
0.344474
0.368775
0.239025
0.183047
0.293326
0.249351
0.381881
0.0853915
0.461787
0.318281
0.47026
0.338574
0.309715
0.238374
0.168271
0.272896
0.358042
0.34429
0.277705
0.427312
0.383095
0.309814
0.238461
0.546884
0.283556
0.414481
0.264953
0.225784
0.345874
0.433209
0.426366
0.155438
0.724088
0.244769
0.319435
0.333308
0.498549
0.342717
0.201909
0.282475
0.356139
0.275661
0.376914
0.374393
0.194721
0.329966
0.38726
0.226145
0.273146
0.193419
0.199002
0.372828
7.07839
0.311554
0.189835
0.475105
7.23762
0.537386
0.268981
0.228612
0.208293
0.237187
0.295923
0.106183
0.207313
0.444222
0.453641
0.140947
0.134041
0.0993492
0.220302
0.237794
0.543103
0.252074
0.374532
0.436593
0.215952
0.191657
0.466514
0.327312
0.172805
0.410095
1.03446
0.359743
0.261991
0.393277
0.248014
0.165755
0.299107
0.378447
0.361747
0.224951
0.403631
0.389795
0.293918
0.17396
0.299181
0.366896
0.30841
0.59246
0.211147
0.254226
0.18118
0.287957
0.214619
0.201102
0.186495
0.356728
0.188474
0.253611
0.24006
0.152817
0.301908
0.245421
0.329526
0.217661
0.412518
0.25948
0.228441
0.264469
15.134
0.603514
0.548961
0.280565
0.254638
0.274673
0.183026
0.11858
0.574407
0.32369
0.439161
0.2269
0.190599
0.338613
0.243342
0.315416
0.417046
0.209625
0.252611
0.161134
0.333925
0.238676
0.306218
0.202337
0.206046
0.236118
0.297852
0.202412
0.180946
0.319795
0.165071
0.484088
0.482138
0.240695
0.476732
0.24892
0.335572
0.494741
0.338784
0.229057
0.370269
0.114936
0.47941
0.330706
0.328142
0.215001
0.199181
0.308082
0.237506
0.27066
0.253909
0.225708
0.378592
0.272685
0.396003
0.267968
0.479238
0.201294
0.200499
0.186303
3.62815
0.276811
0.212449
0.489018
0.278094
1.03673
0.198417
0.323276
0.248605
0.314792
0.290744
0.201527
0.134986
0.208558
0.228253
0.274072
0.577534
0.251888
0.258861
0.284936
0.324736
0.379394
0.305751
0.443955
0.131737
0.303353
0.508477
0.641326
0.319228
0.507347
0.223978
0.791504
0.288872
0.150176
0.196542
0.173101
0.350184
0.149483
0.174395
2.16881
0.478184
0.350547
0.146739
0.215178
0.379297
0.142762
0.421205
0.807548
0.162379
0.250657
0.231662
0.137905
0.178848
0.287523
0.273116
0.287103
0.170098
0.354654
0.157734
0.322264
0.346714
0.241827
0.173347
0.136567
0.400923
2.37782
0.199952
0.178757
0.291838
0.227347
0.197584
0.243135
0.566131
0.146106
0.280586
0.444967
0.0688286
0.340918
0.163981
0.269158
0.44329
0.250893
0.278208
0.349637
0.299425
0.293325
0.320846
0.554936
0.280948
0.457772
0.319418
0.236163
0.227956
0.297829
0.172565
0.360309
0.212697
0.21865
0.487255
0.461539
4.02921
0.667372
0.383399
0.199097
0.189398
0.368778
0.249737
0.261117
0.358415
0.301146
0.257458
0.511231
0.138278
0.200894
0.337325
0.292817
0.142378
0.195963
0.289076
0.118261
0.471693
0.268277
0.380003
0.153211
0.221681
0.136999
0.614843
0.265553
0.201405
0.4635
1.23877
0.322019
0.277783
0.168309
0.229978
0.267092
0.716217
0.245986
0.50236
0.607202
0.183879
0.282715
0.369937
0.248151
0.432633
0.442743
0.594139
0.287774
0.368285
0.315215
0.302556
0.226096
0.238374
0.278355
0.264221
0.185972
0.267249
0.468777
0.317363
0.226978
0.247527
0.431673
0.616853
0.532719
0.411758
0.0923258
0.316124
0.173802
0.214973
0.462863
0.353504
0.161902
0.695902
0.393258
0.148066
0.293643
0.135973
0.161449
0.333292
0.299504
0.483898
0.191765
0.411949
0.240428
0.37539
6.31594
0.267584
0.494249
0.33866
0.23286
0.170964
0.489642
0.246459
0.354429
0.394394
0.435582
0.163424
0.381611
0.447747
0.658397
0.191136
0.226741
0.229444
0.413248
0.272165
0.315913
0.219532
0.126352
0.174285
0.228045
0.650528
0.542668
0.175456
0.683431
0.308621
0.299138
0.351754
0.16594
0.442998
0.192118
2.45118
0.328274
0.231864
0.311442
0.278072
0.225202
0.336485
0.258874
0.154847
0.327302
0.161602
0.257739
0.19091
0.357947
0.209917
0.234313
0.240087
0.42936
0.0916842
0.190641
0.337957
0.345816
0.218689
0.344898
0.232219
0.205626
5.07142
0.244804
0.231627
0.363985
0.196973
0.312461
4.02573
0.40191
0.177447
0.341193
0.211529
0.297612
0.137595
0.365595
0.359492
0.119629
0.459099
0.123095
0.302979
0.125038
0.198423
0.386139
0.292662
0.319921
0.311618
0.28928
0.250977
0.163467
0.231068
0.309996
0.203724
0.185129
0.281748
0.303801
0.205426
0.290563
0.349575
0.311464
0.283296
0.394034
0.653574
0.39308
0.65864
0.463665
0.304466
1.68281
0.141101
0.268101
0.126115
0.344812
0.214194
0.292086
0.158537
0.284355
0.38556
0.298174
0.143898
3.8023
0.222552
0.121845
0.107959
0.183575
0.390642
0.183094
0.249302
0.230799
0.221714
0.31086
0.168996
0.386699
0.205791
0.418509
0.396726
0.193882
0.300056
0.220628
0.273808
0.167307
0.41598
0.213656
0.235343
0.34387
0.347183
0.14147
0.594148
0.123638
0.227457
0.285808
0.286465
0.238205
0.105897
0.133752
0.17806
0.129154
0.101858
0.22717
0.136866
0.349162
0.316636
0.407888
0.139306
0.220594
0.238977
0.175091
0.101908
0.236124
0.275144
0.226211
0.260281
0.231494
0.159374
0.247297
0.0985066
0.269178
0.302958
0.384521
0.251736
0.384217
0.295456
0.302947
0.127932
0.324194
0.348889
0.363507
0.297075
0.260027
0.265377
0.191322
0.142918
0.318969
0.416591
0.216381
0.509415
0.150523
0.178646
0.235845
0.489934
0.201671
0.517317
0.307075
0.109722
0.325256
0.364162
0.224101
0.348577
0.154576
0.282501
0.281854
0.233291
0.144286
0.405885
0.132669
0.54132
0.253684
0.190368
0.304777
0.67018
0.3706
0.207181
0.241722
0.211214
0.380933
0.156732
0.46983
0.293778
0.288813
0.252254
0.260299
0.333564
0.145315
0.375651
0.282125
0.174578
0.336118
0.229281
0.622443
0.365458
0.182968
0.383202
0.710272
0.440623
0.279907
0.127041
0.300364
0.397539
0.272045
0.418328
0.385516
0.217149
0.442286
0.115379
0.261328
0.195954
0.530882
0.283943
0.27105
0.227483
0.175406
0.228508
0.264845
0.252398
0.345592
0.336319
1.0662
0.31947
0.355313
0.22084
0.195652
0.306756
0.199927
0.285755
0.328612
0.27071
0.27685
0.326397
0.307103
0.527306
0.25181
0.224519
0.172004
1.30097
0.280308
0.129033
0.281279
0.359261
0.259985
0.313423
0.323452
0.237201
0.340929
0.163922
0.335056
0.488708
0.176977
0.467295
0.140367
0.160081
0.192164
0.272053
0.281911
0.496453
0.373381
0.150144
1.76334
0.311643
0.33108
0.158114
0.245065
0.317362
0.235992
0.514834
0.192181
0.259873
0.146455
0.171118
0.210107
0.485374
0.246204
0.290176
0.245057
0.171446
0.45637
0.195964
0.167693
0.256365
0.385549
1.08866
0.299572
0.195922
0.363959
0.247864
0.545682
0.187509
0.356682
0.302601
0.383687
0.235966
0.302494
0.246084
0.246912
0.342183
0.285811
0.388448
0.30025
0.318637
0.193882
0.237613
0.3053
0.101398
0.156282
0.211727
0.211583
0.218391
0.139571
0.552501
0.17954
0.199892
0.397133
0.0861951
0.226076
0.162346
0.270317
0.360387
0.308644
0.282782
0.163034
0.32195
0.274285
0.14272
0.318426
0.45912
0.289437
0.28255
0.437534
0.280866
0.403905
0.223176
0.313143
0.325884
0.364553
0.479589
0.516222
0.22935
0.3965
0.145345
0.313699
0.721793
0.373945
0.166229
0.983886
0.42775
0.0681591
0.566999
0.291885
0.202552
0.352124
0.381684
0.19335
0.122478
0.683747
0.403168
0.814026
0.14613
0.273428
0.431129
0.376616
0.296797
0.215444
0.178306
0.116432
0.356382
0.178312
0.256203
0.168918
0.365032
1.58406
0.421456
0.227117
0.180164
0.415491
0.597067
0.199875
0.315245
0.272351
5.80654
0.331536
0.256512
0.374505
0.131728
0.281884
0.542813
0.333325
0.15477
0.242748
1.11057
0.301505
0.250457
0.218795
1.12911
0.305008
0.44532
0.345775
0.221475
0.165043
0.281538
0.206294
0.746093
0.234563
0.319982
0.583932
0.234943
0.255609
0.33796
0.285862
0.162362
0.476457
0.285896
0.257455
0.316079
0.288164
0.182955
0.137267
0.353745
0.286489
0.18358
2.65131
0.287817
0.478376
0.271491
0.54546
0.160305
0.155139
0.312384
0.373524
0.225417
0.123253
0.192916
0.16204
0.365805
0.325377
0.221192
0.569247
0.416726
0.321395
0.234697
0.19682
0.117707
0.637101
0.321018
0.190685
0.197629
0.330048
2.29665
0.26249
0.328568
0.115646
0.264153
0.373829
0.375447
0.307199
0.297948
0.137615
0.372008
0.587418
0.367074
0.282528
0.207799
0.291925
0.202869
0.214346
0.627497
0.19905
0.23385
0.397655
0.621686
0.24864
0.505938
0.253298
0.17267
0.173304
0.471289
0.394774
0.276961
0.370253
0.245521
0.264741
0.295257
0.2639
0.231222
0.237207
0.702333
0.279101
0.247384
0.185282
0.360295
0.170807
0.236159
0.311942
0.202038
0.373468
0.16236
0.18421
0.264257
0.299234
0.318097
0.366997
0.34619
0.250924
0.215435
0.258678
0.185043
0.461011
0.165855
0.342057
0.19233
0.338739
0.316609
0.304282
0.217644
0.238378
0.620881
0.32877
0.204378
0.308142
0.132034
0.230768
0.31862
0.166326
0.266358
0.409799
0.216204
0.380893
0.421241
0.294673
0.460408
0.32799
0.590418
0.376309
0.43745
0.338235
0.233787
0.240178
1.59901
0.216814
4.53107
0.185467
0.182837
0.269531
0.257005
0.366985
0.227107
0.460814
0.156148
0.424711
0.226593
0.203937
0.47994
0.18284
0.354297
0.213558
0.431717
0.521873
0.362222
0.265192
0.126705
0.164856
0.319149
0.376307
0.302259
0.486297
0.178287
0.258721
0.247311
0.268714
0.412053
0.325603
0.202322
0.31735
0.389887
0.304524
0.306617
0.165982
0.437628
1.74947
0.294091
0.29241
0.270372
0.161884
1.11306
0.160822
0.296305
0.219376
0.337465
0.896046
0.373018
0.231908
0.272816
0.418616
0.179497
0.241717
0.343478
0.390005
0.24909
0.261817
0.328311
0.236817
0.228988
0.387679
0.191923
0.244139
0.425584
0.250039
0.321926
0.263736
0.528701
0.342969
0.370834
0.258508
0.196876
0.325073
0.180673
0.166841
0.193491
0.13946
0.160822
0.262573
0.171024
0.128005
0.265506
0.573699
0.957033
0.152199
1.36584
0.249683
0.190971
4.93065
0.163569
0.355005
0.276316
0.176886
1.52164
0.229806
0.0578062
0.112681
0.401381
0.188435
0.280509
0.283775
0.941038
0.222538
0.135126
3.50725
0.348499
0.344724
0.185872
0.172916
0.249054
0.239784
0.581991
0.231151
0.233067
0.145131
0.2631
0.134307
0.279544
0.201138
0.178448
0.186571
0.149051
0.258749
0.39494
0.472436
0.618409
0.3353
0.134096
0.133483
0.368508
0.203595
0.248614
0.511432
0.400957
0.148112
0.391745
0.318916
0.215177
0.297424
0.264835
0.40587
0.247928
0.085799
0.352618
0.470043
0.290203
0.306462
0.142203
0.327411
0.379853
0.255153
0.354482
12.5145
0.473567
0.222806
0.487729
0.244953
0.323638
0.227366
0.157882
0.127887
0.219305
0.453884
0.221074
0.410344
0.127538
0.314684
0.364073
0.279383
0.215632
0.221246
0.151892
0.511692
0.322109
0.239802
0.242778
0.240181
0.231519
0.231485
0.292474
0.225575
0.318258
0.400339
0.30976
0.165051
3.89336
0.207462
0.560034
0.37683
0.174709
0.147686
0.319038
0.189523
0.158536
0.294111
0.280885
0.279055
1.31904
0.223608
0.432859
0.0581971
0.396218
0.452619
0.230571
0.429282
0.354638
0.244699
0.440071
0.324579
0.791072
0.296216
0.290837
0.352651
0.138039
0.58725
0.762113
0.168216
0.508206
0.139622
0.160224
0.18483
0.224348
0.164111
0.440409
0.277777
0.262634
0.211464
0.297943
0.345683
0.517574
0.29117
0.229535
0.120429
0.407477
0.690697
0.293675
0.260496
0.110167
0.311571
0.325149
0.259892
0.458038
0.185394
0.35602
0.265539
0.41216
0.269775
0.391431
0.4172
0.211991
0.0812345
0.278338
0.217246
0.165348
0.275303
0.210012
0.256222
0.461977
0.260462
0.387107
0.268092
0.234438
0.22827
0.196983
0.365299
0.211035
0.220756
0.186766
0.130026
0.208379
0.22283
0.23456
0.234335
0.085799
0.274098
0.232012
0.692037
0.320353
0.344261
0.111414
0.351337
0.310288
0.205233
0.234416
0.382397
0.123713
0.341836
0.192501
0.439977
4.73159
0.212437
0.26666
0.322672
0.130696
0.136258
0.205651
0.247876
0.392218
0.258959
0.24221
0.228107
0.24444
0.355971
0.125348
0.185249
0.23163
0.309411
0.268087
0.0962723
0.318067
0.317453
0.485467
0.282165
0.232335
0.157062
0.465038
0.114794
0.351624
0.312701
0.408176
0.240457
0.689666
0.314679
0.110059
0.225022
0.194782
3.02712
0.308067
0.262784
0.120535
0.245907
0.295457
0.387564
0.203563
0.964941
0.201001
0.279309
0.222907
0.158202
0.711169
0.426695
0.458114
0.162516
0.240109
0.308563
0.271905
0.207743
0.243425
0.10059
0.393345
0.221581
0.350355
0.338142
0.309233
0.617813
0.163567
0.192705
0.269332
0.17957
0.24108
0.341072
0.167062
0.184982
0.40321
0.428918
0.364614
0.407683
0.240755
0.532604
0.275027
0.295832
0.291503
0.26495
0.468099
0.454943
0.589888
0.153572
0.158308
0.201654
0.341935
0.249217
0.184307
0.164056
0.123902
0.143704
0.34512
0.776394
0.644696
0.227822
0.223562
0.135576
0.276356
0.265121
0.536291
0.297258
0.569216
1.92154
0.375636
0.256989
0.22407
0.36427
0.251005
0.367145
0.138982
0.251953
0.239677
0.15789
0.220115
0.34937
0.385835
0.15123
0.394498
0.373717
0.225099
0.149493
0.257432
0.225609
0.243179
0.269676
0.27587
0.207947
0.247793
0.253093
0.293754
0.28536
0.240659
0.2396
0.317504
0.193444
0.131623
0.231029
0.293181
0.240354
0.368935
0.141859
0.117397
0.365602
0.231367
0.138605
0.331302
0.335059
0.339377
0.169982
0.132303
0.192508
0.24051
0.287814
0.264957
0.253536
0.164869
0.187346
0.213279
0.281142
0.247908
0.361398
0.196313
0.198184
0.386379
0.415304
0.320983
0.292323
0.204407
0.496054
0.428373
0.240872
0.16362
0.165609
0.408964
0.139982
0.43905
0.118964
0.212357
0.436123
0.373137
0.500135
0.28278
0.346025
0.244307
0.400306
0.268442
0.373162
0.162312
0.259934
0.105571
0.142349
0.226387
0.196306
0.177442
0.404678
0.261656
0.316447
0.180209
0.217486
0.411149
0.522997
0.287155
0.307656
0.465376
0.368279
0.221129
0.241123
0.335574
0.178275
0.278412
0.234809
0.396998
0.296407
0.408535
0.180561
0.153163
0.267415
0.285679
0.11949
0.366023
0.250998
0.309802
0.828587
0.395051
0.409483
0.172961
0.357318
0.19159
0.432155
0.450377
0.386347
0.315425
0.319877
0.209254
0.266816
0.192152
0.206447
0.367425
0.327451
0.203571
0.208018
0.400314
0.171815
0.675222
0.419434
0.36361
0.473208
0.370529
0.496696
0.226564
0.265562
0.412198
0.824193
0.33987
0.143235
0.148883
0.219093
0.198824
0.219953
0.283592
0.289021
0.263876
0.255959
0.418622
0.32893
0.206579
0.236402
0.331406
0.403456
0.241139
0.514917
0.232253
0.142336
0.281605
0.205756
0.258675
0.288101
0.854194
0.215389
0.241031
0.187441
0.493573
0.427439
0.19541
0.433385
0.158948
0.362417
0.125879
0.161957
0.383068
0.179855
0.233481
5.9406
0.451253
0.321177
0.277145
0.237947
0.272454
0.147017
0.252543
0.248563
0.152309
0.29896
0.195399
0.662683
0.256079
0.263124
0.351351
0.335981
0.321909
0.221226
0.575469
0.256783
0.157342
0.542157
0.150716
0.336728
0.286001
0.141489
0.23442
0.250781
0.141307
0.14042
0.298344
0.339393
0.177005
0.255016
0.149797
0.345282
0.310583
0.306924
0.493767
0.310383
0.215251
0.440005
0.40002
0.332423
0.648911
0.392541
9.76082
0.476764
0.434178
0.463445
0.285151
0.255776
0.324836
0.288984
0.257526
0.366652
0.194319
0.429096
0.30239
0.224353
0.490241
0.275059
0.94437
0.291707
0.332634
0.211995
0.303356
0.298873
0.346858
1.0291
0.280296
0.263934
0.394943
0.154779
0.346041
0.278254
0.11325
0.126352
0.220519
0.245213
0.190145
0.146304
0.530494
0.377869
0.289184
0.351038
0.355041
0.353111
0.406894
0.364519
0.341244
0.285596
0.312752
0.366535
0.187048
0.366109
0.219254
0.283765
0.272336
0.310993
0.390263
0.143345
0.560028
0.227933
0.261626
0.559982
0.201694
0.259326
0.0919283
0.336795
0.306773
0.270329
0.570163
0.298963
0.208692
0.272627
0.212177
0.14098
0.169562
0.58706
0.389564
0.395935
0.487128
0.345126
0.228551
0.191129
0.573667
0.248109
0.411892
0.176364
0.191955
0.220552
0.143808
0.340986
0.346295
0.276353
1.94225
0.254298
0.416095
0.317765
0.474802
0.210318
0.39481
0.291025
0.34875
0.134345
0.216582
0.150162
0.214981
0.303368
0.174832
0.232276
0.21321
0.300035
0.326579
0.250218
0.23935
0.373586
0.366424
0.337105
0.232839
0.170569
0.394374
0.242689
0.321848
0.248442
0.234801
0.212819
0.227019
0.266572
0.201534
8.28374
0.116448
0.16517
0.196757
0.177604
0.281435
0.24912
0.163387
0.230049
0.557552
0.138796
0.215357
0.192282
0.240152
0.380326
0.101376
0.165203
0.212013
0.232116
0.162695
0.296811
0.241018
0.479248
0.865352
0.527826
0.287116
0.201038
0.31176
0.363835
0.135161
0.175759
0.353265
0.351187
0.176262
0.285485
1.1904
0.348452
0.496994
0.183789
0.127751
0.351934
0.301665
0.268903
0.191466
0.231761
0.428357
0.486139
0.218863
0.194461
0.433112
0.322215
0.213663
0.361725
0.143264
0.477245
0.111769
0.218481
0.416088
0.292007
0.193772
0.611765
2.29268
0.273607
0.183708
0.630475
0.461476
6.28153
0.147389
0.363271
0.206524
0.338961
0.233171
0.336431
0.392489
0.204915
0.131834
0.141701
0.124252
0.278651
0.3283
0.393892
0.258586
1.27161
0.186031
0.292263
0.313366
0.637368
0.244945
2.93638
0.15989
0.329963
0.162349
0.44375
0.21815
0.218536
0.0990678
0.272217
0.238975
0.317387
0.501514
0.343722
0.385538
0.312867
0.267877
0.148365
0.229097
0.39209
0.481441
0.365974
0.239222
0.209111
1.19917
0.516237
0.506852
0.111288
0.48117
0.238078
0.662188
0.254915
0.311598
1.89911
0.393022
0.253802
0.183427
0.278265
0.158891
0.413107
0.311771
0.184247
0.150355
0.28862
0.335343
0.318867
0.346087
0.265672
0.341752
0.240723
0.185468
0.304216
0.395807
0.284168
0.157709
0.427435
0.321707
0.295195
0.284463
0.278668
0.465414
0.367159
0.45114
0.29285
0.139205
0.527864
0.469035
0.289796
0.283783
0.268829
0.207435
0.23906
0.266964
0.14751
0.391253
0.231923
0.115403
0.158305
0.211165
0.236848
0.376054
0.332824
0.504578
0.250411
0.327717
0.191793
0.207667
0.179931
0.18554
0.276943
0.384191
0.128745
0.196212
0.40031
0.170293
0.333011
0.246479
0.307866
0.634002
0.328434
0.205227
0.15638
0.329653
0.22568
0.347259
2.46254
0.267064
0.365069
0.19269
0.460131
0.208803
0.355473
0.320478
0.4207
0.222153
0.259007
0.259774
0.220654
0.328706
0.270101
0.30161
0.270058
0.689482
0.218406
0.446049
0.103945
0.158136
0.285474
0.1642
0.296807
0.252919
0.106574
0.22054
0.406172
0.352865
0.170893
0.257277
0.313459
0.393424
0.505735
0.323502
0.353731
0.295202
0.189854
1.32365
0.478076
0.253147
0.252347
0.147842
0.14839
0.125463
0.154488
0.256667
0.436062
0.334822
0.600688
0.280137
0.228657
0.335068
0.146299
0.393475
0.189733
0.313103
0.159109
0.327722
0.330069
0.211286
0.297646
0.179484
4.31167
0.136013
0.19125
0.155971
0.411582
0.233303
0.317713
0.308725
0.301177
0.230313
0.153906
0.125448
0.275961
0.183048
0.561074
0.300662
0.133388
0.410895
0.118379
5.64469
0.709311
0.318334
0.474229
0.139362
0.354077
0.126582
0.259606
0.260791
0.210747
0.344635
0.412593
0.280888
0.300147
0.149455
0.114139
0.235904
2.55618
0.342974
0.238201
11.7077
0.22816
0.277184
0.333433
0.200635
0.289878
0.220692
0.222477
0.138244
0.459424
0.208952
0.347273
0.196308
0.40685
0.304251
0.228803
0.312715
0.218263
0.311778
0.196619
0.263545
0.46157
0.334066
0.307179
0.301251
0.51409
0.476811
0.342305
0.43056
0.300709
0.261164
0.386385
3.44874
0.177006
0.22286
0.56273
0.150402
0.34751
0.427491
0.268557
0.312373
0.249865
0.255578
0.199781
0.322152
0.349032
0.346531
0.46539
0.490272
0.260598
0.420213
0.219013
0.280349
0.231135
0.410731
0.135044
0.240838
0.187079
0.36195
6.81962
0.388614
0.271787
0.378107
0.254491
0.228949
0.633902
0.700352
0.604749
0.450639
0.302615
0.456832
0.281825
11.2374
0.227551
0.627463
0.21361
0.232754
0.851367
0.145033
0.208748
0.199448
0.538424
0.282505
0.159838
0.229127
0.370951
0.279059
0.330861
0.331167
0.291145
0.288852
0.282427
0.385529
0.294595
0.100891
0.118877
0.586701
0.387764
0.226589
5.80976
0.293718
0.34037
0.341938
0.364628
0.343495
0.287802
0.273551
0.273766
0.234063
0.301684
0.230749
0.274266
0.251765
0.295825
0.105356
0.266659
0.280121
0.265394
0.188134
0.789682
0.212627
0.30534
0.26147
0.148967
0.0772111
0.281171
0.302829
0.177537
0.284051
0.158501
0.157627
0.392173
0.229914
0.27791
0.262319
0.329681
0.209567
0.173355
0.282941
0.348657
0.241516
0.363628
0.271196
0.530681
18.2154
0.523085
0.254203
0.195268
0.137811
0.353468
0.186282
0.218017
0.370351
0.293876
0.225544
0.19257
0.267069
0.161342
0.228151
0.307333
0.193211
5.06245
0.310645
0.149274
0.331826
0.175963
0.221068
0.262645
0.34571
0.326043
0.392505
0.166642
0.317483
0.0884694
0.369972
0.187991
0.401231
0.349219
0.412914
0.655676
0.515974
0.240332
0.249568
0.265512
0.464517
0.180204
0.186346
0.202135
0.106929
0.226967
0.210155
0.0979105
0.406396
0.149604
0.297672
0.400174
0.218097
0.211662
0.217156
0.261162
0.351677
0.522182
0.132715
0.35943
0.317342
0.252198
0.147593
0.343053
0.487954
0.159659
0.159484
0.219766
0.272306
0.285329
0.367563
0.552513
0.219842
0.349094
0.328428
0.258684
0.289468
0.201896
0.200291
0.248482
0.293155
0.0953801
0.329843
0.201082
0.210603
0.321032
0.200027
0.270543
0.735957
0.165414
0.135393
0.325985
0.34434
0.14158
0.403476
0.230854
0.203411
0.186014
0.281825
0.21009
0.17507
0.343702
0.145919
0.205859
0.241888
0.108474
0.276285
0.306698
0.427389
0.264511
0.281047
0.562954
0.33718
0.466604
0.11709
0.202262
2.75013
0.106682
0.316202
0.204465
0.161003
0.332378
0.143732
0.14644
0.492346
0.428097
0.224597
0.355615
0.223884
0.445555
0.232047
0.284876
0.204859
0.218206
0.0943688
0.187385
0.237733
0.1881
0.454443
0.290898
0.257044
0.274257
0.257121
0.484453
0.270668
0.312299
0.312212
0.221955
0.211261
0.158598
0.29142
0.363207
0.227389
0.541259
0.142002
0.285582
0.251614
0.208805
0.341827
0.182886
0.240319
0.334002
0.141653
0.190402
0.123411
0.309735
0.139068
0.297539
0.309163
0.226577
0.257525
0.241999
0.401304
18.558
0.240129
0.199051
0.381417
0.397986
0.156625
0.359199
0.223345
0.241529
0.244051
0.416001
0.32653
0.619111
0.308411
0.218652
0.290622
0.396405
0.401854
0.179313
0.36183
0.270246
0.855673
0.25588
0.245615
0.270488
0.276641
0.206646
0.379546
0.265991
0.270073
0.312465
0.154455
0.317827
0.222965
0.504601
0.312086
0.221725
0.254856
0.307199
0.209941
0.252757
0.807786
0.274447
0.756595
0.207788
0.414877
0.456885
0.234127
0.352369
0.147505
0.176075
0.596619
0.300166
0.258219
0.265797
0.283923
0.459349
0.151079
0.424161
0.107202
0.476931
0.310782
0.284243
0.235599
0.281701
0.201037
0.149631
0.412634
0.379584
0.208052
0.301349
0.394937
0.351074
0.175774
0.513156
0.209519
0.524553
0.28003
0.168427
0.306364
0.232557
0.558402
0.179134
0.265969
0.130678
0.151531
0.45099
0.526079
0.269144
0.398126
0.253252
0.367187
0.336122
0.34748
0.287049
0.195784
0.342217
0.436402
0.374261
0.187055
0.295283
0.191788
0.648808
0.269116
0.35742
0.162955
0.254558
0.441502
0.279145
0.397626
0.324747
0.3514
0.301365
0.422171
0.193464
0.194078
0.321962
0.37255
0.5328
0.290068
0.287253
0.175063
0.282054
0.323584
0.225903
0.147283
0.323582
0.170963
0.293367
0.38634
0.558505
0.193676
0.174251
0.264861
0.288186
0.461627
0.322025
0.189103
0.324463
0.30934
3.38279
0.527017
0.31173
0.314934
0.284015
0.167898
2.36846
0.141346
1.91127
0.226946
0.206752
0.218649
0.32031
0.410394
0.377473
0.577226
0.286391
0.216325
0.350643
0.542033
0.188288
0.160437
0.312249
0.557457
0.170086
0.353268
0.250429
0.233889
4.14198
0.169326
0.406268
0.218828
0.162009
0.231991
0.282042
0.364015
0.404838
0.212062
0.282475
0.358927
0.267673
0.294142
0.247017
0.260919
0.40592
0.173087
0.301103
0.217268
0.130405
0.29705
0.259904
0.327716
0.264544
0.392852
0.220133
0.391472
0.245615
0.193633
0.14101
3.19172
0.265167
0.355401
0.0873014
0.337971
0.359184
0.354145
0.216782
0.3903
0.11083
0.230618
0.144525
0.281407
0.297475
0.155567
0.220625
0.255015
0.258682
0.197466
0.17608
0.366195
0.216737
0.227328
0.163833
0.283554
0.294266
0.239288
0.0970184
0.451739
0.347141
0.238382
0.269057
0.149806
0.39796
0.281181
0.210692
0.325741
0.281198
0.414652
0.166146
0.169936
0.268409
0.498471
0.157287
0.15639
0.406075
0.38019
0.275634
0.253988
0.231164
0.147711
0.185441
0.215301
0.0978737
0.252692
0.33381
0.366582
0.32124
0.234087
0.211583
0.294253
0.326239
0.235166
0.237027
0.242043
0.266643
0.249461
0.218104
0.261429
0.271664
0.338568
0.277879
0.443937
0.254018
0.253167
0.230493
0.420371
0.281383
0.184342
0.260936
0.209537
0.177842
0.390906
0.387268
1.81365
0.506765
0.254807
0.157208
0.231609
0.165857
0.221463
0.325331
0.371978
0.239528
0.731463
0.285995
0.240671
0.33967
0.303372
0.398333
0.244944
0.236786
0.143315
0.210288
0.357323
0.350661
0.496349
0.368591
0.360221
0.231294
0.440483
0.200982
0.338188
0.139222
0.302513
0.207506
0.244647
0.277048
0.458492
0.287266
0.585374
0.145189
2.02035
0.206737
0.414469
2.24693
1.05945
0.400165
2.716
0.217435
0.169181
0.174443
0.300404
0.203513
0.414879
0.544172
0.273279
0.325538
0.309269
0.230349
0.286865
0.362536
0.207595
0.117465
0.208889
0.185943
0.240145
0.135051
0.283839
0.425732
0.268565
0.419937
0.309855
0.292119
0.367841
0.24106
0.201948
0.120564
0.34245
0.226008
0.346407
0.185645
0.387544
0.218746
0.259638
0.619487
0.470323
0.276563
0.204471
0.231399
0.264487
0.291611
0.237432
0.162529
0.216414
0.287156
0.154729
0.119148
0.335518
0.198195
7.11705
0.224721
0.21651
0.365079
0.262951
0.436882
0.408875
0.761769
0.206619
0.346026
0.217039
0.369573
0.133316
0.268281
0.360123
0.368253
0.164966
0.315938
0.294615
0.355734
0.435234
0.181204
0.821329
0.221179
0.265423
0.530552
0.365487
0.157145
0.207736
0.190904
0.492407
0.252125
0.712921
0.473132
0.164627
0.368971
0.192128
0.285196
0.281568
0.291692
0.466048
0.188005
0.427074
0.196234
0.320685
0.346971
0.295671
0.389467
0.68354
0.254562
0.23385
0.209052
0.251265
0.351384
0.384836
0.15783
0.353317
0.156064
0.289664
0.300074
0.298595
0.155745
0.247797
0.149305
0.182546
0.104488
0.447945
0.280539
0.22418
0.425433
0.157347
0.0712645
0.668159
0.230223
0.306939
0.109439
0.308046
0.374505
0.293508
0.365492
0.338166
0.211147
0.392933
0.246664
0.155371
0.11368
0.14314
0.0978922
0.265891
0.237891
0.233344
0.146094
0.236623
2.84043
0.199864
0.164329
0.36244
0.262448
0.175102
0.157753
0.231491
0.206015
0.396978
0.243067
6.11789
0.348952
0.184537
0.744324
0.294012
0.461984
0.336585
0.334009
0.252399
0.213981
0.740176
0.211858
0.405757
0.230877
0.198928
0.198557
0.233644
0.206725
0.134849
0.150584
0.0800843
0.124283
0.157863
0.452956
0.320982
0.342925
0.329692
0.22349
0.555705
0.205381
0.379958
0.243327
0.299474
0.293288
0.253537
0.229232
0.448023
0.180937
0.265315
0.161536
0.178605
0.258877
0.495667
0.302159
0.346704
0.385016
0.46791
0.259568
0.274317
0.357075
0.246972
0.278793
0.385515
0.223939
0.263175
0.440393
0.381597
0.373662
0.31699
0.21464
0.293652
0.133377
0.272114
0.244528
0.250275
0.592306
0.265562
0.495391
0.362117
0.24856
0.185658
0.185372
0.597021
0.243916
0.247575
0.40031
0.179778
0.432689
0.286884
0.2406
0.224926
0.497536
0.164363
0.856933
0.127619
0.308178
0.21182
0.348488
0.933946
0.281386
3.92805
0.139499
0.188857
0.505663
0.206557
0.214825
0.174939
0.250801
0.256255
0.310733
0.363448
0.251833
0.256274
0.15088
0.134497
0.232889
0.192258
0.202117
0.313322
5.02972
0.648221
0.413357
0.694123
0.180034
0.125527
0.345941
0.287332
0.312828
0.315998
0.191625
0.421039
0.535008
0.538492
0.37567
0.296224
0.429048
0.267969
0.332885
0.335004
0.221205
0.196344
0.413482
0.320055
0.319488
0.452994
0.241898
0.387826
0.362759
0.250576
0.170639
0.350387
0.27374
0.188689
0.383447
0.375467
0.318889
0.366794
0.292372
0.147807
0.135346
0.164579
0.157001
0.344717
0.491937
0.313913
0.149607
0.167697
0.271618
0.151769
0.315641
0.195295
2.29081
0.158537
0.133899
0.255018
0.18459
0.105168
0.500242
0.341733
2.62212
0.328736
0.182133
0.251464
0.393586
0.264412
0.40852
0.189503
0.299389
0.177703
0.38639
0.299099
0.192614
0.336813
0.168869
0.367673
0.194471
0.230953
0.241134
1.06682
0.284235
0.235864
0.469204
0.311285
0.2509
0.289978
0.453987
0.369794
0.381942
0.324744
0.462035
0.152167
0.260056
0.25964
0.302428
0.189199
0.192574
0.251952
0.280072
0.149266
0.425994
4.16538
0.188783
0.201871
0.251425
0.30123
0.298266
0.762292
0.115002
1.56088
0.557413
0.185831
0.218347
0.210913
0.313847
0.371776
0.186043
0.386389
0.577837
0.150282
0.154638
0.249604
1.00889
0.205459
0.402023
0.320954
0.358212
0.202675
0.300768
0.111438
0.248582
0.322973
0.21713
0.126412
0.447782
0.208131
0.196272
0.220654
0.429214
0.198711
0.175376
0.37828
0.403545
0.280864
0.298378
0.201821
0.263641
0.317052
0.182853
0.346964
0.211654
0.254614
0.418344
5.28934
0.21676
0.368589
6.23503
0.531857
0.16728
0.302294
0.190624
0.404922
0.161059
0.53823
0.231034
0.217225
0.336641
0.372116
0.246401
0.349649
0.30718
0.315948
0.276631
0.328472
0.104604
0.229241
0.10632
0.165552
0.247405
0.279093
0.474273
0.389538
0.397045
0.239803
0.203437
0.162339
0.30294
0.273223
0.363919
0.306337
0.33539
0.186102
0.308686
0.362984
0.197643
0.215177
0.367675
0.351835
0.272572
0.158944
0.221103
0.330786
0.214058
0.281862
0.653416
0.256953
0.218283
0.198436
0.240334
0.329775
2.65508
0.199893
0.394081
0.127105
0.15131
0.557868
0.238208
0.39991
0.340692
0.182603
0.648192
0.218285
0.264489
0.253546
0.2237
0.445223
0.231159
0.22759
0.601037
0.27414
0.350719
0.219634
0.184001
0.462486
0.274913
0.261551
0.348411
0.259491
0.265912
0.259613
0.587429
0.353636
0.433654
0.340321
0.346162
0.205788
0.25315
0.160321
0.413991
0.249706
0.304947
0.519692
0.258715
0.483892
0.155346
0.216444
0.22
0.190021
1.39462
0.310467
0.459181
0.230715
0.202827
0.119447
0.33213
0.262401
3.9274
0.214771
0.266036
0.280324
0.419257
0.191375
0.188329
0.287644
0.378904
0.369329
0.247917
0.198106
0.758063
0.111685
0.337605
0.211649
0.653391
0.146634
0.307517
0.730072
0.217474
0.297657
0.431373
0.218478
0.479112
0.162058
0.321103
0.426122
0.220693
0.265758
0.307654
0.284986
0.20165
0.317666
0.397585
0.300932
0.294096
0.260235
0.146243
0.135054
0.324001
0.383549
0.139462
0.199105
0.282019
0.522556
0.227192
0.161442
0.367958
0.281384
0.191535
0.24022
0.80555
0.168452
0.645255
0.248537
0.150949
0.315539
0.455717
0.302618
0.360264
0.241999
0.143362
0.281663
14.1955
0.293225
0.556194
0.255911
0.287133
0.380634
0.382772
1.14632
0.386387
0.610301
0.403949
0.140581
0.533368
0.129709
0.233976
0.380365
0.326253
0.208176
0.239835
0.151174
0.44285
0.404072
0.223187
0.220957
0.189165
0.323978
0.169672
0.33303
0.278542
0.174401
0.367661
0.242328
0.171209
0.240878
0.201052
0.1687
0.317179
0.364289
0.223238
0.400581
0.208403
0.209035
0.163243
0.26457
0.179086
0.188085
0.180169
0.325495
0.245405
0.204718
0.220853
0.293371
0.275727
0.172323
0.193467
0.345408
0.134776
0.152745
2.31161
0.214457
0.276877
0.107495
0.325399
0.372809
0.287794
0.396173
0.470637
0.48066
0.507556
0.121777
0.227274
0.23379
0.199725
12.3947
0.267794
0.416783
0.701995
0.244956
0.224041
0.277884
0.448989
0.153425
0.272471
0.495749
0.545337
0.311764
0.187307
0.147294
0.247358
0.323994
0.192353
2.56371
0.31214
0.196357
0.351995
0.242056
0.389674
0.301937
0.20736
0.212269
0.267526
0.23251
0.722702
0.251531
0.237902
0.453242
0.19348
0.137247
0.217
0.425459
0.581955
0.295184
0.373631
0.098329
0.242769
0.114604
0.136147
1.19058
0.437046
0.228022
0.333933
0.250423
0.228897
0.223616
0.390185
0.117443
0.274014
0.311975
0.367454
0.120693
0.272869
0.258979
0.309132
0.205597
0.527321
0.358183
0.262508
0.48975
0.235438
0.185575
0.413916
0.338229
0.286265
0.242229
0.207982
0.422174
0.129978
0.233132
0.199356
0.378063
1.77957
0.267008
0.343041
0.159243
0.321037
0.318683
0.179575
0.233757
0.259714
0.211129
0.26108
0.334504
0.163468
0.279649
0.46447
0.168749
0.488631
0.25617
0.17477
0.209652
0.502943
0.152663
0.352705
0.220164
0.283697
0.200898
0.358512
0.217668
49.1814
0.249575
0.225687
0.577787
0.289095
0.194392
0.305958
0.492639
0.212944
0.179998
0.393625
0.692615
0.294642
0.290566
0.335421
0.44527
0.348574
0.259879
0.205331
0.236767
0.267568
0.384478
0.149966
0.2598
0.398766
0.506915
0.179343
0.433549
0.153069
0.272918
0.218075
0.184206
0.244166
0.430118
0.337285
0.317463
0.25226
0.282962
0.239649
0.120724
0.222789
0.293538
0.223026
0.312747
0.159233
0.182203
0.324976
0.38806
0.69892
0.231761
0.268116
0.181004
0.204256
0.384476
0.246692
0.392866
0.346313
0.656632
0.410792
0.230008
0.218575
0.123148
0.274709
0.146648
0.29069
0.298761
0.231731
0.198184
0.260129
0.194393
0.319609
0.410165
0.213293
0.15945
0.150696
0.392689
0.379044
0.289875
0.222247
0.206216
0.121881
0.277698
2.73128
0.402666
0.646781
0.391274
0.198032
0.154963
0.475459
0.207316
0.360908
0.32727
0.360205
0.29938
0.334581
0.282694
0.409308
0.201617
0.156355
0.186651
0.373582
0.129996
3.18092
0.223841
0.308083
0.142373
0.565146
0.510354
0.327198
0.125361
0.37089
0.342993
0.333573
0.266297
0.243357
0.333969
0.404205
0.140142
0.0977067
0.192383
0.302589
0.127892
0.314802
0.191489
0.231925
0.33601
0.304661
0.165422
0.260088
0.408677
0.334549
0.449718
0.483835
0.519543
0.259324
0.317359
0.977624
0.251018
9.70689
0.303155
0.940288
0.325415
0.127046
0.167464
0.297285
0.502716
0.152858
0.13819
0.249859
0.258877
0.213421
0.419125
0.21769
0.788784
0.257349
0.60734
0.527559
0.178308
0.189083
0.302664
0.39215
0.337372
0.234548
0.181646
0.295118
0.2456
0.191989
0.278051
0.214571
0.262017
0.392478
0.210378
0.186357
0.301856
0.368738
0.174038
0.234751
0.285678
0.213813
0.274275
0.400341
0.156181
0.156619
0.137931
0.265339
0.217926
0.415629
0.389404
0.209773
0.22536
0.186495
0.204069
0.253506
0.286007
0.271257
1.05185
0.263125
0.340315
0.361966
0.446226
0.191959
0.354051
0.543567
0.115522
0.0912406
0.200712
0.167006
8.31201
0.457078
0.261004
0.178631
0.13216
0.289433
0.458941
0.195376
0.229619
0.289786
0.197478
0.31883
0.202112
0.47541
0.379649
0.164573
0.608032
0.379859
0.52234
0.283503
0.325154
0.16926
43.215
0.187735
0.315626
0.354034
0.210153
0.397891
0.227427
0.374036
0.388802
0.862962
0.366555
0.212395
0.243415
0.636273
0.159787
0.237942
0.404582
0.158372
0.202727
0.0895786
0.329047
0.197866
0.159993
0.480066
0.355626
0.238921
0.298501
0.155245
0.261069
0.595413
0.372208
0.171109
0.135516
0.170567
0.267348
0.118442
0.464483
0.211935
0.505558
0.275972
0.18191
0.351637
0.285232
0.322679
0.172059
0.171567
0.237632
0.213181
0.172838
0.330075
0.414219
0.398977
0.397372
0.250347
0.258297
0.163454
0.249148
0.630917
0.37719
0.41013
0.240808
0.164065
0.248133
0.219563
0.210751
0.251118
0.121389
0.351642
