1.7954
5.09749
18.07
22.4513
10.2189
24.8157
0.366986
1.0789
5.97357
2.54817
2.29527
4.98816
32.7397
3.27855
2.69243
29.886
14.3241
2.22075
4.93576
9.65244
0.497648
0.386865
6.75077
13.5459
15.1718
4.15853
8.50371
1.92483
3.94919
3.34756
3.55093
3.95458
6.43144
2.21583
7.09644
8.7854
2.49696
3.4
10.3517
5.28348
9.86875
3.88242
13.9957
5.09085
6.46333
0.563507
29.6577
6.96663
5.5056
4.09984
1.87395
9.29733
3.54774
6.12153
1.49183
1.93717
3.56013
14.5194
3.46893
0.576293
4.36844
8.03012
14.2572
10.8057
8.79091
3.67346
32.445
2.13772
7.40983
6.04616
2.53671
0.637766
0.371312
16.4672
2.3748
7.33849
0.658256
1.4386
12.9392
2.53532
2.61867
1.44156
6.37158
6.04674
5.80933
11.9336
0.546595
8.03136
2.04117
1.82408
0.372904
7.15388
5.73889
5.50331
6.36496
32.9278
7.50845
15.5928
1.93897
3.03173
5.63636
3.65573
0.811167
5.79745
13.9573
2.9446
0.644404
1.32333
2.85899
11.4092
8.40724
11.3998
6.63302
9.26355
4.87777
3.13768
4.4653
5.41768
3.23166
2.73844
12.3677
2.00489
15.7096
4.50634
2.18795
1.58873
2.11253
0.47225
0.524652
19.0024
4.90888
1.12408
12.4341
9.05849
5.97806
0.687397
12.9552
1.25401
1.84751
2.73493
7.82224
11.7097
9.27243
9.50246
2.57479
3.2785
0.707478
8.65962
17.1781
2.01579
0.515396
5.58
1.01347
2.6442
1.22068
12.893
4.20307
1.4252
33.7043
3.98693
0.376134
0.564661
7.64235
6.63787
3.69837
5.92018
2.65376
4.10457
14.0052
15.3408
3.02537
13.2005
6.55435
0.499563
3.70437
6.73037
10.5406
19.1787
11.6833
7.63131
12.0228
4.61008
1.13984
4.75147
10.3765
5.73778
3.90513
2.46183
5.87155
2.41262
4.70421
1.42752
6.6253
6.40089
0.580892
8.49108
2.201
5.25548
0.391939
1.8447
10.6804
2.87999
1.18654
1.03933
1.24307
9.44755
3.54061
5.54094
2.15959
12.2553
18.1392
4.10037
4.16055
2.10068
6.37504
7.58616
1.61805
3.24929
11.2666
1.77826
0.541591
5.21593
1.91488
15.6773
10.3086
9.61644
14.3269
1.69446
6.36423
5.78764
3.46363
14.4332
9.5532
2.01899
1.37723
4.22143
0.822028
6.68167
2.91884
4.03009
1.53735
8.40644
12.7058
0.928085
8.45967
14.0002
4.46494
7.51412
10.4122
10.6746
2.42466
3.44587
4.8824
8.62894
1.33308
0.500375
10.5935
3.00949
5.75898
6.52129
16.2429
3.68934
1.9091
3.0719
3.85677
3.53876
2.77064
11.6033
1.9578
1.30713
9.52933
3.9108
4.33217
1.56127
10.179
6.47036
4.62756
1.94031
0.600968
4.22758
1.35725
1.62965
38.5688
5.69274
21.2572
7.41826
18.9496
4.15426
4.48765
2.92673
6.27368
6.09532
11.4892
4.38764
0.675436
17.8785
4.96682
23.7112
6.38778
2.57377
3.34736
1.24721
2.76707
11.7385
0.982026
5.27899
1.30455
2.95736
11.6045
1.37755
2.9151
15.6304
3.32712
5.5274
0.674182
3.76559
5.06832
4.22483
10.2366
10.2206
23.9767
0.772758
3.74713
1.26047
1.694
16.177
15.766
17.5107
20.4577
2.49103
10.061
0.491574
0.821502
0.613989
4.13954
3.66652
0.599049
13.6619
1.5399
4.33752
1.81921
17.1597
3.34688
5.6411
3.16577
25.164
5.78266
1.18209
2.10333
2.42541
5.18761
4.70897
3.59053
5.70688
14.6888
4.5674
11.2728
13.986
6.6506
17.9071
9.27815
6.29655
21.6955
6.68071
5.07041
0.540515
2.16362
1.59815
12.3621
7.49395
1.52745
5.0596
12.3034
7.31784
7.09844
5.50893
13.4039
4.41989
16.1085
4.78136
8.73334
15.9409
0.598376
6.70418
12.5977
4.05919
13.8932
5.12638
48.5648
9.46106
13.0699
10.717
6.91828
0.302233
7.79846
7.34223
6.49985
2.16544
0.317676
2.23992
23.5416
16.2596
4.53903
10.5946
3.51983
3.43701
4.49862
7.14221
5.0992
2.22043
12.9504
1.46516
6.41436
13.5805
5.31271
3.41906
17.6737
4.4232
1.1999
14.5745
6.22562
5.94878
4.48695
10.171
4.11241
5.57827
15.6202
17.8764
3.62638
7.15888
10.0534
2.77409
4.76704
8.23845
4.14417
11.3017
2.17651
1.83162
29.4657
5.41482
3.67581
4.17081
2.72349
12.6211
4.13611
2.79223
6.9642
4.70373
3.52003
2.47856
3.30837
8.31156
16.5519
21.3205
3.41728
12.5244
14.9991
7.93832
2.87079
8.32846
17.6636
3.51565
3.95348
6.14247
27.7261
3.36722
5.53627
5.12518
13.2181
8.28374
13.9466
16.6505
12.9195
5.93427
11.0241
7.74723
10.9793
7.82241
7.18018
5.14118
1.96609
2.84612
12.8989
2.81015
5.48516
0.973082
18.6715
3.02709
24.9647
1.90356
10.2203
1.74946
9.15102
4.91774
2.28867
3.52032
9.73817
3.9852
9.22469
8.95644
1.17834
7.07137
8.8422
3.65459
1.72641
0.456691
17.9321
1.60692
3.57105
6.25608
1.77291
20.1794
4.02101
0.443471
9.24953
1.28902
2.60615
7.06577
5.88496
10.8869
9.29303
2.52087
1.70084
1.313
3.81296
3.40081
11.9662
1.26894
1.97789
10.0245
0.469176
8.90656
9.87258
4.02936
8.61333
0.756373
27.191
15.5416
17.1722
6.73484
1.19705
3.49073
19.8198
7.74498
8.5287
10.4435
1.40078
1.15257
2.94514
5.63531
3.26301
4.74179
15.2443
1.64357
10.0158
4.38069
10.5003
0.459005
2.97276
5.33688
0.391562
10.0276
3.07327
3.61891
7.10836
8.1528
14.6487
2.17831
1.47629
29.2768
3.55704
6.99228
4.97854
6.6388
1.47593
5.56887
3.8805
1.90129
26.4461
6.12007
4.50565
6.96728
0.440315
4.60535
11.2987
3.18752
0.560383
16.9843
17.2257
3.73505
6.91094
5.79202
0.492225
4.2895
4.237
12.6582
4.92455
3.03204
9.77931
11.9686
9.92524
17.7051
13.5651
8.18202
4.8331
3.18453
4.2833
3.6167
2.62156
2.83477
3.56464
12.0946
0.389307
6.26463
16.561
7.41352
12.8214
6.44104
14.6777
3.43011
1.49687
3.13922
3.64161
2.78578
11.9652
5.55664
12.5
10.7695
5.09666
5.16241
4.21887
12.3442
1.50844
15.2865
10.7452
15.2402
8.89445
2.18637
0.710868
0.901525
2.3457
3.51451
12.6724
4.49732
2.37691
25.8149
1.47235
4.418
0.835252
3.89271
9.01897
13.695
6.02999
10.8392
2.41195
8.78413
3.50363
1.65061
3.57646
1.37043
5.64103
15.8079
1.21122
10.0111
3.77371
8.64279
5.80133
0.399035
9.41151
14.9053
2.39486
10.1959
12.4814
3.16892
4.45872
1.96991
23.1084
16.0264
4.26802
7.27813
5.49599
10.0074
1.51766
17.0767
4.46147
6.25365
29.5206
12.837
24.225
20.2685
0.852478
5.88138
10.0377
17.3254
0.399312
7.91664
11.7733
12.8688
1.59144
0.555502
2.04892
5.85976
17.5706
26.7413
5.27245
9.89378
4.9381
15.5649
8.17272
4.90085
7.37776
0.537084
6.00147
6.74349
3.09661
10.2033
7.08069
0.763857
5.99227
10.0028
3.5874
6.64452
7.05656
0.896156
24.9485
3.42611
6.91985
8.47818
5.91083
12.1022
1.22474
13.3963
6.09758
2.63319
5.52804
3.22821
16.6936
1.26952
8.42451
8.55083
12.8047
2.28857
9.78915
1.27494
3.41027
0.580999
3.92419
3.8928
5.56712
5.21514
7.0631
8.87885
5.58641
1.8608
2.22785
10.9776
2.74213
5.39642
2.60018
6.23267
0.639798
4.40095
1.07928
3.46614
5.3386
0.424863
22.1948
15.1328
7.67055
3.56167
14.8478
5.23014
5.57175
2.40638
1.43173
4.22099
13.9567
7.90173
2.30236
12.3105
1.63579
9.1451
2.13403
1.40527
5.86219
5.99732
2.52952
4.26936
1.02136
29.3635
9.12626
18.7524
4.85133
2.96633
4.69361
2.23142
5.24277
3.11874
3.71075
6.13107
8.08999
3.01593
12.0073
11.1876
3.16985
3.0954
10.3089
9.37507
0.718756
3.05278
6.69454
1.03435
2.7124
14.9404
1.29779
0.853695
9.64075
10.5213
0.392741
1.41668
4.97763
5.15997
15.0985
21.3496
6.76506
6.15031
2.80794
6.31606
18.8346
4.99896
1.09276
0.693256
4.71319
20.5848
2.91438
15.8282
5.65545
4.50501
5.00702
6.99213
10.785
3.34087
12.4322
14.1664
4.03727
1.40607
7.98435
2.08047
5.82891
20.6112
2.47971
6.10549
2.81047
12.1749
16.3747
8.70509
3.04878
13.6854
7.95472
12.6146
9.84809
9.52702
4.60915
0.945476
2.76717
0.424832
11.1276
3.88709
5.43465
7.13071
10.6343
13.7939
6.3468
0.331836
1.63642
4.13366
0.476647
4.9589
7.29524
15.1222
4.19832
5.42949
7.3155
6.66782
10.3543
7.59372
22.9871
3.91382
4.37473
23.075
15.5791
13.227
5.26016
0.55927
21.0286
16.8042
17.4957
8.73396
2.76666
19.4864
1.08004
2.91539
3.6061
7.69053
13.7037
8.46704
5.45047
6.58939
6.30723
8.66001
4.61881
5.38114
3.37209
5.21171
6.21056
3.09835
7.35032
5.73924
5.42082
7.3742
3.11384
8.89895
14.181
6.45847
4.95537
3.09582
4.75979
7.35244
11.7629
0.749847
10.5364
4.79086
30.2544
1.45305
9.84407
12.3543
21.5811
0.730134
4.48186
3.16431
2.37513
18.0866
1.54927
0.353475
11.2567
5.72692
3.87823
5.58743
0.382842
5.41506
1.00807
8.80859
1.4417
3.00587
0.654105
33.4078
8.03469
3.18827
25.9214
4.61083
2.35209
5.56513
6.7166
7.2855
17.8526
2.04026
1.79901
9.32545
4.72123
1.98648
4.18144
20.1648
4.16899
2.91023
13.9236
0.874268
8.37704
8.98375
11.5824
8.46245
5.32713
6.79393
6.55234
3.53335
7.85604
11.483
9.68232
22.9787
2.01832
3.41043
5.74688
0.531565
14.5992
1.97964
1.75866
6.53711
14.9122
19.0943
1.67809
9.42078
5.63433
3.03286
1.20722
3.56305
2.31499
0.825711
2.75788
2.78899
12.1748
0.581137
13.7844
0.410762
4.98395
4.28448
6.63422
5.39237
14.2747
18.5391
7.5204
2.73058
5.08464
6.82489
0.689273
1.08061
10.8365
3.8686
6.19816
5.80479
18.1406
0.626226
0.394693
5.48557
9.71166
3.30811
14.3431
3.0939
2.00869
7.55287
0.908753
28.7933
6.20224
4.34073
0.448991
4.91018
13.0684
6.74829
12.8407
6.22946
12.8791
3.2995
4.42272
2.32412
12.7041
7.04395
5.12818
2.84713
3.4068
8.06767
7.42258
1.59016
6.31004
4.1997
10.5604
4.46085
4.77268
7.86382
5.43163
13.4754
4.64671
19.9444
3.31079
12.657
0.832836
1.33509
5.80322
3.69787
3.63251
10.0069
5.17512
5.2813
3.50109
2.11299
1.84792
15.8002
4.22241
9.6355
4.02588
1.93793
9.29174
1.47699
2.40581
3.48685
2.3614
5.6605
0.455311
10.0443
6.78428
7.04468
2.40559
12.4829
5.25708
3.85991
8.37677
5.00677
8.67357
2.73307
3.29982
8.45745
12.6212
3.6763
6.24825
2.77724
0.960079
7.10049
10.2727
9.07362
17.544
11.7186
6.22155
8.52859
4.16989
0.926606
2.33323
14.1375
6.67879
2.98426
1.41021
12.4429
2.51874
1.77058
5.49132
6.22998
5.98213
8.45846
3.49342
3.87259
32.171
2.20197
3.84427
2.76439
2.25399
23.7116
35.4354
22.316
19.332
26.6717
8.04773
6.32795
7.11744
6.44752
23.5627
3.89604
0.859389
13.3607
1.29194
0.373091
10.5873
5.91122
2.40045
2.97466
7.32018
2.30633
1.4289
10.1704
6.98035
11.9094
2.49088
6.80171
9.97396
7.65526
15.9762
4.0067
3.03941
0.584452
4.23296
8.83532
14.7142
3.85309
10.9817
4.655
7.80917
4.15898
18.4751
5.53401
10.3823
1.47012
5.54845
17.1093
3.80571
2.50106
14.4804
4.3638
0.543535
9.06086
25.8474
0.809232
4.5489
6.94715
6.09627
6.5551
15.1423
1.46055
0.998313
2.91693
3.94727
13.8492
2.53976
3.98783
4.95901
8.29665
1.91934
1.2702
5.56762
11.1721
1.25767
9.66214
4.76172
1.63723
2.77998
1.96197
20.1288
3.74226
0.70523
10.9324
6.52087
12.0785
4.67089
22.6504
2.11046
3.96639
6.24158
2.92368
0.369671
2.19814
4.75051
2.00775
24.0634
10.0862
1.25438
2.67868
2.02982
5.68192
3.11487
13.9619
0.35583
10.0165
2.22373
9.81469
1.24941
1.26539
16.2323
1.59984
0.778199
4.99727
8.5114
5.95368
1.09293
1.05175
5.59773
8.40192
4.21143
21.7985
5.40804
1.42133
5.94171
22.6829
4.7766
3.18282
6.73014
7.61705
4.93676
2.04882
19.0434
5.69227
0.615501
11.3881
8.98083
3.19356
3.04716
2.48515
8.30991
11.5996
2.01219
4.21572
1.60558
5.55137
8.52728
10.6538
16.1586
13.6003
7.75207
6.41968
2.35295
17.2498
15.6324
8.96592
2.42101
7.26387
9.73196
1.09722
18.112
4.1926
3.85501
6.80461
4.4109
3.05767
3.20518
5.61261
0.904117
5.3394
1.51286
1.05822
1.57607
5.40868
5.15594
16.4475
0.649083
6.43211
1.92894
2.06639
1.09946
3.62334
1.93669
7.35652
7.16247
0.484744
0.566801
7.14128
2.35658
5.91587
4.22021
5.82727
3.01508
4.36249
1.79188
10.9318
10.896
1.96736
3.13441
1.48786
4.76182
13.1767
3.60847
7.09777
17.0532
2.64748
14.3027
14.708
18.0069
7.71803
11.8842
8.87154
9.02433
8.3017
6.05001
8.03356
8.33894
13.5258
16.9417
5.66346
3.37942
5.1366
2.92674
10.3692
14.3096
1.95439
7.68439
1.85025
17.9349
9.60215
1.85408
0.439326
0.45222
8.85614
3.86872
20.0727
2.38352
7.63011
8.37709
11.1979
2.11133
0.711086
10.1207
6.98438
3.90318
19.9883
12.355
22.6626
7.36673
14.2786
9.24122
0.975683
9.89991
19.9338
18.4893
21.1389
7.77732
11.1871
17.7878
0.540328
11.0652
5.20852
13.5664
4.60765
1.95888
3.49567
11.0554
4.54648
1.56168
3.87671
2.87744
1.80983
6.17684
11.6421
12.9012
6.64288
13.9461
4.13997
3.98925
6.47109
5.34064
9.97242
5.54146
3.17575
7.95963
17.7878
4.79199
6.80951
4.38995
1.10159
2.29842
3.38557
14.6756
16.8213
3.41107
3.94646
3.26204
14.6917
8.35305
11.3999
2.99956
24.3684
0.442796
6.38054
2.6902
10.9146
4.40642
5.59871
0.418099
16.6625
16.0829
7.73648
2.47489
0.439473
4.56376
17.6097
9.09978
37.6326
10.0724
8.72116
2.1993
4.25684
14.4711
5.6938
29.7996
11.3122
4.51076
3.33177
3.97929
16.3859
1.67847
4.85682
2.97297
3.18623
10.549
7.3186
10.2327
0.529979
22.728
12.1149
2.90966
9.27155
13.0502
6.05702
34.283
2.33679
10.2086
2.95402
5.37414
1.41937
3.25321
0.735929
9.29961
4.45914
0.392278
15.3331
9.20638
2.29085
14.3107
4.02487
3.79825
16.735
3.95249
3.40098
2.0858
7.23402
2.33944
5.59115
26.58
0.947668
5.95164
1.84459
12.499
2.62165
1.17201
10.1384
1.48555
13.4211
4.01316
1.46487
2.85024
6.23143
13.7906
4.3042
13.6569
1.63807
4.61512
2.90374
5.73051
17.8476
2.95562
7.68695
36.637
24.7728
6.30542
1.39817
5.94981
5.3049
7.42838
1.96926
9.19081
10.4857
13.4421
8.03095
10.183
5.71934
16.157
4.8463
3.23021
10.1727
9.74981
0.476163
7.63561
2.54344
8.91868
1.1819
23.448
4.71178
10.6166
1.14277
2.46322
2.61489
5.8259
2.51196
3.89045
1.26368
4.72523
2.71265
14.7085
7.02748
12.3497
8.44784
1.81734
4.82286
10.5811
5.80448
3.62838
5.43431
1.42152
14.2668
13.5487
2.62878
7.60087
1.95004
0.437058
1.73797
9.90481
0.436874
9.64053
15.8948
7.63755
7.50485
12.1446
13.0547
20.8066
12.1087
2.4291
8.39629
4.30764
12.5284
12.4153
3.82296
3.34175
13.1695
10.3026
2.66857
20.0914
10.5559
14.0487
9.58539
7.84683
10.0359
0.610923
5.08562
3.71458
10.5657
19.0642
4.36882
1.1347
4.97329
1.82191
2.70108
3.73184
4.83941
14.1354
4.07281
18.4719
16.6076
11.3894
3.23972
14.0699
0.9036
20.6968
0.606139
2.49057
12.5266
2.093
10.9837
2.49456
1.64721
4.34279
5.60586
2.3129
5.27639
2.56084
9.01481
1.98963
1.00137
2.71541
14.4896
8.56284
4.5018
4.4642
0.464558
11.4222
13.3258
28.8365
1.07297
15.1441
4.55849
6.48865
1.76389
1.76037
0.419679
6.5929
4.93225
8.27574
4.16582
5.54417
6.10196
1.00345
4.13641
2.1498
16.0638
2.79993
13.6194
0.491341
2.75823
1.68539
6.09607
6.79858
5.65149
3.34746
6.66319
5.89648
1.59264
4.77521
0.45142
7.00192
0.84424
2.81996
11.1021
7.12646
9.23117
2.11037
13.4537
13.7669
4.65993
6.46864
0.967371
1.77981
0.453124
8.52506
1.86077
3.85852
16.2585
3.94416
4.2336
1.66402
5.4754
4.52599
8.49211
9.79099
5.7377
6.82592
11.2078
1.44312
14.1076
1.15392
3.63302
1.89931
14.8042
1.77702
0.815056
7.707
0.964831
1.42998
9.79948
4.93621
1.1222
4.13412
2.40773
12.3776
20.44
5.28325
6.07256
2.80923
6.92727
4.33935
7.13453
5.72436
6.46211
5.59608
3.00758
6.09208
2.04169
0.87219
1.99814
8.02254
6.25784
8.37702
6.47037
2.46145
2.66278
1.90133
0.468652
3.18877
11.1308
12.7495
0.471094
6.0349
7.09367
0.498593
12.5107
4.84391
3.1341
22.3421
8.65326
1.71099
4.25815
18.3844
2.37115
17.9878
4.52108
0.677349
7.4496
14.4679
6.75507
5.36956
4.88593
13.9192
2.94996
4.82371
9.49625
1.46588
6.89808
5.1415
8.47817
4.22563
0.45439
17.1584
0.804519
3.73032
6.35115
5.78339
1.66799
2.61107
12.7667
4.76784
13.8422
6.4044
9.75073
9.47858
4.87528
6.67898
1.49214
4.58578
0.646356
10.6307
5.31505
2.47448
10.8278
5.70064
31.2269
0.973397
1.90262
3.25266
4.44093
3.67042
3.45262
0.693632
4.75923
4.45376
0.613725
10.1562
6.5351
12.1803
20.4016
28.4917
5.36292
0.809822
5.14605
2.53172
3.4092
29.5807
15.5139
12.0265
8.86424
23.2052
9.21818
6.24785
1.0578
0.319557
1.41472
3.67366
5.66331
4.83538
1.15133
10.0017
0.982211
11.0874
7.88543
12.6369
2.31077
0.288427
2.58401
10.9757
3.95666
5.37046
1.55892
9.26487
2.10956
2.3916
0.473384
4.87504
13.2295
4.06501
10.5923
3.07655
4.94596
2.56819
6.463
8.48792
5.26931
13.9058
18.5498
7.85656
19.4615
0.602742
4.85164
7.08452
18.1823
8.73376
1.84073
1.53637
3.54303
6.77327
5.09851
7.51769
2.58746
6.34245
17.4113
10.6215
5.56233
3.12257
1.12432
7.01535
3.01801
1.49472
14.2447
5.43649
2.18052
4.50522
11.367
9.15062
13.6087
2.09893
2.32406
2.86876
8.22326
2.77762
4.03741
9.35428
13.3599
4.55809
2.06964
8.89512
2.89526
7.21466
9.43013
1.00225
0.855703
4.20287
1.49373
4.60505
3.90409
3.6618
6.47843
3.99309
7.22413
6.69997
23.9399
4.09946
7.30251
7.0157
1.84506
0.537792
15.0735
1.80595
4.27747
21.3658
10.5421
7.06533
20.3224
4.72771
23.5315
8.88955
2.92378
14.6912
8.16858
10.0302
1.28436
9.1548
12.0782
18.3113
9.05043
5.41725
4.89201
2.22037
14.3043
12.9657
8.06
0.99969
6.02932
11.3451
5.87363
2.32989
19.4045
2.39593
7.81081
5.22011
1.41144
3.77246
2.2248
20.7673
5.74882
4.29286
6.50532
10.4121
10.9806
0.636283
18.3501
9.01779
1.36576
5.13807
2.22514
13.9749
2.58341
3.47774
3.70097
0.432162
8.72536
0.74158
1.7262
7.15261
4.64308
5.41312
2.90414
27.4933
2.7069
9.58182
1.71846
10.1534
22.0429
4.54319
2.32047
4.69494
5.48827
0.911659
12.8512
1.58682
16.708
8.44856
2.43626
20.2589
1.98006
27.7059
6.15092
8.35768
1.87496
14.8756
0.363984
11.7156
2.9748
4.33464
1.98862
3.12489
23.9463
0.702858
7.28485
16.104
3.32619
13.9487
5.63432
6.67167
3.34784
17.791
1.9292
5.842
7.79371
3.45555
3.15633
1.64655
6.29276
4.88722
1.03509
4.81864
7.40137
8.64194
7.16516
1.52333
8.36755
11.3737
31.4267
12.0148
0.709174
10.7692
4.82644
9.35647
10.9052
9.82911
8.50192
1.35267
6.21749
3.6522
4.6395
16.7554
6.41846
3.41932
4.1379
4.9481
1.30187
17.8763
11.1927
4.61397
5.4847
4.56536
4.37155
15.5137
1.25537
2.50886
7.04806
16.7326
5.08903
1.12135
2.59093
10.5301
13.6465
6.50263
3.87999
3.7133
6.55594
3.73432
12.7027
0.508094
4.17884
3.33473
4.94411
24.1743
25.8881
7.56701
0.549638
10.2002
8.65136
2.75629
10.4475
2.98048
1.64851
0.885
12.5917
11.448
10.8533
5.36106
11.6595
2.41858
17.2858
1.28943
9.22304
22.095
11.3207
2.20631
8.03717
6.13841
11.338
25.3696
1.70855
6.68237
15.3815
26.6625
7.82629
3.19084
5.0997
12.2094
5.17966
2.659
4.30589
3.83894
3.68805
7.56876
3.949
8.66685
6.91786
8.52977
2.5552
3.61703
4.2892
1.71261
3.31929
2.76375
10.5335
10.3644
3.95503
5.48591
4.88967
0.93779
6.02422
7.1819
0.458245
4.0992
7.32256
3.98564
5.26174
6.4971
3.21712
13.9802
2.21292
2.37536
10.4437
14.5741
7.32759
22.6096
5.06486
3.84341
6.10808
7.15203
6.34152
8.47227
1.05708
3.60716
8.5746
3.53847
0.490557
2.56973
25.7201
13.5593
0.659783
8.84369
0.864813
2.18788
6.15189
4.27608
2.70823
5.54945
0.514249
6.24915
20.6305
2.71994
8.94481
5.8304
2.31378
0.674041
12.0203
3.02126
9.09525
1.50023
5.03795
5.11674
5.31394
12.5259
0.630045
1.04276
3.50942
11.5603
0.447862
2.30439
5.00108
0.535077
0.929165
8.41478
13.5894
15.399
2.85187
1.67043
7.46316
12.509
31.8796
1.91813
0.950097
3.96424
1.98862
5.87879
11.4321
0.592897
8.9553
11.5662
0.948817
9.54969
2.45843
4.0607
12.1053
0.847204
2.90034
5.96662
1.45127
9.01112
2.65259
28.2037
9.20199
3.64817
25.6021
12.1606
10.0979
3.50299
8.92499
29.2645
3.26427
0.50227
1.97794
11.0303
1.40871
14.8684
12.5728
14.5869
4.87569
6.34038
7.1233
9.99554
17.5306
2.5526
10.8987
7.99757
14.1227
1.90622
2.03315
0.916054
3.85939
7.37892
6.21423
5.63908
7.33509
6.83385
12.9088
1.01927
3.4934
5.80005
14.0265
7.4751
21.7058
22.2678
4.66696
0.945481
5.04478
4.55989
4.37067
2.29316
2.82011
11.0343
0.386254
6.77827
7.69591
8.95487
3.02266
2.42859
2.43234
3.84854
4.22249
12.3623
11.1644
18.3754
0.51166
24.2323
2.37591
4.94413
19.0607
4.13266
14.6636
6.34588
14.968
20.2183
0.428767
14.523
5.09048
24.9549
0.625991
3.5828
3.22699
8.12484
16.4256
0.51169
3.73022
2.02538
1.69619
5.74209
8.16884
5.53511
11.9011
7.35571
6.39772
7.06335
1.65615
4.53176
12.2792
5.94237
3.67186
3.50044
5.6626
4.49144
13.422
5.6205
3.15232
2.40376
5.142
11.8032
1.7258
2.55828
7.43364
3.68896
1.62215
2.16767
2.51109
3.12896
5.4738
6.13272
6.2468
1.90036
4.05619
25.9191
13.4206
5.09395
3.74181
18.5677
3.11189
0.60806
3.21037
15.5035
2.35738
3.48937
2.59575
7.74547
2.23753
7.92492
2.99847
4.75434
12.8094
4.74416
3.04996
2.42441
1.1033
0.539237
3.83569
1.65051
0.47145
8.69666
8.68449
6.64262
1.01412
8.67278
6.03801
9.86468
5.7668
3.29861
21.3491
14.7376
11.2383
5.58493
5.36714
9.61471
1.84886
8.9845
6.31922
7.56854
8.5869
3.23308
9.24841
12.2101
0.709053
27.2886
4.18428
4.44418
2.1408
4.82665
11.8024
5.12823
4.41653
7.80399
0.768734
1.13938
3.17049
1.07455
11.7718
4.50851
6.38513
3.72072
2.70403
7.50329
5.04375
0.78576
0.617559
17.0957
2.81539
2.0787
5.13475
11.4377
11.6957
13.2737
1.89291
7.02577
4.46501
1.40598
1.8856
4.34129
4.3016
2.30664
0.471612
4.03877
6.91613
2.66694
3.42927
1.3955
20.3065
4.10641
2.16566
3.80575
12.2421
7.20096
14.2978
4.75175
1.68379
6.15589
3.12081
2.92415
11.1852
2.1554
6.28281
36.7878
2.65457
7.20858
7.47689
24.8087
2.11742
1.30334
15.2216
2.37306
7.8672
2.85188
15.7654
5.76086
3.63477
6.57678
2.87141
7.6997
5.99025
47.0797
0.896695
25.9549
2.40406
13.5848
5.94431
17.5693
6.77407
9.78901
0.470735
1.85285
8.5534
4.28461
4.9075
6.05852
13.009
4.8505
3.19554
2.30791
6.70464
10.3596
1.08526
36.9675
2.72718
6.78218
1.02107
5.56003
15.3168
9.17343
10.8454
2.0271
1.71541
2.70916
11.5379
4.46763
0.565624
5.193
1.4012
26.3906
5.02604
0.384211
3.84543
2.7763
7.21725
1.80791
1.22913
1.01263
12.6271
3.04768
3.84167
6.05168
8.42867
10.2079
3.85995
10.2943
11.9895
6.56687
3.51127
2.81394
11.4403
12.8062
17.6934
9.02051
3.58533
23.4428
9.53672
3.63256
5.59299
5.87444
1.4833
10.549
14.2031
1.96663
2.90508
4.95836
2.93899
3.38635
6.83654
1.58223
5.88149
5.06251
3.84504
10.8699
3.33422
7.579
4.90473
9.11315
2.26138
2.47277
11.4756
3.06346
4.14912
0.691644
14.7138
11.7642
7.00266
1.99269
14.9547
10.8453
1.45791
5.70267
4.78445
3.9931
2.72912
8.32056
2.62214
7.5299
1.52759
3.28361
1.65589
11.3041
7.47612
1.57435
2.01313
3.27195
10.4954
2.56479
2.77679
4.21404
4.40368
1.98342
3.26614
13.0771
19.1677
5.45228
7.24694
1.92237
9.73145
1.28741
4.95069
6.24821
17.4176
1.63869
22.4274
12.5756
0.515274
6.75266
11.1279
7.55426
0.565268
5.13089
0.515199
4.35136
1.5897
10.561
4.8183
3.20709
11.8373
3.66548
1.69695
16.7411
14.9067
5.64197
4.20816
7.97383
8.16737
8.3831
2.1116
8.69144
8.26474
22.7479
7.23344
2.41595
8.44142
10.4544
21.9806
14.4938
4.28144
15.045
4.41642
3.95478
10.2616
6.49214
5.57837
50.561
4.98833
2.23015
10.0547
5.19943
2.01991
5.95853
8.27338
3.0751
12.4228
10.4766
3.03022
4.90418
13.3846
37.7017
14.1991
1.82051
6.92045
9.00247
10.6848
7.72661
2.8829
1.48392
5.56133
35.679
16.2986
3.9955
2.85903
11.1175
1.70618
3.92128
2.33599
14.5291
9.69553
15.4127
1.43821
11.6871
17.8262
1.59486
8.67723
2.5787
8.59712
1.08574
19.225
6.00399
0.588969
8.07833
1.91375
0.863856
6.79751
4.23551
4.75051
11.1085
5.80161
17.2688
9.98116
0.924101
1.54104
9.47845
6.46504
0.838738
2.01612
7.65366
3.47932
9.07041
1.09847
2.93877
6.34338
3.3235
2.71425
2.99703
7.3632
2.66834
7.18505
3.16664
12.5055
4.8295
1.5083
5.01242
4.48151
2.85198
4.4652
1.0834
10.3688
5.52433
1.18808
6.68745
9.89849
3.57763
1.27981
12.5485
7.52948
2.64389
3.05474
1.69097
5.00592
1.67759
3.9875
15.329
3.854
3.06055
9.67148
4.98275
6.88406
13.1066
14.6961
7.58481
16.9057
7.94689
12.0597
4.0771
7.65252
12.9742
5.43525
6.61008
16.9213
4.42025
5.06073
1.60287
10.5552
4.21326
6.33868
2.84452
9.35887
9.18429
0.393894
2.7261
7.57093
4.45044
3.00969
2.56844
27.5569
1.89553
3.88634
3.10724
4.19534
11.7324
7.55982
10.6298
9.64643
9.75747
0.615673
3.13095
2.8819
6.92785
5.54862
14.057
6.13418
1.86637
14.2379
3.36549
2.22416
7.88791
17.9351
6.47596
2.91893
0.676782
1.686
6.31251
3.80664
1.78062
9.54214
1.5028
0.560757
0.537666
8.15883
0.302096
2.71101
9.3651
2.40539
13.7895
8.44015
4.92844
1.27656
4.87656
9.51713
12.64
7.05547
1.49389
7.55161
4.26742
7.405
15.9173
5.84694
6.18459
15.7898
3.37005
7.55612
4.55527
18.5282
1.5891
3.63892
14.6767
4.35485
4.50691
5.56895
3.11002
9.78283
0.633219
1.86178
2.19419
4.65728
1.22071
9.21304
1.65831
0.845326
2.03871
6.43328
16.1953
2.69598
4.29457
17.05
16.7976
2.16499
0.52765
9.08303
2.90422
6.75176
14.977
1.21291
11.4139
7.83488
0.768816
1.36649
2.2206
4.52117
4.51831
7.53357
1.8121
14.4716
1.37003
4.11424
7.90429
2.20184
4.73822
8.67755
4.43413
8.46275
2.964
2.3984
3.73828
3.37871
0.485828
8.07001
0.434627
3.8623
1.50979
6.08157
1.6165
9.0332
1.20821
5.02733
1.96263
6.53709
3.09018
2.87165
1.10426
14.0592
1.75935
6.02512
6.90464
1.94679
2.94448
21.9816
8.44373
29.2133
6.75846
9.39579
6.87292
1.20432
1.53558
5.02077
1.91549
2.11424
0.724775
3.4853
2.19185
10.9048
8.60639
7.41514
1.79475
3.12957
10.7544
2.3628
1.4599
26.8808
2.23892
19.022
4.97902
5.76626
4.27885
1.83185
0.578253
11.5473
4.23327
8.26677
3.16173
8.75178
32.662
4.20855
3.98192
2.62393
5.49824
12.4016
10.5754
3.75932
6.51878
5.63818
1.20742
25.1954
3.2344
3.84989
15.409
8.85234
0.670457
2.22961
8.49344
4.27793
3.74949
4.88546
5.86239
4.52372
18.7262
5.71415
29.2214
0.928322
8.50696
3.76408
4.67113
2.49736
8.74972
1.89794
11.5179
2.76814
6.61754
10.5405
16.0521
3.00139
6.87064
1.09546
1.63855
2.69821
12.0544
6.21803
5.73021
2.75834
3.5922
3.02706
9.6532
8.84006
1.42773
6.69268
4.50865
0.439997
2.58931
0.67863
4.70341
11.861
7.10232
3.97448
16.2547
11.8676
26.1274
1.28994
2.88964
15.704
15.936
14.3082
2.52028
3.97812
9.8256
8.0743
2.43811
4.16749
17.0279
4.11164
1.84068
0.519743
6.05685
8.45891
12.6203
3.08352
3.5443
7.85939
10.193
10.5781
9.48478
7.04454
7.90227
0.733275
3.89575
2.31261
2.91579
2.31816
11.0747
4.47388
1.24454
3.05004
11.1786
24.3366
0.520748
5.43248
0.581098
0.849362
4.98526
16.2132
2.03533
7.82644
17.4573
6.30214
4.55104
2.60265
15.3571
13.8655
8.22811
2.31611
6.30354
6.57874
1.95872
5.81377
3.64706
4.70405
6.71883
9.18754
1.36212
10.3868
4.87929
27.9542
5.44897
14.5915
11.9638
7.8531
1.49048
1.50013
1.29583
10.8178
1.27691
3.04442
4.15099
0.394515
0.538484
8.89475
8.47113
1.86828
20.9154
9.40849
1.9837
3.55963
3.20123
3.51597
5.0766
17.3375
20.8478
1.42346
6.86973
9.54229
4.76572
19.2174
23.4786
8.42799
6.53359
5.73662
22.4328
17.3134
10.243
11.4616
3.99586
3.62099
3.94929
3.08624
1.62351
9.86428
31.8045
6.42222
3.39414
0.446817
1.52578
4.20794
11.9664
4.24371
3.18405
7.0679
5.73496
12.5406
8.39173
1.32828
2.74082
15.1452
5.54491
24.7844
9.45091
11.5834
4.3481
3.29216
1.06336
11.9574
8.19669
16.1058
2.23751
2.39792
5.8654
2.31583
0.644461
1.65975
4.05176
3.18019
10.974
5.26321
1.46623
10.6373
1.33626
1.70319
2.81156
0.406165
4.48108
6.32183
4.86183
0.697091
8.91902
4.19612
11.6139
2.81982
4.66033
2.72115
1.55159
6.88661
5.70221
1.62895
14.0397
3.78552
1.89152
9.59093
6.36985
1.26459
3.45574
1.26554
20.6332
3.95735
1.38722
25.4487
19.2759
1.02959
0.660637
3.81803
11.1423
3.89614
13.6666
0.881999
5.3931
5.07264
7.6141
1.30753
11.2563
13.9542
17.7962
4.20617
2.90845
1.85307
7.97524
18.4333
29.6767
6.60199
6.25451
12.0765
1.93582
9.02265
7.87766
2.03106
5.61599
33.607
6.92949
9.67689
5.67663
21.1682
10.8634
4.81056
23.0159
13.4639
5.24662
3.37482
3.66753
6.57356
8.18302
7.33433
1.41867
4.1611
3.68516
1.57902
4.97545
3.873
0.318744
3.44138
4.128
3.80774
0.702446
1.74687
11.0183
3.55701
1.34702
18.5539
33.7408
2.57704
7.63025
6.16728
14.1452
3.87005
1.67767
10.4665
11.1402
6.24429
5.05413
3.69748
1.61182
4.9956
4.79281
16.9981
2.16895
4.6358
1.44683
1.92473
7.77126
1.33124
33.1871
0.509949
2.60178
1.13503
3.41832
4.17068
4.71469
4.9785
9.96487
5.19009
2.28817
6.0544
0.693501
4.69445
9.0014
7.59157
2.95318
6.95811
7.86394
9.12323
9.27178
1.32414
14.6096
3.34427
4.96366
7.0014
4.43147
11.1806
0.354709
5.76308
4.54194
8.17619
6.66181
19.3255
0.404429
1.49835
0.532617
5.22398
24.3034
12.5721
3.1137
3.86945
10.3737
4.09675
1.05678
13.4946
9.54261
5.36598
11.4525
7.84157
1.3391
0.749951
6.39885
3.58074
3.6998
7.51187
1.0429
13.956
0.773947
2.45362
4.49209
5.29496
13.0889
2.15506
0.730177
0.351672
5.72454
16.4597
8.0706
3.16393
7.72673
0.84937
14.0067
2.90292
0.474399
3.91423
1.85641
5.50026
1.525
10.8781
2.25201
9.92006
12.4823
8.17275
8.07517
1.3514
3.0319
3.17788
23.3718
2.62363
3.58455
2.49391
5.66897
4.92031
5.68141
1.00963
7.02645
1.62898
6.4956
12.5924
15.9819
0.409812
5.53589
0.411532
11.9319
10.567
7.6691
0.428243
1.45286
3.77327
13.7085
11.3406
9.05062
10.3641
8.81099
10.9029
4.11509
28.3412
0.659936
9.49304
1.30687
11.9447
12.5802
2.48372
4.59347
0.412004
0.330377
5.89829
5.42117
6.15071
2.32467
1.94769
25.8865
5.30047
1.81502
16.4739
11.2819
11.0545
3.49318
7.47742
6.70417
1.55503
2.48705
17.3387
4.45652
2.61817
6.25375
7.13201
14.0938
11.7958
11.4404
9.04766
1.34738
11.1543
1.83418
14.8412
21.514
0.554692
9.52011
0.842762
2.08085
5.48474
10.8221
1.44348
0.548632
4.78929
2.901
5.03987
10.6761
4.95902
17.6576
6.41981
9.41771
4.07003
3.42999
1.38725
10.3347
5.51639
9.25204
7.99994
3.65691
6.83913
18.792
12.3937
3.01717
27.783
2.28279
8.05828
3.39986
9.16706
11.4944
6.14117
2.51224
18.499
6.47441
7.74392
7.43639
6.33469
3.15019
16.4655
0.981365
6.4772
15.3247
1.83475
11.5561
5.53488
7.32782
6.77897
2.74006
3.5523
12.2225
2.9047
0.6533
15.6947
2.82416
14.1865
2.85693
3.53734
6.44937
6.81079
4.40107
3.21039
5.26881
0.630306
6.06166
1.79167
10.8468
7.34896
4.58774
8.8055
2.12043
0.501445
5.16077
5.19346
19.6155
2.34499
12.8991
2.86042
10.0738
5.91145
8.28787
2.16679
4.58472
0.620149
8.62197
1.39365
4.33789
8.38317
2.52993
14.9958
10.9691
21.7101
2.47472
0.94052
10.5643
7.87
1.03533
3.26351
8.86007
2.89391
1.46768
6.40475
4.00293
8.11448
17.4233
7.79371
12.6162
4.22334
11.455
6.18908
4.99266
0.842223
10.1826
5.07109
3.5513
6.44256
7.53796
0.94719
14.5423
1.87711
1.33079
11.2385
3.56893
19.6919
5.26788
3.52757
3.23485
3.10857
1.41289
5.57734
1.7654
5.72667
1.31805
2.66962
1.10506
8.64308
8.2306
13.4482
1.61943
1.20836
1.71538
1.30617
10.692
5.0009
13.071
2.7369
7.16093
3.52266
14.1295
2.53664
5.01352
3.29321
3.78126
6.09262
2.34377
6.0678
4.80843
5.49415
14.0428
4.79632
21.7664
2.09732
3.60811
7.36021
4.57776
1.28405
4.22211
2.00102
5.84153
10.2868
3.6489
6.91714
0.850061
1.4393
8.41123
5.51079
2.00422
0.791449
5.82326
14.9373
2.07376
5.23978
5.9126
12.4145
5.79968
1.89556
5.71401
16.5877
0.774251
19.6863
2.12014
3.6495
5.04184
0.512632
0.942627
2.09133
6.21275
1.22152
17.3986
2.90133
1.53599
4.96558
2.16815
4.35033
8.14365
14.6679
3.27548
5.94963
5.00801
4.66031
3.58672
6.10323
0.497313
2.24238
19.3578
3.07802
6.3886
15.8051
9.05021
1.85434
16.6555
16.7331
3.29918
31.1609
1.32018
10.8949
1.48487
2.24274
0.466247
4.89689
0.415352
3.51381
0.647506
1.26957
2.69055
0.34205
9.71352
15.7689
17.2977
6.19985
16.7467
2.06881
3.81547
7.53226
4.47946
8.60135
1.75346
3.41201
2.24859
5.58283
0.41116
1.25631
3.75022
5.60039
0.406402
0.801569
37.2616
4.39989
6.87325
19.7186
7.64379
2.75786
4.4904
12.1901
5.03589
6.547
11.1065
7.15698
2.97931
6.37088
3.55206
4.67439
8.04671
8.25385
0.908811
6.99023
3.17681
2.65684
1.48031
8.41102
5.21188
6.11092
6.66925
5.37021
1.95625
8.22611
3.30813
9.37068
4.04451
0.466122
1.02406
8.51568
10.1647
4.60417
3.11645
15.4753
4.00811
7.8228
3.8268
8.89364
5.80161
0.709792
3.65066
4.19716
2.41873
4.1938
0.657352
5.64117
11.7386
4.99955
6.80359
7.64579
3.66236
10.0345
11.401
3.09461
5.31747
3.17739
18.1906
2.77367
3.662
1.61242
16.9698
1.756
0.35779
3.62335
0.399502
7.80893
6.95293
4.31518
10.1879
7.57276
22.8418
4.64476
26.4439
29.4369
11.7323
2.35209
12.1123
8.34604
7.52769
2.23188
7.18243
11.0335
7.10628
10.8841
11.393
6.91919
7.2054
27.7872
4.35561
0.680842
2.4746
1.74477
1.7342
3.10593
10.1554
1.04011
0.464565
4.88029
1.61705
21.4585
0.308596
25.2475
4.50358
10.9197
1.64061
7.23579
6.3333
8.25014
2.18213
3.851
7.62102
4.2275
4.15561
0.497246
10.2656
4.10674
2.6857
7.84412
1.83802
12.2843
14.6647
0.489263
4.5648
2.21042
4.97251
9.8592
3.34656
17.4779
41.2086
29.3413
16.5372
0.820273
4.06125
5.09502
10.8379
24.2689
11.5309
2.14327
21.1772
3.8972
4.33439
5.71668
7.48034
9.48488
3.77503
4.39731
5.93422
2.27245
7.95559
4.45546
6.22862
2.60416
5.35478
4.9482
15.8866
0.723716
32.8338
4.93768
0.704299
2.2636
3.26175
6.51068
20.6135
3.90364
10.1279
6.42976
6.15703
23.1118
5.24072
0.592927
6.34481
0.550175
9.82844
1.1259
18.4663
0.820743
0.975981
4.00248
12.7306
2.8083
8.90313
3.44008
5.83171
7.5484
6.79912
6.52125
2.14281
9.47263
11.2454
11.9095
3.70796
1.02356
11.8142
2.91143
4.53281
12.5318
6.75324
5.92293
6.77287
4.52324
0.648534
8.46628
2.09135
0.337841
1.50144
6.39759
7.18043
2.92063
9.15293
0.439117
4.63822
27.016
8.74006
6.90827
17.099
1.46336
0.328239
0.954894
2.02841
3.38898
13.4878
1.60821
4.62142
5.73476
6.26652
18.9857
3.11199
7.44058
6.49832
8.87254
10.1693
11.6202
1.11763
4.76496
8.97056
1.86655
0.579076
4.03115
13.6469
14.4741
4.01325
5.15991
3.43938
4.70122
8.53538
0.316385
1.61589
3.78844
1.17657
5.03257
4.59125
11.2739
4.69186
0.91145
6.73473
14.7413
4.20263
6.75186
1.87992
1.00869
9.03599
1.46033
11.3572
2.90475
3.46941
23.0346
5.49853
9.67862
17.381
3.08121
4.99725
4.14123
2.00176
1.04588
2.96324
10.4297
3.10384
11.359
1.76338
10.4746
3.84651
2.99134
0.344735
6.68052
5.28916
13.7862
1.59373
4.15191
5.91809
7.54234
27.6736
6.34452
40.948
2.5664
7.58148
7.80445
28.3253
11.6072
1.32754
10.6583
15.3079
0.539914
10.2835
20.8421
3.46761
0.79186
6.61906
4.38669
8.25637
11.9347
7.34026
0.551893
1.60132
1.88694
3.2242
0.894308
0.561268
1.62259
6.13299
0.851315
0.797889
5.58591
5.25296
17.5815
8.27285
2.31359
4.93305
4.18234
2.65692
1.62142
15.5701
0.586995
2.44812
8.03489
10.652
0.855857
0.53472
4.32381
1.21264
2.93169
4.63253
5.78187
8.53315
5.2411
5.86732
2.04748
8.61325
4.78604
21.4505
3.99314
4.932
16.1156
14.1915
1.59981
0.864016
6.0684
1.50967
2.11118
1.52577
17.8999
37.3985
2.70786
2.42465
2.44919
2.43037
5.73399
10.2601
1.58823
0.903484
3.78492
4.96035
18.1418
4.04929
4.16752
0.53537
11.8728
4.87609
11.4414
1.0147
3.1446
4.33726
12.3603
3.18217
7.73923
5.59588
10.5484
11.4351
12.9709
7.88033
6.27776
2.48376
0.694812
7.95516
7.93018
5.15213
16.7045
0.833208
11.2939
5.9018
3.53644
5.7786
12.2118
12.5819
15.8325
15.2123
4.10336
10.7042
5.83562
2.67904
6.1873
12.8924
6.84161
19.2203
5.51986
5.58969
5.0753
9.84474
17.5539
3.93948
10.7628
8.07412
1.98964
11.0576
1.86459
7.63605
15.766
1.78851
2.03835
2.02151
6.91277
11.4088
1.19414
0.514453
6.41634
9.50344
9.95747
2.56342
16.5515
2.37072
1.40279
2.77626
3.88472
5.52532
2.38655
13.9836
8.05183
4.09585
1.76843
5.08294
1.24591
6.15581
6.02324
3.51168
1.50493
5.28909
15.046
20.4154
5.43656
1.86475
6.95428
18.5745
7.21564
5.10526
20.1022
10.0339
4.8164
0.975989
3.55987
2.93079
2.03157
4.24077
1.19045
4.01476
7.84829
7.18772
5.60497
2.57467
2.89999
0.818977
5.88903
12.2775
1.96127
3.79877
10.0522
8.32808
8.71453
4.54238
2.23569
1.90023
11.2143
15.6088
11.8148
7.40836
8.86777
4.29825
6.02678
1.1903
9.1045
2.89946
4.6754
26.2226
18.9913
1.65904
12.0112
3.05301
0.796617
9.19164
1.88122
6.54462
3.74558
19.2892
13.0512
2.97328
7.42567
5.91015
0.506961
5.04641
3.08095
0.88608
19.7412
6.45129
20.8574
0.383837
3.92827
4.53676
9.65604
2.13425
13.4244
8.02328
4.28701
21.327
2.21286
12.6055
10.6965
1.55608
17.5394
3.03072
1.80444
10.9052
6.8217
2.37092
12.3805
8.90083
25.2716
1.66292
9.28591
11.8223
4.62218
1.30131
14.1445
6.03051
5.5329
4.78824
4.27763
9.54348
4.69595
2.31975
2.79941
1.09189
8.12532
7.57034
2.18349
7.5351
8.91158
19.3497
12.9197
1.37426
2.55609
7.99508
16.1213
2.85438
23.7572
6.39468
11.158
3.82107
1.63271
10.7356
5.82839
6.95785
8.06636
1.74435
0.696328
23.4907
18.6954
19.8887
4.39788
8.4886
19.156
14.8722
5.99926
15.34
1.06249
1.95668
3.01165
4.57554
3.39312
11.607
3.80283
2.61608
2.59935
2.2029
1.50757
5.38302
8.07288
8.8068
15.183
1.53291
9.44639
5.07888
13.2106
2.66885
0.736389
1.19019
5.54404
5.31805
7.05245
21.7898
4.43439
7.20042
0.408406
1.04212
5.36029
0.449913
17.0456
11.4222
1.92827
7.72721
7.13102
4.82349
0.949288
4.16694
4.68534
2.75133
3.80643
5.0871
6.84489
5.78282
29.4353
13.6836
4.50009
4.93078
4.96135
1.42561
2.63976
3.1506
0.70101
18.5672
1.7954
20.1486
3.05098
3.24778
2.41241
1.01928
1.72299
0.447403
0.442348
4.57421
13.7516
3.39939
2.28715
13.1724
8.26565
0.562985
17.1706
9.05828
11.8583
4.24127
6.82772
7.48168
10.3469
5.31955
19.9748
13.731
6.4669
2.26436
10.7081
8.10709
4.19178
11.7091
2.04073
5.02879
4.54547
6.82641
9.31476
0.421542
7.76533
9.03663
6.79837
17.5952
18.078
1.87042
4.47955
4.53164
2.74615
3.91864
1.59255
2.17573
15.7142
13.4784
20.6899
3.96422
3.78544
6.37066
22.5411
4.68031
7.29755
8.16247
0.429865
12.111
10.9816
5.23377
2.00421
4.50748
2.0894
1.29555
27.2484
1.98705
2.8573
3.29686
0.347179
4.30378
3.54816
2.82324
2.088
0.338563
4.90946
0.403982
1.54231
24.7772
8.61932
16.2745
11.6526
2.28681
6.89416
13.1375
9.27337
6.65303
9.76595
3.15789
2.7955
4.3983
14.2089
4.5542
3.8919
6.90801
4.88246
11.2978
18.8097
48.487
1.37451
0.888255
0.539388
8.86858
1.3019
1.25046
1.79734
10.4542
21.709
4.07322
6.08873
6.30565
3.44652
7.91279
16.9361
1.39484
39.5964
7.68974
2.10073
2.63074
20.8286
7.09964
1.23449
2.95333
6.9932
7.75889
5.54261
1.85918
4.36084
9.26889
0.450423
15.4814
7.6719
8.6132
0.737558
4.58164
4.1234
5.8721
16.5996
18.9717
3.49598
3.07696
1.67976
2.46217
10.1709
2.92871
14.3439
1.77059
0.759761
22.0055
3.78177
2.59676
10.0098
5.59549
4.12063
11.029
3.13766
7.52011
3.18264
12.698
5.36103
4.92941
6.52448
17.0183
6.4587
2.48014
15.0048
6.73252
0.961067
0.664413
11.9485
9.4865
9.4858
7.54132
8.54533
4.06039
2.54684
19.9277
4.98038
4.08804
7.44549
10.0902
10.0782
8.41572
15.2408
2.82867
9.61439
4.44601
21.8529
5.73848
3.70793
3.42002
1.78661
4.71409
9.20659
5.99983
0.474652
2.66707
1.46549
14.4327
1.44477
5.58465
3.97321
1.20556
2.50216
19.4855
14.5697
12.2312
23.2479
1.62669
41.3747
1.02003
7.19174
7.40113
9.32233
1.12423
23.66
4.62294
2.76809
2.15735
2.70868
7.06302
4.97299
0.998169
2.3752
2.15031
2.74996
5.10621
11.5912
12.6851
3.40286
17.4388
2.33376
6.00843
2.30185
3.5954
7.25683
8.78798
2.38236
11.8692
13.0839
1.31948
5.27252
21.5334
0.563134
7.9372
0.980232
1.99645
2.70901
34.2711
0.830674
12.085
4.69934
2.42514
2.92724
15.226
13.8208
2.09828
9.57206
3.27081
5.25732
0.791971
18.8602
11.567
0.742079
2.52347
0.885789
5.15961
2.65761
25.3003
7.63809
17.3841
5.64983
5.96231
5.39118
0.546737
3.27825
1.61679
6.4299
14.1637
2.75979
3.57243
1.95885
2.25439
2.93621
18.6327
2.90497
15.7121
3.95644
0.545038
6.08747
3.79396
1.18284
9.70194
7.21638
0.429896
7.99325
7.99479
0.505925
2.76882
4.32472
5.38595
4.09073
0.580428
5.25413
7.47427
10.7259
13.5875
2.04646
3.70191
23.3962
4.39736
1.93439
2.62313
2.69257
2.35077
6.62034
4.37739
5.54615
4.22244
22.0957
5.2042
15.6531
2.90334
7.66251
3.48697
0.520766
6.78069
0.521374
4.50728
4.24765
5.96405
13.9194
8.34063
4.60202
6.62622
9.23668
5.91623
12.4967
1.5488
9.14714
5.208
2.02728
4.65061
2.24842
0.814186
11.6602
31.0585
5.09717
1.08976
4.41229
4.21382
4.62721
0.547714
8.55715
18.7486
0.354848
3.8197
10.6752
3.84354
11.5967
27.0143
2.01685
6.54424
19.0463
3.98413
8.06076
2.18018
0.467055
5.93724
13.8807
4.5281
12.2952
0.566051
2.87587
6.48018
3.23186
2.09858
11.8346
6.61107
3.17901
12.8686
4.28568
4.82142
13.5227
1.41655
2.80605
5.9986
5.79218
0.781796
1.70052
6.00255
14.3143
3.37076
25.965
0.833595
16.6964
7.06872
1.82375
14.706
7.42329
3.75516
1.83205
1.84657
4.17901
1.58181
6.4214
6.05356
8.89444
5.33754
2.81862
3.83726
7.65878
4.87409
8.08807
4.90237
4.2255
13.5189
9.92841
0.769825
4.71009
8.66233
0.669535
5.35149
0.460021
3.31099
4.6398
6.16985
11.6574
1.70866
2.32017
1.41004
3.76023
3.27308
13.9122
16.6392
6.36583
2.60826
15.9066
1.20036
4.17233
5.66434
10.494
3.60927
15.2251
0.679776
8.17526
1.93512
20.622
3.24566
12.6458
10.8973
3.17056
11.025
5.5634
6.24971
16.4888
7.50761
0.835783
1.89492
9.09468
19.3807
7.32427
2.09813
9.02214
2.21425
4.52534
1.9414
9.97531
13.2067
8.837
0.391706
6.97098
6.84363
3.43357
4.45401
4.57705
0.843817
11.6974
2.55695
0.580616
4.08716
0.945309
5.63557
10.1445
3.12654
10.7807
6.94318
6.50906
1.12077
3.0058
11.9242
6.3735
6.42416
1.09757
14.9706
2.30607
1.79071
4.65551
12.243
5.7499
15.7849
0.693684
14.2171
0.545587
4.37976
5.16752
3.77431
11.1669
3.62778
0.636544
16.2087
9.31742
5.03787
1.27137
1.86456
2.44052
1.71291
1.16908
5.96505
0.363598
0.507163
1.63415
8.42825
8.78876
15.9089
12.2126
6.22444
2.63962
2.27937
7.36371
21.1971
6.87273
10.4291
2.7866
8.60068
1.65837
10.7233
3.68437
22.8229
9.42483
7.2084
2.57153
6.38812
10.692
7.1223
11.8669
2.03982
15.7355
9.8207
3.70173
4.245
13.5324
3.07475
5.36959
6.17082
4.54248
3.8755
1.57859
2.20815
3.4966
1.28282
1.34887
3.81628
5.82886
3.89745
2.88273
4.16707
21.5179
3.98193
29.546
4.25887
6.54129
6.24203
2.44289
9.18362
8.25655
4.72226
11.6923
2.92141
16.3231
1.43608
11.8047
4.58134
4.72151
4.16155
6.63215
0.657773
5.76156
0.780812
8.12493
3.87865
4.76171
13.7907
6.27756
2.198
9.56945
3.19274
6.74617
7.31869
12.745
4.84947
0.453796
6.34246
5.64442
18.6479
0.463623
73.9675
3.85395
2.08662
9.3564
14.3128
4.00619
18.8616
11.7524
37.6724
4.28115
13.1503
4.54455
3.85356
30.2611
6.84854
16.2482
1.8127
11.9575
1.12847
1.06545
0.456587
3.13374
1.57103
1.99839
11.2249
21.5755
2.00203
1.49719
7.43551
5.77859
1.64491
14.0462
5.43008
11.0139
1.09584
10.8392
2.08025
7.18272
2.15575
2.12309
9.66023
9.31288
8.57954
9.48854
5.14686
10.9492
9.53712
6.40946
7.54292
2.08452
6.18464
5.62843
22.9021
2.66606
6.38733
17.3068
1.94946
2.5993
12.8624
2.3644
17.2101
17.0281
10.9102
5.53622
7.59593
10.5512
3.70661
3.48067
6.06689
3.85265
3.71547
5.0836
11.4059
2.12707
10.6032
4.27849
9.25929
0.6484
8.11559
3.43258
1.78149
6.49236
2.51126
2.84122
1.61038
0.572116
10.4963
0.805224
2.69354
4.39777
1.4941
2.49313
5.13795
8.96058
0.701229
6.07708
4.19027
11.8955
11.7317
11.7261
2.31073
2.32589
20.7325
10.9476
20.0727
3.42034
1.60902
9.62398
0.772123
3.46373
4.61909
5.77407
7.46788
23.1796
5.75629
2.53482
1.23945
2.24965
1.04159
5.39341
8.46686
3.58256
10.5891
3.66721
7.88662
4.23781
12.6333
12.7902
4.04083
10.0887
3.16836
5.15194
12.4113
12.1158
0.614971
15.9376
23.7481
2.50819
6.22081
14.0771
5.32636
4.80288
3.12779
2.92023
1.42177
9.71107
17.1884
1.14881
5.67416
2.1538
10.3028
1.08812
3.06805
6.20621
2.4772
2.93887
8.99936
5.05732
8.1258
18.9695
18.5218
2.44794
2.50771
0.479486
16.6236
5.20512
0.484269
7.90726
2.68054
1.86678
5.01179
4.95872
16.0057
0.449332
7.05267
15.0939
17.5836
3.47649
21.7767
6.0558
1.56288
6.34611
2.22977
7.6099
1.24979
1.30834
2.67845
24.9963
7.89554
7.89892
6.42171
1.78751
2.15577
0.792382
16.7242
0.890206
0.746233
22.5262
3.64489
3.42398
10.7587
9.17081
13.0717
6.70428
8.94027
18.9423
0.484242
4.31033
15.8848
3.71765
1.99421
2.65223
15.6373
4.17581
15.9141
10.4736
7.6953
0.607189
11.8999
14.0107
11.1642
1.14458
2.59354
4.87869
2.28179
4.63818
5.95129
4.10207
13.6477
4.30816
3.33636
30.9655
5.73399
8.66389
6.16281
3.20179
5.0375
0.3914
4.93951
1.3657
8.65875
3.20487
9.21088
4.05509
7.40862
2.04151
7.6266
3.17948
6.98737
1.55117
0.623159
6.85926
9.44926
7.54239
3.10562
0.973808
0.619144
8.53986
8.26348
3.45134
8.27438
4.91977
10.1411
5.16235
5.45617
17.0988
1.5054
12.9857
6.8534
0.628296
22.8319
5.58276
4.69923
0.515967
12.4485
3.13334
8.60632
3.16049
1.71992
4.125
9.1194
20.7652
3.81657
3.59401
24.1349
1.96268
4.39161
1.79355
23.1893
10.0095
3.94882
17.0223
19.6933
3.29257
11.5208
5.59013
6.2597
2.82774
2.97518
1.62675
10.4675
20.8449
31.2417
0.617256
7.41448
7.99444
20.5716
1.55056
6.31762
1.10862
9.23146
3.05506
25.1306
14.4635
3.7337
5.98006
32.286
11.51
1.50171
3.52848
15.0274
5.11388
1.73466
4.05333
13.9971
14.5343
2.514
15.2169
1.95349
12.5698
11.6247
9.39226
9.54605
4.25117
22.4684
4.19387
4.4411
0.808408
9.66053
9.60636
2.82282
1.24
9.98799
1.22251
4.13111
1.39808
4.91228
15.4457
1.10497
2.248
1.38156
1.0926
29.6518
8.31733
0.532761
5.89019
5.93561
2.00361
1.23432
4.73464
7.12688
1.31091
6.04209
7.46524
19.1812
4.82662
2.94095
6.00097
1.63593
12.2372
11.6566
7.61115
6.26504
22.4334
3.50788
3.35726
8.59021
7.70148
7.59974
1.70515
4.29938
3.79215
10.1494
3.59392
8.09999
8.68153
10.5478
17.3839
5.01115
3.62347
2.39229
4.80264
4.57265
3.8334
8.23608
6.56742
1.87921
6.50081
1.07565
0.983952
1.23452
13.8184
5.4003
21.991
9.432
2.28842
31.6904
4.48196
5.29632
13.3178
8.71887
22.9566
2.82618
3.26692
4.81378
7.31091
4.42143
0.477276
13.465
21.4267
3.10042
4.6604
2.32797
6.30284
8.1651
12.2635
9.97222
10.2595
24.51
2.75049
0.806769
5.4902
0.699487
3.35212
13.0404
12.4175
3.64371
5.07608
15.7882
7.15887
9.72063
0.695936
3.46996
6.90176
12.6159
1.04519
8.92094
3.14705
3.79044
2.46068
6.5417
0.377688
1.80414
9.28636
3.01692
6.75993
14.1277
5.17564
4.38982
3.47821
3.13735
9.96758
2.67704
6.83773
3.37659
9.34108
15.1825
3.9695
3.11962
22.1957
2.0359
8.56179
10.8333
2.45386
2.70462
2.66024
4.36261
19.0002
12.8813
4.85688
13.1683
7.85768
0.565575
3.93528
0.389804
4.31124
0.967779
14.0901
2.95069
10.9256
3.86863
19.611
12.9749
1.15323
7.05479
7.12112
5.06126
0.757672
2.24563
18.3599
6.43849
3.07524
1.61679
0.476318
3.96043
2.03094
1.70333
0.777743
18.1723
0.859111
3.21426
6.04464
0.592728
4.77395
11.1698
6.97765
6.79643
7.74183
3.79957
4.73494
24.6414
3.27231
11.7522
5.76022
10.6138
0.607408
1.46333
9.83323
7.43243
2.86667
2.50169
3.5164
1.92788
16.7308
5.70739
0.69304
3.90957
5.81173
0.559896
5.8299
8.31471
3.78195
1.33107
6.3968
22.9424
1.58832
1.22176
4.16168
9.5169
6.1401
1.61049
0.750574
1.21299
2.49398
5.46046
36.0761
2.85225
3.64182
5.40953
2.88601
10.2043
3.58091
10.0631
9.21461
5.84234
9.85934
2.06098
18.4277
5.98151
4.99987
19.4859
1.08379
8.77854
4.01206
7.86777
4.83061
7.41737
3.91151
13.8681
10.8346
4.35825
1.92373
4.40221
7.32042
21.1895
18.523
23.4872
1.84047
0.431005
6.70918
3.36253
2.79529
15.8083
2.60763
5.76043
1.83783
4.82617
0.498699
0.756219
11.7006
14.6076
5.80723
6.80828
5.99266
7.17017
4.7442
7.9125
1.4842
8.78306
4.25123
13.9339
4.34299
12.4973
22.4107
5.61343
0.930522
3.17326
6.94061
3.72309
2.77407
5.18187
0.463479
4.78811
3.94829
0.899898
7.60086
0.514189
3.0261
3.21929
8.83379
0.405531
6.49982
20.88
1.59764
9.3537
4.55194
16.6965
0.357336
3.17849
8.33247
12.8644
6.17801
19.3771
8.42003
1.72895
7.18051
3.40048
12.5278
0.535307
4.14326
3.85593
6.7094
3.69961
6.13989
7.15292
0.439868
2.73223
1.17631
5.87091
5.81034
0.910563
5.77787
0.478247
17.3619
16.3081
5.03681
7.5919
2.16905
2.65876
6.34879
9.51077
18.3753
8.42382
21.5551
1.29969
6.72132
8.15991
2.28634
2.9427
2.73725
2.93776
12.023
4.67105
7.49767
18.2222
4.29154
3.6066
12.6266
4.23742
1.15277
1.12031
0.433096
1.96333
6.98999
0.866498
25.4002
4.84815
2.94751
4.99265
3.16554
0.814641
8.90614
7.98591
16.1104
4.75842
22.8977
0.590227
14.6845
7.92018
4.52111
2.29173
14.3132
28.0752
4.42055
21.47
0.711942
6.07133
0.344678
9.60154
1.85231
8.67302
0.456268
2.94411
0.50196
13.1293
7.91716
8.77485
1.9873
11.9067
22.2252
8.29614
7.02385
3.34575
11.6551
6.2976
15.9365
2.5344
1.86179
4.75942
3.18813
7.87768
3.14286
0.95407
6.27631
5.37892
2.81414
3.97598
8.76603
3.1957
8.97968
2.5562
5.66281
7.13441
5.58734
0.742414
5.29939
2.70982
5.70311
3.05578
6.26257
3.26982
21.9872
4.9791
4.42471
8.09833
9.84028
0.532008
23.5769
4.88243
12.243
7.79179
7.02323
3.72209
8.96775
10.6969
2.09011
5.69058
0.641743
1.25387
4.06693
7.61371
4.55664
9.03007
4.62623
7.888
1.4446
13.3453
4.17495
4.20484
7.4366
5.61234
3.06959
1.73989
8.13332
0.347081
20.6397
2.46561
7.28954
7.6285
9.25018
0.456036
10.437
3.99647
0.992775
0.712969
6.98484
9.71488
7.63789
0.640532
5.05424
3.22406
20.3833
18.1404
4.60377
19.9988
8.99689
14.4355
16.2448
18.272
4.36385
1.73671
38.4918
12.772
1.2409
10.2748
19.1484
5.5643
4.95966
4.11831
2.70602
5.99224
4.08471
22.7587
10.4814
2.0532
17.1224
5.80441
2.81985
2.29829
10.3961
2.73542
1.50227
6.64873
3.92998
5.266
2.1312
2.03215
5.335
3.78178
2.67665
6.81278
1.95144
5.00765
7.94897
0.658306
0.731341
2.59355
2.13781
5.961
1.69221
8.57485
3.26424
12.8007
17.553
10.9763
12.2234
3.76188
0.357034
8.6311
3.43217
0.736988
13.6686
3.49652
12.8951
3.13882
6.34034
11.0726
5.08055
7.44739
2.82116
2.14597
15.4436
1.8703
16.5554
24.7835
16.7717
6.12534
3.11984
0.528837
5.36143
4.19114
4.96231
10.1971
1.55242
1.33847
3.67232
9.15794
6.38852
13.8931
12.1198
1.17924
7.17773
19.168
10.5954
1.34244
5.63265
12.6209
18.1034
8.10255
9.19942
9.69926
1.83607
10.2802
14.7683
3.86959
7.38488
4.98445
3.85025
6.82309
1.77548
12.5502
2.82174
20.4321
2.86892
15.3126
12.3725
5.74449
22.2339
5.77997
10.1029
1.84973
2.88908
13.3939
5.84919
13.1692
1.65409
8.41162
0.769929
6.57202
3.16546
3.05208
9.32071
13.0256
3.52078
6.06349
7.63073
1.08232
8.62257
9.62804
0.689547
0.349096
9.93493
2.36036
6.9891
6.53416
14.7587
7.07462
9.49221
4.63061
13.7875
10.5082
5.83511
4.11888
2.64707
1.54792
8.94987
3.88812
13.6817
8.5826
2.12633
3.90845
31.3677
6.94183
4.81193
4.55892
8.55053
3.05108
8.10819
7.10342
10.5896
1.17298
14.8963
2.01721
4.44508
6.27228
1.05917
9.49854
9.18501
2.49746
10.8956
7.05055
2.98052
20.1645
2.61747
3.58664
2.69395
8.62071
2.27129
11.6615
6.84948
16.9164
1.46223
8.22484
0.60558
3.03338
2.44251
4.27072
0.513737
7.74603
10.2649
3.07725
12.9898
3.75583
0.644195
1.34697
6.22479
18.0442
7.24733
1.74246
3.93951
0.544399
3.50308
4.57488
4.79175
6.98741
3.65637
8.40125
4.57553
5.03956
10.7192
6.77893
1.76792
6.15315
16.6854
5.50457
5.89671
11.1195
1.44967
12.421
7.00639
0.960963
16.5127
6.96255
6.18109
6.60621
13.4026
2.93002
6.83614
8.90908
3.26739
4.64678
10.0356
7.03681
11.5444
1.27335
9.03227
6.92456
14.0918
14.2673
2.29819
7.91401
4.09249
0.394085
1.00365
5.16766
17.0691
2.10035
9.40133
5.09949
3.73241
4.55192
3.04043
2.04337
1.02688
3.99702
11.8285
5.07344
8.14765
4.22407
20.1485
5.21248
7.25377
0.812459
1.61093
17.5456
5.06369
9.54268
3.27138
9.2338
8.43352
12.0752
6.03059
1.96055
2.29305
5.57745
14.639
2.26661
11.8425
3.61147
1.78344
2.03039
0.554865
6.75884
1.72494
12.5754
6.33844
4.5746
6.77664
7.8831
16.1464
4.27871
8.40043
4.37221
5.88541
3.30954
1.18637
4.07333
5.56672
4.46133
3.98178
1.92721
10.721
4.0524
1.96421
17.7288
6.94339
8.09231
3.56959
0.790881
6.88937
4.4151
6.16956
9.84112
4.89726
21.5613
11.9428
6.03072
0.668471
3.40451
4.72379
0.429499
4.57292
22.5815
12.4686
18.0415
7.16527
1.59697
10.029
9.48768
20.4694
8.43475
7.92634
1.34435
2.26397
4.11765
3.57889
7.95404
6.92763
2.34923
10.5002
1.44129
17.1748
4.81724
6.09366
19.1623
2.00112
27.2935
9.31738
4.04261
7.21865
3.46029
7.97478
0.498678
9.6596
3.15544
1.6026
0.433904
4.29318
9.16807
0.956744
13.8614
0.909118
1.63103
3.12419
4.81719
1.73098
11.2364
12.4486
3.07805
1.58994
11.2864
11.0648
3.53799
0.856215
9.62106
9.00252
10.6316
9.44002
5.35833
10.3341
11.7835
5.01242
6.89587
19.3098
2.14805
20.487
1.79269
2.40693
0.491552
20.8332
11.4551
1.09412
8.63836
7.42671
6.03137
8.07853
2.10036
1.50343
5.56568
5.77046
1.796
6.9211
0.451006
22.8264
8.9448
2.55884
26.7937
4.64731
1.05049
27.2388
8.15153
8.04964
6.03328
10.5441
5.89861
19.99
2.91664
12.2246
8.11676
4.24457
6.73799
0.392583
12.2891
4.23724
4.78666
1.43921
4.60849
6.40713
2.53461
4.4283
0.607568
3.54093
4.32526
4.8205
6.92664
5.39018
7.11555
0.878868
5.10867
8.73143
5.17255
5.28601
4.46555
9.23351
19.5576
16.5598
0.922864
7.8193
4.36025
5.88411
3.2996
3.88188
15.0639
2.89079
3.8407
6.89634
1.89358
12.9472
3.25801
11.6393
7.42403
6.1297
1.3401
7.47368
12.5475
4.23287
2.81642
13.1197
2.60384
2.0175
11.5328
2.80799
6.04124
2.35177
0.796333
6.04035
31.8626
0.843418
3.63181
7.13246
1.10648
8.64028
2.4467
4.57609
2.32572
5.0358
0.792979
5.47118
5.47478
4.15837
2.3408
9.15832
2.39537
23.2544
4.3861
15.5042
5.70309
14.858
5.28769
15.6453
2.32155
3.85233
10.0055
10.5437
4.83392
5.26463
4.89441
7.72271
12.2425
29.0489
37.8612
4.95308
1.0718
15.3933
8.18271
5.95603
0.784267
4.05626
17.6969
3.55256
24.5933
1.45404
2.9804
1.55406
1.82906
0.531533
16.4334
6.15248
1.91195
0.721395
0.366348
5.02627
4.15908
6.76901
4.69672
9.6099
6.78941
0.959521
14.5894
2.50918
0.908874
2.85848
6.82647
11.2397
1.46473
1.53439
1.82864
0.533371
1.05359
2.80164
1.16717
4.18885
5.12122
4.52818
3.07892
2.49087
4.24114
20.8556
31.7153
13.0636
44.6194
6.71749
11.7035
1.84851
7.08948
5.20306
14.5611
2.34483
3.91057
5.29964
0.840046
3.96262
0.582431
4.98644
2.13191
6.11592
28.2443
9.23223
3.58474
17.7392
11.7371
1.11838
10.2397
0.413232
0.40225
2.76993
8.88099
18.3189
5.41615
7.57091
5.39383
10.8704
4.22287
2.31133
1.73489
19.8316
6.76517
12.231
7.38597
17.7742
16.0702
3.16911
2.17955
13.6629
34.1806
7.60954
0.492387
2.65765
10.1313
9.77293
1.18632
8.70477
4.11933
1.52638
20.0346
10.1141
7.07145
12.6717
4.43301
3.8052
5.14871
6.10425
5.90038
8.74164
15.3499
6.8275
5.40847
4.7219
10.3663
21.2705
2.15137
1.28363
8.24193
1.85007
4.62067
2.1926
6.47168
3.76065
6.0837
7.40093
18.6365
6.7469
8.90919
2.90533
3.89541
13.1177
7.45551
3.33175
1.03281
7.59321
0.443968
12.2151
2.40441
1.12037
3.09574
0.492214
2.37925
5.58754
1.19513
30.8669
12.9872
1.77255
25.2005
12.3212
2.69773
12.3174
6.46678
8.30014
0.731829
3.19101
7.81257
10.1606
7.36218
8.56552
5.70441
6.97689
5.44529
8.00197
16.015
14.4586
1.28866
7.7771
3.37913
0.574605
5.61597
4.51407
0.898994
8.57497
16.6683
5.64691
18.5778
13.5595
10.5119
16.9902
16.7936
2.16759
3.84678
6.13173
2.07999
22.0453
10.4259
1.65924
3.0224
3.46995
3.8066
2.18909
0.697723
0.576078
1.47525
9.00186
10.6561
2.08668
2.50014
7.31374
3.43118
0.389454
4.42804
1.97612
2.98152
4.47928
11.8568
41.3925
17.9494
1.95623
22.2886
0.79425
3.22133
4.16587
3.55664
0.862301
11.1371
3.77666
26.5497
1.09607
4.97789
2.34492
6.87756
1.22625
4.72748
17.1839
1.41686
3.70032
0.393161
8.23395
22.2593
2.20909
1.02352
3.94166
9.43748
4.46194
1.35385
7.70234
1.56656
8.90814
2.60651
2.85569
2.89305
5.41234
7.37204
23.3185
5.75601
3.0797
10.2152
0.585879
3.67732
8.34876
2.73126
6.05704
3.56041
11.4606
27.2106
17.496
1.88393
3.7322
10.3356
32.3087
9.42011
7.11439
9.29954
8.38196
7.25135
9.77621
7.79609
3.36844
9.98186
8.28062
1.04009
7.66431
1.85307
6.39137
5.03465
4.65249
10.675
9.11551
3.11529
10.0446
5.32442
1.52194
11.8035
3.37158
1.04398
9.02391
3.54056
7.95712
5.13054
10.7579
1.58035
9.29994
22.3302
2.97336
1.96728
0.45391
6.10733
1.39879
2.44564
15.3921
6.68622
7.03835
12.0551
9.79997
26.2535
3.73174
6.44492
5.51895
5.26764
7.77138
1.98836
3.85766
30.6227
18.5574
16.4192
7.82253
1.45399
14.8196
4.47538
3.39996
1.75941
4.28018
0.492411
20.1673
8.5859
3.23589
0.8723
0.560528
2.93739
12.6631
14.494
5.44245
5.69462
1.24009
2.21232
3.41599
13.4602
1.94206
2.58671
1.60828
22.6118
3.46126
7.10381
5.95312
28.5882
8.65375
3.13435
0.310175
5.36648
2.49204
21.7096
3.32769
11.3994
32.4616
6.95513
15.246
3.7237
0.837048
10.3903
10.4218
7.35022
10.3636
8.33274
24.819
10.6271
2.70448
1.47531
6.28836
22.2583
9.54078
9.70913
0.409417
12.2759
14.9265
13.4696
3.47966
6.06782
9.62486
2.46353
21.5912
6.63871
2.32119
8.4508
7.76053
2.36449
11.4925
0.720164
15.4676
17.082
10.3024
6.4072
5.54327
8.61508
3.67104
3.93408
8.47545
6.77827
12.0105
7.08531
0.443783
7.49574
11.1797
2.78027
10.2536
2.89693
3.80933
3.64039
1.40305
6.35977
8.75539
4.94454
2.72393
4.14183
1.67317
1.79013
4.52264
2.16642
0.403142
6.0106
10.6524
9.16057
3.36518
2.35383
1.2291
15.5309
11.6942
2.21127
5.65869
19.5564
0.408885
9.52915
12.2967
4.229
3.0214
1.74878
6.63886
9.59871
3.89148
16.9601
14.237
6.38412
3.10525
6.12354
18.8988
14.4651
1.59755
2.841
3.41264
1.79549
31.4684
0.423391
6.85345
2.65983
13.2087
3.0945
5.32051
7.43114
4.14424
8.16444
5.87503
13.0676
15.3465
2.20772
0.688057
5.36797
3.66326
13.3164
6.19187
8.83025
2.56855
4.31134
0.613675
14.6191
13.4663
6.06175
2.39989
2.5872
15.1418
7.00231
3.46881
18.003
12.7617
7.458
22.3496
7.51235
6.87704
0.886474
2.67593
4.74457
14.0194
14.7676
9.2753
3.3231
2.27674
5.95485
9.94775
0.558454
0.423163
4.09924
7.3461
3.33759
3.70716
11.6868
6.68339
1.72748
0.470069
3.75429
3.96381
8.34315
1.08899
5.48273
1.15724
16.3792
5.96119
2.67216
1.72043
8.63682
3.17156
3.90019
11.9364
1.59221
7.18874
7.85636
29.0832
15.0632
5.60807
6.07325
3.63783
2.79858
8.04288
6.5323
18.1513
5.38053
2.56723
12.7717
3.64711
1.12573
14.4468
9.19017
1.36316
12.8706
2.21472
2.13158
34.2495
12.504
11.4504
30.549
9.62874
7.21812
1.56077
0.427116
17.2529
2.28161
2.64084
5.58649
14.2669
2.43186
8.16629
5.32757
34.5932
3.07655
1.39362
5.61978
7.00212
3.19164
2.72231
1.0519
12.8327
6.98319
3.39133
1.8131
3.21589
2.57936
4.41615
2.83082
6.90722
2.66471
11.1066
2.66221
10.3687
6.54179
3.10214
7.78636
3.72803
9.91919
2.43134
3.24313
7.19636
0.988127
3.97138
5.0879
5.99949
2.19486
2.55217
19.359
3.74149
11.0079
17.3017
8.9649
21.6499
9.73418
4.29069
18.2503
2.40807
4.03603
8.00766
3.85089
6.03176
30.0888
2.14338
9.23548
52.3397
4.58627
18.9209
1.47188
6.73987
0.728312
3.60256
7.41086
1.60109
22.2196
0.890336
2.432
5.20966
12.4207
15.2074
4.60749
1.73169
6.97069
1.96507
3.65014
6.34824
1.99843
4.09136
5.20537
2.74549
1.66661
0.839898
3.55879
14.889
8.14974
4.93628
7.96638
4.26107
0.966619
3.28594
14.7042
3.63378
7.14622
3.18649
0.999806
5.4072
3.61918
6.52401
2.13628
18.0103
12.9874
5.52477
9.74762
14.6283
6.66084
5.01961
6.7157
21.2937
31.0304
6.92361
17.9197
4.84417
9.69475
6.77884
10.203
4.43234
5.83587
1.7302
1.86089
1.3719
4.06822
14.8868
10.3537
8.05445
0.539911
7.61667
23.7457
6.33613
15.6924
27.8347
3.96451
6.09532
7.44832
9.74339
5.74082
5.26973
2.90001
4.43265
12.0128
1.98588
5.47395
3.6883
2.40214
3.93298
31.3088
5.8084
2.81848
11.3715
1.73134
7.78735
7.41897
3.36146
15.8862
9.33833
6.13512
3.98092
0.861343
2.85853
12.214
0.474639
11.7013
5.72066
6.74922
5.03414
5.24259
5.83092
26.2443
2.28874
3.44646
0.438874
4.2846
7.58396
6.89715
5.2583
3.72103
26.5814
4.96602
14.904
8.72243
7.58021
4.87006
10.4992
3.43253
5.12971
1.14056
1.72343
13.824
2.27274
9.09141
4.89022
16.3894
6.06539
6.44958
2.4289
6.48309
9.23045
1.62558
9.02121
1.56202
3.3386
4.27946
12.4669
2.67476
4.46828
3.31221
12.7153
5.6293
6.66426
8.08406
8.58253
35.5614
5.68242
4.33816
10.7445
12.7688
21.5026
1.93626
16.9992
3.23419
1.98566
3.5417
14.4878
2.45228
8.72091
17.703
3.30196
8.1352
19.448
4.52289
3.37544
3.6353
12.7584
0.383084
11.7144
7.81841
16.9655
3.33428
12.7877
25.8585
4.98496
3.62677
5.34548
21.0882
10.5736
5.31234
12.582
20.1471
7.93592
10.5312
5.40242
3.85671
8.06457
12.4147
3.33661
4.83449
4.56153
15.0445
3.02996
1.76517
15.8146
7.98393
15.7031
2.45828
6.49737
7.53063
6.70552
10.0025
0.884996
0.883986
3.57049
5.47886
13.4328
12.0445
11.1801
2.40077
6.84781
1.18911
2.52945
1.26488
2.9857
1.11304
16.2311
10.7638
3.98579
3.80071
6.64408
8.4129
1.29953
12.6341
3.06452
3.1437
6.83599
18.2662
27.1627
14.7554
12.0678
1.71173
1.72681
0.452195
10.3796
1.48659
7.70912
2.15721
4.01706
6.28358
18.9715
21.8118
1.34578
7.32564
0.728619
4.45095
0.955492
3.6527
8.47436
2.19007
2.0866
6.93224
2.81486
2.09485
14.1143
3.52655
10.783
1.53189
0.80034
4.08123
2.78118
20.6548
23.8805
6.43976
5.32396
1.08423
6.52013
28.9917
4.77813
4.72878
5.69267
9.78406
1.90938
3.87095
1.32475
11.688
4.4363
28.8615
1.73814
12.3772
3.57732
10.6695
14.7551
5.56322
7.6696
6.6132
6.8482
8.17109
2.20292
1.71023
5.7816
11.1472
0.593393
2.46167
6.48484
4.92214
10.3259
24.835
16.3502
14.7846
6.4293
9.93088
10.3365
14.611
0.760687
3.96122
8.56343
4.8116
0.60046
6.32883
5.9484
1.98054
2.15884
1.909
2.8892
14.1727
4.93752
2.90239
7.18309
4.42912
2.51725
1.79815
10.7641
22.3926
0.54014
6.23543
0.523851
6.94821
23.2662
5.93292
0.851383
8.92399
16.0794
5.8163
11.908
12.8737
11.6103
8.4503
2.56889
6.53901
4.48437
5.96668
21.2968
8.50057
16.4022
2.06617
5.54966
6.16216
12.2365
1.07775
16.9527
2.21028
3.95735
6.3437
3.28137
8.81761
1.37233
0.836258
23.1503
5.75531
11.4351
6.15624
4.61824
4.81758
3.77325
11.3398
4.57943
4.35422
1.37221
1.01118
5.97595
1.66394
10.0287
3.70749
5.13811
18.9884
15.3736
8.44914
5.56017
5.33274
5.42743
12.4541
5.85857
3.38691
2.40231
11.1602
11.4428
16.1909
3.20309
17.3581
6.08702
2.45397
11.7574
24.8117
9.95031
2.43239
2.29013
2.70469
8.12805
8.5633
10.8663
7.95856
5.43126
4.77648
20.048
3.6212
4.90979
5.51384
3.71343
9.90782
7.35055
6.24945
1.78925
4.05875
3.04012
1.86124
7.12354
1.70537
7.44787
7.86699
6.01124
1.40398
0.362007
7.59973
10.6831
2.81548
9.54501
14.6506
0.66259
8.61678
4.70295
6.17383
2.59742
4.08732
19.5273
5.46172
6.14035
7.52962
6.74318
20.2454
9.56443
4.37627
1.33791
1.49114
5.4525
3.24065
32.7509
6.31582
9.82019
6.54219
1.68632
3.20017
5.34156
11.2957
1.42368
5.11434
1.69572
8.42933
2.45905
2.1807
1.49187
5.20931
5.2761
17.6275
3.41391
1.72369
3.34939
2.48931
10.8637
10.0057
0.555725
25.0603
10.7112
14.1945
6.37373
2.42376
9.59412
2.45999
10.5535
2.41134
4.34049
3.22197
12.1562
5.50651
1.99888
4.43743
2.11225
12.3081
19.5382
2.14196
5.91183
9.14874
2.77014
15.2128
12.5738
5.65383
10.1624
5.80183
7.85418
1.71731
3.32316
3.33951
1.72846
6.81368
6.26881
9.89508
7.89259
10.2586
0.679762
5.52552
5.59175
0.408971
5.17731
4.65819
2.59845
1.38732
4.7732
1.44098
23.3771
3.5027
3.32691
0.332286
13.7162
1.70696
5.9559
1.93595
11.7208
1.87056
13.855
7.48554
3.14113
0.697706
0.476239
1.42726
3.06737
12.3954
7.90047
5.92612
3.69029
1.20789
0.757814
6.58996
10.3334
9.2141
25.6002
1.90127
5.6873
5.95104
11.1002
4.70407
6.34844
18.1812
4.30891
5.4186
7.73231
4.23422
3.86435
24.4397
25.469
7.99506
0.795606
11.8152
4.57027
1.84413
4.41227
5.07496
4.68902
5.83874
3.69684
6.3226
1.93833
2.41934
20.9525
3.35723
2.55268
6.42332
3.82481
4.09121
0.813107
2.0345
4.00704
5.6147
7.78811
14.1561
11.1662
5.18215
2.60428
5.9601
14.1786
7.07548
6.4143
13.1386
0.451475
7.18095
1.59585
1.90008
11.5469
7.68116
9.06725
8.3245
4.08392
3.70517
9.65694
4.59783
15.5574
1.81192
3.4807
5.63948
4.05995
8.31402
5.35431
24.3483
18.1944
4.3975
17.4353
9.87378
8.43463
25.6152
2.62696
4.28559
1.95348
23.1891
18.9904
4.78876
20.7566
5.12024
0.466224
17.8337
1.20277
6.81738
5.20503
33.0083
1.48875
9.32208
3.91126
11.3956
21.6354
8.2539
1.3022
0.69426
0.494444
11.3181
1.2429
10.0634
8.45401
9.61976
0.571948
21.8085
3.007
23.644
5.654
2.1106
5.29434
6.81648
2.30968
3.63337
6.16934
7.57841
13.2166
15.4667
2.06768
5.89357
5.35427
5.99429
7.78464
9.16461
3.72909
1.62326
8.70284
5.08199
5.1863
3.40141
2.33875
5.71768
19.8927
7.05529
7.64847
3.48883
3.43826
4.53149
0.579368
20.6703
3.66838
3.82016
1.36621
5.22347
17.6676
5.5975
20.8268
2.19114
1.81307
10.7872
4.58133
8.97901
3.55443
5.76522
3.21678
24.2679
13.4084
4.20023
2.40208
1.88109
2.61335
6.05186
7.3541
22.4245
4.71341
13.2716
20.3789
6.30801
4.48887
13.7636
7.90567
5.20188
3.73725
8.8511
5.78628
17.3697
8.9412
5.35641
18.6818
7.40624
2.17863
6.38082
3.74218
2.3073
18.2118
13.7452
6.67732
5.85645
0.539779
6.39822
11.4517
20.1752
7.02202
4.14458
3.1861
5.97659
14.7235
2.31807
9.68636
4.82836
6.66113
3.71941
0.416848
9.59242
8.56719
4.48455
0.655627
1.05303
6.65519
8.54543
7.59497
3.30191
5.34582
3.23138
3.64238
5.59718
1.74648
17.1044
1.93935
16.4181
0.932885
50.6942
7.35251
18.3541
3.4018
10.0727
7.62397
1.44413
1.06449
10.4666
2.19673
9.03369
20.1289
8.7883
0.920423
0.447484
24.1286
2.28204
0.896274
1.7634
0.628744
2.51928
6.58702
9.91926
11.246
18.3995
2.45672
4.29043
7.44261
2.47101
7.8235
3.63287
5.10914
1.92991
4.30655
17.8689
3.16433
4.75388
10.6016
15.0658
7.63683
1.91778
15.7514
3.54624
5.15608
5.79099
5.34197
7.88025
2.20445
19.5505
5.8302
3.9387
21.5112
0.412437
2.44135
3.3992
2.52011
11.723
5.34815
8.57806
1.34971
6.61888
8.14995
10.9876
8.49283
8.7676
8.00483
7.18958
9.45471
17.7486
9.83123
9.14581
12.8857
1.94905
8.33697
14.1545
4.47881
7.66935
1.68062
5.86078
5.50667
1.31236
0.608941
3.47167
5.042
7.50668
7.23224
2.50249
0.408306
5.20589
4.22017
4.67636
1.86339
6.21463
1.91364
0.805972
25.5223
16.7532
7.49057
7.87604
2.22734
6.89305
6.07459
9.29454
1.10752
7.11397
3.76069
2.42365
1.32975
3.21527
4.4627
3.36755
0.441574
6.49431
2.15934
16.6592
14.5991
4.50336
1.75667
0.645962
7.76759
1.81825
0.577634
8.69183
16.6204
16.0134
13.8949
1.23411
0.666276
4.71259
2.52676
5.72719
15.7642
17.2305
9.16197
2.2885
5.49714
9.32782
20.0868
2.96706
4.13319
15.5921
3.75429
4.71391
4.20717
0.447619
3.25384
2.46462
2.65168
3.61499
10.1795
9.18058
14.3705
6.81817
1.87903
2.38621
35.6663
4.31818
8.81672
5.9092
5.00846
9.68219
3.76079
7.07734
11.9125
11.8529
2.1148
7.59779
4.84056
14.7326
6.71521
6.33189
5.53677
3.39712
0.620752
4.10374
1.90443
8.29448
1.36648
20.8447
1.41689
5.92524
2.66246
0.630309
8.71449
1.6043
14.1646
8.01087
7.71835
3.40922
25.6437
6.29347
0.484504
3.86756
2.71147
1.43221
4.58704
0.776193
5.91516
7.47118
6.67812
2.59825
3.51959
1.99151
28.5301
1.47206
13.4758
18.8369
2.77618
3.25274
1.53191
9.56825
8.41126
8.09928
11.671
7.06133
14.5655
5.21462
7.12728
5.82197
4.28305
2.66412
18.3315
1.46527
1.1064
14.5003
15.1259
4.84017
10.8072
7.70736
8.2695
3.86276
3.20438
13.8522
29.6577
9.32788
5.90997
1.21299
6.94039
4.10657
3.19383
6.15842
1.92455
10.2488
3.02298
1.66626
0.40085
11.4293
5.30131
3.46334
13.6378
5.59442
1.94301
21.7678
5.03086
2.91325
0.860654
2.78197
1.85267
7.75141
0.498926
15.7515
1.65417
0.443378
5.18778
5.44271
5.25483
3.43385
8.31739
1.37979
15.5331
14.855
6.40235
8.75943
3.39466
0.627491
6.01267
1.20863
3.23011
0.847273
9.22285
5.12695
5.76948
17.1506
1.73115
10.6693
8.68075
2.44282
13.2573
0.812029
3.86568
12.0167
22.2948
4.64413
11.7029
11.1779
7.28333
19.9702
7.62964
2.33728
1.56975
0.665044
1.69846
0.989702
2.84769
19.7349
6.46526
2.50212
0.56273
31.4664
5.81487
0.37706
3.69304
11.2163
10.6424
4.83486
1.84327
28.1775
8.46
3.07266
18.0152
9.776
7.22441
3.5493
3.4217
7.96163
5.24362
3.96756
5.41916
3.75996
3.8734
4.65514
6.56054
16.0813
3.89075
1.42022
3.56021
2.97713
18.6616
7.47068
3.88183
11.206
1.3651
1.75226
1.87035
2.69888
8.94874
24.7201
1.33121
3.89122
13.0992
0.615031
5.3132
8.89467
14.2345
4.03178
16.5401
15.6957
8.67931
0.456471
2.06486
15.1912
4.32425
0.698556
6.53633
2.28253
0.957639
14.4353
0.661226
0.410689
4.98561
2.94394
5.00435
3.90204
1.41842
11.0755
4.68135
1.44892
0.787373
4.12749
10.0683
3.43925
3.7676
1.31935
11.961
0.845273
3.85064
1.05494
8.20535
3.55825
41.9554
3.56911
17.1324
5.01728
4.31175
2.56664
6.45927
6.81228
7.9372
1.23738
3.95704
6.27036
1.45075
0.47696
3.23619
10.6279
0.39116
0.404707
5.08189
5.63803
4.14214
2.30515
3.81495
2.54084
3.7051
6.09732
21.9393
4.26041
11.7986
14.0938
0.56814
1.62039
7.1304
7.86057
6.73378
9.09417
2.42911
2.32611
0.486635
5.85534
0.780466
3.72124
17.2782
2.84114
8.22139
25.6794
7.45899
2.04484
24.2145
16.3339
12.0594
12.4367
6.06053
2.84432
4.75132
5.08289
26.9501
8.97553
4.16358
10.839
0.473192
0.477208
4.29251
6.84178
17.051
7.03508
1.31262
4.6112
1.41174
3.80594
8.95958
3.95038
2.97302
1.74804
4.25422
4.45838
6.86272
8.3598
18.3247
9.9168
17.978
2.92899
2.25976
6.55389
13.6582
3.07567
1.34614
9.3864
1.04622
14.2746
0.36703
8.30024
6.80821
2.7394
5.46263
2.87294
3.84464
9.13605
5.17685
10.7513
1.7068
11.8709
6.42213
17.4131
1.4033
21.6977
3.6554
3.81411
7.88966
6.62128
8.48134
6.28239
3.49231
3.56322
18.4881
2.90564
1.30517
16.0022
4.94848
0.347928
4.96724
1.8119
17.3088
24.6917
12.4403
1.93791
13.1138
8.61335
6.74828
18.2146
2.39402
3.70052
7.3683
2.84178
3.41441
2.71503
5.19393
1.47551
5.52608
1.66366
5.53804
5.77845
16.2083
6.44879
11.2694
16.3361
2.04737
6.88149
2.89977
5.87878
4.75205
4.59376
4.63181
4.87206
0.509259
1.11772
7.30028
11.3513
8.61159
5.56699
15.0703
6.38992
1.6437
15.2235
28.7783
7.78746
8.41831
3.98911
17.1439
11.3541
4.98953
8.11927
8.79441
7.25332
0.897707
5.53069
15.4068
0.904986
3.82381
3.39175
10.0994
14.3194
3.67302
3.16276
5.89817
0.393712
12.0803
2.98503
17.425
1.09978
8.66884
24.1791
9.75559
3.1423
7.6407
6.16508
5.11794
5.38861
6.35095
10.8866
8.47311
7.79747
29.3295
2.18451
13.8617
10.7431
0.70082
5.1416
5.44715
1.77222
4.3223
1.39809
12.4287
8.53878
5.20335
6.05034
9.82598
4.60758
6.93411
4.49039
7.40433
3.34291
4.96983
35.5965
1.54915
11.9194
6.59276
8.15463
3.51294
6.21063
41.2526
5.5626
10.4061
1.02265
1.66192
3.61869
26.3394
3.41656
14.9379
6.00759
3.2342
2.08724
21.5735
3.58175
4.93868
1.28908
26.1246
12.118
9.30077
5.0255
8.06987
4.70313
4.23731
7.34502
6.31047
1.89473
15.4974
7.75899
2.52014
6.32466
9.37216
7.94786
3.7498
6.19364
52.0189
8.56452
0.725278
6.01767
3.29984
11.0495
9.87588
3.37632
1.69912
4.22659
3.15319
0.444717
6.42709
13.4034
1.88884
0.474225
3.84425
0.926632
7.91498
4.06252
5.99066
7.6798
8.90022
1.91539
4.71762
2.65428
7.91913
8.51422
4.97284
5.84895
2.19542
13.7152
1.35968
0.425649
12.0803
5.28035
2.36218
1.54718
13.156
1.82622
8.54178
13.1961
4.5184
12.318
2.75639
19.2466
6.57342
2.42508
14.0352
2.92843
6.83445
0.501382
0.309431
6.75295
21.2576
8.90727
1.18997
2.69316
3.31435
2.28117
1.19383
14.0747
4.89597
7.64541
2.10288
3.68727
3.4851
2.53664
4.81444
7.16436
0.53268
9.29815
1.9076
6.25394
8.88127
0.497894
8.31686
7.05819
4.95647
8.90687
10.6101
2.35676
16.0897
7.33797
3.29462
5.73937
0.579326
8.8875
1.72131
3.85263
30.5787
15.7497
3.59908
6.5555
8.33858
5.86594
6.23845
9.89634
17.6661
3.6456
3.34842
1.58094
7.9924
6.27225
0.66465
32.469
6.90112
3.81582
8.22072
13.2474
7.94802
2.30141
4.21364
11.6754
0.419723
8.15817
3.58215
11.6968
14.2206
1.70161
6.07302
4.66454
4.77255
6.55838
0.839886
16.6036
0.485058
0.374291
0.949367
2.22197
1.72248
0.523833
9.64541
10.223
2.15881
7.5289
11.1487
12.1024
12.7592
1.87557
2.3164
1.56391
4.88623
6.28452
2.61599
10.9911
12.3054
5.09846
2.26081
5.63932
6.08152
0.865257
2.48023
2.02512
5.90426
4.97291
4.78457
1.60337
2.6831
5.71339
3.9925
7.49884
1.98506
0.843866
2.17576
4.76064
7.141
16.9894
2.68434
4.10971
7.05301
9.30247
2.9744
0.361143
15.4987
8.38354
11.909
9.69647
2.80971
7.13706
0.475581
4.69861
2.55436
13.5159
1.62931
14.3942
9.72911
1.42836
18.0173
3.39472
10.2877
1.5769
10.9928
21.8818
10.4934
9.66309
6.5428
3.74411
4.39643
7.87205
5.49793
27.4747
1.56207
1.2779
8.8353
3.97292
2.25372
1.82821
4.35696
3.75721
4.978
11.2886
5.14704
6.92193
11.0564
12.3078
0.961839
1.63912
6.40485
3.41913
4.35902
4.75314
18.0455
1.79558
1.7295
12.3073
2.6424
6.32404
1.25961
17.7518
1.555
2.22963
1.94184
4.33638
3.77238
3.15356
22.879
5.36578
11.2943
9.96909
6.50016
13.6544
2.18314
4.12712
15.1328
1.14495
1.76844
7.70511
6.9291
1.16663
4.96421
12.3168
2.17094
4.75875
2.33595
8.11103
3.32734
0.458186
0.479412
5.73372
1.89633
4.26515
0.458517
4.83912
5.90308
3.6987
19.211
2.57148
0.410291
10.5004
7.54691
0.769555
10.3592
7.91232
1.52681
2.83929
3.35364
3.71861
16.3322
6.01358
4.81641
4.58925
2.93657
5.89219
6.55813
0.666239
6.43359
2.66708
12.4414
8.29785
0.443451
13.739
2.52336
13.2147
2.63778
1.87218
6.14308
7.62259
9.57618
2.29678
6.65229
6.05938
5.05306
2.68912
2.91985
7.44473
0.365034
4.01196
1.63883
6.30161
2.14583
1.41741
9.71697
20.2138
6.39702
0.618395
4.1951
7.4512
6.93981
25.4111
5.11267
11.455
34.0814
2.4717
10.3554
2.99592
5.58176
2.02012
16.2888
3.47352
0.546855
3.4617
19.4575
5.44389
14.5294
7.31965
4.67792
4.58171
17.3612
13.2476
0.619231
2.00045
11.5996
2.54357
1.74496
9.88494
3.13635
1.66667
2.13925
7.35392
1.33793
2.77885
2.21513
4.77829
1.30229
0.944028
9.86646
8.0035
8.39134
3.45628
15.5064
2.00437
21.8963
22.5653
7.38407
3.57791
12.2294
4.36765
1.36543
1.26494
25.309
3.87494
2.78919
4.03831
39.3115
3.40981
6.58336
2.47864
5.94747
4.06945
3.22059
11.0494
8.95563
5.19867
2.97869
17.9492
3.28085
5.04893
5.79975
13.7334
4.46533
0.479945
5.48411
2.55162
4.96573
2.7036
1.10397
7.45315
1.55815
1.51329
4.63932
11.7965
0.811692
8.95635
4.17226
17.8745
4.55661
2.75007
10.2475
2.76373
18.6439
4.18143
4.03569
2.01589
4.4581
7.12839
9.0905
6.39623
1.67044
3.26506
13.2738
3.68588
0.411568
0.754872
3.02576
3.7309
8.50759
2.98812
0.675591
11.7892
7.14772
0.696654
6.25817
5.07187
14.8331
2.80846
4.96155
2.0175
1.66664
1.22183
3.83729
16.4145
9.79285
12.297
14.7168
2.40637
10.9986
6.58637
9.01769
45.4718
4.43885
1.89884
12.7103
2.25755
18.5489
5.10158
17.132
3.70846
2.58185
3.4437
11.9732
21.1343
4.45644
0.820726
3.2567
0.831718
0.708188
15.2336
3.21674
3.49047
8.12203
3.71553
2.20272
0.909683
2.89333
8.06969
1.73884
9.34135
6.74837
11.4071
3.93104
4.78113
4.84618
18.2026
3.39893
7.21609
2.99799
7.50236
1.00253
1.27328
6.7902
0.791761
6.78993
8.81272
0.828738
9.24231
2.16163
40.7233
12.3068
10.0981
5.26971
4.93672
1.92494
4.44282
4.81771
6.93712
0.444984
4.27228
6.90904
3.97615
3.10673
21.5185
4.68461
8.02952
2.84582
2.27812
4.24766
2.84681
18.0195
2.1807
2.73202
7.38211
5.32514
1.58947
0.880876
7.41253
10.9463
14.9419
2.14073
6.52952
8.33276
6.52128
15.7375
10.0209
1.31365
12.2917
1.95184
4.01597
6.96878
6.2091
4.3684
4.65077
5.89954
5.63998
3.2875
7.1902
6.94906
2.42018
1.90998
10.2263
2.4224
1.89983
28.9827
2.17071
7.04306
17.1345
1.31899
4.98042
1.49601
3.24838
1.53268
1.59651
20.4032
13.2095
1.49303
8.74
1.61148
4.33317
3.94728
2.96203
24.9586
7.31257
16.3066
3.02856
14.8479
9.66735
3.48846
15.009
1.13432
2.54724
6.71056
6.55595
24.4273
1.39639
5.196
2.00718
5.38385
1.68525
2.22723
14.0015
4.23285
4.58568
2.41171
3.20511
0.737265
1.82426
0.463584
14.3428
0.920707
47.3664
3.34676
17.2121
4.59619
0.959263
2.05979
0.351299
4.68155
0.650079
7.92919
4.54418
9.23752
2.35474
4.18364
3.15903
25.973
8.53458
14.8372
9.47826
13.2768
4.05482
2.82678
30.8029
3.65347
4.03872
34.5676
6.30481
5.11204
6.43814
17.3504
11.1411
10.4048
5.17038
14.1675
3.11896
8.36991
21.1014
4.20633
3.48039
20.544
2.36968
3.34548
4.40209
4.63658
2.75976
4.17673
4.10444
0.753034
0.527699
4.83799
11.8399
2.03926
17.9969
6.63391
6.23996
7.5387
1.20892
2.18073
1.65966
13.4135
4.23632
1.1115
9.85358
5.5255
2.88083
6.56906
3.71721
1.68146
4.89918
1.1799
25.7507
0.385544
1.72101
13.3981
6.74063
18.5407
7.80917
10.5767
0.710649
1.22901
6.44755
3.11966
15.9347
14.0856
12.4538
2.3994
6.62854
4.04125
6.24588
8.712
9.41416
9.99346
4.19668
17.9657
4.07491
6.82254
1.38734
1.1222
3.67145
9.02496
16.8366
7.56866
1.87252
5.0128
6.3776
3.38697
11.0972
8.95027
5.73201
2.28487
12.6363
5.19748
16.5597
9.58023
11.4934
7.01153
0.424808
5.47261
7.89718
4.46822
7.77339
8.15608
18.2607
18.8689
11.9841
2.91105
4.03896
0.373891
2.03082
20.623
6.16836
3.63786
7.6822
14.5441
5.46914
2.85537
6.26033
14.245
35.1786
5.63403
0.389653
4.86026
3.03817
15.9944
5.22376
13.8298
6.16605
14.6096
3.84055
6.1576
4.61477
4.80827
8.47125
9.94113
13.1838
1.7639
1.18359
5.31226
3.88312
9.69091
4.84526
0.427555
0.95699
3.0699
1.27645
17.2031
2.94503
2.15122
7.02777
25.5398
4.50773
12.6566
0.534397
2.11928
8.54849
11.8588
7.91478
1.57963
2.75428
6.52068
9.88114
0.519648
5.02363
6.8943
22.5812
5.26578
4.06648
11.5908
0.66253
2.64402
8.89959
0.538412
22.2399
5.93364
0.344286
1.31514
9.54203
27.6775
2.01651
11.1803
2.99841
2.98764
4.74419
14.2342
2.31948
1.80177
2.7581
0.449067
3.74835
9.28263
2.09326
0.988538
3.61052
5.41154
1.42963
2.19779
13.7597
3.34998
1.94877
3.83863
4.62801
1.84005
1.11622
7.54569
16.1258
8.30503
2.14435
11.8619
6.02584
2.90836
7.50434
11.4422
7.59341
2.82295
34.2413
7.17502
15.0737
0.558133
3.27965
6.08535
2.57988
3.46963
8.24264
7.5993
5.41372
2.05097
6.8936
23.0604
5.25767
10.6861
1.73836
17.9046
8.93927
10.0747
8.17564
2.64726
25.9695
30.8318
5.73173
11.6822
2.82709
3.47634
16.73
3.39896
16.1084
5.53755
7.12756
1.65759
3.9421
6.68063
14.8756
1.44826
17.302
12.5914
2.39001
3.93888
2.06772
13.0978
21.1739
5.1199
2.19493
6.79543
1.59228
3.43773
6.69105
5.79368
8.9064
5.53924
2.44084
6.65718
3.00799
1.41921
2.88776
3.6501
16.6454
2.43244
1.1486
9.0466
1.39962
13.6241
11.3361
9.51979
2.62969
0.406599
1.61991
5.40834
2.97655
3.78559
21.8385
3.99909
6.34608
1.64384
0.527854
5.08275
0.372288
22.8505
3.49016
5.53506
5.33302
2.84299
0.589756
0.866285
2.88498
10.8956
9.07757
14.0431
6.55723
1.63306
2.81104
9.56175
9.05507
1.01205
3.4808
2.83085
2.46938
11.1514
14.4539
9.96094
7.85419
4.45471
0.847506
1.65315
13.0942
1.09237
4.43167
1.6356
16.1638
4.66843
10.2603
2.34272
6.34534
0.589005
19.1635
6.37852
4.57511
3.4142
0.72455
1.67459
8.68079
5.35975
2.26128
12.7949
2.25537
4.22967
7.39664
2.30517
2.73198
11.3058
6.20511
0.781862
5.51942
5.12436
13.6093
3.10645
3.71078
11.8287
7.29388
4.43952
6.63207
2.24857
10.6633
1.40861
9.86164
10.0862
7.63473
1.51601
11.1789
1.55924
4.24533
12.5601
10.8908
2.74334
10.0116
9.23294
4.76022
1.97393
12.9538
10.5891
18.9538
20.6533
3.49685
8.1171
4.5872
11.9167
7.78424
6.28966
8.03987
12.2337
8.18303
1.23208
1.89836
13.1997
14.7109
4.99123
4.23775
5.48136
17.9474
7.63442
6.4163
1.19557
6.48628
11.6516
1.90519
2.65856
8.51273
5.00084
12.4518
14.3064
0.647269
4.0173
11.8673
20.5611
3.88798
9.79822
10.9433
5.29042
13.1593
1.53895
4.66978
2.76289
4.52081
2.61679
5.21892
2.62678
5.32663
2.26786
6.79749
2.81251
0.976427
4.19999
4.78859
6.02477
7.36959
5.48205
3.82699
13.9875
2.28059
16.1495
7.38339
2.22181
3.23005
11.9135
15.4286
17.0043
13.0174
2.69821
4.12398
4.87798
8.91676
0.75542
9.29368
0.478107
5.29588
27.9483
6.75096
1.08448
1.7797
8.00075
16.011
2.67632
11.9127
13.1418
8.1925
4.11739
10.3936
4.60024
1.92787
7.35631
10.4336
0.734797
4.199
11.2767
7.81898
0.721145
19.5427
5.43107
0.40106
4.32314
4.65849
2.64575
1.55357
1.4611
22.3951
5.98272
3.25379
5.52579
5.7632
2.25109
5.67131
5.36027
3.44326
12.2097
0.323987
8.24244
19.9654
2.22464
1.21226
4.08283
7.43745
1.10172
4.95818
12.4199
4.37561
7.44333
3.44474
4.13052
2.87579
5.92931
1.62134
2.90949
7.40511
3.13773
0.421339
2.72752
9.75897
7.04738
8.59369
4.78822
13.9076
9.86979
4.13586
1.71902
0.497737
19.375
2.54905
13.9518
4.24776
4.22962
5.22352
13.0263
1.18481
5.90388
1.64922
6.40369
18.2642
4.80193
0.483
2.42215
5.18332
8.85182
1.808
2.97615
0.474503
2.82529
7.45679
3.72096
1.70026
1.8412
4.22422
3.77548
11.0941
1.8736
1.63866
5.68136
3.13099
2.57071
6.26422
6.2454
3.09809
8.07032
4.22757
4.4688
0.441545
8.18033
1.7692
3.53751
2.09835
3.33731
6.88068
1.26708
1.09543
2.00856
0.607394
6.50102
0.492658
2.00467
0.33542
21.7576
3.51012
7.71272
17.5749
0.502196
8.76646
3.59562
1.92808
25.5526
8.82525
2.39759
12.1966
6.84187
3.45552
8.39533
5.77894
0.81663
6.25173
4.05567
4.14868
9.50159
8.73787
0.627839
11.6546
12.4647
4.75368
9.97227
10.9405
1.35609
1.53806
2.62797
11.0211
7.70945
12.4086
14.0589
1.52895
2.49804
12.4561
4.4993
11.2007
16.5426
8.9805
6.3097
1.15924
15.8224
5.27931
8.77655
0.551707
25.7642
9.01733
2.90841
18.6081
1.28003
10.8278
0.871931
12.6113
9.3605
5.1856
7.36859
4.55764
1.83212
3.64733
0.373174
17.5238
3.13255
2.5539
12.3381
0.328697
11.2965
8.53133
6.5699
2.36767
10.8656
13.3806
4.54416
7.71307
16.0744
26.0889
26.3232
4.14691
0.554293
1.93401
1.07476
4.55108
0.346914
1.58401
19.0216
2.94534
1.45225
11.196
0.504382
0.495644
5.30925
0.477029
0.82042
1.97907
6.84514
9.3584
3.01408
20.1349
1.07383
3.34065
8.03989
4.69154
1.17553
1.04587
2.00949
9.56392
5.48727
3.8152
9.13197
12.8619
2.49296
4.34724
2.26653
15.7135
19.969
0.798446
0.921949
5.82982
7.79919
16.6827
3.17615
0.715735
7.73411
12.1954
6.24247
10.5827
1.45346
4.70442
1.07401
5.79878
4.8691
4.3805
5.5541
1.98149
3.8643
13.0029
3.0465
7.24567
1.24276
6.37504
24.293
4.91486
9.6957
5.22101
19.3643
3.19241
25.0227
12.2147
2.02505
4.86903
4.59938
14.1557
8.36161
1.31037
3.8079
8.58385
8.68201
0.638573
10.7421
4.55517
0.579054
4.78346
0.548683
1.73455
3.07139
5.4452
8.92977
1.90873
5.24168
3.50431
4.28804
3.30822
1.86896
4.38271
22.2
8.21185
19.5915
1.86465
2.65239
0.502718
14.7639
21.0114
4.6361
8.48982
17.1783
13.5013
6.06281
14.6001
5.51978
13.0367
0.611954
7.48208
17.5523
6.44902
4.38551
16.1472
2.04362
8.98142
8.22471
11.8014
7.85378
4.59018
13.6496
1.85063
5.24289
4.62014
8.35228
2.17115
6.18616
8.09065
17.1434
1.8166
5.59428
8.88917
6.33925
2.63894
18.2805
6.95776
1.32211
3.60178
10.7981
5.07514
4.13767
2.95866
6.70811
6.96887
1.64334
4.66426
2.41762
4.26354
3.75894
7.3467
12.6658
1.10087
10.5358
19.0202
39.1503
4.52877
24.5748
6.71091
0.867071
3.13773
7.45385
22.8361
0.98108
5.63621
2.57992
2.36134
3.7954
8.40707
6.25323
3.97448
4.15688
22.6155
3.39587
3.29611
3.73313
3.4804
9.8874
4.20098
17.1269
0.50066
3.75701
8.61383
0.676639
4.81447
0.826678
10.7398
1.96942
0.569686
4.41372
2.38094
7.81032
2.69621
7.65928
6.24915
2.18605
4.95776
0.580542
11.8827
0.571578
18.2525
3.03439
9.19571
2.95665
9.40272
13.6675
10.7554
8.22756
5.78008
5.23504
6.48704
3.78865
5.84314
8.03853
2.02968
1.71754
10.2328
4.49894
27.9039
9.17905
0.551017
4.99996
12.4588
6.5434
3.28003
4.91605
4.4992
5.49872
9.64541
11.4088
1.3591
5.37379
5.7448
11.4818
6.75364
3.26881
20.9432
5.3629
17.2579
2.24752
3.3722
1.92961
7.17148
17.7302
13.2894
12.0117
3.86551
22.9549
1.45671
10.091
8.77462
2.17408
1.99766
13.6905
9.34741
0.777374
3.55077
16.0201
2.30928
7.22067
3.57859
2.17088
4.93922
59.6706
6.21987
15.6126
19.0827
1.87452
0.519046
0.982366
5.12499
3.7415
18.2993
7.93792
16.1947
8.55582
13.1213
16.6382
7.32565
2.68201
5.32886
7.6248
16.1348
2.38099
11.9001
0.97989
2.89722
5.94083
8.96692
2.61527
10.702
3.48026
3.73985
5.10471
3.09256
1.06075
0.315646
1.08412
6.76122
1.80634
5.96147
2.31054
5.20771
4.80159
2.72633
3.08957
3.31494
10.9541
1.00091
10.9094
4.3028
1.63161
2.08492
7.93292
10.076
6.52725
1.3845
19.0505
3.13003
5.2298
3.35473
3.37038
3.95245
10.0856
2.18514
7.88656
8.54402
3.36308
4.06386
11.5694
30.1031
2.41149
0.42934
11.3694
5.52072
10.4032
7.58069
0.59188
6.8055
4.60011
14.6717
5.22702
7.90069
9.25742
4.46102
5.22445
2.46728
2.4724
2.30051
5.88477
1.07637
8.12721
2.83788
29.9735
5.77915
8.59886
15.0974
3.30648
1.9206
15.5584
1.58658
5.1441
5.1056
5.66296
1.96962
8.592
11.1578
1.42391
9.42569
1.21212
2.29474
0.840979
7.46182
6.9708
0.452295
1.74933
19.5191
1.56408
9.38093
12.7412
7.86397
7.7474
