0.194938
0.507623
0.950518
0.172569
0.539069
0.507625
0.354788
0.165838
0.609524
0.195756
0.768358
0.876443
0.529649
0.246698
1.40236
0.386084
0.325426
0.218475
0.716494
0.331757
0.459576
0.653487
0.325507
0.206955
0.248048
0.213108
0.214754
0.290789
0.291634
0.421253
0.243394
0.28952
0.325111
0.897287
0.364966
0.694874
4.40622
0.161788
0.386567
0.385414
0.199922
0.418063
0.19672
2.34049
0.212614
0.189672
0.192485
0.31899
0.953047
0.416226
0.199417
0.440509
0.596198
0.319117
2.40055
0.256336
0.328482
0.285782
0.264755
0.278408
3.7666
0.647218
0.629831
0.290583
0.381889
0.666015
0.290192
0.380932
0.21112
0.145418
0.104339
0.335378
0.59534
0.493149
0.435796
0.20347
0.148715
0.378484
0.327995
1.7279
0.331486
0.228984
0.310047
0.10889
0.219265
0.327929
0.412148
0.218502
0.331592
0.775564
0.170176
0.242355
1.81702
0.143462
0.299915
0.211927
0.190372
0.190908
0.295499
0.302554
0.466605
4.90848
0.244877
0.26941
0.294959
1.17266
0.828479
0.27034
0.434723
0.246956
0.217438
0.673576
0.236244
0.332258
0.191451
0.163768
0.665109
0.432041
0.215203
0.15121
0.374229
0.351542
0.450494
0.187183
0.4097
0.159402
0.324975
0.279481
0.287287
0.194481
0.373468
0.273357
0.203534
0.351286
0.170022
0.200976
0.26911
0.328549
0.27611
0.165856
0.507218
0.331105
0.242746
0.978411
0.245527
1.46356
0.927124
0.500166
0.331993
0.225682
0.47434
0.380759
0.250768
0.293409
0.15544
0.273765
0.131553
0.242708
0.815694
0.213841
0.242675
0.25664
0.219012
0.525846
0.216138
0.240571
0.906936
0.342425
0.27051
0.439503
0.643961
0.219726
0.409942
0.174514
0.144558
1.19673
0.344845
0.229652
0.348827
0.307697
0.470519
0.253061
0.23908
0.151056
0.191412
0.347311
0.135808
0.304449
0.313824
0.209619
0.565131
0.180365
0.169705
0.327837
0.323484
0.159725
0.167554
0.248798
0.153119
0.328084
0.929878
0.39975
0.221382
0.443853
0.191703
0.211174
0.366791
0.320996
0.143838
0.257272
0.180589
1.4026
0.443255
1.9717
0.651253
0.619542
0.457983
0.265531
0.231247
0.99441
0.177751
0.157858
0.214527
0.230985
0.66009
0.168515
0.321108
0.256672
0.360075
0.29356
1.48456
0.247601
0.212069
0.556207
1.3308
0.464102
0.485565
2.54943
0.333722
0.160478
0.482697
2.27983
0.134433
0.154338
0.35284
0.243032
0.49002
0.21682
1.71003
0.136568
0.179706
0.252078
0.554175
0.218939
0.23371
1.23858
0.733684
0.289879
0.73726
0.244502
0.158378
0.679307
0.310394
0.257421
0.375795
0.686411
0.237731
0.232684
0.93004
0.123859
0.382699
0.409013
0.307889
0.926455
0.333378
0.644217
0.347877
0.268721
0.223598
2.21021
0.796021
0.237023
4.59148
0.211359
1.14809
0.361608
1.47919
4.54265
0.536023
0.209048
0.574044
0.124163
0.295895
1.06199
0.253525
0.410905
0.651623
0.202717
0.307442
0.373197
1.2616
0.278927
0.197476
0.185861
0.281859
0.315777
0.225265
1.65938
1.46892
0.671653
0.464745
0.273633
0.444865
0.268175
0.435305
0.32418
0.433614
0.160644
0.625563
0.931825
4.98442
0.333934
0.519479
0.277117
0.19862
0.294269
0.139427
0.702539
0.223409
0.632089
0.417568
0.263683
0.379989
1.07331
0.721521
3.21705
0.279554
0.387834
0.394737
0.387926
0.243889
0.785254
0.298804
0.225214
0.570892
0.395789
0.757826
0.431321
0.0908417
0.315345
1.65255
1.30919
0.152473
0.137498
3.99601
0.203144
0.163612
0.361062
0.757595
0.287064
0.445409
0.134006
0.886993
0.155916
1.81238
0.317569
0.229911
0.108237
0.432018
0.389793
0.850178
0.146553
0.477469
0.197805
0.199701
1.30589
0.357882
0.432664
0.504294
0.694195
0.383924
0.230318
0.192242
0.16819
0.332961
0.823539
0.311806
0.357452
0.263518
0.422039
0.34955
0.0786984
0.271736
0.195956
0.20962
0.189165
0.54208
0.332437
0.242802
0.346262
0.556279
0.165177
0.158493
0.241221
0.864579
0.389061
0.221618
0.137948
2.49345
0.343218
0.182103
0.267079
1.73118
0.302509
2.07647
0.41906
0.324288
1.83627
0.308719
0.805456
0.179375
0.204728
0.126798
0.338462
0.312725
0.294192
0.211338
0.141328
0.235835
0.353169
0.379708
0.48127
0.242033
0.23536
0.206092
3.64617
0.168581
0.371175
0.630721
0.416764
0.476943
0.4561
0.758141
0.298685
0.351884
1.23012
0.54248
0.313016
0.525511
0.270063
0.336756
0.238123
0.695489
0.134068
0.894207
0.290916
0.179663
0.865124
0.190514
0.455828
0.217561
0.336127
0.584273
0.353732
0.230248
0.284592
0.392882
0.873794
0.196685
0.391663
0.51344
1.47565
0.77238
0.489424
0.302095
0.663152
0.754983
0.39308
0.212995
3.51464
0.28745
0.211583
0.209913
1.10376
0.210854
1.07726
2.81361
0.242787
0.66258
0.338549
0.158755
0.307139
0.320209
0.262919
1.89908
0.275857
0.302669
1.09919
0.374183
0.19024
0.223618
0.711831
2.0094
1.69971
0.358963
0.726361
1.97614
0.732665
0.66982
0.252539
0.275251
0.227531
0.235034
0.119707
0.312893
0.198197
0.276943
2.60623
0.674073
0.182141
3.93926
0.199129
0.370371
0.734126
0.318183
0.12989
0.478028
1.50542
0.472334
0.329059
0.313796
0.487152
0.365076
0.246902
2.03734
0.259556
1.48317
5.9568
0.159284
0.520682
0.147336
0.258606
0.301747
0.254583
0.194636
0.133008
0.210305
0.889413
0.252141
0.124051
0.554205
0.0892594
0.157623
0.325984
0.400926
0.225193
0.539907
0.392554
0.0838484
0.288857
0.479668
0.184451
0.2292
0.601738
0.237326
0.348843
0.643397
0.374806
0.14285
0.289432
0.49165
1.29637
0.482666
0.281707
1.88
0.537952
0.35085
0.403124
0.197002
0.216165
0.250472
0.372657
0.356984
0.571848
0.317023
0.598324
0.110287
0.333187
0.253696
0.26865
0.208869
0.252904
0.392182
1.1501
0.221194
0.226018
0.423031
0.224754
1.08902
0.504322
1.17768
0.695165
1.02007
0.174089
0.163652
0.286242
1.31224
0.497316
0.139077
0.344611
0.301652
0.645431
0.338157
2.42133
0.21162
0.674436
0.201348
0.201869
0.216765
0.220802
0.108697
0.286502
0.353857
0.314997
2.54045
0.684597
3.24704
0.784366
0.123839
0.46541
0.132139
0.350455
0.253574
4.09602
0.302151
1.02579
1.34509
0.251557
0.324219
0.274348
1.32019
0.662577
0.245769
0.476418
2.54563
0.161274
0.310345
0.274674
0.29201
0.224102
0.214841
0.363955
0.380679
0.148902
0.277858
0.218163
0.250467
0.408115
0.136782
1.13463
0.40605
0.244673
0.23285
0.721642
0.421108
0.133422
2.6479
0.226884
0.242837
0.207241
0.27868
0.23528
0.111972
1.79872
1.80131
0.639763
0.448908
0.110312
0.182434
0.276917
0.119257
0.419805
0.351331
0.63461
0.229498
0.305166
2.96766
3.4917
0.308385
2.26574
0.458939
1.8264
0.334422
0.463528
0.752157
0.629065
0.183506
0.475628
0.138293
0.147749
0.208323
0.302037
0.446174
0.353267
0.272314
0.206007
0.15756
0.193448
0.925323
0.230873
1.86768
0.981768
4.86136
0.158297
1.11517
0.252265
0.175061
0.152343
1.15377
0.634992
0.308866
1.31338
0.262128
0.463551
0.706597
0.262874
0.975738
0.513056
0.554311
4.64533
0.142424
0.22303
0.35821
0.433402
0.316381
0.289784
0.332784
0.17709
0.198126
2.62038
1.05784
0.618325
4.43257
0.177008
0.220133
0.294053
0.327167
0.194645
0.40392
0.42869
1.50141
0.209972
0.544444
0.439793
0.159854
0.219973
0.55358
0.291927
0.171154
0.209625
0.435373
0.202105
0.11985
0.556236
0.439315
0.166215
1.41519
1.62057
0.181388
0.352603
0.119649
0.291423
0.302199
0.425076
0.188006
0.248787
0.168895
0.228022
1.31934
0.36487
0.270839
0.211512
0.465617
0.586955
2.2142
0.121719
0.269281
0.295512
1.14338
0.77015
0.147945
0.420488
0.267855
0.136477
0.22865
0.161006
0.636571
0.68117
0.459467
0.109146
0.241104
0.868597
0.526715
0.143228
0.394419
1.72712
0.285716
0.520516
0.258814
0.181611
1.1832
0.167869
0.280006
0.188181
0.163239
0.355632
0.170102
1.10457
0.153621
0.203372
0.11012
0.375039
0.929814
0.684496
0.511385
0.12699
0.129303
0.683419
0.151064
0.220569
0.425063
0.401878
0.53039
0.31978
0.244372
1.45061
0.806924
0.51962
0.244322
0.288278
0.383095
0.302865
0.261178
0.711613
0.156168
0.187201
0.363753
1.8784
0.136247
0.339708
1.71318
0.199053
0.306479
0.303304
0.240889
0.267379
0.446648
2.09962
0.644464
0.722958
0.210501
0.347635
0.59494
0.248998
0.451705
0.151263
0.393756
0.369444
0.605007
0.594783
0.408534
0.291759
0.260613
0.208761
0.242099
1.07708
0.256827
2.26451
0.212041
0.322057
0.333887
0.587228
2.52931
0.29833
0.250751
0.366402
2.06396
0.164791
0.323924
0.380067
0.23223
0.241967
0.38464
0.493475
4.82763
0.268931
0.150076
0.162735
0.302722
0.333882
0.152396
0.28613
0.185256
0.284035
0.542771
0.170941
0.29199
0.344512
0.987047
0.339929
0.353574
0.322469
0.265458
0.246593
1.57136
0.837468
0.193014
0.458234
0.212511
0.186784
0.210905
0.245715
0.831245
0.270447
1.55279
0.918943
0.464557
0.136214
0.311809
0.268752
0.874758
1.60516
0.129872
0.196371
0.749687
0.424283
0.152898
0.322774
0.343176
0.525509
0.34527
0.37828
1.18427
0.397138
0.204578
0.4135
0.0963626
0.879644
0.216003
1.03963
3.56892
0.901402
0.28729
0.88215
1.79788
0.327822
0.210572
0.430145
6.29441
0.35061
0.255407
0.512529
0.76186
0.319776
0.22279
0.396905
0.448318
0.184906
0.246887
0.168503
0.595839
0.486787
0.139839
0.0916709
0.482435
0.261822
0.328975
2.22763
0.406003
1.12567
0.221826
3.73337
0.404907
0.623032
0.27518
0.387651
0.438272
0.70583
0.345769
0.178909
0.19213
0.140645
0.323232
0.244023
0.201718
0.214685
0.143087
0.26346
0.160629
0.240777
0.240322
0.355085
0.479238
1.14746
0.168895
0.45026
0.325845
0.491674
0.265316
0.215554
0.270024
0.236838
0.703268
1.74802
0.238426
0.472294
0.581234
0.328028
0.23863
1.1272
0.518135
0.179298
2.42389
0.356799
2.10876
0.341831
0.179039
0.399934
1.49325
0.351976
0.262144
0.729556
0.184589
1.26018
1.06934
0.219833
0.324461
0.313733
0.377806
0.235526
0.288245
0.587836
0.312072
0.31919
0.268906
0.246949
1.05692
0.171177
0.644185
0.466434
0.397149
0.344674
0.373993
0.185319
0.275222
0.344211
0.28869
0.215905
0.215335
0.507685
2.43361
0.460339
0.419221
0.280226
0.237553
0.879252
0.323345
0.214349
0.516655
0.228515
0.256925
0.134129
0.589552
2.32599
0.372587
0.132643
0.205981
0.294002
0.203689
0.324111
0.809198
0.307957
0.186967
0.145074
0.322954
0.483493
0.299372
0.341356
0.248519
0.72582
0.810951
1.18527
0.413629
0.48992
0.232826
0.39994
1.51093
0.28934
0.453839
0.310438
0.299121
0.16338
0.319066
0.279112
0.250136
0.081265
0.464586
0.203908
0.184858
0.377424
0.468271
1.95947
0.0784084
1.26171
0.102504
1.73896
0.461267
0.309769
3.05027
0.392367
0.604574
1.17442
0.132962
0.271154
0.324769
0.15586
0.226649
0.668251
0.26465
0.728257
0.187973
0.331376
0.163102
0.421098
1.16023
0.398387
0.696025
0.337036
0.621904
0.112299
0.178875
0.204577
0.234403
0.443348
0.64745
0.669008
0.709838
0.447035
1.65137
0.371407
0.298568
0.315169
0.383323
0.604998
0.260602
0.346663
3.45517
0.817317
0.273884
0.432602
0.391634
0.144479
0.148003
0.391706
1.36342
0.529092
0.275059
0.740896
0.347508
0.518023
1.8277
0.237673
0.302309
0.262384
0.381622
2.00536
0.212455
0.461974
2.68161
3.28661
0.275038
0.603415
0.542733
0.934711
0.267874
0.995899
0.255142
0.24464
0.185119
0.378785
0.23446
0.252819
1.02273
0.726888
0.227783
0.308354
0.478747
0.146679
0.223847
0.340807
0.193868
0.18569
0.735093
0.293827
0.32826
0.144195
0.181824
0.376916
0.738427
0.13429
0.230322
0.118632
0.254215
0.267212
0.316724
0.799669
0.316104
0.251301
0.370708
0.232869
0.189381
0.46649
0.304183
0.768027
0.402881
0.37541
0.340796
0.177004
0.119542
1.00175
0.183172
0.145022
0.158313
0.46409
0.171421
0.439916
0.269279
0.906514
0.180863
1.1825
0.337323
0.188882
0.863732
0.474664
0.12843
0.263274
0.416754
0.201158
0.328991
0.395626
0.397374
0.180502
0.284958
0.206053
0.218799
0.380631
0.151078
1.05752
0.411386
0.359941
0.271381
0.324128
0.567242
0.242142
4.00558
0.298594
0.453184
0.362215
0.36168
0.240093
0.399999
0.530735
0.316088
1.54233
0.5757
0.256948
0.776474
0.453172
0.260562
0.176868
0.665119
0.766751
0.560218
0.216217
0.276398
0.842099
0.336786
0.369452
0.188216
0.201729
0.755204
0.255974
0.238147
0.72839
3.47442
0.317244
0.147276
0.96964
0.262581
0.308476
0.545653
0.62115
0.257606
0.15791
0.351663
0.34951
0.171486
0.176021
0.394257
0.502013
0.275207
0.180212
0.312633
2.413
0.121708
0.429166
0.752293
0.212453
0.389063
0.420856
0.465323
0.690753
0.528511
0.168473
0.112417
0.20685
0.148607
0.399169
0.299637
0.141886
0.20756
0.626816
0.242763
0.485442
0.252749
0.612854
0.166407
0.23622
0.208865
0.182077
0.388018
0.419712
0.229774
0.118357
0.129924
0.48199
0.518453
2.09406
0.197904
0.0889584
0.0633365
0.302438
0.29657
0.422696
0.507722
0.259571
0.545155
0.299489
0.36164
0.790008
1.25883
0.252899
0.604871
0.585623
0.305646
0.622986
0.303555
1.08893
0.287652
0.165461
0.334504
0.299252
0.225888
0.448499
0.802711
0.37602
0.245943
0.163394
0.244933
0.239315
0.382903
0.700301
0.225741
0.178989
0.830241
0.935489
0.151409
0.293199
1.35196
0.485522
0.495951
0.215965
0.229868
0.997849
0.55144
0.286748
0.287121
0.431933
0.671466
0.238032
0.154446
0.20005
0.184489
0.19584
0.798884
0.132889
0.922722
0.315239
0.391785
0.469637
0.365442
0.45732
0.304222
1.24077
0.289662
0.0833384
1.1133
0.285206
0.551413
0.37739
0.517791
0.720541
0.173005
2.56523
2.29554
0.280157
0.342924
0.340117
0.288658
0.151977
0.314204
0.579823
1.65785
0.208652
0.754913
0.169803
0.699508
1.77016
0.259789
1.10418
0.289188
1.45256
0.249459
1.15331
1.59023
0.179317
0.488146
0.189996
0.708136
0.21324
0.233375
0.487866
1.15144
0.0837664
0.394558
2.01457
0.650467
0.991161
0.230237
0.206943
0.242877
2.1066
0.618426
0.777872
0.297431
0.595068
0.625022
0.206251
1.28481
0.299192
0.459659
0.221314
0.306472
0.314396
3.62572
0.74629
0.498315
0.359702
0.18782
0.452746
0.157149
0.14024
0.687368
2.27172
0.409446
0.322081
0.265651
0.191608
0.365279
0.251554
0.300624
0.324446
0.383644
0.248342
0.224153
7.43893
0.191048
0.200054
0.18181
0.239687
0.202563
0.475037
1.27848
0.327691
0.36995
0.0999208
0.569003
0.195506
0.475984
0.932795
0.113251
0.454527
0.263919
0.266095
1.01113
0.293214
0.296402
0.376998
0.183143
0.23287
1.26756
2.1396
0.889966
0.287558
0.619437
0.159157
0.170371
0.198178
0.728118
0.351113
3.83787
0.153337
0.196756
0.304337
0.316586
0.42859
0.165753
0.238113
0.452546
0.259202
0.252265
0.174087
0.18934
0.282862
1.09488
1.48074
0.173519
0.327993
0.233434
0.159635
0.218695
0.0875694
0.386843
1.74996
0.213738
0.248995
0.0927835
0.268009
1.17879
1.01226
0.300233
0.529666
0.971072
0.707639
0.328968
0.418918
0.332593
0.317744
0.33416
0.135198
0.199532
0.27706
0.916852
0.643451
0.321074
0.189648
0.325735
0.245903
0.992911
0.144865
0.13655
0.401348
0.898044
0.505855
0.44796
0.574259
0.604108
0.392021
0.30022
0.638749
2.92515
0.0813473
0.831775
0.218007
0.186596
0.760473
0.261764
0.347241
0.820336
0.250888
0.437723
0.656037
0.228106
0.959389
0.209399
0.26153
0.712144
0.510745
0.357552
1.84872
0.576642
0.343485
0.327474
0.315468
0.120484
0.294897
0.149128
0.493807
0.757938
0.223589
0.502299
0.317761
0.515571
0.43509
0.238041
0.308281
0.264029
0.629845
1.89278
1.31576
0.217631
0.452818
0.189911
0.200551
0.148042
0.445085
0.310597
0.277288
0.1645
0.296878
0.217145
1.25137
0.161645
0.368463
0.250433
0.233954
0.202509
0.191234
0.920574
0.247014
0.128152
2.38902
0.440275
0.256015
0.184297
0.134138
0.376465
0.198593
0.635976
0.258778
0.304967
0.384438
0.336949
0.210492
0.843066
0.339696
0.317787
0.378908
0.169342
1.19999
0.34001
0.197048
0.429819
0.284746
0.260305
1.48021
0.135791
0.25317
0.316332
0.531684
0.199172
0.250221
0.425
0.310435
0.151589
0.103766
0.24831
0.614595
0.331606
0.385683
0.271061
0.177069
0.490814
0.236899
0.300235
0.227403
0.269751
0.120272
0.206767
0.555414
0.415229
0.271571
0.207689
0.0878751
0.21525
1.26528
0.519419
0.350785
0.295284
0.522712
0.740802
0.136164
0.269041
0.233666
0.811375
0.136761
0.557162
0.253744
0.18938
0.285696
0.451785
0.243844
0.237866
0.218921
0.230206
0.127471
0.362403
0.259218
0.268855
0.300545
0.452699
0.678222
0.228027
0.606799
0.19306
0.223421
0.780142
0.398326
0.252247
0.208702
0.232662
0.122409
0.308733
3.12585
0.444552
2.41594
0.168478
0.132983
0.723577
1.1271
0.216321
2.18099
0.159443
0.185452
0.26754
0.403905
0.398419
0.415978
0.48773
0.386135
0.446752
2.21887
0.234608
1.52035
0.381149
1.80652
0.276319
1.41392
0.519323
0.197788
0.101857
0.127889
0.336409
0.560586
0.338693
0.239689
0.463161
0.859995
0.422198
0.478655
0.267074
0.182795
0.261639
0.601268
0.161503
0.27453
0.412054
2.39705
0.259252
0.122641
0.226635
0.323538
0.581588
2.04192
0.515402
3.13339
0.248104
0.302982
0.103903
2.0998
2.02739
0.215409
0.261872
0.259913
0.261916
0.334413
0.147925
0.349036
0.509196
0.560316
0.869961
0.213101
0.137734
0.292052
0.138555
2.30509
0.479124
0.46307
0.278112
0.656657
0.459535
0.826443
0.44194
0.861089
1.29391
0.235169
0.765528
6.27359
0.230719
0.378453
0.663127
2.36058
1.09397
2.06547
0.20351
0.410696
0.25666
0.152508
0.301121
0.685497
0.323416
0.178196
0.116026
0.326494
1.85556
0.333173
0.228205
0.393001
0.286703
0.208814
0.981157
1.46323
4.02338
1.16562
0.405213
2.09512
4.42145
0.388053
0.27368
0.141011
0.259592
0.421083
0.958591
0.164213
0.394703
0.290733
0.27127
0.558497
0.225437
0.180492
0.366563
0.436935
0.105204
0.488172
0.133228
0.316823
0.190776
0.276936
0.278698
0.464194
0.604157
0.127358
0.145653
0.227516
0.359866
0.522043
0.367609
0.231347
0.138687
0.231738
0.193647
0.369133
0.204527
0.212297
0.213965
0.235595
1.33954
0.301882
0.270085
0.392674
0.330768
0.332613
0.274172
0.621825
0.126041
0.34462
0.59267
0.531916
0.392003
0.341112
0.434798
0.186198
0.870727
0.943287
0.135449
0.275054
2.87776
1.36776
0.65097
0.128683
0.314333
0.585355
0.348993
0.775119
0.176793
0.38333
0.24772
1.11064
0.194718
0.221077
0.49819
0.924876
1.05651
0.491416
0.350766
0.297061
0.559373
1.2036
0.205501
0.349298
0.281394
0.473334
0.250242
2.118
0.244242
0.24031
0.0908363
0.299051
0.234064
0.250592
0.418851
1.57276
0.475855
0.198101
0.246789
1.83889
2.02157
1.0759
0.246589
2.07489
0.408531
0.148004
0.190219
0.112557
0.688563
0.456369
0.773577
0.132665
0.449887
0.381044
0.207707
1.60017
0.252931
0.245237
0.72244
0.25895
0.274531
0.314
0.27498
0.251729
0.442978
0.507616
0.171227
1.36143
1.48695
0.887475
0.45239
0.331799
0.181381
0.818252
0.238126
0.288945
0.211978
0.303409
1.59564
0.307628
0.307493
0.342779
0.385661
0.423756
0.158468
0.12803
0.433698
0.231698
0.0965007
0.298142
0.363054
0.256678
0.828972
1.56003
1.64735
0.249197
0.399615
0.291625
0.52632
0.248514
0.265883
7.38401
0.290752
0.204953
0.432914
0.607676
0.438026
0.448942
0.281866
0.266276
0.315449
0.477599
0.133095
0.198777
0.635544
0.226309
0.37511
0.310816
0.239915
0.216437
1.45706
0.437423
0.281234
0.228141
0.308327
0.321914
0.225441
1.86717
0.139592
0.687768
0.198003
0.330009
0.435048
0.661556
0.2806
0.400845
0.375355
0.582872
0.742666
0.265956
0.548421
0.382768
1.27601
4.46316
0.221504
0.870968
0.388206
0.19709
0.303666
0.256602
0.521367
0.811221
0.722605
0.865854
0.190139
0.208958
1.27925
0.217339
0.213874
0.290972
2.06019
0.185184
0.162959
0.244785
0.215681
0.287634
0.210217
0.35422
0.325988
1.30185
0.357218
0.352964
0.700041
1.30102
0.278027
0.754496
0.196567
0.23612
0.18596
0.176769
0.352714
0.247705
1.08377
0.222102
0.991671
0.81457
0.353825
0.316887
0.372217
0.810947
2.18353
0.201673
0.16666
1.97525
0.2092
0.437915
0.456791
0.221776
0.500139
0.158318
0.37069
0.255905
0.203077
0.713948
0.211215
0.139007
3.9239
0.0780271
0.778966
1.05621
0.205112
0.512243
0.961527
1.22279
0.869108
0.25921
0.25881
0.28862
1.03032
0.107636
0.19767
0.143168
0.207884
0.265607
0.131996
0.665326
0.183438
1.20287
0.37551
0.490451
0.325589
0.494201
0.531655
0.374975
0.359802
0.592062
0.787793
0.194633
0.22285
1.22114
1.24977
0.198775
0.440244
0.205278
1.28792
0.41583
0.296341
1.34463
0.526039
0.266501
0.253888
0.151651
1.43654
0.301271
0.488177
0.329237
0.295462
0.145762
0.426786
0.290499
0.136417
1.17561
0.295837
0.205616
1.85869
0.21445
0.166897
0.102097
0.497462
0.15601
0.936807
0.205709
0.136037
1.39372
0.1838
0.175538
0.308724
0.218847
2.28504
2.88416
0.455994
0.287076
0.896938
0.378995
0.22793
0.161003
0.190986
0.102071
0.602407
0.230235
0.266702
0.299416
0.972315
0.0837622
0.28077
0.665245
0.146747
0.383695
0.122966
0.644014
0.136038
0.2403
0.924937
1.13617
1.05508
0.361791
0.406976
1.16474
0.218847
0.48926
0.287532
0.211091
0.316789
0.233598
0.3176
1.03003
0.323801
0.266142
0.430544
0.117938
0.548374
1.49757
0.115908
0.417283
1.43505
0.234714
0.396392
0.115921
0.346935
0.246523
0.246601
0.175764
0.356978
0.354745
0.163487
0.446647
0.441531
2.65317
0.232515
0.384922
0.450134
0.132872
5.82449
0.254491
1.20178
0.430599
0.153308
0.133245
0.267681
0.186179
0.0837345
0.230577
1.00887
0.62768
0.348877
0.377865
0.265001
0.142484
0.846157
0.177143
0.830448
0.775259
0.24711
2.90142
0.454743
0.463323
0.287246
0.111213
2.83541
0.440821
0.222426
0.357421
0.367808
1.01254
0.213132
0.520142
0.435722
0.195578
0.137925
0.160336
1.13353
0.655146
0.233869
0.307368
0.495
0.189067
0.154177
0.141689
0.142088
0.31068
0.16007
0.331866
0.686529
0.26099
2.33411
0.574645
0.342508
0.95065
1.15872
0.57348
0.237648
0.663619
0.243897
0.243565
0.181066
0.48486
0.325817
0.391335
0.724193
0.693116
0.29278
0.771145
0.453372
1.73347
0.19331
0.636621
0.0772349
0.31173
0.147412
0.297918
0.275042
0.286389
0.404056
1.21474
1.04908
0.259477
0.168976
0.201313
0.197363
0.160861
0.71223
0.228026
0.226527
0.375796
0.307637
0.409499
0.37883
0.36752
0.354007
1.78852
0.538357
0.230098
0.25922
0.695556
0.331246
0.206866
0.578578
2.97681
0.337891
0.258403
0.21222
0.400736
0.335375
1.37011
1.91056
0.941088
0.644851
0.548968
1.76013
0.317787
2.23854
0.104595
0.217338
1.01888
0.100835
0.330795
2.56285
1.40934
0.142362
0.437346
0.885438
0.284322
0.382382
0.176424
0.342327
0.417961
0.156771
0.173395
0.332729
0.395569
1.03374
0.212146
0.163784
0.244946
0.175828
0.362397
0.43487
1.04686
0.933252
0.249853
0.29322
0.986803
0.355917
1.9623
0.155139
0.442225
0.168523
0.301594
0.351094
0.485364
0.40521
0.133598
0.59666
0.343099
0.18576
0.26045
0.430221
0.182917
2.94441
0.419706
0.256611
2.61381
0.988376
0.169208
0.55303
0.238533
0.201251
0.377227
0.232166
0.302877
0.160638
0.261775
0.135082
0.214775
0.184692
0.843803
1.4966
0.150724
0.253212
0.442747
0.938923
0.175133
0.32735
0.208134
0.547961
0.375429
0.304603
0.328933
0.432436
0.399218
0.213965
1.51989
1.26032
0.322934
0.632243
0.244695
0.248128
0.219959
0.33981
0.143489
0.1594
0.483698
0.252612
0.427845
0.253712
0.268055
0.181628
0.548539
1.18924
0.982691
0.187751
0.234973
0.233869
1.06406
0.350865
0.771318
0.988832
1.75082
0.191947
1.03498
1.49447
0.14987
0.26278
0.172689
0.21428
0.424786
0.12438
0.373424
0.205957
0.639664
0.122513
2.37818
1.32398
0.560524
0.359349
0.150662
0.0980879
2.71375
0.39201
0.307928
0.352596
0.187021
1.1163
0.179442
0.182161
0.0932483
0.489307
0.273592
0.302827
0.370105
0.229443
0.192814
0.176732
0.279433
0.347188
0.39559
0.144465
0.202971
0.0964456
0.814458
0.800822
0.173753
0.735235
0.315067
1.16534
0.136937
0.389976
0.236484
0.424638
1.30719
0.23501
0.13011
0.260071
1.05996
0.195729
0.245421
0.412848
0.625331
0.340062
0.908832
0.171854
0.713719
0.46416
0.381013
0.937419
0.243703
0.254888
3.21174
0.313906
0.192412
8.14827
0.132513
0.48032
0.647667
1.42596
0.155746
0.2114
0.127296
0.46228
0.541593
0.227179
0.238116
0.246962
0.441302
1.72825
0.273478
0.40839
0.268124
0.173322
0.64007
0.733038
0.357945
0.172815
0.238871
0.316839
0.340018
1.10615
0.554056
0.280617
0.481945
1.28151
0.728429
0.250791
0.0911109
0.152082
1.82853
0.362255
0.149998
0.38534
0.123358
0.49009
0.375881
0.260155
0.389453
1.81668
0.164852
0.858366
0.155868
0.920414
0.216521
0.481759
0.694958
0.329307
0.242029
0.222672
0.454271
0.518651
0.845385
0.15071
0.443977
2.26443
0.138571
0.164864
0.344019
0.198426
0.280102
2.87667
0.495009
0.308218
2.88122
0.179509
0.223529
0.322072
0.48713
0.252204
0.104061
0.195106
0.252311
0.51578
0.240383
0.30974
0.537699
0.358953
3.72369
1.56143
1.82381
0.834746
0.35593
0.31158
0.317908
0.197199
3.50166
0.286981
0.133781
0.14415
0.96073
1.00295
0.28213
0.239806
0.647729
0.290019
0.705976
0.180974
0.325258
0.216955
0.20864
2.79414
2.8944
0.140814
4.24619
0.132068
0.241811
0.193397
0.201462
0.470515
0.41488
0.283703
0.747375
0.171171
0.202654
0.261114
0.217671
3.53912
0.735706
0.836754
0.198911
0.366875
1.93725
0.413235
0.191535
0.13639
0.659794
1.02019
0.337237
0.143983
0.295726
0.353151
0.309126
0.174381
0.280661
0.299871
0.253097
0.396734
0.726991
0.197716
0.432194
0.280498
0.18769
0.237221
0.278678
0.430164
0.373547
0.17047
1.11444
0.201855
0.452361
0.333668
1.90474
0.402408
0.238575
0.307567
0.170459
0.527827
0.269422
0.3032
0.438631
0.403364
0.318646
0.374459
0.777841
0.189495
0.340434
0.135698
0.629193
0.761449
0.125398
0.441576
0.171919
0.245067
0.176037
2.81999
0.303469
0.214014
0.186673
0.301105
0.196654
1.3432
0.545372
0.189877
0.162749
0.307511
7.15397
0.197807
0.587067
0.148776
0.227677
1.16761
0.240136
0.402392
0.613794
0.215638
0.113583
2.44688
0.794749
0.37007
0.492516
0.181686
0.264564
0.134187
0.248099
0.252817
0.289534
0.192634
0.258077
0.242495
0.325752
0.20082
0.276826
0.178962
1.6758
0.345801
0.295752
0.987774
0.263018
0.142502
0.216995
0.229759
1.32445
0.162156
0.19914
0.142857
0.295234
1.00689
0.255115
0.257592
1.38008
0.165099
0.303374
0.65062
9.61619
0.297156
0.14924
0.175212
0.181234
0.293673
0.294897
3.48289
0.25956
0.212639
0.431113
0.130776
0.310566
1.40824
0.262145
0.221337
0.409893
0.388673
0.730291
0.235677
0.227551
0.237812
1.23636
0.301825
0.22971
0.114333
0.26147
0.167327
0.969626
0.435579
0.339424
0.17156
3.43285
0.285617
0.191319
0.360386
0.224136
0.264968
0.477987
0.214831
0.385339
0.328206
0.148318
2.14928
0.167681
1.87627
0.436053
0.0850038
0.1997
0.707639
0.310628
0.342179
1.11605
0.451016
0.563084
0.445581
0.144359
0.159578
0.33355
0.20216
0.368269
0.187476
0.258095
3.43505
0.143574
0.105004
0.228046
0.210193
0.309568
0.417532
0.668951
0.278874
0.267666
0.310399
4.02354
0.287935
0.162065
2.05985
0.399116
0.20201
0.167589
0.306555
0.230108
1.13823
0.583064
0.218646
0.219562
0.221359
0.628669
0.555256
0.157524
0.605191
0.531203
0.6427
0.223535
0.853236
0.299931
0.111206
0.32783
0.211432
1.36438
0.784805
0.226146
0.210682
0.255044
0.212483
0.343785
0.147609
0.647798
0.412051
0.751426
0.240025
0.476146
0.224953
0.675782
0.328131
0.348669
0.768176
0.276959
1.08857
0.38466
0.15728
0.340369
0.575548
0.253235
0.266035
2.09115
0.323915
0.2235
0.232852
1.07209
0.627768
0.809643
0.327475
0.296454
1.52747
0.279905
0.232619
0.160544
0.306047
0.172187
0.307531
0.20984
0.160039
0.725651
0.140218
0.31254
0.513974
1.11573
0.18125
0.542659
0.0958739
0.259286
0.411383
0.134168
0.203302
0.260122
0.796143
0.161457
0.170841
0.287582
0.331198
0.223426
0.716814
0.235234
1.44884
0.278448
0.341671
0.110932
0.229119
3.41378
0.242063
0.931457
0.838227
0.415093
1.66162
1.77784
0.224034
0.124125
0.320615
0.262577
1.96235
0.260883
1.32891
0.216853
0.0699174
0.363351
0.238665
0.304951
0.469553
0.749466
0.242317
0.285568
0.30257
0.974671
0.459835
0.216963
3.34223
0.216667
0.68179
0.327936
0.426905
0.318095
0.218594
0.310384
0.469494
1.42388
0.283186
0.170535
0.26103
0.276631
0.26388
0.332532
0.305073
0.298596
1.77895
0.148625
0.262418
0.337713
0.278031
0.28377
0.196832
0.757149
1.96628
0.140793
0.253756
0.244037
0.192361
2.33703
3.39141
0.434594
0.232004
0.226638
0.815691
0.217984
0.676187
2.68436
1.14553
0.539037
0.136455
0.243235
0.310872
0.297399
0.222668
0.187365
0.364556
0.113551
0.182466
0.144581
0.230473
0.421425
0.291052
0.400858
0.165197
0.208377
0.269187
0.275032
0.148147
0.220165
1.16471
0.313047
1.08821
0.11581
0.250757
0.546493
0.333913
0.222796
0.123268
3.85158
0.145992
2.25759
0.238455
0.757121
0.318837
0.210917
0.605241
0.0836843
0.530858
0.484549
1.0337
0.215319
0.110012
0.243522
1.75853
0.893233
0.470777
0.338542
0.76433
0.335665
0.261536
2
0.252388
1.49777
0.262231
0.220011
0.182404
0.525836
0.837295
0.718751
0.464244
0.230331
0.495189
0.200867
0.509651
0.891482
0.898969
0.552377
0.186688
0.507507
0.173793
0.303735
0.220138
1.90013
1.13095
1.01742
0.215184
0.28174
0.145655
0.48615
0.463019
0.220481
1.26515
0.262004
0.169402
0.369945
0.305661
0.265534
0.256452
1.01834
0.359177
0.63128
0.440241
0.236872
0.245915
0.798884
0.2641
0.32696
0.269464
0.223589
0.5008
0.282137
0.2607
5.78019
0.393811
2.66072
0.503644
0.314378
0.559891
0.227517
1.48406
0.67789
0.115252
0.648867
0.281126
4.99972
0.177527
1.31138
2.10813
0.211008
0.226676
0.216922
0.755748
0.142109
0.126761
1.9238
0.43209
0.205093
0.333497
0.469278
0.28576
0.250964
0.297297
0.28863
0.140988
0.257524
0.222778
0.273616
0.154867
1.48822
0.274881
0.207902
0.262275
0.265521
0.107828
0.153868
0.471368
2.36342
0.494087
0.301051
0.186405
0.537584
0.199904
1.40578
0.40338
0.521846
0.159513
0.259977
0.593613
0.258134
0.266685
0.200599
0.150537
0.356489
1.40845
0.290035
0.146065
0.251286
0.299979
2.25167
0.358294
0.493873
1.10289
0.33535
0.332946
1.31083
0.220059
2.95528
0.386862
0.177879
0.170358
1.89538
0.429085
0.199398
0.360017
0.286403
0.341159
0.156018
0.219792
0.23484
0.465167
0.243994
0.370438
5.198
0.273308
0.1278
0.0454629
0.23954
0.763347
0.127334
0.632183
0.835225
0.0644917
0.346348
0.773564
0.58349
0.1876
2.1311
0.251419
0.171973
0.240439
0.260538
0.926079
0.617725
0.228875
0.367396
1.93784
0.191151
0.205176
0.305097
0.332001
0.704689
0.143385
0.234849
0.335195
0.260042
0.160685
0.165564
0.41816
0.340428
0.119981
1.97597
0.172065
0.226912
0.301928
0.26154
0.142652
0.139262
0.30372
0.331436
1.36012
0.318024
0.512011
0.28308
0.270512
0.551634
0.227429
0.589273
0.156986
0.433025
0.893758
0.231071
0.276792
0.34828
0.226148
0.557274
0.455872
0.308311
0.265438
1.12715
0.816431
0.967016
4.92415
0.115675
4.32251
1.97703
0.442498
0.323592
0.46124
0.509504
0.267635
0.31447
0.17442
0.205819
0.28111
0.613622
0.26335
0.110925
0.540378
0.224496
0.310157
0.686691
0.243928
0.319715
0.15947
0.324735
0.155129
0.149001
0.198119
0.541727
0.155632
0.319707
0.801753
5.58717
0.362728
0.182264
0.351453
0.210734
0.446161
0.245216
0.564636
0.629273
0.273487
3.59657
0.300184
2.30026
1.74049
0.924837
0.240986
0.940029
0.239289
0.201661
1.42674
0.201926
1.15414
0.140393
0.381277
0.162874
0.505863
0.138401
0.2866
0.433082
0.845992
1.09291
0.562979
0.297136
0.231748
0.477671
0.431612
0.263982
0.22051
0.250934
0.505203
0.564445
0.340494
0.306214
0.485085
2.60453
0.205682
0.198307
0.60811
0.480005
0.304354
0.135641
0.264541
0.161654
1.28509
1.30947
0.224309
0.232377
0.333267
0.281986
0.263502
0.402702
0.3362
0.323943
6.34004
0.164453
0.355635
0.23806
0.237764
0.301901
0.369513
0.771605
0.5902
0.20291
1.15083
0.422907
1.97701
0.0805894
0.309773
0.953346
0.416189
0.702098
1.27339
0.169905
2.78969
0.333809
0.257643
0.315689
0.284104
0.201608
0.182498
0.290619
3.78343
0.251637
0.581504
0.376693
1.35815
0.533032
0.756009
0.603129
0.239279
0.290403
0.319721
0.355231
0.971581
0.451183
0.888891
0.3545
0.311317
0.610345
0.84745
0.500639
0.242446
0.142209
0.224427
0.418839
0.29899
0.258577
0.383389
0.233223
0.498253
0.239269
0.431184
0.469867
0.34993
0.190475
0.198592
0.233191
0.192247
0.176942
0.229893
0.219202
0.35385
0.298703
3.42743
0.718066
0.443092
0.24098
3.50799
0.272178
0.63011
0.217876
0.0576129
0.220826
0.18697
6.05305
1.51198
0.932932
0.0932234
0.202208
0.213317
1.50884
5.14691
0.102017
0.913393
0.192831
0.301143
0.216272
0.489229
0.442617
0.339456
0.407719
0.309821
0.193993
0.164992
0.201524
0.347997
0.887526
0.73468
5.36131
2.24646
0.340884
0.324829
0.13366
0.348533
0.427216
0.172369
2.20905
0.226666
0.156316
0.272529
0.270807
2.35447
0.347004
0.554549
0.256658
0.269017
0.26513
0.368713
0.152379
0.163809
0.188177
0.478656
0.279145
0.514603
0.157048
0.223035
0.242945
0.382323
0.166576
0.25403
0.196792
0.508849
0.479222
0.233044
0.216597
0.243362
0.606033
0.37553
0.233233
0.294501
2.62212
0.430162
0.327865
0.255129
0.283713
0.907134
0.170961
0.27957
0.41801
0.471848
0.634371
0.164244
0.308565
0.174233
0.195059
0.648787
1.03216
0.310357
0.185953
0.388546
0.294736
0.343281
0.139944
0.0659187
0.91252
0.359276
0.224198
0.196161
0.171437
1.18034
0.446985
0.315242
0.343824
0.433021
0.214057
0.19319
0.233195
0.338431
0.246276
0.229864
0.832309
0.201031
0.840966
0.498965
0.301758
1.97937
0.416115
0.444753
0.282389
0.217477
0.145145
0.224432
0.308774
0.244129
0.195126
0.476571
0.384944
4.0676
0.956016
0.21813
0.30541
0.214842
0.577211
1.04693
0.846936
0.167471
0.4403
0.235129
0.259935
0.220138
0.575073
0.286812
0.343401
0.189624
1.35107
0.0685225
0.246466
0.130122
0.237682
0.136501
1.46341
0.305692
0.159493
0.272574
0.337498
0.210267
1.01399
0.211331
0.296563
0.228132
0.194934
0.164046
1.47616
0.221223
0.252914
0.330748
0.312941
0.432616
0.300576
0.449156
0.407037
0.363673
0.288996
0.171368
0.240862
0.823625
0.274956
0.394243
0.110649
0.428947
0.469578
0.235747
0.176259
0.216771
0.200135
1.29098
0.189636
1.42925
0.362362
0.541478
0.385309
2.40327
0.195428
0.718556
0.854391
0.666072
0.165302
0.233028
0.162861
0.26783
0.622272
0.106086
0.2132
1.12441
0.119809
0.484704
0.260036
0.505637
0.279476
0.160189
0.387639
0.199503
0.324415
0.226276
0.391816
0.374912
0.135096
0.174363
0.191815
0.153288
0.789132
0.200177
0.25581
0.288928
0.273547
0.418247
0.388415
0.220609
0.165405
0.328187
0.403173
0.387105
0.21073
0.279597
0.959401
0.345144
0.722559
0.941895
2.08593
0.327708
2.90077
0.209833
0.281652
0.484856
0.306194
0.162828
0.864406
0.763504
0.184914
0.286725
2.2895
0.171706
0.899581
0.260728
0.219271
0.182684
0.350457
0.30154
0.106371
0.459666
2.4377
0.293884
0.325101
0.19716
0.669052
0.797737
0.434751
0.172152
2.60632
0.108833
0.086966
0.208433
0.301419
0.340381
0.281338
0.273083
0.957793
0.619275
0.931371
0.486949
0.211958
0.250236
0.169333
0.247605
0.365484
0.470731
1.7773
0.51587
0.260204
1.15637
0.323839
0.302438
2.12405
0.316052
0.174359
0.261338
0.128458
0.12032
0.0880558
0.285569
0.415924
0.605652
0.20007
0.748215
2.00683
0.230626
0.42129
0.310255
1.87842
0.56575
0.350742
0.7524
0.743228
0.168846
0.168828
0.0947599
0.598587
1.24941
0.219005
0.129826
0.384916
0.566277
0.198747
1.14516
3.128
0.138379
0.298314
0.18493
0.156129
0.289908
1.01521
0.5792
0.151607
0.370682
0.381813
0.299998
0.655866
0.185937
0.227143
0.239649
1.91433
0.21621
0.955803
0.415311
0.505335
0.460136
0.325299
0.320707
0.287062
0.487111
0.277986
0.362481
0.21066
1.28739
0.281508
0.296759
0.481362
0.183556
0.334318
0.123273
0.157545
1.41098
0.337945
0.209249
0.165685
0.294226
0.462328
0.48893
0.456193
0.258404
0.290646
0.926425
0.204367
0.31971
0.192976
0.327036
0.190144
0.35805
0.341161
0.261174
0.478119
0.150701
0.409082
0.477768
0.222526
0.200159
2.94677
0.357539
0.261874
1.5937
0.296104
0.252138
0.179036
0.193392
0.42445
0.147231
0.4553
0.289226
0.355249
0.190612
0.645867
0.147159
0.217383
0.584248
0.475896
0.287194
0.208936
0.313904
0.400919
0.496109
0.449159
0.287029
0.193754
0.293903
0.0988025
0.285376
0.279275
0.882814
0.379537
0.175771
0.357132
0.239388
0.338401
4.21767
0.987496
1.30008
1.24972
0.234329
0.194549
0.354688
0.116731
0.269844
1.3287
0.457176
0.413607
0.306595
0.383333
2.42546
0.316292
0.220229
0.427371
0.352185
0.600038
0.283499
0.505225
0.408538
0.326376
1.02663
0.170039
0.263081
0.662172
0.855783
0.234605
0.297842
0.213645
0.382299
0.303351
0.353722
0.633946
0.296066
0.257434
1.01354
2.26964
0.180447
1.30097
0.296819
1.11093
0.364713
1.23713
0.221723
0.153264
0.757891
0.325283
0.300667
1.14537
0.171177
0.11753
0.255716
0.176084
0.320018
0.30043
0.302234
0.214831
1.32059
0.902441
0.299033
0.254384
0.831057
0.187827
0.241807
0.454654
0.314652
0.237504
0.129075
0.141845
0.39582
0.468252
0.362231
5.76018
1.0456
0.72946
0.388886
0.294226
0.159711
0.423685
0.305589
0.736199
1.98928
0.182753
0.265657
0.280841
0.288545
0.616407
0.282306
0.341213
1.72001
0.133368
1.24451
0.183586
0.178741
0.176535
0.25945
0.51709
0.196879
0.700974
0.234885
0.474818
0.133328
1.39314
0.67264
0.288474
0.449938
0.821906
0.211808
0.147963
7.39117
0.38159
0.320157
0.297005
0.557023
0.318667
0.139482
0.325186
0.803846
0.326381
0.227088
0.217245
0.13212
0.292319
0.271159
0.316138
0.34037
0.877958
0.27773
0.283127
0.408144
0.456045
0.236191
0.175
0.378449
0.271641
0.103249
0.213346
0.272596
0.30802
0.505836
0.364466
0.144082
0.334966
0.154034
0.215831
1.28474
0.246956
0.269119
0.0775249
0.69321
0.257422
0.235271
0.303104
0.336727
0.321367
0.1909
0.436767
0.862019
0.131914
0.310409
0.242268
0.294123
0.258773
0.155427
0.166193
0.578139
0.252371
0.288262
0.552856
0.116993
0.58852
0.180025
1.83407
2.87371
0.987082
0.194004
2.90579
0.411848
1.43641
0.29496
0.329535
0.270424
0.363758
0.163544
0.286875
0.286971
0.404226
0.321515
0.104824
0.23989
0.723782
0.376978
2.31924
0.386401
0.321305
0.457468
0.297508
0.223972
0.62515
0.330829
1.33932
0.301482
0.181419
0.774697
0.350357
0.387181
0.755146
0.827425
0.191112
0.653927
0.162635
0.182407
0.509812
0.30743
0.419333
0.405715
0.443376
0.306399
0.26358
0.322522
0.267212
0.282738
0.466441
0.603162
0.221928
0.154714
0.221148
0.308566
0.724723
0.175686
0.104708
0.393813
0.156925
0.237514
0.164554
0.363381
0.748883
0.319434
1.80154
0.506982
0.369969
0.444191
0.34669
0.371753
0.177893
0.206827
0.568049
0.790149
0.324198
0.306308
0.989303
0.65158
0.262579
0.289154
0.344836
0.455599
0.425362
1.75843
0.383844
1.18337
0.400711
0.443154
1.82478
1.65388
1.63507
0.654771
0.962542
0.230923
0.651242
0.0841533
0.631922
0.286809
0.586368
0.30893
2.08014
0.186847
0.248144
0.57324
0.205713
0.494011
0.419643
0.177474
1.17773
0.139171
0.257759
0.572662
0.293794
0.762874
0.155748
0.213756
0.139645
0.483257
0.130614
0.471201
0.320024
0.23842
0.319663
0.333275
0.234371
0.318262
0.274484
2.28441
0.203906
0.23145
0.564803
0.381207
0.420767
0.539739
0.407634
0.286218
0.159638
0.248139
0.242098
0.234625
0.516793
0.211567
0.504079
0.197808
0.343893
0.145666
0.361208
0.9312
0.261346
0.324802
0.414221
1.58753
0.312567
3.7227
0.16904
0.245361
0.12163
0.351353
0.491925
0.131289
0.237312
0.298045
0.199412
0.154229
0.170673
0.267078
0.101976
0.330229
0.538958
0.210418
0.380777
5.05076
0.165636
0.351047
0.119431
0.362588
0.253072
0.256726
0.307472
0.216357
0.269277
0.257113
0.351284
0.196526
0.311154
0.23308
2.79399
0.256849
4.26987
0.445364
0.271138
0.339574
0.253919
3.32718
0.393291
0.381442
0.117046
0.4567
2.98989
0.559009
0.413013
0.199481
0.401244
0.252365
0.300986
1.20943
0.515529
0.258209
1.47789
0.794611
0.18606
1.21511
0.242308
0.386403
1.29203
0.26794
0.12626
0.373181
0.44715
0.201488
0.136098
0.288031
0.293716
1.15168
0.489684
0.35914
0.374106
0.470679
0.319641
2.49968
0.217457
0.692133
0.203247
0.354648
0.462107
0.17891
0.21869
0.20896
0.356373
0.4728
0.206527
0.279765
0.372463
0.829587
0.355759
1.77311
0.245552
0.42248
0.928436
0.876583
0.133644
0.249784
0.471076
0.505891
0.193636
0.396735
1.8235
0.372388
0.890833
0.191161
0.585643
0.203017
0.214812
0.288189
1.15735
0.190044
0.543345
0.309072
0.244123
0.316246
0.413081
0.160354
0.553827
0.51472
0.368284
0.298961
0.398873
1.34871
0.239983
0.289797
2.05256
0.674472
3.28839
0.45383
0.781002
0.272351
0.165339
0.389507
0.593395
0.796709
0.194938
0.934102
0.849969
0.509218
0.683438
0.321183
1.60779
0.326548
0.203134
0.170165
1.22866
1.03286
0.22732
1.72901
0.273421
0.220782
0.595461
0.579782
0.572946
0.6333
0.246881
0.371586
1.33238
0.298933
3.43387
0.169586
0.182978
0.323039
0.127588
0.191709
0.146477
0.608373
0.810043
0.363614
0.19253
0.284423
0.136246
0.285506
0.61106
0.219129
6.82208
0.229646
0.350076
0.275432
0.176827
0.242497
0.25119
0.379008
0.318032
0.933891
0.639438
0.527396
1.95598
2.18738
0.434059
0.123085
0.153323
0.72549
0.875007
1.61367
0.225739
0.574771
0.414462
0.121586
1.59518
0.280834
0.875225
1.11041
0.270378
0.296162
0.218817
0.148969
0.247533
0.555502
1.90045
0.172363
0.23937
0.191985
0.290254
0.507452
0.358265
0.110486
0.18301
0.281507
0.519493
0.766242
0.382926
0.211539
0.343392
0.129793
0.296831
0.381832
0.156748
0.283633
0.229357
0.230445
1.27783
0.311158
0.194933
0.759934
0.355617
0.210912
0.307054
0.332302
0.174916
0.289696
0.306098
0.418693
0.200867
0.261855
0.65211
0.824503
0.778806
0.166136
0.545429
0.318788
1.49383
0.247445
0.168268
0.275578
0.153527
0.157043
0.0647703
0.412647
1.28493
2.36689
0.268523
0.246137
1.17057
0.354044
0.374563
0.794131
0.418446
0.557968
0.277719
0.267643
1.25079
0.323121
0.277605
0.252889
1.57647
0.564187
0.263297
0.97426
0.357923
1.5776
0.631584
1.08391
0.171448
0.385509
0.255641
0.785177
0.29228
0.611012
0.105625
0.91369
0.263311
0.337774
0.187996
0.222853
0.368624
0.893591
0.316404
0.40499
0.327002
5.22831
0.170436
0.183412
0.270058
0.198193
0.10925
0.389929
1.72938
0.212995
4.99926
0.264683
0.262362
2.48953
2.23537
2.56862
1.62406
0.673371
0.209062
0.704902
0.197585
0.236474
0.151461
0.360228
0.378898
0.397229
0.997774
0.240863
0.176241
0.0900145
0.328447
0.71378
0.347928
0.328738
0.33548
0.271274
0.225583
0.219647
0.224367
0.25539
0.188938
0.287509
1.15607
0.185179
0.218994
1.0355
0.417769
0.303678
0.546363
0.277961
2.96876
0.656464
0.392887
0.361468
0.457862
0.213902
0.169263
0.143226
1.06432
0.819731
0.145639
0.367242
0.200469
2.28566
1.10576
0.207136
0.391284
0.708212
0.467091
0.545222
0.167244
0.216467
0.180322
2.16048
0.916383
0.340534
0.45493
0.437017
0.337311
0.235403
0.353553
0.243994
0.114034
0.278728
1.07034
0.241946
0.341914
0.492041
0.819271
0.367001
0.317796
1.14439
0.71238
0.228041
0.13715
0.542383
1.49008
0.7788
0.273077
0.169246
0.19606
0.120679
0.295762
0.398234
0.604484
0.23855
0.315127
0.14005
0.455899
2.18955
0.402436
0.899012
0.556738
0.267529
0.201392
0.375228
0.362246
1.7728
0.186395
1.21897
0.200361
0.238077
0.185574
0.202317
0.616996
0.39867
1.16686
0.995424
0.209282
0.294523
0.349506
0.2993
0.35071
0.377288
0.325967
0.35907
0.441161
0.267839
0.263435
0.327024
0.406779
0.104994
0.303759
0.190468
0.211527
0.326536
0.247966
0.47288
0.210762
0.38616
0.271141
0.354491
0.180075
0.153594
0.302872
0.215012
0.426285
1.65522
0.475954
2.32137
0.381819
0.974265
0.504458
1.77897
0.109224
0.223783
0.198547
0.18783
0.372712
0.307355
0.41565
0.268476
0.243238
0.485691
0.399676
0.457219
0.899315
0.278874
1.36252
0.402501
0.0842768
0.311908
0.174438
0.380203
1.66645
0.362658
0.292438
0.325813
0.259682
0.287889
0.550264
0.253407
0.40901
0.203949
0.190905
0.347108
0.469464
0.497628
0.508017
1.07026
0.332158
0.332903
0.239858
0.443011
0.676612
0.30621
0.273993
0.197829
0.526643
0.274878
0.247213
0.406403
0.295685
0.293111
0.236014
0.294252
0.238675
0.255085
1.77942
0.249547
0.189897
0.122471
0.424836
0.27294
0.91607
0.491226
0.587894
0.14621
0.299659
0.380095
0.228866
0.296188
1.09821
1.05642
3.36315
0.431367
0.29831
0.276306
5.18411
0.539884
0.0429335
0.146202
0.0899082
0.173301
0.469098
0.270583
1.06033
0.240483
0.977313
0.378706
0.350901
0.17232
2.36161
0.343567
1.16045
0.38318
0.313126
0.320422
0.188144
0.286586
0.405557
0.277902
0.277709
0.168475
0.27937
0.252776
0.233561
0.424665
0.258817
0.428636
0.123472
1.22799
0.127487
0.168552
0.400206
0.375
0.341828
0.194208
0.305269
0.139461
0.492195
0.440482
0.176664
0.273461
0.188009
0.320528
0.520932
0.43045
0.181934
3.60452
0.790316
0.369396
0.76432
0.187353
0.412243
0.207704
0.37708
0.811418
1.08059
0.305848
0.399148
1.16368
1.74729
1.23643
0.512642
1.55833
0.237375
0.364465
0.521837
0.422982
0.393408
0.358722
0.806453
0.367471
0.728805
0.399518
0.318673
0.361555
0.235869
0.375128
0.198138
0.196014
0.214941
0.516256
0.369799
2.42324
0.315862
0.229317
0.519798
2.05624
0.30145
0.303446
0.359631
0.223191
0.237222
0.254677
0.264533
0.242989
0.280493
0.24232
0.147656
0.594205
0.367637
0.321147
0.186143
1.83776
0.547168
0.108094
0.148134
0.64777
0.126415
0.236954
0.908473
0.371924
0.283163
0.210504
0.299582
1.21199
0.300522
0.358018
0.339267
1.40028
0.173785
5.0997
0.948109
0.426978
0.255722
0.850183
0.333109
0.799741
0.395883
0.151982
0.352231
0.452218
0.253931
2.1937
0.241035
1.98676
0.558898
0.291272
0.257573
0.182571
0.96311
0.276903
0.732412
0.273626
0.763604
0.218423
0.586338
0.522305
0.505258
0.151633
0.252368
0.362717
0.523057
0.215446
0.394471
0.43883
0.368677
0.238138
0.112076
0.673132
0.221722
2.78755
0.337778
0.117762
0.311248
0.728412
1.02299
0.1772
0.580933
0.164797
0.372516
1.06922
0.196257
0.217268
0.226495
0.227695
0.525357
0.74051
0.623743
0.085228
2.90089
0.198811
1.89107
0.197262
0.260241
0.382148
0.194061
0.163704
0.202073
0.190002
0.499052
0.396516
0.220836
1.50081
0.152981
0.349904
0.140735
0.805437
0.355739
0.521451
0.213885
0.240021
0.248126
0.308589
1.49585
0.378727
0.432268
0.948196
0.248967
0.544796
0.626008
0.294774
0.539688
0.134721
0.637773
0.37781
0.221545
0.232659
0.665636
1.04402
0.323254
0.461295
0.178211
0.140923
0.376505
0.226797
0.275307
0.29862
4.18153
0.395401
0.659646
1.43907
0.152596
0.178839
0.322793
0.403314
0.134036
0.403193
3.50901
0.174968
0.0954219
0.291125
0.305841
0.305476
0.179078
0.478998
0.827675
0.212735
0.240586
0.546168
0.311817
0.326024
0.944935
0.327989
0.658144
0.363832
0.250599
0.518624
0.158566
0.469795
0.425716
0.33396
0.164493
0.253769
5.8865
0.213138
0.181965
0.682372
0.492595
0.266818
2.10692
0.417707
0.56413
1.76354
1.83691
2.3507
1.58537
0.188715
0.744424
0.245738
0.237852
0.333594
0.262587
0.149644
0.69149
0.318841
0.180005
0.829641
0.403679
0.451884
0.558437
0.437686
0.151072
0.270291
0.783811
0.442769
0.317199
0.72437
0.445087
0.336689
0.189156
0.563536
0.890614
0.210004
0.308719
0.5444
0.393223
0.237718
0.133227
0.187337
0.242417
0.179547
0.301856
1.32145
0.314958
0.241736
0.364886
0.248467
0.319268
0.226559
0.291357
0.290436
0.641791
0.594229
0.347918
0.531347
1.07116
0.7715
0.216271
0.23379
0.251363
0.18686
0.145588
0.137799
0.503537
0.368796
0.181096
0.18737
3.73919
0.525918
0.355014
0.278518
0.214988
0.25233
0.192995
0.371134
0.480168
0.174698
0.222564
2.03323
0.176224
0.278713
0.409684
0.22967
0.530006
0.341947
0.74885
0.194977
3.16899
3.54495
0.200537
0.247267
1.00759
0.142276
0.253854
0.84098
0.285784
0.358078
0.259088
0.146953
0.462717
0.261172
0.483635
0.810979
0.27677
0.234131
0.137925
0.121981
0.367347
0.279268
0.497664
0.494221
0.428079
0.268175
0.316916
0.989194
0.211119
1.3025
0.276318
0.265787
0.277137
0.493305
0.27091
0.322566
0.230819
0.169108
0.3942
0.348122
0.262721
0.162164
0.251074
0.369565
0.276518
0.293825
0.189161
0.40583
0.471779
0.202716
1.83762
0.357099
0.232169
0.165699
0.122607
0.289489
0.216937
0.208439
0.464491
0.431953
0.275911
0.191557
0.305578
0.341472
0.37084
0.537461
0.250966
0.326773
0.195896
0.593312
0.130643
0.422092
0.219809
0.253773
0.249655
0.402872
0.193728
0.153762
1.12189
0.747996
0.200665
0.282738
0.293482
0.241106
0.201248
1.13251
0.327723
1.62252
0.221056
0.404992
0.906825
0.300137
0.256368
0.830153
0.271732
0.302466
0.125316
0.291901
0.267077
0.428773
0.662463
0.211698
0.429882
0.0961694
1.23476
0.238636
0.307783
0.38735
0.93321
0.437902
0.33873
0.204081
0.800819
1.02943
0.68009
0.452897
0.135298
0.346213
0.376584
0.11801
0.271276
0.362011
0.250492
0.214651
1.47051
0.290656
0.132689
0.164714
0.218347
1.76168
0.219458
0.21678
0.15764
2.06554
0.175095
0.589926
0.406544
0.240967
2.82063
0.322574
0.218931
0.539623
0.59497
0.138959
0.920519
0.308886
0.155998
0.189709
0.180542
0.355112
0.456654
0.265506
0.405917
0.452017
0.166664
0.156844
0.294316
0.313547
0.811473
0.340675
0.206444
0.293884
0.271647
0.265754
0.290287
0.470045
0.340009
0.304327
0.185609
0.158285
0.424763
0.256015
3.60584
0.350198
3.91892
0.361826
0.905307
0.217452
0.255105
0.310764
0.245117
0.428951
0.203579
0.343474
0.132736
0.190513
0.151738
0.162801
0.244551
0.604465
1.51607
0.226601
0.24177
0.36327
0.738673
0.295718
0.34398
0.348117
0.239049
0.122649
0.519871
0.160103
0.350806
0.302822
0.16004
3.11844
0.379784
0.506759
0.372724
0.357332
0.325177
0.246468
1.17117
0.317332
0.634494
0.560677
0.269124
0.426345
0.290605
0.824173
0.208504
0.343445
0.292652
0.417087
0.685779
0.594803
0.559886
0.504254
0.979878
0.187123
0.532375
0.116005
0.216712
0.145238
0.607321
0.22486
0.213153
0.289499
0.245312
0.283263
0.274745
0.45537
0.234533
0.260235
0.606583
1.12459
3.83548
0.324534
0.259858
0.448473
0.409274
0.858936
0.292795
0.26875
0.726112
0.215491
0.288592
1.02064
0.366219
0.464613
0.231589
0.178066
0.270182
0.33839
0.178051
0.175768
0.228422
0.259523
2.45714
0.366983
0.246357
1.05899
0.313455
0.199239
3.27519
1.0127
2.9939
0.12404
0.0949372
0.355779
0.260741
0.802792
0.169366
0.707413
0.542316
0.206465
0.206101
0.75005
0.32689
0.209786
0.281753
0.454042
0.321777
1.05903
0.277891
0.148544
0.334735
0.488998
0.436615
1.51691
0.279469
1.22468
0.760489
0.460815
0.224742
0.323286
0.565709
0.223019
0.376443
0.21995
0.495762
0.319006
0.309934
0.544475
0.679936
1.29116
0.182478
0.189141
0.289497
0.59104
0.26868
2.27852
0.149992
0.418378
0.269247
0.527425
0.361353
0.823831
0.22133
0.302086
0.303497
0.936484
0.223829
0.721068
1.07917
0.316562
0.148107
0.321751
0.193274
0.449593
0.209493
0.429501
0.207312
0.650172
0.300399
0.522919
0.219547
0.237515
0.1588
0.284753
1.24616
0.123551
0.280281
0.703112
0.302329
0.38071
0.380347
0.139219
0.403197
0.666983
0.189348
3.48187
0.37177
0.422961
0.227995
0.212247
0.344456
0.340488
0.8549
0.316138
0.306147
0.271012
1.16678
0.211942
0.291011
3.54121
1.2943
0.293359
0.180739
0.33037
0.252147
0.794178
2.34312
0.395411
0.88704
0.398466
0.343011
0.974283
0.422164
1.02319
0.172064
0.418146
0.232962
0.967119
0.442757
1.28976
0.223201
0.982036
0.547059
0.361328
0.408338
0.225433
0.325692
0.965404
0.288396
0.463314
0.240907
1.11068
0.324629
0.324567
3.59854
0.499275
0.26885
0.210493
2.60824
0.665952
0.353513
0.459917
0.138731
0.254803
0.185479
0.11771
0.227615
0.390848
2.01009
0.24003
0.265706
0.222622
1.22102
0.207219
0.160731
0.366086
0.201506
0.125801
0.248275
0.256622
0.389294
0.147875
1.15421
0.249938
0.208825
0.958067
0.146806
0.42339
0.247559
0.179295
0.131593
0.537269
0.272001
0.44495
1.61125
0.734557
0.200973
0.348472
0.675675
0.339844
0.0879336
0.38725
0.673461
0.567118
0.168022
0.206593
0.475134
0.339589
0.104087
0.134559
0.165415
0.35295
0.222722
0.203096
0.352294
0.0716171
0.325294
0.148518
1.24568
0.303166
0.83663
0.439642
0.402408
0.390948
0.517076
0.192902
0.298284
0.110244
0.487905
0.776344
0.242905
0.358622
0.207212
0.316919
0.400353
1.10859
0.419677
0.113146
0.669374
0.238307
0.141656
0.198324
0.277371
0.446726
0.198999
0.740121
0.775099
0.301651
0.309178
0.39422
1.23708
0.227874
0.213352
0.791807
0.874587
0.419502
0.168103
0.524371
0.294029
0.230932
0.592918
0.340703
0.115931
0.375959
0.221707
0.164282
0.288725
0.415833
0.214254
0.308203
0.889822
0.239304
0.265222
0.73103
0.26457
0.567763
0.148599
0.26186
0.264827
0.236606
0.0950499
0.366683
0.843356
0.748432
0.320653
0.44104
0.611931
0.313584
0.136191
0.0976542
0.258242
0.309017
0.303642
0.993613
0.181013
1.22135
0.300299
0.475007
0.188835
0.209653
0.247186
0.519625
0.757798
0.28568
0.376327
0.140514
0.405541
0.397692
0.146646
0.542742
0.155789
0.3432
0.856065
5.01362
0.208139
1.66915
0.123987
1.66337
0.323604
0.1771
0.239812
1.55632
0.344212
0.394145
0.282018
1.88424
0.615241
0.232852
1.14937
0.24091
0.577393
0.350844
0.268122
0.94456
0.174203
0.230696
0.757262
0.224246
0.115555
0.188153
0.504715
0.55668
0.368739
0.269503
0.170856
0.488062
0.395661
0.105835
0.131796
0.201727
0.448932
0.352715
0.210793
0.206043
0.263585
1.14632
0.561053
1.30932
0.870859
3.19597
0.627685
0.0776295
0.364662
0.228078
1.09191
0.862035
0.312
0.232277
0.299623
0.299645
1.28735
0.351018
1.74467
0.114179
0.105138
0.186765
0.461504
0.21521
0.846022
0.221233
0.530468
0.460523
0.274238
0.351646
0.564757
0.22139
0.226515
1.49484
0.21915
0.259474
0.507629
1.33788
0.287877
0.29667
0.225961
0.356618
2.02119
0.32599
0.741731
0.311098
1.43869
0.689215
0.0870932
0.304357
0.263719
0.981304
0.965081
0.377513
0.294899
0.406316
0.181908
1.52875
1.23555
0.109573
0.160702
1.51765
0.305528
0.206707
1.11223
0.279668
0.367148
0.353858
0.201841
0.213982
0.203335
0.399208
0.275506
0.502814
0.183805
0.268306
1.36716
1.64446
0.201514
0.18922
0.32566
0.297782
0.261809
0.236108
0.553351
0.262638
0.390646
0.822231
0.370417
0.301958
0.406599
1.54784
0.102144
0.157508
0.551404
0.397534
0.314967
0.353267
0.225768
0.258973
0.172505
0.589889
0.216967
0.24133
0.293007
0.206101
0.406892
0.288024
0.430639
0.287375
0.390224
0.362846
0.826272
0.353696
0.164024
0.851434
0.440485
1.87422
0.283174
0.549609
0.259931
0.424302
0.206801
0.273324
0.422087
0.256004
0.601919
2.43293
0.628855
0.497319
0.164718
0.165532
0.285949
0.211892
0.262594
0.105939
0.248499
3.19246
0.297596
0.589114
0.203756
0.334057
0.790738
0.276334
0.324765
0.109295
0.139225
0.400356
1.11172
0.142626
0.25579
0.246531
0.166981
0.335762
0.363148
0.163584
0.31287
0.318793
1.49352
0.226314
0.39455
0.276068
0.872275
0.227111
0.261049
1.05515
0.340893
0.373554
0.337798
0.705716
0.6181
3.25441
0.163986
0.172545
0.262586
0.973796
0.11655
0.356562
0.275109
0.322585
0.345679
0.398223
0.376736
0.340984
0.421544
0.351026
0.197186
1.77554
0.164534
1.75324
0.28264
0.478264
0.189891
0.278107
0.219516
0.261802
0.572563
0.321917
2.15537
0.134758
0.363429
0.253329
0.256686
0.235785
0.226723
0.172499
0.315182
0.535335
1.51591
0.354046
0.325234
0.320351
0.204889
0.849108
0.23038
0.185061
4.94575
1.94031
1.43333
0.303388
0.220633
0.215976
0.146255
0.348422
0.125377
0.679706
0.168073
0.241687
0.386822
1.68994
0.279341
0.271036
0.253766
0.179261
0.112341
0.253013
0.279918
0.18613
0.230443
0.272384
0.233171
0.340474
0.33587
0.226996
0.323958
0.346058
1.42612
0.152512
0.148174
0.107741
0.482105
0.769054
0.43808
0.391435
0.260007
0.635204
0.295853
0.25493
1.72712
0.226154
0.305404
0.16466
0.368786
0.366432
0.760605
0.642243
0.392101
0.151424
0.438811
0.479756
0.791611
0.190873
0.179267
0.122879
0.23448
1.8042
0.222624
0.267075
0.189677
0.326561
0.521308
0.270552
0.34383
0.216407
2.30467
0.266626
0.415125
0.584303
0.49447
0.283743
0.531874
0.421284
0.301538
0.619632
0.272624
2.31039
0.352625
0.350717
0.234941
0.390135
0.313636
0.155455
0.246975
0.434491
0.254723
0.271962
0.576422
0.16185
0.470462
0.220889
0.223185
0.266356
0.271151
0.170165
0.306488
0.763235
0.234183
0.316214
0.135606
1.40616
0.160964
0.420398
0.134342
0.249242
0.454517
0.554183
0.266327
0.441582
0.274258
1.33393
0.291888
0.243135
0.204982
0.201044
0.347808
0.581723
0.258747
0.323817
0.127302
0.160131
0.335168
0.288555
0.954049
0.250491
1.22791
0.37474
0.877938
0.124358
0.304364
0.476599
0.11499
1.39534
0.227996
0.340836
0.211005
0.141414
0.297215
0.244187
1.50444
0.505107
0.361276
0.24819
0.195453
0.378152
3.11805
0.358568
0.888066
0.470954
0.207205
0.510827
0.419649
0.252279
0.290983
0.374985
1.20293
0.311533
0.745775
2.72808
0.176512
0.207151
0.280899
0.307155
0.35547
0.396547
0.506467
0.373883
2.49202
0.271968
0.264428
0.243203
0.217602
0.592417
3.14816
0.382566
0.414963
0.283191
0.267014
0.28437
0.182361
0.907295
0.175781
0.458209
0.514967
0.30679
0.33951
0.245622
0.792629
0.477175
0.457928
0.276066
0.189055
0.135857
0.606886
0.237081
0.364578
0.524176
0.50933
0.314857
0.693841
1.14601
0.316624
0.331088
0.216372
0.452559
0.453551
0.0794348
0.304795
0.224691
0.259881
0.232723
1.70015
0.865307
0.745507
0.248996
0.297118
2.64268
1.06955
0.249529
0.423638
0.424918
0.358852
2.34373
0.630772
0.725768
0.226709
0.563264
0.200324
0.35205
0.205708
0.198177
0.32032
0.28594
0.217953
0.24089
0.192119
0.444449
0.894224
0.25702
1.28375
0.191179
0.44669
0.258525
0.128711
1.26852
0.225656
0.172728
0.0683582
0.41822
0.459387
0.821686
0.583054
0.608737
0.626384
1.12477
0.165792
0.227452
0.241628
0.14093
0.987446
0.270437
1.07938
0.383723
0.0620439
0.412598
0.854635
0.502239
0.394753
0.799682
0.731021
0.328911
0.302088
0.389784
0.752128
0.364915
0.233142
0.442435
0.195505
0.329699
0.135886
0.288847
0.254252
0.366327
0.341348
0.236154
0.19665
0.199366
0.183434
0.1067
0.320559
3.45306
0.419986
0.191435
0.307882
0.576249
0.964536
0.539871
0.500092
0.231951
0.368633
0.23613
0.210615
0.81724
0.160165
0.306351
0.45681
0.624731
0.157388
3.58787
0.533036
0.292774
0.527697
0.158779
0.356535
1.45557
0.397138
0.301889
0.763593
0.35949
0.370387
0.225562
0.772224
0.539114
0.324273
0.293908
0.633384
0.694421
0.350614
0.181079
1.13814
0.333623
0.357159
0.231496
0.177281
0.284087
2.76021
0.369852
1.71749
0.447241
0.308255
0.455446
0.327909
3.56705
0.230865
1.9876
1.20132
0.770839
1.08721
0.268957
0.413852
0.371028
0.300055
0.23095
0.529657
0.274624
0.401425
0.256607
0.218672
1.37821
0.419563
0.517891
0.684524
0.701279
1.02324
0.309373
0.322809
0.482844
0.331922
0.195549
0.273577
1.83739
0.266977
0.365041
0.3626
0.188587
0.319572
0.375061
0.219021
0.264541
0.187326
0.192733
0.361084
0.487094
0.30174
0.183855
0.46014
0.862942
0.520458
0.260509
0.22141
0.201732
0.229715
0.286601
4.34351
0.200783
0.430229
0.439352
0.802602
0.129819
0.220238
0.213363
0.230304
0.525995
0.244134
0.362734
0.42284
0.20915
0.18562
0.451819
0.317002
2.22766
0.397177
0.93443
0.348411
0.253738
0.380889
0.240201
0.160534
0.289685
0.366526
0.350352
0.704205
0.390917
0.351227
0.284659
0.16848
0.289757
0.355339
1.94622
1.79506
0.204496
1.38961
0.276191
0.278887
0.207859
0.194768
0.180621
0.345491
0.182537
2.33498
0.232498
0.981805
0.292398
0.23769
0.319146
0.210804
0.399523
0.251307
0.221245
0.256138
0.905895
0.584503
0.531668
0.525714
0.246617
0.266021
0.177261
0.114845
0.556313
0.313494
0.425327
0.930156
6.86942
0.327947
0.235677
0.30548
0.403909
0.203022
0.244231
0.489879
0.323406
0.231158
0.296572
0.195963
0.199556
0.228681
4.13909
0.576902
0.175246
0.563332
0.159871
0.46884
0.269579
0.233113
0.461715
0.241079
0.325001
0.479157
0.328113
0.221841
0.358605
0.111316
1.26766
0.964147
0.317805
0.342495
0.192907
0.298378
0.230025
0.321138
0.245911
0.218598
0.366667
0.264096
0.383529
0.501263
0.464142
0.194953
0.800542
1.34619
1.54378
0.268091
0.974105
0.473613
0.269334
1.00407
0.192167
0.313093
0.240774
0.304876
0.281585
0.195178
0.130734
0.201988
0.221063
0.77458
0.559341
0.243953
0.250707
0.275961
0.314507
0.53319
0.29612
0.42997
0.127587
0.293798
0.849971
0.621124
0.309173
0.996963
0.216923
0.766571
0.279772
0.145445
0.190351
0.167648
0.339153
0.144774
0.983188
2.00929
0.463121
0.339505
0.981731
0.208399
0.425736
1.0981
1.18681
2.60768
0.617222
0.242761
0.224365
0.133561
0.696622
0.565421
0.264513
0.278059
0.797188
0.343482
8.47805
0.312112
0.335792
0.234209
0.167886
0.132266
0.388294
0.627884
0.857392
0.173126
0.282645
1.75961
0.441915
0.235476
0.548298
0.141503
0.271747
1.00827
0.0666605
1.45654
0.158816
0.260679
5.86439
0.24299
0.269445
2.05671
0.823373
0.284085
0.31074
1.62009
3.00423
0.443352
0.309357
0.58349
1.64625
1.0954
3.63362
0.348959
0.205997
0.840109
0.471907
0.447001
0.666803
0.64635
0.726991
0.192825
0.183432
0.357162
0.241871
0.252892
5.36492
0.29166
0.438307
1.63536
0.133922
2.55489
0.326699
0.283593
0.137894
0.18979
0.27997
0.114536
0.456834
0.259827
0.368033
0.148385
0.214698
0.946445
0.595475
0.257188
0.195061
0.448899
0.488864
1.14658
0.269033
0.163007
0.222734
0.258679
0.693656
0.238237
0.604041
0.588075
0.178087
2.90136
0.596165
0.240334
0.419005
0.428796
0.575424
0.278709
0.637274
0.610104
0.491842
0.218974
0.230865
1.06138
0.255898
0.180113
0.84759
0.736774
0.307366
0.219828
0.23973
0.418075
0.597422
0.375801
0.398788
0.0894175
0.306166
0.168327
0.208201
0.448283
0.342369
0.156802
0.8006
0.38087
0.143402
1.03076
0.13169
0.156363
0.322793
0.29007
1.12559
0.185725
0.398973
0.232855
1.15155
0.834835
0.259155
1.2199
0.327992
0.225525
0.165579
0.474218
0.238696
1.9269
0.38197
0.421861
0.158276
0.36959
0.961097
0.637658
0.185115
0.219598
0.222217
1.50364
0.263592
1.68384
0.212616
0.122372
0.168795
0.220861
0.630036
0.525574
0.169929
0.661903
0.298899
0.289715
0.896587
0.410534
0.429044
0.186066
0.579297
0.655535
0.22456
0.301632
1.17873
0.218108
0.325886
0.25072
2.3324
0.316992
4.78625
0.24962
0.517299
0.346671
0.203305
0.226932
0.232524
0.415835
0.405421
0.184636
0.327311
0.334923
0.2118
1.60034
0.224904
0.375466
0.453015
1.67551
0.615207
0.35252
0.190768
0.302618
0.286791
0.38925
0.171857
0.330446
0.469555
0.288237
0.133261
0.354079
0.348168
0.11586
0.444638
0.119218
0.293435
0.121099
0.192173
0.373975
0.283444
0.309843
0.301802
0.280168
0.243071
0.158318
0.723369
0.300231
0.197307
0.179297
0.272873
0.294231
0.198955
0.28141
0.338563
0.301653
0.274372
0.381622
0.632986
0.380698
0.637893
0.44906
0.575917
0.326169
0.60634
0.259656
0.122142
0.33395
0.207447
0.282886
0.153543
0.275398
0.373415
0.288781
0.947268
3.35177
0.215542
0.118007
0.104558
0.177793
0.758847
0.177327
0.309533
0.223529
0.448365
0.301068
0.163672
1.43336
1.85806
0.405326
0.384229
0.187775
0.96992
0.937972
0.265183
0.162036
2.35767
0.206926
0.701035
0.333038
0.855329
0.137014
0.575432
0.119743
0.220292
0.276805
0.277442
0.230701
0.102562
0.129539
0.172451
0.611907
0.631461
0.220014
0.132555
0.338163
0.306662
0.39504
0.717678
0.213645
0.231449
0.169576
0.0986976
0.228686
0.266477
0.219085
0.252083
0.224202
0.154353
0.239507
0.0954036
0.260699
0.474274
0.372409
0.329401
0.372114
0.286149
0.293404
0.123902
0.313982
1.00093
0.699471
0.832911
2.67637
2.01974
0.185295
0.934157
1.46527
0.403468
0.209565
0.493369
0.145782
0.173019
0.228416
0.474501
0.195318
0.501022
0.297402
0.106266
0.731621
0.54199
0.217042
0.337597
0.149706
0.273602
1.12975
0.225943
1.28985
0.393099
0.12849
0.524268
0.489164
1.52343
0.295177
0.649069
0.358926
0.200654
0.234108
0.367102
1.4441
0.151795
0.45503
0.284524
0.279715
0.244308
0.252099
0.323057
0.140737
0.621612
0.729867
0.481523
0.325531
0.222059
0.602837
0.353946
0.177204
0.371131
0.832068
0.426743
0.27109
0.123039
0.290903
0.385016
0.263476
1.67958
0.605414
0.210309
0.416136
3.32861
0.327951
2.97806
0.514159
0.943388
0.262512
1.17477
0.169881
0.22131
0.583205
0.244447
0.334705
1.18534
0.731749
0.309407
0.700671
2.03163
1.53413
0.297094
0.193629
0.276754
0.31826
0.262183
0.268129
0.316115
0.29743
0.510696
0.243878
0.217447
0.733552
0.738285
0.271478
0.124969
0.272419
0.347944
0.251796
0.30355
0.313263
0.229729
0.33019
0.158759
0.324502
0.473314
0.171402
0.452575
0.135946
0.155039
0.186111
0.389998
0.27303
0.480815
0.36162
0.145414
1.40124
0.301826
1.1581
0.88451
0.237345
0.307365
0.228559
0.498617
0.806453
0.648003
0.141842
0.165728
0.366066
0.575424
1.02457
0.281036
0.237338
0.166045
0.355954
0.818886
0.686434
0.24829
0.373404
1.05437
1.1249
0.18975
0.352495
0.240057
0.528493
1.97525
0.345447
0.29307
0.519618
0.228533
0.292965
0.238332
0.239134
0.331404
1.4005
0.376212
0.290793
0.3086
0.551362
0.230128
0.295683
0.0982039
2.03056
0.326045
0.204918
0.211512
0.135175
0.535097
0.173885
0.336264
0.384623
0.08348
0.218954
0.157232
0.261802
0.349035
0.298922
0.273875
1.11982
0.311809
0.265645
0.761639
1.50415
0.71961
0.28032
2.09999
0.423752
0.272019
0.391182
0.216146
0.303279
0.315618
0.35307
0.464482
0.499961
0.728865
0.38401
1.08762
0.303818
0.699057
0.362166
0.160993
3.77641
0.414276
0.0660121
0.549139
0.960422
0.783227
0.341032
0.36966
1.03141
0.719443
0.662209
2.49376
0.467714
1.39198
0.264815
0.417548
0.615844
0.287448
0.208657
0.791013
0.482652
0.345156
0.172695
1.2129
0.163597
0.353534
2.82419
0.847453
0.219963
0.174489
0.402403
0.578259
0.193579
0.190004
0.263772
1.99997
0.321092
0.763323
0.362708
0.127579
0.273005
0.525714
0.519331
0.149895
0.235101
0.996536
0.292007
0.242568
0.211903
2.62014
0.2954
0.329537
0.334883
0.586153
0.159844
0.27267
3.62316
2.63848
0.227175
0.309903
0.565538
0.550784
0.247557
0.327314
0.276858
0.157247
0.461449
0.27689
0.249345
0.306123
0.279086
0.177192
0.420049
1.31791
0.277464
0.177797
2.02053
0.795673
0.463307
3.41837
0.528278
0.155255
0.150253
0.302544
4.15
0.218316
0.557093
0.186839
2.55243
0.354282
0.315127
0.395979
0.551315
0.403599
0.311271
0.227304
0.19062
0.113999
0.383115
0.310906
0.184679
0.191404
0.319652
1.80394
0.254221
0.318218
0.112003
0.226291
0.362054
0.36362
0.297522
0.362673
0.13328
0.36029
0.471754
0.355511
0.273628
0.201253
0.28273
0.196478
0.566559
0.607731
0.19278
0.226484
1.32148
0.602103
0.240808
1.4522
0.703923
0.167231
0.167844
0.541377
0.382339
0.268237
0.35859
0.237787
1.68409
0.285956
0.255587
0.223939
0.229735
0.742194
0.27031
0.239591
3.73115
0.348946
0.214736
0.22872
0.302116
0.195674
0.361704
0.415425
0.2547
0.255933
0.289809
0.308077
0.355437
2.85857
0.720874
0.915626
0.25053
0.988434
0.446489
0.16063
0.331282
0.356783
0.328068
0.306636
0.294697
0.961037
0.230869
0.601324
2.7627
0.19794
0.658387
0.127875
0.223499
0.308583
0.161087
0.257968
0.396891
0.209393
4.82346
0.407972
0.285391
0.445905
2.64719
2.73146
1.07861
1.16558
1.99086
0.226423
0.232612
1.94334
0.209984
0.279863
0.179624
0.177077
0.26104
0.569268
0.355425
0.268046
0.446299
0.151229
0.411333
0.219456
0.197513
0.464822
0.17708
0.343137
0.206831
0.644194
0.505434
0.350812
0.256838
0.122714
0.26713
0.309096
0.364454
0.292738
0.470979
0.172671
0.250571
0.239521
0.260249
0.399073
0.437629
0.195949
0.307354
0.535321
0.294931
0.437101
0.224124
0.423842
0.90997
0.284827
3.68725
0.918261
0.157749
0.600158
0.155756
0.286972
0.75746
0.326835
0.86782
0.361268
1.05717
0.264222
0.40543
0.173843
0.234103
0.332658
0.37772
0.241243
0.253569
0.317969
1.18392
0.221775
0.375467
0.185877
0.236449
0.773378
0.342403
0.311786
0.255428
0.51359
0.681454
0.467436
0.250365
0.190675
4.82932
0.450564
0.161586
0.187396
4.69765
0.155756
0.254302
0.165637
0.123973
0.257142
0.555627
0.551627
0.147404
0.512985
0.241818
0.184956
0.968882
0.158417
5.26783
0.267612
2.24927
0.644688
0.222567
0.0559853
0.109132
0.388737
0.182499
0.271673
0.97077
0.99289
0.646387
0.130869
0.367427
0.337522
0.333865
0.180017
0.194109
0.241209
0.232231
0.563658
0.22387
0.225725
0.14056
0.254813
0.130077
0.914068
0.194802
0.172827
0.180694
0.144356
0.250598
0.3825
0.457555
0.598929
0.247102
0.351645
0.129278
0.562492
0.197182
0.240782
0.495322
0.388327
0.143446
1.61599
0.308871
0.208398
0.493781
0.982562
1.16373
0.240118
0.0830963
0.34151
0.455236
0.281062
0.296808
0.137724
0.338911
0.367887
0.247116
0.343316
0.414823
0.45865
0.215788
0.472366
0.237237
0.313444
0.220204
0.152909
0.123859
0.212396
0.539288
0.21411
0.556639
0.123521
0.357872
0.352605
0.270582
0.208839
0.214276
0.147108
0.594583
0.311963
0.232248
0.23513
0.558097
0.224226
0.224193
0.283261
0.301552
0.850885
0.387729
3.34404
0.159852
0.630451
0.200927
0.542393
0.36496
0.169206
0.143034
0.308988
0.183553
0.153542
0.284847
0.272037
0.550492
0.740602
0.216565
0.419224
0.0563639
0.383737
0.438362
0.644195
3.59238
1.03517
0.236991
0.426209
3.72621
0.949892
0.286885
0.281675
0.341542
0.133691
1.63032
3.27092
0.162917
0.492197
1.66513
0.155177
0.179008
0.217281
0.158941
0.426537
0.269027
0.354515
0.204803
0.288558
0.334794
0.501271
0.281998
0.222305
0.116635
0.394641
0.455644
0.284424
0.25229
0.106697
0.301756
0.314907
0.251705
0.44361
0.179555
2.4068
0.257175
0.429051
0.261277
0.379101
0.404058
0.205314
0.0786756
0.26957
0.210402
1.2205
0.613585
1.41744
0.248151
0.447424
0.252257
0.374913
1.18581
0.227053
0.221079
0.190778
0.353792
0.215042
0.639378
0.903532
0.12593
0.201815
0.215811
0.227172
0.226954
0.0830964
0.354436
0.627641
0.670238
0.310262
0.333417
0.107904
0.405421
0.953452
0.198768
0.227032
0.370351
0.119816
0.331068
0.430345
1.20112
0.624802
0.205745
0.25826
2.88495
0.126579
1.84183
0.199173
0.830869
0.821943
0.250801
0.23458
0.220922
0.23674
0.344758
0.485232
0.179413
0.224334
0.662175
0.259643
0.0932397
0.679294
0.307453
0.470175
0.705912
0.225016
0.152114
0.45039
0.111178
0.389239
0.302851
0.395319
0.232883
4.36097
0.304767
0.106592
0.217934
0.188647
1.93854
0.298363
0.254506
0.116738
0.8075
0.28615
0.375355
1.53707
0.934545
1.87614
0.270511
1.60347
0.153219
1.05075
0.413254
0.443683
0.157397
0.232545
0.761311
0.26334
0.201199
0.235758
0.25635
0.380955
1.08906
0.475378
0.327491
0.299492
0.598351
0.158414
0.186635
0.260848
0.173913
0.233486
0.330328
0.1618
0.179155
1.9656
0.415408
0.353128
0.394841
0.512959
0.515827
0.266364
0.286513
0.282321
0.256604
0.453354
0.440613
0.571307
3.71018
0.153321
0.195302
1.0757
0.241367
0.178502
0.158888
0.220484
0.139177
0.334249
1.50041
0.769161
0.339846
0.21652
0.131305
0.861413
0.25677
0.519398
0.763536
3.31702
0.942533
0.363803
2.65533
0.217012
0.352795
0.243098
0.35558
0.134604
0.244016
0.232127
1.72623
0.213182
0.338364
0.373681
1.79018
0.382072
0.361945
0.218009
0.144784
0.249323
0.218502
0.235519
0.261181
0.788513
0.201397
0.239988
0.367991
1.01514
0.276371
0.233078
0.232052
0.307503
0.187351
0.127476
0.223751
0.283945
0.232783
0.357313
0.13739
0.22077
0.354085
0.224079
0.134239
1.44289
0.324505
0.328687
0.164628
0.128135
0.186444
0.232934
0.278748
0.256611
0.24555
0.159675
1.82924
0.20656
0.272286
0.948672
0.509043
0.190129
0.191941
0.442618
0.402222
0.310872
0.283115
1.11003
1.29531
0.414879
0.233284
0.158466
0.160392
0.396081
0.135572
0.42522
0.115217
0.205668
0.422385
0.361383
0.48438
0.353343
0.700313
0.236611
0.387697
1.38023
0.898359
1.54065
0.251746
0.666845
0.137865
0.219255
0.760573
0.171852
1.04345
0.498471
0.306479
1.93743
0.399165
1.24004
0.506523
0.27811
0.45527
0.450717
0.356678
0.214164
0.233528
1.11759
0.461996
2.40468
0.227413
0.446516
0.287071
0.395666
0.174873
0.52613
0.258991
0.652188
0.115726
0.354494
0.243092
0.300043
0.923172
0.906628
1.78555
0.677112
0.346063
0.185555
0.418542
0.240879
0.683347
0.305489
0.309801
0.202663
0.258412
0.186099
1.00566
0.355851
0.317136
0.197159
0.201465
0.387704
0.166403
0.806399
0.406222
2.28967
0.458302
0.358857
0.48105
6.45916
2.20199
0.399214
0.798231
1.2412
0.138723
0.144193
0.212191
1.29787
1.72494
1.37015
0.279917
0.255564
0.247897
0.405436
0.318569
1.5163
0.774398
1.64797
0.390747
0.233543
0.498698
0.224937
0.137852
1.40147
0.199275
1.45775
2.70836
0.674896
0.208604
0.233438
0.181536
0.478026
1.14315
0.189255
0.419733
0.153942
0.351001
0.999582
0.156855
0.371002
0.174189
1.8749
0.398367
0.437038
2.07419
0.268415
0.230452
0.564956
0.142386
0.244588
0.240734
0.433315
0.289542
0.189244
1.91993
0.248012
0.254836
0.340283
0.325397
0.311768
2.95022
0.70586
0.248694
5.07131
1.2996
0.145968
0.326121
1.58123
0.137032
0.515446
0.242882
0.136855
0.135997
0.288946
0.328702
0.171429
0.533279
0.145079
0.820502
0.3008
0.297255
1.35277
0.300606
0.208471
0.426145
0.38742
1.11864
0.62847
0.380176
0.414678
1.24072
0.420501
0.448846
0.276169
1.03802
0.314604
0.279881
0.698422
0.355103
0.188198
0.415579
0.292865
0.217286
0.876256
1.25734
0.807276
0.951701
0.322156
0.205317
0.2938
0.610976
0.670189
0.996679
0.271467
0.25562
0.382502
0.149904
0.33514
1.06542
0.109683
0.122372
0.428383
0.237489
0.184155
0.141695
0.513783
3.69054
0.280075
1.75582
4.1477
3.47994
0.394076
0.353036
3.55429
0.2766
1.55771
0.354989
0.181156
0.354576
1.87283
0.274827
0.263758
0.301197
2.82587
0.13883
0.542387
0.220753
0.253384
0.490648
7.16678
1.08822
0.0890325
0.326186
0.297109
0.261813
0.552203
0.289546
0.202118
0.264039
0.205493
0.136539
0.164221
0.568568
0.377293
1.16448
0.471783
0.334254
0.221351
0.185109
0.555596
0.240294
0.398918
0.170809
0.185908
0.213604
0.139278
0.330245
3.45583
0.267648
0.353912
0.246288
0.402988
0.307756
0.459845
0.203693
0.382373
0.281857
0.337764
0.130113
5.2235
0.145432
0.208209
0.293812
6.73487
0.728825
0.206494
0.290584
0.316292
0.242336
0.231811
0.361818
0.354882
0.326486
0.225504
0.232283
1.09785
0.235044
2.30864
0.240617
0.227405
0.206115
0.219868
0.258175
1.67027
1.46427
0.11278
0.159967
0.161898
0.172009
0.27257
0.241273
0.15824
0.882168
0.539989
0.134424
0.208573
0.186225
0.220356
0.368346
0.0981823
0.16
0.205334
0.224805
0.15757
0.799925
2.20557
0.464152
0.487005
0.5112
0.278072
0.194705
0.30194
0.352375
0.130903
0.170222
0.342138
0.340125
0.170709
0.276492
2.48399
0.337476
0.481339
0.178
0.862093
0.358646
2.08897
0.551722
0.185435
0.224461
0.414864
0.470825
0.509785
0.188336
0.419469
0.312065
0.469708
0.398249
0.138751
0.544099
0.108248
0.337914
0.402981
0.282808
0.187668
0.592495
0.823297
0.264989
0.177921
0.610615
0.44694
0.935368
0.142746
0.351828
0.200018
0.328283
0.225826
0.325833
2.64206
0.19846
0.127681
0.137237
0.120338
1.05399
1.21095
0.703825
0.25044
0.292996
0.180171
0.283057
0.303495
0.617291
0.237229
2.49639
0.154854
0.319569
0.157235
1.05025
0.211278
0.211652
0.0959472
0.263642
0.231447
0.30739
0.485716
0.332895
0.373394
0.659748
0.398032
0.143692
0.22188
0.679938
0.614134
0.354446
0.231687
0.202524
2.39487
0.499976
0.597637
0.107783
2.46177
0.230579
0.816082
0.246885
1.1618
0.679341
0.380642
0.245808
0.727047
0.269499
0.463015
0.400094
0.301951
0.178443
0.145619
0.765192
0.447137
0.393971
0.335185
0.417379
0.330986
0.23314
0.179626
0.294633
0.383339
0.512441
0.152741
0.413971
0.311574
0.285897
0.275502
0.26989
0.450753
0.355593
0.436929
0.283625
0.13482
0.511236
0.45426
1.83263
0.274844
0.260361
0.200901
0.23153
0.258555
0.142863
2.3435
1.00671
0.111768
0.153318
0.204513
0.229387
0.364208
0.762509
0.488684
1.32613
1.40829
0.185752
1.78866
0.174263
0.179696
1.00823
0.372089
0.896759
0.190031
0.3877
0.430158
1.55688
0.238715
0.298168
0.614031
0.910654
0.198763
1.10262
0.319269
0.218572
0.336321
0.42693
0.258652
0.353569
0.18662
0.445637
0.202226
0.810852
0.310383
0.407448
0.215155
0.250849
0.251591
0.213704
0.318352
0.261593
0.29211
0.261552
0.667763
0.211526
0.629474
0.100671
0.153154
0.276481
0.159027
1.92663
0.949623
0.103217
0.449191
0.393377
0.35653
0.16551
0.249172
0.303585
1.15093
0.489805
0.313312
4.42407
0.285903
0.183873
6.51673
0.463017
0.245173
0.244398
0.143185
0.143715
1.47433
0.149622
1.68592
0.422326
0.324275
0.581766
0.271313
0.221455
0.324513
0.141691
0.381081
0.183756
0.30324
0.154097
0.989535
0.319672
0.506145
1.53404
0.173831
1.13796
0.360052
0.185226
1.55339
3.25855
0.225954
2.96634
0.299
0.29169
0.371502
1.14457
0.121496
0.522952
0.177282
5.67736
0.291191
0.798634
0.397952
0.972776
1.19877
0.915231
0.308307
0.459291
0.134972
0.342924
0.122594
0.440865
0.252576
3.19975
0.393488
0.982295
0.27204
0.290692
0.144747
0.44012
1.2815
1.10827
0.332171
0.230697
0.702587
0.220973
0.268453
0.571271
0.194315
0.280747
0.717418
0.215469
0.13389
0.444952
2.05362
0.336334
0.190125
0.394034
1.64931
0.221596
0.302865
0.211388
0.301957
0.190425
2.06148
0.644841
0.568676
2.14437
0.291762
0.497896
0.461791
1.49417
0.416998
0.291237
0.252938
0.374214
0.750799
0.17143
0.364049
0.545004
0.145664
0.336563
0.414025
0.260098
0.506462
0.241994
0.469377
0.193487
0.421495
0.450082
0.335615
0.45073
0.474828
0.252389
0.406976
0.212114
0.271518
1.12203
0.397793
0.374662
0.233252
0.343049
0.350549
0.453297
0.376372
0.263225
0.366196
0.365112
0.221737
0.613934
0.678291
1.89537
0.436444
0.293082
0.442442
0.272947
3.27948
0.220383
0.607698
0.347425
0.225422
0.824549
0.140465
2.45053
0.193165
2.38308
0.273606
0.494574
0.22191
0.359266
0.270269
0.320439
0.320735
0.281974
0.279753
0.879274
0.373385
0.390059
0.335209
0.115132
0.56822
0.37555
0.219452
2.65298
0.284466
0.329649
0.331167
0.353143
0.332675
0.278736
0.264934
0.265143
0.22669
0.292181
0.22348
0.265626
0.243834
0.286506
0.102037
0.258259
0.736224
0.257034
0.797349
1.47249
0.335576
2.04446
0.253233
0.144275
7.423
0.272314
0.29329
0.171945
0.275103
0.153509
0.607067
0.37982
1.19906
0.269156
0.254056
0.319296
0.202966
0.167894
0.274028
0.337675
0.233908
0.352174
0.262654
0.513965
2.27761
0.506608
0.246196
0.189117
0.721231
0.342334
1.05963
3.40419
0.358685
2.00837
0.21844
0.630308
0.258656
0.156259
0.220965
0.297652
0.46582
0.867059
0.30086
0.614185
0.321374
0.17042
0.214105
0.254372
1.80013
0.93121
1.25842
0.489981
0.307482
0.0856826
0.358318
0.182069
0.388592
1.70404
0.399907
0.675503
0.49972
0.793221
0.241706
0.257148
0.449885
0.174528
0.800895
0.195767
0.10356
2.72636
0.30698
0.0948263
0.393595
0.530253
0.288296
2.057
0.211227
0.204995
0.210316
0.252936
0.340599
0.505733
0.128535
1.91307
0.307346
0.244254
0.142944
0.332247
0.472584
0.15463
0.15446
0.750228
0.263729
1.00556
0.355985
0.535109
0.950908
0.338097
0.318083
0.250535
0.280349
0.34793
0.657678
0.240654
0.486128
0.0923756
0.319453
0.506727
0.41556
0.31092
0.616502
0.262021
1.87676
0.160203
0.131129
0.315716
1.23625
0.372154
1.68514
0.223582
2.02192
0.180155
1.35785
0.203472
0.169555
0.332876
0.141323
0.199375
0.234269
0.105057
0.267582
0.297037
0.413926
0.256179
0.272194
0.545221
0.326559
0.991566
0.113402
0.195891
0.66406
0.664469
0.306242
0.198024
0.155931
2.34756
0.139204
0.141827
0.476837
0.414612
0.217522
1.93967
0.216832
0.820577
0.224737
0.743719
0.198406
0.211332
0.0913962
0.740399
0.627711
0.182175
0.440128
0.281735
0.248947
0.265617
1.99196
0.469193
0.262142
0.638722
1.77799
0.533816
0.183714
0.153602
0.28224
0.351766
0.220226
1.96966
0.861028
0.276586
0.243688
0.571177
2.26237
0.177125
0.232749
0.323481
0.13719
0.184404
0.119523
0.299978
0.134687
0.288167
0.299424
0.219439
0.249413
0.234376
3.82498
0.632115
0.232565
0.192781
1.55913
0.38545
1.20409
0.347884
0.216309
1.08934
0.838136
1.28456
0.316244
0.599609
0.298696
2.15425
2.26031
0.383919
0.389196
0.173665
0.350433
0.261733
0.828719
0.24782
0.237878
0.261968
0.267927
0.200137
0.459669
0.257612
0.261565
0.356225
1.30595
0.960671
1.28155
0.692484
0.302256
0.214741
0.246828
0.297522
0.203328
0.244795
0.390469
0.265802
0.732762
0.201243
0.401809
0.442493
0.226752
2.04676
0.142859
0.170528
0.577826
0.290711
0.786515
0.257424
0.27498
0.444879
0.14632
1.36479
0.103825
0.461907
0.300992
1.52061
0.228177
0.272827
0.194704
0.144918
0.406372
0.367628
0.201498
0.291856
0.926624
0.340016
0.170238
0.496992
0.785681
0.50803
0.271209
0.753907
0.296714
0.225231
3.62964
0.173491
0.257591
0.126562
0.146757
0.468147
0.509508
0.260666
0.385585
0.245274
0.355621
0.972326
0.336535
0.278007
0.189617
2.01303
1.9103
0.362472
0.181162
0.434293
0.189205
0.628371
0.260638
0.346162
0.157822
0.24654
0.427594
0.270352
0.385101
0.314518
0.340331
0.291872
0.408873
0.18737
0.187965
0.61377
0.360815
0.516017
0.280931
0.278204
0.169549
0.27317
0.313391
0.218787
0.142643
0.313389
0.165577
0.284126
0.37417
0.883688
0.187576
0.168762
0.256517
0.817589
0.447086
2.93762
0.183146
0.314242
2.85571
1.92361
0.510416
0.301911
0.305013
0.275068
0.162609
1.00197
0.883805
0.27883
0.219798
0.20024
0.211762
0.31022
0.507012
0.563074
1.05198
4.41051
0.209511
0.339598
0.44416
0.182357
0.155383
0.353189
1.03187
0.164728
0.234848
0.937126
0.226521
0.392787
0.163992
0.39347
0.211935
0.156906
0.224683
0.273157
0.352549
0.392086
0.611729
0.273577
1.85042
2.41712
0.284877
0.239236
0.2527
0.337353
0.167635
0.291618
0.210424
2.61955
2.47153
0.251717
0.317393
0.415594
0.625832
0.418571
0.379141
0.237878
0.187533
0.136569
0.904543
0.256815
0.344205
0.0845514
0.775106
0.34787
0.34299
0.737552
0.378006
0.107339
0.223354
0.139973
0.272543
0.288105
0.150667
0.213676
2.26141
0.250534
0.590301
0.468036
0.35466
0.778288
0.220167
0.158672
0.274622
0.284996
0.23175
2.12653
0.437509
0.336206
0.230873
0.260582
0.145087
0.385425
1.89027
0.204055
0.31548
0.27234
0.40159
0.160912
0.164583
0.771513
0.482769
0.152332
0.151464
2.44308
0.368214
0.266952
0.245987
0.223882
0.143059
0.1796
0.208519
0.0947907
0.244732
1.34491
0.627387
1.00672
2.45032
0.917509
1.96926
0.458336
0.227758
0.229561
5.78289
0.258244
0.241603
0.211234
0.253194
0.263106
0.327903
0.269125
0.429953
0.99847
0.245192
0.223232
0.614304
0.272519
0.178536
0.82391
0.202937
0.17224
0.378593
0.375069
0.85482
0.490802
0.738618
0.152255
0.224313
0.160632
0.214487
0.315083
2.75045
0.231983
0.708422
0.782005
0.23309
0.328971
0.293816
0.844112
0.237228
0.229327
0.1388
0.203663
0.346067
1.59405
0.480714
0.381157
0.348874
0.224008
0.426608
0.194652
0.327535
0.355991
0.292984
0.20097
1.47089
0.268321
0.444049
0.278217
0.566935
2.14353
1.00597
0.414472
0.401413
4.22658
0.330776
0.866687
0.847231
0.210586
2.83665
0.377659
0.290942
0.197102
0.40181
0.52703
0.391099
0.530351
0.556567
0.594393
0.277829
0.351116
0.201055
0.113765
0.202309
0.550048
0.23258
0.130797
0.274898
1.19126
0.260106
0.406709
1.78996
0.282918
0.356254
0.233467
0.195587
0.116766
0.331663
1.24428
0.750388
0.179797
0.375337
0.211855
0.251459
0.599973
0.49392
0.267851
0.19803
0.22411
0.256156
0.666068
1.32525
0.15741
0.209597
0.27811
0.149855
0.115395
0.521972
0.191952
0.85373
0.217642
0.20969
0.353579
0.254668
0.42312
0.395996
0.737773
0.253898
1.47674
0.629023
0.357932
0.129116
0.391739
0.348779
0.356653
0.159769
0.305986
1.12907
0.344528
0.421524
0.175496
0.795458
0.214212
0.257063
0.513839
6.24553
0.152195
0.201192
0.184891
3.90134
0.247508
0.980336
0.458228
0.159441
0.357349
0.186076
0.976292
0.68467
0.282504
3.36875
0.96388
0.754956
0.190052
0.310583
0.336041
0.593956
0.765346
0.662009
0.246543
0.226484
0.202467
0.24335
0.340315
0.372714
0.152858
0.972143
0.151148
0.28054
0.290621
0.289189
0.150839
0.583073
0.144602
0.326113
0.101196
0.433835
0.691099
0.217118
0.412032
0.15239
0.831682
0.647112
0.222971
0.29727
0.105992
0.298342
0.362709
1.74044
0.450994
0.327513
0.204495
0.380556
0.238894
0.150477
0.110099
1.5636
0.0948086
0.257516
0.230397
0.225994
0.141492
0.229169
1.15159
0.193569
0.159153
0.351023
0.254181
0.169587
0.152783
0.224199
0.199526
0.384474
0.23541
1.22656
0.33796
0.178724
1.53385
0.28475
0.447431
1.51913
0.351333
2.87549
0.207241
0.71686
0.205185
0.784303
0.223604
0.192662
2.53923
0.226284
0.200214
0.130601
0.145841
0.0775617
0.120368
0.152891
3.44668
0.310871
0.332123
0.319307
0.21645
0.538201
0.198912
0.36799
0.298933
0.871457
0.284049
0.24555
0.222011
0.433911
0.175237
0.856173
0.156447
0.5359
0.250723
0.480054
0.89276
0.335782
0.919943
0.453171
0.251391
0.265676
0.345827
0.239192
0.565879
0.459258
1.12724
0.254885
0.42652
0.369577
0.361892
1.52823
0.207879
0.296718
0.129176
0.263543
0.236825
0.242391
0.573649
0.257197
0.479786
0.35071
0.240731
0.17981
0.179533
0.844182
0.236233
0.239777
0.3877
2.0649
0.419059
0.277847
0.233021
0.217841
1.44818
0.159185
0.82994
0.123599
0.29847
0.205148
0.33751
0.499569
0.272522
1.36463
0.135105
0.182908
0.489734
0.200051
0.208058
2.4319
0.242901
0.248183
0.300945
0.352
0.2439
0.90886
0.786405
0.130261
0.225553
0.186202
1.71016
0.303452
3.27826
1.01043
2.37273
1.02933
0.174363
0.121573
0.335043
0.278281
0.302974
0.306044
0.185589
0.407776
2.10014
0.52153
0.363836
0.286893
0.415533
0.259528
0.322399
0.324451
0.214237
0.190159
0.400457
0.309973
1.94752
0.438725
0.71558
0.37561
0.351332
0.242683
0.165264
0.33935
1.44917
0.182745
1.24205
0.36364
0.308844
0.35524
0.283162
0.143151
0.131083
0.159395
0.152055
0.893626
0.476441
0.304025
0.144894
0.652561
0.263062
0.146988
0.305699
0.189143
0.980267
0.153543
0.129681
0.246984
0.178776
0.101855
0.484484
0.330968
0.615287
0.318381
0.176396
0.243543
0.646073
0.563593
0.395652
0.183534
0.594643
0.549492
0.374218
0.834115
0.186547
0.326203
0.163549
0.356091
0.188345
1.40124
3.07776
0.748755
0.275282
0.732661
0.454424
0.301479
1.29495
0.280844
0.439686
0.358145
0.269549
0.314514
0.447481
0.147374
0.251864
0.251462
0.292901
0.18324
0.186508
0.244015
0.27125
0.144564
1.07466
0.492429
1.37974
0.195512
1.00711
1.01881
0.288871
1.00167
0.111379
0.944757
0.56249
0.425692
0.211469
0.204269
0.303961
1.64367
2.56838
0.374218
1.01893
0.737171
0.149767
1.2111
1.25777
0.470404
0.38936
0.642734
0.346928
0.196291
0.291294
1.07444
0.489402
0.312799
0.21029
0.12243
2.36175
0.201575
0.190089
3.09015
0.415694
1.84005
0.169852
0.366364
0.390834
0.272017
0.288979
0.195464
0.255337
0.307065
4.08087
0.336035
0.204986
0.488006
0.761822
1.07126
2.6763
0.356978
1.62423
0.515104
0.162011
0.292772
0.184619
0.740499
0.155985
0.521276
0.223757
0.210382
0.326036
0.609881
1.4223
0.338635
0.297504
0.305996
0.841797
0.812491
0.101309
1.74666
0.102971
0.160337
0.239611
0.270301
0.459333
0.377267
0.384538
0.232249
0.530876
0.375768
0.293397
0.264616
0.352456
0.296688
0.324825
0.18024
0.298962
1.67433
0.191417
0.208399
0.453626
0.340752
0.263986
0.153937
0.214138
0.320366
0.207315
0.272983
0.642483
0.248859
0.211408
0.320453
0.232764
0.319387
0.455435
0.91362
0.381667
0.123101
0.146544
0.540295
0.230705
0.387313
0.32996
0.176851
0.505654
0.211409
0.256158
1.03047
0.216653
0.532045
0.223878
0.220421
0.582104
0.265504
0.339671
0.212715
0.178205
0.447917
0.266253
5.5576
0.337436
0.251317
0.526777
0.251435
0.568925
0.342496
1.06042
0.329601
0.335258
0.199305
0.245176
0.155271
0.40095
0.24184
0.295341
0.503321
0.250565
0.468649
0.150453
0.209626
1.24176
0.184035
0.803181
0.300687
0.444716
0.223448
0.196438
1.88984
0.321668
0.254135
0.5535
0.208006
0.257655
0.859927
0.40605
1.14586
0.182397
0.278583
0.416098
0.357695
0.240108
0.191866
0.734184
0.615618
1.16452
0.204982
0.632809
0.7075
0.29783
0.707074
0.636826
0.288281
0.417785
0.211595
0.46402
0.156953
0.310988
1.91753
0.213741
0.257387
0.772339
1.59543
2.33214
0.728179
0.385061
0.291453
0.284832
0.252037
0.141636
0.1308
2.57282
0.371467
3.88065
0.192834
0.273136
1.37141
0.220036
0.156357
1.12385
0.908534
0.185502
0.232653
0.780175
0.163146
0.62493
0.240708
0.146194
0.388109
0.441362
0.293086
0.348915
0.234376
0.138847
0.27279
0.520785
1.38064
0.538674
0.247849
0.278088
0.368644
0.370714
1.11021
0.792294
0.591077
0.391224
2.12349
0.516567
0.318221
0.226606
0.368384
0.315976
0.201619
3.86889
1.78916
0.4289
0.391344
0.216157
0.213997
1.52487
0.313773
0.164327
0.32254
0.269768
1.03638
0.356079
0.234695
0.165816
1.63913
0.194719
0.163386
0.307188
0.352814
0.458599
0.387962
0.201838
0.20245
0.158101
0.256236
0.173445
0.458138
0.174493
0.315242
0.237675
0.19827
0.507941
0.139038
0.267042
0.166895
0.536245
0.876072
0.13053
0.147934
0.511384
0.207701
0.268156
0.104109
0.315149
1.77181
0.278729
0.704797
3.25656
1.74732
2.95277
0.19755
1.68982
0.226425
0.193434
0.599696
0.259359
0.403654
2.73921
0.23724
0.216983
1.28453
0.434846
0.227799
0.633698
0.480133
0.55428
0.301943
1.08571
0.473014
1.18602
0.899094
0.186294
0.497856
0.302308
0.630091
0.340907
0.234431
2.41908
1.14221
0.200829
0.789808
0.259099
0.225186
1.38877
0.243608
0.230408
0.745219
0.479829
1.74047
0.210165
0.412057
0.563623
0.285886
0.914525
0.0952316
0.235122
0.110993
0.131858
1.01592
0.423279
0.22084
0.323414
0.242535
0.221687
0.37751
0.377894
0.113743
0.265383
0.302148
0.933518
0.116891
0.650515
0.250822
0.299394
0.199121
1.06131
0.3469
0.254239
1.55093
3.09576
0.179729
0.400878
0.318119
0.277248
0.234599
1.51641
0.408875
0.125883
0.225789
1.15662
0.366154
0.952103
1.43297
0.739526
0.33138
0.310925
0.308644
0.173918
0.226393
0.251533
0.204478
0.252856
0.323967
0.158319
0.570766
0.833254
0.163433
3.24187
0.248101
0.179359
0.203048
0.831976
1.11527
0.341595
0.213228
0.274761
0.194569
0.347219
0.210812
0.943644
0.237406
0.218577
0.559586
0.279988
0.188269
0.536405
0.477121
0.206236
0.886051
0.381226
0.670798
0.285361
0.281413
0.477135
0.550496
0.337594
0.251693
0.198863
0.518229
0.672875
0.372367
0.32813
2.87033
0.386205
0.490948
0.884579
0.419892
0.431138
0.264321
0.211206
0.579719
5.59439
4.31793
1.88083
0.307463
0.367716
0.887257
0.213101
0.116921
0.215771
0.284291
0.216001
0.302896
1.50951
0.176464
2.24136
0.375836
0.676904
0.224461
0.25967
0.175302
0.197822
0.467192
0.238921
0.380491
0.335405
0.635948
0.397852
2.22785
2.48173
1.18345
0.266056
0.142028
0.281533
0.28935
1.86266
0.191941
0.925697
1.36354
0.309542
0.397245
0.784897
0.154427
0.145949
0.38032
0.367104
0.280744
0.215246
0.19972
1.11299
0.268951
1.35718
0.389982
0.626407
0.378948
0.31381
0.266916
0.460482
0.200785
0.349539
1.35944
0.348859
0.289949
0.324041
0.273789
0.396415
0.195266
0.15143
0.180772
0.361814
0.125901
3.26715
0.21679
0.298378
0.137888
0.474291
0.494278
0.316891
0.268764
0.25909
0.332188
0.323065
0.257909
0.235692
0.323449
0.391473
0.135727
0.53095
2.81463
0.293058
0.123864
0.550032
2.70594
0.224619
0.325425
0.295065
0.160211
0.251896
0.619542
0.32401
0.435552
1.14925
0.503177
0.251155
0.307362
0.946828
0.814623
0.335399
0.293606
1.28102
0.753926
6.88859
0.162189
3.03755
0.486881
0.148043
0.133837
0.241988
0.250723
0.842954
0.405923
0.210833
0.763937
0.962166
0.588209
0.831074
0.502341
0.687869
0.441128
0.379797
0.326745
0.22716
0.509655
0.285822
0.692807
0.185941
0.269293
0.207812
0.3382
0.380115
0.203751
0.180487
0.292348
0.357123
0.168556
0.227356
1.04793
0.921475
0.265636
0.387731
0.826831
0.151686
0.133586
1.24755
0.777614
0.402537
1.0331
0.203165
0.218261
1.08998
0.197641
1.07669
0.276998
0.262712
1.90679
0.513792
0.749989
1.19164
0.432169
0.185912
0.342898
0.526445
0.111883
0.0883665
0.19439
0.161746
0.654138
6.81852
0.252783
0.173004
0.127997
0.700021
0.444484
0.189222
0.697372
0.280658
0.724859
0.308787
0.195746
0.460435
0.36769
0.159389
0.588879
0.367893
0.505886
0.274573
0.314912
0.163928
2.9053
0.181821
0.305684
0.683876
0.203534
0.385357
1.2497
0.362254
1.4358
1.23498
0.355009
1.14562
0.235748
0.61623
0.154754
0.230447
0.391838
0.153383
0.196341
0.0867568
0.318682
0.191633
0.154953
1.73956
0.344423
0.231395
0.289099
0.150355
1.94666
0.576658
0.360483
0.165719
0.304477
0.165194
0.286548
0.114711
0.449852
1.92169
0.31284
0.267279
0.17618
0.694562
0.276247
0.312515
0.166639
0.166163
0.230147
4.82963
0.167393
0.319678
0.401171
0.38641
0.384855
0.242461
0.250161
0.158306
0.2413
0.611043
1.77849
1.36681
0.233222
1.01717
1.00878
0.212647
0.204112
0.759197
2.17051
1.03719
