0.18945
3.76168
10.4905
3.57603
0.493334
3.91374
0.16117
0.971943
1.96767
1.28225
3.17288
2.06716
0.239753
2.26989
0.622965
0.417113
0.745533
0.322417
0.872443
3.05492
0.316343
0.201129
0.241065
0.207108
0.208708
0.282603
0.283424
0.409394
0.236542
0.28137
0.315959
1.16117
2.35953
0.675312
0.157233
0.375684
0.374564
9.71789
1.94235
1.13015
8.38693
0.206629
2.78236
0.78837
0.310009
0.404509
0.193803
0.365319
0.168865
0.310133
1.94129
0.28786
0.319234
0.277737
0.257302
0.27057
1.25142
6.74902
0.282994
0.65433
0.371138
2.16424
0.282023
3.32245
3.13644
0.101401
0.325936
0.57858
0.479266
0.423528
0.197742
0.144529
0.367829
0.322154
0.301318
0.105825
0.318697
0.400545
0.212351
0.322257
3.03353
0.165385
0.235532
0.139423
0.291472
0.205961
3.83633
0.185533
0.28718
7.77768
0.906069
0.237983
0.261825
0.286655
0.783432
4.2765
0.208787
0.240004
0.211317
4.40071
7.8866
0.322904
0.186062
0.159158
5.01599
1.32098
0.363694
0.341645
0.437812
0.181913
0.398166
3.77915
4.75961
2.90867
4.69258
0.240108
0.362954
0.265662
0.197804
0.341397
3.11038
1.70501
0.261534
0.319299
0.268337
0.161187
1.02061
12.3114
0.235913
10.662
0.238615
0.827792
1.11099
0.322647
0.219329
0.460986
0.37004
1.05801
0.151064
0.266058
0.12785
0.235875
5.53599
0.207821
0.235844
0.249415
0.212847
0.210054
1.68316
3.85046
0.332785
0.262895
1.99541
2.31742
0.21354
0.398401
0.169601
1.26739
0.972366
0.335137
0.223187
0.382105
0.299035
2.44669
0.245937
0.23235
0.146803
0.337534
0.131985
0.295879
0.304989
0.203718
0.549221
0.175288
2.33439
0.318608
0.314378
1.90468
1.57535
0.241794
0.689802
0.318848
0.388496
0.21515
0.431358
0.186306
0.205229
37.3449
0.139789
0.25003
0.175505
2.77295
0.922879
12.6554
0.602101
6.02678
0.258056
1.68785
1.22421
0.172747
0.153414
2.63307
1.10488
2.54261
0.163771
0.312068
0.249447
0.349938
0.285296
1.59818
0.206099
0.540549
1.22427
0.451037
0.471895
2.46515
2.29056
0.15596
3.90104
0.149993
0.342907
0.23619
1.11024
0.210716
4.34957
0.174647
0.244982
7.56266
0.227131
0.805002
0.281719
0.966492
0.237619
0.153919
0.660183
0.301656
0.250174
1.55201
0.42273
0.226134
1.61903
0.120372
0.617048
0.397499
0.299221
1.70331
0.342145
0.626081
0.217303
2.38122
0.773612
0.23035
0.433638
0.205409
0.178314
0.630281
11.0228
1.03175
0.203163
1.48276
0.120668
2.03926
1.61575
0.246388
0.399337
10.8066
1.78056
0.362691
1.4796
0.271075
0.191917
0.180629
0.273924
0.306888
0.218923
4.54971
0.744277
0.26593
3.37793
0.260626
0.423051
0.315053
0.421407
0.156122
0.70652
4.61614
0.510845
0.324534
0.269315
13.7144
0.285985
2.96861
0.21712
0.614295
7.7479
0.25626
0.369292
2.94888
0.515146
3.8876
0.271684
1.09889
0.383624
1.07313
0.237023
1.8227
0.218874
0.580726
0.419178
0.0882844
0.306467
1.59013
6.65157
0.133627
0.197425
0.159006
0.350897
0.84567
0.278983
0.384693
0.130233
0.376918
0.714637
22.5461
0.308629
0.223439
0.416475
0.960387
0.378819
2.51868
0.142427
0.499529
0.192236
0.194079
0.347807
0.420484
9.92045
1.43798
0.373116
0.223834
0.18683
0.715375
0.323588
5.06407
1.39475
4.70608
0.2561
0.410158
0.33971
5.47984
0.264086
0.19044
0.203718
0.183839
2.99012
6.83545
0.336514
0.160527
2.65533
0.74696
0.378108
0.215379
0.134064
1.4852
0.445897
0.176977
0.259561
0.624478
3.84254
0.407262
0.315159
3.62096
2.85784
0.174325
0.946902
0.123228
0.328934
0.303921
0.28591
0.205388
0.137349
0.229196
0.343227
0.369018
12.0244
2.08837
0.20029
2.66403
0.163835
0.360726
0.612965
1.99371
0.463516
1.62851
0.736798
0.290277
9.44492
4.06057
1.52808
0.304204
0.26246
0.327275
0.231419
0.752813
0.130294
2.24172
0.174605
0.692651
0.185151
3.4072
0.211436
0.326665
0.567824
0.446835
0.223766
4.36807
14.4967
0.191148
2.81238
1.56101
0.750636
1.07693
0.293591
1.50558
0.382014
1.40196
7.78813
0.263005
0.204003
0.204918
1.99212
0.235952
2.18618
0.154286
0.311194
0.255518
4.56401
0.268091
0.294148
1.07738
0.363649
11.1859
1.40556
6.22557
0.384123
1.47375
0.348857
2.69016
3.62831
4.37561
3.01927
0.245429
4.22313
0.221125
0.228418
0.192618
0.269146
0.177014
3.27222
0.193523
0.359944
2.19044
0.309225
0.126233
2.38343
1.50072
0.459037
0.319796
0.304962
0.473438
0.354798
0.239951
0.252249
29.8219
0.1548
0.506024
0.143188
0.293253
0.247416
0.189156
0.129264
0.204384
0.245043
2.9173
0.847368
1.12879
1.61945
0.316807
1.52056
0.391009
0.524707
0.453223
0.0814879
0.280725
0.466165
11.6703
2.3219
0.339022
15.9328
0.364254
0.138829
0.281284
0.477809
8.91788
3.5582
2.28374
0.522808
0.340972
0.391776
0.191456
0.210079
0.24342
0.362166
1.40348
3.38905
3.0251
0.107183
0.323807
0.246554
0.261087
0.202989
1.11911
0.381141
2.09092
1.53249
0.219655
0.411122
0.218427
0.490124
2.76548
0.550621
0.846406
0.169188
0.159045
0.278184
2.67318
0.858201
0.149434
0.33491
0.29316
0.833843
0.328637
0.205662
0.882735
0.222822
0.196186
0.719479
0.214586
0.105637
1.4181
0.343896
1.54824
2.74428
0.891953
3.77365
0.120352
0.452308
0.340589
0.246436
0.293645
15.4313
0.244476
0.315092
4.11032
3.64189
0.704374
5.21687
0.463006
0.937352
0.301608
0.266941
5.03066
16.6646
0.353709
0.460482
0.14471
0.270036
0.212021
4.56946
2.49001
0.237785
4.82308
0.701326
0.409253
0.220496
0.236
0.201407
1.17087
0.228656
6.56451
0.43627
0.107206
0.177298
0.269121
0.115899
1.26682
3.39591
2.71868
3.61144
0.296575
4.00282
0.299703
1.19863
0.446019
4.27087
1.70859
14.7434
0.611355
0.178339
0.462239
0.1344
0.198195
0.202458
0.293534
0.433613
10.7927
9.64006
0.153124
0.188002
0.929725
0.854899
1.5458
0.153841
1.64565
0.245163
0.170133
0.148055
2.81663
5.20005
0.30017
8.28554
0.254748
0.450501
1.21951
0.255473
2.79239
2.16084
0.719807
0.138414
0.216751
0.348126
0.451685
0.307474
10.6854
6.04252
1.14164
0.192549
0.852058
0.520089
5.54019
0.172024
0.213936
0.285775
0.317956
0.189165
0.392549
1.48103
0.155354
0.21378
0.283709
0.166336
0.423117
0.196415
0.116476
1.79539
4.40875
0.161536
0.434864
0.762062
0.342677
0.116281
9.47809
0.293692
0.413109
0.182713
0.2331
0.16414
1.54077
0.263214
0.205557
8.83893
3.2386
8.88097
1.06145
0.2617
2.9915
3.5037
0.14378
0.408651
0.260314
0.132635
0.222213
0.156474
1.26853
12.6066
0.446532
1.84164
0.234316
0.952723
0.511887
0.139196
0.383316
7.83463
0.471063
0.505862
0.251528
22.9356
1.45462
0.163143
0.272123
0.158643
0.34562
0.850144
2.10025
0.149296
0.197647
1.36943
0.364481
1.14546
1.48022
1.0111
0.123415
0.125663
1.44635
0.146812
2.19048
0.413097
0.390564
0.515459
0.237492
2.22634
1.76702
0.237444
0.372311
0.294339
0.253825
0.622639
0.151772
0.181931
0.518782
0.90863
0.132412
0.330144
0.489176
0.19345
0.297851
1.20559
3.97805
0.259852
8.14038
3.04134
0.626321
0.531974
0.204575
0.169819
1.97183
0.241988
0.147005
6.99388
0.63664
0.578039
1.37911
0.283545
0.253276
0.202884
0.235283
2.50092
0.249596
2.71689
0.206072
0.312991
0.324487
0.570696
1.20297
0.289932
0.243692
17.3467
12.9661
0.331767
0.369368
0.225693
0.235155
0.373812
0.479583
0.26136
0.145851
0.158154
0.294199
1.37341
0.148106
0.278075
0.184422
7.00353
0.527491
0.166129
0.28377
0.772665
1.84861
0.330359
0.343621
0.313391
0.257985
2.66583
6.19921
0.952629
0.18758
0.445334
0.562477
0.181525
0.204967
0.614627
0.262833
2.04853
0.451479
0.13238
0.261186
1.77951
2.21561
0.190843
2.40892
0.412339
0.148593
0.855776
0.510714
10.7927
0.367631
3.01219
0.385958
0.198818
0.401859
0.0936498
3.74363
1.13104
0.279202
1.84507
11.6589
0.318593
0.204644
3.55943
0.34074
3.51314
1.13264
0.310773
0.216518
2.07693
7.607
0.1797
0.239937
0.16376
6.44283
6.09579
0.0890902
0.468854
0.254452
1.28932
27.1295
0.394574
7.18033
0.215581
1.24702
0.267434
0.376738
0.425934
0.388843
0.173873
0.186721
0.136685
0.237153
0.196039
1.43226
0.139059
0.256043
0.156107
0.233999
0.74592
0.363253
0.465747
2.78195
2.13701
2.74737
0.316672
0.5612
0.257847
0.209485
0.262422
0.230171
1.61262
0.231714
0.458998
0.564871
0.318793
0.231912
1.54986
4.20765
0.17425
8.65906
1.13173
0.332208
4.27749
0.388675
1.58699
0.793987
0.254764
1.9836
0.179392
2.04428
6.44245
0.315327
0.304901
0.456673
0.228895
0.280131
0.303287
2.85135
0.261336
12.7857
0.166358
0.453303
0.385968
0.33497
0.363465
0.180101
0.267474
0.280563
0.209827
0.209273
0.493392
12.2092
0.834382
0.407419
0.272337
0.285396
1.80826
0.314242
0.208314
6.12065
8.65746
0.249692
0.130353
0.572955
0.636823
0.403679
8.47047
30.1065
0.285725
0.197955
22.4929
0.299287
2.13679
0.14099
0.313862
0.348617
0.290944
0.331746
0.241522
15.4677
1.62351
5.22017
0.401984
0.476128
0.226272
0.388681
3.1774
0.281194
0.441062
0.301698
0.290701
0.158781
0.310083
0.271254
0.243094
1.04437
0.451507
0.198168
0.179653
0.366799
0.455088
0.076201
1.52163
0.0996181
10.8654
8.22682
0.301048
2.78315
0.381321
2.62231
2.9798
1.03262
3.34284
0.315627
0.151473
0.220268
10.6701
5.51831
0.707755
0.182681
0.322048
0.869754
1.12884
3.11438
0.387171
0.109138
0.17384
0.970588
0.227804
1.51935
10.3695
4.1969
0.524625
0.290163
0.306296
4.1902
0.663187
0.253266
1.78869
1.83722
7.46691
0.266174
3.64861
0.45462
3.84254
1.84949
0.380678
14.5773
0.267316
0.337725
0.230982
0.293798
1.41574
1.89947
0.206474
0.448968
1.18709
0.267295
0.586428
0.527454
1.21293
0.260333
1.00831
0.247959
0.237753
0.179908
0.353728
0.22786
0.806208
3.79162
1.52778
0.299673
0.46527
0.14255
0.217545
0.331212
0.18841
0.180462
7.38885
0.285555
0.30699
0.176706
0.366305
0.130509
0.223838
0.115293
0.247058
0.25969
1.68522
0.307205
0.244226
0.360271
0.226313
0.184049
0.453357
0.620173
0.364842
0.331202
1.39931
0.116177
8.18781
0.178016
3.92153
0.153856
0.451025
0.166595
0.427532
0.261698
6.52725
0.175772
0.327827
0.183564
2.24675
0.461301
0.124815
2.25506
0.405021
0.195495
0.319729
0.384488
0.175421
3.24028
0.200252
0.21264
0.354033
2.6006
2.66652
0.349808
0.263741
0.315003
0.235325
2.94544
0.389335
0.352018
5.53972
0.233334
0.388739
0.515794
0.307189
5.86951
1.16504
4.21028
0.440415
0.253227
0.171889
1.18925
0.996263
13.8365
0.21013
0.680938
3.93023
0.327305
0.182917
0.19605
11.8447
0.248768
6.93205
0.308313
0.14313
5.33087
0.255189
0.299791
0.530292
3.25701
0.250354
0.153464
1.11903
3.3726
0.166658
0.171066
0.383158
0.267459
1.53299
0.303832
2.40896
0.118282
0.417084
3.42777
5.14309
0.37811
0.409008
1.48876
2.09729
0.16373
0.429385
2.71091
0.144424
0.387932
0.291202
0.137891
0.201717
6.10225
3.76076
3.67907
0.245634
2.95031
2.09897
0.22957
0.367247
0.176951
0.377094
0.407896
1.17773
0.115025
0.126266
4.21998
0.54885
2.00549
0.192333
0.0864541
0.0615534
0.293924
0.288221
0.493429
0.252264
0.529807
0.291058
0.471586
3.34063
0.24578
0.587843
2.18837
5.62184
5.80998
11.5302
0.325087
0.272935
0.219529
1.52604
7.86639
0.365434
0.23902
0.158794
0.232578
0.372124
1.23419
0.261644
0.423524
1.26272
2.8821
0.284945
4.06388
0.863747
0.481989
4.03295
0.223397
5.32149
1.84683
0.278676
0.279038
3.65914
2.12937
0.150098
0.194418
0.179295
0.190327
1.14513
0.129148
7.74569
0.306364
3.76548
4.85715
0.355154
0.444446
0.295657
5.62589
0.281508
19.3717
2.70251
0.277177
3.61689
0.366766
0.503214
1.12535
0.168134
7.27983
0.27227
0.33327
0.330542
0.280532
3.52083
0.67734
0.881689
3.07255
0.202778
1.20814
5.01375
1.16884
0.252475
3.54689
0.242436
0.378568
0.174269
2.01382
13.427
0.6882
0.207237
0.226805
0.0814082
0.38345
2.26337
0.223755
0.201117
0.236039
11.0438
1.36018
0.289057
7.99069
8.58994
0.200445
3.32519
0.290769
0.446719
0.544561
0.297844
0.305545
0.276587
7.83058
0.484287
0.349576
0.182532
3.64111
0.152725
2.395
1.24682
37.1285
0.397919
0.313014
0.258172
0.186214
0.354996
0.244472
0.292161
26.8972
0.372844
0.24135
0.217843
2.43269
0.185669
0.194422
0.176692
0.232939
0.196861
0.461663
1.55283
0.318466
0.359535
0.0971078
0.552985
0.190002
0.462584
3.06069
0.110063
0.441731
0.256489
4.64329
0.284959
0.288058
4.84459
0.177988
0.226314
8.37624
2.258
0.279463
0.154677
0.165575
0.192599
0.707621
0.341228
0.14902
0.29577
2.48865
0.416524
0.161087
4.51832
1.80968
0.251905
17.6756
0.169187
10.2437
4.91912
0.788302
1.29224
0.31876
0.226862
0.155141
0.294541
0.0851041
0.375952
0.207721
1.95573
0.0901714
0.260464
0.983763
0.291781
0.514755
0.614317
0.492916
0.319707
1.06963
0.32323
0.308799
0.324752
0.131392
0.193915
0.26926
2.60297
1.70398
0.184309
0.316564
1.03683
0.140787
0.132706
0.39005
2.16824
0.491614
0.435349
0.558093
0.673473
0.961356
0.291769
2.5009
1.76851
0.0790573
0.21187
0.181343
5.71325
0.254395
0.731466
1.00959
0.243825
0.425401
1.42747
0.221685
0.493374
0.203504
13.2904
0.496366
0.347486
7.66114
2.79935
0.333816
0.318255
4.40838
0.117092
0.286595
0.479905
1.26023
0.217294
0.488158
0.802408
0.501056
2.41322
0.231339
4.9012
0.256596
1.11367
2.10943
0.211504
0.821394
0.184565
1.01119
0.143874
0.432555
0.301853
0.590704
0.159869
0.28852
0.211032
0.157094
0.509584
0.243383
0.227367
0.196808
3.62559
0.24006
4.63913
2.26607
1.6554
0.248807
0.179109
0.130362
1.42032
1.08299
0.413879
0.373616
0.327463
0.204566
3.26853
0.330133
0.30884
0.883916
0.164575
2.69581
3.60786
1.65199
0.252977
0.517531
0.131968
0.246043
0.307426
0.5288
0.193565
0.243177
3.54387
0.301696
0.147321
0.100845
23.604
0.597293
0.396622
0.374825
0.26343
0.172084
0.476997
0.855951
0.262157
0.116886
0.39067
0.539778
1.78686
0.263926
0.201842
0.0854013
0.958129
2.85626
0.504796
0.34091
1.97318
0.302978
0.625837
0.132331
0.261467
0.227087
0.132911
0.541477
8.08869
0.184049
0.439066
15.3194
0.231169
0.212758
6.55522
0.123883
0.352201
0.261287
0.292084
0.439955
0.659129
0.221608
1.86906
0.187625
0.217131
0.488677
0.387112
0.245145
0.202827
0.226112
0.118963
0.300041
0.432037
3.32444
0.163735
0.129239
9.6641
0.95839
0.210231
5.3635
0.154955
0.699342
0.260009
0.392534
1.12548
6.41095
0.473999
0.375264
0.434175
11.8535
0.449305
0.370419
23.4983
0.26854
6.78455
0.504703
0.19222
0.0989893
0.124289
0.326939
0.544805
0.329158
0.232941
0.513273
1.62224
0.46518
0.259555
0.177649
0.254273
0.584341
0.706963
2.21708
0.119189
0.220254
0.31443
0.565215
3.31052
1.34233
3.4426
0.241119
0.100978
10.1003
0.209345
0.2545
0.252596
2.35141
10.6679
0.143761
1.86939
0.494861
0.544542
0.207101
0.133857
0.134654
4.3749
0.465636
0.450033
0.781984
0.446599
3.0226
0.429498
7.28851
5.48076
0.228549
1.36283
0.241573
0.367799
1.47252
2.52346
9.089
1.85704
0.19778
0.399134
0.249435
0.148215
0.666199
0.849607
0.17318
0.11276
0.919629
3.90132
0.323794
0.4514
6.43846
0.202935
1.0054
6.10807
0.393806
0.729934
2.23075
0.265976
0.137041
0.252284
0.409229
2.3511
0.159591
0.383592
14.5186
0.631299
1.38649
3.7749
0.175411
0.613873
8.3657
0.102243
9.65921
0.129477
0.307904
0.185405
0.26914
1.64953
0.451126
1.23213
0.123773
22.0368
0.971228
0.349735
4.40773
0.35726
0.224834
0.225214
0.358741
0.198769
8.70283
0.207941
0.228963
1.96391
0.293383
0.262481
0.381619
0.323249
0.266454
0.60432
0.122492
0.334918
0.575985
1.43174
0.380967
0.331509
0.180957
2.91059
3.74309
0.26731
12.9256
1.97059
0.125061
0.305483
0.568876
0.339168
1.10636
0.92405
0.372539
2.82188
0.802746
0.189236
3.71969
3.31874
2.73635
0.477582
0.340892
0.288698
0.543626
6.82367
0.199716
0.339464
0.508227
2.98159
0.243197
3.33169
0.237366
0.233545
0.0882791
0.290632
0.227474
0.58861
0.40706
1.94995
0.420026
0.192524
0.239841
1.40005
1.43736
8.83868
0.239647
17.4508
1.59294
0.184864
0.109388
1.95472
3.48011
0.12893
0.370317
0.20186
2.24307
0.245811
0.238333
10.5964
0.25166
0.266802
0.357824
0.591904
0.244642
0.430508
0.493325
10.827
9.12817
5.08934
1.69067
0.439655
5.13133
0.176275
0.231422
0.280811
0.20601
0.294867
0.298968
0.333129
0.374804
0.411826
0.154007
0.124426
0.225175
0.093784
0.289749
0.352833
0.249452
3.0623
4.59307
0.242182
0.283415
0.511503
0.241518
0.258397
0.282567
0.199183
0.420727
0.590569
1.92839
13.6869
0.258779
0.306569
0.464154
0.129348
0.193181
0.617652
0.219938
0.36455
0.302066
0.233161
0.210344
1.72989
0.425108
0.273316
0.221718
3.61256
0.312852
0.219094
2.84238
0.135662
2.15566
1.20438
0.422801
0.642932
0.272701
1.16221
1.88288
1.5769
12.4288
0.674383
0.371992
1.26621
0.215268
0.718424
2.61424
0.295117
0.249379
0.506689
6.47244
0.702262
1.50054
0.184787
3.80191
1.02636
0.21122
0.207853
0.28278
1.09335
9.1502
1.39806
1.22625
0.209609
0.279537
0.204299
0.344248
0.777111
3.59323
0.347161
17.6907
0.680333
31.2832
2.87546
0.191034
0.229472
0.180725
0.997256
0.342785
0.240732
0.943125
0.791638
0.343864
0.307966
0.361738
1.05523
3.90292
0.195995
7.12379
2.79525
0.20331
0.443932
0.215533
0.486059
0.153861
0.360255
0.248701
0.19736
4.16557
0.205269
0.135094
0.0758305
2.71973
2.60827
8.36291
0.497822
1.26938
0.37491
1.0305
0.251913
0.998729
22.5858
0.34357
0.104606
1.16349
0.139138
0.202031
0.25813
0.12828
2.87806
1.24399
1.24873
0.380131
0.476644
0.316423
0.480289
0.516688
0.364419
0.349673
1.88206
0.189153
0.245609
2.1282
2.98992
5.75747
0.199499
5.67247
0.404124
0.287998
0.51123
0.258999
0.881127
0.806598
11.2154
4.03586
0.287144
0.141658
7.4521
0.28232
5.38524
1.16223
2.47251
2.46038
0.208413
0.162198
0.0992227
0.483458
0.151618
3.05903
0.199918
9.30213
0.832641
0.170597
0.300033
0.212686
2.62421
1.84822
0.443157
0.278994
0.368326
2.38037
0.15647
0.185609
0.0991975
0.585448
0.38985
0.259194
8.54748
0.0814041
21.7178
0.142616
4.26988
0.119504
1.34639
6.43931
0.233536
3.75043
0.427943
1.66795
0.351606
0.395519
0.212686
0.475487
0.279437
0.205149
0.30787
0.299181
0.2869
0.314685
0.25865
2.58783
0.114618
2.46065
9.2636
0.405536
3.36851
0.228106
0.385233
0.112657
0.337168
0.239583
0.239659
0.170816
0.346928
0.599553
0.158885
0.445168
0.429101
1.04862
3.2849
0.374086
0.437462
0.129132
0.247327
0.480342
0.148992
0.129494
0.260146
0.180937
0.0813772
0.224085
1.10264
0.339055
0.257541
4.01043
0.172156
4.93659
0.801027
1.19079
0.450279
0.27916
2.87907
3.96809
0.428411
0.216164
0.357453
6.45511
0.207132
0.402196
1.40898
0.190072
1.49269
0.155822
7.51387
9.39096
0.227285
5.39106
3.07082
5.89059
2.93296
0.153635
0.138088
0.836463
0.155563
1.298
0.386657
1.96804
0.574384
4.21042
1.23894
8.89661
0.230958
1.52533
0.237031
0.236708
0.47121
0.316645
0.380318
18.3703
0.404263
2.73135
3.77907
0.917269
0.187868
4.33376
0.0750606
0.302954
0.143262
0.289531
0.267299
0.278326
0.392681
1.69516
0.252172
0.164219
0.536448
0.191807
0.156332
3.87286
0.22015
0.365216
0.298976
1.52753
4.74622
0.344041
6.25704
3.01967
0.223621
0.251922
1.09658
1.64382
0.201042
0.328378
0.251128
0.206246
0.389455
0.325933
5.31277
2.69882
5.84959
0.568878
1.61876
0.540905
0.10165
4.39129
14.1958
0.0979959
0.321482
1.60339
1.0735
4.86032
2.86208
2.45485
0.371617
0.749251
0.33269
2.00209
8.71038
0.323362
0.384433
5.41786
2.88013
0.159173
0.23805
31.0378
3.12295
0.906979
0.242819
0.284966
1.03583
0.345897
0.150771
0.163779
9.17237
0.4717
0.851604
0.129837
0.579863
0.333441
0.18053
4.39204
4.05023
6.55769
3.07041
0.40789
0.249387
4.61408
5.49408
0.164444
0.537461
0.231818
3.60211
0.22563
4.64928
0.21996
0.254406
0.131279
0.208728
2.21037
5.68051
2.01953
0.146481
0.246083
0.85915
0.170203
0.202275
0.458493
0.36486
0.319673
0.420262
0.954143
2.42281
2.70819
0.313842
3.78377
0.237807
0.241143
0.213767
0.330243
0.139449
0.154912
0.470081
0.245501
0.260509
0.176515
0.533097
5.61494
3.29953
17.2865
0.228358
0.227285
1.88639
0.340988
0.531094
2.79057
0.547065
2.79559
3.92139
0.167828
0.208247
0.412828
0.120878
2.04069
0.200159
0.819318
2.15628
0.349233
0.146421
0.0953266
3.35043
0.380974
0.299259
2.47691
0.181756
0.174391
0.177033
0.0906232
4.80449
0.26589
0.294302
1.50249
0.222983
0.187386
0.171757
0.271566
2.19738
0.384453
0.140398
0.197257
0.0937304
2.50944
2.14514
0.168861
3.16103
0.306197
1.90818
0.133082
0.378997
0.229827
0.628086
3.84302
0.228394
0.126447
0.25275
7.33665
2.17817
0.238512
0.47956
2.03475
0.330489
0.167016
0.693627
0.451093
0.370287
1.48485
0.240649
5.02647
0.305069
0.186995
0.466798
0.805515
7.73794
0.151362
2.85072
0.778338
3.75054
7.21974
0.248558
3.48893
0.428878
0.265779
0.396893
1.16415
0.168442
1.31142
0.347868
0.16795
17.7932
3.32732
2.23049
1.40752
0.272717
0.319363
11.7924
2.10529
6.17206
0.088546
0.1478
1.87058
0.352057
0.145775
0.374492
1.17164
0.365299
1.94904
0.378489
0.160211
0.15148
2.03368
0.210426
5.99849
0.320037
0.371836
0.216403
0.441483
0.453153
7.60743
11.1653
0.13467
0.160223
0.334334
0.192839
0.272217
0.481073
0.299541
6.02899
0.174455
0.217237
0.313005
0.473417
0.245104
0.101132
0.189614
0.245208
2.25763
0.233616
0.30102
0.348848
1.44546
3.50514
7.91721
1.1306
1.88486
0.302808
4.76391
0.191648
1.61965
0.130015
0.140092
1.24282
0.883583
0.274188
1.40547
7.6394
0.240899
0.905474
8.38665
0.316102
0.210847
0.202766
5.86383
0.13685
0.12835
0.36717
0.19579
0.457269
0.4032
0.275716
0.726335
0.166353
0.196949
0.253764
0.211543
2.60832
0.603418
0.356546
7.94619
0.401602
12.6422
0.13255
1.30724
6.36196
0.327743
0.13993
0.287401
0.343209
0.300423
0.169472
0.27276
0.291429
0.245971
0.385565
5.90822
0.19215
0.420026
0.182407
0.270833
0.637535
0.300036
0.722572
0.196172
0.439626
0.324275
1.07695
0.391079
12.79
0.298908
0.904713
0.261837
0.294664
0.426283
0.392008
0.309676
0.363917
5.40435
0.18416
10.6503
0.131878
1.6289
0.121868
2.38598
2.23974
0.171081
5.08899
0.294925
0.207989
0.181418
0.292628
0.191118
10.0697
0.857419
0.184532
0.591361
0.298854
0.192239
0.57054
0.144587
0.221267
14.8263
0.391064
0.596515
0.209568
0.525491
0.359652
1.05487
0.176571
5.314
0.13041
0.241114
0.2457
0.281383
0.187211
0.235669
1.52415
0.195167
0.173924
5.27219
0.336066
0.287426
0.741433
0.138491
0.696127
0.223291
0.157591
0.193533
0.138835
0.604743
4.09667
0.25034
3.46907
0.160451
0.294833
0.28879
9.54761
0.17028
0.995651
0.285406
5.25613
2.17877
0.252252
0.206652
0.127094
0.301823
8.42948
8.15437
0.398354
0.377731
3.06484
0.229042
0.982664
0.231117
8.47874
0.293328
0.675639
0.111115
1.70251
0.162616
3.34896
1.89548
0.329869
0.166731
2.02385
0.277577
0.185933
0.350241
0.217826
0.257509
0.208783
11.767
0.318966
0.144143
5.94902
0.16296
0.402292
0.0826107
0.194078
0.687717
1.15001
0.332546
1.62232
2.02343
0.433037
0.140295
0.155086
0.196469
0.357902
0.182198
0.250829
16.0647
1.45716
1.03904
0.204276
0.149538
0.405778
0.665122
0.271023
0.26013
3.01919
2.08808
0.157503
0.911835
0.703116
0.196323
0.521116
0.297925
0.60887
0.56665
0.212491
3.96537
0.215128
1.0621
4.64061
0.153089
1.35258
0.516248
0.217242
0.291487
0.108075
1.25467
0.20548
1.47019
4.99799
0.21978
0.204751
0.247864
0.206501
0.334107
0.143454
2.09668
0.400451
1.1995
2.8145
0.462742
0.21862
0.906638
0.338854
3.52715
2.44291
0.988023
0.373831
0.152852
0.330787
0.899235
0.246106
0.258545
7.23924
0.314796
0.217208
0.226296
9.73343
9.74139
0.318256
2.32789
3.18592
0.272025
0.226071
0.156025
0.297431
0.167339
0.298873
1.30785
0.155533
4.01483
0.136271
0.303741
2.03869
3.82461
0.527382
0.0931749
2.33289
0.130391
0.197578
0.252799
0.236196
6.20906
0.279486
0.321874
0.217136
0.696634
1.33064
14.2557
0.332052
0.107809
1.69922
0.235248
2.04788
1.98715
3.52405
16.7894
1.39936
0.311589
0.255185
0.213357
2.23104
3.4073
2.03927
0.0679491
0.353122
0.231946
0.296366
0.456334
0.235495
0.277529
0.294052
0.873043
0.210855
1.05131
8.32173
0.318704
0.30914
0.21244
0.301646
0.456276
0.275214
0.165734
0.253681
0.268843
0.256451
2.84055
0.29019
6.2333
0.25503
0.328206
0.270204
0.275781
0.191291
2.12393
1.47521
0.136829
0.246612
0.237167
0.186945
2.35486
0.816963
0.225472
0.220257
1.10853
0.395084
0.952794
12.1165
0.132613
0.236387
0.302121
0.289026
0.216399
0.182091
0.354294
0.110355
0.177329
0.14051
0.223985
0.409561
0.389573
1.4495
0.765186
0.261609
0.26729
0.143977
0.213967
0.41011
0.304234
14.5566
0.11255
0.243697
1.28933
2.51009
0.216524
0.119797
1.15354
0.141882
2.8704
1.13313
3.7256
0.309861
0.204979
0.588202
0.0813284
0.515913
0.470908
2.47889
0.209257
6.17574
0.236667
2.82685
0.457523
3.13546
0.326215
2.62804
1.72
5.76142
1.7647
0.254848
0.213818
0.177269
0.813723
10.1391
0.223847
0.195212
0.495304
2.07792
1.70387
0.550565
0.420401
0.49322
0.1689
2.45449
0.213941
1.94618
1.34585
0.236424
0.273809
0.141555
0.54153
0.214274
0.471217
0.254628
0.164633
0.35953
4.61651
0.258058
0.685854
0.765523
4.24837
1.48019
8.31915
0.230203
0.238992
2.96606
0.256665
0.317756
0.261878
0.686606
1.38556
0.274195
0.544902
0.382724
6.51329
2.43554
0.305528
0.544129
1.74113
20.2013
0.112008
1.0425
0.476125
3.63423
0.172529
9.62457
5.27909
0.205068
0.220295
0.749119
0.734472
0.138108
0.123192
3.60067
2.7466
4.489
0.277715
1.09805
0.288928
0.682939
0.137019
0.250274
1.44315
0.265913
6.21199
0.267143
0.202049
0.254892
0.258046
1.86825
0.149537
0.489007
0.292576
0.181157
0.52245
0.194277
4.20777
1.41812
1.11839
0.155022
0.252658
2.16537
0.250867
0.259178
0.194952
0.146299
0.346454
2.8291
3.74644
4.70453
0.244212
0.877256
7.14123
0.351367
0.325909
0.323573
4.66505
0.213864
1.24867
0.276625
0.172872
0.165562
2.74235
0.417005
0.193785
0.349881
2.47676
4.60316
0.151626
0.213604
0.228229
0.452072
0.237126
2.5318
0.93033
0.124202
0.044183
0.232797
9.51179
0.123749
3.99197
3.03394
0.0626761
1.32311
0.743611
0.182319
0.509481
0.543836
0.167132
0.23367
0.525099
1.04685
0.222431
0.357053
6.94648
0.185769
0.1994
0.296508
1.64109
0.82238
0.139349
0.228237
1.40997
0.252721
0.156161
0.160903
0.37429
2.41849
1.60241
12.6281
0.167221
0.220524
0.293428
0.254177
0.135342
0.29517
2.91116
0.309071
3.79256
0.275111
1.44022
4.29857
6.98356
1.91296
0.722122
1.21518
2.77838
0.269
1.0489
0.219781
4.95654
0.906291
0.497684
0.257966
2.03721
1.50579
0.709102
0.112419
1.09272
4.61817
0.430041
0.314483
0.448255
0.495161
0.260101
0.305617
0.16951
0.200025
0.273196
1.39433
0.255936
0.107802
0.684612
3.81001
0.301426
27.3727
0.237061
0.310714
0.15498
0.150761
7.04019
0.192542
0.526477
0.151251
0.310707
1.51991
0.352516
1.40656
0.889975
1.8134
0.4336
0.238313
38.0438
0.611558
1.78064
1.94977
0.234202
1.55684
0.232552
0.195984
1.24517
0.196242
0.136441
0.370544
0.158288
0.491622
3.04493
0.278531
0.42089
9.9259
1.44913
0.288771
7.16593
0.464223
1.36878
3.19791
0.214302
0.24387
1.62314
0.548555
1.54284
0.297593
1.9137
0.199891
0.192724
1.12262
1.1131
0.295786
0.157103
0.166358
2.93442
0.217994
0.225835
0.998053
0.391365
0.326735
0.314824
0.159823
0.345623
0.231071
0.293402
0.359111
3.21425
0.197198
1.07362
0.396105
0.605529
1.89687
0.301052
0.404473
0.682333
0.165122
2.42563
0.324412
0.25039
0.306802
0.810614
0.195932
0.17736
0.282437
0.244553
1.08075
0.366088
5.1725
0.808843
0.291506
16.6661
0.31072
0.34523
1.81761
0.34452
0.302553
2.31733
0.823593
5.92108
0.138205
0.218109
1.2933
0.290573
0.251298
0.372596
0.226658
8.89819
0.904046
0.419045
3.82251
6.24031
0.185113
0.193001
0.226626
0.171961
0.223421
0.213031
0.343888
0.290294
4.67097
4.66025
0.430618
0.234196
2.09087
0.211743
0.055991
0.214609
0.181706
3.2296
16.317
2.01169
0.090599
0.196515
0.207312
2.97133
0.474526
0.0991449
3.03189
0.187402
0.210183
0.475456
0.70451
1.99619
5.68972
0.301099
0.188532
0.160347
0.195851
0.338201
0.862541
1.03366
17.9561
2.63041
0.315685
0.129897
0.338721
0.415189
1.2483
9.81433
0.220285
0.151915
8.25981
0.263184
0.70906
0.249433
1.41471
0.257666
0.424991
0.148089
0.159198
2.01054
1.1584
20.5242
0.152627
0.216756
0.236106
0.75543
0.161887
0.246879
0.191252
2.13105
0.465731
0.226483
2.44937
0.236511
0.588972
0.364958
0.226667
7.49877
0.418052
0.318635
0.247947
0.275726
1.52131
0.166148
0.2717
0.406243
8.0946
3.75123
0.299878
0.169328
0.189568
0.30162
1.86593
0.286438
0.956394
14.3639
0.0640629
0.349162
0.217886
0.190638
0.166611
0.434401
0.306367
0.334145
5.87498
0.208031
0.370763
0.22663
0.328904
0.239343
0.223393
22.2873
0.456022
1.14207
0.484919
0.293263
0.404401
28.7317
0.274439
0.211355
0.141059
0.218114
0.255988
0.237257
0.189632
0.550893
0.374107
0.211989
0.296812
1.32947
9.9079
8.22714
0.162756
1.32894
0.228509
0.252618
0.213941
1.75666
0.333733
0.363885
8.90113
0.0665934
1.70151
0.230991
1.40459
0.297086
1.03461
0.264901
0.327996
0.204348
3.47685
8.80931
0.288214
2.27402
0.189447
0.159427
7.14321
0.214996
6.06214
1.13619
0.420437
0.415574
0.453447
0.353435
0.28086
0.166543
5.09205
2.0677
0.267215
0.383144
0.107534
0.357888
4.68523
0.22911
0.171297
0.264311
0.83632
6.82774
30.2981
7.63898
1.73963
0.189927
1.49879
2.35169
0.647321
0.160649
0.226468
0.158276
0.26029
4.231
0.103099
0.207198
4.33252
1.16608
0.471058
0.252716
0.491402
0.405718
19.0567
0.428234
0.193886
0.347102
0.219906
0.380786
6.21476
2.80787
2.02596
0.186415
0.148973
1.1327
0.194542
0.248608
0.280794
2.85267
1.00603
0.214398
0.160748
6.16402
1.87589
0.376207
0.204798
0.271726
2.33198
0.335427
0.969629
7.28972
0.318482
1.61957
1.21286
0.273723
0.471206
0.297574
0.158244
13.0503
1.32776
0.166872
0.213098
0.177541
9.42911
0.293052
0.103377
0.28561
6.25955
0.279372
0.909631
0.422512
1.97605
1.11791
0.105769
0.0845177
0.202565
3.32259
0.330799
0.273418
0.631672
0.601841
0.389775
0.473241
23.6891
0.243191
0.164566
7.12682
0.355195
0.457479
2.07356
0.252878
2.4911
0.314722
0.293924
9.20676
0.307155
0.169451
0.253981
4.36669
0.116933
0.0855768
0.277529
0.404215
0.588602
0.194438
0.693091
3.53045
0.224133
0.40943
0.301521
0.813007
0.340868
1.8541
0.164092
0.164075
0.0920922
1.15283
0.126171
0.37408
5.04721
0.193152
1.1824
2.60247
0.134484
0.289916
0.179723
0.151734
1.12228
3.34013
9.03287
0.147339
2.53627
1.05956
0.291552
0.637402
0.736501
0.232902
0.210123
1.1316
0.491109
0.447183
0.4243
0.311678
0.27898
0.270161
0.352277
0.20473
8.09437
0.665594
0.467811
0.178388
0.324907
0.119803
0.15311
0.328431
0.203358
0.164769
7.74882
0.468845
0.475166
0.25113
0.282464
3.98403
0.198614
0.310709
0.187544
0.317829
0.184791
0.34797
1.26274
0.464659
0.146458
3.04367
0.216262
0.194524
17.8197
0.347474
0.254501
1.27853
3.96671
0.24504
0.173996
0.187948
1.60262
0.143087
0.442483
0.281084
3.79047
0.185246
3.56515
2.66505
0.575042
0.203054
0.305067
2.5734
4.49843
0.436514
0.278949
2.74614
0.285629
0.096021
0.277343
0.271413
1.53864
0.368852
0.347078
0.559016
0.328874
0.791619
1.04019
1.20589
0.227732
0.189072
0.344703
2.27692
0.262247
0.444306
3.82766
0.297964
0.372541
5.14856
0.307388
0.214029
0.415339
0.342271
3.58409
0.275518
1.70986
0.397037
1.72677
5.07112
0.165252
0.255675
5.80927
0.228
0.20763
0.371537
9.13822
0.343764
0.616099
0.287731
0.250186
16.0974
0.175367
3.1984
0.288463
0.354445
0.215481
0.148949
3.15608
0.316126
0.292203
0.166358
0.248518
2.45945
0.311009
0.291972
0.611195
0.208783
3.48822
0.785421
0.290615
0.247222
14.1235
0.182539
0.235
0.441854
0.305794
0.230818
0.125441
0.137851
0.384677
0.455069
0.650123
2.15771
0.377938
11.0677
0.446973
0.296986
0.553796
0.258178
0.272935
2.17281
0.274358
0.331608
0.803138
1.13073
3.57207
0.178418
8.33887
1.30769
0.252146
0.502532
0.191336
0.228273
0.340798
0.129575
14.2874
3.42665
0.280353
0.751235
2.40176
0.205845
0.143798
0.586753
0.370847
1.05414
0.288644
0.414671
2.53068
0.316031
1.6424
0.317193
0.220695
0.211129
0.128401
0.284089
3.24763
0.330788
0.269912
0.275156
0.396654
0.443207
27.6936
0.170074
5.63211
0.263994
0.100343
0.20734
5.38548
0.299349
0.491596
0.354205
0.325536
0.149698
7.20752
8.51321
2.36124
0.261543
0.0753424
0.673695
5.66542
0.228647
0.294571
0.327247
0.185526
0.424471
1.28364
6.28518
2.5109
0.285843
0.251488
0.151051
0.40628
0.245266
0.280147
0.579454
0.113699
4.91066
0.209283
4.11099
4.2135
5.91636
0.188542
1.57019
6.0355
1.39365
0.488605
0.262811
0.353517
0.15894
0.278799
1.28701
18.4282
0.312464
0.101873
5.42708
2.16007
6.23071
0.375523
0.816412
0.44459
0.289133
0.217667
2.70063
0.384561
2.35175
0.176311
0.789268
2.71152
0.733887
0.844153
0.185732
0.325317
0.158057
0.177272
0.49546
0.298776
0.407528
0.394293
0.297774
0.256159
0.313442
0.304322
1.3934
0.586182
0.215681
0.150358
0.214922
0.299879
0.4924
0.17074
0.10176
0.382727
5.41227
0.230827
0.159921
1.86032
0.310441
3.76875
0.49271
0.480595
0.431686
3.09965
0.361288
0.172885
0.201005
0.476585
0.605434
0.315071
0.297685
4.29571
11.097
0.255187
10.9242
0.510318
11.3695
0.413387
1.40813
0.373038
9.94392
0.389431
2.76233
1.76358
11.3039
11.2575
0.636338
8.51048
0.224422
3.4038
0.0817843
5.57333
11.9112
0.300233
1.92906
0.181587
0.241158
0.580868
0.199922
0.480103
0.40783
0.339526
3.55113
0.135253
0.250503
0.285523
0.151364
0.207738
0.469652
0.126937
0.457935
0.311014
0.231708
0.310664
0.323893
0.227773
0.309302
0.266757
0.198165
0.224934
1.17474
0.370475
7.51276
0.396158
0.278161
1.28649
0.241153
0.953921
0.22802
0.502244
0.448969
9.14594
0.19224
0.334212
0.141565
6.97722
7.76887
2.95108
0.896929
0.40256
0.303768
9.15918
0.164281
0.238454
0.118206
0.341462
0.478076
0.127593
0.230631
0.289655
0.193798
0.149887
0.25956
0.0991053
0.487471
3.0718
0.204495
0.370057
0.160973
0.341165
1.0387
0.35238
0.245948
0.249499
0.206711
0.210266
3.68376
1.44457
0.341395
0.190994
0.302394
5.331
6.69934
0.954218
16.7664
0.432826
0.263505
2.76681
1.56919
0.38222
1.90826
0.582193
8.36842
0.39916
3.42581
0.401386
1.41191
0.389948
0.24526
0.292512
34.3301
0.501016
20.6757
0.180822
6.51476
0.235487
0.375525
3.7107
0.260397
0.122706
0.362675
0.434562
0.195816
0.132266
0.279923
0.285448
5.69133
0.475898
0.363574
0.457429
0.310642
0.211335
0.197525
0.344664
0.449098
2.40309
0.212534
0.203077
2.11834
0.45949
0.200713
0.271889
0.361978
1.13619
4.33853
0.496577
0.410586
0.917536
0.242752
0.457814
4.01691
0.188185
0.385566
0.185779
0.929039
0.197302
0.208765
0.366832
2.10286
0.494888
0.528049
0.300371
0.23725
0.307343
0.401452
0.155839
0.817664
0.50023
0.357916
0.290545
13.0776
3.7674
0.233227
0.759913
1.67264
0.648167
25.3773
1.4125
2.60065
0.378542
0.936911
0.18945
1.81872
0.494883
0.769614
3.83334
2.24085
1.33325
0.197416
0.165375
4.85456
2.15541
0.22092
0.265724
0.214566
18.7037
0.56346
10.0573
1.00943
0.239931
0.290518
6.48101
0.933347
0.177827
1.85003
9.08114
0.142354
0.591246
2.35617
0.353377
0.18711
0.13241
0.277468
9.19291
0.21296
0.214421
0.223181
0.340221
0.267678
0.171849
0.23567
0.244119
0.368338
0.309079
6.53344
0.621436
0.436583
5.4409
2.94644
0.966284
0.11962
0.149006
1.55573
0.219384
0.695549
0.402794
0.118163
0.742879
0.272928
2.77408
0.262766
0.287825
1.57107
0.144775
0.240564
0.539864
5.32316
0.167511
0.232631
0.18658
0.282083
0.493167
0.348179
0.107375
0.177858
0.273582
0.496716
0.776985
0.372145
0.205583
2.58495
13.2143
2.68147
0.371083
0.152336
0.2229
0.223958
1.82441
0.302398
0.189445
0.345605
1.56863
0.322947
0.169991
2.45663
2.90524
0.254483
0.205823
1.7327
0.766721
0.161459
1.44748
0.309814
2.90702
0.163531
0.299753
4.23903
2.61099
0.0629469
0.40103
2.25292
1.45053
0.435224
0.239208
0.994326
0.344077
0.872367
0.676427
0.406666
0.542261
0.269901
0.260108
4.50396
0.314025
0.766363
0.266069
11.7726
1.08913
3.91432
0.347847
2.2274
12.723
2.61119
0.166621
0.374656
0.248444
0.284052
0.593811
0.102652
2.10838
0.255898
0.34831
0.173527
2.36034
0.358247
3.65122
1.31507
0.393588
0.317797
0.165638
0.178249
0.262456
0.192614
0.106175
0.378952
6.79259
0.206999
0.257231
0.254976
3.71218
6.74139
0.796907
2.98376
0.203176
0.39757
0.192022
2.67236
0.660147
0.350087
0.368232
1.06092
1.12204
0.234082
2.14012
12.418
0.319201
0.338133
0.319484
0.326036
0.263637
0.219232
0.213464
0.218051
0.183619
0.279415
7.45487
0.179966
0.212829
0.406008
0.295129
6.54744
0.270136
13.4461
0.981142
2.3578
0.351292
0.444972
13.4056
2.22513
18.6832
1.03436
0.141539
0.356904
0.194825
5.37574
1.07849
0.201305
0.523624
0.488713
0.529873
0.162536
0.210373
0.175246
10.5947
4.43581
0.442123
0.424714
0.327815
1.76943
0.3436
0.237125
0.110824
1.42624
1.97493
0.235135
0.332288
3.63079
3.02124
0.885786
6.03294
0.692325
2.07692
0.727682
4.40695
8.57843
0.840707
0.265389
0.164482
3.36347
0.9455
0.287436
4.7725
5.1963
1.17927
0.306256
0.561708
0.391106
1.65885
0.541065
0.259997
0.755524
1.40954
0.788126
1.29104
0.181147
0.19472
0.231375
0.180349
0.196621
0.599626
0.379254
0.961819
3.66306
0.659351
0.286232
1.35074
0.290874
0.340836
0.366667
0.348961
0.428742
0.260298
4.48961
0.317818
0.102038
3.25101
0.185106
0.205572
0.317343
0.240985
3.45052
0.204828
0.375289
1.67716
0.390625
0.175005
0.14927
0.547551
0.208959
0.414284
2.24787
0.961664
2.56708
16.4626
2.78853
0.527631
8.76384
0.106149
0.217483
0.192957
0.182542
0.36845
0.298702
0.841971
8.85293
0.472018
0.388424
0.444347
0.248101
5.63866
5.02195
0.39117
0.0819043
6.77344
0.196687
0.3695
0.352449
0.284205
0.31664
0.252371
0.478238
0.534773
0.246273
0.397496
0.198208
0.185531
0.337336
0.456248
0.500015
0.798304
0.995961
1.86176
0.323531
23.5587
0.430539
1.58633
0.266279
0.192259
1.90706
26.7825
0.240254
0.394962
2.38031
0.22937
0.285968
0.231955
2.5119
0.84962
7.14448
0.119023
0.265256
0.810828
0.614117
0.142094
0.291223
0.34749
17.6106
2.71774
0.971941
0.378388
0.419223
4.84051
0.268528
0.524685
0.0417248
0.142087
0.0873771
0.583686
0.455892
0.262966
0.979174
1.52734
0.368044
0.447046
0.167469
2.01814
0.333895
6.36867
0.963366
0.311401
0.182848
0.278518
0.39414
10.1731
0.269891
0.163732
0.271505
0.24566
0.226986
0.41271
0.246117
1.57946
0.119996
3.35432
0.123898
0.508464
0.364443
0.332205
0.188741
1.96862
0.135535
1.9036
0.428081
0.17169
0.265762
0.689218
0.311505
0.506267
1.99663
1.13903
22.9107
1.3706
0.358997
3.74993
0.182078
7.31627
0.201856
0.366464
2.38488
13.3002
0.297237
6.95237
3.38084
4.83543
5.97109
11.515
2.1353
4.14629
0.507147
0.411074
0.382333
0.348623
0.437205
0.357126
0.708287
0.388271
0.309702
0.351377
0.229229
0.364568
4.81301
2.71722
0.20889
0.501722
1.42217
0.877558
0.30697
2.09856
0.505165
1.59488
0.292964
14.8154
0.349507
0.230543
6.33199
0.491964
1.89217
0.272596
0.235498
9.0023
1.02143
0.357287
46.7692
0.180903
2.57853
0.105051
0.143964
0.122856
0.230283
0.361454
0.275191
2.12732
0.291148
7.85224
0.292062
0.347939
1.36594
0.168893
27.1088
11.7663
0.248523
2.97277
0.323731
1.22783
0.384738
0.147703
0.342315
3.75067
2.98262
1.43143
0.23425
6.96676
0.283073
3.12014
1.39257
0.269108
0.265923
1.60998
0.212274
3.20593
0.507601
1.28338
0.328443
0.652362
0.375481
0.508332
6.44004
11.0875
0.692168
0.358298
0.231434
0.108921
1.64799
10.2616
6.14489
0.328269
0.114446
0.302485
3.3299
14.0756
0.172211
0.83122
0.160158
0.362029
10.0378
0.211152
0.221284
0.510567
1.3892
0.0828287
0.193214
0.191709
0.252915
0.797167
0.188598
0.159096
1.68344
0.184653
0.485002
0.385353
9.1383
0.859473
0.148674
0.136773
1.17887
1.35835
0.683921
0.233264
2.6006
0.299902
0.368065
0.420099
3.67466
3.18366
0.944232
0.286475
0.130928
0.819262
2.81019
0.215308
0.226109
1.50799
0.476543
0.314154
0.448308
7.93866
0.136956
0.365906
0.220412
0.267557
0.290213
9.50092
0.38427
0.55753
2.7404
0.1483
0.173804
0.313706
0.39196
0.130263
0.391842
1.06725
0.70793
0.28293
0.297231
0.296876
3.36133
0.465514
0.206746
0.759313
5.74403
3.29628
0.316846
0.757645
0.318755
0.639616
1.54349
0.154102
4.49423
0.413731
6.31007
7.11921
0.207138
0.176842
0.818565
0.478727
0.259306
0.963432
1.53665
3.49556
1.90548
3.9047
0.183402
3.9739
0.23882
0.231156
0.324203
0.255194
0.145431
0.309865
0.174937
8.18368
0.392315
0.439162
2.807
0.425364
1.12615
12.0719
1.36691
0.430304
0.308269
4.55516
0.896145
0.327211
0.183831
1.66862
0.639636
0.204092
0.300028
2.16628
0.382153
0.661042
0.129476
0.182063
0.235593
4.26441
12.1287
0.306091
0.234931
0.354613
0.241472
1.95376
0.220181
0.283154
1.09434
14.5366
0.716966
0.65916
0.516389
1.61822
0.463308
0.210182
0.21022
0.244287
0.1816
0.141489
0.489804
0.489362
0.358413
4.74055
0.182096
0.511113
0.34502
7.62324
0.208935
1.63382
0.187562
0.345666
0.46665
0.16978
0.216298
2.35722
0.882776
0.270866
0.79159
0.223204
0.515085
0.332321
10.2137
0.189488
1.41355
2.45885
0.194891
1.16832
1.51015
0.138271
0.246708
7.17218
0.586418
0.251794
0.142816
0.285217
0.25382
0.925307
0.268978
0.22754
0.134042
0.118547
0.357006
0.271406
0.363442
0.480308
0.416028
0.260625
4.19216
0.205176
2.50536
2.72379
0.258305
0.269335
0.828312
0.263283
0.313485
0.164347
1.4286
0.338321
0.255325
0.157599
1.11493
0.359161
0.268733
0.285553
0.183835
0.394405
0.458498
10.6825
0.649614
0.347046
0.225633
0.161034
0.119155
0.28134
0.21083
0.908945
0.419793
4.17018
0.186164
0.296975
0.331859
0.3604
2.37422
0.243901
0.190381
0.954767
0.792367
1.96881
0.246629
0.242627
0.39153
0.188274
0.149433
0.726938
0.195016
0.274779
4.36728
0.234318
0.195582
1.30839
0.318497
1.34241
0.214832
0.39359
5.70793
0.291688
0.249151
3.02707
0.293951
0.121788
0.283683
0.416703
1.63775
2.02301
0.41778
1.9981
0.231918
0.299118
0.376445
4.03919
0.40026
1.05731
1.72198
2.04855
4.75514
0.74067
0.131489
0.336467
0.365983
0.114688
0.263639
0.351819
0.208609
0.128953
0.160077
0.2122
1.14162
0.210677
0.153203
0.170165
0.573319
0.996194
0.234183
12.783
0.936363
0.443808
6.61721
0.516949
3.61194
1.90525
0.300191
0.151606
0.184369
0.175459
0.345114
0.372335
4.18171
0.439292
0.161972
0.152428
1.10331
2.40061
2.51009
0.28561
0.264
0.258272
0.282115
2.97596
0.442885
0.295759
0.180384
0.153829
0.412806
1.05491
10.7969
0.34034
0.35164
0.21133
0.247923
0.302016
0.238216
6.15086
0.333805
0.128999
1.07442
0.147467
0.237667
1.41307
0.23677
0.234964
0.353043
1.7118
0.287393
0.334296
0.527469
0.22605
0.119196
12.1194
0.34093
0.294297
0.155535
0.369092
0.599969
0.362231
0.347272
0.316023
0.23953
4.03648
4.00745
1.32199
6.08657
0.282424
5.26684
7.98209
0.333776
0.284414
0.405345
0.780066
3.44864
2.03434
0.490059
1.29012
0.181855
0.517387
0.11274
0.210611
0.141149
5.88159
1.71255
0.301774
0.281349
1.23867
0.839229
0.267011
25.7725
8.11662
0.252909
3.54566
1.24395
0.315398
0.252543
0.435847
0.397753
9.09913
0.284552
0.261184
5.76393
0.209425
0.892167
1.05978
3.24381
0.22507
0.173053
3.35321
0.328864
0.173039
0.17082
0.811767
0.252217
0.356652
1.0875
5.40114
0.304631
0.19363
7.7574
3.71935
0.569542
0.120548
0.0922646
0.345763
7.38209
0.164598
0.527049
0.200653
1.91902
0.878856
0.20388
0.273821
0.44126
0.312719
2.41582
0.270068
0.144363
0.325312
0.475231
0.424324
0.271602
3.51845
0.944856
1.40091
0.218415
1.17572
13.7171
0.216741
0.604603
0.213758
0.512072
0.310026
1.09902
0.529147
0.323281
14.9336
0.183816
0.281348
0.574401
0.261116
0.145769
0.4066
21.4407
0.966628
0.35118
3.64784
5.43852
0.293582
0.294953
2.01918
0.217527
0.426785
0.47252
0.143938
0.312693
0.187833
11.6618
0.41741
7.48933
2.45985
0.291942
1.03755
0.230828
3.3975
0.276737
0.120073
0.424884
1.26151
1.59856
0.369992
0.36964
0.135299
0.391847
1.22806
0.184017
2.14865
0.411054
0.221577
13.4078
2.11512
0.830833
0.307238
0.519466
0.263383
0.604732
5.86441
2.05999
0.2851
0.17565
0.32107
0.245049
1.36856
17.387
22.1757
0.387249
0.333354
2.39419
0.803416
1.11481
0.16722
0.534026
0.496031
1.18304
0.965755
0.531659
0.351156
0.396842
1.47221
0.316523
0.34651
0.450271
0.911072
1.43537
0.48522
0.216053
0.204567
5.15413
2.73097
0.343561
0.44697
2.14494
0.24763
7.67873
0.114396
0.221207
0.379844
0.233273
0.258226
14.6363
0.675463
10.206
0.195834
0.241286
0.249397
0.378335
0.143712
4.74338
0.202946
0.142673
0.41147
0.24059
0.174248
0.127888
0.340604
0.264343
0.51136
2.1225
2.15994
0.203138
5.51203
6.41218
0.0854581
2.07801
0.551153
0.163291
0.200777
0.330029
0.130771
2.49756
0.306824
0.216452
0.197379
0.069601
0.316136
0.144337
6.08412
0.294631
24.512
0.427266
0.559465
0.379942
1.69345
0.187471
0.289886
0.178325
0.474169
0.754488
0.236067
0.201379
0.307997
0.389082
2.59658
0.407862
0.10996
5.02899
0.231598
1.23208
0.192741
1.66813
0.434149
0.193397
8.37389
4.08483
0.293159
0.300475
9.54189
0.221458
0.207345
2.1728
8.91191
0.407692
0.16337
0.509609
0.285752
0.224431
0.82831
0.112667
0.365375
0.215466
0.159657
0.280597
5.16035
0.556075
0.299527
6.20293
0.875434
0.257755
2.45398
0.257121
0.551779
0.386016
0.254488
0.980335
0.229945
0.0923741
0.35636
0.819614
1.68994
0.311626
0.428624
3.75356
0.304756
0.132357
2.46386
0.250972
0.295094
0.333339
0.175918
0.278873
4.02743
0.461635
0.183519
0.203751
0.240227
0.954671
0.736464
0.277637
10.0531
0.136559
0.394124
0.386496
2.29948
7.29359
0.151404
39.1302
3.14472
0.699133
21.2291
0.120497
0.314494
0.172114
3.95941
10.8814
0.334522
0.417955
0.274078
2.51077
0.597921
0.226297
3.16583
2.115
0.561138
0.340967
0.260574
1.37798
0.892305
0.224201
1.01345
0.112301
2.93002
0.490506
0.541009
0.358358
0.261916
0.166046
0.474322
0.384522
0.255846
0.128086
0.196048
0.436293
0.342785
0.622727
0.200242
0.256165
1.82298
2.05002
2.24347
6.90751
2.99947
0.354396
3.18322
0.303217
0.225738
0.291188
0.29121
0.341136
3.45803
0.102178
0.181508
2.19408
10.1708
0.215005
0.515535
2.57764
0.266518
0.341746
0.548858
0.215158
0.220138
2.05585
0.21298
0.25217
0.493338
3.16428
0.279773
0.906672
0.2196
0.346578
9.8822
0.316813
1.18048
1.96456
0.0846414
1.73473
0.256295
2.02546
0.505694
0.502355
0.963223
0.176787
3.74445
3.43808
0.106488
0.545457
5.78889
0.296927
0.200887
3.1711
0.271795
0.634622
0.343896
0.196159
0.207958
8.15354
0.26775
0.488659
0.178631
0.260752
0.851131
7.04689
0.183893
0.316492
0.289399
2.60533
0.537773
0.255244
0.379648
0.78473
2.97959
0.293457
0.395153
0.0992686
0.153074
4.72843
0.735241
0.3061
0.343321
0.219412
0.251682
0.210859
0.234536
0.284758
3.76157
0.485622
0.279916
1.4033
0.279285
0.916584
0.352631
1.18878
1.97774
0.159407
1.86797
2.45862
5.77535
0.252614
0.412357
5.03904
0.410205
0.248797
1.55415
13.4134
6.78343
7.64631
0.160081
0.160872
0.277899
0.205927
0.478992
2.50056
12.1395
0.289218
1.43481
0.324652
0.268554
0.315622
0.106218
0.135306
4.4408
1.32514
0.138611
0.248589
0.23959
0.16228
0.887149
1.96764
0.158978
0.310769
4.94928
0.219942
8.18446
0.268296
0.910353
0.220717
0.2537
0.964304
0.444473
0.328289
3.80001
0.575471
12.2778
0.167687
0.255194
1.68421
0.113269
0.346524
0.267364
0.335948
0.387012
0.36613
0.331384
0.409677
0.341144
0.191635
1.55215
0.159902
13.1496
0.274683
1.85607
0.184545
0.270278
1.11405
1.28803
0.312855
3.59708
0.130964
0.353198
0.246197
0.24946
2.35694
3.15774
0.167643
0.306309
0.520264
7.05021
0.344079
0.316078
0.311332
0.199121
0.223894
0.35802
0.343777
0.294847
0.214422
0.142138
0.353011
6.46174
0.163341
0.375933
0.713026
0.271477
0.263406
0.246622
0.174214
0.24589
0.272038
0.18089
1.32403
0.226607
0.330889
0.326415
0.220606
0.314838
0.407468
2.88706
0.148218
2.92957
0.104708
1.57254
6.5999
0.425747
0.380415
0.252687
0.287524
0.247753
15.9939
0.219787
0.296807
0.160024
6.29535
0.356116
1.5797
0.624162
0.699469
0.147161
0.426457
0.46625
1.66485
0.185499
0.17422
0.11942
0.227879
2.00389
0.216357
0.259556
0.184337
0.317367
0.53511
0.262935
0.33415
0.210315
1.86313
0.25912
0.403438
1.69056
0.48055
14.7867
0.516901
0.409425
0.293049
0.602188
2.50345
10.0366
0.340844
0.228327
0.379152
0.304807
0.240022
0.422259
0.247552
0.745375
0.560195
0.157293
0.689244
1.15753
0.463814
0.263517
0.165375
5.49968
0.22759
0.307312
0.131789
0.156432
0.408563
0.13056
0.242225
1.28471
0.258829
0.429151
0.266537
0.28367
0.236291
0.199211
0.195384
0.338017
0.715506
0.251462
11.8264
0.123718
0.155623
0.325733
0.280431
4.25364
0.243439
1.12376
0.364191
4.65346
0.120857
0.295796
3.09017
0.111753
3.97386
0.221577
0.331241
0.157583
0.237312
3.52948
0.490887
0.434881
0.241203
0.189951
0.367506
6.57025
0.348474
2.23246
0.457695
0.201372
6.60434
1.21042
1.10181
0.282791
0.364429
3.05124
0.302763
1.01523
1.08221
0.240084
0.201319
6.48567
17.6059
0.345463
2.40647
19.1911
1.13857
0.264311
0.256984
0.236356
0.211476
0.57574
0.371796
1.35263
0.275218
0.259497
2.70336
0.177227
5.18749
10.6795
0.48151
0.50047
0.329952
8.55384
3.77568
0.445036
7.04343
0.650039
0.132032
0.589801
0.354315
16.2894
7.50174
0.305993
0.526047
0.157865
0.307711
0.321767
0.210281
0.439819
0.440782
0.0771986
0.296214
0.218365
0.252565
2.02241
8.07099
3.05597
1.14169
0.288754
1.45317
1.01634
0.411711
0.412956
0.348749
1.82707
0.613015
0.705336
1.49549
0.572837
0.342139
0.556311
0.192598
0.311302
0.27789
0.413799
0.234109
0.186711
0.431937
9.8569
0.249785
0.185796
2.44655
0.360779
0.125088
7.92058
0.219303
0.0664338
0.59733
5.45188
2.37427
2.83353
0.161124
0.221049
0.234825
0.346597
5.99
2.95991
5.17062
0.37292
0.0602972
2.36668
0.4881
0.38364
31.5459
0.710442
17.6591
0.354642
0.226579
0.42998
0.190001
0.320418
0.13206
0.280715
0.247094
0.356015
0.331738
0.229506
14.2615
0.193753
0.17827
0.103696
0.354069
4.72567
2.70025
0.186046
0.299215
0.486013
0.225421
0.358255
0.229482
0.204685
6.45096
0.744224
0.297726
0.44395
1.45143
0.853937
0.472299
1.20663
0.284532
0.15431
5.07368
0.385958
11.8759
2.11309
0.35996
3.8868
6.74695
0.523937
0.285633
0.916853
6.17511
1.66305
0.175981
0.711457
0.324231
0.347104
1.1335
0.17229
0.947335
0.35944
2.83696
0.43465
0.299577
0.442625
0.318677
7.51874
0.224366
1.01235
9.59486
0.883854
0.409221
0.261385
0.402201
0.360583
1.23878
0.224448
1.09144
0.266893
0.390124
0.249383
0.212516
0.407751
1.14612
0.681537
0.542609
0.300664
0.313721
0.469251
0.322577
0.190044
0.265876
0.259461
0.354765
0.352392
0.183278
0.310575
0.364502
0.212855
0.257094
0.182053
0.350919
2.35598
0.293246
1.99841
0.447186
1.9862
2.40823
1.07241
0.540186
0.196053
0.680393
0.278533
0.87694
0.195131
0.418117
0.426983
1.38819
0.126164
0.266254
0.207356
0.22382
0.511187
0.237261
0.352522
0.410937
0.203262
0.180394
0.439099
0.308077
0.385996
11.3526
0.338603
0.246595
0.370166
0.233439
0.156014
0.28153
3.23738
0.340489
0.649466
0.379912
0.34637
0.276645
0.163737
0.2816
0.345335
1.08091
2.14594
0.198739
2.06118
0.271036
0.202007
0.189285
1.15702
0.335765
0.177399
0.225952
2.36891
0.284166
0.230998
0.310161
0.20487
0.388276
0.244232
0.215017
2.18796
0.962342
0.568048
0.516701
0.239674
0.258532
0.172271
0.111612
0.540652
0.304669
0.413353
1.88118
2.67771
0.318714
0.577931
0.296881
0.392539
8.759
3.99512
4.62714
0.314301
0.224651
0.288223
0.190446
1.13039
0.222243
0.550312
0.170313
0.229106
0.455641
0.22655
0.448716
0.800405
0.318876
0.215596
2.30813
0.108182
6.02632
1.79365
0.407767
0.187477
0.662959
0.223549
1.67174
0.212445
0.356344
0.256661
0.372731
0.648349
0.451076
0.440923
10.5238
18.1348
0.260544
11.4071
0.46028
1.39081
0.975805
0.186757
0.304279
5.49737
0.296293
0.273658
0.189684
0.127054
0.196302
3.28251
2.17848
0.543595
1.62752
0.243649
10.0725
0.305653
0.946364
0.287784
0.417866
2.21511
0.285527
4.6216
0.603638
0.300469
0.210816
0.691852
0.271896
0.14135
0.162929
0.329605
0.140699
1.47102
3.7004
0.450083
0.329947
17.5109
0.202533
1.46486
1.94778
1.46598
1.24145
7.83522
0.218048
0.993995
0.782466
29.2474
0.257066
0.270231
2.25228
4.79874
0.303326
0.213582
0.16316
0.641459
0.377363
1.78558
0.474651
1.15358
2.93751
1.61321
10.1382
0.532862
0.13752
0.264097
0.0647839
8.74926
0.154345
0.25334
0.414591
2.07857
1.36392
6.08848
0.276088
0.301992
3.59609
0.414833
0.430871
2.20956
0.227143
0.339135
0.200198
5.83338
0.458622
0.434417
3.22266
10.1452
14.3282
0.187397
0.178268
0.347107
0.398228
0.245772
0.283449
5.98467
1.80555
0.130152
0.804161
0.317502
0.275609
3.47126
0.184447
0.272088
0.111311
0.443974
11.7749
0.592329
3.66742
0.208654
0.249948
1.42627
0.436262
3.43252
11.5737
0.261459
0.158418
0.216464
11.1146
0.674128
0.231531
2.99802
0.571519
1.00462
1.36235
2.63104
0.407209
0.416725
0.559224
0.270863
0.985833
2.53581
0.212809
0.224366
1.90226
0.175043
0.857943
11.9
0.298713
0.213639
0.232981
0.406305
0.580603
3.24286
5.15512
0.0869002
0.297547
0.163588
0.20234
0.435663
0.33273
0.152388
0.370148
0.139365
1.62582
1.88365
0.151961
1.48963
0.281904
3.07921
0.180496
0.387741
0.226299
1.88156
2.36777
0.251859
3.53515
0.318758
0.219176
0.160917
0.460868
0.231976
0.371217
0.153821
0.359185
2.6798
0.619706
1.00732
0.215961
1.04265
0.256171
3.2775
0.206631
0.118927
0.164043
0.214644
0.612299
6.30529
0.924534
0.643269
0.290485
0.281559
4.16358
2.30939
0.990634
0.180828
0.428083
0.218238
0.29314
1.51373
4.82944
0.316712
0.243662
0.308068
0.242593
1.46984
1.9603
5.92466
0.220544
11.2296
0.404128
6.69883
0.179438
0.318097
0.325494
0.205838
20.2716
0.629562
1.23762
0.422777
0.342596
0.185398
0.294099
0.378292
0.906028
0.321143
1.99375
0.280122
0.129509
0.344111
0.338366
0.112599
0.43212
0.115862
0.285174
0.11769
0.186763
4.3711
0.275464
0.958456
1.95323
0.236228
0.153861
17.1947
0.291779
0.191753
0.265191
0.285948
0.193354
0.273488
0.329032
0.293161
0.266648
0.370879
0.615166
0.36998
0.436418
3.17829
5.19988
0.252346
3.67972
1.24351
0.201607
0.274922
0.149221
0.267645
0.362903
0.280651
0.209474
0.114685
0.101614
0.471095
0.286063
0.217236
0.292593
0.159064
0.752478
0.393915
0.373412
0.182489
3.6827
0.257717
3.18566
0.765203
0.201101
0.95665
0.323663
3.15884
0.981879
0.116372
0.21409
0.269013
3.28055
0.224207
0.0996743
0.125892
0.167596
1.40502
0.21382
0.128823
0.328643
0.298028
0.383918
1.11257
0.207631
0.224934
0.164802
2.27451
0.258975
0.212918
0.244986
0.21789
0.150008
0.232765
1.2982
0.25336
0.625983
0.361925
0.366461
6.97349
0.285144
0.120414
0.305143
1.34945
2.12707
0.180079
7.97661
0.39211
0.697612
0.141678
0.168148
0.221986
2.37317
2.77005
0.486917
0.28903
0.881567
32.0198
0.591814
0.210932
0.145492
0.2659
0.219582
6.38941
0.382033
0.124873
0.509509
1.25305
0.286867
0.630797
0.348822
0.707437
0.227517
7.33892
0.147522
0.44222
0.276514
0.27184
0.293335
0.245002
0.578552
0.136775
9.34101
7.28276
3.48803
0.316366
0.215808
1.09726
0.343982
1.72241
0.360683
0.414729
0.263458
0.119575
0.282713
0.374177
0.256058
4.20435
6.6015
0.462082
4.46897
0.332503
4.96746
0.499685
2.1581
0.255122
4.02171
0.21508
5.78291
0.237566
0.325283
4.62797
12.3191
0.300696
0.518407
0.188178
0.268963
0.309301
1.33029
0.260581
0.307216
0.289056
0.496319
0.237012
0.211325
14.732
0.121451
0.26475
0.244707
0.295005
3.26926
0.320894
0.154289
2.91629
5.8457
0.166577
0.439834
0.132119
0.180872
3.87969
0.265344
0.467279
0.35144
0.14132
1.43188
0.293329
6.03673
0.230663
6.13183
1.14195
0.48458
0.137849
0.161062
6.43577
0.599
4.20405
3.79
0.230656
0.161371
5.50739
1.52982
11.7516
0.2413
0.362892
1.02469
0.184409
0.342571
0.233298
0.513615
10.5528
0.284819
3.47542
0.2221
1.37787
0.232402
0.322075
0.365621
0.282606
0.299913
0.54356
0.22365
0.287359
0.0954393
3.03374
1.49262
0.199149
0.205557
1.21017
1.41795
0.168989
1.49078
0.444356
1.33088
0.21279
1.41392
0.254431
0.339209
2.56058
0.266165
2.46756
0.303031
0.258167
7.48392
1.54685
1.86614
19.4912
0.411822
0.264361
0.380169
0.210061
0.294741
0.537764
0.451406
0.485886
4.41505
0.3732
0.295265
0.679377
0.15646
0.402614
0.0641537
0.53368
11.7763
7.96098
0.359254
1.89986
27.1228
3.08292
2.87716
0.25736
0.663067
0.279356
0.202783
1.36357
0.33544
1.44991
1.43793
0.158992
3.0042
0.530475
0.21377
0.169577
0.391075
0.56198
1.04008
0.256346
0.312053
1.61493
0.352497
0.265319
0.510914
0.586527
0.145675
0.228483
2.56254
0.283787
0.235739
0.205937
5.86763
0.287084
0.325456
0.155344
9.33478
0.436127
9.76465
0.549617
0.3181
0.269063
0.598791
0.269095
0.242326
0.297505
0.27123
0.172204
3.89819
7.54844
0.269653
0.172792
1.68151
2.54414
0.450264
8.7193
0.150885
0.146023
0.294027
0.21217
1.25439
0.344309
0.306256
1.95076
0.535795
0.714445
0.302508
0.220905
0.185253
0.11079
0.867264
0.302154
0.17948
0.186015
0.310653
0.80114
0.247065
0.309259
0.10885
2.029
0.353384
0.289146
0.21566
0.129528
0.350147
4.90009
0.345503
0.265925
0.396268
0.27477
0.190947
0.625653
5.23116
0.187353
0.220108
3.14193
0.585153
0.886507
2.07132
0.737961
0.162523
0.163119
5.69365
0.371575
0.260686
0.348495
0.231093
3.74286
0.277906
0.248391
0.223268
1.19377
0.2627
0.232846
0.416717
0.688309
0.223107
0.222281
0.29361
0.351521
0.415824
0.248728
0.28165
0.299404
11.2897
8.91153
16.0576
0.243477
1.41782
0.433919
0.156108
0.657125
0.397959
0.318833
0.298004
0.286401
4.51007
0.224369
0.584395
0.192368
6.66107
0.124275
0.217207
0.299896
0.156552
0.250705
0.385718
1.7597
0.396487
0.277356
0.433352
8.62691
1.79975
15.447
0.743036
0.894596
0.220048
0.226064
0.977982
0.204073
1.09683
9.51359
0.172092
2.80004
0.345419
1.00621
0.433734
0.146972
0.399753
1.97384
0.451736
0.172095
0.333477
0.201008
2.61409
0.491205
0.340936
0.249608
0.119259
0.264899
0.311348
0.354193
0.284497
0.45772
0.975276
0.232778
1.38486
0.387839
0.190433
0.298701
1.7755
0.286628
0.85413
2.05307
0.276808
0.559006
0.43823
0.151371
0.278893
5.5036
0.317634
4.10538
9.22313
0.256784
0.394016
0.168949
0.227513
0.323293
0.967844
0.234452
0.246431
0.309018
1.64856
0.215532
0.364897
0.180645
0.229792
0.863234
0.357264
0.303008
2.80908
0.870491
1.28636
0.243316
0.185307
8.27575
0.157037
0.18212
0.124606
0.151371
0.247143
0.160974
0.120483
0.249903
0.539985
0.722422
0.143255
0.522335
0.23501
0.902209
2.69952
0.153957
1.27548
0.260079
8.83841
2.35091
0.216302
0.0544092
0.10606
0.177361
0.264025
9.27267
2.12297
0.127185
1.23884
0.32802
0.324466
0.174949
0.234419
0.54779
0.217567
0.136603
1.49117
0.126415
0.189318
0.167962
0.175607
0.527488
0.939199
0.444674
0.582068
0.583938
10.1795
0.125639
8.71491
0.191631
0.234004
0.481378
0.377395
0.139408
7.66366
0.300175
0.676772
0.918766
28.7262
0.233358
0.080757
0.331896
0.442421
0.425157
0.957056
0.133847
0.35753
0.240159
0.333651
0.445738
0.209713
0.459068
0.230558
0.30462
14.2816
0.148604
0.120372
1.23191
0.644242
0.208082
5.19806
0.120044
0.362749
0.342679
1.62649
0.20296
0.208244
0.142966
0.460042
0.303181
0.22571
0.228511
2.48189
0.217913
0.217881
0.275287
2.93597
7.67677
0.155351
0.700051
0.19527
0.527123
0.164442
0.139007
0.30029
0.178386
0.149219
0.276828
0.264379
14.3503
1.05151
0.210468
0.407422
0.0547772
0.372934
0.426021
0.483426
1.14651
2.31257
0.230319
0.41421
2.6856
0.629168
3.93582
0.331927
0.129927
4.00319
4.08756
0.478341
4.69009
0.150808
3.2949
0.154467
2.49615
0.261453
0.199037
0.280434
3.53045
1.65142
0.274059
2.84163
0.113352
0.383531
0.505562
0.276417
0.245188
0.103693
0.306042
0.244619
0.431121
0.312838
3.35128
0.253922
0.368428
0.392683
0.199534
2.71643
0.261981
0.880294
6.96021
0.869234
4.13284
0.241165
0.434828
0.245156
1.83921
0.220661
0.214855
0.185407
0.343832
1.02898
0.242493
0.196133
0.209735
0.432896
0.220565
0.0807571
2.50888
8.81397
0.324031
0.104867
8.68293
0.729025
0.193173
0.22064
0.359925
0.116443
0.321748
0.605543
1.09983
1.07698
0.593952
0.123016
4.71589
0.193566
0.66542
7.92693
0.243741
0.227976
0.214703
0.275669
0.939392
0.863356
0.361902
0.218018
0.252333
3.96098
5.69536
0.456938
0.218682
0.147832
0.43771
0.108049
23.7314
0.294325
0.38419
0.226327
0.296187
0.103592
0.183336
6.6317
8.51963
0.247341
0.113452
2.04749
1.98815
9.83114
0.426349
0.908236
0.262895
0.148905
4.28314
1.57397
4.804
0.152966
8.94218
2.34252
0.255926
0.443845
0.37023
4.22887
1.77473
0.318271
0.291061
0.581507
0.153955
8.2381
0.253504
0.169017
0.226913
0.321029
0.153308
0.174111
2.01377
0.812513
0.941345
0.383726
0.499355
4.04021
0.258865
0.278447
0.274373
0.24938
0.440591
0.428209
0.555223
0.149005
5.7568
2.10922
0.234572
0.173476
0.154415
0.135259
0.324839
11.4795
0.210425
0.127608
2.35899
0.249541
0.504776
1.89956
1.03279
0.353561
5.85455
0.342863
0.130815
0.237146
0.225592
0.20718
0.363162
0.371316
0.351756
0.211871
0.140708
0.242304
0.212351
0.228888
0.459785
1.01828
0.195727
0.233232
2.74456
0.268591
0.226516
1.58103
0.182077
0.123888
0.217452
0.275952
0.22623
0.347254
0.326972
1.27929
0.344117
0.217771
5.50596
1.51944
0.315369
0.319434
0.159993
0.124528
0.181195
0.270901
0.249387
0.238637
0.15518
0.200745
0.26462
11.9491
0.186538
9.86259
0.30212
0.275144
2.53752
5.00977
0.403199
0.8513
0.155877
0.384931
0.746503
0.413249
0.111973
0.199878
0.410494
5.9709
0.470744
0.357444
1.79026
0.22995
0.376782
2.80499
1.18581
0.756419
0.244659
2.31503
0.133984
1.58288
0.774451
0.167014
15.8104
3.89216
0.297851
3.35589
0.399575
2.38861
1.65717
8.95009
1.12145
2.55991
0.208135
2.63523
0.570091
2.11005
0.221011
0.820826
7.96622
0.384527
0.16995
1.54882
0.2517
0.880866
2.28012
0.344514
1.1769
0.291596
17.1106
10.7057
4.42058
0.33632
3.69908
0.406759
7.27885
12.0255
0.864402
0.301079
0.196957
1.5647
0.18086
3.88308
0.345833
0.308208
2.33523
0.376789
0.161718
2.36389
0.394786
2.33063
0.4454
0.348755
0.467508
3.209
4.08913
3.75138
0.775759
4.868
2.48173
0.140134
0.206218
6.79902
1.64115
0.272037
0.248369
1.48371
0.3096
0.434085
5.57458
1.82601
0.484658
0.218605
0.133971
1.6973
0.193665
0.988631
0.679037
0.226867
0.176426
0.464568
0.183927
0.407917
0.149608
0.34112
2.10256
0.360557
0.169285
1.26384
0.424735
2.79495
0.260859
0.55637
2.1945
0.138377
0.499822
18.915
4.56518
0.281391
0.183917
2.82861
4.02517
0.330704
0.316237
0.302992
1.65614
3.21218
0.241693
0.141859
0.31694
0.133175
6.69531
0.236044
0.133003
1.43107
0.319448
0.166603
2.08767
0.140994
5.43514
0.292332
0.288887
1.61749
0.292143
0.202602
0.414149
0.376513
4.00594
0.610778
0.797831
8.41317
0.408663
0.43621
1.78778
0.305747
0.762968
2.36176
0.345106
6.59791
1.59004
0.976514
0.211169
6.02761
1.69891
2.9593
3.71106
0.199537
0.670289
3.90886
7.71083
0.968621
0.263824
0.248424
3.2359
0.145684
0.325705
2.75132
0.106595
0.118927
9.0543
0.230803
0.178971
0.962596
0.499319
0.732346
0.27219
1.34768
3.06866
2.19966
0.382982
4.21907
2.00145
4.6848
0.344996
0.176056
1.00882
1.61544
0.26709
0.256332
0.292718
0.134922
0.527118
0.214538
0.246251
3.09716
1.8745
2.38094
0.0865261
0.317004
0.288745
1.35501
0.281395
0.196428
0.256606
0.199708
0.159598
0.552561
0.366671
3.6956
0.857408
0.324845
0.21512
4.35746
0.539955
0.233529
0.387687
0.166
0.180675
0.207591
0.135357
0.320948
1.60898
0.260113
0.387006
0.391643
0.299092
1.62669
0.197958
0.371609
0.273923
6.65923
0.126451
1.35479
0.141338
0.202348
0.285541
2.47454
0.875524
4.51788
0.282404
1.84641
0.235514
0.301276
0.344892
0.317295
0.219156
0.72904
1.59418
0.449846
0.233843
0.221003
0.200313
0.213678
0.250907
2.56344
0.109605
0.155463
1.94673
0.644339
0.264897
0.234481
0.153785
0.850188
0.524788
5.15754
14.8103
0.799464
8.08393
0.357976
0.155495
0.199554
1.58205
0.153134
9.85467
0.451085
0.496808
0.270244
6.13478
0.876128
5.56043
3.85467
0.16543
3.60071
0.330549
9.48821
0.67791
4.461
0.327975
0.467788
0.172989
2.43516
1.64623
0.180215
0.218142
0.403185
0.457571
0.385452
0.40766
0.288632
0.715461
0.490424
0.134845
0.105201
0.624995
0.333465
0.274847
0.182385
4.03454
1.00067
0.257529
0.172912
0.593425
0.434357
7.02486
0.138728
0.341923
0.305599
0.319042
0.219469
0.31666
8.57139
0.192873
0.124086
0.133374
0.116951
0.24339
21.2661
3.37043
0.275088
0.294951
0.879563
0.230551
1.70989
0.150494
0.310572
1.44715
0.723717
0.205694
3.38381
0.25622
0.444804
0.298736
0.472042
2.79432
0.362882
10.162
6.87473
0.139647
5.09885
1.69894
3.51409
0.344468
0.225164
0.196822
1.52487
0.55785
0.104748
0.998677
0.224088
4.75252
0.239935
7.96123
0.963098
0.452301
0.238888
3.29937
0.261913
0.388831
0.28325
19.932
0.14152
2.96454
0.512194
0.325749
0.321669
0.174569
0.286338
0.372547
0.148441
0.402317
0.277848
0.267746
0.262292
0.438064
3.59021
0.424629
0.275641
0.496844
0.441472
0.267107
0.253032
0.195245
0.225012
0.251276
0.138841
0.108621
0.149002
0.198756
0.222929
0.353955
3.04702
0.474926
2.13637
1.65825
3.51632
2.29342
0.174637
0.361614
14.3315
0.184681
6.02386
2.07582
6.78784
11.1458
0.596745
1.15334
0.193167
2.03524
0.310281
0.212418
1.15247
1.24153
4.93211
0.343616
0.181366
4.71809
0.301645
0.395978
0.209098
0.59592
0.244509
0.207688
0.30939
0.254228
0.283886
0.254188
0.648964
2.31433
11.4572
0.0978367
0.148843
0.268698
0.15455
0.438047
0.100312
0.529311
0.382303
1.4425
0.16085
0.242158
0.295039
4.26167
0.476016
0.304491
0.277854
0.178697
1.54286
1.43475
0.237518
0.139154
0.844271
0.14541
0.907948
0.410436
0.315146
0.565388
0.263675
0.315377
0.137702
0.370353
0.178583
0.149759
1.94047
6.1391
5.54798
15.521
2.06807
14.0306
0.290583
0.283478
0.118076
3.6616
0.172291
1.84723
0.282993
0.935482
0.386749
2.91856
2.52275
1.84529
0.299627
0.446361
0.131172
0.33327
6.99578
0.801123
0.245465
5.10395
3.59889
1.01812
0.264382
0.282509
1.42903
3.63039
3.67553
0.322819
0.224203
2.84301
0.214752
0.260895
5.84121
27.5184
1.66759
3.30549
8.606
0.130121
0.432426
0.326866
0.184772
0.382941
0.215358
0.294338
0.205437
0.293457
0.185064
0.976419
0.283548
0.483879
0.448791
1.76393
0.283038
2.87688
0.363679
5.96998
3.64083
0.529661
0.141563
0.327088
0.252775
0.487603
0.235181
1.55814
0.18804
2.56041
9.18283
0.326167
0.438042
0.461461
0.245284
0.395519
0.206143
11.5202
0.937874
0.386595
0.405164
0.226685
0.615487
0.34068
3.71275
1.25424
0.255815
0.355887
9.48817
0.215495
0.59665
0.659195
0.424157
0.678868
0.429986
0.664648
10.2012
0.214179
0.59059
3.37744
0.219076
0.801336
0.13651
0.558513
0.187727
0.731877
0.700147
0.215663
0.349152
0.26266
0.311418
0.311705
0.274036
0.924593
0.362874
0.580713
0.552224
0.364977
0.213274
1.66062
0.276457
0.320368
0.248148
0.343201
0.434949
4.316
0.257475
0.257678
0.220308
0.217189
0.258148
0.23697
0.223565
0.425944
2.87012
1.57781
0.249798
10.5871
2.92165
3.612
8.94816
11.4872
0.140213
6.18732
0.479068
2.63336
0.267358
0.149187
0.624083
5.27698
0.778947
0.261579
13.0229
0.310307
0.197252
0.163167
0.227323
0.34226
0.255259
0.499496
0.492346
0.840689
0.183793
5.00293
0.332696
1.80555
0.348587
0.604303
0.21229
0.698057
0.251375
0.15186
0.214744
0.289273
5.94661
4.10801
0.867819
0.312326
0.774217
0.208077
3.19355
7.48013
1.72909
3.36063
0.554285
0.0832705
0.348231
0.176943
0.377652
0.853368
0.388649
0.512261
6.81624
0.234902
0.249909
0.43722
1.03037
7.93147
0.190256
0.100645
6.49184
0.348697
0.0921567
0.382514
0.189947
0.28018
4.18368
0.205281
0.199224
0.204395
0.245815
0.491496
0.124916
1.86232
0.510363
3.18267
0.13892
0.322893
0.523321
0.150277
4.73531
0.476567
9.25406
0.957079
9.17255
0.520044
2.81546
0.328579
0.243482
0.272457
1.07735
3.70371
0.23388
12.0458
0.0897751
0.310459
0.631862
0.476271
0.302167
2.50431
0.155693
0.127437
0.306828
2.18658
3.22507
0.323084
0.217288
2.05928
0.175083
6.01561
0.197744
0.164782
0.323505
0.137344
0.193762
1.29265
0.102099
3.51481
0.288675
0.402273
0.248967
0.264531
1.76911
0.317365
11.0398
4.88119
1.38718
1.18622
2.76946
0.297621
0.192449
0.724886
16.9912
0.135285
0.137835
2.31007
0.40294
0.211398
6.84275
0.210728
0.218411
0.19282
0.0888232
9.22418
8.70407
0.177046
0.427737
0.273804
0.25814
0.455984
0.254762
1.43398
4.02023
0.610283
0.274295
0.341863
0.214027
3.68935
0.2688
0.236828
9.36281
0.587743
0.374933
0.226197
0.314374
0.133328
0.179213
0.234163
0.291533
0.130895
0.280055
0.290995
0.242392
0.227778
5.78349
0.445297
1.65648
4.43157
0.472359
1.68561
0.338091
0.21022
8.64745
0.307342
0.582729
0.290287
0.373111
0.378239
0.168776
0.340567
0.254365
0.805389
0.240843
5.26789
0.254593
0.260384
0.194502
3.67719
0.254202
0.580148
2.86734
0.336144
13.0386
0.293747
0.208695
0.550996
0.289147
3.72834
0.237903
0.551146
0.712133
0.195578
0.390497
0.523332
0.220368
16.5154
0.138837
0.165728
0.561559
0.282527
1.63294
0.250177
0.267238
0.1422
1.2255
0.100902
0.448904
0.292519
1.65119
0.221754
0.265147
0.189223
0.140838
0.561752
5.49336
0.195825
0.28364
0.330443
0.165445
0.483
0.195994
3.03909
0.263574
1.46249
0.288361
0.21889
1.2168
0.25034
6.02263
0.142626
6.66456
0.495164
0.253328
0.37473
0.238369
4.67794
2.23252
0.32706
1.15595
0.184279
2.80691
1.88095
0.352268
0.176062
5.82896
0.297302
1.05768
1.18988
0.153379
0.239599
0.415557
14.7294
0.374259
0.305664
0.33075
1.44607
4.92943
0.182095
0.182673
18.6438
0.350657
0.50149
0.273022
0.270372
0.164776
0.938508
0.304568
3.04459
0.138628
0.304567
0.160916
2.99217
0.363636
5.12574
0.182295
1.11674
0.249296
8.54126
28.6538
0.17799
0.305396
17.8044
0.496047
0.293411
3.35419
0.267325
0.158031
0.377779
0.21361
0.194603
0.301487
5.84977
6.0378
10.0587
1.28758
0.203613
0.330038
1.04813
1.52118
0.151009
0.160091
2.20628
0.220144
10.3197
0.159376
4.16096
0.205969
0.152488
0.218358
0.265468
0.381048
1.40757
4.53725
0.276857
0.232501
0.245586
0.162915
0.283409
0.204501
2.37082
0.24463
0.308458
0.975831
1.83587
0.368467
0.231181
0.182254
0.132724
8.61842
5.06848
0.476953
3.51117
3.24125
0.923609
4.41205
0.104317
0.217066
0.136032
0.26487
0.279994
0.146425
0.20766
0.243481
0.741722
0.378766
0.154205
0.276973
0.225226
1.03979
1.10709
0.224373
0.253246
0.141002
0.19831
0.306599
0.264673
1.13473
0.429307
0.15995
0.469178
0.148044
0.1472
0.357848
0.259437
0.239062
0.21758
0.139031
0.174544
0.0921222
0.947961
4.98385
9.84402
15.0769
0.745889
0.221347
0.223098
1.26983
0.250973
0.661153
0.205287
0.246066
0.2557
0.318672
3.41605
0.982848
0.216948
0.638173
0.264847
0.17351
1.10345
0.5114
0.167391
17.1043
0.36451
2.36465
0.476985
0.287128
0.147969
0.217999
0.15611
0.208449
0.306213
0.36344
0.225452
0.688478
3.38986
0.226528
0.319709
0.377279
13.1028
0.23055
0.222871
0.192754
0.19793
7.52998
8.96566
0.467181
2.76331
0.217702
0.624006
0.189172
0.318314
0.284736
0.195312
6.20854
1.43537
0.431549
0.270384
1.32808
4.66626
3.83004
5.59446
0.390112
2.11802
0.335094
2.42033
0.204657
0.568807
0.876523
0.282751
4.3323
0.390499
3.36497
16.9911
1.44671
1.96104
3.21762
0.270008
0.696641
0.195395
3.88405
0.196614
1.00761
0.226033
0.127115
0.267159
1.17573
0.252783
0.39526
6.14523
0.274953
3.853
0.226895
0.113479
0.322326
3.08112
1.31801
0.36477
6.30189
0.24438
28.0117
0.628062
0.260311
0.192455
0.217801
0.357361
1.71007
8.62213
0.152978
0.270281
0.145636
0.112146
1.13042
0.585908
0.211515
3.05984
0.343625
4.2893
0.384848
0.717003
3.16016
0.521605
0.347855
0.125481
0.407662
0.33896
0.346613
0.155271
0.297372
0.392259
0.334829
0.409658
1.77802
0.208181
0.249826
4.75733
1.02441
1.09936
0.195528
0.179686
8.98963
3.04054
2.59282
0.154952
4.18777
1.08751
4.15591
0.406925
8.91117
18.5555
0.184702
0.301839
0.326581
0.595954
0.643372
0.239602
5.77104
0.196767
0.2365
0.330735
0.362221
0.148555
13.9236
0.146893
0.272642
0.28244
0.281048
0.146593
1.56333
0.140531
2.33995
0.0983476
0.421622
5.99399
0.211006
0.400432
0.257549
0.216694
0.288901
0.103008
0.289943
4.22005
3.57079
0.318293
0.198739
0.369842
0.232169
0.146241
1.25485
0.0921395
0.250266
0.223911
0.219631
0.137509
0.222718
3.4604
1.03955
0.154672
0.341141
0.247025
1.55531
0.582113
6.83761
0.193908
12.2791
0.228783
1.30214
0.328446
12.606
0.434835
0.396517
1.09655
0.696679
0.199409
0.217309
0.885009
18.8474
0.219914
0.194577
0.195307
0.141735
0.0753782
0.116979
1.52702
0.302119
0.322773
0.983299
0.612207
0.35763
7.49789
2.50508
0.276053
0.238638
0.215761
0.421695
0.170304
2.49072
0.152043
0.590148
0.243664
1.89371
1.64127
1.27214
0.650364
0.440414
0.403197
7.38275
0.336091
0.232459
0.504234
1.18268
0.247709
0.414513
0.359173
0.351704
6.32246
0.202026
5.9297
0.256124
0.230158
0.235568
2.2371
0.249957
1.25848
0.340837
0.233954
0.174748
1.17753
1.79511
11.5391
0.233026
1.46421
4.26557
0.407262
0.270025
0.226461
0.211709
11.1088
0.154704
0.806576
0.120119
0.290067
0.199372
0.328009
17.5305
0.26485
2.60918
0.670964
0.177759
0.475947
0.194419
0.2022
5.61409
0.236063
0.687729
0.292472
0.34209
0.355561
1.22739
0.126594
0.219203
0.18096
3.63497
1.36614
0.169454
0.118151
1.24834
0.270447
0.294445
0.297429
0.180364
0.912784
0.506848
0.353593
0.278817
1.55164
0.252222
0.313323
0.315317
0.208206
0.184806
0.389184
0.301247
1.4247
0.426374
13.3999
14.3614
0.341441
0.160611
0.769269
12.3493
11.5225
2.36459
0.353402
0.300149
0.345239
0.275191
0.139121
19.7435
0.154908
0.147775
2.84267
0.463028
0.295466
0.140815
5.80516
13.2376
0.726607
0.297093
0.183818
0.754434
0.14922
0.126031
0.240031
0.173743
0.0989875
0.470845
0.321651
4.24633
0.309418
0.17143
4.59914
0.800563
0.762235
0.384513
0.178367
0.316403
0.363683
3.22224
0.181295
0.31702
0.158945
3.98169
3.92272
1.41785
0.267532
0.665892
2.16962
3.51771
1.73883
3.16874
0.348063
2.08778
0.30566
0.434884
0.143225
0.244773
0.244383
3.10764
0.178081
0.181257
0.237146
9.06255
0.140494
2.87138
0.813132
8.24863
0.190008
3.36617
0.280739
0.943698
0.499912
0.205516
0.198518
0.295404
4.42565
0.363683
3.7559
0.145551
0.974459
1.92557
7.57744
0.378398
9.41378
0.456374
0.190765
21.0273
2.92605
2.87671
0.303993
0.20437
0.118984
1.73906
0.184738
1.90336
0.403991
1.29251
0.16507
0.737553
0.379831
0.264359
0.280844
0.189961
4.40012
0.298421
0.326575
1.01122
2.77936
4.63413
16.7823
4.27599
1.83823
0.15745
0.28453
1.15416
0.151594
1.51528
0.217457
0.204459
0.316858
21.0842
0.329102
8.56128
0.297381
1.39243
1.36047
0.0984572
4.8925
0.100072
0.155823
6.20506
0.262692
0.446402
0.366646
0.373713
0.225711
3.55732
1.05304
0.285137
0.257167
0.342533
2.62063
16.2452
0.175166
1.16666
6.73204
12.4535
0.202532
0.692012
1.83153
0.149603
0.311347
0.201479
0.265298
0.241853
0.205456
0.226211
0.310395
1.56191
0.370922
3.74193
2.07067
0.525084
0.22421
0.37641
0.171873
3.76751
0.751065
0.248947
1.61318
0.210554
2.05888
0.217575
0.214215
0.565717
0.25803
0.330109
0.206727
0.173188
0.435308
1.47189
4.39917
6.72968
0.244242
1.69146
0.281626
10.683
0.332855
1.85225
8.45541
0.32582
0.193694
0.238273
0.1509
0.389663
0.235032
0.287027
0.489152
0.243511
0.455456
0.146218
0.415304
0.292222
0.432197
2.65187
0.190908
1.85309
2.06755
0.187259
0.188955
0.250402
1.84051
0.53327
1.10359
0.177262
0.27074
0.452057
0.347625
0.186465
0.713515
0.299876
0.199212
0.614994
0.289446
0.687169
0.745751
0.280165
0.406024
0.205639
0.450957
0.152535
0.302234
1.00317
0.207723
0.250141
2.04429
0.605546
1.83412
0.374221
0.283248
0.276813
0.244942
0.137649
0.127118
2.36334
0.36101
1.87859
0.187405
0.265446
0.969323
35.5284
5.54563
0.18028
0.226103
0.758212
0.158553
0.607337
0.233932
0.142078
7.87523
0.428937
2.09843
0.339093
0.227778
1.23227
3.22729
0.739197
0.52351
0.240872
0.270259
0.358266
0.360278
1.07896
0.574437
0.380211
7.17501
0.502025
0.481097
1.65117
0.358013
2.39082
0.195943
4.04673
0.416826
0.646884
0.210072
3.57864
6.71416
0.30494
0.159701
0.31346
0.262174
2.41711
0.346055
0.228088
0.161148
0.158787
0.342881
1.01808
0.377041
0.196156
0.196751
0.15365
0.249022
0.168562
1.83332
0.169581
0.306367
2.2277
0.192688
2.03543
0.914215
0.259524
0.162196
13.578
7.25701
0.971361
0.143769
1.73203
2.07327
2.3752
0.101178
1.4524
1.64781
0.270882
0.953084
1.16482
0.692534
3.42586
1.68619
0.220051
0.187988
0.252057
0.39229
6.6624
0.230561
0.210875
14.1079
0.422605
0.416492
0.719102
6.2966
0.619833
0.293443
3.02558
0.18105
1.40816
4.7122
0.776419
0.33131
0.227832
0.861835
0.195175
0.251805
0.23675
0.223922
1.22235
0.325148
0.204248
0.400457
0.547756
0.428573
1.33249
0.0925506
2.84825
2.73882
2.96808
0.411363
1.79169
0.314309
0.827037
0.215446
0.441133
0.367256
1.04712
7.90328
0.293642
3.473
0.1136
1.58237
0.6179
1.04757
0.193515
0.337134
0.247082
2.53098
1.34644
0.174669
0.813601
0.315966
0.269443
0.227995
15.5538
1.81296
0.122339
0.219432
6.92567
0.355846
4.33297
1.35842
2.20024
6.49218
2.55876
0.886882
0.22002
5.55607
14.1645
0.314847
0.153862
1.87963
0.158832
3.15627
1.97229
0.1913
2.39562
2.56164
0.331978
0.207226
0.267026
0.189092
0.337444
0.204877
1.26861
0.308236
0.212424
0.543833
0.272106
0.182968
0.463689
0.20043
2.6948
0.370493
0.651914
0.277327
0.273491
0.322024
0.6777
0.32809
0.244608
0.805734
2.48933
0.361884
6.69988
0.952471
0.477127
0.775164
0.408072
1.2448
0.25688
0.338079
1.23144
2.2477
0.298807
0.348316
1.81239
3.53426
0.113629
0.209696
0.804318
0.20992
0.294369
3.98388
2.23542
0.365256
0.657848
0.957656
0.68954
0.170367
2.78216
5.56748
0.232195
4.48364
0.325962
0.618045
1.62321
2.00108
1.11262
0.258566
0.13803
0.273607
0.281204
2.01605
29.8227
1.32411
5.52161
0.386062
0.150079
0.14184
0.369613
2.83817
0.272841
0.209187
0.285869
0.261379
4.28852
0.379004
0.36828
3.65568
1.15764
0.447518
1.04568
0.684684
0.339038
0.314919
0.266081
0.385255
0.189769
0.147167
0.175683
0.351628
0.122357
0.210687
0.289978
2.89516
0.480363
0.30797
3.14952
0.322837
0.31397
0.250648
0.229057
0.314343
8.27357
0.131906
0.284807
0.120377
1.37285
1.61651
0.316264
0.286758
0.155701
0.244804
0.833758
0.74062
0.489012
0.244085
2.73773
0.920173
2.39258
1.44271
1.05278
12.0316
0.157623
0.473174
0.143875
0.13007
0.235176
0.243664
0.688564
0.394495
1.13305
0.742431
2.05962
2.49869
9.4884
0.786092
1.10592
1.431
0.369105
0.317547
0.220765
0.71933
0.277776
0.180706
0.261711
1.04944
1.07088
1.08904
4.02131
0.175406
0.284117
0.347069
5.36237
0.220956
1.92964
0.258158
0.376815
0.147416
0.945078
5.0735
9.10477
0.391205
10.6139
2.56319
0.212117
3.1373
3.30843
2.12561
0.2692
0.255316
38.1571
10.9393
1.16781
0.51393
0.180678
0.333245
0.511624
0.108733
4.45143
1.00252
1.15071
1.7849
0.168134
0.124393
3.53314
1.2687
0.183895
0.651087
0.272757
3.18902
0.300094
0.190235
0.447472
0.357339
0.154902
0.572301
0.357536
0.491644
3.33394
0.306047
24.0082
0.176702
0.297078
0.197804
0.374509
1.03749
0.352056
2.61193
0.345014
9.91107
0.229111
0.598882
0.150397
0.223959
0.380807
0.149065
0.190814
0.0843145
0.30971
0.186238
1.67862
5.32089
0.334727
0.224881
0.28096
0.146122
4.3465
1.46738
0.350335
0.161054
21.3292
0.160543
0.386296
1.30722
0.437188
5.70615
10.3998
0.259754
0.17122
1.60578
0.26847
0.303717
0.161948
0.161485
5.33288
10.0219
0.162681
0.310678
0.874475
2.47029
0.235636
0.243118
0.153849
0.234507
0.593841
6.56176
1.8106
0.226657
2.54393
0.20666
0.198366
18.314
0.737166
0.0895079
0.139612
0.204658
0.325869
13.7183
1.35388
0.178503
0.182203
0.226183
0.330112
0.658412
2.98334
0.234836
0.4091
5.66372
34.6682
0.565544
4.35696
0.873919
0.367191
3.1789
0.262135
0.473317
1.42613
0.302648
6.90275
1.00412
0.509199
0.367364
0.369137
3.47195
4.00959
0.540111
0.916186
0.217961
0.156648
0.231728
18.1356
0.321953
0.224564
0.217538
1.7467
0.643973
0.126975
0.130714
0.455534
0.120382
0.216277
0.483167
0.283791
0.255804
0.235595
1.01367
0.130378
3.62849
0.227441
1.40819
3.81224
0.233786
22.2468
0.321321
6.01323
0.328465
0.37712
0.163291
0.230103
0.211244
0.286319
9.46027
0.475106
0.174332
0.274774
1.52014
0.158928
0.300086
0.557692
0.606064
3.36324
0.285289
0.437187
0.517608
0.301611
0.170657
1.67152
0.255669
12.5593
3.36616
0.193884
1.10381
0.251745
0.180594
0.27561
0.180899
0.346467
2.03237
2.9962
0.37486
0.179935
0.355565
0.310711
19.9392
0.408947
0.259525
0.255143
0.311721
0.390541
2.4801
0.417793
1.0398
0.232611
7.11679
0.502225
0.292378
0.303467
1.86759
0.454588
0.203253
0.222906
0.82461
0.500122
3.69595
0.475121
0.701029
0.423034
0.245061
0.22239
0.203157
0.404314
0.441853
0.43015
0.181674
0.314552
0.151963
0.13431
0.224364
0.291584
7.61753
0.261419
3.04052
0.387137
0.230805
6.20454
2.24049
2.38065
5.27999
0.300184
0.183643
0.184193
0.135205
0.147593
3.32336
0.187421
0.252174
1.26169
0.255564
1.09533
10.4711
0.29109
0.394814
0.285654
0.335057
0.180734
2.2352
5.13408
0.24848
7.0071
0.743042
5.94804
0.226074
0.129432
3.2567
1.19106
0.217298
0.151264
0.233704
0.168414
1.78628
0.328163
0.508323
1.87015
0.491832
24.2701
0.168079
0.218951
0.225868
0.253869
1.49584
2.59628
2.89647
0.171052
0.373089
6.76395
0.555374
0.284291
0.208834
0.140714
0.0998398
0.212939
0.249996
0.675417
0.473499
0.233488
0.221087
0.819246
13.0833
9.24925
0.145407
0.2748
0.153816
0.231751
1.29628
0.182107
1.24644
3.62092
3.62353
0.145084
0.367192
0.138976
0.269355
1.12546
0.247908
0.549821
0.4439
0.157134
0.1702
0.18771
1.97857
0.69357
0.132584
0.462381
0.448676
0.275993
0.356782
0.278211
2.25291
0.683918
0.199615
0.20688
0.320615
0.636255
0.174815
7.02785
0.617156
0.333661
0.461954
0.273855
0.294062
0.392615
0.20098
0.877335
0.331298
0.195707
0.175006
0.590168
0.280537
0.409149
0.460713
0.241841
0.76187
52.537
0.274818
1.26728
0.207828
0.25361
0.221564
0.223827
0.368128
0.272953
3.95376
2.97602
0.677797
0.322316
0.25596
2.46092
4.03407
0.17256
0.265448
0.274648
0.380988
0.265036
7.22013
2.75894
0.215112
0.233015
0.41027
0.310626
1.66581
1.83126
0.179337
0.600118
0.163004
6.67944
0.991872
12.8209
2.11314
0.63146
1.25495
0.308269
1.14054
0.925387
0.38165
1.79802
0.316897
2.9149
0.235662
1.97366
0.156906
2.84139
0.274428
0.423005
0.592036
0.198183
2.03066
5.11622
19.4231
0.224379
0.136316
0.447669
0.290702
0.201701
0.343641
0.340748
7.49411
12.4331
0.195043
0.234947
2.81446
7.76659
0.194905
0.515548
0.244427
3.90961
0.243525
2.11421
0.285706
0.548817
0.393398
2.00962
0.179103
0.306088
0.144746
0.264005
0.266636
0.205102
4.68682
0.438177
0.250675
0.365409
0.656946
4.30444
0.366269
0.451636
0.293156
7.40286
5.35483
0.392951
0.305816
0.613418
0.285434
0.755388
1.88694
1.18222
0.201461
18.8801
0.272206
5.87799
3.31501
1.10372
0.359615
4.19966
0.218519
27.7154
2.24661
0.434913
0.155443
0.335055
3.76847
0.196581
0.229285
0.44275
0.687028
0.506209
2.88418
14.833
6.55236
0.186762
0.366248
0.415696
0.159852
0.160265
2.50467
0.251634
0.251724
0.204711
1.62537
0.300313
0.124674
0.195234
0.171717
0.193103
0.244146
1.71179
0.380412
0.402686
0.20406
3.63069
0.820311
0.56228
0.20207
3.71239
0.417385
0.30421
0.210981
17.7302
0.401524
0.338096
0.391854
1.03974
0.647416
0.255939
2.20283
0.4406
0.541294
0.494614
0.266608
0.200377
0.225926
9.87559
0.304355
0.192103
12.1449
1.47293
1.02869
0.433442
1.63393
0.26192
0.564524
0.524631
0.496367
0.186408
0.218462
0.243805
1.6365
0.17742
0.172135
0.176637
6.83767
1.70443
0.28927
1.04139
0.260156
0.330214
2.10084
0.620531
0.195376
0.14898
0.254426
2.36787
0.603418
0.222127
0.180497
10.9693
0.197403
3.87048
0.607094
0.880567
0.356035
0.201456
0.314547
7.61148
0.762567
0.310907
1.62868
0.24099
0.237953
0.209377
0.1799
0.136565
3.9805
2.55882
0.113065
0.160563
0.357603
0.167456
0.205135
3.70422
0.223396
2.75683
0.290679
5.13346
0.318649
0.149039
4.00483
9.67114
0.269612
0.269325
0.649214
0.380154
0.885723
2.55655
0.324679
0.113942
0.444903
1.97115
1.38691
7.86573
0.367269
0.490416
10.7784
2.77787
0.261138
0.508132
0.266893
0.212617
0.527561
0.531884
0.283826
0.264542
0.172134
2.03868
14.4425
13.2576
0.29474
0.551518
0.226335
2.68206
2.31353
1.67759
0.404076
2.11968
0.296702
0.296375
0.154034
0.0806883
3.80406
0.179582
0.211607
0.86355
1.39681
0.284484
0.38725
13.1779
0.344998
0.153267
0.673796
0.954317
1.35578
0.101995
0.265107
0.239069
7.14073
0.148435
1.49585
0.181967
21.3017
0.274788
0.684114
0.25132
0.216941
0.221011
10.0716
0.468605
0.345367
0.29131
0.362333
2.22225
0.252311
1.96447
0.341153
0.201392
0.125474
2.24384
0.525984
0.684311
0.147955
0.131383
0.495192
0.198275
0.809261
0.233045
0.501094
0.175608
0.345994
1.078
3.32305
0.375058
0.63599
0.429719
0.626586
0.995577
7.78167
0.342688
0.159955
0.259811
0.45947
11.743
1.84704
0.190917
0.190015
5.39016
0.311213
0.263226
2.94333
0.240022
0.164886
13.7553
4.92818
5.38556
0.190566
6.21116
0.244241
3.64302
2.45651
0.358082
0.234709
0.54059
0.375204
1.99969
4.64345
0.354755
11.1339
0.455606
21.13
1.37636
3.23271
1.43386
0.113832
0.420157
2.37092
0.274616
0.284744
0.284599
1.8558
0.339346
0.0957392
0.775693
0.271493
0.281813
0.816342
0.22828
0.162558
0.27018
0.560731
0.38864
0.310917
0.367108
0.261427
0.340128
0.220584
0.230332
0.701178
0.167996
3.90586
0.405726
0.223192
2.79271
0.310084
0.437563
0.488655
0.29964
0.25511
1.74032
0.84385
0.622031
0.249671
0.422624
2.12027
0.209012
0.148731
0.257755
1.32998
0.1865
0.16269
1.03078
0.558864
0.412497
0.687529
0.406958
2.47308
2.92987
0.186194
0.304413
1.68632
0.223863
1.03855
0.8487
0.564878
0.347693
0.290087
1.39145
0.374447
0.429957
1.83049
0.514857
0.125066
0.545194
0.366249
4.99438
0.467112
0.169832
0.256528
3.97999
0.362412
0.220173
0.0990845
1.59201
0.287024
0.274519
0.769444
0.175819
17.1233
0.197268
0.219503
0.243321
0.234726
0.362718
0.429658
0.117467
2.55128
2.47626
1.43414
1.41207
0.389191
0.225378
7.07912
0.345337
0.148415
12.16
1.24297
0.998673
4.3345
0.2083
3.64485
6.17138
1.50917
0.151
5.47051
4.51855
0.240354
0.556892
0.247814
0.975763
4.51864
0.213765
0.155849
0.714463
5.35921
0.194964
0.404255
0.485616
2.34916
0.230292
1.01268
0.149666
0.436612
3.18853
0.299523
0.19296
2.5096
0.190546
2.52076
0.288254
1.28171
0.162432
0.475704
0.45379
0.192648
0.286666
0.131483
0.135051
0.238002
3.79001
0.239115
0.347816
0.413157
0.488702
5.82961
0.661981
0.189733
6.96352
0.430532
0.256908
0.249618
0.172824
0.818866
0.223745
27.7652
1.26579
0.192191
0.116572
0.198115
0.285223
45.5555
0.120308
0.715928
0.111906
0.253554
0.329778
8.61926
13.6056
0.27322
4.5102
11.8808
0.592634
1.09033
0.34944
0.565969
3.44885
0.433691
0.358299
0.189776
1.23345
0.192592
0.374025
0.309966
0.65394
0.404133
0.211885
0.299364
0.255103
0.548115
4.99154
0.345198
0.391966
0.298637
0.120318
0.150138
0.45791
3.04567
0.99215
2.17639
0.217317
2.76485
0.141828
0.213316
0.259604
0.224441
0.463537
1.41641
3.96164
2.61786
0.195583
0.202681
0.167356
0.348594
11.0149
0.422899
11.1297
0.426
0.666514
0.441876
0.232299
0.342486
1.37476
0.0716559
0.23241
0.552861
0.383031
1.35661
0.130513
0.242377
1.04351
0.223749
4.14002
0.233235
2.06431
0.468015
0.972655
0.430586
0.274718
0.453764
0.235365
1.97483
0.221912
1.54593
0.150616
0.224868
0.163532
0.185648
13.8551
0.195932
5.87885
0.637916
0.195949
2.12424
0.117479
0.444076
0.539792
10.2083
0.331668
1.23731
0.203206
0.314509
1.51146
0.257709
0.258353
1.15112
0.524048
3.60563
1.45801
0.262597
0.890608
1.21763
0.500485
2.06679
0.228675
1.06456
0.257956
0.193884
0.205487
0.115843
0.292248
0.317389
0.290992
7.15323
6.94449
0.596286
0.311928
0.236096
0.404136
0.779803
0.262721
4.37744
0.262716
0.206319
0.788152
0.365861
4.6495
0.328789
4.5197
11.703
10.5586
1.05347
0.242283
0.917886
1.21206
0.508042
0.180253
0.190346
1.33176
0.184072
0.514078
3.10752
23.2302
2.72942
0.158796
4.0148
13.7323
2.12114
0.881231
1.93157
0.630097
1.79284
0.256597
0.195659
0.79118
0.963657
1.87525
0.355165
3.16906
0.299388
0.111878
0.214492
0.162626
0.331757
0.188607
0.283794
0.263707
15.6492
0.376585
0.202784
0.749733
0.34377
0.32623
0.270405
0.255676
0.169149
0.477778
0.923649
0.19738
0.100815
0.264952
0.215778
0.283248
0.235503
0.400387
0.663434
6.49168
3.2246
0.378426
0.201572
0.192665
0.263302
0.419117
0.42948
0.382352
0.241255
0.392942
0.317313
0.279029
0.154653
0.495813
0.471414
0.15495
2.39026
0.213505
0.208369
6.47238
0.421238
1.17726
0.425814
0.135311
0.492741
5.1578
1.00227
0.42299
0.128034
0.249906
0.164155
0.240138
0.256689
0.34992
0.2821
6.59604
3.33016
0.307895
0.220752
1.15888
1.07011
0.176025
0.150991
4.42517
0.167853
0.475606
7.05319
0.120441
0.112806
0.422929
2.12654
9.41715
0.30897
0.36488
0.267979
2.59836
0.393092
1.36762
0.380179
2.22536
0.362437
0.358549
0.265882
0.616858
0.693471
0.246554
2.82982
0.231432
1.96841
0.275742
0.179514
1.02511
0.453673
5.67567
0.282052
23.6561
0.440424
2.02131
2.60833
0.520855
1.28732
0.0664988
3.93074
0.392799
0.898802
0.118571
2.6983
0.872296
0.190745
0.395327
0.271536
0.27939
11.5048
0.408173
1.34588
0.177018
0.263291
0.103216
0.346176
0.232474
0.80538
0.189906
0.989066
0.213246
0.175683
0.341271
0.135987
0.309376
0.435194
0.461823
0.515665
0.102009
5.61374
0.188829
0.272736
1.10323
0.152599
0.305465
0.445227
0.155312
0.473501
0.561734
2.57931
0.749519
13.7603
0.411206
0.537251
0.23674
15.1902
0.979685
0.26182
0.180008
0.604423
1.44904
6.68773
0.289388
1.81453
0.23811
0.152625
1.27392
0.290873
0.246411
0.506754
3.96526
0.260965
10.0383
0.297726
1.34608
0.157837
0.330831
0.149123
2.57706
0.413851
0.25415
0.157192
2.92098
2.63652
0.279368
0.229572
1.05139
0.353075
0.274349
0.210926
1.26286
5.21763
2.40428
8.00593
0.169731
0.262202
0.146705
1.82064
0.461413
0.23853
1.04796
0.328991
0.635602
0.701579
1.80805
0.347241
0.236893
0.269532
1.649
0.301065
24.9524
0.444575
0.348599
2.21324
0.511832
0.1774
0.754521
8.75306
5.38279
0.229181
0.511075
14.6091
0.248385
0.193426
2.57101
0.350698
0.162874
1.67068
0.148392
8.07162
0.255447
7.96126
0.134757
2.02039
3.70687
3.1549
0.229117
9.88903
0.310828
0.549879
8.54435
0.608716
0.323533
0.280659
2.66962
