1.22266
5.31444
0.496308
0.663917
0.9268
2.05883
1.47375
1.00396
1.4606
3.76721
1.75393
1.157
2.13257
0.50008
0.786273
0.627617
3.99391
3.05837
3.34523
1.18377
3.14087
1.03456
1.05961
1.24383
0.328017
0.822359
1.20379
0.39184
2.00356
6.23011
0.911304
1.39887
0.859504
2.02264
2.56755
1.92635
0.968462
0.427891
2.41068
0.798322
2.6268
1.40535
1.48828
1.44801
0.885399
1.85722
2.38013
0.421815
0.568225
0.412793
1.0513
1.21839
1.76604
1.93793
1.37361
2.30367
1.15863
2.87164
1.47439
2.16909
3.72345
1.40507
0.989112
1.29588
2.42102
1.12869
0.745178
0.867995
2.29222
2.36713
0.122457
0.414305
1.55269
0.37346
5.41882
0.515731
0.763608
1.21282
3.72053
7.90656
0.568618
6.63932
0.965694
0.482218
1.90026
2.0595
0.890788
0.421852
0.536643
1.35673
2.71064
1.34535
0.268175
0.604141
0.739998
1.25853
1.06049
0.352628
0.844375
0.612361
0.504941
4.41285
1.10715
0.823605
0.334271
1.99298
0.494449
0.448761
3.00032
2.17351
0.914925
0.856814
2.1196
1.81597
1.30091
0.531055
1.02408
5.26107
0.904409
1.4012
0.823646
1.69089
1.42656
1.35128
4.18928
1.2454
0.57308
0.584837
0.878123
1.45745
4.74961
1.24643
0.146043
8.12325
0.578451
2.38811
1.64387
1.13619
0.647642
1.15169
1.13343
1.86948
1.57511
0.597493
0.814764
0.922019
1.7716
1.09338
0.393746
1.7763
1.48626
0.550279
0.786656
2.88336
0.111534
0.695705
1.68702
1.7522
0.608736
1.67483
0.648052
0.481613
0.421618
0.892342
0.627602
0.731529
0.619499
0.616278
0.45988
1.28114
3.43833
0.387632
0.577889
0.973247
1.27269
0.935619
0.477666
1.99365
0.615467
0.584848
1.03816
1.00092
3.17602
1.07808
0.575416
0.934451
7.23812
0.697996
1.00031
1.57476
0.405503
2.07573
0.932031
0.683852
0.536147
0.369134
1.13253
1.54305
0.102196
0.308563
0.249029
0.794281
1.34985
0.680935
0.181181
1.99746
0.510451
2.29983
0.644511
0.866391
8.25893
0.503609
2.65028
1.93767
2.06563
1.70535
1.47883
0.426364
0.417473
1.692
0.159111
1.15588
1.19653
0.306019
0.750286
1.04259
1.90906
0.549512
0.377773
0.520772
2.70445
1.9406
0.564204
3.33227
0.644255
3.99334
0.468636
1.07986
2.86643
1.24695
1.08879
1.01911
2.15745
2.80661
1.32713
1.9728
2.02826
0.214429
1.15041
2.40702
1.21737
2.03547
1.23671
1.99034
0.505357
1.32503
1.37264
1.34586
0.554851
1.52235
1.36599
2.34953
0.970509
1.02001
0.533685
1.38132
0.69062
1.13044
3.37893
0.536351
0.336078
2.23476
1.38356
1.46452
0.897254
0.71582
0.591216
0.211979
0.708569
0.991269
1.73648
2.30065
1.51776
4.95003
2.96335
0.511836
1.10283
4.03098
2.22804
3.76139
0.542083
0.153268
0.909795
1.49896
0.848442
0.29484
4.4524
1.31483
2.02812
0.309622
1.40784
0.200141
0.720509
2.70135
0.358652
4.09602
0.126766
2.48661
3.45233
2.88784
0.632135
0.469169
0.966807
4.61337
0.725013
1.75384
3.98473
1.30032
1.86666
1.43214
1.13392
1.15943
3.04708
0.435404
0.382022
0.211149
1.62974
3.81723
0.768907
0.716531
0.879986
0.466643
1.32843
4.44994
1.38474
0.409859
0.28089
3.94534
1.60461
3.04992
2.13738
1.19565
1.56933
1.75028
0.79608
3.23945
0.832054
1.59583
0.33966
1.53787
1.07561
2.58641
2.36325
0.821187
0.973736
0.588965
0.691821
0.386484
11.1542
1.83638
0.717402
0.243854
2.65637
0.930421
1.42535
1.01658
0.461112
1.1464
1.90201
0.612489
2.02404
0.677386
1.36288
2.13734
1.58424
1.46384
0.238687
2.47555
4.59842
0.427113
2.03976
0.12988
3.13524
6.68195
1.8983
3.68922
1.00683
1.75387
1.75181
2.08422
2.21331
2.60832
0.55067
0.744493
1.28969
1.2241
1.50878
1.97513
2.36845
3.82064
1.36533
3.24029
0.522741
0.547847
2.11387
1.28022
1.43293
1.58835
1.18227
1.50285
2.93718
1.14329
1.5325
0.896302
1.18521
1.03308
3.77119
1.07848
0.659894
2.55948
2.99763
0.958901
0.640033
0.748974
2.25859
1.01056
0.824978
2.79502
1.24367
0.636177
4.40906
0.553623
1.60145
0.602497
0.737941
4.13298
0.440519
1.61026
1.87739
0.542
1.25403
3.70245
1.15636
6.2543
3.40577
1.00458
0.77298
10.3274
0.773185
0.193781
0.431302
0.363824
8.44051
0.79344
2.37965
1.77218
0.699704
8.17974
0.290957
2.53544
2.26683
2.51019
1.77286
3.06382
2.12248
0.685658
1.06472
1.6711
1.26345
0.591215
1.08962
0.818443
0.99987
1.72348
0.216765
0.805944
2.13611
0.503591
1.41642
1.25791
0.956299
0.634674
3.17698
1.33813
0.485463
0.691628
2.10402
0.557269
2.27062
0.565127
4.01531
1.57655
0.650162
0.188655
1.65054
1.65859
1.13783
0.338385
0.480705
1.62482
0.356935
1.43534
3.76181
1.00623
2.14414
2.13598
4.13595
0.844035
1.95044
3.74071
1.02798
2.4995
0.560922
1.4592
1.87884
0.313808
1.44451
2.14623
1.12323
0.720268
2.52121
0.601756
2.9148
1.6123
1.20256
0.312483
3.68648
1.94788
1.62576
0.805235
0.225161
1.03222
0.626482
1.02221
2.50213
2.56672
1.1184
1.30501
0.114292
0.358535
2.14436
0.952923
1.19203
1.26126
0.811453
1.44654
1.25716
1.56831
0.302302
3.05229
1.8182
0.58086
0.742782
0.542817
1.85501
2.93808
1.80231
0.558009
1.27487
1.4234
1.27571
0.838061
0.5925
1.80043
1.64457
1.38758
0.285396
0.401177
2.25176
1.2547
0.416328
0.56075
2.78976
1.47437
0.50589
0.711844
0.816242
0.515353
1.86099
0.533693
1.4097
0.737953
0.49969
3.74758
0.532465
0.47041
0.540935
0.692173
0.320201
1.91332
0.669122
1.06305
3.40832
1.27675
3.46203
0.67151
0.712275
0.662108
3.5722
0.36187
1.99105
1.89131
1.4712
1.12592
2.13451
0.332133
0.77303
2.79146
0.875976
0.80338
0.467655
1.43861
0.856899
0.406462
1.10251
3.17235
0.89522
0.216426
1.11126
1.14372
2.03983
3.73228
1.00622
1.58469
3.35271
1.99634
1.05586
3.23177
5.05122
0.642965
0.892605
0.32943
1.2225
1.31155
1.26914
3.01567
1.431
1.06468
0.442229
0.493237
0.704738
1.26462
1.7817
0.519615
3.97786
1.78805
0.900125
1.47682
0.996222
1.3138
0.942084
0.644761
1.62727
0.786691
0.199374
1.41788
0.721092
0.501473
2.21612
1.24215
0.289943
0.175562
2.82472
0.973648
0.870892
0.902506
1.64698
1.75374
1.42907
1.18278
1.71709
0.168822
1.00929
1.35653
0.521974
3.32676
1.27996
1.80189
3.19231
2.35302
0.864588
1.04743
0.506762
1.88458
0.923247
3.95148
0.966193
3.22421
0.855138
1.73723
0.376153
4.81705
0.628289
1.33158
0.433448
2.54607
0.805665
0.941523
1.19177
0.482677
4.63714
0.599065
0.780313
1.42139
0.693807
0.583376
1.39716
1.28011
2.22534
1.79583
0.263141
1.98789
2.57315
0.113584
0.625226
0.380518
0.487379
3.37121
2.86813
1.08057
0.672692
1.48514
8.45039
1.47912
0.392358
0.188622
1.85887
0.861889
0.791095
3.52349
4.75478
0.585176
2.31245
1.86648
0.613796
4.31987
0.701279
4.81821
0.268223
2.38691
2.00114
0.80678
2.87276
0.879075
1.64439
0.981205
0.234755
0.744584
0.388296
2.79422
0.813708
0.954046
2.36968
5.53313
0.190513
0.17876
1.95588
0.499506
0.527109
1.17147
2.5635
4.77813
3.34516
2.25638
1.96419
2.30173
2.27914
1.28887
1.74509
1.14413
1.80109
3.23962
2.14931
0.85964
2.73572
1.73681
1.61323
4.57979
1.46576
1.83309
1.44506
1.00625
0.978114
0.801438
1.91049
0.929683
0.254697
0.840009
0.700281
0.858486
0.549996
0.55497
0.60315
0.210199
0.472323
1.02207
0.141689
1.94111
0.989508
5.10913
0.577577
3.40596
2.99582
1.30186
1.07872
2.3618
4.30871
1.60278
1.25188
4.74147
1.62232
4.32715
0.853119
4.07913
0.390007
0.263694
1.73589
4.14272
0.110229
1.02266
0.771792
1.49478
0.863426
2.19071
2.7022
1.42779
0.365626
2.49728
0.789135
1.33383
1.01787
0.332168
0.380575
1.08506
0.360404
0.469915
1.09195
0.270592
0.698647
2.76986
0.26186
0.217317
0.323393
1.00272
5.47594
1.14662
0.243334
0.965277
1.45863
0.655067
3.2118
2.95839
0.593949
2.61624
1.32324
1.07426
0.850692
1.85396
3.55258
0.775484
4.20875
1.35188
0.699959
0.178665
0.480317
2.3817
0.82041
2.68181
2.67509
2.74781
2.85718
1.02988
2.41397
1.21747
0.33925
1.44148
1.07956
0.240977
0.7853
3.40252
1.60003
3.19034
1.58813
1.4595
1.33617
3.33762
0.829625
0.277297
0.531802
0.520071
1.43523
1.18284
0.275994
2.9434
0.595644
4.40981
0.502357
0.616608
1.4772
3.23068
0.62162
1.05823
0.444489
1.16246
1.80325
1.64322
0.30632
1.23327
9.54158
3.09548
1.71662
0.846347
1.72797
1.14529
0.229619
0.575462
0.518015
4.54349
0.501314
1.90532
0.151332
1.55204
1.21328
1.48428
0.665877
1.15432
0.96285
0.137226
0.842611
1.35112
1.2209
1.13598
1.2443
0.336665
1.53155
0.670715
0.311031
3.12268
4.40305
0.377072
1.17811
1.89606
0.847465
3.26292
2.00966
1.27233
0.798096
1.68126
0.578601
4.60046
0.356535
3.55952
0.181592
0.501712
2.01063
0.445445
0.546582
1.26559
0.833858
2.14856
1.30678
4.24165
1.15368
1.86643
0.669658
0.272035
0.374914
6.69683
2.2199
1.61028
0.923741
3.52086
0.866618
1.87943
0.510687
0.72168
1.33522
2.12596
1.99532
1.25163
4.7328
1.25126
2.09712
2.23245
0.73536
3.436
2.71576
0.339476
0.847344
1.2788
3.39272
0.588819
0.986908
1.63718
2.03423
0.687951
0.380322
0.385104
2.10393
1.26379
2.48252
1.37189
2.1229
1.67985
3.72095
2.05859
1.96236
0.293463
9.2744
0.144287
0.643552
0.858673
0.948914
2.87341
1.04923
0.598915
0.417058
0.655607
0.793957
1.22183
3.71019
0.515123
1.15356
1.58869
0.852713
1.73803
1.60089
1.28699
0.516016
1.73528
0.376454
0.501379
0.344118
0.683591
0.962455
1.4295
0.232813
0.370116
0.879893
2.09191
3.34239
1.04374
4.21761
1.67536
0.682457
5.90226
1.20148
0.122826
3.46209
1.61526
1.3252
1.39377
0.495864
3.1759
2.56473
2.70383
0.718263
1.65137
0.162371
2.43446
0.542514
4.22224
0.626498
0.814793
0.759097
2.18896
0.420835
1.69881
0.314951
1.05972
1.48675
0.574606
0.364045
1.08329
3.62633
1.27245
3.99629
0.445253
2.07832
0.579057
1.28836
2.1547
0.645954
1.03237
2.18502
1.24905
0.453175
1.31535
0.591592
0.910014
1.03157
1.76353
1.80951
0.416797
3.74794
0.818623
0.828261
1.55575
0.872611
0.410659
1.80223
1.37988
0.493973
1.61443
0.603057
1.45693
1.39201
0.287013
0.132642
0.994775
2.1252
2.71356
0.824516
1.11903
3.05234
0.977805
1.62688
5.81382
2.28915
0.840437
0.274962
0.43473
1.61231
0.355586
0.813774
0.2016
0.730562
3.67249
0.748942
1.71932
1.13094
2.41613
5.51762
1.49352
2.18179
1.1253
1.9642
2.0444
0.257967
0.245418
0.357946
1.72095
0.659399
7.18445
0.750132
0.668622
0.493957
3.31
0.997255
1.42025
0.14224
0.54381
2.15757
0.773855
1.1114
1.011
2.07208
2.33332
0.294093
3.33258
1.82506
0.859986
0.282843
2.3188
0.918067
4.90643
1.05226
1.07589
1.27862
4.00889
0.879285
0.170539
0.216918
1.02669
1.75486
1.73817
0.616007
1.49923
0.57665
0.949515
1.10322
0.432974
1.14942
1.81215
2.0699
1.21997
0.235982
1.51192
2.57096
2.94218
1.74798
1.56961
0.759312
0.595653
5.97153
0.932944
6.16301
0.814027
0.320116
2.13722
2.67427
0.864238
0.72171
1.15313
0.971897
2.72407
1.92323
1.13992
0.774932
0.661794
1.66089
0.796344
0.286518
0.424992
4.43139
0.299195
0.226816
0.786781
2.9441
1.22949
6.81075
2.1694
2.28615
1.8904
0.993329
0.989477
1.80809
0.403103
0.517914
2.0231
0.727339
2.78362
0.132047
0.333003
1.87488
0.243804
1.64205
0.334789
1.81449
0.651536
2.91239
1.65973
0.524529
0.900033
1.21184
2.85516
0.338852
1.56598
2.93273
1.08597
3.82967
1.15259
1.04037
4.61126
0.156997
1.01622
0.706317
1.61671
1.05777
1.1127
0.194726
1.04782
1.25525
0.224698
1.74765
3.62428
0.681699
0.986995
2.99946
1.00159
1.04591
2.21647
0.23145
0.899587
1.93399
1.56509
1.41533
0.961264
4.29335
0.126909
0.661753
2.77387
3.47058
1.25419
6.52921
0.65517
0.987199
1.33582
0.474814
0.763671
0.560489
2.81289
1.10511
4.85528
2.40225
2.22905
0.547136
2.68736
0.369354
0.754366
0.388458
1.8653
2.16727
1.00567
0.884892
1.05163
2.80883
0.82464
1.30107
0.649908
0.276887
0.427532
0.623166
1.54314
2.11254
0.487951
0.449416
1.78881
0.910815
0.592412
2.58225
1.22154
1.55551
4.02386
2.91527
1.21259
1.0536
1.63381
2.38422
1.42728
0.763022
1.63093
0.70428
1.37151
0.962883
0.885465
0.457304
2.68562
2.55804
2.11437
0.223185
2.55932
1.28475
1.95606
5.60584
1.3386
1.55903
3.13038
0.262568
1.0282
0.619741
1.7567
1.23469
0.955691
1.55203
0.630037
1.28703
0.208562
0.807129
1.34165
2.48828
0.855783
0.693102
0.428935
1.10696
1.26993
1.99401
0.788015
2.59393
1.26805
1.4711
1.60047
0.716278
0.72639
1.28336
2.15681
0.176474
0.165281
1.87444
1.39372
0.76195
0.232312
0.743986
1.61234
1.61943
4.1065
2.29263
0.449258
0.504091
1.02681
0.629693
1.08025
3.74356
2.57247
0.602929
0.360164
0.734873
1.20274
7.48731
2.39623
1.42981
1.33459
0.639306
1.30684
2.4859
0.914005
3.25265
0.290298
0.957537
5.58507
1.64462
1.16475
0.460366
1.55734
1.77775
0.674809
1.00297
0.658584
1.52356
0.548389
0.635001
0.950641
0.702593
1.97942
1.87024
0.527665
0.246061
1.89751
0.86317
0.39949
1.45634
1.68404
0.880362
0.815981
1.90496
1.15311
1.25983
1.44163
3.25049
1.55694
1.12482
0.771068
0.952919
0.583835
1.62169
0.591309
1.62396
1.4141
1.67204
1.13456
0.883636
1.00794
1.2783
0.308165
0.312154
0.327034
0.18893
5.69383
0.34768
1.46425
2.86461
5.96239
3.12761
1.77402
1.15882
1.66361
1.02854
1.13993
0.910117
0.84404
0.560947
0.671308
0.493507
0.452273
0.886193
2.23228
1.58989
0.953332
1.00723
1.83365
2.70755
2.34673
1.64644
0.822217
1.55258
5.16888
0.486291
0.836627
1.68383
1.76819
1.49062
1.50531
5.5634
0.784513
0.771034
0.406605
3.79914
1.9187
2.91697
0.669289
0.887022
5.77626
1.19157
0.78203
0.718848
3.1693
0.578201
0.498811
1.65488
1.18476
1.1231
0.264106
1.60273
2.06906
1.3807
0.86935
0.506318
0.563717
3.13785
0.406218
3.95091
0.586359
0.315918
1.06821
2.61467
1.12044
1.24092
8.63448
2.60406
0.379894
3.46137
0.175135
1.08804
3.52223
0.426334
0.962522
0.523037
0.816619
1.4501
0.708223
2.46637
2.58704
1.84495
2.89359
1.27967
1.2478
1.40758
3.43943
2.03138
1.54511
1.54041
0.757357
0.452284
1.35024
1.08835
3.76268
0.94701
0.375091
2.07421
2.83162
0.447597
1.30682
1.80506
2.58886
0.550903
1.0087
0.457272
1.95119
2.20994
0.362332
0.386367
2.62512
2.33302
2.32818
1.55242
0.96818
1.31268
1.66442
4.42791
1.14685
1.61812
1.34932
4.04397
0.446325
2.20809
1.12106
0.519665
3.33083
1.01257
2.37979
0.929096
0.481633
0.432681
0.49761
0.805855
2.86775
0.365362
1.94097
0.669932
0.342161
0.458206
1.77816
1.4166
1.99875
1.51476
3.00429
0.593525
0.366479
0.504201
0.703432
0.88376
0.728093
1.18945
0.769908
3.05905
4.72583
1.78474
0.354325
2.5683
1.02839
1.1754
1.02581
0.452149
3.27347
3.17045
3.21237
0.533711
0.577825
3.54443
1.82617
6.96972
3.36748
5.21852
2.31683
0.59493
0.992364
3.19684
5.60866
0.685523
0.981401
2.82683
3.45047
0.115986
1.00656
0.731195
0.631417
0.886837
2.75684
1.67014
0.644337
1.98988
1.00995
2.0981
5.55122
0.246764
0.596427
0.43377
1.63592
0.462093
1.80269
2.30629
2.1371
3.20186
0.151036
1.21359
5.65689
1.72646
2.82063
0.121509
3.47009
0.636115
1.76076
1.70523
5.34667
0.399314
0.343112
0.799933
0.181659
2.25167
1.03467
0.529964
2.42705
1.44255
1.69777
2.26592
0.0744561
0.842669
0.440995
0.54736
0.88617
1.74265
0.530453
3.56996
1.42124
2.42366
0.821326
1.67049
0.566877
0.322471
2.2541
1.86985
2.69822
0.412999
0.50015
0.783736
1.00282
0.894044
1.9154
2.12836
4.74717
0.197641
1.47606
0.771614
1.92231
2.33649
1.01918
2.43497
1.64741
1.30452
3.19918
0.302196
1.07328
0.701664
2.30786
0.971582
0.856859
0.377938
1.47942
3.93917
3.08244
0.43292
0.568307
1.87111
0.264411
1.1387
1.75903
1.47013
0.907927
0.390002
1.11909
3.3103
1.84514
0.729749
1.81498
1.88171
0.47036
0.671632
0.934901
1.15023
0.608446
3.58677
2.17197
0.255279
0.662614
1.43775
2.11438
1.78242
1.26351
0.462413
1.13884
0.521656
0.784914
1.18978
2.01914
4.63847
3.00394
3.80341
2.60772
0.364054
0.467295
2.21579
1.13602
0.304356
0.686051
1.04632
2.64287
1.10992
1.21461
1.64695
1.73248
0.809547
1.8603
1.42336
2.59255
3.02019
1.28792
0.968904
0.808566
0.961279
0.123852
2.2159
8.55834
1.03427
2.25518
0.535309
3.43407
1.23149
1.74265
1.16065
5.27087
1.47764
0.263164
0.137852
0.691086
1.96832
2.48318
0.106142
5.4594
1.00704
0.385986
2.20688
1.71552
0.327636
2.3798
1.10503
0.570182
2.09795
0.486417
1.25694
2.15389
2.25705
1.0716
4.39355
0.94923
1.32952
0.58665
3.98038
1.22173
0.83398
0.532174
2.23346
0.806914
0.743215
2.4187
0.607003
9.63167
2.45207
1.3741
2.36869
0.491871
2.5834
0.362566
0.379151
0.656909
2.59894
1.82685
1.29607
1.8164
1.02738
0.149832
2.06552
0.615961
0.547731
2.07464
1.01259
0.595787
0.908714
1.40809
1.24213
0.291458
0.532585
0.302143
1.85062
0.297613
1.82799
0.856231
1.154
1.5439
3.80131
0.581384
0.678408
0.568446
4.55275
1.78777
0.095596
0.754353
0.855311
0.267566
1.89111
1.19442
0.635967
3.39629
3.39805
1.93768
3.05738
0.383289
2.03426
4.06986
0.698197
1.55299
0.181316
0.435984
4.96726
1.14614
0.253
0.72614
1.45746
0.730398
0.541824
0.894265
0.729935
0.586238
2.35002
1.60328
0.97641
0.422556
2.16191
1.30927
0.515999
1.24795
4.15897
0.270942
0.539971
2.25719
0.117222
1.12704
4.70039
0.888139
1.59262
1.01138
1.5371
0.541263
1.49958
0.479894
0.530037
0.929526
1.24407
0.678803
4.37344
3.9137
0.168883
1.84633
0.202448
0.905208
2.2085
0.443121
1.42272
1.3217
1.40676
0.466897
1.11736
1.39252
1.69822
0.880366
1.27918
1.78703
0.769484
1.18221
2.34924
0.961823
2.70074
2.85089
1.6021
2.65795
0.17708
1.79713
1.8533
1.21709
0.332402
4.07887
1.21555
1.2823
1.9031
1.38965
0.570958
0.955256
0.624467
1.31199
3.12864
3.0868
1.49151
1.54974
2.69238
1.35497
0.717526
2.79352
0.801024
3.16672
2.4985
0.359574
1.64352
2.20109
1.15786
1.18547
2.3596
0.793148
0.320322
1.584
1.40558
2.25813
0.627063
1.42837
0.182983
1.46089
0.466654
0.179824
2.24223
0.72448
0.597419
0.466944
0.728012
4.74081
1.75421
0.208188
1.10212
1.66973
0.94425
1.82143
1.28775
1.11315
2.70825
0.533198
6.95408
1.02761
0.795657
0.87763
0.429608
2.02501
1.0435
3.01348
5.88501
2.00944
0.538634
1.27742
1.18132
1.77796
1.00125
0.892434
1.46415
1.13844
5.76795
0.280902
0.446213
0.963295
0.271987
1.43547
2.35576
0.51891
1.28663
0.455677
2.40384
0.77499
0.161762
0.424647
2.19684
1.47334
1.77819
0.574674
0.570703
0.613944
2.87474
3.40936
1.20684
0.383202
0.654882
8.49714
0.620061
0.302083
1.04766
3.18128
3.53663
1.42056
1.62143
3.72821
1.88598
0.518586
0.733657
1.58949
1.10072
0.519908
0.136432
0.933276
2.42215
1.7535
0.208183
2.61202
2.14191
1.30556
1.86567
6.58156
2.41152
1.85796
2.02026
4.60635
1.07103
1.07343
1.47568
1.75417
0.637711
4.05386
0.809231
3.03066
2.77325
3.45545
2.14489
1.19472
1.39152
0.576733
2.8522
0.476345
3.33503
0.822053
0.253883
0.896277
0.487099
0.504165
1.82422
2.17187
0.318074
1.28972
0.215511
1.20198
1.23749
3.87285
0.372692
1.05583
0.795128
3.08905
1.42203
1.86594
0.71094
1.36081
3.00231
1.71856
1.21795
0.600698
1.0569
3.00209
0.847305
3.00895
0.567019
6.733
0.444683
1.93056
1.74614
0.0772331
1.06228
2.59869
3.14807
1.80189
0.317073
0.582339
2.56368
1.70511
0.992863
6.34408
0.861599
1.40365
2.17809
2.03437
0.99116
2.74725
0.409063
2.36205
0.719068
1.20603
3.62515
0.333437
0.65939
2.71592
0.908895
1.82323
1.49956
6.75787
0.377453
3.48135
3.02371
1.84898
3.21106
2.10574
0.67127
1.60576
0.271128
1.29492
2.13737
0.850859
0.834406
1.2968
0.596977
1.3885
0.292708
0.810879
0.23268
1.11744
1.02945
0.631984
1.96969
0.3525
1.74021
4.50476
1.11129
1.09323
5.00416
1.0738
1.46751
1.05273
1.30609
0.408992
2.00913
1.96516
1.02869
0.180761
0.849211
0.540564
0.61057
0.616939
1.00955
2.51766
0.423032
0.692077
3.10085
1.39087
2.33876
1.41003
0.631913
1.30457
1.0569
0.172425
2.1593
0.37648
0.938034
0.461959
0.850271
3.02329
0.425106
0.463637
0.846477
1.06018
0.227308
2.62615
1.83081
1.0409
2.87364
1.24278
2.16564
1.20203
1.09419
0.512204
0.76326
1.61296
1.85304
0.168416
0.524661
0.0831776
2.34802
0.813282
1.04432
0.900201
0.672031
1.32147
0.672091
0.570789
2.72378
0.994114
1.18737
1.37413
0.598561
1.2716
2.03183
0.439879
1.63369
0.428992
0.44909
1.46843
2.64782
0.447651
0.494552
0.182867
2.38837
0.871024
0.374721
3.0245
1.97004
1.41205
1.09827
0.109445
2.95466
0.803329
5.42143
8.52905
1.30232
0.953957
0.814873
0.187304
1.36014
1.71475
0.245763
0.773676
0.861113
1.62384
0.795529
1.45648
1.36184
1.98843
2.05063
0.259831
2.39826
0.46775
2.00841
3.6528
2.48651
4.40887
2.86828
1.33149
0.234831
1.21711
1.99017
2.1892
0.962451
3.41921
0.992458
1.2291
1.40087
3.68175
2.65703
0.258818
1.35172
1.11426
0.324122
2.15716
1.15274
1.42548
0.499598
1.81439
0.726083
0.839928
6.65101
0.931594
2.11329
2.25595
2.98907
2.09353
1.42966
1.11162
0.450392
0.636121
3.28202
1.42977
0.289926
3.54774
1.45658
2.37999
0.854389
1.23021
1.53496
3.2036
8.71823
0.610408
0.610227
2.58458
3.1138
2.16563
1.7678
0.735996
3.80245
0.995147
0.415099
1.63448
1.16532
2.03034
1.26595
0.786407
1.16371
0.980411
1.50736
3.00279
1.06373
0.483901
0.860854
1.94326
1.36121
7.13175
0.639414
0.90342
2.18387
2.79494
1.97258
0.237413
0.575007
0.72591
0.860053
4.3045
1.25068
0.626519
3.43424
0.607233
2.72696
0.412553
4.16945
0.981505
0.779346
0.228948
2.63811
0.720635
3.66443
0.542765
1.27185
0.486967
1.03336
0.593844
0.769378
1.62751
4.79521
3.17352
0.568814
2.39942
0.436556
1.90559
1.76551
2.2079
2.63722
0.650947
0.325204
0.51182
1.56964
0.377986
1.73612
0.0958616
1.28219
0.370443
0.672172
1.20769
1.09162
0.230365
2.37948
1.08547
2.27613
1.49342
1.09729
0.880118
1.43052
0.878197
4.95641
3.71976
1.99661
3.03682
2.04986
1.55384
0.466096
2.72005
1.76604
1.42558
1.89907
4.9472
0.383493
0.341388
1.73652
0.65438
5.75513
1.54135
6.39882
0.593355
1.37517
0.428902
3.7078
1.6909
1.4008
0.811338
1.50892
0.624598
0.888288
1.38738
0.473601
0.996931
2.41965
4.01712
0.970571
1.00111
0.247204
0.311287
2.63186
0.212739
1.42431
2.00162
2.50166
1.13879
0.484296
4.64613
0.811851
0.35274
2.44934
0.863445
1.18406
1.74841
1.3947
1.92338
2.25331
1.22834
1.26628
0.344689
1.81233
1.6258
0.347134
2.13869
0.383771
2.41469
2.77082
0.506612
0.599614
2.73039
1.00629
1.1573
0.709982
0.877631
1.94486
0.974321
0.466057
2.55905
1.12488
0.207275
0.66256
0.876328
1.7305
2.17193
1.03219
0.697059
0.164634
0.794362
3.13089
0.235293
1.29665
2.26602
3.18437
1.60808
0.872693
3.20875
0.894157
1.21948
0.496878
0.330527
4.03644
2.75835
0.853995
1.2566
1.49451
0.510154
2.30577
1.47709
0.682016
1.69955
0.49664
0.176099
0.401896
1.69685
0.46819
2.52854
1.43353
0.779537
1.25008
0.998633
0.227572
2.03332
2.24478
1.97188
0.254358
0.204203
0.953527
0.379344
1.22964
1.00159
1.4459
4.66285
0.820981
1.11261
1.00328
0.868656
1.24681
1.16211
0.428973
4.25019
0.639842
2.22309
0.75342
0.603155
7.57692
1.23547
1.79173
2.33139
2.44789
0.598096
11.155
0.931777
1.71131
1.12532
2.52758
1.2303
1.68724
1.37894
1.27629
0.662019
0.847716
0.418645
0.532283
0.330596
0.639011
0.706149
1.10814
1.30473
1.3315
0.902198
2.84036
0.681803
0.310955
1.18708
0.471763
1.68899
3.08171
0.879545
0.236291
0.956781
1.79732
0.512039
1.44955
2.12673
0.767929
2.61205
2.06177
0.393212
1.25735
2.17938
0.640636
3.79506
3.0828
2.29558
0.438033
0.634148
1.9155
1.07412
1.63703
0.521217
0.728071
9.14762
0.738917
0.619085
2.3538
1.96338
1.39882
1.33241
0.257563
0.594918
1.46001
2.22232
1.55913
0.543102
3.92994
0.445312
0.151731
3.15961
1.81758
0.413152
0.651413
1.14509
0.588411
0.846398
4.191
3.56603
1.23317
0.69623
1.21558
0.841715
1.32248
2.73705
0.979802
0.697594
0.338286
0.249538
1.05352
1.8551
0.171872
1.08862
1.15368
1.5747
0.722992
0.572995
0.70557
2.51478
1.64581
2.15584
0.995879
1.21576
0.658036
0.516443
3.85811
2.21473
2.1627
1.37485
4.82888
1.1865
0.407864
1.6153
1.40069
0.212195
3.58558
0.536747
0.921791
4.0128
1.27717
0.181606
0.960878
1.71516
0.99037
0.310115
1.10439
2.70758
0.434984
1.25369
0.291883
2.6604
0.805223
1.06212
0.333414
2.80149
3.48529
0.792437
0.620386
0.636409
0.26133
1.07221
1.3216
0.508731
0.63403
1.50288
2.88075
1.29372
0.568717
3.1399
0.821612
0.921163
0.574273
0.849822
1.80988
0.828789
1.0577
1.41121
0.131582
1.15264
0.921473
1.05666
0.267429
1.44576
0.322093
1.64533
0.779879
2.33257
1.8686
0.757675
4.19649
1.43092
0.141934
0.752085
3.24236
0.573719
0.771101
3.03818
1.87358
1.28009
0.154729
2.27163
1.54715
2.24188
1.4652
1.23192
1.71488
0.704366
0.0962845
1.20853
0.218117
1.41143
0.378935
2.54985
0.174
1.53403
2.34326
0.578081
0.62809
1.89794
0.248126
1.74375
1.52964
2.16596
1.21291
0.563221
0.164861
0.599676
2.05672
0.14289
2.96061
2.17816
1.18773
1.511
0.184832
1.10696
0.53576
1.76458
1.32891
0.398797
0.724955
1.73951
2.23875
0.321975
0.629694
0.685356
3.91517
0.51044
4.92472
1.26512
0.427636
1.21671
2.21987
0.845292
3.96488
0.592017
0.604003
1.05431
1.10078
0.990855
2.88822
0.908616
1.37996
2.9994
2.47596
0.516828
3.16855
1.481
2.172
3.29371
0.667454
0.955021
0.975684
1.31012
0.923983
0.311752
1.71466
2.23423
0.934037
1.95584
1.81688
0.441221
1.43877
2.04073
1.33134
0.69583
2.02752
0.504576
0.507758
2.05249
2.7372
1.10758
1.52387
0.607787
0.319721
2.74883
2.83195
1.21123
2.53686
2.40925
1.25892
1.89339
0.872497
1.67167
6.82822
0.837335
3.50155
1.0774
0.526751
2.13253
0.576814
6.53105
0.939314
1.9359
0.678391
0.583916
1.10986
1.51651
1.37086
1.65727
1.5138
0.450992
0.276349
2.73838
0.156887
2.19698
3.35528
0.736832
0.564239
0.113029
1.84327
0.924932
0.945151
1.20981
3.09367
0.544905
0.834091
1.66643
0.15171
5.47912
0.639486
3.63149
0.147894
1.70886
5.77239
0.71167
0.626855
2.326
2.83177
1.37321
2.10239
0.341653
0.650001
2.35793
1.0795
1.22536
1.5425
0.414454
0.770993
0.906733
1.51018
1.05286
0.228993
2.84514
2.20607
0.797076
1.14057
0.295768
0.16708
0.64763
1.35268
11.554
0.934041
1.17242
0.623905
0.992561
1.11625
2.10692
2.49431
1.1913
1.99582
1.74266
0.444035
0.592449
1.47418
0.224259
0.978575
0.830952
2.08552
0.389379
0.330839
3.84989
0.785035
0.574673
0.39423
1.07472
3.45866
0.91995
4.36194
0.263983
2.66107
1.33765
0.886376
2.16768
0.531763
0.895394
2.33369
0.773601
2.7724
1.17317
1.72017
1.97235
1.48175
1.94261
4.36434
0.369362
3.92186
2.20132
2.97007
2.36148
2.01353
1.82163
1.3514
0.86354
2.54311
1.25869
0.153503
0.817539
1.04
0.840722
0.422039
0.236317
1.85736
0.163261
2.13815
0.155679
4.05426
2.65253
0.687056
1.40671
0.692884
3.67624
2.76702
0.418774
0.702908
1.21477
0.433757
0.649659
2.95337
0.333708
2.32084
0.634671
0.818912
0.910653
0.463306
1.54877
0.802383
0.871076
0.394778
0.980049
3.68275
1.34883
1.6319
1.70529
2.76434
2.34907
0.138026
2.57109
0.720764
0.57777
0.620226
1.17515
3.71224
1.21511
0.875604
0.621133
2.19741
1.81092
2.17723
1.97811
0.573092
0.252756
0.806652
0.236061
0.603162
0.487868
1.7282
5.7388
0.316844
2.88564
1.23389
1.14166
1.55311
2.80564
2.12915
0.797097
1.26516
0.715969
1.90295
1.6792
3.29639
1.89671
1.05208
0.616511
1.11379
2.15632
4.90733
2.76212
4.45808
1.09337
1.03193
0.330049
0.157153
1.10276
1.37586
1.03583
0.695982
1.49303
4.2414
2.73769
0.748763
0.817633
1.35768
6.13688
0.752791
0.602545
1.13748
3.33585
1.11192
1.08922
0.653051
2.30651
1.58246
1.36625
0.640681
2.26951
1.44662
0.316628
0.890647
1.69544
1.62888
0.247886
0.437129
0.493907
2.47498
0.933841
0.521124
2.434
0.401178
1.17625
1.81746
0.280728
1.14837
1.94058
3.17443
0.522682
1.52647
1.88134
0.628372
0.776114
6.46139
1.80475
1.47387
1.18605
0.294811
1.27999
0.922646
0.335255
1.04589
0.418464
0.787486
0.773634
0.752219
0.567516
0.536504
3.32288
0.739069
2.59096
0.993242
0.59777
0.490095
1.62703
0.282574
1.78237
1.5307
0.728113
0.608634
1.5274
1.32155
1.32054
0.822428
0.972371
1.08748
3.67674
2.32295
2.74036
0.651409
0.492305
0.305028
1.58844
1.4623
0.852347
0.454421
1.02727
0.322106
1.64555
1.46008
1.14458
2.80741
1.72202
0.417715
1.71202
0.919682
0.708282
5.45991
0.19633
1.67699
1.64291
0.606
4.6776
0.264861
1.16475
1.53267
2.2951
1.3933
0.555396
4.50289
0.29485
1.39931
3.64936
3.88979
0.686117
1.31352
2.75078
1.16542
1.05755
1.82711
0.577663
4.11603
1.83004
1.91808
0.566572
1.56555
1.07344
1.49076
1.55668
1.78005
2.22049
1.22862
0.772352
1.39319
2.67803
0.678135
1.39205
0.28211
1.3861
0.301415
3.30161
0.122238
0.589503
5.70671
1.60151
0.752823
2.33743
0.856351
0.59254
0.661149
0.390387
0.788582
1.36646
2.07473
2.68615
0.509583
2.01415
0.751605
1.52933
1.99973
4.79504
3.30368
0.919321
1.08753
0.669519
0.922672
2.36339
0.150474
0.869764
0.98837
0.212017
0.698787
3.01906
0.913075
0.141174
0.712654
1.14293
1.79633
0.606698
1.93373
4.02822
2.31815
2.42371
0.496656
1.21663
2.98192
6.76668
2.25737
1.19112
0.663086
0.957603
2.74424
1.82013
4.06654
0.1853
0.461082
0.703993
2.45261
0.438219
4.54575
1.07517
0.868775
0.228194
1.4024
1.1114
1.7706
0.862322
1.92156
2.06402
4.02512
0.60857
5.70519
0.505145
2.14826
1.89444
0.912142
1.8732
1.01703
1.18745
1.32564
1.2226
1.2237
2.557
0.377451
2.21448
3.18063
1.20269
0.532252
0.337016
1.37049
0.635371
2.97986
0.908857
0.125153
1.95397
0.337852
1.70731
1.06652
1.70539
4.10899
2.94336
1.44051
1.48778
0.796034
0.895238
0.645214
0.923499
2.93853
0.466818
0.660986
1.54433
0.705598
2.73287
0.532231
0.472211
0.535512
0.793314
1.06842
1.15046
0.883684
0.275627
2.27941
1.61856
3.03641
1.4217
0.670745
0.431224
2.14763
0.450855
0.172917
0.923349
0.447899
2.09794
1.3334
3.51264
0.798193
0.970519
2.14662
0.770956
1.20893
0.72934
2.73568
1.76654
0.865983
0.727692
1.12633
1.53528
0.793658
0.342747
0.560068
2.09793
0.909828
0.784158
1.94641
0.515144
2.24754
2.46112
3.04656
0.964974
0.931893
2.23934
0.770858
1.22836
1.05002
2.025
0.724439
0.363718
0.934422
2.9153
1.51096
9.59912
2.06756
1.03863
1.81155
0.288954
1.64267
1.28514
1.82159
1.01628
2.40586
1.21742
1.69218
0.479135
0.45397
0.470722
1.12799
1.03084
0.835835
4.87635
3.04939
0.545556
1.12953
1.70306
0.298632
0.581307
0.489074
0.672089
2.92444
0.28114
0.193309
0.40516
1.13326
2.04893
3.43025
2.05977
1.52035
1.02527
2.27119
0.737557
0.93507
0.351592
0.753376
2.8227
0.639664
1.25666
1.67364
0.254892
1.62637
1.17594
0.982841
0.827901
1.86415
2.06319
0.655062
0.705255
3.3667
2.62058
0.587748
2.18948
2.42835
2.00711
0.579351
0.288466
2.9042
0.350174
2.675
1.81295
0.572726
0.428515
0.207296
2.1528
1.84205
0.449418
2.66303
2.15363
0.923486
0.319767
0.434703
1.16065
0.193339
1.38345
0.767005
0.460867
1.88198
3.80399
0.0413395
2.9088
3.95092
1.59141
0.943896
1.07567
0.680104
1.20164
0.347057
1.70423
0.807434
0.400965
0.370239
0.345972
0.381367
0.813668
1.55974
1.75784
0.42923
1.07991
0.667336
1.39175
0.635169
0.301067
1.48724
4.55087
4.29706
0.963969
2.35858
1.58086
7.71673
0.54016
0.540913
0.581652
0.738984
0.847236
0.907273
0.358116
0.645454
0.364181
1.46285
0.507279
0.992385
0.184162
3.84049
0.356274
0.823933
1.80915
0.9197
0.45923
1.10287
0.924912
0.95574
3.69493
0.46829
0.238298
0.660688
0.974291
0.856951
0.439464
0.675062
0.305856
0.405379
3.32932
0.56664
1.75723
0.582221
2.60443
2.59555
2.66676
0.950227
1.35076
1.11903
3.37968
1.03769
1.83603
1.06243
0.601046
0.771198
1.14233
2.52564
0.493916
0.125019
0.424558
0.768342
0.861506
0.38384
0.966379
2.25863
0.322264
0.504939
2.3966
2.50717
0.888707
1.16707
3.13329
2.5315
0.609267
0.773354
0.758638
1.41525
0.284453
1.21233
0.993077
0.527171
0.660758
2.13936
0.60611
0.122723
1.13108
2.15786
0.416415
3.24003
0.499019
0.675049
0.487985
0.945613
0.3781
1.02024
0.959543
6.8047
1.18801
0.660087
2.95951
0.89167
0.978566
1.31232
1.58488
2.19906
3.05801
0.893515
0.913044
2.94683
1.45082
0.654934
2.07326
0.74146
0.186514
1.28861
0.949195
1.24864
1.464
4.63398
3.14688
0.562868
1.00895
1.13311
1.42605
2.04589
1.16318
0.219345
0.484533
0.703809
0.242167
0.960961
2.70256
1.37712
3.04416
1.2085
0.184018
2.65702
1.65491
0.906092
2.33917
1.1942
2.66078
1.40403
1.85338
1.02261
0.368592
2.40102
2.94292
2.25912
1.45332
0.919312
0.475369
1.62508
1.24444
2.35827
0.778496
1.05494
0.255522
2.20442
0.908875
1.66194
1.2567
1.3573
2.20704
1.93502
0.843712
0.871745
4.05772
1.41254
1.46376
4.13886
0.529873
0.220543
0.896061
1.55695
0.79787
0.977276
1.30071
2.62831
1.58601
2.69488
1.69288
1.1981
1.21684
0.770505
0.36723
0.143151
0.150618
1.11487
0.304738
4.5671
1.05914
1.52505
2.27894
0.606559
1.33207
3.66163
0.362243
1.51284
1.19197
1.03475
2.17207
2.8471
1.91521
0.76897
0.77513
1.22118
2.52908
0.513099
0.972858
1.01234
4.34584
4.39519
0.426499
3.34236
1.41476
1.00613
0.598456
2.11049
0.7698
0.346992
7.0355
2.21978
1.86806
1.71558
1.84859
0.711754
1.70121
0.715462
1.20592
0.437997
1.59118
1.05415
4.93354
1.14179
0.55431
1.92729
0.54957
3.07497
0.864607
0.346564
0.548955
0.98866
0.955479
2.40821
0.580829
1.02792
2.31586
1.36989
0.34939
0.673377
2.5763
1.25068
0.901257
1.45737
2.38768
0.960076
0.424232
1.70414
1.16406
0.819623
3.05421
1.41575
0.613533
0.459457
4.15148
2.8136
1.20057
0.617643
1.1109
1.81678
1.30592
1.50061
0.0631834
2.13175
1.30174
1.03524
4.47389
1.90396
0.459625
0.681658
0.859492
1.92225
1.77229
1.64828
1.55438
3.63485
2.0527
4.24269
2.43765
2.0903
1.08182
0.532577
2.06317
2.41481
2.05074
2.47661
1.30857
0.767007
0.407678
0.179497
1.65372
0.625506
0.719631
0.579475
1.92171
0.371652
0.77838
3.8168
2.65571
0.494256
1.79799
0.894403
1.0906
2.67697
1.15014
0.583574
0.789442
0.997251
0.754029
0.300533
1.02401
0.558016
1.42845
2.66475
0.370521
1.2352
0.455685
1.19391
1.9173
2.04704
1.20282
1.08342
1.42453
1.30133
0.474072
0.980647
3.13646
0.150144
2.17231
6.17449
0.748843
2.25259
2.71817
0.265382
0.923347
0.91232
0.146641
0.3415
0.775528
0.224587
1.01859
1.05545
3.94512
0.258368
1.19587
0.989664
1.91318
1.05951
0.588879
4.76429
0.376948
2.46064
0.739207
1.0197
0.719415
0.967398
1.34962
1.81114
2.03905
1.8632
2.76754
0.827083
3.25154
0.833459
1.312
0.857718
3.16148
1.89891
0.890546
2.74182
2.81048
0.225238
0.695384
1.30619
0.790137
0.464587
1.59536
0.963265
0.586534
1.27471
0.645039
1.13002
1.12185
0.721301
0.470989
4.25639
0.399276
2.27228
0.392963
1.35226
0.884341
0.618966
1.33014
0.739238
3.91649
1.09898
0.393739
1.76237
0.886195
1.03667
0.489638
0.614041
2.33151
0.238822
1.28642
2.63858
5.47502
1.13149
3.79881
2.34346
3.22607
4.28042
1.0526
1.56607
3.68993
3.86943
0.589942
1.11551
0.187411
1.56711
1.02626
2.07996
0.646977
0.500184
0.687913
0.954647
2.43678
1.85548
1.27513
1.53631
0.640253
0.415672
0.507345
1.68063
0.974817
2.79965
0.647566
0.481905
0.386848
0.93245
0.889048
1.0487
0.82371
1.71501
0.834452
0.934507
3.54547
2.63978
2.29559
0.790539
0.814029
0.606893
0.233801
0.173506
1.34206
1.19358
1.14349
3.42523
0.51099
0.564382
4.61436
0.323654
0.920024
0.491204
2.05665
0.526215
1.8885
1.30604
1.56618
0.693706
1.19743
0.649925
2.28138
2.93131
0.201514
1.60698
0.235892
0.412706
3.12027
0.361035
3.93086
0.676913
1.5892
0.24143
0.954873
0.186165
2.61856
0.714457
5.05041
1.46956
1.44426
0.095668
1.16513
1.50166
0.25839
1.51802
1.10078
1.45068
0.271437
1.17237
1.87274
1.13783
1.68028
5.38367
1.83053
1.33355
0.944464
1.97863
0.366839
0.912299
0.82847
14.9571
0.278919
4.37439
0.530239
1.53481
0.980009
0.300345
1.86346
0.553415
0.2927
2.88225
0.721197
1.54538
1.31607
0.913064
0.428389
2.54127
0.549732
0.816087
5.04695
0.55939
1.00948
0.110525
0.856289
0.464767
1.8499
1.20785
0.887095
4.59838
1.78884
1.02552
0.515138
1.8277
1.33849
1.98075
0.370646
2.69439
2.82095
0.436223
1.32103
0.287704
1.50828
2.09838
0.443654
1.64273
1.33719
1.17816
1.46024
4.76763
1.43391
1.48711
1.33915
3.27246
3.30023
1.74456
0.799207
0.289377
2.21039
2.02369
2.16508
3.54211
5.40037
1.32451
0.417965
1.45987
2.29005
1.96935
4.59171
1.39367
1.12224
0.430926
5.94273
2.76017
1.61849
2.47636
1.06647
0.358051
1.8297
0.80447
0.798653
1.42971
1.19955
4.50368
3.62296
1.97139
3.45194
0.780137
0.969278
1.8937
1.07144
0.130884
1.23377
2.46915
0.63623
1.04753
0.660804
1.04712
1.81076
3.5821
0.844551
2.14604
1.26347
1.33944
0.159242
1.02741
0.458124
0.826362
1.34865
2.05138
3.11444
1.65999
0.767203
0.139403
1.04786
0.360647
1.9848
0.931227
1.20309
1.28007
0.645876
0.388085
0.522499
0.408197
0.127645
0.412309
4.42614
0.70321
1.32909
0.854031
1.62486
4.42768
1.45977
6.67704
1.43385
2.16994
0.770814
3.15426
1.75901
5.2188
0.876862
1.9268
0.640615
0.594222
2.04762
0.662545
0.912231
1.66435
0.589475
0.0603832
1.03696
1.35712
0.928558
2.77328
0.998299
0.408167
0.648798
0.749798
2.01261
0.606024
1.55641
0.403779
2.39433
0.371203
0.761484
1.63826
5.1772
0.437185
0.363745
0.260386
6.28889
0.455233
0.129661
0.606375
0.660123
0.774686
1.59756
0.428396
2.98336
0.668782
0.393756
1.18687
1.49543
0.295304
1.19138
0.273531
0.90356
2.77774
1.31657
0.211551
2.67074
0.682052
0.860292
2.14348
1.34064
2.69863
5.25501
2.32394
0.261508
0.392466
10.9039
2.66219
0.709587
1.43076
0.272778
3.20293
0.958688
1.4452
2.53668
0.373221
0.524317
1.62691
0.291665
0.573306
1.55663
3.18518
2.6364
1.20115
1.31168
2.10415
1.46641
0.508552
1.85984
1.10143
0.652971
0.755769
0.4741
0.910244
1.35085
1.03115
1.11288
0.571199
2.22026
4.19529
2.15168
1.67403
0.618631
1.43234
1.02006
0.552996
3.42521
0.50418
0.171416
0.626136
1.40911
1.81212
1.72338
4.32039
0.97722
1.75526
0.340711
0.505959
2.15634
0.521524
0.724
1.13091
1.95052
1.31404
0.530752
1.51877
0.719022
1.34804
0.722814
5.46993
0.439433
1.4012
1.3841
0.497479
3.02499
0.410892
2.5822
0.331037
0.842886
0.289164
1.49129
0.602397
1.15299
1.85577
0.350909
0.976958
4.73196
0.492317
1.66488
0.601598
1.52743
4.12882
0.300183
0.525833
2.55861
1.81992
0.727723
1.51913
0.436541
0.791084
1.65377
0.766724
0.585372
1.6085
2.01833
0.765745
2.69154
0.9071
0.855407
1.55709
1.06186
0.347151
1.7315
1.77531
0.897852
1.12123
0.21827
1.77021
2.27212
3.32643
0.304736
1.27289
1.62393
1.15339
1.14651
1.84703
1.09448
2.30722
2.46161
0.300023
2.7623
0.783885
4.51706
5.44549
0.868986
2.00638
0.377695
1.5234
1.15423
0.549484
0.566955
0.515008
2.00524
3.13201
1.15042
0.734768
0.678118
0.864996
0.179946
1.1517
1.22266
2.54861
1.47928
0.855645
0.966846
2.01126
3.5188
2.35784
0.138967
0.677507
1.15833
8.62848
2.48192
1.71368
0.386735
0.218236
2.28306
0.416016
0.959427
1.20973
0.988241
5.69699
0.65829
1.89513
0.337051
1.5864
1.06448
1.92507
0.715732
1.76215
1.78836
0.893505
1.95313
3.21069
1.69405
1.49762
2.01896
2.81632
0.964938
0.157233
8.01895
2.39949
0.774815
1.55105
0.756507
0.174001
0.490052
1.91974
0.445394
0.933884
0.782165
2.70627
2.31645
2.74122
2.46701
1.34337
0.757854
3.01415
0.219671
0.780986
0.685138
0.534351
1.14421
0.935986
0.493543
0.201509
0.973153
0.740931
0.318658
1.2221
1.32132
0.89482
0.177614
0.359037
1.51371
0.439577
0.287516
2.88257
0.313785
0.535648
0.336313
1.13571
0.749646
1.00746
1.78092
0.970502
0.398537
7.67027
0.795606
0.583929
3.5764
0.541751
0.352046
2.35751
0.452958
3.25916
2.40513
7.20087
2.05816
1.07217
2.5967
0.6647
2.7392
0.73411
0.789195
2.61045
0.879179
1.33108
1.99705
1.00937
0.645262
1.49925
7.28736
1.35512
1.29858
10.5454
1.60907
0.514991
0.419237
0.969514
0.700988
0.879364
1.88546
2.86399
1.82562
1.33913
3.36856
2.59019
1.71288
0.7968
0.484402
2.77703
1.74543
3.72222
0.801939
1.20506
1.59214
3.59824
1.08466
0.754314
1.30791
0.542107
0.943705
0.411654
0.370468
0.657523
0.724621
0.68351
1.40933
1.72636
0.796959
0.869511
0.496508
0.746578
0.535767
1.49727
2.40656
0.89415
2.12451
2.6784
3.5468
2.30497
0.355072
0.290595
0.283174
1.33623
1.702
3.72367
1.35553
3.8343
1.56273
1.1981
1.34979
0.616842
2.13239
0.859826
0.777483
0.37239
3.34064
4.04197
1.79587
1.15977
3.04243
1.90894
0.234495
1.39782
1.77379
1.46518
0.831488
1.10216
1.18238
1.09484
2.5098
2.03471
0.720778
0.960975
2.53603
0.370703
1.90093
0.858664
0.525961
1.60609
1.60613
7.03576
1.62721
0.327818
2.48352
0.335878
1.14209
0.880947
0.666295
1.74173
1.61778
0.713525
1.38251
1.84315
4.48296
2.65812
0.664216
2.63083
0.933893
1.40421
0.809049
0.638046
0.277277
1.58626
3.57513
3.85342
1.97346
2.77689
1.28815
3.24013
0.709562
4.21121
0.715893
0.503288
1.14159
0.947868
2.4092
2.39005
0.812307
0.739038
0.242033
0.769679
1.93829
2.3039
0.081824
1.86642
0.411548
1.30537
0.617952
0.631258
1.17433
0.288143
0.645648
1.61502
0.51116
4.08266
1.46922
3.16523
1.23005
1.59922
2.19578
2.49187
1.02684
2.30034
0.340552
1.01841
0.57443
1.82243
1.71734
4.38372
1.09691
0.930621
3.68415
1.02315
1.07222
1.87605
0.663801
4.04017
0.837032
1.18622
1.21186
0.907036
1.38017
0.575359
2.51852
0.14517
1.36774
1.47624
1.35998
1.92143
1.20095
3.14007
1.12471
1.02791
1.02246
1.06198
1.21837
3.08617
1.91893
2.49809
1.84555
3.40094
0.389708
1.66139
1.89995
0.666027
0.241477
0.753829
0.418541
2.44304
6.28071
1.26747
0.826957
4.08331
1.75682
1.49297
1.09556
0.412132
1.76059
0.604075
1.72638
1.77972
1.20377
1.73204
3.34303
0.872157
0.465802
1.40515
0.4302
0.134775
0.843855
0.771343
2.04457
0.185925
2.00796
4.01244
1.80026
1.37318
1.54416
1.18461
0.33845
0.50085
0.772803
2.89411
1.41532
0.353208
1.4915
0.260221
0.818484
10.4504
0.356008
1.06485
1.50463
0.400913
0.907022
0.893172
4.08295
0.657247
4.61064
0.435668
0.760808
0.64228
0.616409
1.44218
5.52419
2.708
0.571336
0.920646
2.97325
0.296503
0.396732
1.40052
1.79299
0.495356
0.580361
1.49666
1.05043
0.442984
3.28729
1.6004
2.63852
2.34341
2.72296
0.521548
2.3677
2.10023
1.93064
2.47409
0.669972
4.57001
2.37942
0.73382
0.80168
2.72653
1.59927
1.31986
0.787996
0.984333
0.693396
4.43351
3.27607
0.740924
5.90162
1.88519
0.335947
0.880755
3.59079
1.41555
0.373584
3.19118
0.31874
0.536429
2.68567
0.936835
0.556159
2.82144
1.83085
1.28007
0.446669
1.04001
0.868578
0.504475
0.291003
1.71915
1.1887
0.175446
2.76622
1.18594
1.81578
1.25594
2.58595
1.19701
0.142143
1.27255
0.870448
4.76789
1.063
0.345593
1.02924
2.72362
1.51898
0.100068
1.7354
1.19959
1.82051
2.07072
1.44227
1.62011
1.71935
1.60403
0.567255
1.28964
2.06397
2.01818
0.7915
0.615312
1.20716
0.822903
0.956005
3.3112
0.968075
0.219457
1.05577
1.85457
2.49034
0.984301
0.560238
0.548087
4.66103
1.61913
1.45562
0.603254
0.577325
0.558422
2.00306
0.409115
1.60867
0.420403
0.511589
0.694103
1.02549
0.875688
0.444815
0.339759
0.706898
1.37528
1.42256
1.8387
1.94543
0.771213
1.58262
0.410196
0.642987
0.600704
0.825615
3.14061
0.859574
0.729243
1.90706
3.04067
4.30141
1.22785
0.766291
0.567737
1.37497
1.73342
1.30727
0.353652
1.46018
0.235521
1.26873
0.90869
2.25321
1.35624
0.637131
0.259909
1.63539
0.597786
2.71577
0.732865
0.482903
0.407641
2.11294
2.87265
0.78455
3.03592
1.27281
1.13497
3.93851
2.23878
2.85377
6.44064
1.88435
0.374827
0.498614
1.6571
2.69425
0.399606
4.57587
1.34574
2.74946
0.473244
1.25536
0.960313
3.96816
0.334916
1.92347
2.68792
1.07995
3.28412
2.07742
0.989601
4.32664
0.695295
0.819054
0.526773
2.41666
2.74336
1.53651
2.89509
0.849532
3.80958
1.90185
1.20687
0.514548
2.84009
1.30099
2.02753
2.46257
0.86876
0.34306
2.73872
3.23966
1.33199
0.712862
0.469776
1.25365
0.288155
1.44315
0.369172
5.52672
1.2162
1.85155
2.30494
1.104
1.84977
5.12681
1.20153
1.85065
4.58852
1.7846
0.429541
0.650919
1.06723
0.358089
0.374186
1.66638
0.778474
1.84607
0.695795
0.389191
1.21914
2.22982
3.93139
1.36559
4.5143
2.1265
0.457617
1.00889
1.00597
2.36373
5.07813
0.965343
0.480802
0.580579
1.581
1.56995
0.569218
0.953129
1.31398
0.186754
1.43662
1.95858
1.90228
0.255622
1.66658
2.93972
0.57985
2.11356
1.02437
0.879483
0.34843
0.56732
1.26127
0.267788
0.280418
2.00566
4.75169
0.347915
0.730888
0.121222
0.954817
0.583892
1.31754
3.53192
0.780982
1.6342
1.86925
0.683731
1.15142
1.66241
0.369504
2.01074
0.327173
0.4884
0.437347
0.85285
0.901156
2.46443
1.90186
3.96406
0.688348
0.113777
0.741049
0.464469
1.02319
0.734187
1.14051
2.97885
0.303769
0.293074
1.15142
0.571893
2.01493
0.488409
4.02806
0.500721
0.60426
0.665623
2.33133
0.408087
1.45925
0.527112
1.58954
1.47757
0.589349
1.15374
0.799613
1.70952
1.50874
1.37985
0.770944
0.272248
0.568953
1.66472
1.06458
1.01978
1.22722
0.630928
0.858364
4.07941
0.63054
0.573346
1.90328
0.773309
0.546986
3.57376
2.21928
0.346851
1.04559
1.46505
3.27383
0.743974
1.68371
1.16984
0.580432
0.962467
0.845881
0.43256
7.32934
0.261819
0.548917
0.877358
3.02718
0.209059
1.6105
2.64911
7.43959
2.78028
0.611575
0.729311
3.8098
0.624558
4.07883
0.386015
1.43813
1.73004
1.62623
2.35416
4.6749
1.47567
0.506653
1.17256
1.64166
0.254736
0.949492
0.986347
0.208412
4.5413
1.74165
1.45329
1.41536
0.445035
1.08744
0.722382
0.492437
1.00312
1.10757
0.283821
3.72314
0.505849
2.57597
0.953635
0.851267
0.443206
1.87286
0.493819
0.111651
3.96092
1.43005
0.771353
0.584525
0.556966
0.42356
1.06057
1.97644
0.244393
0.580063
2.26141
0.780584
4.58497
2.13746
1.6926
3.49688
3.85585
0.354622
0.359905
0.198343
4.15517
1.87175
0.829856
0.548292
2.85396
0.919608
2.09994
0.286998
1.2106
0.694884
1.1972
0.485839
2.50991
0.677209
1.13119
1.10188
0.553842
1.83922
2.96586
0.451637
4.3086
1.18933
1.76998
0.789725
0.643725
0.421155
0.229585
1.64601
1.0947
1.27913
0.155661
4.33652
1.83519
0.702597
1.95346
0.267446
0.451917
3.85334
2.55403
1.12288
0.901127
2.51993
0.140563
4.2977
2.76832
0.570402
2.62965
1.07967
0.179137
0.311121
0.139007
0.612169
0.414583
1.20378
2.15559
0.406596
2.76872
0.869384
0.939942
2.38641
0.516157
1.06746
0.267542
1.21079
0.755944
0.399676
0.678333
1.32423
1.97721
0.217031
0.293647
2.35734
3.90439
2.04579
0.71119
1.58627
1.21271
1.54417
1.82397
1.48639
4.27065
1.61055
0.901014
2.89853
3.15056
1.57497
1.04763
1.5711
2.83911
0.87531
0.724404
3.68138
2.50326
0.523891
1.63172
0.259757
1.68733
0.769984
0.852889
2.64179
0.401911
1.02784
0.426906
0.824853
0.831973
0.477794
0.113113
1.43065
1.336
2.93152
0.576709
4.89558
2.01153
1.85979
1.68404
5.1561
3.26604
0.258948
0.684364
2.88122
0.785344
3.97357
0.764197
5.643
2.29767
3.68762
3.59244
0.409659
0.80581
2.67053
2.13472
0.88794
0.259611
0.441665
1.36737
2.98191
0.409564
0.362699
1.1992
0.868776
1.41611
0.777159
0.133182
0.426004
1.0096
1.32383
1.19271
1.05258
1.97821
0.41515
0.476587
3.93356
0.213448
0.549486
1.97488
2.24126
1.06513
1.38056
0.095243
3.3302
0.189045
1.01093
2.38579
1.51979
0.800908
1.1796
1.64361
1.38444
0.674003
1.70541
1.11429
0.239744
0.755483
2.78483
0.543054
1.43313
2.13942
2.16748
0.777855
0.54389
1.17448
0.815624
2.11413
0.447528
1.3838
1.08871
1.47299
0.991772
0.518056
0.850177
1.02834
1.06781
1.38324
1.81799
2.02841
1.63521
0.750322
4.55043
2.22029
1.65349
2.66212
1.3128
0.920688
0.452666
5.80399
2.06894
0.988474
0.383496
0.438939
2.20844
0.7185
2.05367
1.7967
1.17427
0.645341
1.13276
0.834064
1.50687
2.71707
1.8891
0.813456
1.88709
0.186458
0.582336
1.49784
4.18754
0.58473
1.69731
0.523709
1.28849
2.78293
0.539342
1.35659
0.255731
0.650457
1.20726
2.19905
3.88409
0.127758
0.655369
1.2705
1.01099
2.5748
0.263324
2.01715
4.46796
4.27581
2.97726
0.773723
1.74047
5.00551
2.75109
0.857649
1.70168
1.48831
1.23523
3.26807
0.54547
1.75359
0.952904
1.06449
2.2111
0.892499
3.44985
0.202169
0.369134
4.75709
2.60368
5.13534
2.5189
0.240185
1.52331
1.50304
1.01738
1.02462
1.31069
0.394649
2.53684
0.845733
5.27159
2.07377
0.681943
0.425499
1.77603
1.93133
0.478291
1.10072
0.263918
1.50654
0.654632
0.766671
0.135716
2.80955
2.8374
0.432628
1.4369
3.64685
8.48093
2.19057
0.557658
1.39561
0.856031
0.918006
2.18945
0.218701
1.04526
0.951161
0.827621
0.253929
2.44851
0.172822
1.67023
4.14057
2.50667
1.22782
0.308183
1.17961
1.06343
1.59981
1.59917
0.819795
1.02916
1.52057
0.896276
2.93401
0.219388
1.40408
0.969712
0.885152
0.273174
0.255611
0.998195
0.435235
1.62948
0.354652
3.0685
2.38589
1.08757
0.112044
5.01408
0.633966
1.9667
0.793379
0.837753
4.78167
0.983624
1.33275
3.32973
2.59123
3.46054
3.20888
2.24819
0.638361
1.26803
0.40359
2.30767
1.47942
1.02733
2.31136
0.495369
0.302363
2.01185
1.83011
0.580344
0.233801
0.469923
0.838269
0.323894
0.600119
1.46104
1.13098
1.07648
0.840264
0.266995
0.987787
1.37614
1.81449
3.51972
1.20048
0.93455
1.82575
1.93516
2.13302
1.11671
1.68159
0.297264
1.3979
0.721375
3.23562
0.836661
2.34252
0.458715
1.01974
0.21728
2.28948
4.77766
0.56568
0.956963
1.44902
1.18328
2.61629
1.38691
1.04275
2.64341
3.13202
3.48157
1.0948
2.01394
0.465133
2.69505
2.58326
1.49981
0.790761
0.889833
1.21698
1.082
0.66805
0.483253
1.01562
1.66977
2.10709
2.67689
1.46139
0.839062
1.66197
1.27469
0.955034
3.562
1.53245
1.74744
1.43423
2.04879
2.32171
1.60277
1.15954
0.622684
0.704325
1.08044
0.909291
0.670765
1.12207
2.68142
1.04467
0.87135
4.62333
2.01306
0.233411
1.19184
2.79977
0.578009
1.63173
2.21934
2.55782
1.48065
0.510573
0.967238
1.86978
1.09903
0.803672
0.469938
1.47
0.795861
1.48702
1.009
0.808562
1.55106
0.770009
2.48574
2.21165
0.170994
4.63491
0.690699
2.8296
1.41916
2.04064
1.54787
1.32164
4.53517
3.67627
2.76334
3.81092
0.750499
1.00373
1.69772
1.21436
2.41916
0.732894
1.40392
0.392708
0.437338
1.56767
1.15531
0.475547
1.36562
0.159084
0.692076
1.03744
4.00859
2.26093
2.05602
1.82857
0.36357
2.11202
4.48195
1.4182
0.360725
1.47257
0.237303
1.51589
1.10331
0.369714
0.740418
4.65406
0.84645
1.93398
1.92012
1.75744
0.799745
1.22005
0.286138
0.185299
1.10757
1.70599
1.07155
0.157617
1.21461
1.33563
0.286257
0.387788
1.23573
2.11516
1.18594
1.0008
0.204986
2.27245
0.136591
0.467192
3.99816
0.367905
1.43395
0.111785
1.70775
0.52478
0.563698
0.974395
1.67171
4.79718
2.2007
0.68996
0.236928
1.35523
0.845392
0.246985
1.54756
0.608836
1.01288
0.327532
5.80101
1.40473
0.559702
1.77113
1.59557
0.644134
0.642915
0.686482
0.923531
1.08511
3.63695
0.949423
1.78524
1.48086
3.63228
1.99803
1.5084
0.634582
1.48314
3.15293
0.51268
0.526922
6.71778
0.515579
1.82568
0.699959
0.574542
2.48966
2.66608
1.64349
1.54468
0.672491
2.36869
3.06847
2.51684
5.60575
6.07689
0.935129
1.28094
3.75806
2.68675
0.214991
1.52225
2.10912
0.362688
1.75916
0.622235
2.1035
2.64794
1.36326
1.1515
1.35475
0.647008
0.700259
0.959032
1.46422
0.904366
0.868937
1.24177
2.1893
1.62761
0.66905
0.977193
1.61458
1.91076
1.49621
4.73875
1.22042
0.306814
0.224273
0.934893
0.994908
0.130378
1.29159
0.987368
3.34023
3.69466
1.32004
1.33451
3.91696
0.441646
1.69505
0.715082
9.17846
5.58672
1.72517
0.784878
2.52272
1.06398
0.633989
3.42902
3.34673
0.435754
0.889011
1.86817
0.788288
1.19309
0.853753
0.776086
0.809572
0.872682
2.92081
1.37962
2.05255
0.756981
1.12135
0.814812
1.15391
0.538253
4.03992
0.47981
1.69505
1.03557
0.752333
4.45373
2.05875
0.320268
1.91857
1.48109
0.211432
0.244233
1.57842
0.862171
0.490553
0.511209
0.901041
0.517095
0.52373
0.561768
0.687351
2.86774
0.66274
4.31024
1.13671
0.482042
1.61255
0.139663
0.907004
0.495248
0.989111
0.986668
0.9156
0.596579
0.790625
1.73819
1.97103
0.511728
1.69156
3.30442
3.03039
1.8844
0.990944
0.6348
1.10628
1.17138
1.72133
2.11693
0.463307
0.799854
0.986765
1.45337
1.65647
3.40277
0.393088
1.73578
0.932488
1.38184
2.51252
0.40844
1.75894
0.97219
5.12163
0.7392
1.43102
1.09107
1.01392
2.78811
1.25142
0.445803
2.30896
0.819391
1.47278
0.595849
0.197593
0.647092
0.799734
2.57342
4.55583
1.92223
0.758674
1.23026
0.129472
2.04217
1.55845
0.752744
0.206475
1.10079
0.617782
0.864389
0.952936
4.66548
1.67065
3.85051
1.63353
0.255847
2.03144
1.58972
1.10264
0.460682
5.02148
1.29439
0.476902
0.216568
0.141489
0.657742
0.719498
0.468904
1.05832
2.29236
0.136254
2.25777
6.50562
0.882288
0.2923
2.34273
1.51306
0.421499
0.403177
0.718506
0.909941
2.27424
6.25443
0.968325
1.95349
1.2581
2.22581
0.851139
3.68797
2.69943
2.6624
0.48466
0.579093
4.41233
1.53019
1.09345
1.23164
0.460813
0.45031
0.810853
2.61514
0.842974
3.73342
0.475692
0.8076
3.95587
0.273412
8.3275
0.200437
0.461424
1.98217
2.16753
1.65805
0.181547
3.72845
0.652032
0.881227
2.86924
0.840906
0.681951
0.76889
1.09845
0.770815
3.86435
0.507422
2.52645
0.959679
0.233973
4.25971
1.79676
1.72662
1.15637
2.04081
1.36578
0.985232
0.847637
4.84778
0.409501
1.3668
3.19599
1.29372
0.420854
0.746307
2.54343
1.55816
2.02708
0.551206
3.28638
0.822071
1.42478
4.62555
0.22566
1.06151
0.929487
0.350961
0.283118
0.918829
0.967708
1.43633
1.3948
0.943806
2.90696
1.36361
3.42922
1.60785
1.32281
1.27341
0.624131
1.02731
0.786101
1.11356
0.608089
0.839742
0.580461
0.662089
0.251653
1.4518
0.692059
0.662608
1.96993
1.85213
1.38203
1.6934
2.00512
0.274743
0.173843
5.50406
0.415318
1.68803
3.56619
1.38081
0.161124
1.58823
0.747772
0.213487
1.56691
3.44777
0.185409
0.476967
0.413821
1.01682
2.50593
1.14408
0.725333
0.270338
0.662857
0.464383
0.718618
0.548862
0.403967
0.410095
1.10082
1.96811
1.44678
0.809602
1.56682
1.98442
1.31813
0.269394
0.756651
1.69015
0.502698
0.4751
4.65613
1.57333
0.463224
0.957537
1.12068
2.18768
3.46619
1.5523
1.74244
0.68727
0.467196
1.58543
1.35306
1.98815
1.76216
0.593323
0.890319
1.19887
0.46156
0.99025
2.60149
1.01995
0.422765
0.602969
1.56266
0.856524
3.09047
1.54132
1.38833
0.731783
0.173074
2.32122
0.748999
2.28532
0.839518
2.77717
2.74524
0.424749
2.94934
1.03205
1.65345
0.39952
0.887559
0.42132
0.956268
2.39988
1.76271
0.285978
0.274506
1.5735
0.409837
0.390123
0.869808
2.81601
1.06385
0.508798
1.14601
1.43983
1.13245
1.3251
0.400711
0.591488
2.07981
0.58287
1.12088
0.339327
1.22361
1.89036
4.04067
0.261599
3.12599
2.17155
0.244286
2.13645
2.04379
0.663766
1.71407
0.852722
4.26723
1.31161
1.43616
2.1181
0.246835
0.18897
0.273818
1.54805
0.744248
2.04862
0.358606
0.696121
0.561192
0.213574
1.62129
1.27729
1.14178
3.30303
2.84022
0.506845
2.0775
2.43514
1.71156
0.419608
3.46015
4.9923
3.88703
1.8119
1.04161
1.89337
0.890203
1.15995
0.318909
2.12736
0.584628
0.369602
0.551806
4.2589
3.20733
0.34057
2.08202
0.941154
4.02217
0.0490496
1.43616
1.60475
4.54743
0.730139
1.63002
1.04288
5.20663
1.57582
0.163206
0.393414
0.210871
2.20999
1.17018
4.2597
0.681609
0.372741
1.43647
0.223464
0.458169
0.677536
0.839049
0.704013
1.95401
1.39439
1.90682
0.967155
1.73229
0.842784
1.06182
1.02954
0.484038
0.414346
0.99466
1.15919
0.880277
0.850197
1.18783
2.56226
0.970057
0.726719
0.511339
3.10374
1.73019
1.39643
2.34293
0.891275
0.641867
1.3033
4.17734
0.358835
1.41379
1.48785
3.6191
0.692661
2.65828
2.65414
0.736112
0.877295
0.627482
2.7828
1.37154
1.38577
0.825007
1.60338
1.80216
0.886048
1.01108
0.488151
5.32145
3.7055
1.92236
1.33509
1.22784
3.31591
2.08189
0.437287
0.228936
2.57986
1.14396
0.640767
0.810186
2.48854
1.26235
1.35862
0.351817
1.59633
0.759816
0.730762
0.49968
2.31041
2.20985
0.645934
3.5556
1.26382
2.46592
3.57351
2.20581
3.94858
3.74423
1.51533
0.754296
1.48104
0.89511
1.29977
4.15784
3.16799
0.39706
0.471633
0.318983
1.71548
3.57667
0.889422
2.74272
2.80111
3.2365
0.283891
0.30603
0.232111
0.419955
0.430653
1.35453
1.45057
1.43785
1.54801
3.35114
1.28236
2.63473
0.229305
0.916364
2.28763
1.01321
2.28184
1.37466
0.676265
0.485141
0.579307
0.279347
0.461011
1.86183
0.490137
0.236099
0.766528
0.14475
1.92178
0.295557
2.00307
0.791765
1.3928
3.50029
0.38751
3.23368
0.195382
1.50933
2.03609
0.760044
0.73259
1.30389
0.346354
1.35185
0.599817
0.31419
1.07734
0.4443
2.05776
1.522
0.249998
2.2541
1.68543
1.79541
0.688506
0.548961
3.19666
1.04537
1.36976
0.739825
1.49189
0.204254
2.46056
0.56856
2.40331
0.634108
0.790123
1.21972
0.506967
1.59444
0.900331
2.43656
2.09082
1.26233
0.620144
1.93966
2.22369
0.853384
0.562723
3.24395
0.389267
2.823
0.15126
1.05833
1.42066
1.03553
1.57327
1.13036
1.11924
0.802428
1.20473
0.666519
0.16381
1.59202
1.77316
2.12222
0.842651
2.31041
2.03642
1.19343
2.48539
2.32045
0.276642
0.376448
1.82214
1.30609
0.948826
0.679341
0.517372
1.98461
0.464778
0.510324
5.19687
2.20267
0.817672
2.77887
1.27239
1.54833
0.378374
1.68675
0.653484
0.875822
1.31549
2.30443
1.54127
6.79849
0.469798
1.69791
0.330929
0.757104
2.54197
3.57461
1.70203
0.50824
0.453391
0.46596
2.59379
0.514848
0.660998
2.74476
0.523406
0.452606
0.958452
3.24441
0.945637
5.39002
1.92073
0.441116
1.15551
1.35028
3.98712
0.760544
3.00019
1.44555
2.92917
1.53401
0.838936
1.07426
1.64174
0.494259
3.32202
0.803827
2.38119
0.734977
1.69211
0.448711
2.15908
0.468736
1.18994
1.54175
0.59969
1.37104
0.936821
1.43937
0.44257
0.628435
2.60241
0.621763
0.971676
0.386112
1.84445
2.94835
5.54236
1.33143
2.94115
5.42903
2.03097
2.50021
0.243608
2.58922
0.431829
1.02534
0.660019
0.690101
0.392558
0.420381
1.05865
0.221131
0.463147
2.68657
4.76996
0.644093
0.334134
1.96972
0.925512
3.46989
0.896496
1.48715
0.378169
3.41316
1.65647
0.938626
1.93459
2.78141
1.41538
1.34566
1.56214
0.944699
0.353029
1.7439
0.195115
0.194989
1.07767
2.10697
0.610682
0.227951
0.159404
2.78634
0.184308
0.549676
1.54631
1.21009
1.00286
1.7486
3.10861
2.01997
1.09126
0.841182
3.83186
1.13413
0.850796
1.24146
2.33804
2.62395
1.17453
1.493
0.967488
0.18442
1.95059
1.56444
0.862802
6.74086
0.375115
2.29834
1.6702
0.802738
2.74289
0.36814
1.68447
0.192444
2.45971
0.898123
1.61725
0.266392
0.649459
0.74714
1.284
3.67463
2.32411
0.72803
0.485961
1.89669
1.4561
0.699371
0.394454
0.431369
1.5092
2.03929
1.01219
1.15247
0.481846
0.694105
1.82411
0.835033
2.24807
0.792251
1.26008
1.10823
0.785112
3.67473
1.79
1.45079
3.33668
0.412888
2.97854
7.8095
3.73553
0.963008
2.6837
1.19326
3.54026
3.72215
0.71401
1.32343
3.44758
0.695483
1.2153
0.172015
1.55571
0.393134
4.23845
4.06522
1.21261
1.86234
2.11526
0.367574
0.45125
0.633975
0.942034
1.47173
1.12886
0.77752
2.12776
3.27812
2.37676
0.810813
1.89407
1.38853
5.35861
1.60015
0.986869
0.713404
0.572368
1.11537
0.738383
0.425854
0.54574
0.118809
1.66617
0.732193
3.1909
0.820846
2.19733
0.418699
2.01773
2.63936
0.753167
2.38032
0.962906
2.42554
1.10173
0.189137
0.660287
1.32763
1.08045
1.01239
0.155762
3.2752
2.73237
0.198452
2.56438
0.950668
0.833979
2.14823
1.50636
1.03391
0.299336
0.310187
0.481025
0.851359
0.269693
1.6701
1.38403
5.72088
1.1199
1.09405
1.52397
0.860703
0.734303
1.57515
0.584832
1.47756
0.658685
0.91066
0.425226
1.96145
1.82078
1.64723
1.39929
0.588345
0.565371
1.50506
1.97918
2.27495
1.23329
6.15915
0.831798
0.701101
1.67673
2.83132
0.279302
0.627527
1.03182
3.69196
0.520168
0.311836
0.462754
1.4869
2.75391
1.5142
2.09032
0.587332
0.420522
0.270024
1.3094
0.203382
4.30405
3.07797
1.22003
1.45118
3.66837
1.46333
1.53568
0.371795
0.464755
2.8538
1.25593
0.713112
0.857848
2.52576
0.216447
4.44691
1.13929
2.05774
0.273165
3.9518
0.632149
3.90232
0.211861
0.564672
1.26986
0.368683
3.58297
2.71976
1.69397
1.09738
2.23488
1.1557
1.62031
2.72451
0.910822
0.172002
1.98767
0.344673
1.17485
5.35093
0.933967
2.11125
0.432182
0.279434
0.465459
1.21402
0.843741
2.43213
0.91775
0.893346
0.178508
0.960019
0.357557
4.15622
1.54143
1.74283
1.84929
0.835446
2.87327
1.13771
2.72396
0.866913
0.834973
1.40702
1.86541
2.19542
1.36734
0.985497
0.176331
0.165161
0.489632
2.02379
0.336985
1.4759
1.26316
0.70257
0.366871
0.231245
1.93656
2.91719
1.43368
1.2798
1.45009
0.436643
1.19118
2.79663
2.95315
0.243676
2.54913
6.14637
1.35256
3.03172
0.326219
5.70994
1.01192
2.33986
3.00979
2.24308
0.594119
0.662873
1.40543
3.68318
0.583798
0.405243
0.114032
0.19689
1.2782
0.411449
0.402627
2.27126
1.47178
1.26888
2.8348
2.02962
1.2752
0.560112
1.99924
0.353978
0.966556
2.99579
1.10393
0.407128
5.71166
3.88866
1.32872
1.76984
0.730882
1.16502
2.88962
0.403137
2.45004
0.574128
0.646163
0.465732
1.36871
0.496861
2.27481
0.683573
2.43235
0.73788
2.67136
1.63685
0.964339
1.18728
1.07364
1.37286
0.529138
2.19994
1.04364
1.28962
3.13975
0.40583
2.80082
0.375627
2.8826
1.26333
2.0796
1.54005
3.48479
0.086311
2.35356
1.44358
0.554142
1.4431
2.01383
3.08905
1.22446
0.202454
1.54606
1.34133
1.34907
0.820542
1.87633
0.99978
1.32654
1.47039
0.241614
2.79162
1.1877
0.826856
0.612053
5.00563
0.800937
1.95936
0.159815
2.39579
1.40714
0.784637
0.248558
1.7541
0.347295
2.68431
3.21622
3.99822
2.89947
0.880284
2.32542
0.828535
7.39082
0.713801
0.20144
1.72464
0.420423
1.4874
1.37564
1.27032
3.45407
0.655985
1.22941
1.47848
0.378843
5.55678
1.07236
4.62068
0.999333
4.0251
0.549618
1.36606
1.6174
0.10434
0.706878
0.203535
0.82865
0.665135
1.0831
1.12399
2.21372
2.16672
2.32014
2.65437
5.4097
0.905119
0.642363
2.62948
1.55734
0.716969
1.49736
1.16138
3.46861
2.0293
0.554157
2.54959
2.69305
1.90737
0.629414
3.1788
0.252928
0.17225
1.57005
0.397535
0.862735
0.494621
2.04238
1.58964
0.966985
1.44308
1.8512
0.237795
3.67203
4.56917
1.20007
0.498362
0.433774
1.51753
1.18161
0.597401
0.663799
3.28199
2.00361
0.759184
0.360071
0.85374
0.124769
0.77433
1.08313
0.667859
1.88902
0.889251
0.187853
2.3444
1.3505
1.50111
2.56306
4.24723
0.963886
0.930934
0.465897
1.41328
1.11988
0.928344
4.09773
1.10764
3.60315
0.723616
1.47031
0.452125
4.59302
1.37393
0.572769
1.58821
2.5871
0.708464
0.859531
1.88932
4.75082
0.550243
1.65025
0.574705
0.0717894
1.43444
2.73404
0.135378
1.78862
1.25753
5.00827
0.470701
1.0981
0.938437
0.270009
0.866374
2.32321
2.30575
6.17249
0.574402
2.23182
0.962806
2.47987
0.992302
0.549559
0.726244
6.67229
1.50051
5.85748
1.05031
1.56399
3.41768
2.6148
0.706528
1.01687
3.23776
6.74497
2.76174
1.20344
1.48277
0.848617
0.961811
0.654696
1.26057
0.727837
0.517309
0.168694
0.860439
4.83413
2.63618
0.796968
0.599197
3.30275
0.503178
1.79122
1.98024
1.56528
1.07795
1.88965
0.856316
1.12704
2.01312
1.03496
1.08551
3.10666
0.740457
0.965923
2.71637
2.51121
0.31346
0.346918
1.2338
1.21642
0.356226
1.66254
0.998231
0.713608
0.623551
0.705374
0.463407
3.77625
1.03359
1.26726
0.900641
0.644368
2.68376
1.20406
8.05485
1.41229
1.01958
2.03388
2.68761
1.6729
1.38527
1.75255
0.509906
0.495393
0.712213
0.412852
0.704284
1.01266
0.423257
0.132514
1.1332
1.27898
1.08022
1.16668
0.988636
0.813644
1.03562
4.02805
1.63287
1.85626
0.822326
0.0956337
0.449416
3.5783
4.39836
1.42563
3.69062
0.847421
1.66885
0.337248
0.496637
0.450575
0.76665
2.104
0.432032
0.655055
0.905742
0.771299
0.851703
1.18617
1.46446
0.207986
0.19247
0.266493
0.170621
1.22123
1.25358
1.06152
5.81148
7.57427
1.88359
1.89597
1.48368
1.81142
1.6543
1.4058
0.332128
1.11453
0.456033
0.634424
1.50348
1.46892
0.926953
2.85432
1.7612
1.55557
0.818898
1.2252
2.57443
0.861275
2.21984
2.45992
2.38783
1.50488
0.273118
1.1298
0.462649
0.247465
1.70242
1.13533
1.53018
4.7248
0.2788
0.35275
0.216258
3.32609
0.395316
1.28682
0.185102
1.72668
3.39269
0.456371
1.7973
1.49204
0.595352
3.13979
1.75919
0.636097
0.45869
0.504239
1.10953
0.264078
2.90384
1.35563
1.18246
3.23349
0.584454
1.36806
0.624137
0.902804
7.0808
1.12742
1.73196
0.437084
0.41808
2.60259
1.50948
1.89016
3.24024
0.466015
2.29218
1.63711
0.85613
2.08451
2.51339
2.08963
0.691371
1.0001
0.912838
2.85994
0.892113
1.66967
0.546805
2.66747
0.92981
0.291296
2.81991
0.633229
2.2993
1.36355
4.12033
1.08058
1.314
1.59813
1.65239
0.811672
0.826457
1.44357
1.79499
0.331715
0.615851
2.33271
0.715986
0.64246
0.620859
0.583412
1.43629
0.849926
0.124739
1.41379
0.570606
0.625
0.733646
2.49647
0.185958
0.365798
0.159132
0.597195
0.133374
1.9968
3.93422
1.09407
2.04606
3.74966
2.64323
0.453848
1.36165
0.578973
0.24545
1.30595
1.39678
6.60796
1.81378
6.36603
0.527518
0.419325
1.57644
1.22981
0.184509
1.29336
2.45295
0.864147
2.83717
0.907342
8.27645
2.88826
0.921173
0.946398
0.319929
1.56348
1.02556
0.9022
0.780002
1.36633
0.911004
1.21171
0.378348
3.16063
0.554451
0.986459
0.0939037
4.12935
0.688626
0.716699
0.129169
1.80472
0.443958
1.23869
1.09031
7.59988
2.31973
2.1804
1.55528
1.71644
0.686775
1.60954
0.211213
0.708333
0.701432
1.8317
1.04035
1.77255
0.525333
2.37579
0.373275
0.368907
1.46507
1.2747
1.46209
1.54562
1.17589
0.181344
0.892911
1.44651
0.851412
0.598922
0.360707
0.753969
0.172294
0.282268
1.59453
3.11545
0.796905
1.6163
0.836192
1.11962
0.263973
0.470268
0.431519
4.30365
0.642288
3.32307
0.250448
1.24083
0.670681
0.942858
6.10424
0.720955
3.60907
2.71504
0.199662
1.18841
0.756832
1.78603
0.624895
0.236255
0.587478
0.475454
0.486519
0.563881
1.75018
0.984595
1.19443
3.36785
1.32911
0.755669
5.24929
0.86342
1.26902
1.90201
1.60495
3.03909
0.5141
0.144173
2.45075
1.02042
0.944722
0.72075
0.506483
0.725209
0.562996
0.204388
0.316946
1.03583
3.70923
1.542
1.76865
1.77617
0.309156
0.58039
0.987235
2.03572
3.21242
3.87966
0.158596
1.73719
1.54517
2.0328
0.662719
0.723884
1.02766
1.00596
1.69893
1.40615
6.98578
1.63273
0.720079
1.41437
0.985241
1.73244
1.19232
3.54981
5.98494
1.17895
0.419368
1.55039
0.822907
2.00882
0.482802
0.748172
2.74693
3.36659
3.50899
1.97165
0.0765593
1.39546
0.229377
0.671982
0.319907
0.614267
4.16139
1.55013
2.9563
1.08434
0.272019
0.538527
1.89601
0.928651
1.68771
0.827308
2.26889
0.982876
1.0987
0.178058
1.31169
2.19455
3.48837
1.0862
0.244607
0.838861
1.38866
1.15171
0.58404
1.43659
1.81006
3.196
3.05674
3.09603
1.51985
1.98932
0.260831
0.716019
1.28905
1.59157
1.92688
0.555683
0.674805
0.732666
0.558878
1.27022
1.0234
0.94039
0.0859728
0.758104
4.66751
0.707657
1.00104
3.53752
1.1075
0.859057
0.145787
1.49696
0.676484
2.68381
0.819015
0.182464
0.40683
0.15852
0.368044
1.5443
4.57136
3.78651
0.833616
2.57356
0.745607
1.15214
3.00009
0.400895
0.744134
2.74204
0.417546
0.371693
0.691315
0.707836
0.880602
0.379107
1.69803
0.286347
4.8286
6.47374
0.348596
4.11443
2.74515
0.547463
1.85418
0.68817
2.0873
5.48887
1.39454
2.39659
1.71815
0.568635
2.96495
0.288792
1.56786
0.717168
1.4657
1.54219
3.78408
0.621985
0.49937
0.774504
0.188956
0.559084
0.463861
0.683371
0.3643
1.3668
0.312557
0.924992
0.677567
0.723962
0.113668
2.45529
0.205184
4.96467
1.96389
0.542205
0.902928
0.721265
2.16582
3.57946
1.55642
0.283314
1.64032
3.10099
3.55915
0.273315
1.93547
0.6997
2.15723
0.770814
4.14009
0.850977
0.0820254
0.530853
0.581111
1.18317
1.81614
1.7433
1.93771
0.0998651
0.957949
2.00323
1.81681
2.02651
2.03498
1.15135
1.42474
0.616024
0.411103
0.571501
1.68881
1.00895
0.261043
1.01838
0.590832
2.22619
1.91317
2.03576
1.80032
0.457888
0.16656
2.21612
0.334374
2.12814
0.226956
0.924717
0.315107
1.04179
0.873999
1.1832
1.48045
0.156784
0.952948
0.377631
1.24905
2.03551
0.298624
1.42164
0.41217
0.860962
0.816324
2.20907
3.30253
1.58362
2.55075
2.53557
1.19278
1.08256
1.34998
1.79142
5.60583
0.25407
0.160785
0.370633
0.473934
1.61188
0.235845
0.569807
1.36822
0.266658
1.03023
0.387837
0.658996
0.856777
6.70599
2.27682
3.84754
1.0017
4.67015
0.724282
0.61684
3.07341
0.98367
6.03128
2.55547
0.203146
1.13026
2.20878
0.297691
0.380031
3.42265
0.527388
0.873482
1.01305
1.54749
1.78091
0.147575
3.04177
1.20576
2.55717
0.592931
0.698596
0.445462
0.954586
1.20732
2.72809
2.571
1.21839
0.251945
0.981901
1.42086
3.69664
0.962166
2.63098
5.32818
0.575299
1.2788
0.496173
0.507326
2.98459
2.2154
1.03802
0.994571
1.66954
1.84467
1.05797
1.3768
0.638017
0.491208
3.93163
1.0444
1.50859
0.366311
0.130376
1.52799
1.43328
1.54934
1.294
0.587676
0.89181
3.43748
3.57934
2.19598
0.224185
0.686408
1.00369
2.87043
0.62027
3.41998
0.882124
3.24299
0.977511
0.523297
3.37038
2.01203
0.431318
1.29673
2.76963
1.63611
0.177819
0.59011
2.14265
3.60461
0.940187
0.617016
4.45266
1.61829
0.659949
1.87181
6.52407
0.7068
0.382669
0.959209
1.21763
3.95454
0.787074
3.80456
4.72486
0.458014
0.450337
4.4182
0.510832
3.20758
0.933957
0.684546
0.278717
0.70582
3.03723
2.30785
1.21708
0.9277
0.886846
0.882845
0.190163
0.491083
0.642696
1.38844
1.37366
0.424128
0.130259
1.18212
0.687991
0.680724
0.471153
1.49156
1.25307
0.695718
0.989743
2.06391
1.63438
0.965964
1.31397
3.55077
0.705058
3.24016
2.97221
1.58994
1.53193
1.51463
0.908444
0.833054
1.29673
0.620807
0.815369
1.71576
2.01285
1.25495
0.847196
1.84738
1.8492
2.21133
3.26665
2.4391
0.85451
1.43051
0.646429
0.739206
0.411105
1.03411
3.20633
0.517011
0.62484
2.19452
0.863332
2.70855
0.390925
1.41943
0.335626
1.63112
2.6624
1.34941
0.56358
1.25633
4.11288
0.201076
1.07041
0.558628
2.17988
2.18973
2.57948
1.1931
1.97825
1.19185
0.565147
1.24899
0.463477
1.12002
3.51908
0.703488
1.00757
0.519111
1.45186
2.26309
0.166801
0.552526
2.54315
2.68324
1.27915
3.29661
1.72873
0.442863
0.988939
0.547169
2.03596
1.64898
0.247925
2.88367
2.33193
0.0787016
1.98956
3.52196
2.87755
0.860948
2.59459
3.11029
0.426792
0.26309
0.530755
4.96775
0.252206
3.10653
1.8016
0.304532
3.54873
0.504607
4.63675
0.361654
2.93026
0.820951
0.779083
1.1092
0.289405
0.869282
0.647145
0.536104
0.643778
4.7058
2.35139
0.844018
0.919886
0.273649
0.445545
2.15919
0.443746
1.23079
1.3225
0.311935
1.58469
1.02071
1.22513
0.533089
0.843842
0.749996
0.784791
1.25069
0.388402
2.06934
0.487366
1.00845
0.17242
2.61648
1.11109
1.72503
1.28987
1.71948
1.30087
0.621638
1.28552
1.25727
1.36811
0.430108
0.977696
0.430292
0.3756
0.262371
2.97351
1.6607
2.21963
3.44175
0.318373
1.8726
1.81955
1.08737
0.749358
1.31467
1.89581
2.47346
2.43519
0.839604
2.28689
1.19148
0.680072
1.78718
4.37745
1.31089
0.911511
0.49789
4.72593
1.06915
1.05493
0.602598
3.69274
3.12088
2.35095
1.72611
1.43521
1.24278
2.60781
2.67295
1.0529
0.682314
5.85417
1.33014
2.31972
2.01117
1.86268
0.49427
1.45997
1.59392
0.436192
0.744152
2.92341
2.48611
0.724593
0.558904
3.01561
0.976256
4.96647
0.820081
0.819619
0.430011
1.60398
2.26995
0.496789
1.01343
3.08655
1.87098
3.34484
4.056
1.44624
4.5771
1.52285
0.972895
1.31603
1.81394
1.08287
0.4053
1.69531
0.809866
0.390148
0.885547
1.09527
3.79034
4.6697
2.10488
2.9806
0.0995593
1.54848
1.53034
2.6206
0.498585
3.07297
0.134659
6.33456
0.61049
2.51152
1.59395
0.941453
1.52117
1.17449
0.25185
1.34513
0.825219
2.56415
0.694112
1.02671
1.18236
0.136605
0.954947
0.408423
0.754453
0.590402
4.07123
2.52771
1.17096
0.557322
0.665781
1.5752
0.27471
1.31209
1.53967
0.582958
0.673343
0.415172
2.9216
0.526375
0.579489
3.90421
4.97517
0.275501
0.658186
0.652611
4.50086
0.735895
0.439962
3.96195
1.22335
0.107711
0.194715
0.208391
1.4758
1.72356
0.166244
2.18372
0.39672
0.674317
1.23078
1.08791
1.00587
0.476256
5.24501
0.285738
1.54879
2.30922
0.906424
1.04653
2.62393
1.05929
2.8367
3.98328
0.743815
1.15916
1.84364
1.09705
1.79198
6.99518
1.11748
2.26787
1.95636
3.60943
1.0752
3.63314
4.03788
0.647142
0.266629
0.693534
5.77561
1.15289
0.960368
0.578586
1.35809
1.1487
2.85104
1.63485
1.70275
0.797677
0.782739
1.73022
0.236592
2.32154
0.216972
0.29154
4.06661
0.639378
1.53595
1.16267
3.93413
2.54848
0.232771
0.466928
0.561431
1.49973
2.84862
2.16765
0.963241
1.84518
7.04869
0.756756
0.292259
2.23423
2.52375
3.23581
0.383509
0.331229
0.236447
1.34981
0.853181
0.960157
0.563386
0.401936
0.574339
0.785827
1.55583
0.458637
0.391856
2.52202
1.36567
0.806363
0.861947
1.47013
4.70492
0.332049
3.77404
0.81882
0.599172
2.42317
0.579995
0.393578
0.683978
0.187703
0.591158
0.323057
2.08522
2.48003
0.647137
0.191807
1.18589
1.80229
0.196276
1.9056
4.34581
1.21234
7.50806
0.334124
0.466231
3.58012
2.26411
6.06656
0.843187
1.5869
2.59519
1.34764
0.604024
0.281993
1.59329
1.92363
1.49604
1.11154
4.88415
0.91783
0.709303
0.107359
2.90496
0.826965
0.86979
0.417439
2.59091
4.17501
1.13168
0.985674
0.872086
0.17711
1.32947
1.19833
3.0654
1.52664
2.78102
1.35027
3.26134
2.51791
0.312451
3.13388
0.74714
0.79459
0.898162
0.672013
3.22135
1.1641
1.75698
0.863414
1.92071
1.07958
0.211666
1.38886
1.37055
5.67044
1.11709
2.05077
0.717
0.524107
2.13359
4.36409
0.783913
0.685318
0.635774
0.760169
0.574166
2.58088
1.09022
0.9942
0.868921
2.586
3.66595
0.727173
0.79189
1.64108
0.672078
0.314858
0.555582
1.73707
0.630074
0.537245
0.918062
0.899499
2.83149
2.58374
1.06216
0.868641
1.40513
1.26551
0.538949
2.2676
1.50957
0.464401
1.92523
0.408939
0.538379
3.82513
1.68259
1.0311
4.87081
0.388941
2.27098
0.560553
3.83003
2.96969
0.673318
4.54405
0.882725
2.74987
0.496119
0.727821
0.943978
2.23631
0.219823
2.45329
0.64626
1.38283
0.934387
0.589
4.65914
0.153181
0.212351
2.35951
1.42746
0.913918
2.95306
0.630465
1.06244
2.73192
0.846434
1.89912
0.329726
1.05068
2.13921
2.92464
1.21354
0.584432
1.0066
0.188874
0.26276
3.71062
1.17688
3.17291
2.31425
0.707772
2.31071
3.20774
0.809542
1.011
7.34577
2.87093
2.62203
1.69484
0.613961
0.591645
0.289001
1.68628
1.93569
0.825914
1.30624
0.562603
2.37137
1.16295
1.61933
0.229927
0.612407
0.801537
0.831116
1.89807
0.541756
1.21596
1.22011
0.847528
0.884648
2.0517
3.50952
1.72098
1.1763
1.83728
1.85612
1.45387
0.864793
0.970683
0.474293
0.444679
1.71529
1.19471
0.160355
0.643905
0.244321
0.87358
1.11797
0.913671
2.36664
0.611192
1.78338
1.59631
1.22019
0.570697
0.570148
1.4033
1.50664
0.883356
1.19097
1.51261
1.07255
0.952879
0.884318
3.22962
0.562677
1.16899
1.57038
3.12337
2.45875
2.0874
2.49797
1.20484
0.802797
1.21784
0.853438
0.368789
1.43916
0.561788
0.621158
1.90956
1.96951
0.451225
3.71685
1.30952
1.06553
3.35071
0.919167
1.66848
1.72381
1.38836
0.238451
0.326884
1.31407
1.14411
1.04782
1.86916
1.10817
1.60589
4.2263
4.12174
0.941091
1.43457
1.86269
0.358086
0.71116
0.830577
0.690284
0.970776
1.36984
1.76954
0.42689
1.00838
0.621398
2.5636
2.03317
2.10479
3.59862
0.522767
2.43553
0.423403
1.46902
0.458792
1.47456
0.0680415
1.20763
0.881286
1.70516
4.15075
2.18479
0.8669
0.652208
0.539233
1.20006
3.48935
1.02292
3.09794
2.22805
1.6103
0.571015
1.32694
1.13632
0.110953
0.743577
5.12753
1.66703
0.970779
1.23672
0.484157
1.25891
0.95677
2.7497
1.5241
0.201161
0.999558
1.67061
0.60512
0.16399
0.364953
1.67556
3.39103
1.45419
0.436449
0.770356
1.40428
4.21841
0.359717
0.601608
0.478919
1.06496
1.17663
0.6057
0.160429
1.93936
2.38134
2.76229
0.532373
0.845622
1.81651
0.892932
0.602972
0.994541
0.786415
1.26244
1.36966
0.475884
0.773951
1.63714
3.13424
1.5487
5.04126
1.16277
0.849109
0.859393
0.504463
1.83425
0.365346
0.832121
2.41854
0.904507
0.304458
3.632
0.2975
0.502297
0.806378
0.23454
2.1256
0.79731
0.597924
2.09123
0.632993
0.680779
0.347116
0.891948
0.553643
0.356494
0.446782
0.242198
0.22568
0.941109
1.68586
0.246354
2.83732
1.1233
0.950665
5.8064
3.91689
2.49648
0.541338
0.755769
0.5115
0.527042
5.7878
1.22482
2.15723
0.252389
1.77245
1.60683
0.328698
5.56043
0.716853
1.34352
0.704743
1.38837
0.355664
0.912376
1.47113
0.178963
2.88573
0.460378
0.82217
4.53525
0.306719
4.22077
0.53581
0.330847
1.32211
0.406078
2.82402
0.708947
0.920464
0.315991
0.756562
2.29632
1.26491
1.50618
0.46447
1.30015
0.265314
2.8663
0.483392
0.555137
0.470691
0.950524
0.625078
0.240286
1.12095
0.692531
2.19339
0.342848
1.0812
0.53698
1.36737
0.634056
1.25193
1.1369
0.533182
7.51925
3.51532
1.30501
0.39049
2.9919
0.179862
1.23746
0.78222
0.415126
1.4548
1.49455
1.20698
1.01813
0.892853
0.805723
0.296887
0.558658
0.790468
4.66695
2.38924
4.19657
3.95284
0.856089
3.84369
0.986721
1.03236
1.51495
4.38442
0.139708
0.615493
2.40552
1.79212
0.854782
1.97824
0.823279
0.869952
1.68989
0.489704
4.20636
0.477487
0.456811
0.597963
0.783843
3.82019
0.975942
3.502
0.937876
0.333552
2.11025
6.30571
0.365591
1.86932
0.822641
0.713865
0.708522
0.404372
1.68143
0.588457
3.41362
0.7509
2.30832
5.16961
2.95303
0.999584
0.102988
1.33773
2.4992
0.875898
0.319157
3.09453
1.75623
0.67639
4.29949
1.71661
3.93815
2.89917
1.31289
0.199546
1.01678
0.573061
2.3849
1.25069
0.400056
0.74984
0.380873
1.70121
0.22487
2.33107
0.551172
0.800868
2.57892
1.2418
0.603101
4.29894
0.66785
2.24607
1.1119
5.03864
0.864652
1.93547
0.526058
2.29711
0.585446
0.453922
1.73833
1.15236
0.709174
0.852503
3.10872
2.73565
0.776285
0.844035
0.342331
3.11439
1.61866
0.941863
1.45997
1.4349
0.364497
1.14447
0.257334
0.318303
0.891289
1.61298
0.314944
1.30941
6.79196
0.534192
1.20586
1.44271
1.40477
1.58068
2.89758
0.468191
0.180181
0.607247
2.05654
1.34997
4.2176
0.357545
0.541251
2.83831
2.24526
1.35304
1.13868
0.346873
0.754646
0.58552
0.765659
0.560136
4.55789
1.49198
0.912652
0.354097
2.4354
1.0559
1.87547
0.389473
4.14157
1.539
0.635817
0.967566
1.49157
0.32664
1.93925
0.32005
3.58376
0.424932
0.427663
0.214078
1.80491
0.197036
0.620933
0.521192
1.13232
0.851756
1.45124
1.81387
0.878997
1.61907
0.906449
0.953344
0.821662
3.38652
0.340093
0.776292
2.04118
1.12537
1.51692
1.24464
0.452263
4.03269
0.740286
0.626574
0.367576
1.23515
1.60164
1.77525
0.497512
3.34688
5.33556
1.45007
1.42288
2.22558
1.08433
0.831998
0.905708
0.961595
0.758645
3.40311
0.888952
1.24129
0.844849
1.08886
0.688987
4.62214
0.641606
0.565239
1.82355
1.03397
1.92123
2.13764
1.4841
0.442415
3.06354
1.33566
1.37203
0.45075
0.776382
0.595893
0.223668
2.9269
0.235283
1.03529
1.57752
4.73981
1.59664
0.505361
1.29952
1.49301
1.61857
1.39772
2.07583
0.740666
1.70612
0.569709
0.6647
0.646322
1.09669
0.271689
0.759312
1.95505
0.667438
1.74735
0.55448
1.08562
1.80633
0.354518
0.276479
0.566535
1.52459
1.59402
1.04512
1.27417
1.07212
1.65329
0.597822
0.969884
0.589122
0.426845
1.03083
2.0367
2.47693
0.174481
0.862039
1.06332
1.57064
1.60657
0.658533
3.51879
1.63696
0.320053
1.97356
0.73117
1.02089
1.54885
0.661331
0.753225
3.76373
4.10673
1.84771
1.02338
0.744828
1.12205
0.359638
1.02962
0.288314
1.65101
1.35465
7.73146
0.354053
3.63749
0.330876
2.23863
2.31176
1.81065
2.06773
4.06166
2.47118
0.225671
1.12064
0.458399
1.83175
0.578804
1.24932
0.505822
0.537888
0.799229
1.05826
0.678839
2.56372
0.73951
2.47118
0.591982
1.07615
0.873782
0.180432
0.784292
0.615321
1.11809
0.222797
1.7875
0.881115
1.50245
1.01893
0.287475
1.86883
0.391874
2.73183
0.939798
1.80406
2.4609
0.99022
1.0004
0.690377
0.865646
2.32096
0.998876
0.365541
1.19576
2.13476
1.01479
3.08513
0.25683
0.760137
2.06168
1.45341
0.484442
0.716096
4.08513
0.778612
0.975646
0.35197
0.441865
3.87121
0.153705
0.406124
0.211751
1.21302
2.98877
0.358596
0.867437
0.826509
0.28594
0.607038
2.58151
0.615175
1.93069
2.4744
2.2608
2.67537
3.13333
5.30883
1.02782
2.98582
0.219937
4.45619
0.777825
0.787451
0.54343
1.21998
0.724491
1.62916
1.51143
1.52056
0.289109
0.8682
0.640296
1.01726
0.108454
0.508079
0.208532
0.250977
1.51427
2.54188
4.3225
2.81817
0.104657
0.769455
0.388328
0.373137
1.5892
0.454073
0.422387
1.63095
2.43725
0.436354
0.602698
2.38785
0.537541
2.19016
2.43896
0.738584
2.164
4.30197
3.94117
0.6005
0.577632
0.455954
1.33487
0.829043
1.20053
1.31209
5.64632
1.78141
2.79915
3.73502
0.808627
1.1313
0.294488
0.645855
0.3709
0.50826
2.05084
5.66134
0.485678
2.15328
5.83061
0.393653
1.08627
5.75577
4.20686
2.06872
2.09013
0.435356
5.99605
1.51506
0.957596
0.312489
1.46637
1.37862
2.96175
1.81894
0.885379
1.31378
1.56386
0.390575
0.832755
1.81725
0.766908
1.90566
1.00396
1.47448
1.25218
0.896438
0.252331
0.930316
1.79876
1.30305
2.3256
1.89339
2.97799
1.03545
1.41364
3.56509
2.18811
0.886572
0.860347
0.828456
1.25888
1.26881
2.09707
0.709061
1.06813
2.13711
0.745499
0.413064
0.926625
2.36566
1.84409
2.78505
1.54163
0.318294
0.670335
1.31713
5.02433
1.50269
0.654352
0.189102
3.16796
1.11903
0.48619
2.31338
0.4055
0.43186
0.172733
1.42505
0.864897
0.543749
1.12104
1.24685
0.558077
1.42284
0.837832
1.23388
2.15241
6.08717
0.866564
1.27151
0.43681
1.62624
0.819266
0.374984
0.414263
2.17524
0.282742
0.876104
1.32613
0.508928
0.728609
4.55174
0.683811
0.896922
5.21823
0.760581
0.894267
1.28633
2.10818
1.66548
2.50747
0.600772
0.426196
3.57016
4.80303
0.779634
3.31739
0.743967
0.430167
1.60166
1.79058
1.40439
1.44714
3.09426
1.6423
1.42424
0.347833
0.754478
0.701492
1.5827
1.41047
1.8926
0.657233
0.253057
0.540116
3.07036
1.44634
0.650542
0.416214
0.395256
1.28931
1.73071
0.972119
0.761054
1.28053
0.518609
1.96908
6.28787
1.73807
0.921928
1.43116
0.260925
0.84263
0.546286
1.83845
0.102717
1.40589
2.30005
7.9754
0.590144
1.02047
0.635164
2.76983
4.91835
3.37456
1.23046
0.21935
0.32152
1.22531
1.25703
1.33182
0.177221
0.464331
0.888064
4.24934
2.51518
2.94978
0.342844
0.745183
0.656677
0.751785
3.73744
2.35492
1.08696
2.26857
1.88597
1.07991
1.14877
0.282466
0.209504
0.821129
1.33014
0.732864
1.75699
0.615886
0.99456
0.731863
1.30117
0.685608
1.13445
1.13765
2.23391
0.88189
0.551135
1.29253
0.626565
0.898712
0.224776
0.451928
0.431204
0.279785
1.63431
4.15234
1.06667
1.26122
3.29424
1.87698
0.323359
0.745734
1.14002
0.651242
0.779527
1.44545
2.20176
1.84796
2.19549
3.28579
0.941643
4.27938
0.417778
0.832825
1.05848
0.744541
3.43854
0.671212
0.802793
2.67409
0.976062
1.99882
1.40272
0.497903
1.07827
1.16562
0.554662
0.784439
1.0156
0.89191
0.221635
1.78876
0.922165
0.324162
2.36993
0.773318
0.193121
0.997493
2.77326
0.689664
3.43963
4.41851
0.239949
1.54354
0.402266
1.41538
0.220331
2.01357
0.422118
2.52466
1.39516
1.47376
0.734254
0.370706
2.58136
2.64142
0.935826
2.86274
1.17228
1.93461
4.29817
0.111925
0.451188
0.281102
2.17723
3.89578
1.01102
1.40796
1.44029
0.902062
0.219563
0.902479
0.593867
1.26291
1.59366
0.571923
0.695175
1.1843
0.770243
0.961697
1.00454
1.14666
0.281968
0.785628
1.93112
5.6456
1.31517
2.4251
0.938099
1.52065
0.492575
2.29739
1.92409
2.64329
4.60083
1.0808
0.421252
0.959967
0.197079
0.495232
1.6837
0.928424
1.29119
0.849917
0.997437
0.432632
2.44817
4.18778
0.565753
1.37338
3.1637
2.13448
0.678711
3.86185
0.556904
0.429794
0.841317
5.48516
0.546117
4.10198
2.10411
4.50991
2.32465
0.650173
4.12874
0.534044
0.864163
2.04697
1.12544
4.41046
3.31365
2.33739
0.687654
2.24964
1.29297
0.990163
1.56458
0.958863
1.04124
4.22456
2.07109
1.08421
4.16439
0.680806
1.83096
0.31582
3.70489
0.580199
0.749004
0.902371
0.846218
0.316801
1.21253
0.0997885
2.23538
1.66983
1.19916
1.10629
0.905169
0.7971
1.80093
1.58268
6.30584
2.47176
2.92774
0.777594
3.35926
1.09879
0.191065
0.272279
8.39724
0.69105
1.11251
0.354445
0.622933
2.49436
1.03273
0.649645
1.50799
0.301132
3.6354
0.682895
1.00714
4.32567
0.760886
0.499633
4.31286
2.17893
0.582283
0.872264
0.592373
2.61526
1.67731
1.13631
1.77992
0.947128
0.323882
0.51045
0.857787
2.47576
2.59901
0.450117
0.528844
0.281144
4.52784
1.29201
0.899704
2.67544
1.12993
0.847314
0.454843
2.2267
1.56355
2.70807
1.82104
0.955032
2.31231
0.472173
1.61015
0.888819
0.976205
4.34795
0.431141
1.62511
2.48517
1.34651
0.646405
1.06936
0.82403
0.666746
1.13233
0.368864
0.177841
1.32287
0.237731
3.83056
0.530669
1.36849
0.57032
0.741439
2.89799
3.53528
0.987454
1.14207
1.42926
0.444544
7.08631
0.900662
2.41192
2.99732
1.06858
0.49983
4.18115
4.73197
3.7289
0.303166
2.18934
0.193569
1.23416
0.457524
1.29874
1.95479
0.23992
0.849588
0.635625
6.05637
1.58696
0.901228
1.89029
1.06505
0.225511
0.551281
1.33682
1.07457
0.694214
3.5464
0.710496
4.04202
2.66214
0.388348
5.62897
3.62829
0.340285
0.53333
0.351722
0.561757
2.48348
1.65731
1.63378
0.414169
3.31754
1.17299
0.735418
1.32455
1.49162
3.61323
0.860741
2.2484
3.23809
0.946666
3.44343
1.12855
0.708835
1.31592
1.89956
0.98883
2.99287
0.359436
1.98505
3.89545
0.888946
4.81168
0.830681
1.7473
0.363441
1.42644
0.829597
0.593986
1.47982
3.18504
0.917418
0.535581
5.11035
1.83218
0.501673
0.681268
1.10097
1.66186
0.582136
1.18021
1.22551
1.21314
1.84504
0.970993
0.550828
0.687623
1.56446
7.0964
3.0478
1.06743
3.5114
1.06516
1.78737
3.45495
1.58955
2.02826
0.465069
0.497652
0.670951
1.76448
2.30753
0.415167
4.41279
0.806407
4.09125
0.92071
0.375464
0.817536
1.39473
2.35393
0.92381
3.12799
1.57551
5.39702
0.862064
1.32141
1.0416
0.75026
0.26286
0.918651
2.60616
1.51813
0.494803
1.03762
0.589596
3.43855
1.27272
1.37978
1.18947
1.00846
1.80273
1.61173
0.293521
2.58892
0.753422
1.04597
1.79922
0.501607
1.552
1.58299
0.643379
1.8365
0.434883
1.8817
2.49732
3.18275
0.621586
0.965435
1.10065
1.55951
1.74606
1.81798
0.227018
0.342325
0.670633
0.799445
1.87432
1.05792
0.236078
1.72943
1.11869
2.28278
0.938893
1.87122
5.51228
1.07332
2.35367
0.273544
1.84274
1.45992
4.1002
2.8002
4.39445
0.223937
1.38942
2.31976
1.15747
2.24285
0.662567
1.3418
0.955483
4.25033
1.51681
2.1729
0.311713
2.51799
2.74581
0.477793
1.53565
1.52149
3.09325
1.66489
0.355103
1.67095
0.432122
3.89666
0.0838951
2.18129
0.435293
3.01041
0.97439
0.283763
0.558448
0.515451
0.55925
3.35515
3.35366
2.60939
4.04734
1.17917
1.07478
0.539289
1.86934
0.330665
4.22181
0.310706
0.814745
0.424088
2.10424
0.914199
0.811745
0.544657
1.34424
1.60578
1.2878
0.716704
0.747846
0.251763
2.3306
1.8389
0.624545
1.33231
1.50954
0.663742
2.31397
0.382385
0.793217
1.74576
1.05837
0.827122
1.32855
3.15374
1.13979
2.04784
2.20524
0.286379
0.828869
1.08703
1.06675
1.0347
5.87058
0.708525
0.145986
2.77429
0.772588
0.29229
1.81736
0.396288
0.299577
0.464016
1.20808
1.83342
2.29365
1.71086
0.707174
0.53733
3.06252
0.808959
0.678577
0.389419
0.464582
1.66398
1.29296
0.564307
5.40713
0.898735
0.828457
1.08632
1.86026
1.82119
1.80441
3.53778
4.09657
0.21172
1.04664
3.70534
1.36777
0.924466
0.305191
1.30204
0.396588
0.795449
0.444726
1.31164
6.36557
6.06206
3.21233
1.22655
3.66728
1.23472
0.649954
1.46478
2.01641
0.205653
0.941503
1.04037
0.286295
2.79393
0.291265
3.20892
1.27599
2.43151
5.16933
0.635798
0.495184
0.59903
2.20118
1.00499
0.87874
0.24039
0.308138
0.239861
0.815008
0.234514
0.936083
1.18127
1.43533
0.273692
1.45992
0.880389
0.596302
1.30331
0.401427
0.808313
1.51563
1.31315
1.68052
3.11653
2.40784
0.573867
0.55988
0.932365
0.67649
3.17491
1.60946
0.885195
3.6626
0.430382
1.07375
0.67564
0.198756
6.52798
1.54688
0.845571
0.469824
2.72057
1.39192
0.426252
0.726098
1.08094
0.360982
0.960648
0.648894
2.80649
0.651542
2.98329
0.993801
0.488017
0.746565
0.458157
2.90388
1.26751
2.71052
1.1501
2.02959
1.45151
1.33389
1.14783
2.44295
1.0984
1.13822
1.8949
1.78999
1.23219
1.11957
0.892707
1.50447
0.587194
1.47314
1.29456
0.716235
2.68701
4.17968
1.25963
0.697426
4.13955
0.433838
0.370516
1.23354
0.963119
4.77499
1.09326
0.751235
0.728724
1.6761
2.63866
1.19219
5.90469
1.87457
1.16757
1.28121
0.882473
0.65633
0.668176
0.800816
6.4562
0.655397
0.672482
0.470997
2.46571
1.49429
1.31661
2.03759
4.1991
1.21118
1.53018
0.615482
0.442554
2.3033
0.224241
0.52699
1.73979
4.57276
4.03382
1.29372
0.823447
4.33741
2.70369
1.75723
0.295816
0.265914
0.558442
0.755993
3.19245
0.427133
1.16039
0.834535
0.535606
2.76912
1.20474
0.554656
2.85552
1.82236
0.568417
