0.194938
0.643036
0.172569
0.540587
0.507625
0.354788
0.165838
0.246698
0.386084
0.325426
0.218475
0.331757
0.459576
0.325507
0.206955
0.248048
0.213108
0.214754
0.290789
0.291634
0.421253
0.243394
0.28952
0.325111
0.694874
0.161788
0.386567
0.385414
0.199922
0.418063
0.19672
0.212614
0.189672
0.192485
0.31899
0.416226
0.199417
0.440509
0.319117
0.256336
0.328482
0.285782
0.264755
0.278408
1.47793
0.290583
0.381889
0.912418
0.290192
0.380932
0.21112
0.145418
0.104339
0.335378
0.59534
0.493149
0.435796
0.20347
0.148715
0.378484
0.327995
0.331486
0.228984
0.310047
0.10889
0.219265
0.327929
0.412148
0.218502
0.331592
0.170176
0.242355
0.143462
0.299915
0.211927
0.190372
0.190908
0.295499
0.303123
0.244877
0.26941
0.294959
0.27034
0.246956
0.217438
0.236244
0.332258
0.191451
0.163768
0.432041
0.215203
0.15121
0.374229
0.351542
0.450494
0.187183
0.4097
0.159402
0.324975
0.279481
0.287287
0.373468
0.273357
0.203534
0.351286
0.170022
0.200976
0.26911
0.328549
0.27611
0.165856
0.331105
0.242746
0.245527
0.331993
0.225682
0.47434
0.380759
0.250768
0.293409
0.15544
0.273765
0.131553
0.242708
1.33407
0.213841
0.242675
0.25664
0.219012
0.216138
0.240571
0.342425
0.27051
0.440505
0.219726
0.409942
0.174514
0.144558
0.344845
0.229652
0.348827
0.307697
0.470519
0.253061
0.23908
0.151056
0.191412
0.347311
0.135808
0.304449
0.313824
0.209619
0.565131
0.180365
0.169705
0.327837
0.323484
0.159725
0.167554
0.248798
0.153119
0.328084
0.39975
0.221382
0.443853
0.191703
0.211174
0.366791
0.143838
0.257272
0.180589
0.619542
0.457983
0.265531
0.231247
0.177751
0.157858
0.214527
0.230985
0.168515
0.321108
0.256672
0.360075
0.29356
0.247601
0.212069
0.556207
0.464102
0.485565
0.333722
0.160478
0.482697
0.134433
0.154338
0.35284
0.243032
0.21682
0.136568
0.179706
0.252078
0.218939
0.23371
0.740688
0.289879
0.244502
0.158378
0.679307
0.310394
0.257421
0.375795
0.232684
0.123859
0.382699
0.409013
0.307889
0.644217
0.268721
0.223598
0.796021
0.237023
0.211359
0.361608
1.26999
0.209048
0.124163
0.295895
0.253525
0.410905
0.202717
0.307442
0.373197
0.278927
0.197476
0.185861
0.281859
0.315777
0.225265
0.464745
0.273633
0.444865
0.268175
0.435305
0.32418
0.433614
0.160644
0.99153
0.333934
0.277117
0.19862
0.294269
0.139427
0.223409
0.632089
0.263683
0.379989
0.279554
0.387834
0.394737
0.243889
0.298804
0.225214
0.395789
0.431321
0.0908417
0.315345
0.152473
0.137498
0.203144
0.163612
0.361062
0.287064
0.134006
0.155916
0.317569
0.229911
0.108237
0.389793
0.146553
0.197805
0.199701
0.357882
0.432664
0.383924
0.230318
0.192242
0.16819
0.332961
0.311806
0.357452
0.263518
0.422039
0.34955
0.0786984
0.271736
0.195956
0.20962
0.189165
0.242802
0.346262
0.165177
0.158493
0.241221
0.389061
0.221618
0.137948
0.182103
0.267079
0.302509
0.41906
0.324288
0.308719
0.781616
0.179375
0.204728
0.126798
0.338462
0.312725
0.294192
0.211338
0.141328
0.235835
0.353169
0.379708
0.48127
0.23536
0.206092
0.168581
0.371175
0.630721
0.416764
0.476943
0.758141
0.298685
0.351884
0.54248
0.313016
0.525511
0.270063
0.336756
0.238123
0.134068
0.723951
0.179663
0.190514
0.455828
0.217561
0.336127
0.584273
0.353732
0.230248
0.284592
0.392882
0.196685
0.391663
1.23505
0.77238
0.490813
0.302095
0.39308
0.212995
0.28745
0.209913
0.210854
0.242787
0.338549
0.158755
0.307139
0.320209
0.262919
0.275857
0.302669
0.374183
0.19024
0.223618
0.358963
0.673167
0.252539
0.227531
0.235034
0.119707
0.312893
0.198197
0.276943
0.182141
0.199129
0.370371
0.741669
0.318183
0.12989
0.472334
0.329059
0.313796
0.487152
0.365076
0.246902
0.259556
0.159284
0.520682
0.147336
0.258606
0.301747
0.254583
0.194636
0.133008
0.210305
0.252141
0.124051
0.554205
0.0892594
0.157623
0.325984
0.400926
0.225193
0.539907
0.392554
0.0838484
0.288857
0.479668
0.184451
0.2292
0.237326
0.348843
0.374806
0.14285
0.289432
0.49165
0.482666
0.646381
0.537952
0.35085
0.403124
0.197002
0.216165
0.250472
0.372657
0.356984
0.317023
0.868296
0.110287
0.333187
0.253696
0.26865
0.208869
0.252904
0.392182
0.221194
0.226018
0.423031
0.224754
0.504322
0.174089
0.163652
0.286242
1.33614
0.344611
0.301652
0.338157
0.21162
0.609782
0.201869
0.216765
0.220802
0.108697
0.286502
0.353857
0.314997
0.123839
0.46541
0.132139
0.350455
0.253574
0.302151
0.251557
0.324219
0.274348
0.245769
0.476418
0.161274
0.310345
0.274674
0.29201
0.224102
0.214841
0.363955
0.148902
0.277858
0.218163
0.250725
0.408115
0.136782
1.66558
0.40605
0.244673
0.23285
0.721642
0.421108
0.133422
0.226884
0.242837
0.207241
0.23528
0.111972
0.448908
0.110312
0.182434
0.276917
0.119257
0.419805
0.351331
0.229498
0.305166
0.308385
0.458939
0.334422
0.629065
0.183506
0.475628
0.138293
0.147749
0.208323
0.302037
0.446174
0.272314
0.206007
0.15756
0.193448
0.158297
0.252265
0.175061
0.152343
0.308866
0.262128
0.463551
0.262874
0.513056
0.142424
0.22303
0.35821
0.316381
0.289784
0.332784
0.17709
0.198126
0.177008
0.220133
0.294053
0.327167
0.194645
0.40392
0.209972
0.439793
0.159854
0.219973
0.556906
0.291927
0.171154
0.209625
0.435373
0.202105
0.11985
0.556236
0.166215
0.181388
0.352603
0.119649
0.291423
0.302199
0.425076
0.188006
0.248787
0.168895
0.228022
0.36487
0.270839
0.211512
0.121719
0.269281
0.295512
0.147945
0.420488
0.267855
0.136477
0.22865
0.161006
0.459467
0.109146
0.241104
0.526715
0.143228
0.394419
0.285716
0.520516
0.258814
0.181611
0.652311
0.167869
0.280006
0.188644
0.163239
0.355632
0.170102
0.153621
0.203372
0.11012
0.375039
0.684496
0.12699
0.129303
0.151064
0.220569
0.425063
0.401878
0.53039
0.31978
0.244372
0.244322
1.58331
0.383095
0.302865
0.261178
0.156168
0.187201
0.363753
0.136247
0.339708
0.199053
0.306479
0.303304
0.240889
0.267379
0.644464
0.210501
0.248998
0.151263
0.369444
0.594783
0.291759
0.260613
0.208761
0.242099
0.256827
1.61114
0.212041
0.322057
0.333887
0.587228
0.29833
0.250751
0.366402
0.164791
0.323924
0.380067
0.23223
0.241967
0.38464
0.493475
0.268931
0.150076
0.162735
0.302722
0.333882
0.152396
0.28613
0.284035
0.542771
0.170941
0.29199
0.344512
0.339929
0.353574
0.322469
0.265458
0.77705
0.193014
0.458234
0.212511
0.186784
0.210905
0.245715
0.270447
0.464557
0.136214
0.311809
0.268752
0.129872
0.196371
0.424283
0.152898
0.343176
0.525509
0.34527
0.37828
0.397138
0.204578
0.4135
0.0963626
0.883698
0.216003
1.03967
0.28729
0.1164
0.327822
0.210572
0.430145
0.35061
0.255407
0.764605
0.319776
0.22279
0.396905
0.469334
0.184906
0.246887
0.168503
0.595839
0.486787
0.139839
0.0916709
0.482435
0.261822
0.328975
0.406003
1.12893
0.221826
0.27518
0.387651
0.438272
0.345769
0.178909
0.19213
0.140645
0.323232
0.244023
0.201718
0.214685
0.143087
0.26346
0.160629
0.240777
0.240322
0.479238
0.168895
0.45026
0.325845
0.492794
0.265316
0.215554
0.270024
0.236838
0.238426
0.472294
0.581234
0.328028
0.23863
0.179298
0.356799
0.341831
0.179039
0.399934
0.351976
0.262144
0.184589
0.324461
0.313733
0.235526
0.288245
0.312072
0.31919
0.268906
0.171177
0.466434
0.397149
0.344674
0.373993
0.185319
0.275222
0.28869
0.215905
0.215335
0.507685
0.34027
0.419221
0.280226
0.323345
0.214349
0.228515
0.256925
0.134129
0.589552
0.372587
0.132643
0.205981
0.294002
0.203689
0.324111
1.65617
0.307957
0.186967
0.145074
0.322954
0.483493
0.299372
0.341356
0.248519
0.72582
1.43432
0.413629
0.48992
0.232826
0.39994
0.28934
0.453839
0.310438
0.299121
0.16338
0.319066
0.279112
0.250136
0.081265
0.464586
0.203908
0.184858
0.377424
0.468271
0.0784084
0.102504
0.309769
0.392367
0.132962
0.271154
0.324769
0.15586
0.226649
0.26465
0.728257
0.187973
0.331376
0.163102
0.421098
0.398387
0.277631
0.627392
0.112299
0.178875
0.234403
0.443348
1.01041
1.10396
0.298568
0.315169
0.383323
0.260602
0.346663
0.273884
0.432602
0.144479
0.148003
0.391706
0.275059
0.347508
0.237673
0.302309
0.262384
0.383341
0.212455
0.461974
0.275038
0.603415
0.542733
0.267874
0.255142
0.24464
0.185119
0.378785
0.23446
0.252819
0.227783
0.308354
0.478747
0.146679
0.223847
0.340807
0.193868
0.18569
0.293827
0.144195
0.181824
0.376916
0.741932
0.13429
0.230322
0.118632
0.254215
0.267212
0.316724
0.316104
0.251301
0.370708
0.232869
0.189381
0.46649
0.304183
0.407245
0.37541
0.340796
0.177004
0.119542
0.183172
0.145022
0.158313
0.46409
0.171421
0.439916
0.269279
0.180863
0.846457
0.337323
0.188882
0.474664
0.12843
0.263274
0.416754
0.201158
0.328991
0.395626
0.397374
0.180502
0.284958
0.206053
0.218799
0.380631
0.151078
0.359941
0.271381
0.324128
0.567242
0.242142
0.298594
0.362215
0.36168
0.240093
0.399999
0.530735
0.316088
0.256948
0.453172
0.260562
0.176868
0.771986
0.216217
0.276398
0.336786
0.371766
0.188216
0.201729
0.255974
0.238147
0.317244
0.147276
0.262581
0.308476
0.545653
0.257606
0.15791
0.351663
0.34951
0.171486
0.176021
0.394257
0.502013
0.275207
0.180212
0.312633
0.121708
0.429166
0.212453
0.389063
0.420856
0.465323
0.168473
0.112417
0.20685
0.148607
0.399169
0.299637
0.141886
0.20756
0.242763
0.252749
0.629883
0.166407
0.23622
0.208865
0.182077
0.388018
0.419712
0.229774
0.118357
0.129924
0.48199
0.197904
0.0889584
0.0633365
0.302438
0.29657
0.422696
0.507722
0.259571
0.545155
0.299489
0.36164
0.791997
0.252899
0.604871
0.305646
0.303555
0.287652
0.165461
0.334504
0.299252
0.225888
0.37602
0.245943
0.163394
0.244933
0.239315
0.382903
0.225741
0.178989
0.151409
0.293199
0.485522
0.495951
0.215965
0.229868
0.286748
0.287121
0.238032
0.154446
0.20005
0.184489
0.19584
0.132889
1.79156
0.315239
0.469637
0.365442
0.45732
0.304222
0.289662
0.0833384
0.285206
0.551413
0.37739
0.517791
0.173005
0.280157
0.342924
0.340117
0.288658
0.151977
0.314204
0.208652
0.169803
0.704858
0.259789
1.10687
0.290839
0.249459
0.179317
0.189996
0.708136
0.21324
0.233375
1.15681
0.0837664
0.394558
0.230237
0.206943
0.242877
0.618426
0.297431
0.206251
0.299192
0.459659
0.221314
0.306472
0.314396
0.747952
0.498315
0.359702
0.18782
0.157149
0.14024
0.95443
0.409446
0.322081
0.265651
0.191608
0.365279
0.251554
0.300624
0.324446
0.383644
0.248342
0.224153
0.191048
0.200054
0.18181
0.239687
0.202563
0.475037
0.327691
0.36995
0.0999208
0.569003
0.195506
0.475984
0.113251
0.454527
0.263919
0.266095
0.293214
0.296402
0.432872
0.183143
0.23287
0.287558
0.159157
0.170371
0.198178
0.728118
0.351113
0.153337
0.196756
0.304337
0.42859
0.165753
0.238113
0.259202
0.252265
0.174087
0.282862
0.173519
0.327993
0.233434
0.159635
0.218695
0.0875694
0.386843
0.213738
0.248995
0.0927835
0.268009
1.01226
0.300233
0.529666
2.63712
0.328968
0.332593
0.317744
0.33416
0.135198
0.199532
0.27706
1.50716
0.189648
0.325735
0.245903
0.144865
0.13655
0.401348
0.505855
0.44796
0.574259
0.30022
0.0813473
0.218007
0.186596
0.261764
0.347241
0.250888
0.437723
0.228106
0.209399
0.26153
0.510745
0.357552
0.343485
0.327474
0.315468
0.120484
0.294897
0.149128
0.493807
1.10763
0.223589
0.502299
0.317761
0.515571
0.238041
0.308281
0.264029
0.217631
0.452818
0.189911
0.200551
0.148042
0.445085
0.310597
0.390704
0.1645
0.296878
0.217145
0.161645
0.250433
0.233954
0.202509
0.191234
0.247014
0.128152
0.256015
0.184297
0.134138
0.198593
0.258778
0.304967
0.384438
0.336949
0.210492
0.844939
0.339696
0.317787
0.169342
0.34001
0.197048
0.429819
0.260305
0.135791
0.25317
0.316332
0.199172
0.250221
0.425
0.310435
0.151589
0.103766
0.614595
0.385683
0.271061
0.177069
0.490814
0.236899
0.300235
0.227403
0.269751
0.120272
0.206767
0.555414
0.415229
0.271571
0.207689
0.0878751
0.21525
0.519419
0.350785
0.295284
0.136164
0.269041
0.233666
1.23864
0.136761
0.557162
0.253744
0.18938
0.285696
0.451785
0.243844
0.237866
0.218921
0.230206
0.127471
0.362403
0.268855
0.300545
0.452699
0.678222
0.228027
0.19306
0.223421
0.398326
0.252247
0.208702
0.232662
0.122409
0.308733
0.444552
0.168478
0.132983
0.216321
0.159443
0.185452
0.26754
0.403905
0.48773
0.386135
0.446752
0.904896
0.234608
0.381149
0.276319
0.519323
0.197788
0.101857
0.127889
0.336409
0.560586
0.338693
0.239689
0.478655
0.267074
0.182795
0.261639
0.601268
0.161503
0.27453
0.412054
0.122641
0.226635
0.323538
0.581588
0.248104
0.302982
0.103903
0.215409
0.261872
0.259913
0.261916
0.147925
0.349036
0.509196
0.560316
0.213101
0.137734
0.138555
0.479124
0.46307
0.278112
1.60234
0.459535
0.44194
0.235169
0.230719
0.378453
0.986833
1.28324
0.20351
0.410696
0.25666
0.152508
0.301121
0.685497
0.323416
0.178196
0.116026
0.326494
0.333173
0.393001
0.287325
0.208814
0.405213
0.388053
0.27368
0.141011
0.259592
0.421083
0.164213
0.394703
0.290733
0.27127
0.225437
0.180492
0.366563
0.105204
0.133228
0.316823
0.190776
0.276936
0.278698
0.464194
0.127358
0.145653
0.227516
0.359866
0.522043
0.367609
0.231347
0.138687
0.231738
0.193647
0.369133
0.204527
0.213965
0.235595
0.301882
0.270085
0.392674
0.332613
0.274172
0.621825
0.126041
0.34462
0.59267
0.531916
0.392003
0.341112
0.434798
0.186198
0.135449
0.275054
0.128683
0.314333
0.585355
0.348993
0.753362
0.176793
0.38333
0.24772
0.194718
0.221077
0.502785
1.06643
0.491416
0.350766
0.297061
0.559373
0.205501
0.349298
0.281394
0.250242
0.244242
0.24031
0.0908363
0.299051
0.234064
0.251686
0.418851
0.198101
0.246789
0.246589
0.408531
0.148004
0.190219
0.112557
0.456369
1.58442
0.132665
0.381044
0.207707
1.32404
0.252931
0.245237
0.72244
0.25895
0.274531
0.27498
0.251729
0.442978
0.507616
0.171227
0.45239
0.331799
0.181381
0.238126
0.288945
0.211978
0.303409
0.307628
0.307493
0.342779
0.385661
0.423756
0.158468
0.12803
0.433698
0.231698
0.0965007
0.298142
0.363054
0.256678
0.249197
0.399615
0.291625
0.52632
0.248514
0.265883
0.290752
0.204953
0.432914
0.607676
0.281866
0.266276
0.315449
0.477599
0.133095
0.198777
0.635544
0.226309
0.37511
0.310816
0.239915
0.216437
0.437423
0.281234
0.228141
0.308327
0.321914
0.225441
0.139592
0.198003
0.330009
0.435048
0.661556
0.2806
0.556868
0.580022
0.265956
0.382768
0.221504
0.19709
0.303666
0.256602
0.521367
0.722605
0.190139
0.210891
0.217339
0.213874
0.290972
0.185184
0.162959
0.244785
0.215681
0.287634
0.210217
0.35422
0.357218
0.700041
0.756748
0.196567
0.23612
0.18596
0.176769
0.352714
0.247705
0.222102
0.81457
0.353825
0.316887
0.372217
0.201673
0.16666
0.2092
0.439455
0.456791
0.221776
0.500139
0.158318
0.37069
0.255905
0.203077
0.211215
0.139007
0.0780271
0.512243
0.25921
0.25881
0.28862
0.107636
0.19767
0.143168
0.207884
0.265607
0.131996
0.183438
0.490451
0.325589
0.494201
0.531655
0.374975
0.359802
0.194633
0.22285
0.198775
0.440244
0.205278
0.41583
0.296341
0.526039
0.266501
0.253888
0.151651
0.329237
0.295462
0.145762
0.290499
0.136417
0.295837
0.205616
0.21445
0.166897
0.102097
0.497462
0.15601
0.205709
0.136037
0.1838
0.175538
0.308724
0.218847
0.455994
0.287076
0.378995
0.22793
0.161003
0.190986
0.102071
0.602407
0.266702
0.0837622
0.28077
0.146747
0.383695
0.122966
0.136038
0.2403
0.361791
0.406976
0.218847
0.48926
0.287532
0.211091
0.316789
1.35562
0.734935
0.323801
0.266142
0.117938
0.548374
0.115908
0.417283
0.234714
0.396392
0.115921
0.346935
0.246523
0.246601
0.175764
0.356978
0.354745
0.163487
0.441531
0.232515
0.384922
0.450134
0.132872
0.254491
0.153308
0.133245
0.267681
0.186179
0.0837345
0.230577
0.348877
0.377865
0.265001
0.142484
0.177143
0.674864
0.24711
0.463323
0.287246
0.111213
0.440821
0.222426
0.357421
0.367808
0.213132
0.435722
0.195578
0.137925
0.160336
0.655146
0.233869
0.30822
0.511983
0.189067
0.154177
0.141689
0.142088
0.31068
0.16007
0.331866
0.26099
0.689983
0.57348
0.237648
0.243897
0.243565
0.181066
0.48486
0.325817
0.391335
0.885432
0.453372
0.19331
0.638384
0.0772349
0.31173
0.147412
0.297918
0.275042
0.286389
0.404056
0.259477
0.168976
0.201313
0.197363
0.160861
0.71223
0.228026
0.226527
0.375796
0.307637
0.409499
0.368085
0.354007
1.91889
0.230098
0.25922
0.331246
0.206866
0.337891
0.258403
0.21222
0.400736
0.335375
0.644851
0.104595
0.217338
0.100835
0.330795
0.142362
0.284322
0.382382
0.176424
0.342327
0.417961
0.156771
0.173395
0.332729
0.395569
0.212146
0.163784
0.244946
0.175828
0.362397
0.43487
0.933252
0.249853
0.29322
0.355917
0.155139
0.442225
0.168523
0.301594
1.27611
0.485364
0.405809
0.133598
0.59666
0.343099
0.18576
0.26045
0.182917
0.419706
0.256611
2.32924
0.169208
0.55303
0.238533
0.201251
0.232166
0.302877
0.160638
0.261775
0.135082
0.214775
0.184692
1.15619
0.150724
0.253212
0.175133
0.32735
0.208134
0.375429
0.328933
0.432436
1.15384
0.322934
0.961561
0.244695
0.248128
0.219959
0.33981
0.143489
0.1594
0.483698
0.252612
0.268055
0.181628
0.548539
0.993574
0.187751
0.234973
0.233869
0.350865
0.191947
0.14987
0.26278
0.172689
0.21428
0.424786
0.12438
0.373424
0.205957
0.122513
0.359349
0.150662
0.0980879
0.39201
0.307928
0.352596
0.187021
1.05358
0.179442
0.182161
0.0932483
0.273592
0.302827
1.20617
0.229443
0.192814
0.176732
0.279433
0.347188
0.39559
0.144465
0.202971
0.0964456
1.10866
0.173753
0.315067
0.136937
0.389976
0.236484
0.23501
0.13011
0.260071
0.195729
0.245421
0.340062
0.171854
0.713719
0.46416
0.381013
0.245936
0.254888
0.313906
0.192412
0.132513
0.48032
1.79642
0.155746
0.2114
0.127296
0.548817
0.227179
0.238116
0.249329
0.441302
0.273478
0.40839
0.268124
0.173322
0.357945
0.172815
0.238871
0.316839
0.280617
0.481945
0.250791
0.0911109
0.152082
2.62665
0.362255
0.149998
0.38534
0.123358
0.375881
0.260155
0.389453
0.164852
0.155868
0.216521
0.481759
0.329307
0.242029
0.222672
0.454271
0.519515
0.15071
0.138571
0.164864
0.344019
0.198426
0.280102
0.495009
0.308218
0.814338
0.179509
0.223529
0.322072
0.48713
0.252204
0.104061
0.195106
0.252311
0.240383
0.30974
0.358953
1.07887
0.35593
0.31158
0.317908
0.197199
0.286981
0.133781
0.14415
1.12968
0.28213
0.239806
0.180974
0.325258
0.216955
0.20864
0.140814
0.132068
0.363205
0.201462
0.470515
0.41488
0.283703
0.747375
0.171171
0.202654
0.261114
0.217671
0.198911
0.366875
0.413235
0.191535
0.13639
0.337237
0.143983
0.295726
0.353151
0.309126
0.174381
0.280661
0.299871
0.253097
0.396734
0.197716
0.432194
0.280498
0.18769
0.237221
0.278678
0.17047
0.201855
0.452361
0.333668
0.402408
0.238575
0.307567
0.170459
0.269422
0.3032
0.438631
0.403364
0.318646
0.374459
0.189495
0.340434
0.135698
0.125398
0.245067
0.176037
0.303469
0.214014
0.186673
0.301105
0.196654
1.42069
0.189877
0.162749
0.307511
0.197807
0.587067
0.148776
0.227677
0.402392
0.613794
0.215638
0.113583
0.37007
0.492516
0.181686
0.134187
0.248099
0.252817
0.289534
0.192634
0.242495
0.325752
0.20082
0.276826
0.178962
0.345801
0.295752
0.263018
0.142502
0.216995
0.229759
0.162156
0.19914
0.142857
0.255115
0.257592
0.165099
0.303374
0.297156
0.14924
0.175212
0.181234
0.293673
0.294897
0.25956
0.212639
0.130776
0.310566
0.262145
0.221337
0.409893
0.388673
0.235677
0.227551
0.237812
0.301825
0.22971
0.114333
0.26147
0.167327
0.435579
0.339424
0.17156
0.285617
0.191319
0.360386
0.224136
0.264968
0.214831
0.385339
0.328206
0.148318
0.167681
0.436053
0.0850038
0.1997
0.707639
0.310628
0.342179
0.445581
0.144359
0.159578
0.33355
0.20216
0.368269
0.187476
0.258095
0.143574
0.105004
0.210193
0.417532
1.55628
0.278874
0.267666
0.310399
0.162065
0.20201
0.167589
0.306555
0.230108
0.583064
0.218646
0.221359
0.157524
0.531203
0.223535
0.299931
0.111206
0.32783
0.211432
1.49659
0.795655
0.226146
0.210682
0.255044
0.212483
0.343785
0.147609
0.412051
1.19149
0.240025
0.476146
0.224953
0.328131
0.348669
0.276959
0.38466
0.15728
0.340369
0.253235
0.266035
0.323915
0.2235
0.232852
0.327475
0.279905
0.232619
0.160544
0.306047
0.172187
0.307531
0.20984
0.160039
0.140218
0.31254
0.517413
0.18125
0.542659
0.0958739
0.259286
0.411383
0.134168
0.203302
0.260122
0.161457
0.170841
0.287582
0.331198
0.223426
0.716814
0.235234
0.278448
0.341671
0.110932
0.229119
0.242063
0.415093
0.224034
0.124125
0.320615
0.262577
0.260883
0.216853
0.0699174
0.363351
0.238665
0.304951
0.469553
0.242317
0.285568
0.30257
0.382236
0.216963
0.216667
0.327936
0.318095
0.218594
0.310384
0.469494
0.283186
0.170535
0.26103
0.276631
0.26388
0.332532
0.305073
0.298596
0.148625
0.262418
0.337713
0.278031
0.28377
0.196832
1.05718
0.140793
0.253756
0.244037
0.192361
0.434594
0.232004
0.226638
0.217984
0.136455
0.243235
0.310872
0.297399
0.222668
0.187365
0.364556
0.113551
0.182466
0.144581
0.230473
0.421425
0.291052
0.400858
0.165197
0.208377
0.269187
0.275032
0.148147
0.220165
0.313047
1.0898
0.11581
0.250757
0.333913
0.222796
0.123268
0.145992
0.238455
0.318837
0.210917
0.605241
0.0836843
0.530858
0.484549
0.215319
0.110012
0.243522
0.893826
0.470777
0.338542
0.335665
0.261536
0.252388
0.262231
0.220011
0.182404
0.854196
0.837295
0.230331
0.200867
0.509651
0.186688
0.507507
0.173793
0.303735
0.220138
0.28174
0.145655
0.220481
0.262004
0.169402
0.369945
0.305661
0.265534
0.256452
0.440241
0.236872
0.245915
0.2641
0.32696
0.269464
0.223589
0.282137
0.2607
0.393811
0.314378
0.559891
0.227517
0.115252
0.177527
1.31637
1.21649
0.211008
0.226676
0.216922
0.755748
0.142109
0.126761
0.43209
0.28576
0.250964
0.297297
0.28863
0.140988
0.257524
0.222778
0.273616
0.154867
0.274881
0.207902
0.262275
0.265521
0.153868
0.494087
0.301051
0.186405
0.537584
0.199904
0.159513
0.259977
0.941366
0.258134
0.266685
0.200599
0.150537
0.356489
1.04386
0.290035
0.146065
0.251286
0.358294
0.493873
0.33535
0.332946
0.220059
0.386862
0.177879
0.170358
0.429085
0.199398
0.360017
0.286403
0.341159
0.156018
0.219792
0.23484
0.465167
0.243994
0.370438
0.273308
0.1278
0.0454629
0.23954
1.01787
0.127334
0.0644917
0.588236
0.1876
0.479983
0.171973
0.240439
0.260538
0.228875
0.367396
0.191151
0.205176
0.305097
0.143385
0.234849
0.335195
0.260042
0.160685
0.165564
0.41816
0.340428
0.119981
0.172065
0.226912
0.301928
0.26154
0.139262
0.30372
0.318024
0.28308
0.270512
0.551634
0.227429
0.156986
0.433025
0.231071
0.276792
0.643703
0.226148
0.557274
0.308311
0.265438
0.115675
0.442498
0.323592
0.46124
0.509504
0.267635
0.31447
0.17442
0.205819
0.28111
0.26335
0.110925
0.224496
0.310157
0.243928
0.319715
0.15947
0.324735
0.155129
0.149001
0.198119
0.541727
0.155632
0.319707
0.362728
0.182264
0.351453
0.210734
0.446161
0.245216
0.629273
0.273487
0.300184
0.240986
0.239289
0.201661
0.795585
0.201926
0.140393
0.381277
0.162874
0.505863
0.138401
0.2866
0.433082
0.849319
0.562979
0.297136
0.231748
0.477671
0.431612
0.263982
0.22051
0.250934
0.505203
0.564445
0.340494
0.306214
0.205682
0.198307
0.480005
0.304354
0.264541
0.161654
0.224309
0.232377
0.582863
0.281986
0.263502
0.402702
0.3362
0.323943
0.164453
0.355635
0.23806
0.237764
0.301901
0.369513
0.20291
0.0805894
0.309773
0.963318
0.416189
0.702098
0.703854
0.169905
0.933832
0.333809
0.257643
0.315689
0.284104
0.201608
0.182498
0.290619
0.251637
0.376693
0.239279
0.290403
0.319721
0.355231
0.451183
0.913579
0.3545
0.311317
0.84745
0.502004
0.242446
0.142209
0.224427
0.418839
0.29899
0.258577
0.383389
0.233223
0.239269
0.431184
0.469867
0.34993
0.190475
0.198592
0.233191
0.192247
0.176942
0.229893
0.219202
0.35385
0.298703
0.443092
0.24098
0.272178
0.217876
0.0576129
0.220826
0.18697
0.0932234
0.202208
0.213317
0.102017
0.192831
0.301143
0.216272
0.489229
0.407719
0.309821
0.193993
0.164992
0.201524
0.347997
0.887526
0.320268
0.340884
0.324829
0.13366
0.348533
0.427216
0.172369
0.226666
0.156316
0.272529
0.270807
0.347004
0.256658
0.269017
0.26513
0.152379
0.163809
0.188177
0.478656
0.279145
0.456273
0.157048
0.223035
0.242945
0.382323
0.166576
0.25403
0.196792
0.479222
0.233044
0.216597
0.243362
0.606033
0.37553
0.233233
0.294501
0.430162
0.327865
0.255129
0.283713
0.170961
0.27957
0.41801
0.637638
0.164244
0.308565
0.174233
0.195059
0.654288
1.03818
0.310357
0.185953
0.294736
0.343281
0.139944
0.0659187
0.359276
0.224198
0.196161
0.171437
0.446985
0.315242
0.343824
0.61643
0.214057
0.19319
0.233195
0.338431
0.246276
0.229864
0.201031
0.709927
0.498965
0.301758
0.416115
0.445724
0.282389
0.217477
0.145145
0.224432
0.308774
0.244129
0.195126
0.384944
0.21813
0.30541
0.214842
0.167471
0.4403
0.235129
0.259935
0.220138
0.343401
0.189624
0.0685225
0.246466
0.130122
0.237682
0.136501
0.305692
0.159493
0.272574
0.337498
0.210267
0.211331
0.296563
0.228132
0.194934
0.164046
0.82762
0.221223
0.330748
0.542065
0.432616
0.300576
0.408593
0.363673
0.288996
0.171368
0.240862
0.274956
0.394243
0.110649
0.235747
0.176259
0.216771
0.200135
0.189636
0.362362
0.385309
0.195428
0.718556
0.863855
0.666072
0.165302
0.233028
0.162861
0.26783
0.106086
0.2132
0.119809
0.484704
0.260036
0.505637
0.160189
0.199503
0.324798
0.226276
0.391816
0.374912
0.135096
0.174363
0.191815
0.153288
1.12647
0.200177
0.25581
0.288928
0.273547
0.220609
0.165405
0.328187
0.403173
0.387105
0.21073
0.279597
0.345144
0.722559
0.327708
0.209833
0.281652
0.484856
0.306194
0.162828
0.286725
0.171706
0.260728
0.219271
0.182684
0.350457
0.30154
0.106371
0.293884
0.325101
0.19716
0.888896
0.434751
0.172152
0.108833
0.086966
0.208433
0.340381
0.281338
0.619275
0.486949
0.211958
0.250236
0.169333
0.247605
0.365484
0.470731
0.260204
0.323839
0.302438
0.316052
0.174359
0.261338
0.128458
0.12032
0.0880558
0.285569
0.415924
0.605652
0.20007
0.230626
0.42129
0.310255
0.350742
0.758427
0.168846
0.168828
0.0947599
0.598587
0.219005
0.129826
0.384916
0.566879
0.198747
0.138379
0.298314
0.18493
0.156129
0.581664
0.151607
0.370682
0.381813
0.299998
0.655866
0.185937
0.227143
0.239649
0.21621
0.505335
0.460136
0.320707
0.287062
0.49245
0.277986
0.362481
0.21066
0.298757
0.481362
0.183556
0.334318
0.123273
0.157545
0.337945
0.209249
0.165685
0.294226
0.462328
0.48893
0.457931
0.258404
0.290646
0.204367
0.31971
0.192976
0.327036
0.190144
0.35805
0.261174
0.478119
0.150701
0.409082
0.480344
0.222526
0.200159
0.357539
0.261874
1.60063
0.296104
0.252138
0.179036
0.193392
0.42445
0.147231
0.4553
0.289226
0.355249
0.190612
0.147159
0.217383
0.475896
1.42567
0.208936
0.313904
0.400919
0.449159
0.287029
0.193754
0.293903
0.0988025
0.285376
0.279275
0.379537
0.357132
0.307992
0.338401
0.234329
0.194549
0.354688
0.116731
0.269844
0.938731
0.457176
1.00133
0.306595
0.383333
0.316292
0.220229
0.427371
0.352185
0.283499
0.408538
0.326376
1.28129
0.170039
0.263081
1.37797
0.234605
0.213645
0.382299
0.353722
0.633946
0.296066
0.257434
1.88365
0.180447
0.296819
0.364713
0.221723
0.153264
0.892403
0.325283
0.300667
0.171177
0.11753
0.255716
0.176084
0.320018
0.30043
0.302234
0.214831
0.299033
0.254384
0.187827
0.241807
0.454654
0.314652
0.237504
0.129075
0.141845
0.39582
0.468252
0.53724
0.72946
0.388886
0.294226
0.159711
0.423685
0.305589
0.182753
0.265657
0.280841
0.288545
0.282306
0.341213
1.61052
0.133368
1.51998
0.183586
0.178741
0.176535
0.25945
0.51709
0.196879
0.234885
0.474818
0.133328
0.783362
0.288474
0.211808
0.147963
0.38159
0.320157
0.297005
0.139482
0.325186
0.326381
0.227088
0.217245
0.13212
0.292319
0.271159
0.316138
0.34037
0.882526
0.27773
0.283127
0.408144
0.456045
0.236191
0.175
0.378449
0.271641
0.103249
0.213346
0.272596
0.30802
0.505836
0.364466
0.144082
0.334966
0.154034
0.215831
0.246956
0.269119
0.0775249
0.69321
0.261105
0.235271
0.303104
0.336727
0.321367
0.1909
0.436767
0.131914
0.310409
0.242268
0.294123
0.258773
0.155427
0.166193
0.252371
0.288262
0.116993
0.180025
0.194004
0.29496
0.329535
0.270424
0.363758
0.163544
0.286875
0.286971
0.404226
0.321515
0.104824
0.376978
0.386401
0.457468
0.297508
0.223972
0.301482
0.181419
0.351079
1.89001
0.755146
0.99998
0.191112
0.162635
0.182407
0.509812
0.30743
0.419333
0.405715
0.306399
0.26358
0.322522
0.282738
0.603162
0.221928
0.154714
0.221148
0.308566
0.175686
0.104708
0.393813
0.156925
0.237514
0.164554
0.319434
0.506982
0.369969
0.444191
0.371753
0.177893
0.206827
0.324198
0.306308
0.262579
0.425362
0.383844
0.400711
0.654771
0.230923
0.0841533
0.286809
0.30893
0.186847
0.248144
0.205713
0.494011
0.419643
0.177474
0.139171
0.257759
0.293794
0.155748
0.213756
0.139645
0.483257
0.130614
0.471201
0.320024
0.23842
0.319663
0.333275
0.234371
0.318262
0.274484
0.203906
0.23145
0.381207
0.407634
0.286218
0.159638
0.248139
0.242098
0.234625
0.516793
0.211567
0.197808
0.343893
0.145666
0.361208
0.261346
0.324802
0.414221
0.312567
0.16904
0.245361
0.12163
0.351353
0.491925
0.131289
0.237312
0.298045
0.199412
0.154229
0.170673
0.267078
0.101976
0.330229
0.210418
0.380777
0.165636
0.351047
0.119431
0.362588
0.253072
0.256726
0.307472
0.216357
0.269277
0.257113
0.351284
0.196526
0.311154
0.23308
0.256849
0.445364
0.271138
0.253919
0.393291
0.381442
0.117046
0.559009
0.413013
0.199481
0.401244
0.252365
0.300986
0.515529
0.258209
0.18606
0.242308
0.386403
0.26794
0.12626
0.373181
0.44715
0.201488
0.136098
0.288031
0.293716
0.489684
0.35914
0.374106
0.470679
0.319641
0.217457
0.203247
0.354648
0.462107
0.17891
0.21869
0.20896
0.356373
0.4728
0.206527
0.279765
0.372463
0.355759
0.245552
0.42248
1.36276
0.133644
0.249784
0.471076
0.507273
0.193636
0.396735
0.374667
0.191161
0.589554
0.203017
0.214812
0.288189
0.190044
0.543345
0.309072
0.244123
0.316246
0.413081
0.160354
0.51472
0.368284
0.298961
0.239983
0.289797
0.272351
0.165339
0.389507
0.194938
0.509218
0.321183
0.326548
0.203134
0.170165
0.22732
0.273421
0.220782
0.579782
0.845368
0.246881
0.371586
0.298933
0.169586
0.182978
0.323039
0.127588
0.191709
0.146477
0.608373
0.363614
0.19253
0.284423
0.136246
0.285506
0.219129
0.229646
0.350076
0.275432
0.176827
0.242497
0.25119
0.379008
0.318032
1.33671
0.639438
0.123085
0.153323
0.225739
0.414462
0.121586
0.280834
0.270378
0.296162
0.218817
0.148969
0.247533
0.555502
0.172363
0.23937
0.191985
0.290254
0.507452
0.358265
0.110486
0.18301
0.281507
0.523208
0.784227
0.382926
0.211539
0.343392
0.129793
0.296831
0.381832
0.156748
0.283633
0.229357
0.230445
1.77354
0.311158
0.194933
0.355617
0.210912
0.332302
0.174916
0.289696
0.306098
0.747877
0.200867
0.261855
0.166136
0.318788
0.247445
0.168268
0.153527
0.157043
0.0647703
0.412647
0.268523
0.246137
0.354044
0.418446
0.557968
0.277719
0.267643
0.323121
0.277605
0.252889
0.263297
0.357923
0.171448
0.385509
0.255641
0.29228
0.611012
0.105625
0.263311
0.337774
0.222853
0.368624
0.316404
0.40499
0.327002
0.170436
0.183412
0.270058
0.198193
0.10925
0.389929
0.212995
0.264683
0.262362
0.535637
0.209062
0.197585
0.151461
0.360228
0.378898
0.240863
0.176241
0.0900145
0.328447
0.347928
0.328738
0.33548
0.271274
0.225583
0.219647
0.224367
0.25539
0.188938
0.287509
0.185179
0.218994
0.417769
0.303678
0.277961
0.392887
0.361468
0.457862
0.213902
0.169263
0.143226
1.06432
0.821886
0.145639
0.367242
0.200469
0.207136
0.391284
0.709066
0.545222
0.167244
0.216467
0.180322
0.900442
0.45493
0.437017
0.337311
0.235403
0.353553
0.243994
0.114034
0.278728
1.05083
0.241946
0.341914
0.492041
0.369646
0.317796
0.71238
0.228041
0.13715
0.273077
0.169246
0.19606
0.120679
0.295762
0.398234
0.604484
0.23855
0.315127
0.14005
0.402436
0.556738
0.267529
0.201392
0.375228
0.876602
0.186395
0.200361
0.238077
0.185574
0.202317
0.616996
0.995424
0.209282
0.294523
0.349506
0.2993
0.35071
0.377288
0.35907
0.441161
0.267839
0.26434
0.327024
0.104994
0.190468
0.211527
0.326536
0.247966
0.47288
0.210762
0.38616
0.271141
0.180075
0.153594
0.215012
0.426285
1.74789
0.504607
0.109224
0.223783
0.198547
0.18783
1.21393
0.307355
0.41565
0.268476
0.909344
0.485691
0.399676
0.457219
0.90391
0.278874
0.402501
0.0842768
0.311908
0.380203
0.362658
0.292438
0.325813
0.259682
0.287889
0.550264
0.253407
0.40901
0.203949
0.190905
0.347108
0.469464
0.332716
0.332903
0.239858
0.443011
0.30621
0.273993
0.197829
0.274878
0.247213
0.406403
0.293111
0.236014
0.294252
0.238675
0.255085
0.249547
0.189897
0.122471
0.27294
0.14621
0.299659
0.431367
0.29831
0.276306
0.539884
0.0429335
0.146202
0.0899082
0.173301
0.469098
0.270583
0.240483
0.378706
0.350901
0.17232
0.343567
0.313126
0.320422
0.188144
0.286586
0.405557
0.277902
0.277709
0.168475
0.27937
0.252776
0.233561
0.424665
0.428636
0.123472
0.127487
0.168552
0.375
0.341828
0.194208
0.139461
0.440482
0.176664
0.273461
0.188009
0.320528
0.520932
0.181934
0.369396
0.187353
0.412243
0.207704
0.37708
0.305848
0.445121
0.237375
0.521837
0.422982
0.393408
0.358722
0.367471
0.728805
0.399518
0.318673
0.361555
0.235869
0.375128
0.198138
0.196014
0.214941
0.516256
0.369799
0.315862
0.229317
0.519798
0.30145
0.303446
0.359631
0.223191
0.237222
0.254677
0.264533
0.242989
0.280493
0.24232
0.147656
0.367637
0.186143
0.108094
0.148134
0.126415
0.236954
0.371924
0.283163
0.210504
0.299582
0.300522
0.358018
0.339267
0.173785
0.426978
0.255722
0.333109
0.801957
0.395883
0.151982
0.352231
0.253931
0.241035
0.291272
0.257573
0.182571
0.276903
0.518301
0.273626
0.218423
0.522305
0.151633
0.252368
0.523057
0.215446
0.394471
0.43883
0.368677
0.238138
0.112076
0.221722
0.337778
0.117762
0.311248
0.1772
0.580933
0.164797
0.372516
0.196257
0.217268
0.227695
0.525357
0.638759
0.085228
0.198811
0.197262
0.260241
0.382148
0.194061
0.163704
0.202073
0.190002
0.499052
0.396516
0.220836
0.152981
0.349904
0.140735
0.355739
0.213885
0.240021
0.248126
0.308589
0.378727
0.432268
0.248967
0.294774
0.134721
0.221545
0.232659
0.83267
0.323254
0.461295
0.178211
0.140923
0.376505
0.226797
0.275307
0.29862
0.395401
0.152596
0.178839
0.322793
0.403314
0.134036
0.403193
0.174968
0.0954219
0.291125
0.305841
0.305476
0.179078
0.478998
0.212735
0.240586
0.550063
0.311817
0.326024
0.327989
0.658144
0.363832
0.250599
0.158566
0.425716
0.33396
0.164493
0.253769
0.213138
0.181965
0.492595
0.266818
0.417707
0.188715
0.245738
0.237852
0.333594
0.262587
0.149644
0.696437
0.318841
0.180005
1.05705
0.403679
0.451884
0.558437
0.437686
0.151072
0.270291
0.442769
0.317199
0.445087
0.336689
0.189156
0.210004
0.308719
0.930413
0.393223
0.237718
0.133227
0.187337
0.242417
0.179547
0.301856
0.314958
0.241736
0.364886
0.248467
0.319268
0.226559
0.291357
0.290436
1.24512
0.829162
0.347918
0.531347
1.28052
0.216271
0.23379
0.251363
0.18686
0.145588
0.137799
0.503537
0.368796
0.181096
0.18737
0.525918
0.355014
0.278518
0.214988
0.192995
0.480168
0.174698
0.222564
0.176224
0.278713
0.409684
0.22967
0.530006
0.341947
0.194977
0.200537
0.247267
0.142276
0.253854
0.285784
0.358078
0.259088
0.146953
0.261172
0.27677
0.234131
0.137925
0.121981
0.367347
0.279268
0.494221
0.428079
0.268175
0.211119
0.265787
0.277137
0.27091
0.322566
0.230819
0.169108
0.348122
0.262721
0.162164
0.25231
0.369565
0.276518
0.293825
0.189161
0.40583
0.471779
0.202716
0.357099
0.232169
0.165699
0.122607
0.289489
0.216937
0.208439
0.431953
0.275911
0.191557
0.305578
0.341472
0.37084
0.250966
0.326773
0.195896
0.595156
0.130643
0.872092
0.219809
0.253773
0.249655
0.402872
0.193728
0.153762
0.747996
0.200665
0.282738
0.293482
0.241106
0.201248
0.327723
0.221056
0.404992
0.300137
0.256368
0.271732
0.302466
0.125316
0.291901
0.267077
0.428773
0.211698
0.429882
0.0961694
0.238636
0.307783
0.38735
0.33873
0.204081
0.135298
0.346213
0.376584
0.11801
0.271276
0.362011
0.250492
0.214651
0.290656
0.132689
0.164714
0.218347
0.219458
0.21678
0.15764
0.175095
0.589926
0.240967
0.324671
0.138959
0.308886
0.155998
0.189709
0.180542
0.355112
0.456654
0.266658
0.405917
0.452017
0.166664
0.156844
0.313547
0.340675
0.206444
0.293884
0.271647
0.265754
0.290287
0.470045
0.340009
0.304327
0.185609
0.158285
0.424763
0.256015
0.350198
0.361826
0.217452
0.255105
0.310764
0.245117
0.432319
0.203579
0.343474
0.132736
0.190513
0.151738
0.162801
0.244551
0.226601
0.24177
0.36327
0.295718
0.34398
0.348117
0.122649
0.160103
0.350806
0.302822
0.16004
0.379784
0.372724
0.357332
0.325177
0.246468
0.317332
0.269124
0.426345
0.290605
0.208504
0.343445
0.292652
0.417087
0.504254
0.187123
0.532375
0.116005
0.216712
0.145238
0.22486
0.213153
0.289499
0.245312
0.283263
0.274745
0.45537
0.234533
0.260235
1.13251
0.324534
0.259858
0.448473
0.409274
0.292795
0.26875
0.215491
0.288592
0.231589
0.178066
0.270182
0.33839
0.178051
0.175768
0.228422
0.259523
0.366983
0.246357
0.313455
0.199239
0.12404
0.0949372
0.355779
0.810711
0.169366
0.542316
0.206465
0.206101
0.209786
0.281753
0.454042
0.321777
0.277891
0.148544
0.334735
0.488998
0.436615
0.279469
0.460815
0.224742
0.323286
0.463434
0.223019
0.21995
0.319006
0.309934
0.544475
0.182478
0.189141
0.289497
0.59104
0.26868
1.57378
0.149992
0.418378
0.361353
0.22133
0.302086
0.303497
0.223829
0.721068
0.148107
0.321751
0.193274
0.449593
0.209493
0.429501
0.207312
0.300399
0.522919
0.219547
0.237515
0.1588
0.284753
0.123551
0.280281
0.302329
0.38071
0.380347
0.139219
0.403197
0.189348
0.37177
0.422961
0.227995
0.8549
0.316138
0.306147
0.271012
0.211942
0.291011
0.293359
0.180739
0.33037
0.252147
0.827717
0.395411
0.514076
0.398466
0.343011
0.172064
0.232962
0.442757
0.223201
1.01964
0.547059
0.361328
0.408338
0.225433
0.325692
0.288396
0.463314
0.240907
0.324629
0.324567
0.499275
0.210493
0.665952
0.353513
0.459917
0.138731
0.254803
0.185479
0.11771
0.227615
0.390848
0.24003
0.265706
0.222622
0.207219
0.160731
0.366086
0.201506
0.125801
0.248275
0.256622
0.389294
0.147875
0.249938
0.208825
0.146806
0.42339
0.247559
0.179295
0.131593
0.272001
0.200973
0.675675
0.339844
0.0879336
0.38725
0.567118
0.168022
0.206593
0.339589
0.104087
0.134559
0.165415
0.35295
0.222722
0.203096
0.0716171
0.325294
0.148518
0.303166
0.439642
0.402408
0.390948
0.192902
0.298284
0.110244
0.487905
0.776344
0.242905
0.207212
0.316919
0.400353
0.419677
0.113146
1.54126
0.238307
0.141656
0.198324
0.277371
0.446726
0.198999
0.301651
0.309178
0.227874
0.213352
0.419502
0.168103
0.524371
0.294029
0.230932
0.592918
0.340703
0.115931
0.375959
0.221707
0.164282
0.288725
0.415833
0.214254
0.308203
0.239304
0.265222
0.26457
0.567763
0.148599
0.26186
0.264827
0.236606
0.0950499
0.366683
0.843356
0.320653
0.44104
0.313584
0.136191
0.0976542
0.258242
0.309017
0.303642
0.181013
0.300299
0.475007
0.188835
0.209653
0.247186
0.519625
0.757798
0.28568
0.376327
0.140514
0.405541
0.397692
0.146646
0.155789
0.208139
0.123987
0.323604
0.1771
0.239812
0.344212
0.821494
0.282018
0.615241
0.232852
0.280391
0.24091
0.577393
0.350844
0.268122
0.174203
0.230696
0.224246
0.115555
0.188153
0.504715
0.55668
0.368739
0.269503
0.170856
0.488062
0.395661
0.105835
0.131796
0.201727
0.448932
0.352715
0.210793
0.206043
0.263585
1.31397
0.0776295
0.364662
0.228078
0.312
0.232277
0.299623
0.299645
0.351018
0.114179
0.105138
0.186765
0.461504
0.21521
0.855291
0.221233
0.530468
0.460523
0.274238
0.351646
0.564757
0.22139
0.226515
0.21915
0.259474
0.507629
1.59449
0.287877
0.29667
0.225961
0.356618
0.32599
0.311098
0.0870932
0.304357
0.263719
0.294899
0.181908
0.109573
0.160702
0.305528
0.206707
0.279668
0.367148
0.353858
0.201841
0.213982
0.399208
0.275506
0.502814
0.183805
0.268306
0.201514
0.18922
0.32566
0.297782
0.261809
0.236108
0.553351
0.262638
0.390646
0.370417
0.301958
0.406599
0.102144
0.157508
0.314967
0.353267
0.225768
0.258973
0.172505
0.216967
0.24133
0.293007
0.206101
0.406892
0.288024
0.430639
0.287375
0.390224
0.362846
0.353696
0.164024
1.99365
0.440485
0.259931
0.424302
0.206801
0.273324
0.422087
0.256004
0.603345
1.27808
0.164718
0.165532
0.285949
0.211892
0.105939
0.248499
0.297596
0.203756
0.334057
0.276334
0.324765
0.109295
0.139225
0.400356
0.142626
0.25579
0.246531
0.166981
0.335762
0.363148
0.163584
0.31287
0.318793
0.226314
0.276068
0.872275
0.227111
0.261049
0.340893
0.337798
0.706517
0.163986
0.172545
0.262586
0.11655
0.356562
0.275109
0.322585
0.345679
0.398223
0.376736
0.340984
0.421544
0.351026
0.197186
0.164534
0.28264
0.189891
0.278107
0.219516
0.261802
0.572563
0.321917
0.134758
0.363429
0.253329
0.256686
0.235785
0.172499
0.315182
0.535335
0.354046
0.325234
0.320351
0.204889
1.5218
0.23038
0.303388
0.220633
0.215976
0.146255
0.125377
1.13228
0.168073
0.241687
0.386822
0.279341
0.271036
0.253766
0.179261
0.112341
0.253013
0.279918
0.18613
0.230443
0.273292
0.233171
0.340474
0.33587
0.226996
0.323958
0.346058
0.152512
0.148174
0.107741
0.482105
0.43808
0.391435
0.260007
0.295853
0.25493
0.226154
0.305404
0.16466
0.368786
0.366432
0.765956
0.642243
0.392101
0.151424
0.438811
0.479756
0.190873
0.179267
0.122879
0.23448
0.222624
0.267075
0.189677
0.326561
0.270552
0.34383
0.216407
0.266626
0.415125
0.584546
0.49447
0.283743
0.531874
0.421284
0.301538
0.619632
0.272624
0.350717
0.234941
0.390135
0.313636
0.155455
0.246975
0.434491
0.254723
0.271962
0.576422
0.16185
0.220889
0.223185
0.266356
0.271151
0.170165
0.306488
0.234183
0.316214
0.135606
1.25507
0.160964
0.420398
0.134342
0.249242
0.266327
0.441582
0.274258
0.291888
0.243135
0.204982
0.201044
0.347808
0.258747
0.323817
0.127302
0.160131
0.335168
0.288555
0.250491
0.37474
0.124358
0.304364
0.476599
0.11499
0.227996
0.340836
0.211005
0.141414
0.297215
0.244187
0.505107
0.24819
0.195453
0.378152
0.358568
0.470954
0.207205
0.419649
0.252279
0.290983
0.374985
0.311533
0.207151
0.280899
0.307155
0.35547
0.373883
0.271968
0.264428
0.243203
0.217602
0.592417
0.382566
0.414963
0.283191
0.267014
0.28437
0.182361
0.175781
0.514967
0.33951
0.245622
0.477175
0.457928
0.276066
0.189055
0.135857
0.606886
0.364578
0.314857
0.316624
0.331088
0.216372
0.452559
0.453551
0.0794348
0.304795
0.224691
0.259881
0.232723
0.248996
0.297118
0.249529
0.423638
0.424918
0.358852
0.630772
0.725768
0.200324
0.35205
0.205708
0.198177
0.32032
0.28594
0.217953
0.24089
0.192119
0.444449
0.25702
0.191179
0.128711
0.225656
0.172728
0.0683582
0.459387
0.165792
0.227452
0.241628
0.14093
0.270437
0.383723
0.0620439
0.502239
0.394753
0.731021
0.328911
0.302088
0.389784
1.57061
0.364915
0.233142
0.442435
0.195505
0.329699
0.135886
0.288847
0.254252
0.366327
0.341348
0.236154
0.19665
0.199366
0.183434
0.1067
0.419986
0.191435
0.307882
0.500092
0.231951
0.368633
0.23613
0.210615
0.160165
0.306351
0.45681
0.157388
0.292774
0.865955
0.158779
0.356535
0.397138
0.301889
1.06219
0.370387
0.225562
0.772224
0.539114
0.324273
0.293908
0.633384
0.350614
0.181079
0.333623
0.357159
0.231496
0.177281
0.284087
0.369852
0.447241
0.308255
0.455446
0.327909
0.230865
1.25377
0.268957
0.413852
0.371028
0.300055
0.23095
0.529657
0.274624
0.401425
0.256607
0.218672
0.419563
0.701279
0.309373
0.322809
0.482844
0.331922
0.195549
0.273577
0.266977
0.365041
0.3626
0.188587
0.319572
0.375061
0.219021
0.264541
0.187326
0.192733
0.361084
0.30174
0.183855
0.46014
0.520458
0.260509
0.22141
0.201732
0.229715
0.286601
0.200783
0.430229
0.439352
0.129819
0.213363
0.230304
0.525995
0.244134
0.362734
0.42284
0.20915
0.18562
0.451819
0.317002
0.397177
0.348411
0.253738
0.380889
0.240201
0.160534
0.289685
0.366526
0.350352
0.390917
0.284659
0.16848
0.289757
0.355339
0.204496
0.278887
0.207859
0.194768
0.180621
0.345491
0.182537
0.232498
0.292398
0.23769
0.319146
0.210804
0.399523
0.251307
0.221245
0.256138
0.906508
0.584503
0.531668
0.246617
0.266021
0.177261
0.114845
0.556313
0.313494
0.425327
0.327947
0.235677
0.30548
0.403909
0.203022
0.323406
0.231158
0.296572
0.195963
0.199556
0.228681
0.175246
0.563712
0.159871
0.46884
0.233113
0.461715
0.241079
0.325001
0.479157
0.328113
0.221841
0.358605
0.111316
0.317805
0.343668
0.192907
0.298378
0.230025
0.245911
0.218598
0.366667
0.264096
0.383529
0.464142
0.194953
0.80676
0.268091
0.473613
0.269334
1.00407
0.192167
0.313093
0.240774
0.304876
0.281585
0.195178
0.130734
0.201988
0.221063
0.559341
0.243953
0.250707
0.275961
0.314507
0.29612
0.42997
0.127587
0.293798
0.621124
0.309173
0.216923
0.766571
0.279772
0.145445
0.190351
0.167648
0.339153
0.144774
0.463121
0.339505
0.208399
0.653429
0.242761
0.224365
0.133561
0.264513
0.278059
0.343482
0.312112
0.335792
0.234209
0.167886
0.132266
0.388294
0.173126
0.282645
0.235476
0.548298
0.141503
0.271747
1.00918
0.0666605
0.158816
0.260679
0.24299
0.269445
0.284085
0.31074
0.443352
0.309357
0.348959
0.205997
0.471907
0.447001
0.64635
0.192825
0.183432
0.357162
0.241871
0.252892
0.29166
0.133922
0.326699
0.283593
0.137894
0.18979
0.27997
0.114536
0.456834
0.259827
0.368033
0.148385
0.214698
0.595475
0.257188
0.195061
0.448899
0.269033
0.163007
0.222734
0.258679
0.693656
0.238237
0.588075
0.178087
0.240334
0.419005
0.428796
0.575424
0.278709
0.218974
0.230865
0.255898
0.180113
1.07498
0.307366
0.219828
0.23973
0.418075
0.597422
0.398788
0.0894175
0.306166
0.168327
0.208201
0.448283
0.342369
0.156802
0.38087
0.143402
1.14269
0.13169
0.156363
0.322793
0.29007
0.185725
0.398973
0.232855
0.259155
0.327992
0.225525
0.165579
0.474218
0.238696
0.38197
0.421861
0.158276
0.36959
0.637658
0.185115
0.219598
0.222217
0.263592
0.212616
0.122372
0.168795
0.220861
0.630036
0.525574
0.169929
0.661903
0.298899
0.289715
0.429044
0.186066
0.22456
0.301632
0.218108
0.325886
0.25072
1.03564
0.316992
0.24962
0.346671
0.203305
0.226932
0.232524
0.415835
0.184636
0.327311
0.334923
0.2118
0.224904
0.377504
1.10799
0.35252
0.190768
0.302618
0.38925
0.171857
0.330446
0.74407
0.288237
0.133261
0.354079
0.348168
0.11586
0.444638
0.119218
0.293435
0.121099
0.192173
0.373975
0.283444
0.309843
0.301802
0.280168
0.243071
0.158318
0.300231
0.197307
0.179297
0.272873
0.294231
0.198955
0.28141
0.338563
0.301653
0.274372
0.381622
0.632986
0.380698
0.637893
0.44906
0.259656
0.122142
0.33395
0.207447
0.282886
0.153543
0.275398
0.373415
0.288781
0.215542
0.118007
0.104558
0.177793
0.177327
0.223529
0.301068
0.163672
0.405326
0.384229
0.187775
0.265183
0.162036
0.58768
0.206926
0.333038
0.137014
0.575432
0.119743
0.220292
0.276805
0.277442
0.230701
0.102562
0.129539
0.172451
0.220014
0.132555
0.338163
0.306662
0.39504
0.213645
0.231449
0.169576
0.0986976
0.228686
0.266477
0.219085
0.252083
0.224202
0.154353
0.239507
0.0954036
0.260699
0.372409
1.05395
0.372114
0.286149
0.293404
0.123902
0.313982
0.185295
0.403468
0.209565
0.493369
0.145782
0.173019
0.228416
0.474501
0.195318
0.501022
0.297402
0.106266
0.217042
0.337597
0.149706
0.273602
0.225943
1.22674
0.393099
0.12849
0.524268
0.295177
0.649069
0.358926
0.200654
0.234108
1.82577
0.151795
0.45503
0.284524
0.279715
0.244308
0.252099
0.323057
0.140737
0.325531
0.222059
0.602837
0.353946
0.177204
0.371131
0.426743
0.27109
0.123039
0.290903
0.385016
0.263476
1.09686
0.210309
0.514159
0.262512
0.169881
0.22131
0.244447
0.334705
0.738305
0.309407
0.297094
0.193629
0.276754
0.31826
0.262183
0.268129
0.316115
0.29743
0.510696
0.243878
0.217447
0.921076
0.271478
0.124969
0.272419
0.347944
0.251796
0.30355
0.313263
0.229729
0.33019
0.158759
0.324502
0.473314
0.171402
0.452575
0.135946
0.155039
0.186111
0.27303
0.480815
0.36162
0.145414
0.301826
0.237345
0.307365
0.228559
0.498617
0.141842
0.165728
0.281036
0.237338
0.166045
0.24829
0.373404
1.05437
0.18975
0.352495
0.240057
0.528493
0.345447
0.29307
0.228533
0.292965
0.238332
0.239134
0.331404
0.376212
0.290793
0.3086
0.230128
0.295683
0.0982039
0.204918
0.211512
0.135175
0.535097
0.173885
0.616273
0.384623
0.08348
0.218954
0.157232
0.261802
0.349035
0.298922
0.273875
0.311809
0.265645
0.28032
0.423752
0.272019
0.391182
0.216146
0.303279
0.315618
0.35307
0.464482
0.499961
0.38401
0.303818
0.699057
0.362166
0.160993
0.414276
0.0660121
0.549139
0.721202
0.341032
0.36966
0.662209
0.468929
0.264815
0.417548
0.287448
0.208657
0.345156
0.172695
0.163597
0.353534
0.219963
0.174489
0.402403
0.578259
0.193579
0.263772
0.321092
0.362708
0.127579
0.273005
0.525714
0.667935
0.149895
0.235101
0.292007
0.242568
0.211903
0.2954
0.334883
0.159844
0.27267
0.227175
0.309903
0.565538
0.247557
0.327314
0.276858
0.157247
0.461449
0.27689
0.249345
0.306123
0.279086
0.177192
0.277464
0.177797
0.463307
0.528278
0.155255
0.150253
0.302544
0.218316
0.186839
0.354282
0.315127
0.551315
0.403599
0.311271
0.227304
0.19062
0.113999
0.310906
0.184679
0.191404
0.319652
0.254221
0.318218
0.112003
0.362054
0.36362
0.297522
0.13328
0.36029
0.471891
0.355511
0.273628
0.201253
0.28273
0.196478
0.607731
0.19278
0.226484
0.602103
0.240808
2.74642
0.167231
0.167844
0.382339
0.268237
0.35859
0.237787
0.285956
0.255587
0.223939
0.229735
0.27031
0.239591
0.348946
0.22872
0.302116
0.195674
0.361704
1.9437
0.356323
0.255933
0.289809
0.308077
0.355437
0.25053
0.446489
0.16063
0.331282
0.328068
0.306636
0.294697
0.230869
0.601324
0.19794
0.127875
0.223499
0.308583
0.161087
0.257968
0.396891
0.209393
0.407972
0.285391
0.445905
0.226423
0.232612
0.209984
0.179624
0.177077
0.26104
0.355425
0.446299
0.151229
0.411333
0.219456
0.197513
0.464822
0.17708
0.343137
0.206831
0.505434
0.350812
0.256838
0.122714
0.309096
0.364454
0.292738
0.470979
0.172671
0.250571
0.239521
0.260249
0.399073
0.195949
0.307354
0.294931
0.423842
0.284827
0.416142
0.155756
0.286972
0.326835
0.86782
0.361268
0.264222
0.40543
0.173843
0.234103
0.332658
0.37772
0.241243
0.253569
0.317969
0.221775
0.375467
0.185877
0.236449
0.311786
0.255428
0.250365
0.190675
0.161586
0.187396
0.155756
0.254302
0.165637
0.123973
0.257142
0.555627
0.147404
0.241818
0.184956
0.158417
0.267612
0.645046
0.222567
0.0559853
0.109132
0.388737
0.182499
0.271673
0.130869
0.368772
0.337522
0.333865
0.180017
0.789121
0.241209
0.232231
0.563658
0.22387
0.225725
0.14056
0.254813
0.130077
0.194802
0.172827
0.180694
0.144356
0.250598
0.3825
0.457555
0.598929
0.129278
0.197182
0.240782
0.495322
0.388327
0.143446
0.308871
0.208398
1.23403
1.19192
0.240118
0.0830963
0.34151
0.455236
0.281062
0.296808
0.137724
0.367887
0.247116
0.343316
0.45865
0.215788
0.472366
0.237237
0.313444
0.220204
0.152909
0.123859
0.212396
0.686852
0.21411
0.123521
0.352605
0.270582
0.208839
0.214276
0.147108
0.311963
0.232248
0.23513
0.224226
0.224193
0.283261
0.387729
0.159852
0.200927
0.542393
0.36496
0.169206
0.143034
0.308988
0.183553
0.153542
0.284847
0.272037
0.216565
0.419224
0.0563639
0.383737
0.438362
0.236991
0.426209
1.37301
0.286885
0.281675
0.341542
0.133691
0.162917
0.492197
0.155177
0.179008
0.217281
0.158941
0.426537
0.269027
0.204803
0.288558
0.334794
0.501271
0.281998
0.222305
0.116635
0.394641
0.45644
0.284424
0.25229
0.106697
0.301756
0.314907
0.251705
0.44361
0.179555
0.257175
0.261277
0.379101
0.404058
0.205314
0.0786756
0.26957
0.210402
0.248151
0.447424
0.252257
0.374913
0.227053
0.221079
0.190778
0.353792
0.874643
0.12593
0.201815
0.215811
0.227172
0.226954
0.0830964
0.670238
0.310262
0.333417
0.107904
0.198768
0.227032
0.370351
0.119816
0.331068
0.467481
0.205745
0.25826
0.126579
0.199173
0.250801
0.23458
0.220922
0.23674
0.344758
0.179413
0.224334
0.259643
0.0932397
0.307453
0.470175
0.225016
0.152114
0.45039
0.111178
0.302851
0.395319
0.232883
0.304767
0.106592
0.217934
0.188647
0.298363
0.254506
0.116738
0.28615
0.375355
0.934545
0.270511
0.153219
0.413254
0.443683
0.157397
0.232545
0.26334
0.201199
0.235758
0.380955
0.327491
0.299492
0.598351
0.158414
0.186635
0.260848
0.173913
0.233486
0.330328
0.1618
0.179155
0.415408
0.353128
0.394841
0.515827
0.266364
0.286513
0.282321
0.256604
0.453354
0.440613
0.571307
0.153321
0.195302
0.241367
0.178502
0.158888
0.139177
0.334249
0.21652
0.131305
0.25677
0.519398
0.363803
0.217012
0.352795
0.243098
0.35558
0.134604
0.244016
0.232127
0.213182
0.338364
0.373681
0.382072
0.361945
0.218009
0.144784
0.249323
0.218502
0.235519
0.261181
0.201397
0.239988
0.699004
0.276371
0.233078
0.232052
0.307503
0.187351
0.127476
0.223751
0.283945
0.232783
0.357313
0.13739
0.354085
0.224079
0.134239
0.324505
0.328687
0.164628
0.128135
0.186444
0.232934
0.278748
0.256611
0.24555
0.159675
0.20656
0.272286
0.190129
0.191941
0.402222
0.310872
0.283115
0.414879
0.233284
0.158466
0.160392
0.396081
0.135572
0.42522
0.115217
0.205668
0.422385
0.361383
0.48438
0.236611
0.387697
0.251746
0.137865
0.219255
0.171852
0.498691
0.306479
0.506523
0.27811
0.455613
0.450717
0.356678
0.214164
0.233528
0.227413
0.287071
0.395666
0.174873
0.258991
0.115726
0.354494
0.243092
0.300043
0.346063
0.185555
0.418542
0.305489
0.309801
0.202663
0.258412
0.186099
0.355851
0.317136
0.197159
0.201465
0.387704
0.166403
0.406222
0.458302
0.358857
0.48105
0.399214
0.798231
0.138723
0.144193
0.212191
0.279917
0.255564
0.247897
0.405436
0.318569
0.390747
0.233543
0.498698
0.224937
0.137852
0.199275
0.208604
0.233438
0.181536
0.478026
0.189255
0.419733
0.153942
0.351001
0.156855
0.371002
0.174189
0.437038
0.268415
0.230452
0.865099
0.142386
0.244588
0.240734
0.289542
0.189244
0.248012
0.254836
0.340283
0.325397
0.311768
0.248694
0.145968
0.326121
0.137032
0.242882
0.136855
0.135997
0.288946
0.328702
0.171429
0.145079
0.3008
0.297255
0.300606
0.208471
0.426145
0.38742
0.62847
0.380176
0.415863
0.420501
0.448846
0.276169
0.314604
0.279881
1.12335
0.355103
0.188198
0.415579
0.292865
0.217286
0.322156
0.205317
0.2938
0.996679
0.271467
0.25562
0.382502
0.149904
0.33514
0.109683
0.122372
0.237489
0.184155
0.141695
0.513783
0.280075
0.394076
0.353036
0.2766
0.354989
0.181156
0.354576
0.274827
0.263758
0.301197
0.13883
0.542387
0.220753
0.253384
0.0890325
0.326186
0.297109
0.261813
0.552203
0.289546
0.202118
0.264039
0.205493
0.136539
0.164221
0.568568
0.377293
0.471783
0.334254
0.221351
0.185109
0.555596
0.240294
0.398918
0.170809
0.185908
0.213604
0.139278
0.330245
0.267648
0.246288
0.402988
0.307756
0.459845
0.203693
0.382373
0.281857
0.337764
0.130113
0.145432
0.208209
0.293812
0.206494
0.290584
0.316292
0.242336
0.231811
0.361818
0.354882
0.326486
0.225504
0.235044
0.240617
0.227405
0.206115
0.219868
0.258175
0.11278
0.159967
0.172009
0.27257
0.241273
0.15824
0.539989
0.134424
0.208573
0.186225
0.368346
0.0981823
0.16
0.205334
0.224805
0.15757
0.464152
0.886496
0.5112
0.278072
0.194705
0.30194
0.352375
0.130903
0.170222
0.342138
0.340125
0.170709
0.276492
0.337476
0.481339
0.178
1.17326
0.185435
0.224461
0.414864
0.470825
0.188336
0.419469
0.312065
0.427839
0.138751
0.560742
0.108248
0.788331
0.402981
0.282808
0.187668
0.592495
0.264989
0.177921
0.610615
0.44694
0.142746
0.351828
0.200018
0.328283
0.225826
0.325833
0.19846
0.127681
0.137237
0.120338
1.06098
0.25044
0.180171
0.283057
0.303495
0.617291
0.237229
0.154854
0.319569
0.157235
0.211278
0.211652
0.0959472
0.263642
0.231447
0.30739
0.485716
0.332895
0.373394
0.143692
0.22188
0.777657
0.354446
0.231687
0.202524
0.499976
0.107783
0.230579
0.246885
0.681439
0.380642
0.245808
0.733648
0.269499
0.400094
0.301951
0.178443
0.145619
0.767583
0.335185
0.330986
0.23314
0.179626
0.294633
0.383339
0.152741
0.413971
0.311574
0.285897
0.275502
0.26989
0.450753
0.355593
0.436929
0.283625
0.13482
0.511236
0.45426
0.274844
0.260361
0.200901
0.23153
0.258555
0.142863
0.111768
0.153318
0.204513
0.229387
0.364208
0.488684
0.185752
0.174263
0.179696
0.372089
0.190031
0.3877
0.238715
0.298168
0.614031
1.18779
0.198763
0.319269
0.218572
0.336321
0.427421
0.258652
0.353569
0.18662
0.445637
0.202226
0.310383
0.407448
0.215155
0.250849
0.251591
0.213704
0.318352
0.261593
0.29211
0.261552
0.667763
0.211526
0.100671
0.153154
0.276481
0.159027
0.103217
0.393377
0.16551
0.249172
0.303585
0.489805
0.313312
0.285903
0.183873
0.463017
0.245173
0.244398
0.143185
0.143715
0.149622
0.422326
0.324275
0.581766
0.271313
0.221455
0.324513
0.141691
0.381081
0.183756
0.30324
0.154097
0.319672
0.173831
0.185226
0.225954
0.299
0.29169
0.121496
0.177282
0.291191
0.397952
0.308307
0.459291
0.134972
0.342924
0.122594
0.44335
0.252576
0.27204
0.290692
0.144747
0.861274
0.332171
0.230697
0.220973
0.268453
0.194315
0.280747
0.215469
0.13389
0.444952
0.336334
0.190125
0.394034
0.221596
0.302865
0.211388
0.301957
0.190425
0.770788
0.291762
0.497896
0.461791
0.416998
0.291237
0.252938
0.374214
0.17143
2.09745
0.545004
0.145664
0.336563
0.414025
0.260098
0.241994
0.193487
0.335615
0.45073
0.474828
0.252389
0.406976
0.212114
0.271518
0.397793
0.233252
0.606619
0.350549
0.453433
0.376372
0.263225
0.366196
0.221737
0.613934
0.678291
0.436444
0.293082
0.442442
0.272947
0.220383
0.607698
0.225422
0.824549
0.140465
0.193165
0.273606
0.22191
0.359266
0.270269
0.320439
0.320735
0.281974
0.279753
0.373385
0.552878
0.115132
0.56822
0.37555
0.219452
0.284466
0.329649
0.331167
0.353143
0.332675
0.278736
0.264934
0.265143
0.22669
0.292181
0.22348
0.265626
0.243834
0.286506
0.102037
0.258259
0.257034
1.47588
1.33397
0.253233
0.144275
0.272314
0.29329
0.171945
0.275103
0.153509
0.37982
0.269156
0.254056
0.319296
0.202966
0.167894
0.274028
0.337675
0.233908
0.352174
0.262654
0.513965
0.506608
0.246196
0.189117
0.342334
0.358685
0.21844
0.258656
0.156259
0.220965
0.297652
0.30086
0.321374
0.17042
0.214105
0.254372
0.492409
0.307482
0.0856826
0.358318
0.182069
0.388592
0.399907
0.49972
0.241706
0.257148
0.449885
0.174528
0.195767
0.10356
0.0948263
0.393595
0.288296
2.02115
0.211227
0.204995
0.210316
0.252936
0.340599
0.505733
0.128535
1.24559
0.307346
0.244254
0.142944
0.332247
0.472584
0.15463
0.15446
0.263729
0.355985
0.535109
0.338097
0.318083
0.250535
0.280349
0.351385
0.659873
0.240654
0.0923756
0.319453
0.509361
0.31092
0.262021
0.160203
0.131129
0.315716
0.223582
0.180155
0.203472
0.169555
0.332876
0.141323
0.199375
0.234269
0.105057
0.267582
0.297037
0.413926
0.256179
0.272194
0.545221
0.326559
0.113402
0.195891
0.306242
0.198024
0.155931
0.139204
0.141827
0.476837
0.414612
0.217522
0.216832
0.224737
0.198406
0.211332
0.0913962
0.182175
0.440128
0.281735
0.248947
0.265617
0.469193
0.262142
0.183829
0.153602
0.28224
0.351766
0.220226
0.276586
0.243688
0.177125
0.232749
0.323481
0.13719
0.184404
0.119523
0.299978
0.134687
0.288167
0.299424
0.219439
0.249413
0.234376
0.232565
0.192781
0.38545
0.347884
0.216309
0.316244
0.599609
0.298696
0.383919
0.389196
0.173665
0.350433
0.261733
0.828719
0.24782
0.237878
0.261968
0.267927
0.200137
0.460918
0.257612
0.261565
0.302256
0.214741
0.246828
0.297522
0.203328
0.244795
0.265802
0.732762
0.201243
0.401809
0.442493
0.226752
0.142859
0.170528
0.577826
0.290711
0.257424
0.27498
0.444879
0.14632
0.103825
0.461907
0.300992
0.228177
0.272827
0.194704
0.144918
0.767039
0.367628
0.201498
0.291856
0.340016
0.170238
0.496992
0.50803
0.271209
0.296714
0.225231
0.173491
0.257591
0.126562
0.146757
0.509508
0.260666
0.385585
0.245274
0.355621
0.336535
0.278007
0.189617
0.362472
0.181162
0.628371
0.260638
0.346162
0.157822
0.24654
0.427594
0.270352
0.385101
0.314518
0.340331
0.291872
0.408873
0.18737
0.187965
0.360815
0.516017
0.280931
0.278204
0.169549
0.27317
0.313391
0.218787
0.142643
0.313389
0.165577
0.284126
0.37417
0.187576
0.168762
0.256517
0.447086
0.183146
0.314242
0.510416
0.301911
0.305013
0.275068
0.162609
0.889703
0.219798
0.20024
0.211762
0.31022
0.209511
0.339598
0.182357
0.155383
0.164728
1.56313
0.226521
0.163992
0.39347
0.211935
0.156906
0.224683
0.273157
0.352549
0.392086
0.273577
0.284877
0.239236
0.2527
0.167635
0.291618
0.210424
0.251717
0.317393
0.876332
0.379141
0.237878
0.187533
0.136569
0.256815
0.344205
0.0845514
0.34787
0.34299
0.378006
0.107339
0.223354
0.139973
0.272543
0.288105
0.150667
0.213676
0.250534
0.35466
0.220167
0.158672
0.274622
0.284996
0.23175
0.437509
0.336206
0.230873
0.260582
0.145087
0.385425
0.204055
0.31548
0.27234
0.40159
0.160912
0.164583
0.482769
0.152332
0.151464
0.368214
0.266952
0.245987
0.223882
0.143059
0.1796
0.208519
0.0947907
0.244732
1.20167
0.227758
0.229561
0.258244
0.241603
0.211234
0.253194
0.263106
0.327903
0.269125
0.429953
0.245192
0.223232
0.616204
0.272519
0.178536
0.202937
0.17224
0.378593
0.375069
0.490802
0.152255
0.224313
0.160632
0.214487
0.315083
0.231983
0.708422
0.23309
0.328971
0.293816
0.924496
0.237228
0.229327
0.1388
0.203663
0.346067
0.480714
0.348874
0.224008
0.426608
0.194652
0.327535
0.292984
0.20097
0.268321
0.444049
0.278217
0.566935
0.401413
0.210586
0.290942
0.197102
0.40181
0.52703
0.277829
0.351116
0.201055
0.113765
0.202309
0.23258
0.130797
0.274898
0.260106
0.406709
0.282918
0.356254
0.233467
0.195587
0.116766
0.331663
0.179797
0.375337
0.211855
0.251459
0.599973
0.267851
0.19803
0.22411
0.256156
0.15741
0.209597
0.27811
0.149855
0.115395
0.191952
0.217642
0.20969
0.353579
0.254668
0.42312
0.395996
0.737773
0.357932
0.129116
1.02417
0.348779
0.356653
0.159769
0.305986
0.344528
0.421524
0.175496
0.795458
0.214212
0.257063
0.513839
0.152195
0.201192
0.184891
0.458228
0.159441
0.357349
0.186076
0.282504
2.9702
0.190052
0.310583
0.336041
0.93352
0.662009
0.246543
0.226484
0.202467
0.24335
0.340315
0.372714
0.152858
0.151148
0.28054
0.290621
0.289189
0.150839
0.144602
0.276739
0.101196
0.433835
0.217118
0.412032
0.15239
0.647112
0.222971
0.29727
0.105992
0.298342
0.362709
0.585056
0.327513
0.204495
0.380556
0.238894
0.150477
0.110099
0.0948086
0.257516
0.230397
0.225994
0.141492
0.229169
0.193569
0.159153
0.351023
0.254181
0.169587
0.152783
0.224199
0.199526
0.384474
0.23541
0.899713
0.33796
0.178724
1.5539
0.28475
0.447431
0.207241
0.71686
0.205185
0.786626
0.223604
0.192662
0.226284
0.200214
0.130601
0.145841
0.0775617
0.120368
0.152891
0.310871
0.332123
0.319307
0.21645
0.538201
0.198912
0.36799
0.284049
0.24555
0.222011
0.433911
0.175237
0.156447
0.250723
0.480054
2.52103
0.335782
0.453171
0.251391
0.265676
0.345827
0.239192
0.254885
0.42652
0.369577
0.361892
0.207879
0.67625
0.129176
0.263543
0.236825
0.242391
0.573649
0.257197
0.479786
0.35071
0.240731
0.17981
0.179533
1.89642
0.236233
0.239777
0.3877
0.419059
0.277847
0.233021
0.217841
0.159185
0.82994
0.123599
0.29847
0.205148
0.33751
0.272522
0.135105
0.182908
0.489734
0.200051
0.208058
0.242901
0.248183
0.300945
0.352
0.2439
0.130261
0.225553
0.186202
0.303452
0.174363
0.121573
0.335043
0.278281
0.302974
0.306044
0.185589
0.407776
0.52153
0.363836
0.286893
0.415533
0.259528
0.322399
0.324451
0.214237
0.190159
0.400457
0.309973
0.438725
0.37561
0.351332
0.242683
0.165264
0.33935
0.182745
0.36364
0.308844
0.35524
0.283162
0.143151
0.131083
0.159395
0.152055
0.476441
0.304025
0.144894
1.14929
0.263062
0.146988
0.305699
0.189143
0.153543
0.129681
0.246984
0.178776
0.101855
0.484484
0.330968
0.318381
0.176396
0.243543
0.62713
0.395652
0.183534
0.374218
0.186547
0.326203
0.163549
0.356091
0.188345
0.275282
0.454424
0.301479
0.280844
0.439686
0.358145
0.314514
0.447481
0.147374
0.251864
0.251462
0.292901
0.18324
0.186508
0.244015
0.27125
0.144564
0.195512
0.288871
0.111379
0.211469
0.204269
0.303961
0.374218
0.149767
0.38936
0.346928
0.196291
0.291294
0.312799
0.21029
0.12243
0.201575
0.190089
0.415694
0.169852
0.366364
0.390834
0.272017
0.288979
0.195464
0.255337
0.307065
0.336035
0.204986
0.764986
0.356978
0.515104
0.162011
0.292772
0.184619
0.155985
0.521276
0.223757
0.210382
0.326036
0.338635
0.297504
0.305996
0.101309
0.102971
0.160337
0.239611
0.270301
0.459333
0.377267
0.384538
0.232249
0.293397
0.264616
0.352456
0.296688
0.324825
0.18024
0.298962
0.191417
0.208399
1.47969
0.340752
0.263986
0.153937
0.214138
0.320366
0.207315
0.272983
0.248859
0.211408
0.232764
0.319387
0.381667
0.123101
0.146544
0.540295
0.230705
0.387313
0.32996
0.176851
0.211409
0.256158
0.216653
0.877268
0.223878
0.220421
0.582104
0.265504
0.339671
0.212715
0.178205
0.447917
0.266253
0.337436
0.251317
0.251435
0.568925
0.342496
0.329601
0.335258
0.199305
0.245176
0.155271
0.40095
0.24184
0.295341
0.503321
0.250565
0.468649
0.150453
0.209626
0.184035
0.300687
0.444716
0.223448
0.196438
0.321668
0.254135
0.208006
0.257655
0.40605
1.55881
0.182397
0.278583
0.357695
0.240108
0.191866
0.734184
0.204982
0.632809
0.29783
0.707074
0.288281
0.417785
0.211595
0.46402
0.156953
0.310988
0.213741
0.257387
0.385061
0.291453
0.284832
0.252037
0.141636
0.1308
0.371467
0.192834
0.273136
0.220036
0.156357
0.185502
0.232653
0.780175
0.163146
0.62493
0.240708
0.146194
0.441362
0.293086
0.348915
0.234376
0.138847
0.27279
0.538674
0.247849
0.278088
0.368644
0.370714
1.11021
1.60601
0.591077
0.391224
0.516567
0.226606
0.368384
0.315976
0.201619
0.4289
0.391344
0.216157
0.213997
0.313773
0.164327
0.32254
0.269768
0.356079
0.234695
0.165816
0.194719
0.163386
0.307188
0.352814
0.387962
0.201838
0.20245
0.158101
0.256236
0.173445
0.174493
0.315242
0.237675
0.19827
0.267042
0.166895
0.13053
0.147934
0.716235
0.207701
0.268156
0.104109
0.315149
0.278729
0.594597
0.226425
0.193434
0.259359
0.403654
0.23724
0.216983
0.434846
0.761565
0.480133
0.301943
1.00758
0.186294
0.915937
0.302308
0.340907
0.234431
0.200829
0.795687
0.259099
0.225186
0.243608
0.230408
0.210165
0.412057
0.563623
0.285886
0.0952316
0.235122
0.110993
0.131858
1.02012
0.423279
0.22084
0.323414
0.242535
0.221687
0.378455
0.377894
0.113743
0.265383
0.302148
0.945339
0.116891
0.250822
0.299394
0.199121
1.19773
0.3469
0.254239
0.179729
0.400878
0.277248
0.234599
0.408875
0.125883
0.225789
0.366154
0.389572
0.310925
0.308644
0.173918
0.226393
0.251533
0.204478
0.252856
0.323967
0.158319
0.163433
0.248101
0.203048
0.341595
0.213228
0.274761
0.194569
0.347219
0.210812
0.218577
0.559586
0.279988
0.188269
0.477121
0.206236
0.381226
0.670798
0.285361
0.281413
0.337594
0.251693
0.198863
0.372367
1.01032
0.386205
0.490948
0.419892
0.264321
0.211206
0.582078
0.307463
0.116921
0.215771
0.284291
0.216001
0.302896
0.176464
0.375836
0.676904
0.224461
0.25967
0.175302
0.197822
0.238921
0.380491
0.335405
0.635948
0.397852
0.266056
0.142028
0.281533
0.28935
0.191941
0.309542
0.397245
0.154427
0.145949
0.38032
0.367104
0.280744
0.215246
0.19972
0.268951
0.389982
0.626407
0.378948
0.460482
0.200785
0.349539
0.577848
0.348859
0.289949
0.324041
0.273789
0.396415
0.195266
0.15143
0.180772
0.361814
0.125901
0.21679
0.298378
0.137888
1.44413
0.494278
0.316891
0.332188
0.323065
0.257909
0.235692
0.323449
0.391473
0.135727
0.293058
0.123864
0.224619
0.325425
0.295065
0.160211
0.251896
0.32401
0.435552
0.503177
0.251155
0.307362
0.946828
0.934736
0.293606
0.162189
0.486881
0.148043
0.133837
0.241988
0.250723
1.40581
0.405923
0.210833
0.763937
0.588209
0.379797
0.326745
0.22716
0.285822
0.185941
0.269293
0.207812
0.380115
0.203751
0.180487
0.292348
0.357123
0.168556
0.227356
0.265636
0.387731
0.151686
0.133586
0.402537
0.203165
0.218261
0.197641
0.276998
0.262712
0.432169
0.185912
0.342898
0.526445
0.111883
0.0883665
0.19439
0.161746
0.252783
0.173004
0.127997
0.444484
0.189222
0.280658
0.308787
0.195746
0.460435
0.36769
0.159389
0.588879
0.367893
0.505886
0.274573
0.314912
0.163928
0.181821
0.305684
0.67757
0.203534
0.385357
0.362254
1.43717
0.355009
0.235748
0.61623
0.154754
0.230447
0.391838
0.153383
0.196341
0.0867568
0.318682
0.191633
0.154953
0.344423
0.231395
0.289099
0.150355
0.576658
0.360483
0.165719
0.304706
0.165194
0.114711
0.449852
0.267279
0.17618
0.276247
0.312515
0.166639
0.166163
0.230147
0.167393
0.319678
0.401171
0.38641
0.384855
0.242461
0.250161
0.158306
0.2413
0.611043
0.233222
0.212647
0.204112
0.0921007
0.143656
0.210587
0.335309
0.183674
0.187481
0.339674
0.269705
0.241638
0.42095
0.286925
0.126973
0.299341
0.148278
0.377827
0.269728
0.487028
0.24397
0.311415
0.198079
0.604784
0.523949
0.378005
0.37983
0.248965
0.555756
0.224275
0.161186
0.23844
0.503239
0.128125
0.33128
0.231069
0.22384
0.175288
0.662627
0.130653
0.134501
0.46873
0.123869
0.222542
0.497163
0.292011
0.263214
0.24242
0.671012
0.134155
0.234029
0.277549
0.240559
0.330629
0.20167
0.33798
0.388044
0.168021
0.236769
0.217363
0.294613
0.436361
0.179382
0.282733
0.163532
0.308779
0.573847
0.381137
0.531168
0.293553
0.449851
0.532602
0.310348
0.175601
0.263075
0.21546
0.199501
0.650981
0.259037
0.185826
0.283594
0.186139
0.356503
0.189818
0.385719
0.185147
0.365865
0.319712
0.77594
0.420794
0.267042
0.262534
0.320751
0.401854
0.179512
0.429896
0.23935
0.516773
0.300847
0.312257
0.195953
0.467756
0.209141
0.229363
0.51461
0.106663
0.488884
0.361235
0.435288
0.25216
0.228832
0.209042
0.416026
0.454652
0.44261
0.186937
0.323664
0.156365
0.138201
0.230864
0.300031
0.276566
0.268992
0.73092
0.398351
0.237491
0.181845
0.326012
0.212669
0.30888
0.188962
0.189528
0.139122
0.151868
0.424469
0.19285
0.259479
0.262967
0.299522
0.406251
0.293928
0.344762
0.185969
0.255677
0.764566
0.31745
0.232623
0.133182
0.405397
0.223593
0.155646
0.240474
0.173292
0.337669
0.523048
0.658412
0.506079
0.238822
0.172948
0.225294
0.232411
0.261223
0.241564
0.295042
0.176007
0.292416
0.383896
0.292526
0.214884
0.213847
0.14479
0.102732
0.219108
0.257238
0.173674
0.487215
0.240252
0.227491
0.842978
0.139649
0.302883
0.14962
0.28276
0.158271
0.238464
0.187382
0.422862
0.306861
0.30608
0.149287
0.377828
0.143002
0.277158
0.256432
0.255089
0.565748
0.456758
2.21816
0.161686
0.17513
0.193148
0.31153
0.713661
0.136425
0.475775
0.461673
0.283988
0.367117
0.28627
0.61324
0.205397
0.212873
0.329903
0.654685
0.179879
0.295404
0.343327
0.281788
0.30258
0.403988
0.206802
0.340895
0.201377
0.180076
0.26199
0.288664
0.421001
0.248846
0.373267
0.277999
0.285195
0.0903428
0.213848
0.260956
0.227982
0.230311
0.378792
0.28086
0.163022
0.697431
0.331653
0.263374
0.237897
0.141866
0.177559
0.273138
0.282604
0.392024
0.272714
0.427962
0.221343
0.239765
0.422155
0.319624
0.184532
0.323902
0.292764
0.258421
0.167726
0.304204
0.387878
0.169764
0.180118
0.317199
0.392706
0.326077
0.143459
0.242488
0.465848
0.161451
0.229178
0.282378
0.435258
0.609185
0.203924
0.174758
0.953647
0.274519
0.230879
0.140265
0.188992
0.299123
0.207544
0.353596
0.350618
0.218995
0.199312
0.200692
0.241753
0.16285
0.200551
0.251508
0.250579
0.882182
0.293982
0.564715
0.404793
0.27546
0.184291
0.314955
0.148938
0.271653
0.27436
0.211043
0.45087
0.257936
0.375994
0.301376
0.464718
0.301648
0.404334
0.314675
0.631187
0.293702
0.171085
0.296505
0.141672
0.207297
0.280091
0.108721
0.370032
0.224849
1.13341
0.144549
0.447512
0.159945
0.202276
0.235927
0.455576
0.281077
0.431027
0.192172
0.376857
0.427738
0.164482
0.164908
0.258924
0.259016
0.210641
0.234372
0.309012
0.840973
0.128285
0.20089
0.176691
0.198697
0.251218
0.645809
0.391432
0.414351
0.209971
0.117092
0.844074
0.578568
0.207923
0.288051
0.429475
0.313022
0.217093
0.334327
0.34789
0.16516
0.11912
0.263353
0.326091
0.453363
0.556974
0.508942
0.274331
0.206182
0.232471
0.686012
0.313172
0.197668
0.123579
0.445998
0.269507
0.580877
0.539828
0.510746
0.191807
0.224791
1.28167
0.42944
0.18256
0.177122
0.181754
0.248021
0.297649
0.150845
0.267692
0.33978
0.391379
0.201036
0.153295
0.261796
0.620897
0.228562
0.185725
0.203121
1.0074
0.366348
0.207292
0.13722
0.678638
0.227095
0.319913
0.142638
0.247971
0.244846
0.215442
0.185111
0.140521
0.190388
0.11634
0.165214
0.367962
0.172307
0.211077
0.229868
0.299099
0.327879
0.153357
0.270417
0.277421
0.277127
0.391166
0.209176
0.352539
0.334084
0.117243
0.457791
0.377908
0.504622
0.3401
0.157739
0.268703
0.522851
0.274624
0.218776
0.542843
0.865155
0.292048
0.272205
0.177121
0.409977
0.303278
0.231862
0.157891
0.567494
0.232891
0.185249
0.415781
0.528024
0.305297
0.30496
0.158496
0.0830257
0.38212
0.184784
0.217737
0.292725
0.398468
0.354992
0.157707
0.693314
0.390589
0.146605
0.10495
0.272787
0.245994
0.152735
0.591636
0.187238
0.306392
0.282748
0.2586
0.223225
0.227413
0.482179
0.355371
0.299749
0.372829
0.251158
0.25962
0.425698
0.351036
0.207226
0.129109
0.541221
0.152241
0.135189
0.509536
0.204019
0.239796
0.180771
0.180695
0.356016
0.385922
0.133233
0.442167
0.294076
0.663711
0.352615
0.164589
0.267337
0.338999
0.196448
0.195519
0.320228
0.645976
0.270851
0.246975
0.169662
0.226991
0.196086
0.251316
0.315622
0.258121
0.368455
0.241508
0.55625
0.386073
0.365031
0.468804
0.625893
0.159742
0.167568
0.643744
0.11713
0.432328
0.282571
0.292992
0.292843
1.87172
0.349176
0.0985125
1.40515
0.279357
0.289976
0.265921
0.234892
0.167266
0.278006
0.399898
0.266192
0.211315
0.268999
0.698762
0.349981
0.226973
0.237004
0.278166
0.172862
0.417479
0.229657
0.319066
0.450238
0.50281
0.30832
0.2625
0.418099
0.291755
0.256903
0.434866
0.15304
0.265222
0.25816
0.191902
0.167402
2.42818
0.187475
0.424446
0.418746
0.696125
0.363035
0.191587
0.313231
0.230348
0.339933
0.581241
0.357765
0.29849
0.542953
0.385293
0.442412
0.217436
0.493245
0.128689
0.376859
0.480643
0.174752
0.263959
0.226551
0.101955
0.238933
0.295339
0.282471
0.180912
0.192567
0.202982
0.225861
0.25037
0.241526
0.373224
0.442104
0.12087
0.299363
0.307663
0.329478
0.400465
0.231906
0.355341
0.152714
0.115161
0.214334
0.155374
0.247317
0.573024
0.254992
1.1264
0.249878
0.219957
0.160363
0.411205
0.200611
0.415965
0.378926
0.236963
0.451275
0.154001
0.44926
0.19855
0.196065
0.296604
0.167137
0.489484
0.466935
0.285518
0.198228
0.29497
0.135292
0.138963
0.244896
2.21574
0.246041
0.357891
0.306351
0.425125
0.502858
0.221102
0.681157
0.195229
0.143145
0.246063
0.264349
0.256849
0.17783
0.230227
0.197758
0.119949
0.203854
0.293485
0.123793
0.115148
0.260899
0.339331
0.857214
0.137794
0.281135
0.609801
0.359562
0.582364
0.446254
0.0935199
0.330199
0.195273
0.28174
0.198171
0.38486
0.318945
0.18877
0.218513
0.109158
0.41584
0.218022
0.308036
0.262493
0.563992
0.342483
0.355198
0.403321
0.174044
0.307287
0.123803
0.154487
0.252664
0.179952
0.13736
0.223612
0.145937
0.219495
0.267124
0.230943
0.476964
0.210294
0.201249
0.208552
0.172203
0.188479
0.435149
0.250018
0.43834
0.313215
0.454676
0.183713
0.352407
0.303553
0.0737316
0.239142
0.568876
0.394127
0.318001
0.134294
0.249398
0.230231
0.194916
0.239991
0.235364
0.481573
0.443059
0.282676
0.466908
0.242183
0.476751
0.228341
0.435538
0.154979
0.231382
0.168269
0.191025
0.201607
0.201625
0.120882
0.45694
0.555428
0.227469
0.341275
0.430546
0.209092
0.983943
0.339536
0.265174
0.265837
0.539229
0.568885
0.116846
0.270204
0.31727
0.514982
0.487136
0.235299
0.265428
0.199501
0.211439
0.119199
0.300713
0.326583
0.299421
0.659609
0.320963
0.242935
0.415843
0.270326
0.212295
0.376459
0.272657
0.338313
0.141615
0.158203
0.388788
1.08399
0.249301
1.13271
0.522758
0.185475
0.19586
0.189404
0.528969
0.35636
0.419924
0.275853
1.06062
0.163396
0.774897
0.444999
0.619345
0.190702
0.113276
0.26403
0.201326
0.365453
0.308061
0.205239
0.115119
0.220706
0.167337
0.341367
0.194071
0.292014
0.271346
0.208658
0.353728
0.33568
0.278237
0.263083
0.174049
0.491618
0.348017
0.203098
0.103736
0.272627
0.222028
0.291453
0.242325
0.307953
0.152429
0.508487
0.389388
0.207411
0.198246
0.359648
0.270929
0.431258
0.441921
0.393428
0.248243
0.468986
0.326505
0.287112
0.159133
0.510175
0.616597
0.159438
0.219689
0.214405
0.218341
0.438149
0.13923
1.12838
0.507014
0.38202
0.430749
0.435243
0.131742
0.257145
0.16891
0.247094
0.264124
0.360056
0.290272
0.180526
0.316814
0.227147
0.289747
0.635429
0.181124
0.155365
0.225072
0.172715
0.489383
0.123929
0.116074
0.43518
0.256799
0.342216
0.282276
0.31792
0.324168
0.196798
0.275742
0.404479
0.391192
0.321035
0.372936
0.368935
0.273584
0.634726
0.100029
0.253696
0.324594
0.238136
0.374467
0.283729
0.184714
0.466814
0.290222
0.334253
0.235473
0.168147
0.535943
0.681449
0.0684251
0.241179
0.404178
1.19911
0.218543
0.122005
0.405416
0.196271
0.406778
0.279402
0.287483
0.419996
0.182145
0.270918
0.106206
0.356204
0.239208
0.195408
0.274655
0.219423
0.180772
0.703117
0.351156
0.139926
0.318337
0.4478
1.36392
0.104964
0.194299
0.280636
0.157019
0.314313
0.291014
0.15981
0.225821
0.355282
0.847089
0.194681
0.423118
0.552814
0.243598
0.464508
0.269404
0.185222
0.616281
0.150148
0.297771
0.23771
0.245007
0.157047
0.299299
0.253549
0.278253
0.268525
0.207535
0.30635
0.162409
0.340414
0.153442
0.425839
0.261512
0.161746
1.84614
0.28746
0.236222
0.163558
0.363302
0.282296
0.217036
0.174647
0.269797
0.150955
0.397994
0.429203
0.0913967
0.24544
0.338521
0.654014
0.208201
0.327877
0.574084
0.357299
0.243755
0.277339
0.309786
0.191782
0.336727
0.526658
0.182539
0.23582
0.52588
0.25558
0.199029
0.133431
0.360857
0.167592
0.291772
0.15269
0.228663
0.262847
0.13866
0.115506
0.166334
0.209997
0.235754
0.319832
0.530424
0.626348
0.332905
0.288789
0.27029
0.2193
0.320304
0.252054
0.474069
0.132794
0.376785
0.328127
0.574167
0.267576
0.156058
0.237984
0.143621
0.360816
0.236871
0.466889
0.327265
0.254803
0.223285
0.393395
0.246251
0.168858
0.199719
0.400482
0.437082
0.2762
0.293644
0.705517
0.257702
0.209552
0.275634
0.361581
0.594691
0.464575
0.161954
0.543329
0.24852
0.314502
0.24396
0.253807
0.481224
0.130931
0.551748
0.308759
0.228293
0.259128
0.554206
2.34462
0.384097
0.224507
0.425844
0.36237
0.211818
0.462861
0.384885
1.22896
0.169268
0.391983
0.403184
0.469457
0.321305
0.220818
0.298499
0.350214
0.163116
0.260499
0.294997
0.88346
0.210664
0.344665
0.4239
0.329341
1.5107
0.113124
0.262591
0.605257
0.364975
0.32726
0.46938
0.681526
0.406455
0.27534
0.477281
0.248566
0.203054
0.190652
0.181961
0.131416
0.257798
0.383581
0.247555
0.407628
0.26237
0.271188
0.466314
0.333508
0.401513
0.184455
0.124093
0.328878
0.36628
0.273806
0.235925
0.15455
0.217005
0.22953
0.376341
0.27114
0.731975
0.308723
0.31982
0.215619
0.149168
0.17972
0.229182
0.33671
1.29797
0.152887
0.189297
0.520878
0.271813
0.173773
0.22677
0.299009
0.53315
0.718804
0.199456
0.177993
0.225736
0.464306
0.14908
0.298907
0.316208
0.286575
0.328195
0.863358
0.299049
0.392009
0.235051
0.39331
0.325114
0.345181
0.269682
0.14057
0.213457
0.267478
0.110288
1.56267
0.412385
0.322071
0.577704
0.331224
0.16466
0.226165
0.413922
0.194151
0.419032
0.218354
1.48563
0.245873
0.174863
0.09155
0.286122
0.289186
0.256711
0.204143
0.304303
0.570805
0.189233
0.301215
0.248692
0.125644
0.232382
0.246268
0.157603
0.424549
0.261366
0.1797
0.344252
0.226215
0.18337
0.223759
0.375366
0.477603
0.154849
0.248233
0.251835
0.894775
0.153291
0.194598
0.390617
0.203984
0.159307
0.289156
0.507823
0.40797
0.261382
0.31449
0.0700477
0.228885
1.20514
0.641919
0.228292
0.133735
0.189434
0.246066
0.170573
0.907009
0.262916
0.197083
0.326224
0.332881
0.140251
0.403407
0.199939
0.388236
0.49916
0.204996
0.112905
0.254572
0.269474
0.42294
0.295647
0.146882
0.250785
0.136456
0.242312
0.365432
0.2151
0.0825291
0.203667
0.297573
0.487298
0.144751
0.11104
0.221872
0.127366
0.410861
0.265065
0.369296
0.163381
0.179333
0.950902
0.435623
0.299746
0.208201
0.288051
0.286882
0.276499
0.985567
0.436623
0.239666
0.144434
0.130249
0.171151
0.229967
0.334418
0.270509
0.267904
0.21519
0.549391
0.39616
0.164
0.243837
0.248973
0.197922
0.221549
0.311939
0.125256
0.118078
0.296314
0.128579
0.189353
0.151056
0.433079
0.0913935
0.237882
0.128768
0.275587
0.504655
0.327283
0.554408
0.285744
0.192161
0.436236
0.179226
0.276833
0.833494
0.198477
0.157806
0.125143
0.250099
0.318321
0.385713
0.232948
0.165712
0.156636
0.436454
0.60198
0.285608
0.526016
0.460141
0.202701
0.255767
0.2038
0.198668
0.307469
0.145696
0.38831
0.302992
0.253875
0.43371
0.337439
0.383328
0.140882
0.338402
0.36791
0.580511
0.386366
0.232155
0.178598
0.249005
0.26443
0.460977
0.135774
0.203004
0.147121
0.158272
0.169533
0.257999
0.302082
0.469185
0.463584
0.385506
0.296742
0.380035
0.23011
0.305301
0.269415
0.108415
0.21305
0.402254
0.395976
0.51454
0.24514
0.192069
0.36249
0.321391
0.341979
0.252937
0.653457
0.182343
0.423069
0.278745
0.281593
0.218925
3.46456
0.312947
0.306664
0.251136
0.257706
0.309589
0.241154
0.773439
0.422894
0.217636
0.295024
0.249224
0.328397
0.286411
0.185
0.310588
0.171959
0.147917
0.679258
0.179257
0.338328
0.493413
0.250752
0.157856
0.266528
0.137937
0.602661
0.198094
0.326042
0.172115
0.305278
0.494049
0.236111
0.333508
0.268077
0.243517
0.274311
0.359442
0.272308
0.682393
0.479831
0.288233
0.329395
0.270603
0.255523
0.367501
0.292911
0.351388
0.317258
0.218206
0.185123
0.175143
0.385666
0.318795
0.401112
0.297747
0.616278
0.206913
0.221338
0.25398
0.376864
0.258197
0.810938
0.312611
0.336391
0.268518
0.295374
0.303586
0.203434
0.234253
0.194291
0.167914
0.181162
0.298524
0.135944
0.314201
0.87343
0.129908
0.156834
0.270758
0.24145
0.377078
0.196135
0.310754
0.57026
0.263923
0.248511
0.342081
0.242405
0.17938
0.394725
0.306441
0.521734
0.25664
0.263871
1.19267
0.152573
0.510333
0.200734
0.361356
0.233024
0.257962
0.270432
0.376728
0.284688
0.291364
0.132793
0.265198
0.198753
0.421194
0.202814
0.259907
0.308297
0.193739
0.29819
0.23445
0.701713
0.392524
0.25472
0.447746
0.133094
0.301143
0.283219
0.506468
0.199571
0.374784
0.155342
0.571934
0.269743
0.349905
0.40498
0.267835
0.330836
0.225069
0.259555
0.127972
0.167582
0.409982
0.261554
0.273807
0.243056
0.129067
0.281191
0.161198
0.276197
0.180562
0.335662
0.170636
0.144961
0.360901
0.132865
0.404672
0.269223
0.171721
1.62692
0.228406
0.103289
0.296021
0.330318
0.17606
0.532572
0.254798
0.315504
0.173343
0.169376
0.41602
0.189728
0.18487
0.289267
0.275822
0.450109
0.277042
0.316991
0.204721
0.293458
0.288122
0.268574
0.252543
0.11174
0.336656
0.263981
0.324248
0.30566
0.312419
0.289644
0.745232
0.736019
0.16981
0.176016
0.222561
0.352642
0.390235
0.283172
0.13491
0.13727
0.291468
0.175594
0.268681
0.15297
0.205294
0.239038
0.242384
0.199929
1.02434
0.250439
0.183751
0.19925
0.512534
0.548282
0.152231
0.318622
0.172813
0.373347
0.319315
0.203869
0.532934
0.312153
0.20929
0.363849
0.297016
0.250856
0.388225
0.0923381
0.416701
0.0553924
0.163387
0.1505
0.369991
0.261698
0.231813
0.381311
0.315207
0.413425
0.198787
0.425503
1.01397
0.643723
0.117742
0.721322
0.574572
0.273281
0.324367
0.334076
0.125892
0.109981
0.237364
0.28124
0.386437
0.217647
0.22463
0.189888
0.529079
0.293696
0.348178
0.322322
0.220611
0.267994
0.195005
0.4936
0.42036
0.355892
0.439113
0.0778389
0.258769
0.285232
0.276708
1.02461
0.329159
0.211368
0.223706
0.351137
0.327273
0.395197
0.294231
0.440168
0.213066
0.207024
0.230352
0.179033
0.2488
0.282238
0.262029
0.242695
0.171716
1.29883
0.236094
0.267676
0.510637
0.162394
0.19272
0.198528
0.976197
0.142272
0.288953
0.295694
0.204196
0.295277
0.369035
0.20896
0.377542
0.334802
0.248338
0.165065
0.225469
0.369954
0.207964
0.19353
0.312614
0.31903
0.199672
0.204364
0.153823
0.229927
0.277442
0.470673
0.138801
0.16613
0.174878
1.19427
0.323406
0.310404
0.416514
0.215924
0.192064
0.224453
0.296012
0.407774
0.272292
0.179329
0.862545
1.2483
0.772016
0.152709
0.230667
0.220878
0.254769
0.3129
0.494486
0.189183
0.350449
0.178626
0.349849
0.211064
0.311517
0.146205
0.126757
0.169991
0.211382
0.377238
0.189275
0.2463
2.04612
0.161191
1.20016
1.71823
0.269693
0.198557
0.247879
0.208616
0.596702
0.225199
0.261311
0.194972
0.197009
0.311398
0.572631
0.115071
0.457464
0.428388
0.302588
0.256662
0.340249
0.272952
0.246631
0.375595
0.200331
0.237274
0.245989
0.582319
0.388053
0.195189
0.220706
0.295131
0.719741
0.128564
0.195059
0.186526
0.0541903
0.346168
0.374415
0.226489
0.507522
0.310012
0.33314
0.274486
0.35358
0.282763
0.230107
0.566412
0.200492
0.609635
0.268201
0.479492
0.120949
0.209354
0.302939
0.307062
0.4063
0.304844
0.252364
0.292072
0.459334
0.38512
0.347158
1.09844
0.192726
0.590412
0.489057
0.119018
0.313705
0.252444
0.150483
0.339829
0.08172
0.214186
0.280592
0.253718
0.227667
0.239457
0.315171
0.181645
0.24926
0.211917
0.306127
0.107762
0.395032
0.134611
0.159
0.291171
0.241988
0.28604
0.307344
0.465793
0.328253
0.18567
0.31325
0.384698
0.257046
0.172551
0.215601
1.47429
0.454494
0.221657
0.213583
0.26317
0.337955
0.23876
0.252088
0.236357
0.0934716
0.220403
0.18439
0.684435
0.215235
0.241777
0.266176
0.157898
0.259771
0.166751
0.465338
0.176697
0.151047
0.53054
0.466356
0.250793
0.206078
0.203991
1.95837
0.280299
0.465339
0.427431
0.410256
0.142416
0.212304
0.245867
0.393501
0.145981
0.314842
0.159971
0.396914
0.215283
0.627606
0.330938
0.306566
0.242201
0.199213
0.477833
0.309541
0.135589
0.102051
0.501269
0.193604
0.358704
0.29742
0.253473
0.120355
0.250933
0.104148
0.308738
0.235211
0.411162
0.333898
0.242373
0.229028
0.21325
0.255886
0.193444
1.02814
0.189356
0.201016
0.235602
0.22515
0.129359
0.31506
0.13663
0.308774
0.301026
0.386072
0.156517
0.118684
0.455435
0.1897
0.19221
0.152515
0.297776
0.411766
1.19454
0.138776
0.210723
0.266115
0.296355
0.481554
0.141382
0.426129
0.36666
0.225484
0.146762
0.375564
0.202139
0.156135
0.302595
0.181918
0.33536
0.232832
0.118554
0.591025
0.18321
0.27938
0.111355
0.135015
0.298027
0.17731
0.279058
0.250057
0.407705
0.256856
0.118747
0.150106
0.253853
1.1573
0.320725
0.283432
0.367929
0.10939
0.287017
0.295944
0.381051
0.266358
0.0734042
0.201029
0.272176
0.212826
0.59694
0.184881
0.399745
0.277215
1.08798
0.212442
0.227506
0.442708
0.319946
0.271013
0.369822
0.383494
0.669512
0.56844
0.15694
0.297824
0.20215
0.174231
0.1381
0.689549
0.470052
0.262447
0.312871
0.218686
0.550101
0.535666
0.549518
0.261021
0.23547
0.512906
0.154863
0.424873
0.387812
0.21184
0.169625
0.32933
0.182115
0.176253
0.166534
1.61106
0.504095
0.358995
0.188097
0.513929
0.205131
0.256592
0.140097
0.131665
0.236387
0.176773
0.210176
0.355241
0.634165
0.238617
0.16149
0.302795
0.12895
0.31064
0.335258
0.655282
0.278721
0.275472
1.08362
0.653426
0.360526
0.245675
0.128151
0.338793
0.253946
0.699214
0.301622
0.245618
0.268929
0.536173
0.324529
0.19622
0.188911
0.140938
0.261336
0.183855
0.572097
0.301923
0.331598
0.354918
0.319605
0.221077
0.374993
0.136725
0.0826439
0.287017
0.160541
0.220326
0.328329
0.283592
0.190761
0.20812
0.170914
0.256137
0.18051
0.269681
0.503372
0.298146
0.130669
0.315574
0.196292
0.195657
0.169097
0.250425
0.255405
0.250603
0.551088
0.221248
0.298191
0.156921
0.183237
0.269281
0.346611
0.17365
0.24038
0.242933
0.228641
0.344989
0.332618
0.104798
0.42266
0.142295
0.276834
0.347203
0.317197
0.422155
0.273412
0.337155
0.293976
0.151034
0.390579
0.225436
0.273209
0.283918
0.20181
0.277289
0.112299
0.276072
0.178294
0.219327
0.217797
0.174276
0.117544
0.433122
0.577794
0.209905
0.312891
0.345708
0.595612
0.390189
0.277838
0.346527
0.306179
0.109595
0.113274
0.260982
0.198923
0.111125
0.07954
0.271627
0.296874
0.175123
0.208898
0.514711
0.207611
0.377993
0.376587
0.36505
0.306266
0.263708
0.284104
0.131851
0.208835
0.185729
0.311397
0.386241
0.129228
0.220008
0.487799
0.411208
0.460722
0.365924
0.462502
0.43724
0.157119
0.135233
0.335895
0.317912
0.153294
0.278393
0.197044
0.150799
0.224253
0.24002
0.199521
0.246028
0.625042
0.15098
0.166554
0.545144
0.240216
0.429734
0.260694
0.212995
0.245748
0.288135
0.384091
0.581502
0.312644
0.246822
0.518412
0.398044
0.28369
0.51528
0.37865
0.299242
0.631981
0.318854
0.1654
0.256259
0.311704
0.36484
0.316819
0.196049
0.219932
0.944379
0.120356
0.169946
0.261849
0.210565
0.308445
0.224991
0.254113
0.390066
0.187752
0.279767
0.166732
0.521825
0.281468
0.21327
0.223588
0.297358
0.209902
0.361162
0.312134
0.268272
0.171482
0.247676
0.251414
0.426342
0.232881
0.138931
0.147028
0.231089
0.24768
0.219076
0.576211
0.244789
0.312963
0.289851
0.215951
0.248076
0.320671
0.169329
0.299486
0.252319
0.22031
0.626776
0.166144
0.126165
0.174266
0.441739
0.416792
0.198625
0.223707
0.328451
0.160711
0.107354
0.471078
0.180403
0.211628
0.232363
0.255196
0.213929
0.225619
0.194395
0.351191
0.16628
0.198384
0.244935
0.48652
0.222828
0.409563
0.23097
0.484537
0.269908
0.135595
0.260676
0.162303
0.59597
0.429999
0.776046
0.33903
0.194671
0.301332
0.523659
0.192213
0.431222
0.228043
0.265313
0.163695
0.224881
0.161097
0.113443
0.439683
0.132686
0.1394
0.256582
0.116057
0.234688
0.393621
0.458366
0.703826
0.31667
0.167508
0.603948
0.19324
0.158816
0.192814
0.478232
0.427753
0.12144
0.26424
0.964518
0.166421
0.277902
0.169395
0.337368
0.310179
0.473829
0.210812
0.321236
0.170032
0.212285
0.775986
0.236595
0.239719
0.226669
0.251596
0.175717
0.378391
0.264747
0.601334
0.21307
0.517591
0.357358
1.05965
0.159231
0.269148
0.15192
0.13073
0.196651
0.160667
0.138028
0.305399
0.166539
0.260039
0.121789
0.253462
0.51858
0.369222
0.191028
0.230317
0.378821
0.185624
0.359102
0.293224
0.316971
0.240427
0.24849
0.227273
0.261499
0.140541
0.23616
0.213738
0.217518
0.171183
0.0909697
0.402302
0.206462
0.160566
0.232238
0.406988
0.339254
0.480905
0.196389
0.325899
1.36893
0.183101
0.191589
0.258646
0.324784
0.135404
0.202982
0.403094
0.454113
0.508713
0.306698
0.108217
0.317409
0.429835
0.306894
0.211895
0.334606
0.831491
1.63643
0.31828
0.853735
0.28185
0.315029
0.421614
0.223832
0.279115
0.593902
0.273112
0.278504
0.298165
0.344322
0.210885
0.297517
0.152221
0.449951
0.385417
0.126522
0.407004
0.286884
0.192616
0.934317
0.784022
0.299011
0.27168
0.178501
0.180184
0.285098
0.403674
0.291538
0.509797
0.282736
0.221988
0.178519
0.32647
0.105684
0.0997294
0.390355
0.141731
0.225493
0.354382
0.197445
0.339951
0.220312
0.63152
0.171509
0.155915
0.386529
0.197655
0.156537
0.28626
0.376574
0.165281
0.439746
0.351443
0.247009
0.20337
0.229332
0.384888
0.350242
0.277194
0.268536
0.533709
0.229137
0.356742
0.533583
0.206866
0.139136
0.153201
0.171335
0.203962
0.161905
0.266589
0.164565
0.208114
0.157302
0.157455
0.165293
0.13682
0.31625
0.585162
0.881698
0.611969
0.703848
0.351513
0.16758
0.240873
0.262564
0.537299
0.618678
0.204351
0.205145
0.4554
0.270528
0.272999
0.123174
1.09185
0.189768
0.370207
0.470653
0.239328
0.518396
0.519256
0.20486
0.228076
1.25395
0.336949
0.302082
0.381397
0.166939
0.15924
0.225494
0.493945
0.180075
0.16383
0.217227
0.227159
0.323149
0.407848
0.193133
0.310645
0.0601187
0.184439
0.2448
0.163931
0.419796
0.476348
0.192147
0.245284
0.145237
0.214817
0.322601
0.276062
0.336025
0.224715
0.307404
0.709371
0.326436
0.177346
0.88812
0.283801
0.196537
0.184093
0.336711
0.265948
0.179954
0.26769
0.14768
0.326945
0.298592
0.349511
0.139288
0.267185
0.498667
0.17426
0.100226
0.237719
0.240248
0.260759
0.270333
0.299648
0.168505
0.123603
1.35764
0.377401
0.612147
0.192577
0.303537
0.381562
0.33938
0.129963
0.0766934
0.203433
0.935401
0.24649
0.197674
0.314591
0.25676
0.302527
0.167588
0.330115
0.36147
0.399266
0.450071
0.320928
0.214016
0.49423
0.185269
0.309221
0.322726
1.52015
0.291018
0.423307
0.224034
0.264783
0.237865
0.201329
0.249769
0.324239
0.209223
0.628242
0.381916
0.354039
0.141483
0.718024
0.334936
0.454856
0.382817
0.258862
0.309963
0.325005
0.298698
0.19494
0.205564
0.220666
0.199735
0.335293
0.249565
1.64316
0.293588
0.282861
0.227066
0.312219
0.245361
0.113843
0.22027
0.385961
0.280891
0.208093
0.210986
0.227118
0.555858
1.46628
0.29479
0.163541
0.240068
0.35047
0.309885
0.172347
0.184211
0.476011
0.272188
0.268063
0.283672
0.286997
0.165068
0.39707
0.205035
0.284474
0.354409
0.490525
