1.22206
2.71706
1.45784
7.18296
1.59874
0.900062
3.77223
7.88826
0.92495
2.77059
0.490947
4.88608
2.12815
1.56426
6.11337
6.98121
7.56062
2.45473
7.27661
9.85014
1.75567
2.38261
7.12621
7.4799
1.14586
10.3663
3.14401
3.7401
2.1549
1.99763
4.12362
2.29508
2.81619
2.37392
3.47722
7.81801
7.41306
1.59855
2.47641
0.894677
1.33462
1.23113
1.36894
3.18992
1.63751
0.841937
0.919508
3.06828
2.47175
2.2312
1.42275
3.45808
1.79791
2.29911
0.392152
1.76087
10.3629
1.22671
1.84111
2.59049
2.33543
0.792711
2.409
0.587492
10.9651
3.20684
6.04287
0.534568
1.95245
0.700246
5.44934
4.38247
2.25762
0.326112
4.18649
3.76737
1.28638
4.0533
0.560536
2.10996
3.02625
0.387886
5.473
1.0283
5.05271
2.40273
2.47183
1.37372
7.88416
10.7117
1.36067
1.45219
0.447458
9.26893
2.95868
4.08192
2.21078
0.588707
2.69991
1.40662
3.83096
3.55517
0.970747
0.79391
2.25556
0.349693
2.0599
0.490089
4.9962
2.77045
4.22662
2.44106
2.24652
3.71106
1.16173
0.690467
2.82423
1.25535
4.8961
3.33856
4.72501
1.08651
5.62054
0.431893
0.681383
1.42893
2.4153
0.520838
3.06965
10.2403
0.517069
0.385512
2.31155
2.90706
0.995034
1.12103
1.58703
2.40499
9.34543
0.594361
1.20006
0.600386
4.07881
4.93203
1.11312
9.67928
0.99196
0.443634
0.803464
2.58712
0.795067
1.24863
4.38003
2.91226
1.41777
2.46812
1.24859
2.60439
0.665666
0.478809
2.41368
3.45886
3.89732
1.80566
1.04357
0.314045
2.53668
5.39084
1.66099
0.681357
2.64216
1.10789
1.54271
2.53325
5.94534
12.0943
3.13422
1.7575
0.555409
8.22801
1.06637
0.357706
2.98956
4.02599
1.077
1.7985
7.24202
2.45117
7.38356
1.71993
0.482096
1.04982
9.13519
7.96827
1.06826
0.575936
0.817929
0.955407
4.48164
9.83844
0.663041
4.88904
5.14355
0.416948
5.74613
0.813464
5.44725
1.9455
2.51631
1.6672
2.15093
2.26344
2.88191
7.23978
8.53693
0.468779
3.95908
2.53273
2.02695
1.26786
3.75665
1.77562
5.1487
1.38982
6.19512
2.51632
3.87106
0.945789
8.47973
1.28134
1.52954
1.4311
1.13158
1.90362
2.70423
3.19325
5.45449
0.506387
8.23958
0.887461
3.57496
1.56366
1.64107
4.42365
2.07313
6.62621
0.467848
13.3516
3.33455
2.74829
0.471616
2.45759
0.956777
3.25624
1.17553
7.68734
1.47259
3.15488
4.44744
1.69418
4.30809
6.01844
3.06103
3.59792
12.4768
4.64984
1.69128
1.26932
1.03395
5.73499
0.987293
4.67076
4.74544
2.9212
0.666925
2.57422
1.75477
4.01188
1.73117
6.57566
5.31761
1.82627
5.83211
1.49344
2.67849
5.05546
7.02016
0.618862
3.36042
3.05454
2.50422
2.46479
1.12699
9.26582
4.129
4.62695
4.75544
0.68154
4.48852
2.81732
1.60337
3.81598
0.442907
0.892995
1.61133
1.10835
3.20641
4.1176
2.41536
2.27762
1.07565
0.607951
9.43676
1.02137
2.51054
10.6591
2.74142
3.81639
0.487933
2.36102
5.75949
5.02259
2.34031
7.82586
4.68062
0.576948
1.7611
5.20599
3.08208
2.77892
2.468
13.3616
2.35207
8.76907
1.29851
1.00156
0.657178
4.94812
2.86739
1.47101
7.13587
1.08338
0.720356
3.16294
3.23363
1.52357
2.65587
2.31865
2.9389
2.56376
7.72946
3.13283
3.08476
2.11112
2.9222
1.0466
4.21954
2.11431
1.71235
1.72035
2.94962
6.72013
1.72439
1.51125
9.49788
6.72279
3.84781
1.97376
1.78534
3.23827
0.810534
2.83955
1.88013
2.32503
3.34385
4.21276
4.20466
0.338789
1.95582
2.80103
1.3576
4.81168
0.576871
2.77318
4.2004
3.47439
3.35231
1.83495
0.951356
0.924432
1.33275
0.900041
1.02036
1.11923
2.04304
3.83484
2.79905
2.09725
0.377217
4.2895
4.29397
5.28693
10.9784
6.39751
4.2282
1.12124
2.57906
2.1308
0.553275
3.05502
1.64882
1.44651
12.6729
1.93229
1.37235
1.58021
0.892369
1.5794
8.44976
2.58069
4.94088
2.38142
1.00569
1.82364
3.59694
5.84593
2.66528
3.00208
6.93035
8.2532
1.6145
3.53401
2.46941
0.945269
2.2037
2.50695
5.68981
1.66274
0.497199
1.2711
4.2912
3.53304
2.96791
1.62129
0.622969
0.45436
3.41488
2.82
0.670382
5.71296
1.88978
1.67536
1.15697
4.07894
0.837599
3.24335
2.12381
0.384949
1.14335
4.42376
1.92748
1.63474
4.5721
7.75049
2.47809
6.19526
5.49743
2.0271
1.99481
3.24287
1.06863
1.06362
1.83607
2.2821
0.807106
3.54011
0.969706
3.52633
1.85308
4.24132
2.86064
5.02224
4.08643
1.58411
5.22008
1.4148
1.23742
2.57801
2.01711
0.806826
1.50759
3.24627
5.39888
4.20323
3.67702
1.79072
1.86579
1.73879
0.879209
0.676193
1.2023
6.18156
2.71594
1.3186
4.78511
1.26087
2.07635
1.5975
3.09294
1.81034
1.40119
0.976808
4.94978
1.22213
0.684068
2.17837
1.51769
4.03342
2.41903
0.67467
2.03268
2.35029
9.72713
0.957815
3.12313
6.49242
1.06893
0.94071
3.36412
2.65547
1.41419
2.58058
0.758751
4.98717
0.615397
10.9722
2.36804
2.46488
3.42661
0.582504
7.62305
0.681086
1.21253
3.32998
3.80274
1.39707
4.72089
2.9013
4.08399
1.80366
0.506198
5.54154
0.526074
5.07055
0.469998
6.1776
3.74878
0.879236
3.2562
1.28476
5.12866
0.950657
1.07514
4.54704
2.3985
4.76255
0.764465
2.9145
6.95714
6.50609
4.25984
1.44478
1.99216
1.46975
17.1322
4.56052
0.73523
3.78833
2.1322
2.53447
1.38129
5.42286
3.07408
3.54453
2.33006
3.16156
4.94269
3.69648
2.33354
3.00394
4.40524
0.504876
3.56096
1.04194
2.42344
8.72735
7.14539
3.04835
3.65035
1.22359
0.461327
2.46997
9.4857
2.63628
2.07625
11.5609
2.62156
0.77724
3.10587
6.04598
2.33198
3.1577
1.61914
1.69732
1.18873
3.61262
0.961931
0.40171
3.69627
1.07101
1.99274
1.54112
5.52368
5.94095
1.67605
5.04025
4.1075
11.7687
1.16479
2.61291
1.39938
4.13727
3.60628
2.48528
0.942591
3.95626
1.12588
2.52975
1.64291
2.49355
1.24831
1.58053
6.39546
2.58002
8.4104
1.44176
2.2277
2.06506
2.34616
7.86796
3.66057
4.17626
0.919434
0.474928
6.5786
2.17586
3.67779
4.57787
0.492635
5.26273
2.33075
2.71732
11.4909
1.20486
1.932
2.32288
0.304825
3.10987
1.0992
0.826136
0.706514
5.72867
0.396189
0.713862
1.32045
1.99975
3.1064
1.13047
4.42703
2.94729
2.80468
0.548822
1.41206
1.12123
2.87767
1.53501
6.50785
1.01459
4.47735
9.85344
4.41486
5.06427
3.32777
5.16041
0.87498
2.91842
1.57958
0.702379
3.54613
1.28516
2.73826
4.43407
3.90191
7.77587
4.66338
2.02459
7.10631
0.431304
7.8165
3.86789
1.02936
1.32319
5.57297
1.17614
6.73659
3.33569
5.18446
6.62897
1.69139
13.6528
1.71839
6.90111
7.79535
1.87491
3.33955
1.36376
3.13821
1.48415
2.18521
4.87798
4.2121
0.514815
2.91532
0.745454
1.30472
6.88529
5.03009
2.78151
4.54177
1.86657
1.55424
2.35296
4.91544
1.4515
2.5393
2.1866
5.3478
5.6515
4.5208
0.326555
7.32995
1.5421
3.69464
3.66578
7.33419
0.577606
1.79433
2.57032
3.53453
4.37048
10.44
4.98631
1.18621
4.2698
2.99379
1.91379
1.40101
2.52558
9.15921
7.60861
1.72891
6.36915
2.08702
4.15081
5.74339
0.648703
0.589864
0.620599
1.61199
10.1231
1.31968
1.60557
4.79111
1.46647
2.27383
1.28884
0.654784
2.16204
1.51095
10.8004
2.59942
12.6964
1.49222
7.9929
0.644457
3.18171
9.06905
1.48574
6.12654
4.0339
2.47118
2.59221
3.76561
3.82101
2.36088
6.82502
6.01831
3.93065
4.10201
2.93883
1.03254
1.78219
0.915997
6.32009
7.91863
0.533086
1.96627
10.3269
0.621809
0.468977
5.29178
2.92507
1.99415
2.0325
6.95947
4.2546
3.02815
3.50679
1.03224
1.94609
1.70459
1.35969
1.12049
3.18757
5.3295
4.36397
0.493876
0.697557
3.64857
4.01559
2.27692
4.13783
1.73003
6.8237
0.596506
1.83572
5.41716
5.32435
1.36353
3.51309
0.354914
0.467378
1.69902
0.459729
1.81337
4.55715
2.48427
0.471143
1.09481
2.1672
5.17268
0.435802
2.34253
1.51721
4.24591
9.5638
12.1654
1.99542
5.32005
7.81176
2.10006
6.428
3.6558
0.833665
0.822868
0.527331
0.923531
6.25251
1.0768
1.58015
2.51355
1.91424
4.32261
1.81628
2.39122
2.11077
2.76253
6.51039
1.05249
6.28445
1.68769
2.15983
2.95535
7.80399
5.69166
3.27071
2.20953
2.97258
1.48594
1.5131
1.0543
3.09444
10.9702
2.57421
5.03725
2.05748
3.02888
2.78941
0.456491
1.55263
5.30704
0.958849
2.85142
1.69909
3.11
6.71666
3.93864
5.92599
1.25047
4.37924
3.77981
6.25501
3.39874
1.16938
1.48415
1.22203
1.47751
1.92699
6.96026
1.63079
3.01615
8.51285
1.59082
3.03579
1.87822
1.6697
7.49103
2.53108
1.45307
7.82238
0.844665
5.66971
2.78856
1.68577
1.78205
2.81179
0.668939
2.98081
2.9534
2.02339
0.797194
2.79063
1.41249
1.5856
3.85591
3.8753
2.00499
0.922392
5.18476
0.722123
2.08717
0.644282
4.07911
3.19452
0.414071
5.84085
2.93891
6.16538
0.419438
6.46876
5.05858
1.98754
2.1858
1.76322
1.81
2.9782
1.84688
2.67896
0.646185
0.795893
4.35405
2.76333
5.75912
9.58751
0.436133
3.00648
1.98998
1.32361
5.4135
1.32845
1.1414
6.08763
7.83171
1.9006
11.7424
3.33232
6.82584
7.88913
4.40301
4.02603
0.664968
6.33786
7.31534
10.2006
0.812969
4.62323
2.99888
1.6238
6.07814
9.04798
4.84628
6.31022
5.76322
0.81651
2.15833
2.24503
0.474173
2.53815
1.39254
0.924747
11.701
1.51423
3.13961
2.9796
1.76776
3.19155
3.3498
2.89085
3.91764
1.11109
3.18043
2.9239
0.725349
0.843462
6.09342
2.14028
4.54254
0.331719
10.1375
0.77115
0.835235
17.7186
1.54928
1.39456
1.04195
2.10999
0.556107
1.10547
3.13787
11.2028
4.95736
5.84162
1.92053
12.4502
1.168
5.19734
2.40472
8.29154
3.558
2.10746
1.12643
3.80515
8.41364
1.88483
2.37707
1.72365
2.50176
1.70056
10.9335
4.60619
3.54389
0.38581
1.19135
2.21125
9.57127
2.0231
3.92562
5.68995
0.597142
0.668225
3.71363
2.79054
4.6066
4.80187
6.9478
2.65523
4.20851
1.21776
5.05635
3.66036
0.808655
0.524282
0.367596
2.17206
1.1513
2.74027
0.612509
1.71663
3.77531
4.49967
6.94353
1.2362
6.40999
5.95361
2.67419
3.96413
0.403067
6.43377
11.2304
0.620409
0.606661
3.27266
1.36168
1.81017
2.23363
2.5242
1.46532
1.99887
1.06118
1.59685
7.09422
3.32625
2.22272
1.21123
0.429044
1.47678
2.05923
1.95651
4.36634
1.20245
5.23163
1.68125
0.348603
0.337235
0.404028
8.15567
2.02241
3.89894
2.71321
0.532179
5.19761
1.09305
1.53488
3.89363
0.706219
7.71906
0.934364
5.62185
1.85144
1.7708
4.9844
4.41653
6.20924
1.72282
2.64124
6.10121
3.93669
0.86536
0.53419
7.23978
1.7192
1.63728
2.06446
2.59469
0.572605
5.37566
8.75036
2.14057
4.50148
3.32541
3.89511
6.41633
2.22136
0.986053
3.56504
5.19601
1.37379
0.996373
3.43762
3.60059
1.80915
3.55847
1.96159
12.114
8.46701
5.19139
1.25136
4.05749
1.66781
1.20365
0.89637
12.7327
3.68364
0.663582
0.888035
0.57956
4.45325
1.43658
8.08442
7.1465
2.44549
1.48698
3.48126
3.54135
2.66327
0.532045
5.68343
2.6802
1.43235
0.281179
0.326557
2.70988
0.80961
1.62209
0.741058
0.565897
1.98947
3.72679
0.968216
1.67596
3.96163
2.86521
0.534071
3.73694
2.14165
2.70017
2.42727
1.29296
2.90143
1.7738
2.7663
1.55111
0.934414
0.764449
15.1919
3.09958
3.89532
0.376846
3.79824
1.02002
1.719
4.22705
4.93181
5.41943
1.44327
0.738698
0.361714
1.1201
0.941665
1.54728
3.4824
1.905
5.69965
2.64473
1.45066
1.62878
1.51168
4.75987
2.16684
0.969271
5.36079
3.3954
1.94264
1.22325
1.1011
3.69013
4.372
0.688651
0.940013
0.910407
1.66176
4.6247
0.752969
4.439
1.5261
4.75161
3.96237
7.3404
3.50822
6.22862
3.30482
1.723
2.89757
2.15567
6.10907
2.94335
1.25609
1.93228
7.23644
5.88706
3.40817
1.63538
2.3203
2.31966
4.92088
5.79557
3.39952
4.56701
14.2603
3.16582
0.925948
1.68202
2.18691
3.94437
0.456154
0.705497
2.8772
3.7055
3.07151
1.03593
0.693617
4.11428
2.48217
3.96312
4.11757
2.9807
3.9425
1.85621
4.84859
0.408955
3.08573
0.853484
1.85739
7.75904
4.11074
1.68765
0.583359
1.11471
3.07567
3.42988
5.9414
3.02934
0.748046
0.910619
4.00651
6.55184
1.9951
0.543487
5.67144
0.496493
7.34191
1.85536
0.624231
1.12177
2.81086
5.24042
7.70959
0.437582
4.39244
4.4514
1.3844
3.76152
0.754304
0.635186
1.34904
0.494947
0.535709
14.1192
1.56373
3.29904
4.97856
4.61682
2.10358
3.27078
12.0421
1.28391
0.744959
3.47912
4.2378
5.75787
1.11804
6.20299
4.09536
1.34026
1.46125
3.42541
2.05548
2.30485
1.1068
6.57117
3.72212
1.39317
0.97223
2.22296
7.37415
10.6639
1.58121
2.58585
3.18771
2.85203
4.82489
5.71971
1.3766
1.53171
3.61029
1.46475
1.15688
5.32331
1.0694
4.5507
1.67176
3.72302
2.68269
2.71516
3.85527
2.35024
3.49331
0.423963
3.65403
1.19992
2.02515
1.43409
1.18243
0.375447
1.89945
2.17724
1.67889
1.04446
1.50827
3.85519
1.22638
1.57163
0.664619
1.00345
2.50826
3.83371
3.16832
1.76179
3.97609
3.22281
2.38625
2.90382
1.13723
1.14074
5.95102
7.95491
7.36723
3.56424
3.05707
0.485732
4.2045
2.20687
2.5717
2.31119
0.728477
2.30619
1.83297
5.50088
9.1266
0.599572
4.53859
1.62055
0.5289
2.47203
4.5856
0.423613
0.834064
1.96067
2.06717
7.53045
2.18499
1.12197
3.18766
5.85842
4.63445
0.830204
1.90575
4.76558
1.63836
2.19485
6.06524
10.8339
3.27411
1.95384
3.23006
1.23103
1.1878
2.43297
0.65624
2.51793
2.64872
6.2966
4.22026
1.01843
1.87427
1.44086
5.79157
1.72169
4.48935
0.926762
4.86145
0.407509
3.51605
1.02823
6.79333
2.77655
4.47881
1.07353
10.8362
8.33916
5.21817
10.0006
6.45909
7.86286
3.4687
0.507004
11.8279
3.24867
1.90991
2.27967
3.62453
3.04979
4.1166
7.59523
0.606866
6.03114
7.37595
0.628448
2.63719
1.57386
2.68282
3.9217
3.50183
2.568
2.03497
3.7795
2.19199
1.85702
10.5309
9.95652
0.616976
8.15886
1.18206
1.92982
0.983262
1.19517
7.86442
0.992224
3.57985
1.36535
3.12624
1.91736
3.33646
3.07992
3.59602
2.55648
3.75377
6.59792
2.10875
1.37435
0.544777
1.5061
0.473671
3.34165
3.42356
7.86655
4.51712
5.74703
1.14769
5.15812
2.24845
9.01793
2.5334
3.96014
1.99316
4.95779
1.03875
3.1273
1.40388
2.86326
3.42758
1.66747
1.69583
1.82808
4.78292
6.45174
6.04021
0.696363
1.57198
3.15654
3.86778
0.666724
4.59552
2.15464
2.14288
7.11036
2.1905
3.52885
0.750965
6.04775
2.50959
1.90194
4.4239
2.74215
1.53975
1.68255
4.38262
4.07459
8.59285
2.68528
1.46456
6.04357
2.55179
3.75773
3.80855
6.18652
3.13279
5.03981
1.37535
4.43164
6.49226
0.430479
2.95028
1.03858
1.22794
1.89474
6.44278
2.84717
0.740995
7.46137
8.28919
2.30069
9.32304
2.54774
1.74361
5.90672
1.11544
1.11082
1.33775
11.5063
1.90359
4.17392
2.65263
0.637998
2.54641
2.27014
2.08993
2.73789
3.96987
2.00378
2.63376
0.594231
9.88913
0.51324
3.82885
0.765582
2.68206
2.13111
7.84352
1.89231
1.33276
1.59587
0.878068
6.93828
3.65771
5.87963
1.88029
0.787416
0.828474
0.91937
5.655
4.13953
20.689
2.60877
2.04347
5.4091
1.85458
2.45151
1.06411
10.6162
2.92021
2.84926
4.17968
5.96773
0.865264
0.847469
3.88566
0.998778
3.92114
0.409712
1.80729
7.03501
5.56904
7.89194
3.66488
7.11675
5.08038
0.939192
2.80106
4.06213
3.08472
0.454117
1.93349
5.74774
1.8641
2.28251
4.11426
1.79114
1.72942
6.09393
1.4986
2.91507
1.70009
4.5469
2.66223
1.06334
0.46758
4.03941
3.95034
2.33588
0.460278
0.381824
1.54799
1.4977
9.01666
2.12326
2.41412
2.83996
2.83882
2.97293
11.258
1.20583
6.05331
4.059
2.63513
2.07532
2.86129
2.41595
10.8555
2.15937
1.97796
6.84762
2.21511
10.1302
1.37521
7.92425
0.637416
0.565983
1.98651
6.64777
5.87783
3.65698
3.32731
1.43308
8.90552
0.641177
6.02509
5.19318
3.11482
2.41205
2.22241
1.60149
1.78251
7.0396
7.43054
6.93452
3.64662
3.40804
3.72481
0.355963
2.39643
1.84457
5.9022
2.63169
9.99371
0.532823
3.69585
9.25231
0.729745
4.18824
1.42335
3.57138
4.04728
6.57513
0.955935
0.787329
3.43491
4.73186
1.74571
4.42196
1.4378
1.39731
2.25456
1.76211
2.88931
0.32232
2.00188
0.49583
13.1698
1.97677
8.90091
7.88801
3.63716
7.79671
2.19117
1.24433
1.88069
0.531738
0.679867
2.81864
0.975558
2.1569
5.89995
2.12921
1.06161
0.80681
1.73349
1.10785
1.67181
3.52754
3.00984
1.28289
1.88011
4.04369
4.11124
8.06745
6.63151
5.5345
3.66414
0.521463
11.0922
3.71496
5.37526
5.09662
2.11567
2.56534
4.17425
1.39597
1.56582
7.61091
1.1332
1.67944
2.01603
0.942374
8.55978
1.60145
7.51112
1.08085
4.55245
2.85058
2.22785
3.82989
7.37769
2.18258
2.70956
6.60827
2.24364
10.4661
4.79357
2.6854
7.99301
16.5765
2.14508
3.43318
2.73175
0.668036
1.12149
4.7619
1.87326
5.30134
0.451316
0.382922
1.2143
4.69201
2.56359
1.82883
1.50847
3.05462
3.87964
1.50598
0.785248
0.358294
0.385362
2.78645
2.31479
4.37924
0.634791
3.89343
1.37491
1.42113
6.61589
4.76601
7.19073
4.62286
2.27374
0.709342
2.65987
1.25988
2.05457
2.30071
3.64692
1.90409
2.37891
3.44003
6.97686
3.56842
1.83691
0.583732
0.790803
0.448832
4.02678
1.61217
2.54792
5.21789
11.9629
2.15206
3.03434
0.510741
1.77147
5.50719
2.05958
3.30985
1.68825
12.4026
3.32411
5.44851
2.23735
3.11072
1.67553
7.09214
0.423977
6.08417
1.3413
3.88055
1.33345
2.26579
4.74992
2.79587
8.90046
0.933607
1.53872
2.80421
1.90126
9.46246
2.10479
4.038
4.22188
2.79737
6.35507
1.48905
7.64818
1.9182
3.3246
3.14768
2.18971
0.56443
1.40702
4.33577
2.16109
3.75833
8.18548
5.64222
1.47136
2.26077
5.26402
3.73221
1.32028
1.9008
0.38561
1.27065
0.573919
2.84437
0.458722
1.52796
7.06379
6.37016
0.774729
7.88746
1.07537
3.47258
1.4679
3.05715
3.42361
1.45992
1.2811
14.5118
1.73564
9.06828
0.372021
2.94543
3.39595
1.66885
2.10041
3.11782
0.917156
7.71823
1.48167
12.4
2.78826
2.85466
4.17275
2.58117
0.922292
1.44456
5.27338
2.91817
2.68481
2.52671
1.24162
1.33098
5.96737
6.61663
0.62361
4.11312
1.05587
7.96066
0.946413
1.76492
7.59988
3.09001
1.34278
1.86844
0.515622
2.04483
0.523914
0.723453
5.53321
2.72944
2.12539
3.12433
2.36752
4.33435
0.797614
4.30263
3.8994
6.77588
5.0798
3.69266
5.25589
1.39747
0.830789
1.36305
2.26001
1.10665
1.64287
0.680304
9.27659
1.76875
4.27204
2.51359
1.70508
3.69783
3.839
7.93421
2.13022
2.74574
0.487401
0.676944
4.19495
1.41234
1.32325
0.416867
3.20493
8.95596
9.60488
1.10754
2.64483
1.70794
1.4531
2.532
3.41959
1.34023
2.31336
5.46864
4.29919
1.79348
1.99053
2.57297
1.72532
4.52393
2.03357
1.98532
4.94941
0.554873
6.5504
3.18661
3.11363
1.39083
2.991
1.16585
0.946375
2.35014
0.579444
0.700166
0.772089
1.26683
2.35753
1.94145
4.74555
1.14486
1.32285
2.38259
1.7165
3.53661
4.53557
0.517555
0.233232
5.41179
3.43265
13.4541
2.47973
0.382955
3.63153
5.34305
1.79742
2.98083
1.4513
0.542789
10.4082
1.47532
4.43076
2.80204
2.98124
2.8277
4.17943
5.79222
2.85358
0.743968
7.72854
8.37777
5.94619
6.20768
0.658466
2.38524
6.32174
1.14667
1.84192
8.0194
1.80041
0.729312
4.69617
2.41313
2.6859
1.44417
2.49656
1.7226
5.116
1.0367
1.29759
4.61649
4.52398
0.874302
0.867596
6.43213
15.5439
1.28791
7.36815
1.77194
3.30803
1.02647
3.90549
1.58826
3.72026
2.5053
6.03129
3.17938
2.31577
6.98712
2.04184
2.43531
6.92497
1.39869
6.45826
1.51685
2.20668
0.328831
1.58893
0.803477
3.89542
11.1914
1.91313
1.16023
5.1187
0.745643
1.83081
4.53704
2.26716
4.58953
1.72681
5.0212
2.0004
1.88317
4.01377
4.82186
1.312
3.6923
2.49826
0.296689
0.559693
2.08038
4.69461
2.9378
1.82209
1.73727
3.48957
4.515
3.46129
4.73589
4.93326
1.76699
0.409081
0.716763
4.05248
5.91858
0.83595
1.8765
5.22044
0.496222
0.545236
2.30826
1.38239
0.846047
0.436154
0.569844
3.5052
4.94201
7.69849
4.72745
11.6805
1.47688
4.65532
6.45999
0.394175
6.07778
1.39456
4.31829
4.20393
6.02071
1.32315
1.12679
2.78034
1.91678
2.01038
2.51288
4.79762
1.09862
0.334932
1.80194
1.95542
3.82943
1.71286
2.88884
4.13333
0.677336
0.457764
5.9458
0.783881
1.76594
4.05779
6.40144
1.64472
5.49822
1.01837
1.71512
8.65779
1.09394
5.05488
1.17471
4.18868
2.38831
0.454908
1.94713
1.64257
2.0259
4.34483
0.61378
8.17374
5.53449
3.70594
6.94559
0.627715
1.90647
2.71234
5.36556
1.30821
1.15343
0.585302
2.32256
3.3148
1.57977
5.21079
2.4633
0.469247
0.721141
6.35343
3.15285
1.31329
0.986875
3.62491
4.12865
3.23121
2.06635
0.38646
8.3971
0.564295
1.92022
0.520364
1.47739
0.363887
4.09483
2.13796
4.27098
2.95313
1.64261
6.12731
4.52015
9.51949
4.14658
1.83774
2.98274
0.537331
6.00191
3.35018
2.50469
2.60478
2.63234
3.5463
2.02961
3.04885
0.666928
5.85438
3.54671
0.582775
0.474382
11.0796
0.79047
1.02863
2.48652
1.11161
5.87144
2.1763
5.46661
1.74203
4.23567
3.5002
0.903774
0.451885
3.30025
0.567783
3.236
11.0271
5.84727
1.62268
0.668151
2.63272
13.9275
3.54794
1.72856
1.12244
4.62973
2.9312
2.1717
4.66323
4.35859
9.40958
4.24625
3.18402
4.9399
0.485424
5.98359
2.71956
2.23392
0.706699
4.26763
2.17358
1.41485
3.58723
4.17871
0.379528
2.92446
3.07462
0.658054
3.77524
0.401726
1.7312
0.31869
0.746772
10.0276
2.14325
1.51485
3.58866
3.08632
1.41734
5.68449
5.69229
5.09947
2.24454
8.8033
3.95062
0.68205
0.713586
1.57835
5.77191
4.10723
1.0322
2.33847
0.660537
2.2182
1.75273
0.442129
1.19624
1.51293
9.8086
8.57273
6.93382
1.9025
1.30597
4.78532
1.37311
0.536929
2.73344
1.40399
5.31698
4.88704
4.37199
2.50494
0.924112
2.05314
6.36712
7.51243
4.69728
0.645999
9.28096
1.67974
7.6329
3.79856
4.08533
1.05898
1.27373
1.38222
1.99086
2.00988
1.40881
8.37941
1.06652
1.77477
2.00155
1.16574
10.0671
1.1701
0.623236
3.53026
7.60805
1.67429
4.0993
2.10901
8.23843
0.605377
2.43509
0.593706
4.30979
5.04673
0.52592
4.18793
2.01162
5.53648
0.693892
2.29251
1.44601
0.806792
4.40744
3.53153
2.77429
1.08635
2.53821
4.32214
4.77556
2.91104
13.321
4.40905
1.79808
5.7666
1.2984
2.98249
2.96287
1.09318
1.0605
2.81426
5.75429
4.93657
2.08223
1.55171
9.19939
5.70046
8.65658
1.30269
2.66701
6.87718
1.38358
3.75417
1.38082
2.09335
1.71117
2.64821
21.2949
3.97009
0.716573
0.760703
1.47694
2.74556
0.966987
1.84805
2.60559
4.36902
3.18328
4.31116
7.09836
1.03542
5.16928
2.94114
2.86741
2.86692
1.46184
8.92614
2.08303
2.72164
1.97298
3.93794
1.71098
2.2622
3.8348
8.22423
0.36685
9.40143
0.640123
1.01375
1.42098
0.874655
3.69157
4.95696
1.32362
1.70097
1.67231
4.43053
3.73599
6.02676
5.47584
2.53621
1.42096
2.82517
2.11827
5.43528
0.328769
3.24999
0.511977
0.647432
1.76434
1.17349
2.58386
1.1361
6.46556
8.19595
1.63491
4.49558
2.8834
0.661272
1.92286
0.398724
3.05339
5.72616
1.42792
1.4614
9.34751
6.98307
2.75891
0.946608
1.91207
0.683321
1.30257
4.61986
0.423261
0.504242
0.556785
1.88263
6.78691
2.54752
1.73272
10.3342
1.62811
7.34231
0.465644
4.35861
2.52511
1.32627
1.41109
2.69493
3.73238
2.21839
2.63699
1.8405
0.401425
4.243
5.37625
2.80376
1.31843
5.74063
2.36357
4.66617
1.67593
3.04865
0.609923
2.17938
0.584695
0.421798
1.89644
7.20806
3.42908
4.12698
1.1671
2.81359
1.1317
1.40303
3.72949
2.00785
1.26713
0.82579
5.22959
1.67366
3.15314
3.58769
0.370106
0.90915
4.19001
3.74343
3.68281
1.8284
0.549765
2.51185
6.8479
1.06192
4.36976
2.77621
4.61681
2.06
3.90641
4.18123
0.797032
1.57249
2.23019
1.01129
8.13135
4.95913
1.49365
5.31089
0.378845
4.69226
4.85272
8.66438
0.467292
1.81217
5.88017
2.82475
5.32044
3.57392
6.38302
2.97657
3.62384
1.91139
3.41213
0.453162
1.75815
5.23001
0.48267
4.88548
5.24102
4.69551
5.74322
1.90951
1.35438
4.09441
4.99599
4.19131
1.09741
1.70892
4.29694
0.518712
2.59132
1.11256
7.60146
4.75675
5.01187
2.12435
3.73262
1.58849
0.947143
8.0585
1.03398
0.699806
0.952784
3.7934
8.68368
1.59155
0.408779
1.22937
5.08719
9.78261
3.41223
1.41489
6.08675
3.23065
2.59465
3.02546
3.18794
2.2107
5.99016
2.08996
2.58288
1.3225
4.12078
7.09433
5.21704
3.05986
5.42616
3.00802
6.78935
13.003
2.96058
5.2925
1.13096
2.70332
0.790664
0.420917
1.84742
3.20602
0.346732
11.5528
3.4816
2.87985
5.49234
5.46719
3.18996
1.81563
1.44397
2.17833
4.90791
3.62648
1.84885
1.05755
9.63836
1.78342
3.41625
0.911158
2.75521
7.98412
4.14523
2.41709
1.24045
0.630686
0.689732
2.03837
0.404642
3.29538
2.66299
0.499327
13.9355
1.77188
2.46639
2.945
1.80176
4.99312
2.24502
2.82275
0.551715
0.338796
2.56252
9.50617
3.91701
1.75497
9.07555
0.594818
1.88557
1.52505
0.861205
2.80692
0.7148
3.62396
2.04336
9.35404
5.94228
4.11164
5.63754
1.74889
2.30407
0.576088
4.11644
5.31903
4.72034
3.34047
4.79112
1.85536
9.05848
6.44323
3.86975
3.91699
4.1775
5.51942
3.54496
2.46453
1.13959
1.54949
2.22463
1.19948
2.33716
5.1731
10.007
5.93834
6.75784
3.18578
13.1736
0.99978
3.81248
0.875878
2.14888
2.68871
0.601289
0.646462
3.94263
8.1867
4.21889
9.44588
1.73682
3.37662
2.11432
1.78414
9.98412
6.46987
1.43581
3.73121
10.8204
0.99848
2.28098
5.22805
2.40551
2.8035
0.618051
0.643982
0.807661
3.08467
9.21465
3.29361
2.6001
2.29531
1.22555
2.58183
4.26235
1.29637
0.637028
0.706242
2.81323
1.31176
4.56389
5.80521
1.01151
1.26214
0.926404
6.1744
1.9384
0.352686
2.84746
2.52492
2.07289
0.848604
0.349985
3.31713
1.8719
2.05164
2.29417
2.94305
1.17266
4.1405
2.53501
3.1449
2.85371
2.68516
3.38932
2.32611
1.81695
3.2894
1.56873
1.78915
5.4248
3.86299
0.851697
1.36602
3.22337
2.69318
0.866224
3.31813
4.0529
2.33045
6.28131
1.34375
3.41502
1.54309
3.13628
2.51121
2.19757
2.08352
4.12451
1.08055
5.1541
3.10394
0.745984
4.92871
6.1683
1.56863
14.1058
6.07509
1.69022
4.44859
1.95284
3.83278
2.13614
2.56042
1.33428
1.41876
1.34388
0.810456
1.78455
3.27348
1.05716
8.20148
2.54103
2.14543
2.09081
1.87948
2.96723
7.21402
0.545732
1.02639
1.69599
1.91877
0.894844
1.02598
2.992
7.12551
3.04769
4.54358
3.89272
2.36703
2.10863
4.01557
2.51425
4.64686
0.600214
2.47369
1.11808
9.15755
1.47837
0.956188
2.4324
2.45135
3.94594
4.6063
6.73587
1.3296
4.1072
0.458922
1.63275
1.73083
1.69872
1.33726
2.31041
1.87752
11.5583
4.12534
3.12028
1.13219
4.92198
7.10064
5.08912
1.60634
2.53065
4.60002
4.92631
1.2744
8.2614
2.99904
3.6638
0.862403
0.913099
0.810661
0.47361
4.06134
3.23421
1.87653
2.34088
4.7036
1.7468
1.93577
3.76106
1.52141
2.35756
5.01309
1.5657
0.348582
6.53538
1.96886
6.45269
2.89336
4.50425
0.34559
2.2194
2.53
0.945595
4.57506
0.545904
1.07346
3.88773
3.40616
2.59861
15.0924
3.19326
2.76932
1.28863
7.46171
14.2942
9.63105
5.3791
6.25768
10.4956
2.17383
5.54098
5.09331
1.24791
0.693668
0.644074
2.49495
3.14011
8.35137
0.437388
0.71652
3.9917
1.94048
2.40473
2.71654
1.75066
3.06068
4.82361
1.92226
1.6414
0.327233
6.04787
2.02718
3.21363
0.543764
0.303009
2.84005
0.895677
3.34876
2.02475
1.9007
1.12777
2.88057
3.52586
4.84666
3.58936
4.88819
6.46907
2.04546
0.54828
0.861783
5.71649
6.01275
2.26356
3.15203
4.43351
1.97352
3.76422
0.458619
1.40267
6.89267
2.18804
0.689834
4.86698
0.677332
1.98963
2.91675
4.49789
2.35641
1.17607
3.97285
1.00043
1.29562
0.64499
3.56559
0.509335
1.03729
7.35893
1.22707
2.72933
0.485236
3.85188
2.62985
2.74601
4.11362
1.92589
2.52945
8.03138
1.82253
5.93727
2.25451
4.88762
3.86445
3.88413
5.73053
3.40677
2.62092
1.41881
2.32319
4.13408
6.3188
0.559203
2.26777
0.786225
2.52491
0.71853
1.44007
2.31076
2.6737
2.22371
1.48034
5.14263
1.69643
6.28225
8.84967
0.430575
1.05504
1.84183
3.40724
3.35067
1.00225
1.53631
2.21742
5.79441
5.28929
6.1542
0.363903
0.538165
1.7893
1.69172
3.20298
5.9417
1.99329
5.9089
3.71088
2.27011
1.91612
1.94743
8.4969
2.36154
3.58969
1.96506
0.416313
11.7772
1.87375
7.86621
1.0322
6.95192
1.66759
2.80333
3.1217
1.85993
4.13453
0.454504
3.7826
0.800275
4.27729
1.1172
1.06072
1.10959
0.957568
2.56255
0.633098
3.49875
2.8567
0.4184
3.71217
1.40272
5.12661
8.5791
5.18475
2.12529
3.42962
2.37564
6.46716
2.63657
8.99709
2.77913
3.80339
0.969713
2.07647
6.21083
2.70207
1.1897
4.52092
0.3766
3.65612
0.826236
5.02238
2.94004
8.51779
4.41881
1.80951
1.19594
4.97183
4.49083
1.5816
0.712458
4.57353
1.67775
4.74745
3.28999
0.509373
2.5163
3.8442
11.5825
2.44905
2.87341
0.889725
5.71903
4.71947
1.13704
0.405751
1.40422
1.92265
2.1839
0.668323
2.06738
1.90334
3.07809
4.57103
3.65249
4.32107
2.06786
0.99161
1.06321
0.912823
1.49056
1.90279
2.16668
0.873726
0.555063
3.21035
3.07215
6.46833
1.27309
3.5429
2.36357
1.26715
0.588921
1.15163
1.58068
6.08125
4.93202
1.65229
2.24196
1.61356
6.12889
1.73529
3.08773
2.80013
3.49562
0.389745
3.23328
1.23304
1.4442
1.26072
2.57167
0.639694
1.20408
0.41793
5.59478
2.65934
4.75743
1.85078
8.94248
1.04102
3.88147
8.98872
1.58597
1.03447
1.58499
0.67367
4.66587
2.96247
0.593067
7.88253
1.31766
1.30727
3.06953
2.95268
5.66329
1.1773
0.478647
0.688314
6.22368
5.69199
1.31674
2.6405
3.52343
1.41117
3.25682
1.8469
2.97006
6.86925
4.09766
0.721212
6.12924
5.10168
0.996761
3.82541
1.96773
4.6933
2.66116
1.97984
0.904304
4.85772
3.85063
1.29515
0.78949
4.37761
0.432045
1.95188
0.772548
3.15391
1.57339
1.59727
1.44121
1.16272
3.34486
6.05285
0.66096
0.85752
2.12374
2.56201
1.3643
0.467997
2.38009
1.04018
2.96071
4.55034
3.39071
0.749405
0.739107
1.00511
1.29886
5.09539
0.889921
2.4359
1.48018
3.53243
4.54528
0.82089
0.505077
4.54377
3.84611
4.92798
3.75445
2.22173
4.88475
3.79293
3.74731
1.6201
4.46158
3.05777
4.22031
9.18161
6.27486
1.76357
2.35947
0.764947
2.0137
11.3313
4.08197
3.19457
10.0355
3.64936
1.23029
4.10503
1.45741
3.41289
5.65151
1.09739
1.59492
0.525525
0.980139
2.55544
3.02519
3.17496
2.91448
9.65687
12.053
2.32951
0.639681
0.574239
4.79164
1.79045
5.07402
0.884642
1.33285
0.491831
4.05785
3.00395
0.735778
1.56895
2.2716
3.41004
3.79481
1.31998
7.79302
0.565652
1.22047
0.614591
4.66419
2.00655
0.969295
8.06542
2.26285
2.72162
4.11904
0.919105
7.57146
4.2275
3.11971
7.89095
5.13073
2.29566
2.51875
1.50297
1.72592
2.84053
1.90221
0.451916
0.700191
0.905359
4.26798
3.85159
0.94416
6.46908
9.82555
2.18283
5.63628
0.423092
2.93971
1.73557
1.70297
4.46479
0.949847
0.314525
1.63666
17.3104
0.384287
2.35256
1.91408
6.05103
0.388337
4.61494
0.522568
2.34739
1.00218
2.34509
4.00777
7.29506
0.561043
4.73713
1.64656
1.80082
3.77025
2.60705
1.25496
8.77277
2.18938
1.20211
7.20172
4.88521
0.347785
9.45636
1.1549
5.14266
1.9941
3.35724
0.503104
3.75927
1.27856
1.94249
3.53962
1.58204
2.70958
1.65164
4.72714
12.3652
5.01097
3.30526
1.95062
2.7931
1.47244
1.67951
0.573195
1.01804
4.90004
1.42143
0.492573
2.19072
1.07123
5.42321
5.61422
1.0971
1.94854
2.97655
2.72056
0.324027
4.05654
1.42046
0.794072
3.76872
8.50178
1.34369
1.68353
2.01099
1.09326
17.4378
4.2492
6.75344
0.624994
6.08943
3.21332
0.856041
4.833
3.44969
0.796355
0.434828
0.788774
4.51602
5.11075
0.527218
1.90043
1.03598
2.74181
0.984127
4.1642
5.29178
4.4202
1.62094
7.24332
4.76879
7.85454
3.13988
3.53181
8.17794
0.437251
2.14357
4.15771
2.62618
1.83457
2.04645
2.3508
2.99334
3.71771
2.03464
7.2062
5.23416
4.53122
4.59476
7.91307
4.48243
0.341145
4.79342
3.52675
4.34568
1.62659
1.00752
2.57008
0.526434
0.884664
6.49374
0.761036
4.59159
6.347
5.14033
1.36447
0.488891
0.995021
1.80727
2.65915
1.62702
1.42362
3.86438
3.3793
1.62404
0.901358
1.25948
5.00367
0.90778
5.53192
3.38321
2.15902
0.79083
2.65717
6.53897
1.97303
7.53671
1.04812
3.79404
3.01537
2.81081
1.0651
3.5631
6.05398
1.95165
5.6352
9.92467
1.63579
2.73521
2.89547
0.894948
3.92096
2.90814
0.379558
2.28967
2.68881
4.19619
4.09599
4.28482
4.7107
0.78554
8.02237
7.26538
3.32125
4.41391
0.632881
1.8108
1.76185
0.813726
6.52096
1.07138
2.75532
2.69352
1.48726
4.60909
2.37939
2.56082
4.51319
1.44633
0.908148
1.79083
3.05326
2.3982
2.58122
0.586127
3.86898
8.08268
1.44508
8.13617
5.20619
2.81974
1.90113
4.76913
7.49241
1.75343
7.90211
3.98025
2.88431
1.4921
6.57611
1.26296
4.40506
5.64042
2.53203
2.46318
0.458121
1.43196
6.26599
2.81732
8.69744
1.40186
8.69237
0.45912
1.22782
4.07365
9.26059
5.78993
2.4331
3.25113
0.533444
5.2484
2.54324
2.97415
1.17839
8.81041
1.15902
1.68551
2.8896
2.86566
2.37096
1.6038
0.500825
0.598482
5.27942
1.93215
2.76839
4.9639
3.6206
4.71459
7.04779
2.75056
10.2256
2.85884
7.99003
1.52714
0.577863
4.6547
0.389266
3.22854
0.896792
3.72645
2.95529
7.27619
0.475418
1.31956
1.47832
2.81087
3.88325
8.89053
0.544669
1.82913
1.25177
1.04038
2.16333
0.563288
6.63584
1.53819
1.60415
3.86692
0.514518
8.5071
0.814713
7.38888
4.96831
4.30658
11.0724
1.21957
0.837862
1.91723
2.62448
0.534828
2.07679
1.01839
3.6266
1.65261
2.74791
0.832361
0.991643
4.19751
1.94339
3.54815
6.13399
1.96431
2.32399
2.55188
0.844221
2.17467
7.52095
1.54711
1.61241
3.85805
0.832456
8.83502
4.17101
6.24785
0.867788
1.62168
0.916902
1.64943
1.84107
5.68069
5.50541
1.27994
1.21302
1.32048
2.68508
2.94794
1.12645
0.431602
4.46175
1.24547
1.90308
5.12165
2.90976
5.68506
2.79245
1.45646
5.34934
2.14345
2.56877
2.58767
1.80131
1.23702
2.74534
2.69382
1.85082
0.459018
2.0949
5.63407
2.44991
0.823714
3.62423
2.53649
1.60364
1.39724
2.18851
3.12813
4.5621
1.51156
2.26874
1.82793
0.966117
3.82182
4.23404
3.28162
3.80992
2.20103
1.05235
1.32362
5.60431
2.40144
1.80486
4.35739
3.56474
1.58417
1.93132
0.582119
2.33624
2.47566
3.0516
1.764
4.66729
5.0107
12.8315
2.87467
0.356324
1.08827
0.823289
4.12866
4.13095
2.82305
8.35738
1.21123
5.12711
1.14811
5.60591
0.88032
4.22658
0.923114
1.08811
0.8339
3.71817
2.63736
2.67318
7.41157
1.54144
2.49014
4.50785
2.19781
2.62621
1.87952
4.23316
2.92986
1.07447
9.30411
1.06804
3.81562
0.9798
3.17644
0.415453
3.14623
1.93564
1.23784
3.28814
3.22439
2.28925
1.10473
7.30204
7.01651
3.95683
1.50362
3.17248
6.2266
2.99335
0.541637
2.39247
0.696323
4.11556
2.51047
2.71248
2.22773
2.24895
1.07194
1.43128
8.18696
6.80572
1.22317
2.64899
1.02681
3.87735
0.946934
4.2038
7.15518
1.92188
9.65734
0.397781
2.75685
0.814108
1.15914
1.93961
7.38538
1.39733
0.645502
2.6206
2.36419
1.29863
5.60307
1.4601
1.13695
9.64886
1.07546
0.460942
3.3315
2.12056
0.661089
3.8426
1.31524
7.12833
1.78761
5.19757
1.54041
8.70601
8.12572
2.17358
7.9672
1.18518
1.02017
3.97591
1.18423
1.80209
2.35893
1.5979
1.97178
2.03196
4.21244
1.78067
0.532858
0.570915
4.42722
1.06965
1.69841
1.04854
1.53683
4.34253
1.55487
2.55899
0.445358
5.17657
2.95159
0.820304
0.63309
6.44583
1.70529
6.40921
0.882529
0.501265
7.07194
1.17307
1.75091
0.542967
1.01573
1.71231
3.41867
0.398591
3.53652
3.34784
1.07515
0.720162
6.75414
0.818388
2.37555
1.09269
0.451937
0.761029
1.67239
0.429009
2.96033
2.51418
0.68802
3.67821
0.389789
2.99601
8.14145
7.71217
9.68419
4.86173
0.486328
1.68056
8.28141
1.50112
2.67003
4.10296
1.65471
0.418693
5.53424
1.9056
0.565232
3.07292
5.16249
4.93726
3.09581
3.6922
1.99418
0.933203
1.41269
2.03189
1.75667
2.65575
6.45787
4.68508
3.05844
1.46131
1.44476
1.48082
3.10964
3.94725
0.369283
3.61385
2.98336
2.19988
1.29297
0.929871
1.26584
1.99285
2.21926
2.04408
1.12762
3.64588
2.98181
0.583726
3.22258
5.5565
2.55615
0.416207
3.93075
9.37277
0.635578
3.60908
2.48036
1.31748
4.3524
1.23091
0.95296
5.82018
1.48851
5.0809
6.71153
2.10886
0.796082
11.1012
4.38453
9.25964
0.409004
5.05852
12.7738
5.62861
1.87926
2.85922
1.92621
2.97548
2.49377
2.69478
3.11322
2.31461
4.24224
7.17624
6.62547
1.31108
4.04797
2.03018
1.27816
1.81049
1.0857
3.91781
0.590499
2.07038
8.80155
1.97673
0.652537
4.72842
2.13058
1.75869
1.45332
0.822463
2.80318
2.51252
7.00619
4.79494
7.22833
0.983508
1.39675
3.45047
1.80866
1.52796
0.489177
0.872044
5.37196
2.40489
2.69802
6.87012
0.436006
3.53255
3.08529
1.89511
4.64131
3.4549
1.34925
6.69734
2.36428
1.0725
1.0654
3.04293
2.85992
4.50899
2.68805
4.58129
2.32541
7.69878
8.23409
3.08718
4.22763
1.43706
2.4964
1.45796
1.41876
6.30191
0.978074
8.93353
1.13946
1.90168
3.92081
3.26741
6.70783
3.82892
3.69922
1.73803
3.32274
2.03341
2.64464
1.16419
4.42949
6.51536
5.62507
1.51023
2.17907
1.45431
3.16421
7.1402
4.18048
9.23509
4.35304
4.58126
1.96816
6.30384
0.45385
2.86618
2.74976
1.52183
5.36502
1.2413
3.76468
2.90505
7.27968
0.4203
2.9491
2.15756
0.745443
2.52028
1.85506
5.14541
4.93929
5.08138
2.19425
4.679
0.648226
2.04321
2.10189
9.43438
1.43222
4.48674
10.7989
4.75033
1.41903
6.27822
1.0632
2.72612
0.398398
3.85774
2.83784
0.501794
1.14563
1.76101
1.41094
1.95159
2.04231
2.46778
0.923534
3.98245
2.63276
2.49997
4.0625
4.91966
1.72813
2.34016
3.93816
8.37225
4.99786
0.485735
4.38367
1.7869
1.59784
4.84227
5.84151
2.85164
7.22394
9.26418
3.24213
4.63656
6.8342
2.0504
1.94329
1.27729
3.52235
4.74551
14.3201
6.20681
2.17826
3.5883
4.2057
5.0186
6.13926
3.50844
0.398451
4.02753
0.29672
7.98115
3.58183
1.96453
2.52069
1.72227
2.96569
2.15261
1.94678
4.32492
1.66851
1.93416
8.45154
1.84393
0.914943
0.555008
2.89509
3.36827
1.96383
2.30147
4.31864
1.25579
5.17658
2.64529
3.50798
1.02781
2.63745
0.36662
12.6949
5.4365
4.2843
1.40944
8.9885
3.27819
0.641366
3.38285
8.92937
6.66083
4.15465
2.10313
0.50191
1.99674
5.95118
3.19472
3.13099
2.19985
0.55881
1.79987
2.20311
0.635427
1.96909
6.76592
14.1361
1.59113
0.477933
6.04767
2.17635
5.51381
5.1421
2.30799
1.03133
3.61935
1.60632
1.30327
0.56546
8.26275
1.80674
0.662357
1.41243
2.78667
1.45657
0.63046
2.2654
7.11329
0.964507
4.94092
16.5064
0.348398
0.42249
3.61501
6.53326
9.28777
3.25936
6.94586
2.13801
4.68395
2.94693
1.15511
5.71397
2.16794
5.09374
5.52163
1.18474
0.73168
0.888885
8.70298
0.826913
0.589399
7.35901
1.65736
1.53761
6.00241
2.97668
0.475627
1.19175
8.70439
5.38973
3.41902
3.15572
4.46834
5.10442
0.932715
0.336491
3.15467
2.66975
2.28068
1.17075
1.13963
9.97672
1.4616
4.55199
2.75428
7.78502
4.2743
1.46469
1.12172
4.37853
1.6399
2.69054
0.53899
1.12393
4.98493
0.846435
1.03614
2.56648
2.13481
2.59548
0.834937
2.06756
0.655608
3.70789
3.00067
1.73128
2.9161
3.80716
1.35533
0.603491
3.09911
4.06171
0.481494
0.567802
5.49419
3.89637
3.22935
5.02042
0.566379
0.393655
1.58586
1.21594
1.40087
0.508688
4.1148
0.476634
0.475406
5.17201
0.601657
0.759258
0.87068
0.809534
1.87851
2.19617
8.52628
5.92829
0.539206
5.4294
1.78615
0.787628
1.46402
0.624146
1.89167
1.25255
2.61404
5.57389
1.62527
2.04716
7.50405
6.01958
3.19797
3.34712
2.3445
3.20169
1.50224
1.1577
2.19437
5.02141
5.20296
3.8547
4.09459
4.47911
0.525101
3.64916
0.724889
1.93036
2.05388
2.72075
0.927345
4.27667
0.681143
5.31622
0.562527
1.81197
2.81326
2.98639
0.8145
5.26663
5.56781
2.19923
2.1287
2.60684
6.00254
5.57123
3.93299
1.84802
2.49445
1.50216
2.52942
0.955732
1.40863
1.19599
1.40442
7.18257
2.01082
7.55851
4.89915
1.19025
6.41209
6.55317
4.99128
2.64275
3.66309
2.68725
0.971912
1.54022
0.959125
1.14432
4.24234
4.19315
2.22602
1.32067
0.747157
1.47858
5.96703
2.68136
0.269895
1.68414
8.59859
0.633528
0.699729
2.92494
0.856182
0.43851
2.68664
5.86684
2.61452
2.84659
2.80402
4.1428
2.43416
10.8405
0.798378
4.35393
0.848108
1.72509
1.63821
0.452532
0.491176
1.67237
1.14702
3.78793
7.48867
5.76567
5.21739
6.88935
0.807431
0.753276
3.01225
6.48003
0.592039
2.4056
1.08588
4.32838
2.89679
3.12927
0.487686
1.71337
1.54979
5.03686
3.62728
7.86895
3.35911
3.31437
1.64431
5.35439
5.71822
1.76717
4.67515
3.04355
2.71779
1.56708
4.07316
1.72757
2.24318
3.36113
1.08321
1.80457
5.49591
2.21172
0.70059
2.80053
3.18014
6.1092
0.908574
5.88717
1.11804
0.502042
1.81915
6.13189
1.58516
2.70737
4.00917
3.73985
7.01869
1.15996
1.60977
1.9116
0.57392
2.2141
3.42115
1.29626
2.58331
5.66108
3.95356
2.14137
1.28833
0.370747
11.712
2.24454
1.26413
3.50768
2.64253
1.37147
1.73723
1.39335
1.32635
2.55398
4.43919
0.52588
5.47701
5.65466
4.54962
4.58925
1.5225
8.37959
3.14005
3.6868
3.92772
5.08481
9.74629
2.26229
3.48301
3.8875
3.16968
6.44731
0.948126
4.88592
0.955745
4.8353
0.646336
5.43177
2.50338
3.39125
0.531503
2.74652
6.87709
1.45115
5.55931
4.72343
3.15096
1.75625
9.20561
1.6836
7.61057
2.64314
5.20259
0.462078
0.775271
7.61649
3.2157
7.22571
1.34448
0.540958
1.33937
4.00552
1.59676
4.36339
1.29137
4.10758
2.30727
5.58055
7.57388
2.17265
4.19284
14.6927
1.54458
1.90656
2.68106
3.49954
2.76923
0.76792
2.95933
0.318281
3.69173
4.03238
3.1244
5.22166
1.24696
1.6995
2.3896
3.03609
3.47802
6.58444
1.59423
2.83781
4.71424
3.29024
0.367952
4.29796
0.541294
5.21138
3.07909
0.479903
2.76037
1.98731
2.80782
4.49488
3.24753
2.74335
3.41019
1.65697
1.08086
1.0139
1.62419
2.28687
8.40853
1.5912
6.09815
0.953184
0.648399
1.06807
5.67302
2.34068
2.83466
4.14664
6.51679
2.42799
2.34648
1.77084
1.17004
3.56783
1.53605
2.77592
1.79174
3.71172
3.80474
4.93859
8.77413
0.967961
1.04358
0.390643
3.42326
1.15263
0.443063
2.23592
1.52646
3.83641
4.62441
0.359133
0.749023
5.09715
6.45391
5.45443
1.83512
2.58123
2.01229
2.25288
1.00506
0.634372
3.9435
0.876611
3.62995
3.18593
0.902638
4.44747
2.47455
3.71858
3.51731
4.95223
0.550798
1.76516
9.99071
0.71733
3.20714
1.09225
1.16524
3.01476
0.982721
0.481343
2.99735
4.29981
7.02611
7.04611
3.53181
0.390337
0.552413
1.72376
2.80549
1.79514
3.61111
1.00675
2.84243
1.0473
7.96569
1.05165
4.17
0.757078
4.6166
0.374286
2.52039
0.336822
4.58282
1.87598
2.18855
2.88746
3.74497
3.4472
4.03357
3.54262
0.8142
1.03704
1.59341
5.57141
0.329321
2.05652
3.40739
0.659527
6.65603
2.86642
7.68174
2.03585
1.94059
1.46936
6.23861
1.38345
0.900388
1.63728
3.73945
5.26981
2.94734
1.3865
0.421366
0.501758
3.43689
0.83806
2.80866
3.91144
0.986945
14.2952
1.6354
1.34404
15.7981
0.655793
1.41767
1.62534
2.41568
3.94245
3.17602
3.58624
2.08764
0.732256
5.87922
3.04334
9.40211
1.69981
2.62539
6.81551
1.43183
8.20765
1.92608
0.802195
0.971058
10.4221
2.48445
2.91944
0.767809
0.803871
1.13056
2.68668
0.856083
2.17631
1.42824
2.53562
1.61401
0.333178
0.538961
0.685451
6.03724
0.613518
1.8754
8.48013
5.95158
2.70976
3.36217
4.27713
6.01355
2.84076
4.56065
2.82595
5.85468
4.57324
0.390114
1.73264
2.07338
3.30669
1.89749
3.25359
5.30586
4.53317
2.05879
1.83931
1.81254
7.96739
1.72973
3.05818
4.02214
4.40554
1.66447
1.79521
3.25542
1.7131
4.30147
1.09149
0.328616
3.41444
3.0268
2.25987
0.920306
8.01296
14.2481
1.52886
1.96798
2.82158
3.44691
0.694079
2.27761
2.61983
3.83569
0.706244
2.61512
1.19058
2.1782
1.76059
1.43817
4.16764
2.43387
4.43849
1.37567
1.08817
1.14781
5.42709
0.78687
0.573002
1.09006
2.40777
3.70988
2.09661
1.22149
2.8507
2.46504
2.00659
4.24869
1.58065
4.49568
0.831963
0.713957
3.64088
2.59633
2.90952
13.9594
5.45884
3.81343
0.456252
2.3786
5.65256
4.5905
3.78522
7.59818
2.30798
3.95695
7.00136
3.06014
1.29288
9.49725
0.502526
2.06771
5.08203
2.09369
2.49304
1.00941
5.48512
1.41244
1.33919
3.89869
4.16102
0.456344
4.13462
5.76799
2.9472
1.8172
3.8923
2.02327
0.996981
4.82939
2.6449
2.11414
3.23627
8.41812
2.65794
1.30806
1.80796
4.50982
2.90936
3.24598
6.50584
2.07632
0.420816
0.417664
0.312418
0.363495
4.61658
1.09131
6.09317
6.80012
0.356766
3.25743
2.82347
3.91642
1.42215
1.0932
0.505418
1.32999
1.77405
6.19469
4.01921
0.480024
1.15938
1.97106
1.04885
0.38886
0.466249
6.0367
7.52513
4.21363
1.10334
7.62583
2.32662
3.86567
2.43356
14.1868
0.441336
8.30528
0.441813
2.75338
3.28922
0.444658
1.44432
2.20323
3.00463
0.776431
1.01141
4.23327
7.8322
5.86724
3.57318
1.36162
0.520974
2.76991
2.52768
2.3059
1.38853
1.70448
2.05418
2.33109
3.74913
8.83191
2.18682
0.868334
2.52547
2.51437
5.25878
0.616307
2.51472
0.432968
1.40853
1.53086
1.86552
3.23991
2.10634
1.46846
1.34075
3.64049
2.43496
4.56607
3.15546
5.4241
2.21659
1.03228
1.40794
1.1703
4.17026
2.63957
0.566078
4.79142
3.01911
0.765531
1.5016
3.55925
2.85968
3.51575
1.06954
0.371541
7.5123
4.14079
1.57322
4.42521
1.44085
3.45443
5.04263
2.76309
1.23196
4.6447
1.45548
5.19575
3.64567
5.06352
8.39452
1.44116
2.69489
3.49799
1.55553
1.37536
1.74831
5.74116
0.505352
0.420278
10.9615
0.866439
3.28225
2.80609
1.12444
0.934788
0.450493
1.72769
1.61319
3.45745
4.51929
2.78267
5.09537
3.97357
6.61493
2.0709
6.49547
1.77077
1.18862
4.05458
0.497785
1.72673
2.52972
4.6816
2.61682
7.12156
1.74298
2.40526
8.33557
3.18246
9.59809
3.55203
4.12863
2.98952
7.88215
3.24886
1.48895
1.13674
11.6505
4.06739
4.50057
2.3456
2.89772
2.2326
5.15867
1.36349
2.54431
4.31549
1.45202
0.374259
0.450482
2.04927
1.74859
2.14642
3.98865
3.00125
3.7667
3.51234
15.4299
0.75168
1.94519
6.37871
2.76383
5.70621
0.355949
5.60759
0.674663
2.99187
5.71999
13.1813
4.94201
1.52123
4.74607
0.650167
2.02309
2.19962
3.67382
1.54091
2.31478
7.9393
1.4002
6.23547
1.10817
5.07079
4.64041
4.4735
4.5735
5.99745
7.61336
2.49018
3.15583
0.370348
0.458887
2.09177
6.67855
3.01662
1.91878
7.86952
3.49478
0.76911
4.57728
2.51186
0.663507
7.15839
2.97087
4.24246
0.88443
5.49078
5.52123
1.25895
2.18313
7.75465
2.88286
0.936689
0.469882
5.31588
3.70463
6.85185
4.27154
3.08885
1.0952
3.15494
1.68564
1.52815
0.450708
3.08221
3.83316
5.09525
3.71852
1.07963
1.26575
3.02724
3.31298
4.05453
0.837068
2.24505
3.58758
2.7444
1.82999
6.59857
3.19226
4.43622
2.9097
1.88583
0.46477
3.05105
4.9742
2.8277
0.567579
2.25894
1.66901
1.94249
2.03393
3.24556
1.3397
0.530712
1.91409
4.05422
4.67892
4.28919
4.51003
0.399956
0.889562
2.65013
3.07634
6.27377
0.859611
2.53677
6.76587
12.4844
3.46482
7.55793
1.6765
1.36897
0.852489
0.481384
3.09289
2.32199
0.837511
1.08163
1.37764
4.59809
3.56121
6.02695
6.02759
1.0414
1.53266
1.03124
0.697724
3.53666
7.23264
0.630088
2.3723
4.57688
3.13227
0.745123
2.69744
5.93418
2.59187
3.33595
4.82704
12.2177
3.5408
1.70275
0.896893
2.3073
1.39297
1.7905
1.10484
3.18464
4.99221
2.09054
2.13434
1.25959
0.96812
3.39468
0.896377
1.60927
1.74162
9.57274
2.86944
2.81232
3.46752
6.5305
1.0462
2.12106
1.47106
2.98351
5.55357
4.23241
0.762425
1.00978
0.889262
0.967725
2.03948
3.96591
2.9335
0.52019
0.886652
1.29608
1.91094
0.671802
7.40485
1.56093
6.36347
0.648417
0.687691
2.54791
3.19335
2.5814
4.90486
0.675132
0.870734
3.01168
8.71003
0.846544
4.65742
1.57233
4.32756
4.37465
2.74462
1.64644
3.67935
1.27771
1.20128
5.06346
0.841954
4.25396
1.50372
3.26675
3.61117
7.08168
2.14818
1.47937
4.53693
1.88492
4.58904
6.87605
11.4573
2.68423
0.414433
2.47297
7.6562
3.71295
2.07756
0.649071
0.688207
4.50458
1.62575
1.03718
0.888706
4.03903
5.63167
3.92519
1.2039
2.2452
5.37044
3.42644
1.02501
1.75409
1.84366
1.49444
2.06487
3.16761
2.19906
4.04096
1.12683
3.03229
2.19451
3.01102
8.28436
3.68218
7.71315
4.1662
4.4253
1.19782
4.96232
3.26929
7.60633
3.89258
6.00713
0.775806
0.735376
3.25188
1.7797
0.531705
4.17243
1.13687
4.84043
3.65017
7.20197
3.97685
1.28485
6.12932
5.88641
2.43243
0.396535
1.3517
1.03716
5.29167
7.65152
4.44677
0.729079
3.43308
3.36492
1.94028
4.12599
3.31004
2.86738
0.423775
3.67311
5.70529
0.474475
7.34708
9.75606
4.71402
1.4789
1.00605
4.4035
2.69698
2.88712
4.79902
6.84311
3.62281
2.36368
0.580386
4.30449
6.72741
3.02204
2.73682
0.314021
2.21539
9.85818
8.9295
0.842323
6.61217
0.698186
1.34647
2.48133
3.25065
2.8368
6.12838
1.13672
3.61781
7.83357
1.46774
2.25354
1.28905
1.45591
1.65397
9.37966
2.15334
4.21673
3.51546
2.58408
4.11716
3.4861
2.80652
0.559528
1.54087
13.3742
1.34577
1.20914
1.588
5.91987
0.480823
3.67203
4.14912
4.52426
4.15855
5.61812
5.19166
0.563919
1.63672
4.16289
0.676089
8.70261
0.39919
0.919574
0.4805
0.593956
0.990053
5.97461
2.5337
0.451895
2.30379
1.24162
1.33404
3.86299
5.25023
1.42499
2.77241
0.530356
3.29538
11.4155
3.31322
0.941057
1.65731
4.41412
0.565772
2.34904
3.25255
2.51031
0.34549
5.50582
1.30995
2.98446
3.12921
6.19446
3.74011
2.86407
2.03866
5.31511
4.16517
1.04016
0.554994
2.45877
1.26678
5.80397
1.42444
1.3108
1.21204
4.82781
2.99142
4.90697
6.41656
1.61061
2.40394
2.4619
9.86243
0.529781
0.603659
4.70845
3.14087
3.13668
2.14729
1.54857
3.17218
4.99563
5.11004
1.49238
3.34498
4.45028
0.727109
0.872252
4.98908
0.855519
0.312938
1.49494
0.957832
0.757176
1.46812
3.58569
1.15011
1.47629
0.531574
0.571306
1.17016
2.55111
0.706743
0.710027
0.946853
3.05883
0.595289
2.40605
6.61352
1.45027
6.95553
2.72564
4.53184
0.953572
6.93033
3.80661
1.49107
9.15912
1.99972
2.80319
4.26967
4.73619
5.11698
2.27651
7.87677
3.90748
1.56848
1.78034
7.52197
6.23132
2.58412
2.35926
1.96235
0.430666
2.93226
0.756876
0.809693
6.10079
7.74018
0.385628
10.4506
3.28525
2.12779
1.42821
0.482782
4.80848
1.60734
1.59798
8.41071
3.21688
1.7842
4.71805
1.04258
8.98106
1.52824
1.09761
4.52583
1.18604
2.50439
0.45477
3.76275
1.91002
3.71082
4.19202
8.57871
1.59459
1.10329
0.486823
2.70328
4.94529
8.7539
1.099
12.9182
3.44872
0.911407
6.75589
5.3752
2.9074
0.766562
4.02519
4.51221
6.65023
5.85581
1.82586
3.61776
2.87
2.39246
1.59871
0.75354
3.74804
5.81249
3.6195
10.1749
4.05549
0.912973
2.18603
3.51257
2.00398
3.02039
2.36457
1.32142
8.45172
2.68414
3.5364
1.91396
1.47852
2.96788
1.68393
0.891809
4.71049
14.6684
2.31675
4.52374
2.82527
2.22933
2.66839
4.72869
2.87192
1.76499
0.624939
5.05197
3.12106
2.30484
2.72326
4.9647
1.00019
0.542783
1.0037
1.47316
1.38736
1.65334
5.68768
3.52882
3.20881
4.7533
0.48909
6.19612
2.44774
0.818197
7.03821
2.62197
6.5006
3.3918
8.28717
6.19305
8.13051
2.68307
0.429915
0.385763
3.88527
1.71879
0.679389
0.637115
4.36598
1.16645
1.38389
3.53585
4.65299
3.40639
0.299323
3.83002
5.2602
5.93172
1.77997
6.23134
2.42035
0.640115
5.49585
1.15315
3.60708
2.51419
5.66555
1.67223
3.32565
4.09996
0.875228
1.99376
1.86515
1.75083
3.22759
1.79915
3.8535
1.58615
1.8681
3.41385
1.35372
1.96092
0.943844
4.88579
3.75511
0.357768
0.542416
0.586365
3.32785
2.33195
5.24332
1.23181
1.93503
0.775832
3.09767
2.4762
7.55393
1.0049
1.84783
0.96881
1.5851
4.13548
2.95163
5.74226
2.72233
0.681302
7.19225
0.770318
2.09989
2.55467
1.83067
3.76647
5.67775
0.612478
5.14976
1.37412
2.92849
1.06744
0.838878
2.07889
1.72314
1.28196
7.96057
0.699681
3.357
3.74292
7.25939
0.611451
3.55126
0.716363
5.84609
12.1678
3.6832
2.6362
1.01927
3.30758
1.1241
1.88836
3.11793
8.77088
4.94612
1.34112
0.540776
3.2837
2.80684
8.73155
5.62984
1.32803
3.60304
2.84936
8.85962
0.666534
5.01212
1.43121
5.66215
4.84533
3.11606
1.24302
5.60628
2.09171
0.49423
7.02787
3.58706
0.527312
0.349136
5.71258
3.13138
4.66784
1.77825
7.30942
0.906639
2.88642
2.16739
1.34906
2.29384
1.42512
5.60996
4.27516
2.54303
2.65054
6.65427
0.546119
2.93204
7.47552
3.30166
1.69985
1.24878
0.479262
1.37618
1.89539
4.12188
8.59721
0.733463
3.90079
4.99196
1.73008
7.14947
3.0142
3.16971
4.26326
2.47036
4.23853
1.67034
3.48692
3.74633
4.28286
1.01732
1.48178
1.03412
4.16611
1.45753
0.666065
1.76091
3.76184
1.91937
0.696339
3.95177
8.30011
0.416163
0.565485
1.31993
0.420254
0.506902
1.61218
2.24141
1.09019
1.83161
3.67938
0.682818
2.91527
1.92388
3.21432
3.15117
3.52912
0.418882
2.05373
2.22039
5.98779
4.87388
2.71907
7.27121
2.16245
4.19817
5.35541
4.92069
6.6751
4.83141
0.821811
0.82696
8.26659
9.13872
3.01568
3.97919
0.902588
4.54954
3.29866
1.36708
1.23104
5.99159
1.34568
3.73104
7.40593
9.43874
0.723453
3.37108
2.00034
1.46881
6.38572
4.79847
1.54022
1.86709
2.48339
2.30984
3.3823
5.44823
0.578555
2.38166
2.32043
1.8614
7.37729
1.18116
6.90831
3.99774
4.08366
4.17262
0.975324
3.81449
4.18689
0.601959
1.28183
4.6183
1.37507
1.62464
5.55323
1.84089
1.70127
3.72159
3.71319
3.13653
1.7235
0.806521
3.62976
1.38614
1.09919
2.33083
1.36496
0.401863
2.04898
0.493631
5.57119
5.3338
2.80675
1.24779
1.84814
2.89736
0.846892
3.36076
2.48583
7.65769
2.21587
0.552091
1.13995
0.903345
5.77688
1.1443
1.47323
3.53877
4.21238
2.97444
2.68533
1.53872
5.0807
1.54462
2.47949
3.80136
6.85466
3.88267
2.66186
1.63436
4.38488
0.9707
11.6234
1.21931
0.956749
1.67653
6.31246
2.42309
1.37774
7.12259
2.0008
3.84499
1.64082
3.61936
2.08664
0.55368
3.89273
6.7709
2.89325
4.30421
5.05517
3.51383
3.18065
5.08484
1.82056
6.7884
8.69458
1.20821
0.777053
0.938917
2.50284
1.58293
1.55154
3.55866
2.92211
4.97591
0.742845
1.89966
6.72671
1.50286
5.99459
2.44377
3.48616
1.31337
2.09474
1.07642
1.34095
2.07792
3.50616
0.751244
6.18404
0.476376
7.74538
3.91677
0.451781
3.48217
0.947109
4.10424
0.890879
1.83018
2.07245
2.16524
9.51512
4.11828
6.67281
2.05436
2.57864
0.498555
0.761075
3.7212
2.10922
8.85695
3.78068
1.86959
3.44894
1.52527
9.54172
1.38218
1.62181
3.00814
3.50288
4.53594
2.79937
0.368185
1.13175
1.57489
5.13423
4.04239
0.481532
5.85401
0.33347
6.16135
3.18832
1.203
1.76397
1.15909
8.5722
2.76499
7.5305
3.49664
2.01549
1.6669
3.2143
1.32833
2.52316
1.17664
11.4184
9.621
6.8856
0.870165
2.91279
1.55698
2.20847
7.57902
0.789685
0.845737
0.432456
3.92754
2.38721
5.69829
4.01408
2.37848
5.48048
3.91328
0.975474
1.60323
6.47186
2.80277
1.17732
1.88437
2.71048
2.07663
2.14591
4.03107
0.564563
8.10955
4.07381
6.61787
1.22363
0.475924
8.51174
2.0146
3.75791
2.60923
2.52437
1.35676
1.54994
5.79329
0.55033
6.60249
1.86512
2.58454
0.45654
1.3794
1.54805
7.44341
2.45091
8.47068
8.99128
0.594985
5.12831
0.73239
2.3643
4.26787
1.78781
0.698078
1.44008
4.7877
3.70002
2.45865
0.629818
4.01488
5.9503
10.1675
2.70787
0.873484
1.07529
0.4068
8.02731
4.06915
2.13089
2.03924
0.487245
4.77048
0.585051
1.81593
3.72971
0.395497
0.959383
0.306905
4.59512
2.69574
1.7125
1.74076
3.66376
2.8572
4.41557
3.20539
2.71144
0.917244
4.08463
4.68534
0.880816
2.42621
3.92345
4.24577
2.96042
5.53432
6.16256
1.67161
0.562247
1.30868
1.99016
4.62379
8.41293
4.20922
0.549923
0.535592
1.55332
5.43826
2.32617
6.3418
4.3367
3.33159
0.904943
6.84522
6.4495
5.39573
10.4899
1.83209
4.08835
2.46165
1.41752
2.04605
1.44572
2.33757
1.80445
4.85412
5.05193
8.0101
2.339
0.876955
2.50077
4.31932
4.80249
6.94967
3.33712
1.31382
3.76543
1.76031
5.64516
5.28967
6.26156
1.8984
2.34817
1.94258
3.0919
5.43492
6.66377
1.27403
0.923999
6.12635
0.757929
3.49486
3.28036
2.68854
6.3109
4.13479
4.73758
3.84865
2.27243
0.640912
1.28518
1.37175
2.61174
1.82443
2.12718
0.475752
6.87388
3.68336
2.61994
3.79141
0.845229
2.0229
9.25269
4.87272
8.64764
3.15795
0.779871
1.69301
3.11123
1.37395
4.48829
2.23351
5.94957
0.564592
1.62681
0.599761
5.91072
9.46546
1.34535
4.48691
0.933351
7.46149
2.05238
0.524456
0.929542
0.998821
0.590016
6.80234
1.37327
0.952963
1.31459
5.66794
6.70284
2.29053
4.50641
0.463788
1.86778
5.0088
2.73719
1.71234
1.84589
3.41962
5.15842
3.4728
1.44058
2.54254
4.81562
3.76
0.809375
4.38352
0.594336
1.47023
2.94822
0.630248
0.350199
1.53224
2.63403
1.08942
3.05538
1.45888
3.56309
3.91714
4.02134
0.513088
5.8346
3.04119
3.49288
0.363967
2.44393
1.84364
3.57895
0.52444
3.84919
2.65772
2.04645
5.61775
2.06287
3.83759
1.20894
1.79404
4.39278
2.38887
1.60053
2.30189
1.7872
2.46232
0.939292
4.3144
0.497776
1.86036
2.377
6.63991
4.40988
3.58625
4.69426
1.81572
3.39261
7.43061
6.03431
1.85435
5.0938
1.06479
4.80545
3.73796
0.774785
4.70877
1.26044
1.19325
4.28245
2.78909
0.602537
0.983889
2.90346
4.40758
3.27482
0.845602
3.4256
2.78857
3.39295
1.11202
4.62914
2.10322
2.80844
2.56006
0.638313
6.15273
0.94847
2.04292
3.73614
0.424674
0.659059
4.37241
0.78291
4.3108
2.14206
4.14437
1.34268
1.57383
1.08768
1.10918
4.14487
1.75173
4.50895
4.00341
0.363135
3.39932
3.72135
2.08556
13.5067
2.2021
1.98269
1.57177
2.86279
11.0342
5.08751
1.48345
0.637171
6.26465
6.23399
1.55079
3.69066
3.88332
5.6935
1.99792
0.552773
8.75084
2.26009
1.53899
4.20369
1.97025
0.861372
6.65413
5.48652
7.93957
7.91772
2.10445
1.00186
2.52725
1.79635
2.07021
1.53912
1.19726
1.02437
2.42201
2.08986
3.31378
4.52982
1.5309
13.8737
1.82131
3.3251
2.99827
2.65386
3.99007
3.80348
5.38078
3.24695
2.97976
1.1399
5.09834
3.85837
4.43941
2.88574
1.46675
1.26667
0.901121
5.2297
0.587928
0.586876
1.48206
1.80745
1.76754
1.48433
3.18535
1.6293
0.583991
0.64623
1.34359
5.01312
0.407531
1.52768
1.67011
8.42083
1.15804
1.03522
3.02944
4.29848
1.92626
2.01418
3.29657
0.870211
0.404869
3.8715
0.416885
6.40137
1.69983
3.76746
1.40895
10.5107
3.03285
3.52354
3.36
2.79605
0.753288
0.865341
0.446517
3.93177
0.899659
1.9055
1.0623
2.75507
2.09821
3.72162
1.21126
4.0657
4.14397
0.755565
2.63887
11.0729
0.501899
1.76959
3.10763
1.23465
5.17442
5.79149
1.26302
2.85991
0.603622
0.968698
8.67192
0.663903
5.08227
2.51322
2.07308
1.44062
3.14084
1.08673
0.498731
3.09152
0.610575
1.33777
5.59862
3.61777
11.5428
2.17984
2.84346
9.83983
4.9313
2.5487
2.35353
2.22681
5.39857
9.15642
2.18821
3.88682
0.752698
1.36196
6.07872
2.00663
5.79557
0.551669
6.82828
6.47695
2.83243
3.44511
1.24763
0.611781
0.980066
2.34423
5.30516
5.78049
3.14555
4.27717
1.44176
3.16074
3.30137
2.06959
4.57884
1.55831
1.54955
5.17638
1.24689
12.1216
1.70544
2.28699
0.442899
0.659648
2.85389
1.26243
1.81896
2.39389
5.29808
8.2229
3.53668
0.901404
0.993621
6.95483
1.15722
3.50389
0.610867
3.78651
4.10227
3.45726
1.78362
2.0479
1.02677
8.12146
4.65388
6.57202
3.87024
1.83858
1.96215
1.31568
3.49726
1.83812
3.11034
4.61005
0.73286
2.17542
8.08568
1.65203
0.622066
2.74665
0.96976
5.48432
2.24807
2.62445
6.28178
3.8446
0.86585
1.34883
3.98228
3.41493
0.470964
4.94243
1.61103
1.29532
5.10057
1.13863
0.465859
1.47755
4.70326
0.474919
0.744677
0.50196
2.82794
0.969324
1.92413
5.77111
8.73915
0.87304
6.01372
2.57067
2.88645
1.65264
1.07987
0.934846
2.0247
0.4623
2.9929
2.01791
2.62239
2.66579
5.40858
6.1916
1.58908
0.793122
1.15592
6.40667
5.24342
1.41292
1.0701
3.80973
3.1203
4.75568
3.61751
0.434647
4.76795
1.1107
1.7206
1.60396
1.69966
1.58247
0.85193
1.46571
5.29486
4.52966
4.84285
1.68027
5.94207
2.61167
5.6514
4.1902
0.93049
1.76082
3.46312
8.83194
2.4615
2.17486
1.21174
6.06229
0.517491
3.36784
4.77118
4.24399
0.802554
8.01859
3.88499
1.57968
1.43413
3.69522
5.16094
2.00475
1.21823
0.634235
1.43411
3.07791
5.13163
1.63993
3.14641
4.25753
1.68839
0.982796
1.53029
1.05109
4.03125
6.42906
8.37038
2.49194
0.7877
6.84104
0.576531
1.68478
5.71899
4.89771
2.54523
7.28289
1.33462
9.22089
2.79887
3.90053
5.24026
3.61063
0.649916
2.42336
0.279048
1.9035
4.34793
3.48844
0.957102
1.50733
1.448
1.94043
7.62907
2.30097
1.20346
6.64228
2.23275
1.40753
1.46278
0.363392
2.48992
1.34579
1.96102
0.510468
0.518003
1.39757
2.47635
2.88975
5.72008
1.6834
1.46559
5.08512
3.09732
2.59111
1.5675
2.29483
7.31562
1.40817
4.0983
0.438285
0.806221
0.647324
8.75823
2.16579
3.41575
2.48628
1.72112
1.12398
4.38821
3.1175
3.01727
7.50185
5.87945
3.42237
1.8017
3.22373
3.27305
1.41692
0.927571
0.424471
1.41279
3.16988
2.2321
1.38228
5.75813
1.65302
2.99216
0.883077
1.34469
0.388951
1.92024
1.11744
10.16
0.988318
3.8762
4.60321
4.53512
1.95827
0.689277
0.854953
0.419461
3.85358
3.28628
3.70039
6.27791
3.75664
3.70212
4.95004
2.19953
2.87967
12.4098
2.69765
0.755111
3.27007
0.878344
5.52023
0.914794
2.43702
2.57474
2.75703
1.85247
4.66528
2.25771
2.43922
0.761003
1.13654
2.16781
2.00557
0.671903
2.08429
0.580797
4.98019
3.42113
0.73784
8.03396
2.10474
0.578307
3.14533
1.7462
3.14858
4.8755
1.78186
5.53473
1.95436
2.1064
3.18778
3.91832
0.768245
3.4382
1.2
11.36
2.58224
3.97001
3.25001
0.570866
4.16092
0.824289
6.64624
2.53068
0.66043
2.58322
1.71476
2.43697
1.02832
2.65398
1.11976
3.31977
1.53544
0.36358
6.04524
2.75952
0.962411
0.528918
2.15864
7.6077
4.4359
2.58586
6.06412
7.19822
0.478482
2.25074
1.66771
9.76708
2.25438
2.04994
3.78886
6.30034
2.33047
3.63073
0.901826
2.98904
0.786246
0.599664
0.534825
14.5001
2.14746
2.91019
1.54084
10.0907
0.689742
1.67571
1.78171
3.20303
2.36957
6.4
2.3967
2.39847
3.04436
6.5035
0.455384
2.91067
0.936953
1.51711
5.98707
2.98337
16.4598
3.08309
1.09246
5.11895
8.69346
0.474503
0.81197
1.65496
2.98127
0.476027
2.27207
0.635844
2.02743
5.02938
4.01265
4.99335
2.29524
1.71814
4.06576
11.015
2.26801
1.13283
3.65244
1.38556
1.68513
8.81244
3.10419
1.16748
8.70842
1.46258
0.544546
15.3335
12.1136
6.91847
1.94268
2.19518
3.97664
2.48947
1.8279
5.234
4.83164
0.970937
5.42855
5.47004
0.460924
1.39478
0.754809
1.88016
5.32705
0.855731
0.805534
0.340812
2.66277
3.22486
1.23568
2.94859
3.27597
0.851765
2.12307
0.942328
8.37537
5.34116
5.66325
3.29296
4.57611
4.45787
3.01497
2.68058
2.10804
0.882022
1.80125
5.27735
1.48142
8.31253
3.17524
2.97661
0.79236
1.96467
1.28277
3.83577
6.99797
0.48029
1.13843
3.18801
1.93147
1.88457
1.03345
5.19404
6.7171
4.24558
2.64345
4.74066
2.2948
2.42569
1.48688
1.32349
0.408467
10.3964
3.358
1.46571
2.87777
8.6003
4.28829
1.7608
1.19656
7.65624
5.25756
7.4347
1.37473
1.87921
2.20148
3.67736
2.08025
3.58712
4.39937
1.23929
1.15323
2.34735
5.93222
2.48577
2.29545
3.02792
0.991942
0.457911
5.83328
2.43374
5.17257
2.31318
2.92846
7.08659
0.319147
1.28193
6.163
0.726414
4.13366
8.71502
0.683848
5.40753
1.36436
6.74266
0.426655
1.90898
0.418675
0.667438
2.52804
1.38557
1.9955
5.40747
1.53383
2.83389
1.59131
4.41543
10.4242
2.60847
1.02235
4.21546
2.44837
1.28025
6.37231
3.42197
0.714345
1.59941
0.526011
3.63702
8.21023
1.95608
2.2951
2.61834
1.7282
7.11511
1.83316
1.72414
0.810425
0.497892
0.529344
0.514023
11.9271
3.42747
5.06159
4.48435
4.01976
0.366706
2.97316
7.99636
0.765355
3.26456
4.97632
3.92344
1.64258
5.78842
3.96014
6.67625
9.50072
9.91146
5.61052
3.73301
4.13301
2.28149
5.62422
2.30386
5.72236
5.40023
0.643148
1.93601
0.836203
1.78657
0.475476
0.85729
2.31093
1.94703
2.76866
6.4478
4.20679
7.51886
1.5813
0.594789
3.23546
0.979091
5.53585
1.39543
0.464872
2.09896
5.25816
3.06791
2.43906
0.915027
6.67475
3.82746
0.534414
1.73424
1.07849
7.56738
0.915906
2.60882
2.51046
0.713873
0.456443
4.29022
4.7408
1.31639
1.83923
0.736087
4.06831
0.543703
10.6807
2.58712
9.07483
2.31124
7.73053
2.19452
2.2793
8.99168
1.46248
2.41788
2.56794
0.405655
0.705024
4.51577
4.88529
5.32633
0.987766
1.50236
4.43982
1.19719
3.22424
2.00605
0.57724
2.05296
4.70541
7.35571
2.90158
2.13646
4.88775
2.86975
2.21079
15.6631
5.08564
2.87493
1.12125
2.04158
2.68248
1.00303
1.38209
0.5671
0.422718
0.35689
3.51098
3.54814
3.64166
1.10807
4.10589
2.96197
6.59304
2.30032
1.64835
9.13598
7.26477
5.66781
0.597218
1.24771
0.64255
6.25366
5.3051
0.538567
3.21541
1.51059
0.981811
2.14828
9.85208
0.789191
1.44823
2.2665
0.648515
3.16118
3.0824
3.92028
3.25764
0.512006
1.01223
2.06902
1.95785
2.68341
2.66365
3.26746
5.96028
3.1107
2.0213
5.70792
0.364373
0.645428
7.15481
2.70184
1.80515
1.95905
1.48832
1.16
1.84085
0.411867
4.12705
3.46471
0.472961
1.34062
1.61392
2.64423
2.02915
0.798816
1.51591
6.46174
0.611426
4.50236
1.95627
1.02015
3.68588
7.81794
6.54027
0.347305
6.30052
1.32611
1.42316
2.42985
1.33816
3.23823
13.5775
0.668162
2.58784
4.36363
1.28241
4.083
5.2019
1.06445
2.01906
0.726342
1.75096
2.06945
6.06163
0.773364
1.33294
1.47833
6.50281
1.15518
2.64033
3.34129
9.7412
2.96275
1.21288
1.17266
4.841
3.72673
2.27048
3.91246
0.998564
1.6029
3.27684
4.84521
0.917485
1.98159
1.92208
2.33036
1.53368
13.485
1.6008
3.36718
1.84039
0.709932
0.398008
3.31629
1.93493
5.34542
2.00554
3.88693
2.49001
4.14397
3.28033
2.67072
0.440261
4.96755
0.609373
1.34019
3.70855
1.84994
5.35426
2.835
4.77398
3.25819
1.1212
0.901394
5.13617
1.48468
3.42603
3.54885
0.804432
5.75034
3.3232
4.96233
2.25014
2.19285
4.84372
2.77382
1.60454
3.27414
8.92523
2.58926
2.86581
1.7617
3.47508
7.08546
3.92122
4.16907
1.52037
5.53777
2.72758
0.401019
1.31977
1.26039
1.3718
2.01157
0.842955
2.4817
4.83203
10.5746
1.85283
1.70266
0.326763
1.31203
7.03495
2.9859
1.77059
6.34115
1.20546
6.27805
1.43333
3.71482
2.50037
6.02995
2.41519
9.82066
5.56706
0.936054
3.46897
6.65889
2.97948
4.29325
5.27181
2.12036
0.611307
2.50465
0.578516
1.24439
1.54427
3.26248
1.70911
0.679304
2.65151
7.21943
7.99567
3.39195
0.794108
2.20371
1.2081
1.23924
14.9596
1.7549
4.85506
0.758891
1.82403
0.660283
3.23568
1.7712
1.36
7.29804
0.945154
3.57956
1.61888
2.20109
4.98316
0.622339
2.48549
1.03575
2.6296
0.439689
1.53904
6.70388
6.19717
0.341009
2.81608
2.36911
1.31857
1.16198
2.74418
2.00676
0.576034
1.99002
0.530905
0.917623
2.94708
2.28966
3.85115
2.37512
2.05612
10.0452
4.11851
2.35101
3.40826
1.00891
1.55743
1.09475
1.74832
3.95378
1.30868
3.2542
0.974795
2.76799
2.15263
0.764607
5.42569
8.36298
1.51884
1.44996
1.84978
5.6998
14.942
2.33299
1.33087
2.68251
3.49541
1.78432
3.46427
15.6677
1.16967
4.88573
0.90508
5.72187
1.57417
3.28863
6.75614
5.71075
0.413937
3.82336
3.53645
0.604338
1.27259
1.86989
3.4453
2.86168
2.16739
0.674838
3.03707
2.98112
1.50764
4.86513
0.932493
11.8275
0.730536
1.51164
0.765224
0.813833
1.06059
1.14667
3.26647
6.25676
2.1341
4.06728
7.82215
0.490003
1.32943
1.22263
4.10265
7.11091
3.05844
1.72085
3.49382
2.53686
0.990933
0.991464
1.18388
5.34157
5.53326
4.48834
0.615189
2.31885
2.12141
3.81627
0.434773
2.62779
1.8442
6.10729
5.16948
5.6803
2.29761
1.01355
1.90139
3.4687
14.1664
1.23594
1.31576
1.70639
0.870167
3.07572
1.7287
2.55734
7.30503
5.6347
3.1415
0.755103
2.39394
11.5964
3.28961
0.847717
2.32331
2.21044
5.02785
2.76333
3.1894
2.6052
0.925336
6.9046
2.09682
5.84086
2.06102
4.84342
0.524329
1.74453
1.17871
3.99317
0.405825
2.57186
0.488428
1.13174
3.54554
4.24955
2.41858
2.20739
1.43048
3.18741
6.77728
1.51509
1.26813
2.19992
1.19277
4.03809
1.64203
16.8182
2.5578
1.14064
0.497135
1.39912
3.02891
3.29468
3.72465
1.26669
0.634013
6.46106
0.532136
4.35537
5.7561
2.70705
3.80459
2.66385
0.43333
2.83786
5.03332
5.07357
3.17584
4.45985
2.00918
2.80185
0.698897
1.24188
2.28857
1.84834
5.75808
3.47169
5.77934
1.57453
0.604782
1.91415
4.21362
5.92346
0.507382
4.64662
12.0464
4.70048
0.907981
1.20116
10.1345
0.531926
7.58129
3.07053
1.27371
4.12529
1.55965
5.0293
0.543129
0.885752
3.16328
2.59969
1.41773
0.437701
4.06312
1.97444
4.0278
2.04266
2.99291
0.969042
5.3101
2.36477
2.85592
9.77858
1.08243
0.804038
4.18035
4.23349
2.60776
1.78471
1.97165
0.857795
0.514661
6.91587
1.01514
2.6305
2.04587
6.49173
2.63368
3.35296
5.10722
0.842795
0.884986
1.81899
4.27502
2.1339
1.80633
1.08687
1.18714
2.34887
0.77993
0.933871
2.04167
0.994207
1.3995
1.42459
6.24945
2.26588
3.69723
3.98827
4.80722
0.599207
6.61469
1.62921
3.18396
5.90059
0.541254
8.21724
7.80728
3.1396
0.617651
5.40701
0.994729
5.88247
2.86578
1.08621
4.2337
3.89997
4.83187
2.72878
3.39188
1.29873
1.17866
1.86857
1.2946
0.556785
1.07731
0.772202
1.07091
1.54096
1.61345
7.71883
9.36595
4.54096
1.05088
5.77583
1.05759
0.920747
2.09165
4.367
2.92311
2.8666
0.843221
3.70819
4.64767
5.96725
2.43546
1.2129
1.80034
1.11197
1.77274
3.50338
1.56785
1.19608
4.71211
0.997281
4.43274
0.973767
1.24414
0.403799
6.26684
9.0109
0.975647
1.33414
0.751654
4.91892
0.840811
2.99831
6.07951
5.78098
8.03402
1.80952
0.800963
4.54575
1.19647
1.72729
5.6267
4.48923
1.72198
0.708198
0.53735
10.3748
2.57586
1.60571
1.22023
0.47592
0.728339
3.75462
4.73971
5.91889
0.530101
1.87964
4.51137
6.01311
4.02446
1.34611
2.4911
1.06284
5.17369
1.13332
0.47588
1.11127
1.14607
8.12457
1.8021
2.95577
0.363336
0.532303
0.340127
1.39863
0.687221
0.998754
2.99626
1.95966
4.7911
3.18103
1.37437
1.93558
12.1106
4.93221
2.98622
1.41164
1.25464
6.12962
1.94747
9.79085
0.646083
0.973881
3.36517
5.79795
4.6903
3.30811
0.349633
0.8095
2.93737
7.14573
1.03575
2.32502
1.2471
0.759621
0.635106
1.7398
1.41736
2.25921
3.36277
7.24317
1.58224
2.0471
1.01446
1.39078
2.58744
0.673555
2.03887
2.91037
5.63801
0.852542
0.629996
2.05915
5.62919
0.334448
5.37066
0.786085
4.00683
3.06438
5.42988
1.00031
2.86575
4.21608
1.99278
10.3243
3.17018
1.09019
0.333376
1.00718
0.376222
1.70066
4.98181
0.340702
5.74715
2.51818
2.90931
4.37984
1.43343
0.986565
12.7461
2.1724
0.972057
2.16169
7.56474
5.36356
4.40198
0.658727
0.820495
2.25495
3.48289
0.806968
7.24645
4.39706
5.00944
4.0317
4.03411
3.46733
2.3553
2.05333
0.927472
4.68742
7.29832
3.50047
6.84793
0.383393
0.685403
0.50731
5.5373
7.08424
1.13712
1.91852
3.67168
2.48635
1.86313
0.660722
4.50679
3.31604
9.0335
3.51599
2.93413
4.52883
1.91248
0.580776
3.22913
3.09207
3.96394
9.0327
0.909142
3.55008
2.00668
1.17635
0.69445
0.565151
7.38946
1.62398
3.5964
3.6644
1.27738
2.87557
3.54203
2.22903
1.75645
0.542645
0.580688
1.28996
1.53163
1.67842
0.802848
2.67681
12.2577
3.38578
3.86079
0.563972
0.750086
1.73318
5.19832
2.53921
4.72964
0.451221
1.12066
2.1168
1.02827
1.61933
3.55287
3.5454
3.56029
5.52936
2.50783
8.61224
0.981521
5.79405
1.51008
2.28349
1.3508
5.82167
0.573226
2.39928
2.37421
2.26943
2.30523
1.03445
1.09678
2.0496
3.05276
1.13464
0.390042
2.271
0.664027
1.78435
2.68689
1.53078
3.80744
1.60761
3.71633
1.61078
3.48431
5.18296
3.01673
0.693092
6.44493
4.74839
7.6467
7.46432
0.713182
0.79921
1.67924
1.66089
1.76527
1.64433
1.28022
0.966939
3.47863
7.51394
3.40458
3.24306
2.96597
6.62241
0.631504
2.93814
3.76347
2.01489
3.53893
7.36356
1.06345
2.40766
6.46776
1.23311
0.991776
1.85234
2.31632
4.93655
2.71675
1.05332
4.67712
4.70774
2.35519
3.97124
3.33691
1.34791
3.26657
2.20124
2.21025
0.450856
1.57042
3.06574
3.22886
16.9104
1.22798
0.498769
3.55476
2.67373
3.69358
2.02338
6.39036
6.59552
3.96928
3.68019
3.45479
0.971759
0.455185
0.891605
1.04053
1.61787
2.79006
1.53953
0.840761
4.89345
3.24775
4.23397
1.3523
1.83531
2.39624
3.57882
4.98178
5.41886
1.59172
2.77768
0.380609
0.323796
1.06256
4.80234
0.672515
3.13273
4.44887
5.4739
1.90058
2.82201
1.60246
1.56411
4.51283
2.89826
1.12891
1.6901
3.31462
1.71141
6.14544
1.58239
3.062
1.33093
3.12742
1.96535
6.0855
1.49137
7.58533
4.06238
1.57509
2.50714
2.07467
3.02477
1.91954
2.17953
6.2992
4.01341
2.5168
5.69624
1.45997
2.11886
2.77042
5.00508
4.24699
4.26544
4.67179
6.0763
5.46748
1.07206
2.13242
4.52289
3.05883
1.51445
2.82059
2.08578
0.584989
3.00018
5.97847
2.98441
1.80639
1.09318
0.410496
1.53102
5.86522
2.63745
0.765951
2.71522
2.98308
1.49101
0.542335
4.68704
0.710155
0.65118
1.77265
8.51853
4.80502
4.48604
2.55019
2.51912
4.01443
1.68046
4.10037
4.05977
1.52287
0.824782
4.86924
0.49622
3.41859
0.463465
1.75315
2.02711
0.405434
5.05996
5.09605
0.992221
2.45635
4.43511
0.582408
2.5015
4.58731
0.571718
4.40517
1.30828
2.29865
6.93911
2.97541
1.66799
5.38604
0.824933
12.4106
2.88459
8.42915
1.29613
0.643487
12.5026
0.357055
6.80623
2.33147
1.13786
0.393703
3.98669
0.284908
1.22041
5.75526
6.71493
11.0677
6.561
3.58651
11.5967
6.09794
1.48434
13.3254
3.24925
5.84179
4.18055
1.36636
2.10691
1.14466
0.552223
1.41928
7.33839
1.85871
1.78452
2.42431
1.03622
2.62043
3.74933
1.25819
1.2664
11.3062
5.40216
0.35781
1.66942
0.971818
4.75674
0.324547
1.75928
5.60939
1.32418
4.33762
0.704552
2.29286
0.920283
4.82969
5.51178
1.65982
4.38155
1.90798
2.95471
0.66421
5.50511
4.67585
1.23003
2.21121
3.8442
3.3085
3.19633
3.10127
3.4417
9.06331
4.11473
2.86939
9.99999
3.16401
1.61199
6.99059
1.56063
4.78893
0.58073
0.335176
4.23512
6.65848
0.681289
0.91822
0.644249
3.44926
2.54098
4.87778
1.87002
8.70456
5.30811
3.97324
1.7534
2.89297
5.73301
3.28049
2.46962
1.61512
4.71873
0.641093
5.30474
3.54246
3.4914
2.30721
2.50673
0.957795
5.88804
2.00375
1.90839
6.21638
7.87002
4.23404
4.63075
7.23681
1.78759
3.34283
4.80598
2.82054
0.861027
4.90702
6.94351
2.85145
1.88984
3.19178
5.54922
4.47052
1.85584
1.49016
5.78061
5.64579
6.06362
8.07264
1.21434
4.25646
4.66074
2.343
3.31361
2.34658
0.335469
1.48687
7.39512
3.49639
1.37546
4.28346
1.8139
4.27166
0.432717
3.6862
1.64172
1.19663
6.81089
3.20071
2.05071
2.05681
1.79875
14.6057
1.03546
1.75683
0.672119
2.91492
6.53436
1.89757
4.35853
1.86724
1.66903
4.68955
2.45335
0.973513
0.516383
1.25071
7.00724
2.29502
1.31987
1.09468
0.478387
3.52696
0.769435
0.46632
0.614244
0.872063
1.82518
4.66074
0.433256
4.51216
1.38083
0.682688
2.46614
1.5282
2.27451
1.23693
1.26362
2.89443
3.53782
2.25455
1.94633
2.43468
1.92981
0.961974
2.18984
4.95112
2.04054
4.21709
1.85107
2.24419
2.03542
4.91031
1.26586
1.36162
2.79402
3.946
1.19663
2.67712
1.29069
0.689333
2.13902
3.41709
7.10858
2.17586
0.831114
8.58318
1.48156
3.50247
8.37669
5.05587
3.09902
1.36586
1.08971
2.22184
2.82822
12.0891
1.65603
3.39296
5.31747
1.31712
7.73245
6.32459
2.0567
3.31859
6.72554
1.60391
4.14494
3.33156
1.41715
1.31917
0.710251
2.86789
1.6444
2.33875
2.31086
2.14484
1.54965
2.59638
4.86798
2.84871
4.57048
0.820353
6.70092
1.97923
4.89902
0.92469
5.77937
5.03375
0.493439
1.49131
1.64337
2.67041
4.63115
0.440234
5.38001
8.59862
0.661078
1.03984
0.74296
4.54713
1.55715
1.26552
0.400983
2.00593
0.619577
1.35419
2.72121
1.34332
5.26642
2.0129
1.56506
5.44011
1.5718
3.77288
8.95226
1.15592
4.96678
0.885476
3.56078
0.711421
6.64477
3.64108
1.55503
2.97006
4.91336
2.20677
0.746703
0.775244
4.28377
0.442343
3.88866
0.963214
1.1894
2.13373
3.6642
1.64365
1.34228
6.29282
4.25954
2.92021
8.94531
1.34129
0.665054
0.725368
0.658056
0.413851
0.337587
0.778377
1.88031
1.96758
3.4948
0.482917
3.88881
11.1162
1.30259
7.32163
6.93282
3.86393
2.44918
1.13849
0.445702
2.44052
15.8983
7.39028
3.85862
7.47404
1.53633
5.32654
5.24993
8.63849
0.572915
6.00023
1.89929
3.22277
2.76016
0.563762
3.49619
2.74002
0.413768
2.39042
4.13355
2.63578
1.25276
0.470822
2.46244
2.04764
6.11593
0.406402
2.07649
0.321932
1.41288
0.605093
0.872058
3.03647
4.02957
1.16388
4.88165
5.48356
8.5543
3.88778
9.67646
7.91165
1.51759
1.95158
5.13705
2.37852
3.13583
0.602291
4.54305
2.29727
2.69144
1.87817
4.10624
2.37215
2.90003
0.617989
1.97958
1.50754
1.84998
1.76178
8.81115
4.64718
3.79903
4.86506
3.36241
0.775767
5.00383
1.48449
2.04045
1.86368
2.84186
2.90285
3.40806
6.84127
1.53339
5.0822
6.2224
4.24905
0.57129
6.59444
5.62474
2.84367
1.47796
6.15295
1.43373
1.75718
3.77683
2.04076
8.21057
0.728819
5.57759
5.39687
2.65507
5.57853
1.2226
2.30193
3.18147
3.2983
5.44057
1.62064
1.50951
6.36338
1.4665
3.4473
1.86017
4.42548
1.76255
2.73895
7.10311
7.30341
1.3792
4.552
2.19876
7.04202
2.15382
1.20184
2.22025
2.38395
0.410251
6.33719
4.42689
4.64972
1.93661
2.22013
1.49378
0.795288
2.16664
1.21152
1.32185
10.4901
4.32788
1.85311
0.74065
3.78443
6.64382
1.15233
2.55572
1.04971
7.75868
0.515247
1.01721
2.37342
4.30625
2.03918
0.539763
0.564196
1.01582
4.19202
2.22568
1.83205
1.76496
2.67495
6.65656
2.08723
2.9385
4.21306
0.932458
2.04248
4.75188
6.54428
0.648005
1.88871
0.405431
7.53304
6.7121
0.570385
2.40461
1.74498
2.2198
3.02978
1.80441
0.949446
3.14988
7.75671
4.37228
4.41017
5.24319
0.830096
7.14164
1.59241
4.58211
1.89529
3.10971
0.716416
2.55507
3.02644
5.94519
1.82548
2.56476
8.16444
5.96276
0.753861
1.71383
1.32987
2.40647
3.75978
1.88363
0.731414
0.609728
1.44568
2.23418
3.50918
0.705419
0.490618
5.04082
3.79552
3.88455
7.36901
0.927179
2.12871
2.52136
1.76848
10.4613
1.60373
0.912256
1.6806
4.21502
0.384925
0.875329
0.45513
0.381335
0.884613
3.09898
0.513754
1.47743
5.92669
0.915955
2.61994
0.519305
6.60843
0.359037
4.19413
0.590904
0.422388
1.10652
2.1044
1.53657
4.13454
1.97866
3.90661
2.53749
4.79591
4.07512
2.12554
1.28687
1.48389
0.91903
2.76581
0.44016
2.67229
4.05151
3.65623
2.75688
2.82362
5.2352
6.04873
9.2786
5.51578
2.54007
0.850095
1.90141
1.30112
3.17178
4.41518
3.07625
1.282
1.83217
1.06759
0.544412
2.46017
5.0791
2.10736
9.61767
7.73825
1.75997
0.468698
1.93534
3.54737
3.50863
1.55321
0.399298
2.73617
4.26514
11.5193
2.07998
0.891098
2.97733
14.0466
2.80108
4.05273
1.389
1.44483
3.91004
3.18449
6.41204
0.852826
1.08017
1.76784
3.32025
0.814604
2.46102
7.57583
0.699929
4.77791
0.845331
2.0013
3.4414
5.69668
3.10817
1.39894
0.56896
3.38771
2.07818
0.942825
12.7041
0.379613
3.51779
0.516952
1.50673
1.29084
1.54372
2.90613
4.02947
2.5833
0.965619
1.80659
1.33356
1.11919
2.31403
5.42131
2.70336
2.88693
1.43063
4.77379
5.84267
2.76644
1.89363
2.59247
3.69092
5.90899
0.417623
1.94688
15.2226
3.22828
1.53798
2.62622
2.2204
2.08779
1.93531
3.59683
3.3868
5.79958
2.24711
2.49736
2.98486
2.04942
2.22007
2.72766
2.80938
5.85015
0.7493
1.35461
1.93008
0.799546
6.48756
4.30805
2.92105
1.06829
1.83712
0.451024
8.27926
0.359734
0.826315
2.15607
7.14464
1.44386
2.25055
2.71074
2.91684
7.1325
0.97012
3.93815
3.51633
1.35786
0.7796
1.38496
0.658924
6.06518
0.73907
1.03147
3.60224
1.58598
0.481573
1.98707
2.81617
2.49773
5.75523
3.43276
0.994075
8.16295
2.2285
0.433419
0.680597
6.29652
3.5646
2.17787
1.7487
0.967844
8.20777
2.89119
0.579484
1.43051
1.13166
2.39953
5.83562
1.66646
1.44142
1.32061
1.19104
4.18054
3.32167
4.90372
4.00859
0.625625
1.24197
8.83679
3.09522
5.43782
0.391738
1.1647
4.54517
10.7407
3.4461
1.02272
1.36721
0.296647
4.8611
3.80719
1.39228
2.69389
0.501212
1.23081
1.35693
4.9592
1.0394
0.74165
1.77973
0.916922
6.16292
1.05169
3.11229
3.78473
1.90594
0.855358
6.33529
1.32701
9.70848
5.6011
2.96506
3.25827
1.78424
2.50458
8.7788
3.19295
1.88564
3.28819
2.13265
2.17859
1.28628
4.23797
2.60987
1.63258
0.929925
1.84405
11.1471
2.94712
3.92644
3.34106
4.72682
10.4044
1.44662
5.35776
2.62456
4.40899
5.70422
0.91353
0.817344
3.9617
1.13064
2.96785
3.21732
6.5716
10.9803
2.25625
2.42137
5.6478
2.54209
0.756598
0.625334
0.643882
0.632698
4.52745
2.4457
1.40542
3.00855
0.371543
0.73624
2.00869
1.67624
8.22886
2.03444
6.58577
0.476761
0.85464
11.5395
3.87904
3.21644
2.34774
1.75346
4.41639
2.58195
3.9546
1.39775
1.95242
1.197
9.0669
1.13132
1.52726
0.463138
0.413772
3.9358
2.36293
2.13895
2.97214
3.74943
1.48004
3.89086
1.443
3.71136
5.58105
4.127
0.584836
1.96319
1.38999
1.77448
2.85515
0.45484
1.4245
12.4655
8.08102
1.38309
0.687883
9.50835
2.68303
2.76962
15.3626
2.7104
3.25834
0.656324
2.02574
1.34368
5.93102
3.22717
4.41017
2.20652
1.08527
1.90375
0.490072
2.64218
4.42541
7.70675
0.874521
1.31531
1.60233
8.34857
3.83003
3.00395
2.65365
6.77606
1.27121
0.845648
1.55655
3.25377
2.9858
6.01617
0.448214
2.52429
2.05267
0.910257
6.01461
7.01047
1.30072
1.65793
1.77709
3.86438
2.76815
1.98473
4.88633
3.75557
2.93068
2.66859
2.76432
2.61995
1.27137
0.485246
7.71239
1.69687
1.39825
2.65181
1.96462
2.32754
1.08531
2.28901
0.625826
0.510622
2.1147
5.24751
8.22378
0.425559
4.24762
2.31627
4.52705
2.04874
3.18282
4.09429
0.932798
2.6396
2.04582
0.574233
1.93608
0.435707
2.20289
4.40865
3.89629
4.16341
3.77621
2.98075
8.00358
1.80922
3.72458
2.58315
6.94015
1.31473
1.04724
3.16072
3.93445
0.749389
4.27536
2.85164
8.0351
3.25406
8.33553
0.979435
1.09001
0.949106
4.63647
5.92279
4.48
4.19937
0.395585
0.451502
0.975051
5.64707
1.40531
5.28633
5.8617
1.8406
0.468034
5.69502
3.39384
2.07672
0.896759
7.95768
4.96583
3.5115
1.64056
5.96274
1.62443
0.748553
8.72081
5.2093
8.33003
0.521704
3.43216
0.538937
4.41772
3.13872
1.13958
1.70287
5.35434
2.54556
5.91485
2.62985
5.47239
3.05691
3.85823
2.10654
2.46416
4.16398
1.31819
4.92925
10.3291
0.508005
1.52192
2.25452
1.48367
2.67985
0.643316
0.665427
1.24974
1.58746
3.15002
0.65896
3.48238
0.480893
2.35623
5.48487
8.05328
8.31482
1.18608
5.19215
1.75999
3.46634
5.34925
1.94808
3.58395
1.33512
1.74465
3.65419
0.446704
4.99936
1.39859
1.6907
1.84457
1.69895
1.13284
1.90718
3.50671
1.33814
10.9342
4.18473
2.67934
1.04043
3.89056
2.65844
3.51485
4.21877
1.97007
1.83875
0.874019
0.686604
1.39684
0.749274
2.36792
2.47733
0.692634
9.14818
1.87847
2.06401
5.05827
2.14182
6.70329
0.839759
0.442971
0.976802
0.671306
8.63236
4.34971
3.55779
1.46285
4.0073
0.491936
1.57343
2.43425
4.69429
1.80071
1.10189
4.88389
0.823579
5.33627
0.324821
0.476684
0.81635
1.70226
0.808561
1.49626
2.66665
5.0603
2.78968
4.24982
1.60328
17.8093
3.73301
1.76164
6.32951
3.60584
2.0919
1.7311
3.6399
7.69859
0.951574
0.594494
2.8389
1.8197
1.25968
1.41353
6.97577
0.428734
2.86964
3.86327
4.83269
2.31658
4.20125
10.1366
2.19669
3.8721
1.18267
1.03227
2.36511
0.482307
4.04988
0.826724
3.74055
0.748503
7.21473
2.95807
1.01719
0.699314
6.46315
0.964185
0.908915
1.06621
1.59874
10.8037
6.17953
2.2691
2.58779
0.562217
1.43526
1.49013
4.23915
0.904518
1.4767
1.54707
3.69468
0.797247
5.20047
2.7072
3.17169
2.17518
1.12149
6.66484
1.06782
2.53071
2.7576
2.44006
2.45234
0.516836
6.36721
5.36576
3.29026
2.9855
4.41146
2.39975
6.60356
8.21985
0.606889
1.65579
3.59646
3.75665
2.31932
1.33318
7.20247
0.64709
0.505992
4.08637
1.31636
1.76764
0.899848
1.61853
1.7353
2.87768
1.78175
5.76222
2.8152
5.1193
4.51198
1.29009
0.980079
0.617525
1.43771
5.23463
0.902914
9.61045
4.65388
4.83706
5.7041
2.69016
2.28905
0.513967
1.29673
1.08162
10.3653
2.46378
0.860576
2.06698
1.33537
5.92289
0.515873
2.89075
0.627323
4.52861
3.19525
4.22258
0.488709
0.892892
2.19015
5.85449
2.1193
4.13148
1.06511
5.12189
5.36419
3.56715
2.49235
1.64168
0.619195
3.96913
2.88141
2.42256
0.806879
2.25317
2.4986
1.35162
0.544483
7.47137
0.443154
3.65408
1.44657
0.539057
5.34794
5.79613
2.46854
0.568024
4.88436
2.28026
1.83048
2.13288
1.03023
1.73571
0.743964
1.20955
2.46198
2.36166
3.02408
3.89657
5.56662
0.543812
1.70577
4.23373
0.924799
2.40199
2.28921
2.27441
7.91585
1.55979
1.44471
3.43543
1.42667
3.80087
3.06157
5.5545
2.4957
0.835253
3.90316
4.38293
2.16268
0.905972
4.06402
0.98392
7.90845
3.41878
2.29859
3.89666
1.37979
2.83243
4.90346
0.613224
5.91594
2.80022
4.98583
1.47247
1.3933
2.7648
4.31482
1.99998
1.14262
1.15278
2.65777
4.70073
0.69999
1.76578
1.76153
4.21895
2.02849
0.880171
1.40388
5.83657
4.18681
2.39681
4.44271
1.49895
5.77012
2.83168
1.66934
2.42602
1.25719
2.68608
1.21572
1.72108
1.25805
0.538147
2.21267
6.02408
1.40144
2.92378
2.12039
1.56255
0.804571
0.662354
1.5218
2.07001
1.49101
0.675783
6.31778
1.46418
3.24185
7.91577
0.740043
10.5081
3.97024
0.55192
1.3381
3.88322
3.53735
3.90986
1.81605
7.0492
1.71856
0.715413
4.10882
6.07495
4.02398
5.16227
18.7878
1.03043
1.15023
4.45672
5.17195
1.12236
2.3492
8.27712
0.630522
0.903191
2.378
0.505452
2.36721
1.29801
2.93105
2.42214
14.2368
1.85083
10.1092
1.74934
4.49049
1.34514
1.09153
4.8425
1.47023
10.1522
0.481617
4.1354
2.54939
2.1495
0.711038
1.14148
0.6567
0.587315
6.14262
11.0743
1.9281
1.17682
7.53388
3.8221
2.58732
0.642503
2.5807
5.4068
1.36809
2.16747
1.48931
1.85263
1.31764
0.551223
2.71981
5.26937
7.10778
7.37212
4.29928
3.58332
1.37144
4.12319
1.95834
0.432759
1.53657
2.19879
1.98121
2.52854
1.38389
3.33454
2.47329
5.02691
2.10205
4.61794
4.08646
0.379372
1.85382
6.13259
0.657926
3.26614
4.93126
2.16355
0.558394
1.35711
2.97173
5.08332
3.09318
0.762196
3.17352
0.421104
3.98429
0.577174
1.89535
5.93686
2.56134
3.57016
24.2798
0.595639
0.828851
2.05041
8.89493
2.29961
2.34564
0.829197
2.97271
4.98516
1.43767
3.62198
0.897957
2.55972
2.33673
9.83592
0.443635
3.48233
1.95746
1.46466
10.2877
7.26735
3.68549
1.27281
1.84349
1.50231
2.98602
0.710121
4.7128
3.11247
2.3605
3.32821
0.885516
2.33658
4.06492
6.187
1.9935
1.66375
2.6564
3.40587
1.71622
15.3904
0.658005
1.73083
4.35078
6.38721
2.01296
7.11787
4.42264
0.922199
4.21646
3.20881
8.59293
1.80978
4.23513
1.75669
1.66609
1.23965
3.60386
3.92748
4.07468
6.04041
1.35561
1.17679
6.73491
4.27095
3.92334
0.584034
0.739101
3.32554
6.5614
2.37996
1.16083
3.44152
0.66655
10.1189
3.11965
1.95027
3.06305
0.88556
2.58934
3.02348
3.0619
2.20565
2.10888
0.717263
2.55765
4.3009
3.79135
5.1311
1.80254
0.889
0.502038
5.29322
1.65132
3.62985
2.51251
9.75908
1.64203
1.66539
3.35357
3.10673
1.04797
1.4739
4.93508
0.442858
2.93816
1.38133
6.73966
1.82651
0.57182
4.87038
1.25863
0.318307
3.76331
0.912131
0.49644
0.871621
2.73911
5.85188
0.6231
2.05774
0.875067
2.84245
9.87695
2.75879
6.18551
2.01857
1.61564
2.66989
1.48401
2.76892
1.51792
1.61124
0.660698
4.29392
3.77903
0.943051
9.05832
1.19354
0.90372
5.23414
2.622
3.99709
2.85573
4.47431
8.74359
1.85087
0.582678
5.32959
1.6423
2.72192
7.27223
3.10733
1.92008
4.23082
7.98146
0.857145
3.92671
1.21024
5.00751
1.51731
0.950918
3.29683
0.989763
1.45522
1.17745
1.52525
4.34963
2.09377
10.0663
0.446532
1.42662
2.52755
4.8168
4.528
0.964557
3.66429
0.4356
10.7865
0.403233
6.25481
3.45507
1.4761
2.10429
0.49605
1.74399
0.501418
4.62113
11.8167
1.71409
6.3152
6.67956
2.38524
1.56206
1.35874
1.05144
1.71444
4.78152
4.32676
5.672
4.86848
1.1462
3.69663
0.298525
6.43095
4.21053
3.61153
2.89955
2.07663
2.04895
0.482592
7.50064
17.7821
2.55535
4.38107
1.02623
5.28524
1.80863
3.70476
7.6589
0.662269
3.56723
2.23116
7.26144
3.53168
8.33295
2.60994
4.48984
3.61457
4.82607
0.343699
1.70654
