4.68179
4.46162
4.60151
4.54495
4.26788
3.85937
4.32131
4.08464
5.1893
5.98831
3.96701
5.02767
4.11942
3.99767
5.10009
4.80339
3.78928
5.50983
5.26294
4.43585
4.70546
4.58106
4.46522
4.51066
4.73462
3.67153
4.58744
5.32468
4.5473
4.77558
4.58379
4.11138
3.75219
5.27089
4.94858
4.62663
4.40145
4.40327
4.16266
4.69135
5.5182
4.42769
3.9712
4.39904
4.13117
4.87757
5.56503
4.46576
4.56701
3.72587
4.3723
3.93562
3.69215
4.12495
4.3457
4.69426
4.46897
4.70714
4.21154
5.24656
4.80558
5.35464
4.56592
4.08886
3.83274
4.07369
4.34322
4.84549
6.13852
4.1815
5.12934
4.52266
4.44276
4.78494
4.24674
5.60647
4.71315
4.76821
4.50127
3.65776
5.88361
4.63177
4.20973
5.26549
5.80606
5.126
4.06707
4.26748
4.21039
4.96058
4.49741
4.21502
4.28934
4.82661
3.86431
4.44872
4.37772
3.93106
4.70819
4.83182
4.68636
4.10213
5.26428
4.56024
4.6407
3.74098
4.1776
4.02009
4.71189
4.28106
4.73613
4.78323
4.28073
4.51699
3.89275
4.02793
3.98073
5.53037
5.31533
5.17007
4.80026
3.49571
4.35925
4.11902
5.16102
4.34637
4.64798
4.4035
4.33589
4.21761
4.60552
4.98213
4.25861
4.28941
4.06529
4.26095
4.18179
4.01563
4.30949
4.43263
4.40885
4.71182
4.65333
4.21778
3.59038
4.44911
4.42579
4.28974
4.8404
4.52739
3.69914
4.25268
3.98282
4.53856
3.92051
4.46968
5.39204
4.44859
4.41322
4.82326
4.26485
4.82041
4.00393
4.14404
4.39768
5.09706
4.50612
4.04901
3.74554
3.95766
4.59007
4.84099
4.24783
4.22823
5.87884
4.37889
4.18442
4.40375
4.46843
4.15179
4.51191
4.07815
4.66796
4.57074
4.16759
3.49509
4.83849
4.57471
3.95536
3.68429
4.30403
5.53136
4.3361
4.80531
4.59507
4.78487
4.86437
4.43754
5.28941
5.88435
4.42861
4.3964
4.08991
4.16426
4.91577
4.01665
4.09252
4.53098
4.59238
4.21241
5.23247
4.31083
3.91826
3.96691
4.91611
4.49771
4.28398
3.67124
4.02988
5.6748
4.33952
5.37459
4.686
5.20644
4.41695
4.22081
3.73883
3.82867
5.02354
4.99098
4.81414
4.39802
4.63407
5.02118
3.77286
3.84722
4.28971
4.55899
5.47986
5.53863
4.39597
4.99064
4.93253
4.54615
4.37848
5.54789
4.33173
4.74089
4.39012
4.33034
5.01285
4.38329
5.47544
4.64563
4.46205
4.90962
5.16809
5.30535
4.27027
4.39942
5.17292
4.07927
4.19338
3.92969
5.57982
4.74183
4.7319
5.61975
3.84685
4.52649
3.9208
4.9281
4.36136
4.01821
4.17327
4.50905
4.06459
4.28189
4.19473
3.83196
4.18337
4.2571
4.43282
4.47125
4.81038
4.41729
4.70286
4.0613
3.83457
4.32131
4.51984
4.48926
4.38723
4.80695
4.77583
5.59773
5.25419
3.7524
4.65425
4.133
4.82369
4.11929
4.67967
4.10433
4.39433
4.82688
3.89587
4.87774
4.27605
4.9112
4.75116
6.60474
4.94104
4.69668
4.39796
3.94184
5.12575
3.96656
4.01199
4.44746
4.41709
4.66646
4.96873
4.60344
5.44502
4.0772
4.09765
4.79458
5.27743
4.5064
4.08411
4.47298
4.99569
4.60143
4.61888
4.19745
5.19881
4.78964
4.97832
4.82187
4.9889
4.43628
4.55101
4.10451
4.6908
5.37389
4.90238
4.59126
4.61757
4.0196
4.4491
4.13234
4.06576
5.89543
4.66339
4.49376
4.36884
4.02545
4.59157
5.66113
4.15498
5.00775
5.59993
3.87054
4.81794
4.62387
4.19261
5.5509
4.38465
4.64973
4.29971
4.81794
4.02422
4.7065
4.49306
5.15759
4.42947
4.60833
4.71325
4.05888
4.33032
4.54471
4.6851
3.87
4.12171
4.39983
3.82123
4.76452
4.05659
4.28389
4.94306
4.71296
4.60555
4.31439
3.66317
3.56162
5.04794
5.05474
4.54183
5.22143
3.88648
4.22606
3.64357
4.05098
4.67166
4.36104
4.22649
4.51523
4.5334
4.12917
3.93049
5.83453
4.41203
4.58698
3.60856
5.05828
5.14067
3.99381
4.48471
4.97466
4.16727
4.82847
4.99381
4.82652
4.29424
4.5234
4.45438
4.03133
4.57366
4.14942
5.63762
3.97115
4.12922
5.07447
5.37051
4.72887
4.36867
4.52082
4.57059
4.02893
4.19278
4.4457
4.16749
4.21221
5.61306
4.67635
4.5891
4.59528
4.95703
4.8247
3.66462
4.37117
6.01451
4.60455
5.26049
5.71581
4.76357
4.93008
3.90963
4.46506
4.93797
4.51747
4.9871
3.76373
4.5597
4.44698
5.34752
4.90137
5.71351
3.73999
4.89555
4.45717
4.21883
4.62004
4.66889
4.52113
3.91622
4.11192
4.23921
4.85485
4.45189
3.8767
3.9467
4.33787
4.15439
4.6419
3.86807
4.53863
4.32976
4.88398
4.55855
4.92866
5.17237
4.3378
4.45007
3.89477
4.14604
3.96161
4.88656
3.87236
4.39115
4.5039
4.48129
3.65533
4.48976
4.4483
3.87798
4.42291
4.59069
4.17378
4.24339
4.47698
4.58139
5.06501
3.9417
4.34775
3.91909
4.06682
3.91656
5.40188
4.0956
4.28611
5.43326
5.76362
4.42774
5.6133
4.20578
4.65027
4.62316
5.12385
5.24654
4.16239
4.08571
4.35968
5.05517
4.32869
4.39101
4.10192
4.91448
4.56748
4.76871
3.69306
4.32779
4.00628
4.42085
5.26777
4.33508
4.64741
4.53468
4.44874
5.3182
4.06227
3.70955
4.10091
4.00866
4.86832
4.97146
4.41232
4.18824
4.89317
3.92235
4.47433
4.34885
4.9803
3.7578
4.13766
3.98961
4.74352
5.02404
5.05612
5.13979
4.66908
4.17915
3.88284
5.8284
4.59523
4.7769
4.62229
5.19918
4.49866
4.47367
5.2531
4.83038
4.56038
4.40428
4.24413
5.14024
4.82789
4.06362
5.7717
3.96607
4.11372
4.72589
4.29589
4.59056
4.35364
4.85957
4.73829
4.63198
4.30746
4.89433
4.67452
4.84566
4.70458
4.28474
4.86565
4.34348
4.11538
4.84742
4.07529
4.56902
4.53947
4.18215
3.86363
3.40231
4.31415
3.83517
4.67936
5.40823
4.52694
3.76245
5.99313
4.35096
4.61973
4.33178
5.42426
4.20933
3.8035
4.81579
4.46216
4.40997
4.28503
4.88598
4.33758
5.83806
4.87886
4.85915
5.01533
4.11834
4.36087
4.51097
4.5068
4.99336
3.87253
3.78657
4.13478
4.07767
4.26902
4.31107
4.32283
4.27313
5.73687
4.06789
4.51124
5.61905
5.38322
4.11233
3.78203
4.54603
4.24092
4.3315
4.01213
4.14977
4.02624
4.71019
3.96476
3.71597
4.04466
4.31774
4.118
4.40906
3.60874
5.70071
4.29072
4.41822
4.08502
4.3417
4.72983
4.16721
4.15791
4.36885
4.17606
4.55519
4.61644
4.80867
5.34343
3.96092
4.14819
4.60273
4.51137
4.49612
4.14127
4.46161
4.16937
3.9577
4.76393
4.45203
5.14693
5.00364
4.32142
4.47751
4.62589
4.2556
4.82496
5.03614
4.19059
4.65362
4.34732
3.92959
4.30931
4.09073
4.44353
4.26208
5.04557
4.23858
5.39887
3.99057
4.88627
4.14332
5.37969
4.99551
5.05698
4.47161
5.47962
5.38271
6.13091
5.06304
5.37488
4.32213
4.2512
4.99338
4.95591
4.10431
4.24855
4.93281
4.19886
3.85921
4.22097
3.99942
5.01298
5.47966
4.75569
5.93942
4.37671
3.87111
4.07956
4.32201
4.33246
4.18892
5.09774
4.40822
4.26306
4.35894
4.56497
4.49278
5.09424
4.09774
4.83906
4.74133
4.87213
4.29326
4.36359
4.59845
4.96882
3.71386
4.05012
3.98169
3.42884
5.57349
5.38302
3.80726
3.6215
4.42405
4.31932
4.24455
4.68587
4.28246
4.46983
4.30837
4.72715
4.61421
4.71413
4.32781
4.19198
5.51577
4.08471
5.25113
4.23851
3.7291
4.19032
4.87231
5.9333
4.37625
5.2127
4.28223
4.39722
4.1748
4.64757
5.08599
4.25801
4.9842
3.96899
4.01697
4.22057
4.52212
4.19381
5.12641
5.27567
4.83933
4.82433
4.15537
4.81274
4.81602
4.92199
4.06624
3.83027
5.28772
4.02134
4.66336
4.04512
4.59004
3.85337
4.1453
4.24131
4.28864
4.85175
4.22527
4.77562
4.13133
4.71552
4.90095
3.67554
5.42435
4.23357
4.21307
4.25262
5.24536
4.04533
4.43567
3.91112
4.99914
4.41028
4.76945
5.60701
4.06309
4.05676
5.77537
4.52693
4.315
5.08259
4.46634
4.53236
4.87311
3.93433
4.73792
4.48405
4.13103
3.86329
4.00659
4.57833
3.91332
4.71405
5.4204
3.83791
4.04364
4.20487
5.12528
4.04593
3.9971
4.29051
5.15271
4.67063
4.35017
4.39391
4.11689
4.16841
4.36839
5.43321
4.94853
4.14816
5.37806
5.18878
3.63962
4.10821
3.79147
4.03621
4.73756
4.19958
3.9153
4.28748
4.55454
4.57575
4.58541
5.16953
3.87592
4.17357
4.30353
4.54756
3.87927
4.03681
4.88959
5.57176
3.88902
5.68675
4.22308
4.76538
3.73291
4.14057
4.66319
5.37404
4.68373
4.5761
4.69152
4.30201
3.86132
4.4993
4.69103
3.97989
3.60506
5.04991
4.3764
4.80465
4.17239
4.91746
3.88286
3.84341
4.94091
4.28159
4.90357
3.98113
5.58901
5.47603
4.18691
4.71805
4.14572
4.25369
4.85267
4.83397
5.19935
3.96831
4.2945
3.99102
4.71764
4.14201
5.15313
4.12385
3.79688
4.36551
4.90223
4.61866
4.7551
5.05452
5.65563
4.46061
4.03108
4.74439
3.96529
5.06198
4.74568
4.23937
4.55125
4.03828
4.52912
4.32913
5.40171
3.88504
5.06722
3.74859
5.36529
4.25874
4.20588
4.71093
4.65742
5.01078
4.57423
4.05571
3.98147
5.2495
5.45533
4.40944
4.83189
4.59129
4.45646
4.9115
4.63638
3.98575
3.64452
4.69471
4.09433
4.54029
4.66174
4.35349
4.05668
5.52742
4.83464
4.36516
3.90222
4.0343
4.3335
4.33726
3.89676
4.13355
4.32494
4.70048
4.8155
5.46139
5.1053
4.09499
4.84234
4.05615
4.01909
5.264
4.6301
4.47447
4.20864
4.85455
4.35033
4.31179
4.44293
4.6086
5.83463
4.72902
4.11147
5.20346
4.17458
5.03511
4.6544
4.23093
4.84972
4.40916
5.81267
4.72581
4.67982
5.16869
4.26804
4.41264
4.07928
5.13554
4.41792
5.05898
4.48278
4.34971
4.2626
4.20926
5.1963
4.32791
4.39016
5.03553
5.24552
4.42409
4.69326
4.20349
5.29828
5.83554
5.47444
4.53775
4.00197
5.31464
5.13221
3.97323
4.59027
4.67211
4.30733
6.8578
3.92645
4.33099
4.95879
5.21085
4.20011
4.8443
3.53137
4.51465
4.42681
4.97098
4.5239
3.68882
5.24841
5.20795
5.99193
5.87489
4.17976
4.62189
3.68869
5.74212
5.28795
4.49638
4.81049
4.4144
4.85088
3.93285
3.50799
4.16969
4.90489
4.16956
4.42026
4.79601
5.22507
5.65747
4.26983
4.44747
4.71405
3.5147
5.4022
4.41087
4.21967
4.45247
5.36065
4.20702
3.52197
4.28048
4.41828
3.94244
4.59412
3.93211
4.85481
4.53465
4.79619
4.15356
5.01524
4.85976
4.26521
4.50323
3.95728
4.05029
4.9795
5.767
3.99891
4.91414
5.01504
3.95902
4.71352
4.41333
4.21129
5.46137
5.72439
4.16777
5.51672
4.67127
3.70039
4.95919
4.39495
4.03319
4.69056
4.16532
4.14392
4.79631
5.14346
4.37039
4.33192
5.00879
4.26283
3.71526
4.00594
3.96902
4.49852
6.26601
4.59053
4.09365
4.39811
4.56829
4.44717
5.33652
4.5394
4.78514
4.43505
3.57412
4.58642
4.6483
4.94912
3.87962
4.21546
5.05036
5.82471
4.26976
4.75727
5.08663
4.01617
5.29031
4.52444
4.25051
4.79649
4.50673
3.86574
4.45955
4.4335
4.12757
5.23349
4.99473
4.76865
4.0689
4.20845
4.67325
4.48687
4.72984
4.1545
4.12724
4.14045
4.63995
4.75921
4.24431
4.21144
3.73124
4.8384
5.38157
4.22309
5.09461
4.21158
5.80991
4.38223
4.14662
4.6375
4.27852
5.09471
5.17687
4.14957
4.52408
4.08737
4.36641
4.75582
4.81412
4.76578
5.40231
5.06258
4.7163
4.29262
3.98623
4.36729
4.34585
4.23562
4.25536
4.80388
5.80915
4.54404
4.44875
4.37858
4.58238
5.26424
4.10614
4.51272
3.98392
5.01506
4.1671
4.96276
5.27886
4.28635
5.02499
4.87196
4.91478
3.91455
4.36781
4.77146
4.51861
3.95092
4.25956
4.18127
3.7853
4.52829
4.60767
4.19076
4.8022
5.32302
4.58817
3.72447
4.26682
4.39821
3.88312
4.83776
4.43643
4.27817
4.78782
4.62595
5.14606
6.16472
4.39772
3.93153
4.07567
5.44077
4.79022
4.63155
3.84338
4.46302
4.15596
4.38199
4.71593
4.72255
4.90332
4.62422
4.18144
4.61225
5.21572
4.75932
4.30181
4.97637
4.57768
5.22038
4.21173
4.51761
4.98353
4.30703
4.34042
4.77035
4.08616
4.77485
4.52533
3.85244
4.07466
4.19467
5.63648
4.35246
4.99537
3.74663
4.55235
5.1711
3.9886
4.6011
4.33796
4.49404
4.64876
5.28312
5.15546
4.55315
5.3906
4.57617
5.04137
4.10495
4.39579
4.49292
3.76196
5.00807
5.02931
3.9221
4.85585
4.86304
5.01195
4.22298
5.09614
4.79441
4.29858
4.37005
4.53475
4.04403
4.62164
4.90352
4.41146
3.94873
4.42251
4.54831
5.01911
3.90187
4.1543
4.08743
4.0439
4.28401
5.73191
3.7383
4.44589
5.3709
4.19175
4.90398
4.32726
4.35186
4.3606
6.036
4.45545
5.20337
6.39556
4.47379
4.50803
4.40051
5.46935
4.15706
5.05453
4.65501
4.03997
5.53864
3.51677
4.44775
5.5422
5.67733
4.5318
4.37858
3.81022
5.10851
4.05643
5.09878
4.56074
4.06444
4.48916
4.34747
4.9234
5.11464
4.55823
3.63568
3.93161
4.58681
4.67137
4.16095
4.63714
4.54301
3.7853
3.80762
3.92185
4.17303
5.04215
4.20837
4.53622
4.59381
5.45158
4.19044
4.47785
4.37168
4.27371
4.06577
4.38805
4.46716
3.94748
4.89704
4.55751
4.34381
4.39073
4.54082
5.30745
4.77263
4.85715
5.15177
3.93551
5.22276
4.29629
4.22306
4.27527
4.46099
4.07031
4.13366
4.36634
4.6447
4.60557
5.30521
4.05301
4.66241
4.45997
3.99522
4.35637
5.4734
4.54833
4.49853
4.76323
4.70487
4.57607
3.79678
3.90035
4.78609
4.52171
5.11362
4.73883
4.29765
4.61708
4.15171
4.55341
5.35665
4.98953
4.40296
4.23412
5.65166
4.11911
4.06938
4.83546
4.42651
4.83397
4.22548
3.58136
4.08649
4.24978
5.25721
4.01961
4.63528
3.60456
5.10874
5.11925
4.20158
4.55507
4.96344
5.70821
4.29691
3.91954
5.10421
3.71802
4.43504
3.94395
4.20952
4.88458
3.67301
3.9346
3.89832
4.59601
4.35319
3.91272
4.34117
4.61619
4.44524
4.66077
3.76401
4.35992
5.83087
4.18672
4.56886
4.16309
5.34568
4.35414
3.86757
3.76834
5.41335
4.09899
5.258
4.61277
4.30248
3.69671
4.07604
4.04776
5.17298
3.93241
4.03494
5.01756
4.59459
3.81561
5.15838
4.89799
4.69176
3.87449
4.28779
5.12154
4.29529
4.84322
4.11537
4.07473
4.37196
5.5149
4.97586
4.33002
4.20732
4.33821
4.67213
4.09945
4.40537
4.47316
4.37744
3.5178
4.18093
4.72198
5.82199
4.10297
4.66789
4.00185
4.39858
4.79957
4.33625
4.33045
4.78958
4.14318
5.27456
4.65614
4.15628
4.32766
4.64904
4.20894
4.84942
5.43949
3.98478
4.67905
3.97776
4.49066
5.34433
4.26771
4.44225
4.57304
4.87288
3.78662
4.35119
3.51828
4.69603
5.37466
4.25649
5.96045
4.72872
5.32117
4.09082
4.12316
4.16658
5.17086
4.62347
4.74387
4.32
4.7192
4.2299
3.45369
4.59064
4.40227
4.53278
4.27222
4.43808
4.33883
4.7987
4.33633
3.93243
4.05723
4.40909
5.36642
4.51584
5.05732
4.52623
4.17223
4.59798
4.51241
5.10604
4.05723
4.74928
4.31932
4.42615
5.00025
4.01584
4.58541
4.36736
5.07422
3.93307
4.3783
4.17825
3.89698
4.42198
4.85474
4.5329
3.79391
4.7243
3.96426
5.17081
4.24423
3.94217
3.98598
4.11702
3.98652
4.48252
4.68681
4.23608
4.347
4.84169
4.32843
3.81337
4.29473
4.92258
3.8963
4.48609
6.32855
5.56873
4.14571
3.70158
4.44324
5.03407
5.05449
4.23386
4.75394
4.6214
4.77007
4.87789
3.85685
5.39269
3.95051
4.44224
4.85562
4.23461
4.06852
5.00305
5.16977
4.87781
4.42087
3.86366
4.23563
5.12031
4.0206
4.31223
4.35941
4.31711
4.96314
4.1888
5.09749
4.19422
5.10852
4.10445
5.00176
3.70498
4.97497
4.82119
3.87494
4.37716
5.59114
4.15244
5.33601
4.60162
3.78267
4.27311
3.91458
4.46608
4.79876
4.52125
4.28505
3.67345
5.37466
4.09561
4.5568
5.21721
4.07372
5.30536
4.31021
3.99264
5.68737
4.74363
4.81389
5.82223
4.49574
6.13365
4.20998
3.92887
4.17662
3.68254
3.86939
4.10521
4.02318
4.67143
4.65184
3.97346
5.405
6.08024
4.93612
3.96915
4.15151
5.78623
5.02043
3.51807
4.25857
4.88971
5.46771
4.52894
4.55713
4.17173
5.69036
4.37583
5.02594
4.78946
4.70907
4.87779
4.1657
4.19261
5.37632
4.5061
4.01657
4.13223
4.03699
4.6879
4.64856
5.02947
4.51129
5.45632
4.41543
4.20234
4.63222
5.05986
4.62933
4.20928
4.97895
4.81535
5.28742
4.47517
5.566
5.05522
4.38326
5.38544
4.5052
4.4863
4.26274
4.49558
4.275
4.52046
3.82091
4.12144
4.34446
3.9111
5.68272
4.62378
3.57359
4.24486
4.16182
4.13672
4.36577
4.41113
4.49389
4.30095
4.38709
4.76632
4.24972
4.09885
4.46955
4.02017
4.41494
4.27624
5.13338
4.4247
4.63916
4.40088
4.11124
3.91451
3.66106
4.66378
4.56187
4.02184
3.84284
4.65738
4.01087
4.55086
4.368
4.36648
6.04717
4.31285
4.26175
4.29427
4.67745
5.42094
4.06182
4.45025
4.10707
3.65252
5.49353
5.21658
5.30022
4.77588
4.91414
4.10053
4.89947
3.78377
4.73497
5.95885
4.02267
4.10824
4.48218
4.11711
4.14736
4.50274
3.94041
4.89014
3.78848
4.20955
3.76484
4.53683
5.00148
4.62209
4.23044
4.17338
5.03081
4.8666
4.61116
4.19094
4.50916
4.63092
4.56431
3.70749
4.61289
4.39075
4.16652
4.51342
4.14742
4.33
4.17057
4.72084
4.75752
4.66039
4.32226
3.95556
3.88194
4.274
4.40743
4.19083
4.03512
4.79055
4.98217
3.67938
4.64156
4.28297
4.47025
4.15123
4.34296
4.58603
3.99389
4.23685
4.90398
3.67617
4.53365
4.08459
5.51126
4.33295
3.97853
3.82926
5.22407
4.08501
5.8141
3.95613
5.38347
4.06291
4.7304
4.1429
3.69514
4.59115
4.13018
4.8331
4.22963
4.61855
6.06488
4.45896
4.50705
4.10242
4.30626
4.59072
4.47659
4.26853
4.7378
4.21519
4.07371
4.14992
4.22217
4.6966
5.71868
4.54186
4.22208
5.08249
5.11967
4.31712
4.58307
4.7343
3.70743
4.10094
3.76536
4.47504
4.19438
5.36172
4.01047
5.00511
4.00291
5.74332
3.99559
5.1763
4.29991
4.87762
4.28897
4.53194
5.17105
4.89723
5.45207
4.36936
4.45161
4.61903
4.60172
4.74819
4.81436
4.25091
4.42575
4.24518
5.55693
4.57195
4.12837
3.76897
4.17928
4.56907
5.39683
4.14334
4.70954
4.94988
4.8372
4.53734
4.42003
4.22682
4.28382
4.20459
3.87728
4.14296
3.64451
4.58638
5.40107
4.61945
5.00025
3.54537
5.44614
6.98034
3.89334
4.37428
3.64377
4.05557
4.13845
4.65334
4.17781
4.64415
5.44763
6.5903
5.38123
4.39371
4.40281
4.54108
4.92744
4.19636
4.26511
4.29045
4.4586
4.3957
4.95337
4.02222
4.53989
5.35757
4.14213
4.23282
4.98037
4.70945
4.14542
4.81085
4.77
4.84396
4.11261
4.02906
5.11418
7.15245
4.77641
4.81578
4.25686
4.9561
3.78017
4.83625
5.54942
5.52027
4.70137
4.76799
4.54477
5.38073
4.14816
4.2285
3.81483
4.20797
4.43801
4.25062
3.89215
4.02085
4.6272
4.06698
5.15411
4.30693
4.10847
5.40303
4.78487
4.26871
4.00476
5.48684
4.45786
6.49722
4.02545
4.48557
4.79457
4.81224
4.43855
4.1739
4.43313
4.35665
3.61958
5.54596
4.75753
3.91774
4.32382
5.1224
4.39921
4.5874
4.91844
4.47202
4.41458
4.48683
4.1765
3.86159
4.47745
4.12284
5.06879
4.70586
3.93671
4.33292
3.89912
4.44375
5.02627
5.32527
5.10233
5.64742
4.66013
4.25507
4.6216
4.01496
3.85791
4.52708
3.85283
4.72259
4.70162
4.90624
4.53466
4.81161
4.61679
4.96652
4.69758
5.20058
4.72641
3.62148
5.21335
4.80098
6.36518
3.46856
4.49003
5.48979
4.59927
4.04
5.086
6.63699
4.8502
4.81252
4.5407
5.18563
4.78995
4.56793
5.25521
5.34247
4.836
4.12481
3.88681
4.6495
3.89795
4.76289
4.00118
4.63276
5.06098
4.30545
4.32303
4.72357
4.85714
4.35215
3.91037
4.04223
4.67623
4.05291
4.24437
4.63615
4.11577
4.91895
5.55496
4.57956
4.60141
5.19753
4.27276
4.13764
4.38875
3.74251
4.41702
5.38569
4.88328
4.49907
4.01024
4.95704
3.86139
4.01834
4.22783
4.24805
4.18039
4.05487
4.07572
4.40751
4.97567
3.71701
4.51442
5.81352
4.62953
3.64634
4.6734
5.27713
4.7746
5.05558
3.81008
4.45881
4.37807
4.45619
4.18212
4.3923
5.40402
4.4739
4.2505
4.29546
5.24066
4.83337
3.84889
5.02638
3.71999
4.2511
5.2366
4.54494
4.78977
4.44087
3.83934
4.62335
5.4492
4.3867
4.28694
4.25972
4.26084
3.69933
3.74478
4.5448
4.3384
4.20548
4.58667
4.34804
4.62669
3.69875
4.94005
4.09081
4.15712
4.69972
4.39453
4.15429
4.21245
4.14223
4.68864
5.47969
3.55443
4.02364
4.04203
4.27095
4.2001
4.49421
4.34691
3.99591
3.93649
4.4998
4.51651
4.33164
4.3483
4.04176
4.70669
3.79233
4.49949
4.23576
3.95951
4.45957
5.26237
4.45988
4.24448
4.4365
4.45602
4.69054
4.34783
4.72051
5.27063
4.96733
4.51852
3.93353
5.16781
4.14493
5.50288
4.51286
5.30325
4.52875
5.30244
4.17863
4.39747
4.07493
5.31721
4.11524
4.65781
4.13981
4.2198
3.95066
4.26429
4.37128
4.41911
4.10565
4.8484
3.99019
4.11054
4.25325
4.15326
4.77931
4.38523
4.78796
4.75063
4.39724
4.47691
5.08583
5.13092
4.71584
4.79018
4.35171
3.7666
4.76742
5.48766
4.0303
4.01936
4.29626
6.12494
4.35499
4.35572
4.32676
4.60073
4.15402
5.04803
3.89231
4.10254
4.54693
4.56101
4.15206
4.18128
4.10039
4.51016
3.93947
4.40777
4.56813
4.79359
4.05079
4.24057
5.42893
4.7664
3.8298
4.2913
3.80205
5.1776
4.5953
4.68647
4.74531
4.60559
4.53078
5.07268
4.47326
4.90335
4.1874
4.91376
5.13357
4.6415
3.85276
4.57223
6.03489
4.32979
4.98019
3.96273
4.34238
4.30076
4.22778
4.18603
4.71374
4.87488
4.32617
4.38562
5.09955
4.82142
4.49955
4.80589
3.61248
4.46049
5.06754
4.57324
4.03155
4.61432
4.70761
4.73076
4.9793
3.88948
4.28909
4.81081
4.8983
4.94534
4.17256
4.76106
4.82144
4.56846
4.1077
4.42778
4.33147
4.06578
4.40103
4.05599
5.69434
4.15888
4.75712
4.32357
4.20002
4.48524
4.66479
4.72581
4.75672
4.08672
4.37989
4.06159
4.33517
4.75243
4.6637
6.42892
4.11779
4.52311
4.11068
5.03829
4.91269
3.77286
4.69736
3.42722
4.36636
4.38582
3.77332
4.34873
6.352
4.42931
5.05274
3.77423
5.06702
4.85249
4.74061
5.48713
4.49888
3.86049
4.45294
4.22765
5.19036
4.16069
6.52123
4.19773
5.63097
4.75091
5.25302
4.79964
4.25302
4.70861
4.70239
5.78569
4.6443
4.0775
4.04867
4.54929
5.43431
4.3542
5.07094
4.75334
3.53677
3.91774
4.54558
4.0998
4.07097
4.50491
4.67026
4.04035
5.96456
4.54619
5.04373
4.32029
4.43181
4.48642
4.63911
3.87887
5.25406
4.59408
4.44552
4.5965
4.12489
7.32412
5.13433
4.00606
5.78011
4.21694
4.09008
4.89986
4.34984
5.62756
5.89084
5.06522
4.69131
4.87451
4.39588
4.8681
3.7727
4.34039
5.23319
3.93927
5.22977
5.13565
3.97922
6.75409
4.57986
4.17087
4.26104
4.09377
5.64112
4.71843
4.38761
4.11495
5.01217
3.75064
3.72314
5.27349
4.07677
5.15405
5.40491
4.52109
5.05262
4.10056
4.05446
5.64177
3.89634
3.8499
3.58844
4.83258
4.64518
4.10233
4.40689
4.70345
3.92666
4.24465
5.02204
3.8703
5.98851
4.79935
4.94453
5.12338
4.97995
5.7061
4.73737
3.85064
4.65423
4.50307
4.5132
4.52064
4.55582
4.48064
3.97075
4.16425
4.40764
4.15266
4.0212
4.90456
4.50813
4.96365
4.56424
4.30148
5.63063
4.16208
3.88986
4.16733
5.48573
3.93725
4.18772
5.77329
5.05791
4.91274
3.73736
4.65902
4.05822
4.66852
3.58074
5.62394
4.30776
4.48975
4.07835
5.28314
3.97728
5.06799
5.25956
3.6226
3.74991
4.47657
3.51941
5.40889
4.56692
5.60362
4.93489
4.68127
4.45656
4.25836
4.35228
4.25658
4.13418
4.73798
3.88814
4.05155
4.45664
4.58735
5.16874
3.60603
4.06139
5.54531
4.23953
4.54068
4.91948
5.08747
4.64525
4.34285
4.08587
4.37307
5.21128
3.76025
4.83536
5.26067
4.40919
4.65024
4.03585
3.72384
4.5468
4.92259
5.1402
4.97138
4.5396
4.95593
3.80391
4.57028
6.43277
4.58559
3.90825
4.53236
4.24733
3.99972
5.02064
5.73035
5.33093
4.323
3.8305
4.323
5.05027
5.4134
5.16901
4.10328
4.42689
4.61131
4.34037
4.18179
4.66576
4.23324
3.85003
4.65431
4.1497
4.30208
4.16256
3.84191
4.3112
4.23053
5.40983
3.91696
5.42636
4.71698
5.02266
4.01857
4.57953
4.78655
4.97403
3.85913
4.73198
4.36408
3.9664
4.19983
4.38261
4.84103
4.44748
5.38722
4.83118
3.91456
4.6623
4.6065
4.46832
4.52171
4.28837
5.2475
5.44833
4.86249
4.04582
4.63942
4.31379
4.52882
4.08194
4.3962
3.96954
4.91299
4.66849
4.11612
4.5636
3.65765
3.78258
4.82343
5.23464
4.18361
4.61298
4.24531
5.11722
4.78061
4.76809
5.15224
3.95533
3.98312
4.48901
4.40948
4.11702
4.70691
4.08666
5.58297
4.40275
4.11921
3.93288
4.11483
4.49905
4.65969
4.32273
4.20643
4.42791
5.27182
4.04321
4.10781
4.38349
5.06216
4.17189
3.56177
3.76151
4.48877
4.23418
4.72047
4.02075
5.67297
4.50095
4.1755
5.772
4.25581
4.62873
5.21057
4.79754
4.53796
4.136
4.52164
5.28881
4.28148
4.32076
4.49068
5.35305
5.13718
4.03813
4.15299
4.08431
5.06378
4.05082
4.05457
5.41507
4.12828
4.26405
4.73315
4.0733
4.19525
4.3537
4.38427
4.33015
5.87518
4.80048
4.17028
4.65629
4.02783
3.89912
4.46748
4.9116
4.33677
4.31041
4.00987
3.98782
4.06661
5.34283
4.43228
4.13113
4.30915
4.62907
4.94385
4.55209
4.43175
4.62832
4.31506
5.41789
5.08037
4.48032
4.08311
4.80134
4.01995
4.53179
4.90537
4.83871
5.26192
6.81925
4.27442
5.23363
4.42581
4.68915
4.04909
4.77035
4.32179
5.29457
4.95807
4.66278
4.8238
4.31997
4.76689
5.49308
3.89133
4.43792
4.05713
4.61652
4.38363
5.27822
4.43226
4.42453
4.37002
5.32924
4.42199
4.67916
4.33149
4.75112
4.7216
4.27271
4.38856
4.23265
4.42894
4.99922
5.20467
5.06585
4.76967
4.86782
3.82967
5.51027
5.55953
4.51719
4.78502
3.90876
4.71136
5.01525
4.36649
4.50407
4.3809
4.78627
4.34348
4.43965
4.34465
4.11212
4.66263
4.5054
4.31815
4.65399
4.74252
4.07892
4.65158
4.52944
4.63919
3.9314
3.75255
4.03188
4.52476
4.48773
5.20218
3.45139
4.37204
5.2362
5.15277
4.6757
5.97793
4.30522
4.29027
4.90825
4.50503
5.44226
3.83376
4.15278
4.99346
3.97736
4.24326
4.95847
4.59079
5.22389
4.43825
3.83255
5.34323
5.05706
4.19987
4.83675
4.52364
5.59224
4.20658
4.24056
4.12405
4.04983
4.78056
4.28681
4.7255
3.9032
3.80458
4.4784
5.56369
4.57523
5.5448
4.40178
4.49914
6.13158
4.72766
4.23362
4.52435
4.14479
5.66848
4.40467
5.1143
3.95419
4.21893
4.4276
5.17581
3.91986
3.74193
4.2665
4.72911
4.09634
5.74133
5.17024
4.56389
4.32514
4.2021
4.46566
4.91457
4.46707
4.28944
5.41199
4.03524
5.15667
4.01329
4.7232
4.6068
4.14897
4.46822
4.79983
3.61579
5.07918
3.64023
3.50682
4.56706
4.26001
5.74199
3.99896
5.05937
4.35278
4.84614
4.88225
4.65874
4.53749
3.99856
3.61677
3.79836
4.71298
4.2946
5.51939
5.09896
5.62686
4.47062
6.21756
4.61896
4.71418
3.96132
4.70492
4.48328
4.02031
4.47799
5.13444
5.71404
4.08144
4.77553
4.80299
3.40174
5.24516
4.79243
4.88739
4.4129
5.91966
5.08669
4.34439
4.37165
4.02637
5.19345
3.85063
5.46791
4.64846
4.48737
4.55961
4.31418
3.82784
4.54987
4.4234
4.54634
5.12473
4.80009
4.20495
4.04009
4.33652
4.63976
4.81186
4.7892
4.37276
5.04069
4.01758
4.23912
4.37491
4.99752
4.4297
5.29302
4.14919
4.12088
4.17397
5.69643
4.522
3.98502
3.78394
4.8304
4.27051
4.46049
4.7246
4.52323
3.96014
4.47253
4.06177
4.70441
3.62909
4.49091
4.67059
3.97337
5.75937
4.70534
4.40653
4.34943
4.43492
4.77079
3.98823
4.93398
5.83319
3.96883
5.33086
4.2562
4.11707
4.29981
4.59094
5.25118
5.65428
5.42827
4.74675
4.59886
4.07305
4.45634
4.13873
4.76996
4.89818
4.01354
4.67223
4.24818
3.97999
4.22638
4.79442
3.80113
4.58159
3.74417
4.1521
4.29806
4.94633
4.83412
4.88859
4.77399
4.73162
5.36421
3.85126
4.72934
5.58491
4.82238
3.98685
4.56167
3.93888
4.28243
4.78491
4.69798
5.07496
4.29764
5.69977
5.12383
4.79602
4.70665
3.82798
4.70629
4.55105
3.79382
5.12468
6.14863
4.87755
5.04363
4.23152
4.858
4.49632
4.54758
4.26619
4.69729
5.24114
5.34515
4.1033
3.63983
4.20199
3.8318
4.56859
4.18518
4.26066
4.16905
4.71462
5.41185
4.45094
4.12438
4.03997
4.87463
4.97495
4.28893
5.4695
4.93818
5.27355
4.86725
4.34558
4.15364
3.83978
4.21403
4.47776
5.50685
5.30276
4.86024
4.1705
4.14639
4.34955
4.10045
4.44466
4.60092
4.13371
4.16505
5.68689
4.47927
4.29253
4.68759
4.98334
5.0683
3.87106
4.91261
3.99985
4.35304
4.58962
3.90752
4.6063
4.89632
4.20623
4.26967
4.08383
5.56243
4.31859
4.90127
5.37256
4.07281
4.64021
5.59482
4.51897
4.37418
3.89158
5.13696
4.17178
4.68784
4.57721
4.59043
4.92445
4.36118
5.55932
3.82626
5.41769
4.16931
4.39195
4.11594
4.33314
4.42398
4.15227
4.52948
5.34958
3.75706
4.27752
4.21106
5.20648
4.02894
4.75899
4.14622
4.37985
4.55274
4.37135
3.92406
4.97523
3.72528
4.5255
3.95079
4.58113
5.4457
4.40673
4.18506
4.53249
5.5384
4.15148
4.20756
4.66997
3.71772
5.0381
4.61214
3.92464
4.51805
4.27136
5.21888
4.05267
3.97424
4.41763
4.17291
4.72226
4.47699
4.20284
4.61198
4.50059
4.74743
5.06367
4.58051
3.92513
5.29826
4.4535
3.89516
4.16884
4.74326
4.11029
3.70557
4.95878
4.93898
4.10428
4.77396
4.59808
4.5185
4.83307
3.7225
4.79975
5.13546
4.93434
4.25192
4.43289
4.72498
4.08815
5.42288
4.8259
5.09418
4.11585
4.86347
4.56786
4.56387
3.84872
4.32715
4.46618
5.0863
3.64955
4.44415
3.82547
4.27192
5.03237
3.75995
4.42102
5.35889
4.07785
4.57574
4.82048
4.67925
5.40342
4.78881
3.89669
4.29782
4.74281
4.29273
4.66176
3.89849
4.6918
4.22104
4.46444
4.43977
5.00582
4.34304
4.72214
4.64262
4.12214
4.19932
4.01981
3.71138
5.23882
5.16486
3.96862
5.28528
4.35765
4.76782
4.77029
4.47309
4.24487
4.33086
4.25691
5.26593
4.28736
4.83816
4.48052
4.43773
4.88597
4.53794
4.81949
4.2613
3.89946
4.51624
3.92508
4.65695
4.90613
4.57822
4.30803
3.85587
4.95542
4.06618
4.33891
4.02429
4.46015
4.20288
4.01824
4.30219
4.62142
4.73168
3.87611
5.90207
4.11784
3.95183
4.9333
4.28702
4.30351
4.24831
5.31725
4.5047
4.20579
4.3412
4.26602
4.6962
4.3363
4.25349
4.29055
4.34994
4.02614
5.02786
4.78315
3.79017
4.77846
4.13354
4.99236
4.75503
5.07286
5.01465
4.01249
5.61389
4.86769
4.45766
4.28821
3.92467
4.70545
4.633
4.37891
4.83081
4.3642
4.59171
4.0977
4.63208
5.27365
4.06836
4.22201
5.08988
4.93861
4.33329
4.12925
5.17864
4.53763
4.67636
4.00959
4.02474
4.2527
5.51176
4.21266
4.51249
3.79772
4.81752
6.3085
5.10346
5.68863
3.66842
4.73123
4.33924
4.46576
4.11025
4.37485
5.44418
4.55086
4.46601
4.29036
4.33176
4.34395
4.69953
3.94777
4.35181
4.25861
4.05936
4.4567
4.28564
4.51353
4.78996
4.18386
4.33561
3.70996
4.43849
3.73981
3.63621
4.44734
3.98185
5.67456
4.58377
4.66986
3.61129
3.96147
4.14406
5.81968
4.16714
4.16743
4.17131
4.54371
4.39539
4.00876
4.68849
5.99701
4.25206
4.94545
4.01506
3.94949
4.41867
4.17675
5.29224
5.22367
5.71861
5.43351
4.34712
4.61655
4.55314
3.90929
4.02239
4.58368
4.0953
4.19564
4.21984
4.74947
4.43844
5.70363
4.83407
5.39088
4.40572
3.78721
4.20899
3.88262
4.21747
5.49336
4.21907
4.3593
5.16833
4.53702
4.33044
4.34527
4.73133
3.77898
3.87398
3.87941
3.87678
4.02416
4.04249
3.91189
4.38846
4.57257
4.9798
5.88991
4.42885
5.0399
4.65573
4.63573
4.28987
4.88463
4.90798
4.71984
4.94326
4.82937
4.41913
4.59463
4.48148
4.22907
3.87279
5.13385
4.26335
4.57033
3.86991
3.99496
4.22307
4.3191
3.90004
4.15209
4.87567
5.31342
4.72247
5.424
4.07201
4.47633
4.92275
4.10278
4.43532
4.57634
4.48625
4.42258
3.72515
4.70554
5.24333
3.78539
4.3412
4.47977
5.31529
4.21524
5.9556
4.71155
3.9315
4.47915
5.28093
4.94952
5.36094
4.74688
4.08257
4.9963
4.79912
4.58081
3.61424
4.45884
5.44374
3.92572
4.11246
3.8792
4.56363
4.2832
3.86128
3.94105
3.9721
4.2171
3.79292
3.6753
4.79846
4.18345
4.62241
4.06797
4.6909
4.38682
4.61065
5.15869
4.61797
4.47271
4.16059
5.08167
4.47609
4.82302
5.27956
4.68551
5.31987
4.06976
4.62926
4.90756
4.12936
4.00543
4.80112
4.44149
4.04784
4.96647
3.94141
4.13398
3.9067
4.25696
3.71227
3.8625
4.25049
4.54789
5.33288
4.37774
4.7688
5.73341
5.10014
4.33574
3.65608
5.18575
4.35474
5.14897
3.8953
4.07011
4.67974
5.34674
4.72617
5.06026
4.02632
5.34369
5.02833
4.13937
3.95722
4.52872
3.80134
4.91649
4.87232
4.46654
5.36085
4.76225
4.99912
4.8745
4.11959
4.63355
4.18722
4.94836
4.95475
4.44085
3.59742
4.89581
4.59384
3.84147
4.73369
3.87298
4.22592
4.65932
4.42274
4.6606
4.34156
4.89401
4.11134
4.23688
4.04771
3.87524
4.15889
4.81629
3.93765
4.28924
4.21246
5.1868
5.50746
4.08524
5.44939
4.80914
4.67898
3.92707
3.87034
3.93686
5.34094
4.5378
4.26933
3.82005
4.17828
4.41076
4.26891
4.29746
4.40222
3.85136
4.52205
4.82538
4.70754
4.25299
5.6065
5.43593
5.15671
4.91105
4.50089
5.25028
4.13346
4.48293
4.04578
4.28261
5.02903
3.58819
3.72724
4.35302
4.90136
4.23768
4.59155
4.22533
3.98768
5.03879
4.36586
4.35626
4.36951
4.0651
3.62003
4.88786
3.74976
4.55795
4.28822
3.7215
4.74848
4.69045
4.53479
4.37877
4.40242
4.33251
5.20565
5.00834
4.4407
3.99861
3.78439
4.882
4.05884
5.34329
3.91671
3.92721
5.61362
4.85446
4.12343
4.31687
3.6805
4.55292
3.89402
4.97799
4.6213
4.64245
4.43369
4.29291
4.58897
5.09979
4.75506
4.30483
5.14084
4.37357
5.27052
4.28412
4.00642
4.54782
4.17233
3.76306
5.45042
4.66972
4.91779
3.58482
5.20094
4.98083
4.84444
5.09295
4.70118
3.85885
4.22906
5.15304
4.20843
3.87277
4.69806
4.3212
4.1908
3.71095
4.71728
4.91099
4.59911
3.90162
4.75775
4.89214
4.2251
3.99735
4.29292
5.0263
4.75414
6.23383
5.49668
4.03227
4.8297
4.08597
4.08716
5.73157
4.62842
4.27432
4.23033
4.47687
4.20349
4.9111
3.85128
5.1398
3.75145
5.7024
4.07007
4.33028
4.27579
4.51143
4.34943
4.90025
4.52
4.87754
4.18819
3.93099
4.22221
4.16998
4.20422
4.0642
4.20702
4.09425
4.58511
4.94936
3.89078
4.1405
4.48698
3.72071
5.03123
4.9165
4.29948
4.24794
3.84282
3.59987
6.43706
3.93157
4.71711
4.65625
4.62249
3.99354
4.69249
4.72967
4.51684
4.09119
4.4205
5.47005
3.90822
4.96124
4.49433
4.23031
4.40223
5.40346
4.61132
4.4252
4.26132
4.64248
4.27248
4.31199
4.0729
4.01285
4.72854
4.97228
3.80875
5.61772
4.3134
4.13087
4.26101
4.34009
4.56857
4.07079
5.26487
4.44892
4.35372
5.28743
3.96051
4.37846
4.56891
4.42124
4.4823
4.25042
4.52139
4.05783
3.91637
5.19832
3.89358
3.63267
4.76712
4.3802
3.82894
4.09107
4.31243
4.36969
4.90949
5.1213
4.45644
4.27994
4.90857
4.07449
4.37741
4.51135
5.41105
4.023
3.91585
4.63819
4.42483
4.35202
4.15637
5.56256
4.43514
4.32949
4.09063
5.04217
3.62885
4.38179
4.3224
3.94522
4.56497
4.09276
4.17251
5.25841
4.75169
4.01182
4.06038
4.4669
4.35749
4.14887
4.97389
4.10632
4.49472
5.20496
5.43166
4.94119
4.17629
3.95378
5.11329
6.39684
4.90956
4.38021
4.35198
3.9065
4.26045
4.67569
4.2631
4.61261
3.97392
4.85936
4.37833
4.16019
4.84361
4.21474
4.8199
4.55921
3.77332
4.07815
4.66088
5.26594
4.21313
3.67822
5.18068
5.2682
5.11236
4.67836
3.92972
3.6819
4.93939
3.67583
5.03779
4.74141
4.32397
5.43852
4.92159
4.24007
5.26654
4.86169
5.43624
4.42678
5.33566
4.14852
5.54877
3.45063
4.2856
5.27519
4.1664
5.11471
4.40974
4.72443
5.4758
4.2376
4.83156
3.87186
4.55961
4.43779
5.32245
4.69665
5.09505
4.38187
5.12292
4.15695
4.79619
3.95993
4.75912
4.05273
3.97251
4.54195
5.31343
4.94617
3.82775
4.31977
3.86419
5.33592
4.38254
5.00859
4.51093
4.32105
4.3365
4.43266
3.91247
3.92404
5.28068
4.54638
5.48332
4.20968
4.12176
3.94126
3.95802
4.79477
4.32218
5.1343
4.04992
4.55468
4.99023
4.27236
4.85032
4.80236
4.4994
3.96156
4.33741
4.74168
4.48666
4.12435
4.29432
4.53517
4.56385
5.10603
4.7955
5.24163
5.59593
4.54777
4.36704
5.57817
5.41127
4.72078
3.98348
4.22321
4.60855
4.06025
4.6134
4.52032
4.54692
4.01028
4.78584
5.19606
5.11246
4.79129
4.24195
4.89881
4.25732
5.12588
4.10284
4.10318
3.66137
4.2906
4.13652
4.96903
4.2793
4.30287
4.13925
3.77531
4.82849
4.63053
4.28999
4.32866
5.12355
4.40094
4.08221
5.7832
4.51035
4.67898
5.21211
4.59009
4.54611
4.35632
4.34501
4.38121
4.41311
4.3102
5.02147
4.68648
4.03167
4.94036
4.09475
4.31311
5.36111
5.03456
4.86045
4.06453
4.02323
4.47531
4.21113
5.63534
4.29229
4.77641
4.32533
4.221
4.37016
4.07798
4.48872
5.1518
4.29603
3.96194
4.32267
4.9745
3.91599
4.52317
4.53569
4.8209
4.20838
4.24163
5.18391
4.87923
4.24236
5.33185
4.58299
4.83929
4.03538
4.30274
4.39732
4.04078
4.41772
4.34938
4.56993
4.59106
4.1719
5.40377
4.04
3.65256
4.45722
4.60388
4.49287
5.21998
4.53382
3.94044
4.16855
4.78081
4.51611
4.79508
4.17273
4.56091
4.03691
4.77435
3.92184
4.61916
4.20773
4.5512
3.8467
4.56869
4.67528
3.72345
4.09674
4.26967
5.34916
5.80732
4.80916
4.12453
4.16285
4.4166
4.26187
4.25647
4.18427
3.93025
6.13911
4.63633
4.41127
4.20048
6.3103
4.93901
4.22317
4.49226
4.05581
4.69288
5.54297
4.07968
5.03061
4.67506
4.70538
5.04752
4.41746
4.47039
4.94728
4.26545
4.29384
4.44475
4.70747
4.38012
4.92732
4.36243
4.36064
5.17278
4.2739
4.87698
4.55544
4.88062
4.42446
4.59694
4.18865
5.54388
4.35834
4.60693
4.55103
3.86358
4.53325
3.81942
4.60375
4.75853
4.73246
4.06806
5.23441
4.35273
4.85228
3.69819
4.91003
3.80766
4.90992
4.3072
4.36667
4.29875
4.4006
4.49131
4.25847
5.01224
4.61678
5.33812
4.88712
4.38863
5.16994
4.12066
4.42923
3.99328
4.77513
4.55529
4.48338
4.68708
4.40769
4.27013
4.90577
4.42766
3.78048
4.83628
4.79621
4.12895
3.71154
4.31198
4.54335
3.99952
5.05729
4.34348
3.40879
4.64534
4.05653
4.82714
4.3445
3.99638
3.70894
4.80916
5.36313
4.49654
4.27954
3.89873
4.60867
3.7606
4.246
3.88772
4.31691
4.16169
3.95087
4.07732
4.42217
4.60211
4.64933
4.66976
4.66639
5.00925
5.71384
5.11576
5.07811
3.77597
4.56594
3.98259
4.95323
4.20405
4.23239
3.6864
4.84668
4.8175
4.35062
4.91691
4.69163
4.24853
4.46789
3.79925
4.75372
3.90434
5.5714
3.73223
4.08134
4.39166
4.56351
3.89309
4.58311
4.1726
3.88083
5.58061
4.15993
3.91218
4.69782
4.55961
5.00348
4.42507
3.98199
3.82173
4.97481
4.52872
4.13083
4.59073
4.13097
4.2038
4.26452
4.8548
4.11037
4.3059
4.14814
4.79035
4.90331
3.65711
4.70349
5.72539
4.07212
4.30106
4.12095
5.1322
3.99224
4.67697
4.34796
4.41399
4.79246
4.27292
4.30714
4.70163
4.10387
4.25273
4.02396
4.09406
4.53148
5.01297
4.30992
4.97889
4.27838
4.85612
5.07574
4.51592
5.01779
4.98794
4.31618
4.20371
4.13432
4.09965
4.67515
4.10404
4.23212
4.12911
4.84727
4.16248
4.31538
4.52087
5.35764
3.55291
4.45474
4.23418
4.5977
5.20218
5.07113
4.00459
4.22261
4.57934
5.01661
4.58229
4.94224
4.81992
3.88246
4.76081
4.30059
4.05956
3.74035
4.96349
4.06262
4.36967
4.16474
4.87243
4.97403
4.12286
5.79825
4.74828
4.76379
3.75452
4.08358
4.41463
4.33814
4.72824
5.05273
4.08352
5.65759
4.41427
4.46813
5.36743
5.07001
4.51979
3.99969
4.9302
3.94217
4.22141
5.48659
4.299
5.07571
4.70745
5.06772
4.52761
4.29861
4.17501
4.21117
4.55947
4.41189
3.8894
4.11224
4.36148
4.83682
5.07436
4.40752
5.74802
4.45034
4.49299
4.25881
4.16276
4.84766
5.04929
4.96154
5.10208
4.085
4.13865
4.68918
4.7599
3.88204
4.10976
5.05053
4.8977
4.29809
4.21944
4.16851
4.94268
4.33481
4.64763
4.44664
5.3288
4.51954
5.037
4.56487
4.19417
3.95593
4.43423
4.67461
4.50655
4.98826
4.58399
4.29997
3.72652
3.89793
4.52655
4.10151
4.28624
4.61683
6.04374
4.0791
4.46437
4.22885
4.11476
4.83312
4.68683
4.68759
4.40866
4.23161
4.44305
6.11777
4.49166
4.72255
4.41591
5.07305
4.26328
4.22036
4.68544
4.66644
4.13856
4.84569
4.32673
4.18546
4.54471
4.41283
4.84851
4.60654
4.03076
4.37392
4.21169
3.93889
3.8374
4.53928
4.31593
4.74847
4.75684
4.65033
4.8651
5.01422
4.75122
4.34769
4.73277
4.72574
4.25202
4.23227
4.06637
4.0612
4.85607
5.16866
4.45005
5.36335
4.88636
3.8198
5.00374
4.65355
5.00191
4.20271
4.18598
4.06145
4.69974
3.6387
4.45727
4.67874
4.66999
4.78224
4.92278
4.74051
4.38514
5.03656
4.93567
3.69139
4.16142
4.05966
4.39725
4.25049
4.00468
4.04436
4.75667
5.10099
4.59727
5.45373
4.9948
4.63664
4.89736
4.27564
4.74911
4.56692
5.2614
4.42172
5.46536
4.71277
4.1041
4.19926
4.49725
4.05957
4.86782
4.47086
4.68461
3.73028
4.28257
4.84789
4.17264
5.15037
4.33256
4.61754
4.44727
4.67271
4.74556
3.94929
4.89601
4.32043
3.73039
4.4
5.25074
4.77666
4.08123
5.43967
5.21072
4.36728
4.59629
3.90869
4.66132
5.38949
3.80056
3.63704
4.98646
4.72771
4.04867
5.10356
4.65575
4.3286
4.11071
4.34095
4.66959
4.57539
5.48437
4.36875
5.58698
4.68499
5.02825
4.63976
4.04194
4.98488
4.65912
4.5209
4.26253
4.01817
3.98894
5.2028
4.34602
4.29508
4.64296
5.15804
4.43377
3.95273
4.11477
4.91787
4.72807
5.23441
4.21756
5.44253
4.40575
4.61487
4.35179
4.10244
5.2085
4.26894
4.47601
4.57436
5.65077
3.8733
4.37392
4.37606
4.6265
4.47618
5.03409
4.93167
4.17569
4.7538
4.61791
4.30954
4.41839
4.06094
4.26283
3.98805
3.9338
4.88425
4.33824
3.92915
4.19009
4.00039
5.84318
4.55101
4.66634
4.12395
4.30691
4.80222
3.61381
3.6969
3.55863
4.34793
6.14479
4.27863
4.12431
5.06024
4.13115
4.16889
4.14462
6.01478
5.5025
5.5587
4.31571
5.39299
4.72379
4.28649
5.3856
4.34237
4.73332
4.26747
4.38053
4.00808
4.65983
5.33099
6.66477
3.80979
4.39068
4.81667
4.4069
4.60706
3.9506
4.55582
4.69845
4.17231
4.59113
4.35347
4.41726
3.77535
4.29787
4.6352
4.78561
3.9737
5.60415
4.4512
5.22741
4.30275
4.05612
4.83617
4.22158
3.77367
3.974
4.32113
5.61377
5.15475
4.21857
4.38151
4.68836
4.58274
4.65128
5.08115
4.32563
3.78858
4.22623
3.89761
4.48348
4.6722
4.25999
4.36407
4.31278
4.36019
4.23639
4.18146
4.90735
5.28815
6.41668
5.21501
4.4578
3.70218
4.78634
3.89975
4.91877
3.92071
4.13094
4.34613
4.48343
4.51892
4.27615
3.86943
3.98221
5.28673
3.61702
4.50354
4.35499
5.15427
4.39649
4.27105
3.99521
4.31948
4.18425
4.47379
4.14254
4.58507
5.81025
3.63514
6.02115
3.98916
4.33017
5.44379
5.25458
4.04958
4.25965
4.18551
3.41768
4.94505
5.18835
3.89601
5.10069
6.9428
4.37709
4.66541
3.70069
4.27515
4.31316
4.62783
4.13559
4.40596
3.93614
4.24988
4.20154
4.09575
4.41855
3.73281
3.99544
4.1051
4.34077
4.08702
4.79829
4.99839
4.7917
5.35046
4.76437
4.88194
4.52971
4.1059
3.94488
5.16841
3.78695
5.17821
4.02926
4.19078
4.65569
4.66318
4.8792
4.32591
5.04486
4.57235
4.22418
4.23703
4.25209
4.14342
4.46817
3.9286
4.48474
4.56975
4.50106
4.71541
4.04144
4.69647
4.78644
4.22767
4.99392
5.07685
4.27809
5.12785
4.20688
3.93586
4.21824
5.32687
4.10311
4.50127
5.19541
4.63637
4.86403
5.04441
4.50322
4.3177
5.5629
4.06811
5.59375
3.64774
4.01707
4.20284
4.3451
4.37819
4.80115
5.46893
4.82577
4.88671
4.54285
3.84068
4.35226
4.43532
4.41843
4.31777
4.13204
5.02887
3.67656
4.10431
4.73929
4.13493
4.58846
4.43785
3.70041
4.20643
4.55799
5.80898
4.44583
3.96837
4.37723
4.00296
6.53315
3.75004
4.1985
4.20193
3.91129
4.29214
4.77719
4.18442
4.20962
5.33718
3.58567
5.14451
3.73098
5.67783
4.71639
4.61549
4.44909
4.13612
4.07913
4.03923
5.21895
3.81458
3.66411
4.29019
4.34603
6.20089
4.8697
4.638
4.44893
4.37948
5.20796
4.66124
4.51541
4.56096
5.28564
4.02713
4.75551
4.84069
4.59112
4.27714
4.74116
4.74133
4.58873
4.29826
4.75207
3.8309
5.5538
4.14625
4.69788
4.89118
4.11842
5.41129
4.18436
4.59009
4.28666
4.38181
4.22771
4.50802
4.0496
3.89517
4.87402
4.42584
5.82943
4.99617
3.92153
4.68002
3.67986
4.38872
5.29456
4.70244
4.89917
5.02374
5.09475
6.04307
4.57992
4.45769
3.99958
3.7962
4.34566
4.64629
4.72007
4.99434
5.96599
4.79785
4.67266
3.995
5.43426
4.6214
3.6251
4.12567
4.2396
4.14568
4.88521
4.15194
4.47883
4.98792
4.54475
3.97976
4.31668
4.15214
4.98805
5.13916
4.80309
4.83372
4.45
4.23559
3.68531
4.61212
4.41488
5.63674
4.41044
4.39675
3.93239
4.06552
5.11907
4.12925
4.04401
4.25311
4.10102
4.48122
5.02387
3.77918
4.6939
4.33237
4.28591
4.90962
3.72284
3.8603
4.27731
4.06929
3.94794
4.37177
4.64832
4.07061
3.78838
5.15692
4.69015
4.34663
4.96612
5.93992
5.07009
4.72038
4.62595
4.28896
3.60687
3.73631
4.65407
3.77737
5.15001
4.59484
4.26701
4.29662
4.92071
4.28905
4.19531
4.59582
4.1384
4.32998
4.15815
4.41003
4.81438
3.86843
4.39121
4.93405
3.80818
4.29464
4.82855
4.43397
4.58668
4.28239
3.57992
4.23158
4.22681
4.34324
4.39914
4.03865
5.70192
3.70742
4.43277
4.2323
4.8307
3.889
4.22801
4.10318
7.76482
4.88105
4.66712
4.10853
4.25545
5.10911
3.8476
4.92635
4.12663
4.38594
4.37468
4.3013
5.54865
5.7899
4.25461
4.52496
4.02119
3.99074
4.88748
4.91278
4.63447
5.0353
4.12633
4.87697
4.52865
3.89055
4.06047
4.71474
4.02602
4.30564
5.57674
4.65748
4.52741
4.23133
4.23674
4.25253
4.27234
4.32444
4.23391
4.20187
4.25241
4.26748
4.36298
4.84158
4.75947
3.97672
4.91248
3.90372
5.2571
4.78425
4.29019
4.19851
3.96166
4.69968
4.43503
4.29488
4.6903
4.15317
4.01416
3.79567
3.7753
3.80351
4.3668
3.97829
3.6806
5.01594
4.45664
4.40402
4.42239
5.04471
4.7055
3.89777
3.98667
4.31442
5.02292
5.09044
5.0112
4.43424
5.28832
5.16279
4.86073
4.51016
4.46211
4.33489
4.93463
3.76681
4.91142
4.0612
5.54798
4.27305
5.83202
4.19385
4.88368
3.422
4.34459
4.28988
4.48419
4.67526
4.9861
4.87368
3.63365
3.72213
4.55544
5.55497
3.6509
4.88346
4.41924
6.58753
5.19971
3.79676
4.16516
5.2916
4.73479
4.83038
4.88094
3.85077
4.14182
5.4295
3.90693
4.3657
4.08908
4.50282
6.17236
4.95071
4.46503
5.16204
5.89793
4.60052
4.9316
4.12648
4.3866
4.05491
3.90847
4.48817
4.13463
4.79055
4.26696
4.22142
4.39525
4.55774
5.41197
4.56847
4.20302
3.7473
4.29669
4.7087
4.4899
4.62253
4.54075
4.01043
3.79342
4.14571
5.66135
5.78566
7.14958
3.98426
3.95614
4.4353
5.15557
4.7332
5.28085
3.93697
4.6682
3.73047
5.98277
5.75541
4.01886
4.71855
3.65315
5.34646
4.5903
4.63106
3.8864
4.65486
4.29857
4.28848
4.53428
4.14787
4.12057
4.0361
5.30187
3.70971
4.24606
5.09438
3.89021
3.52629
3.86861
4.39215
4.90739
4.39135
4.68728
4.75865
4.31069
3.89689
4.81799
5.24535
5.5801
4.20968
4.19042
4.30897
4.92856
3.98155
4.23123
4.76084
4.52747
5.03616
4.58603
3.98192
4.7668
3.80155
3.93087
6.18431
4.12759
4.93361
4.6905
4.24989
4.87087
4.3616
3.73268
6.63884
4.02135
5.24795
4.24284
6.12541
4.15277
4.53223
4.4058
5.27887
4.70993
3.69762
4.77254
4.41203
4.64781
3.64005
4.48512
5.73424
4.57101
4.05668
4.30675
4.18034
4.92918
4.73838
4.41815
4.07284
5.33693
4.24367
4.65765
4.36105
4.60988
4.77096
4.40867
4.77948
3.57925
4.96117
5.09593
4.70224
3.92221
4.56791
3.89924
4.31314
4.05685
4.38454
3.85944
4.88727
4.45504
4.49076
4.19383
4.30652
4.24866
4.76284
4.82347
3.84938
4.59068
4.06461
4.23821
3.63756
5.25203
3.57877
4.81183
4.25316
5.71547
3.89858
4.07386
4.11817
5.73663
3.79474
4.20245
4.34694
5.12816
4.72457
4.86946
4.40768
4.89239
3.6829
4.20936
4.06075
4.35026
4.26953
3.78764
4.79966
4.09239
4.45472
4.27834
4.07922
4.09676
5.32842
4.07269
4.33275
4.33049
4.84771
5.86047
4.40769
4.3963
5.02076
5.13495
5.09822
4.14156
4.31016
5.18225
4.6973
4.91585
4.67915
4.8397
4.81595
4.69302
4.33243
4.25777
4.0805
4.61612
4.2074
4.08798
3.56127
4.32015
4.24396
4.07776
5.22684
5.08575
4.14895
4.41373
3.8841
4.31705
4.17931
4.57101
3.93706
4.09313
4.01737
3.92365
5.03646
4.52254
4.24309
4.13149
4.52119
5.07229
4.69655
5.25169
3.71169
5.04574
5.50293
4.47028
4.19196
3.80179
4.26515
4.02185
3.66846
4.59917
4.3941
4.29418
4.61934
4.35029
4.08475
4.06745
4.13504
4.58116
4.3595
5.29909
4.04971
4.51804
4.59297
4.31472
3.77274
5.76546
4.62245
4.15967
4.11219
4.44883
5.48378
4.71304
4.38512
4.57316
4.73947
5.11759
4.70343
4.39063
3.90884
4.34716
4.25403
4.01782
4.99195
5.75007
5.05913
4.13386
4.81833
4.40716
4.65737
3.9091
4.09254
5.43795
4.93254
4.9622
5.1127
4.2878
4.66433
3.57489
4.39664
4.71668
4.84196
4.06066
4.08621
4.48526
3.78055
3.99221
4.98129
4.89152
5.03486
4.21418
4.1675
4.44253
4.71144
4.03487
4.76711
4.18752
4.13786
3.88666
4.48417
4.18404
4.4731
4.62665
4.00016
3.99694
4.68928
5.1827
3.48504
4.43555
4.13637
3.91529
4.73254
3.83793
4.76386
4.38849
4.28818
3.69285
4.13485
4.83988
4.90684
4.6521
5.60005
4.49526
3.93709
4.46835
5.34322
4.25863
4.87378
6.498
4.78304
4.1098
4.34456
4.96751
4.99575
5.85734
4.41282
4.64807
4.00434
6.29209
5.01772
4.56305
4.23422
4.91064
4.52806
4.64721
3.93608
4.35876
4.42097
4.18294
4.24825
5.59256
4.67928
4.79137
4.82586
5.48512
4.59719
5.79395
4.46614
4.14016
3.9638
4.25922
3.9701
4.19091
5.16472
4.28722
4.32793
4.25738
4.0647
4.90215
4.87006
4.95666
4.90537
5.26964
5.95196
4.14555
4.26273
4.20351
4.66313
3.89262
4.2945
4.33295
4.82459
4.65893
5.07287
4.23798
4.13689
4.76574
5.48431
4.76563
4.50558
5.62301
4.28343
4.83697
3.64348
4.08235
5.02155
4.2534
4.41001
3.69143
4.6758
3.73318
4.00159
4.41453
3.94434
4.11225
4.56613
4.34836
4.0705
4.85433
4.09016
4.50133
4.61911
4.77266
3.97014
5.00184
4.5514
4.4339
3.92777
3.52915
4.04109
5.73149
4.38738
4.45119
4.70732
4.53773
4.47888
4.47652
4.10033
4.3511
4.26591
4.09585
4.6081
6.10118
4.17188
3.76662
4.32391
5.54702
4.08906
4.37174
4.08852
4.53491
4.21719
4.37083
4.60495
4.39897
4.00429
4.92072
3.76659
4.79929
4.40015
3.81765
3.81092
4.24919
5.31627
4.36555
4.30633
4.06065
4.79515
5.23349
4.34649
5.24003
5.79005
3.74965
3.95397
4.935
4.85194
4.75703
4.30299
5.85457
4.5652
4.8132
5.08405
4.54981
4.88896
4.28427
4.53786
3.9037
4.80816
4.23555
3.97211
4.11117
5.19084
5.10424
4.06748
3.92529
4.08237
4.60279
4.31111
4.03526
4.38618
4.5805
4.52626
4.14996
5.88761
4.3215
4.41269
4.48641
4.86946
3.84998
4.2507
3.623
4.08745
3.89215
4.59415
5.16396
3.72901
5.08598
4.58939
4.37441
4.01549
3.51143
4.56335
4.93719
5.27814
4.03195
4.03722
3.94571
4.11027
4.64917
4.00713
4.48473
4.5344
3.76821
4.47437
4.56417
4.69968
5.69739
4.44291
3.91257
4.59994
4.41157
4.82275
4.80189
5.72666
4.67125
4.26316
4.00576
4.96983
4.88845
5.14197
3.73107
5.1988
4.3346
4.489
3.80812
4.86613
4.35606
4.7636
4.53902
3.98594
4.89464
4.26827
5.11109
4.28139
4.30818
4.4437
5.2302
3.98116
4.45493
5.87859
4.32785
4.30374
4.19662
4.19662
4.21683
4.57087
4.92576
5.85042
3.91795
4.76051
4.2816
5.82228
4.33334
4.36752
3.97724
4.49953
4.35065
4.97969
3.95986
3.79352
4.72952
4.45401
5.39743
4.14184
4.82797
4.57254
4.50741
5.12839
3.92604
4.26996
4.0527
4.14705
4.95179
4.90158
3.96602
4.24215
4.04695
4.07921
4.66099
4.03923
3.83799
4.97004
4.94556
4.06455
4.60755
4.15335
4.0643
4.29163
3.74843
4.10457
3.97683
4.66955
5.14658
4.69385
4.61466
4.66029
4.2757
5.47788
4.44753
3.94369
4.40559
4.32528
4.33771
4.02043
5.31131
4.07096
5.65562
5.32813
5.385
4.26681
3.98982
3.88193
3.85107
4.49461
3.64394
3.80314
4.10265
4.3972
4.63837
4.36335
5.2191
4.66844
4.77451
3.95241
4.3396
4.44318
4.44489
4.08049
5.2287
3.64396
5.17057
4.28972
4.40061
4.75502
4.3589
4.59905
4.5588
3.99788
4.37063
5.55216
4.5789
4.25989
4.14479
3.8454
4.29395
5.80209
3.95867
4.00983
4.46393
4.93474
4.58962
3.7821
4.47083
3.90623
5.64144
4.29039
4.03946
3.99331
3.74395
4.88877
4.54373
4.77476
4.39767
3.63868
4.01848
4.02321
5.76895
4.21134
5.71482
4.20248
4.87917
3.82737
4.74057
5.17778
3.7016
5.34832
4.28636
3.97749
4.40084
3.93972
4.04264
3.96595
4.87624
5.09874
5.20138
5.18807
3.59259
4.17865
5.34837
5.63748
4.96067
5.73113
5.07359
4.48534
3.89777
4.10907
5.05029
4.78583
4.28561
4.41056
5.26463
4.07463
4.19901
4.94705
3.92564
4.1767
4.29952
3.97692
4.21203
5.29408
4.11347
4.45543
4.1917
4.0614
4.59299
4.38451
5.13878
4.32358
5.30594
3.93319
4.02445
4.08511
4.52262
4.61642
4.16894
4.76813
4.78659
4.25739
4.08645
4.07295
4.73823
4.32163
5.61223
4.22485
3.97616
4.03444
4.68819
5.13465
4.34797
5.60603
5.05338
4.53698
4.74567
4.61618
5.27445
4.58425
4.1331
3.97561
4.71042
5.25354
4.4221
5.13218
5.08637
3.77657
4.13855
4.08286
4.11022
4.37429
4.31142
4.55147
4.83217
5.15806
4.79247
4.98292
4.11573
4.67491
4.58116
3.87742
5.34907
4.71913
4.3168
4.45051
4.84295
5.37775
4.5994
4.3925
4.42973
4.28424
4.90128
4.58452
4.48578
3.92759
4.13648
5.78178
4.88952
4.25181
4.87954
5.6303
4.66553
4.46931
4.44404
4.72083
3.99709
4.06947
4.22013
4.31775
3.94669
4.72748
4.09743
5.03761
5.10122
5.0111
4.21627
4.03168
4.65534
4.9598
4.51378
3.85534
4.1059
3.93698
3.88463
4.52859
6.35387
4.76405
4.77845
3.65772
5.38222
4.29368
4.18532
5.38168
4.18791
4.1967
3.8694
4.29801
3.95755
4.42338
5.48312
4.09404
4.905
4.58818
4.88679
4.29974
4.15889
5.90619
4.11315
4.28929
4.36797
4.06075
4.87454
4.1063
4.07657
5.79275
4.54003
5.69289
4.93803
4.364
3.79035
4.6475
4.52764
5.09401
6.46127
3.39277
4.36406
3.99466
3.90507
3.85549
4.2459
4.44978
4.12989
4.20605
3.96021
4.16097
4.71292
4.41639
3.90556
4.48796
3.89791
4.58495
4.5802
4.49805
4.87205
4.11511
4.47657
4.83743
4.21346
4.35005
4.39151
4.33797
3.94395
4.22634
4.16542
4.05743
3.84522
4.24832
5.03935
5.08015
3.81926
4.17181
4.62858
4.88314
4.63722
4.18656
4.3646
4.0616
4.52368
4.74252
5.3229
4.88521
3.98418
5.28237
4.22197
3.77178
4.36063
3.94554
4.09015
4.16244
3.86973
4.05249
4.20262
4.42077
4.17766
4.28913
5.15936
4.03983
6.61544
4.34324
4.623
4.1603
6.63221
4.111
4.01587
4.21742
5.31739
4.41689
4.32661
4.61232
3.90844
4.39296
5.42059
4.76448
4.48152
5.2385
4.15297
5.44909
4.64767
4.76189
4.0201
4.21662
4.6584
4.69053
3.90701
4.11254
4.05923
5.51937
3.99385
4.92601
3.98566
4.6339
4.73805
4.75506
3.97648
5.00555
4.38856
5.18775
4.81569
4.5231
4.22582
4.70207
4.23677
4.4256
4.42468
3.7409
3.9046
4.32464
5.26047
4.71241
5.15256
4.07051
4.93344
4.73681
3.78915
4.62104
5.15573
4.65743
4.31055
5.35672
4.37488
3.86534
4.13275
4.06687
4.76757
5.13588
5.61192
4.10037
4.59167
4.16686
4.71088
4.49192
4.59838
5.25165
3.7865
4.61208
5.28832
4.42344
4.83997
3.79093
6.15576
4.49273
4.42884
4.88822
4.35329
4.05345
4.45597
3.8472
4.51972
3.72605
4.93131
4.13349
4.78221
5.41598
3.942
4.59059
4.45539
3.76644
4.86029
4.76564
4.18252
4.44429
5.3353
4.48699
3.8268
4.45513
4.3742
4.43649
4.30593
4.68033
4.07598
4.07763
4.26335
4.58842
4.16631
4.20362
4.94797
4.22274
5.36913
4.24365
4.56891
4.35877
4.04525
5.26103
6.81142
4.65995
4.2503
5.27818
5.51924
4.09987
4.42804
4.64577
3.80869
4.45089
4.36771
4.16214
4.26411
4.42112
4.77116
4.1479
4.1281
4.29638
5.53449
4.40774
4.39797
4.95878
4.98168
5.09865
5.06295
4.53766
5.01961
4.67636
4.68193
5.22435
4.36409
4.45365
4.28475
4.82227
4.74801
4.75413
4.96706
3.7138
4.94509
5.94548
4.56382
4.26812
4.89676
4.69468
4.62214
3.83321
4.84355
4.37083
5.0311
4.46549
4.16644
5.02108
4.70296
4.27077
5.3521
4.52957
5.66929
3.78735
4.22502
4.56871
4.14953
4.25773
4.7449
4.91368
3.95693
3.68936
3.75885
4.24338
4.46035
4.99219
3.81678
3.92859
4.6958
4.59502
4.35996
4.86949
4.21497
4.2339
4.42094
4.1021
4.34749
5.10453
4.99915
3.89899
4.86023
4.24331
4.74259
5.04081
5.15822
4.57644
3.98076
5.04255
4.98614
4.7254
3.70054
4.45216
3.80422
3.79073
4.49032
3.97098
5.29184
5.34591
5.68435
6.55992
4.36866
4.21845
4.65669
4.68926
4.11426
4.19637
4.50661
3.74708
4.81651
4.64444
5.3171
3.84804
4.70203
4.56082
3.69664
4.98272
3.94066
4.29484
4.52094
4.47441
4.42298
4.92206
4.61408
5.00857
4.62948
4.23493
5.13533
4.15281
4.14285
4.86456
3.92829
5.56196
4.33928
3.70225
3.6615
5.17764
4.06421
4.78456
4.21337
3.67437
4.94474
5.52075
5.27228
4.24129
5.49327
4.60235
4.60157
4.13009
3.96737
3.79045
4.62062
4.05363
4.452
4.04448
4.95452
4.36533
6.01075
4.34884
3.95166
4.2156
6.41817
4.37923
4.34194
4.33826
4.17453
4.23769
4.10839
5.10661
4.49546
4.84989
4.22764
4.27396
4.68255
4.16969
4.70425
5.19963
4.9382
4.35491
3.95811
4.67915
4.38595
4.08729
4.25238
5.26446
4.01973
4.46028
4.04413
4.39884
4.658
4.78253
4.08736
3.8663
5.43913
4.66843
4.64791
4.94757
3.71016
3.93075
4.42626
4.37244
4.38843
5.68671
4.18112
3.54702
5.25736
4.60741
4.61158
4.35431
4.80588
4.13647
4.3049
4.8376
4.1594
4.51503
3.68307
4.16888
3.88589
4.49638
4.90766
5.06551
5.09178
3.74513
4.51425
4.21049
4.28391
3.5281
4.24349
4.544
5.04854
6.18266
4.10096
4.07419
5.38958
4.77857
4.29851
4.60078
4.65932
4.11264
3.99878
5.00445
3.76993
4.84587
4.70542
4.22055
4.56702
4.72776
4.44683
3.74118
4.85205
4.36266
4.86837
4.22712
5.33448
4.89309
4.0498
4.72703
4.55259
5.04203
4.71432
3.92359
3.63059
5.00436
5.32607
5.0921
5.29297
4.70808
4.15703
4.15934
4.46465
4.03062
4.30968
4.23416
4.36511
4.7733
3.87071
5.24542
4.43124
4.08155
4.11552
3.97037
4.82581
4.39197
4.06007
4.11001
4.13688
4.4618
5.78459
4.13209
5.77011
5.88944
5.49139
4.72516
5.09532
4.55381
4.75639
4.34514
5.70222
3.9123
4.5702
3.83794
4.81648
4.36629
4.72588
4.55148
3.81753
5.03846
4.35297
3.93186
4.90551
4.70997
3.9315
4.69566
4.79762
4.3996
4.18427
3.98585
6.22471
5.06655
4.20755
4.31164
4.19711
4.84511
4.17498
4.83978
4.49436
4.2326
4.49035
3.97347
3.74675
5.10033
4.65393
3.93319
4.62557
4.67285
4.51595
5.31486
4.18618
6.80305
4.01073
4.46484
3.52621
3.99826
4.5439
3.83288
4.15468
4.30201
5.8017
4.34448
5.76412
4.8155
4.74079
3.82661
4.09346
4.50611
3.89155
3.94123
4.35919
4.13914
4.12091
4.27712
6.76838
5.11972
5.16971
4.45283
3.83869
4.98272
3.72768
5.65869
4.23518
4.89632
4.22519
4.05152
4.7575
5.71924
4.11073
3.95603
4.70649
4.4985
3.92537
4.0146
5.65077
3.89833
4.27477
4.23352
4.63522
4.26211
4.57828
5.38424
4.00507
4.05763
4.82635
4.93517
6.26476
4.10422
4.18361
4.26997
5.30122
4.29188
4.24127
4.5955
4.18482
4.3293
4.01058
3.93296
4.80196
4.48654
3.91379
5.20444
6.42256
4.3069
5.33594
3.96663
4.87206
3.89482
5.02987
4.25129
4.34494
5.53873
4.72825
4.05328
4.43873
3.79591
3.88304
4.40889
4.62954
5.32068
5.46776
4.5747
3.8776
3.90135
3.70815
4.44618
4.42142
4.61665
4.26933
4.51924
4.67655
4.59242
4.46374
5.3257
5.0127
4.40146
4.24509
4.61516
4.37631
5.37154
4.10777
4.05136
4.93618
4.06493
5.33634
4.17584
3.89374
3.84687
4.01708
3.88128
5.61259
5.38934
4.19521
4.1775
4.29394
4.98181
4.40817
4.98421
4.51108
5.09565
4.23138
5.04663
4.3145
4.04278
5.10417
3.95397
4.02217
4.69507
3.99547
4.11785
6.30335
3.46566
4.54283
5.20574
4.47268
4.63244
4.21982
4.70133
4.24252
5.17901
4.1902
4.5267
4.33298
5.61581
4.41705
5.74887
3.71592
4.2076
4.58644
4.84048
3.99493
3.91188
4.02487
4.10214
4.9737
5.43564
5.90882
4.89007
4.43595
4.40787
5.17593
4.13376
5.72135
4.76457
4.91309
4.75663
4.58294
5.32224
4.81732
4.29916
4.21669
4.28974
4.27205
4.55284
4.83613
4.13116
4.59907
4.19371
3.80714
4.55306
5.02335
3.95553
3.90754
4.01649
4.16472
4.93036
4.13118
4.48558
4.96115
3.68361
3.95342
4.65684
3.69859
4.50435
4.97832
3.89602
4.47709
4.26531
4.47937
4.04469
4.13608
3.92802
4.64325
5.13463
4.67194
4.89774
5.05336
4.32702
4.87523
4.26522
4.09471
4.41297
4.16585
4.78629
5.08479
4.14917
4.27826
4.86526
4.45993
4.6244
5.01211
4.89515
5.07218
5.52635
4.58255
5.90323
4.26918
4.472
3.92832
3.69503
3.81681
4.34093
3.74075
5.11357
3.72164
4.15668
4.04546
4.26932
5.56365
4.50304
4.10992
3.7312
4.56226
4.80999
4.2914
4.55282
3.94074
5.28136
4.79681
3.85254
4.98015
4.81014
4.45747
4.99358
4.10752
3.82111
4.57556
4.00963
5.38438
4.12965
4.40611
3.84164
4.47704
4.28667
4.42245
4.48374
4.42174
4.24933
4.29706
4.66881
4.54274
4.47497
4.20786
4.34823
4.65159
6.45664
4.17134
4.49697
4.1979
4.24634
5.66087
3.85828
4.55071
5.25037
4.73168
4.95939
3.84034
4.94734
4.28123
3.83506
4.86216
3.79033
3.85965
4.82805
5.50861
4.13583
4.60754
3.72717
4.24781
3.86813
4.72896
4.6798
5.85531
4.16294
3.83698
4.84519
4.38834
4.04872
3.95513
4.04364
4.82769
4.99122
4.18309
4.96355
4.54912
4.52016
4.47779
4.16566
6.36788
4.6015
4.83359
4.63326
3.49232
4.68305
4.02435
4.62415
4.61959
4.41772
4.05737
4.90074
4.02766
4.23172
4.75322
4.31318
4.46051
4.69353
4.29283
4.2815
3.97092
4.65058
4.29551
4.03354
4.06484
5.35307
3.74441
5.69406
4.5174
4.59165
4.03366
4.60725
4.47295
4.5389
4.31259
4.28007
3.91894
4.36918
4.65079
4.30645
5.42139
4.51793
3.82614
4.70779
4.0634
3.87416
4.83577
4.48138
4.86354
3.8759
4.52655
4.98296
5.13564
4.43324
4.36946
3.87638
4.81549
4.20308
4.35408
6.08683
4.44991
4.18382
4.67634
4.9014
5.81108
3.99242
4.78941
4.73586
3.63145
4.74455
4.50779
4.44698
3.80601
4.4121
5.13549
4.48635
3.81835
3.8126
4.49446
4.43054
4.38099
4.16916
3.83684
4.51819
4.75478
4.09845
4.50992
5.03577
4.06567
4.16773
3.98657
4.75788
5.11499
6.59925
4.13551
4.94369
4.544
3.79842
5.0043
4.93025
5.29003
3.79217
4.44194
4.93606
4.089
4.65317
4.31576
4.35442
5.47241
4.16666
4.45769
4.68015
4.85202
5.07318
4.34772
3.983
4.41359
4.63313
4.06345
4.16737
3.82769
4.65103
4.47105
5.00254
4.9788
4.42767
5.11695
5.03814
4.57688
4.48634
3.99297
6.5909
4.14591
4.4833
5.82783
4.84024
5.42845
4.35056
4.99979
5.3281
5.88638
4.26883
4.87914
4.94679
4.6849
4.72115
4.57894
4.40863
4.9742
4.46853
5.15632
4.21264
4.48843
4.79133
4.40083
3.97067
4.47705
5.79162
4.49418
4.78225
5.04192
4.75059
4.55443
3.92516
3.94737
4.42789
6.04324
4.45211
5.8224
5.43396
4.35239
3.96251
5.13545
3.83515
5.06929
3.99431
4.31492
4.61924
4.15696
5.19079
4.25905
4.65972
5.07108
4.00394
4.71011
4.6267
4.26577
4.22839
4.54158
4.3247
4.38751
4.74771
5.38232
4.35532
5.7072
4.06539
5.12461
4.97059
4.35409
4.4335
4.6447
4.27996
4.6412
5.77292
5.93414
4.66473
4.62093
4.5856
5.08338
4.2925
4.3465
4.69195
4.86598
4.50327
3.98988
4.55005
4.09892
4.05008
4.19518
4.16487
3.84046
4.11971
4.01869
4.55172
4.00073
4.28259
4.99441
4.23441
5.51941
4.35634
5.04597
5.0378
4.6038
4.18821
4.2313
4.61376
4.74397
4.34654
4.58588
4.06704
3.79635
4.41631
3.99573
4.85871
4.34002
4.31623
5.09219
4.34229
4.00474
5.77297
3.97275
4.16529
4.66361
5.36674
4.73332
4.45689
4.3844
4.1737
4.35071
4.22872
4.33767
4.59084
3.70397
4.3997
4.25685
4.68188
4.71187
5.01188
4.00332
4.49046
3.87275
4.95616
4.49204
4.70362
3.9096
4.04585
4.45395
4.42294
4.01076
4.72153
4.66135
4.65374
3.91227
5.76555
3.91538
4.90754
4.54422
4.18528
4.37541
4.54438
4.42254
3.67961
3.98018
4.20296
4.41166
4.63958
4.32958
4.39422
6.91784
4.0467
4.70797
4.17799
4.28242
4.36823
5.3951
4.43987
4.86665
3.984
4.20496
5.41194
4.97956
4.00631
5.0234
4.49433
4.29899
4.55606
4.26539
4.91835
3.83456
3.8792
4.22136
4.2823
4.36808
4.72594
3.78297
4.60533
4.8688
5.08138
5.03432
4.67817
3.96273
4.81735
5.02865
4.05398
4.55943
4.87172
4.49599
4.50757
3.92671
5.36817
4.47206
4.82868
3.9074
4.35583
4.17074
4.32469
4.99311
5.62856
4.14587
4.70193
4.7201
4.43215
4.35615
3.86641
5.03484
4.59393
7.60743
5.04957
4.84946
3.80144
4.20532
5.25611
3.87295
4.33916
4.69065
4.42742
5.03163
4.11006
4.75102
4.69783
4.70629
3.86831
4.99344
4.45103
4.39842
4.30741
4.66675
4.69387
3.76507
4.61658
7.36383
4.77389
4.4105
4.16209
3.80576
4.54467
5.34629
4.38908
4.25446
4.08029
4.24834
4.74665
4.02698
4.49068
3.88792
4.06225
4.09479
4.21711
4.84861
4.82848
4.14876
4.67565
4.06502
5.01798
4.94456
4.62133
4.28804
4.94879
4.52631
4.12059
4.36531
3.99318
4.86349
4.14163
5.04572
4.68189
5.69338
4.2481
4.62296
3.96086
3.83709
4.09042
3.47979
4.92478
5.36217
3.92394
5.19927
4.57807
4.33963
4.39928
5.37936
4.12464
4.2543
4.72599
4.18738
4.00284
5.548
4.20265
3.88466
4.13043
4.63712
4.71423
4.51653
4.52806
4.2432
4.28963
4.75053
4.55117
4.66949
4.48023
4.16574
4.65946
4.33139
4.26196
4.90484
4.79037
3.96096
3.70307
4.07134
4.34185
4.61444
3.88298
5.11941
4.23662
4.08518
4.97946
4.10005
4.83753
4.89507
4.21006
4.74095
3.96154
3.67898
4.85936
4.6958
3.79879
5.14883
5.21124
4.98344
4.5094
4.98404
4.57337
4.28528
4.30425
3.70202
4.65497
3.68308
5.24756
4.88495
4.74112
3.69131
4.25107
3.82432
3.82286
4.02134
4.53079
4.60743
4.79786
4.33793
4.56019
4.653
4.6298
4.36532
4.22858
4.91875
4.58953
4.58844
4.5449
4.71563
5.3493
5.34704
4.59612
4.04142
4.60552
4.6424
3.79077
5.04328
5.18313
4.49387
4.36608
4.07368
4.73444
3.66596
3.59062
4.41132
4.32419
4.45486
3.57056
4.20694
6.72719
3.80385
4.03442
4.349
4.11266
4.24952
4.46113
3.71853
3.84574
4.36798
4.19522
3.66476
4.23753
4.67363
4.1939
4.23483
4.56076
5.03348
3.66313
5.07913
6.74636
4.72964
4.76697
3.96228
4.8903
4.78584
4.05705
3.57576
4.50783
4.76492
4.67103
3.85234
4.71917
4.75459
4.28503
4.11698
3.81166
4.3751
5.28933
5.3667
4.56851
3.5015
4.00754
3.87349
4.22426
4.56082
4.46952
4.49427
5.46055
4.93084
4.07705
5.43339
3.75124
4.45206
3.93758
4.19934
4.43542
4.44388
4.56098
4.57385
4.39242
3.69182
5.53991
5.21798
4.50989
4.75611
4.52715
5.1236
5.70656
3.97089
4.48593
5.12721
6.47498
5.59985
6.10629
4.61114
4.55756
4.16502
5.91571
9.53511
4.3386
5.52045
3.85909
5.38126
4.91275
4.41273
4.20923
4.39872
4.34971
4.99544
4.01626
4.76702
4.00013
4.39157
4.01874
6.44195
5.07405
4.2865
4.35773
4.56573
4.66496
4.49635
4.13722
5.36609
4.24323
4.64785
4.01887
4.08081
5.57009
4.53757
4.1722
4.31779
4.65653
7.1122
4.63613
4.3649
5.29415
4.07916
3.94507
4.29381
4.69499
3.94952
4.67464
3.84859
4.50422
4.89137
3.61218
4.83221
4.64593
4.49277
4.75405
3.89235
4.6791
4.22838
5.29207
4.93109
5.29773
4.49172
3.85538
4.71368
3.99617
3.96271
4.47769
4.22139
4.95893
4.48745
4.08323
4.42959
4.42494
4.60319
3.99508
4.61429
5.3574
4.41399
4.17654
4.47394
4.23533
4.50332
4.26712
4.43425
5.62473
3.94208
3.73894
4.12235
4.71895
4.86511
5.0078
4.52961
4.03914
3.83631
3.96118
5.72199
5.98526
4.3651
5.46683
4.14391
4.72559
4.08776
6.13565
4.02178
4.72465
3.89922
4.62918
3.87289
3.83495
4.74026
4.10816
4.45992
4.69417
4.67433
4.28293
4.90297
4.1413
4.0372
4.81797
5.241
4.83561
4.28502
4.62573
4.50252
3.96813
4.40823
4.14968
4.99151
3.86037
4.30208
4.70823
4.95702
3.6872
5.04956
3.83099
4.28982
4.36698
4.7022
5.29592
4.52219
4.61448
4.25467
3.98542
4.78065
4.10336
4.20196
5.56656
5.09433
4.10955
5.61311
4.54494
4.06388
6.29878
3.71093
5.08189
4.33977
4.57844
4.6852
4.01796
4.25376
4.42494
4.07431
4.88719
4.74957
4.69094
5.0267
4.43112
4.25821
3.93561
4.84178
4.81086
5.13904
4.44175
3.93931
4.07715
5.00512
4.10852
4.06451
4.21796
4.29464
3.88459
4.57057
4.40663
5.49966
4.52662
5.37816
5.45836
5.46094
3.99945
4.39805
5.13923
4.94485
4.28231
4.531
4.81448
5.1104
4.98503
3.92017
4.77654
4.20824
3.62944
4.5008
3.99422
4.72439
4.8209
3.82796
4.41793
4.73515
4.34294
4.25849
5.49909
4.28005
3.65114
5.3065
4.50806
4.3176
3.7976
4.10613
4.77268
3.48229
4.04182
5.16145
4.17838
5.11531
4.29028
4.5284
4.16131
5.25175
5.6626
4.16606
4.08922
4.90111
4.38047
4.16424
4.87965
3.94837
3.93752
4.96405
4.60511
4.27979
3.66521
5.58053
4.70695
4.54131
4.69989
4.30501
4.19913
4.11585
3.64889
4.91078
4.48952
5.19087
4.61752
4.2905
3.69656
5.6622
4.35832
4.06588
4.11798
3.8151
5.28813
4.15373
4.37671
4.52104
5.00366
4.07011
5.96551
3.71506
4.2127
3.61468
5.23506
4.39828
4.41944
5.30287
3.88586
4.43729
3.8788
4.22201
4.3574
4.93783
4.44975
4.95906
4.47712
3.97821
5.37701
3.6056
4.09893
5.74522
4.45949
4.44451
4.9326
4.1802
3.99065
4.32098
4.33693
4.14572
4.46231
6.08816
4.13267
4.98985
4.49659
4.83072
3.83644
3.91921
4.80523
3.90393
4.30306
3.34619
3.91643
4.73155
4.30584
4.59745
4.84847
4.15087
4.2037
4.07044
4.3251
4.81727
5.54721
3.45605
4.39326
4.09551
4.16559
4.89564
5.2636
3.98405
4.05444
3.73892
4.97066
5.5684
4.10665
5.05386
4.44229
4.26235
3.96235
4.24309
5.17424
4.24996
4.95831
3.96951
4.94885
4.97024
4.35202
4.49669
4.42864
3.58769
4.10051
5.21978
4.50792
4.46496
5.24259
3.63681
4.21286
4.3666
4.01269
4.43058
4.3887
4.29431
3.93729
4.35491
5.07849
4.64828
5.02221
4.6953
4.19942
5.42043
5.46992
4.54302
3.89207
4.81673
4.83377
4.13484
4.65992
4.26813
4.24596
4.37275
4.49481
3.95914
3.87922
4.03982
4.16931
4.69368
4.07457
4.30553
4.38921
4.68857
4.99724
5.56652
5.14393
3.74626
4.3708
4.92179
4.75041
4.88185
5.98922
4.84803
4.17236
4.65897
4.33447
4.54689
4.34223
3.62656
4.63878
4.04199
3.32742
5.00155
3.77439
4.84024
4.26381
4.20242
4.81057
3.90209
4.39038
4.26104
3.92964
3.98916
4.74718
4.87676
3.84141
4.70933
5.20727
3.80851
3.94317
4.46606
5.40635
5.31674
4.94915
4.09736
4.74691
4.54626
4.10339
4.73553
5.10451
4.49031
4.72596
4.34147
5.06392
4.16098
4.39015
4.62517
4.20388
4.81141
3.97167
4.11574
5.82282
5.36596
4.36693
4.30417
4.20509
4.38951
4.01938
4.72534
4.31578
3.93788
3.6291
4.53605
5.81601
5.61889
4.13137
4.06395
4.55996
4.52166
3.83666
4.71466
4.67286
4.56258
4.63012
4.2208
4.8794
3.85684
4.84255
4.15586
4.49653
4.17932
5.64107
4.82777
5.04564
3.5694
5.47654
5.3127
3.97278
4.33363
4.54833
4.49931
3.98405
4.52762
4.22122
5.40776
4.06147
4.51146
4.78128
4.43283
4.41438
4.14345
4.20592
4.12412
5.29488
4.26223
6.17857
4.22176
4.49421
6.57476
4.9614
4.37332
4.6102
4.13175
4.92283
4.47355
3.94197
4.1071
4.60294
5.45375
4.23376
4.50927
4.18895
4.25042
4.85885
4.18148
4.28744
4.51
5.04034
5.43068
4.07029
4.39972
4.38725
4.51183
5.27181
4.86421
5.08058
4.10789
4.44413
4.66113
3.91185
5.70619
5.15526
4.35697
4.99325
4.172
4.59585
4.32119
4.60216
4.11961
4.1628
4.04719
4.92529
3.64124
4.30123
4.17791
4.05097
3.75888
6.19285
4.2108
4.84464
3.90504
5.14355
4.37557
4.51238
4.00447
3.89336
4.25979
3.83979
3.99061
4.04339
5.20876
4.51758
4.72157
4.76367
4.02714
3.98542
4.23383
4.19839
4.00725
4.55346
5.15021
4.27678
4.23614
3.94099
4.35216
3.60687
5.92493
4.82608
3.91687
4.16933
3.97577
5.61477
4.61039
4.59296
5.75187
4.48492
4.22371
4.63011
4.85281
4.4101
4.74871
4.8959
3.94693
3.59263
5.10092
3.82704
4.46204
4.76951
3.81696
4.10612
5.05993
3.67519
5.06301
4.59832
4.49182
4.96798
3.82055
4.71954
4.93703
4.5323
4.47672
3.91141
4.61229
5.37764
4.07756
4.89451
5.84919
4.12111
4.66692
4.40183
4.05809
3.85112
6.50237
5.38247
3.82137
5.22108
4.82898
5.34546
4.0585
4.77103
4.50171
4.13605
4.53263
4.52455
4.22364
4.14746
4.49373
4.23949
5.01657
4.36647
3.90772
5.80331
5.09397
4.7697
4.4175
4.13311
4.78823
3.98345
5.6009
5.83515
4.22025
4.95041
4.17712
5.09535
4.03688
4.93534
4.02161
4.76697
4.31428
4.86149
4.09776
4.6828
4.51402
4.40698
4.10851
4.49909
4.36203
4.37985
4.01113
4.93232
4.72561
4.61791
5.14037
3.68288
5.27634
5.89593
4.57739
5.05086
4.24794
5.52133
4.76867
4.18358
4.06092
4.3332
3.84129
4.86665
4.71029
4.80054
3.68191
4.72604
4.22996
4.03581
3.94887
5.48644
4.82485
4.39376
4.61197
4.89964
4.01778
4.52373
5.45141
4.9246
4.33939
4.61955
3.92496
4.32475
3.90281
4.73029
4.44745
4.28867
4.5295
4.99769
4.4208
3.64521
3.842
4.13875
4.09986
4.53457
4.87422
4.53978
5.99309
5.71006
4.82574
3.96268
4.47499
4.24977
4.02047
3.94616
5.23717
4.17732
4.83554
4.82738
4.20637
6.63022
4.16143
5.02
4.50533
4.05864
5.09417
4.29584
4.6102
5.19873
4.07732
4.64874
4.50393
4.8481
4.37684
4.08314
3.70098
5.10187
4.79827
5.15226
4.23617
4.41665
4.28378
4.5165
5.86394
4.24703
4.53192
4.70449
4.26477
4.1032
4.10221
4.20216
5.39255
5.21543
4.74032
5.16691
4.55024
4.98176
4.44242
4.89125
4.16335
4.24994
4.05823
3.69373
4.32973
5.10022
4.65483
5.67887
4.84652
3.97368
3.79401
4.72744
4.41043
4.17725
4.98948
6.02805
4.27001
3.97703
4.62798
3.98652
4.38996
4.43944
4.09
5.04023
4.92591
3.97
4.14728
5.26407
3.72426
5.97587
4.19864
5.04519
4.60094
4.01035
4.39079
4.09772
4.27228
4.53174
4.96558
4.34857
4.78267
4.32026
4.59828
3.85991
3.61211
4.19732
4.37475
4.23319
4.89333
4.42471
4.32225
3.82916
5.10014
4.25439
4.64463
4.48044
4.12327
4.22757
4.34096
4.30761
4.71773
4.07361
4.92223
4.15345
5.33691
4.12727
6.43453
3.94084
4.12331
6.38757
4.51221
4.08157
4.61532
4.82354
5.57289
4.05865
4.31556
4.46901
4.62642
4.57311
4.42235
4.48747
3.77699
5.1103
4.83843
4.20418
4.01501
3.91188
4.19791
3.89086
4.16008
4.51193
3.98663
4.74924
4.1598
4.04744
5.34926
4.88558
3.91588
4.5952
4.01898
4.39602
4.38127
4.23784
4.32007
5.20281
3.66311
4.36002
3.90362
4.77545
4.66269
6.35904
4.84584
4.20979
4.65692
4.47431
4.29701
4.14346
4.34685
4.1264
4.16985
4.26295
4.16771
4.04709
4.14209
4.82225
4.59492
4.78949
5.47867
3.78691
4.87372
4.05091
3.7822
4.40187
4.14456
4.44843
4.32229
4.25457
4.17863
4.47802
4.59063
4.70281
3.90865
4.51658
5.05498
4.14744
4.48152
4.42957
4.62383
4.35764
4.72762
4.2738
4.53801
4.23292
3.87552
4.50513
5.14444
3.96162
4.45413
4.69035
4.29901
5.45697
4.07936
4.24348
5.15179
5.26405
4.21535
5.40117
4.9552
4.83544
4.87397
4.18194
3.8815
4.86842
4.3229
5.39886
4.34893
4.59476
4.61698
4.24906
4.17547
5.35985
4.12286
4.87576
4.04425
5.16583
4.86686
4.18825
4.28189
4.28899
4.22898
5.28389
5.9763
5.37352
5.43189
3.88975
4.86436
4.6926
4.4295
4.18723
5.876
5.21968
3.99224
4.41734
4.81876
5.13009
4.2427
4.19188
4.32895
4.57102
4.14733
5.21802
4.26671
4.2493
5.19553
5.10178
3.95772
4.30313
3.39698
4.58235
5.56645
3.73547
4.28853
5.15302
4.40908
4.43431
7.14376
5.01709
5.03048
4.36559
4.1481
3.72345
4.15725
4.84378
3.92003
4.72915
4.69397
4.35316
3.82741
4.59857
4.10864
4.43439
4.87757
5.6805
4.31784
4.19182
4.35278
3.88096
4.57784
4.38668
4.4151
4.34913
5.49821
4.59033
4.34592
3.68486
5.58439
4.33346
3.82356
4.4269
4.48536
3.94597
3.8231
5.13035
3.7044
4.55467
4.86647
4.25924
4.56874
5.08696
4.70298
4.58717
4.06806
4.30673
5.51142
4.59907
4.66262
4.90192
4.16087
5.21339
3.9758
4.10806
4.743
4.4596
4.32889
5.27064
5.03813
3.97009
4.85793
4.05583
4.93532
3.95409
3.64268
4.29586
4.22808
3.84957
4.40014
4.87702
4.82122
4.41235
4.37585
4.519
4.9225
4.1166
4.30463
4.33948
4.42839
4.33804
4.74646
4.255
4.3899
4.72313
4.60803
4.51861
4.51916
5.70563
4.65563
4.27595
4.6554
4.75669
5.45313
4.21344
4.21216
4.09632
4.99083
4.94955
4.15209
5.39764
4.43769
4.56007
4.43372
4.98371
4.2892
4.52636
4.94716
4.10115
4.80218
4.46416
4.29811
4.31205
4.24492
4.10488
4.54806
3.91072
4.27534
5.72213
4.24693
4.7049
4.55602
4.7838
3.95579
4.3461
4.89103
5.16812
4.35133
4.19218
4.65037
4.46736
4.93053
4.26828
4.87451
4.62626
5.12467
5.23713
3.79785
3.82654
4.32912
3.84378
3.96586
4.49403
5.63453
4.33956
3.594
3.95579
4.5999
5.58808
4.53629
4.33611
5.55848
4.15902
4.71462
4.21336
4.07234
4.15167
4.60058
4.21917
4.31458
5.36564
4.35749
4.45466
4.739
5.69747
4.68535
3.79279
5.05329
4.22991
4.69468
4.55346
4.41413
5.98317
5.00086
4.01928
4.63008
4.80949
4.08582
4.48313
4.44966
4.06914
5.06443
4.00097
4.3652
4.3789
4.97128
4.42221
4.32507
5.61872
4.25161
4.38236
5.22903
4.58655
4.31672
4.36362
4.09844
3.52149
5.14572
4.49732
4.15369
3.98014
4.45739
4.99115
4.86929
4.61752
4.52156
3.8921
4.1618
4.61079
4.53724
4.73458
4.32912
4.77779
4.46306
4.12161
5.25671
5.01512
4.75438
3.48298
4.83525
4.73792
3.82585
4.03191
4.51383
4.78903
4.42003
4.12543
4.45074
4.75866
5.01179
4.33352
4.73677
4.04825
5.39499
4.61991
5.07314
5.36637
4.35159
4.16235
4.26608
4.51555
4.53317
4.23763
4.41206
4.23182
5.56956
4.1467
4.30386
4.35029
3.98852
4.26091
4.58805
4.56905
3.91342
4.03151
3.70106
4.23247
5.29559
4.03554
4.82012
3.71617
4.00474
3.77904
5.00678
3.97706
5.15977
4.30067
4.70618
4.95199
4.34408
5.05213
3.97934
4.63857
4.03608
4.42836
5.34311
4.43907
4.17577
4.66935
4.13169
4.81436
3.96803
3.87547
4.66152
3.95785
4.0394
4.26214
4.57974
4.74016
4.12401
4.31854
4.99259
4.97353
3.98198
4.88355
4.51633
4.41124
5.21103
4.57697
4.00816
3.65187
3.87426
4.40679
4.08202
4.30577
4.4641
4.66528
4.43591
5.79869
4.65583
3.59605
4.49479
5.26609
4.31722
4.28214
4.4415
4.33467
4.6379
4.29297
4.31018
5.27801
4.70894
4.23037
4.84807
3.90265
4.49394
3.85163
4.57829
4.52299
4.28967
3.86899
5.09179
4.25185
4.29113
4.19707
4.52782
4.85372
4.04117
4.29662
4.07536
5.81454
4.90146
4.62546
4.86306
4.01788
3.69658
4.97801
4.32533
5.30092
4.15849
4.11208
4.63758
4.82912
4.10113
4.26368
3.70698
6.22742
4.03658
4.43788
3.97389
4.12739
4.26981
4.67791
4.95158
4.43406
5.12367
5.95905
4.46015
4.3329
3.79674
4.64172
4.82956
4.52476
4.82388
5.25863
4.19956
3.8967
4.40093
4.23316
4.69104
4.63048
3.95694
5.14976
4.13885
4.04525
4.52908
4.1687
4.27665
4.51976
4.62468
4.15552
3.96296
4.5882
4.52488
4.22935
4.5251
4.87346
4.29297
4.58612
3.99179
4.59258
4.46956
5.13906
4.29385
4.92314
5.64601
4.54579
4.87836
5.71566
4.04731
4.39288
4.71566
4.27964
4.22186
5.6859
5.31651
4.07515
4.49411
5.37983
4.35334
3.94222
6.20978
3.56044
4.57568
4.1727
4.87069
3.95886
3.75365
3.75645
4.55257
4.49087
3.88468
4.19775
4.32308
4.05302
3.9891
4.35251
4.99346
4.87086
4.43788
4.2718
4.14129
4.00163
4.45405
4.53491
3.90244
4.28082
4.01678
4.9397
4.79878
3.93295
4.09914
4.06522
3.94438
5.30644
4.16586
4.46437
4.80199
4.50438
4.6369
4.49157
4.54335
4.44552
4.21211
3.63552
4.8529
4.16735
4.06021
5.26778
3.64385
4.29014
4.23757
3.53033
4.97927
4.66509
5.27241
4.39788
4.73348
4.49755
4.39534
4.32816
4.04991
4.10615
3.93202
3.81498
4.89702
4.39909
4.6514
3.76368
5.04389
4.57943
4.22672
4.27599
4.34387
4.21515
4.64374
5.10037
4.28536
4.24177
5.1193
3.93422
4.95157
4.4054
4.2809
4.47604
4.68151
4.47206
4.29834
4.16702
4.01167
3.96991
4.23715
4.12258
4.25828
5.00991
4.56928
4.62257
4.37162
4.00534
4.62685
4.64413
4.71114
4.6237
3.72659
4.19927
4.76414
4.95221
4.62108
6.6616
5.84742
4.0897
4.46628
4.03879
4.62146
3.78097
4.12042
5.22393
4.22347
4.32416
5.10148
3.79317
4.02126
4.59738
4.21925
4.64687
3.7787
4.78615
5.14788
4.18412
3.82297
3.65338
4.38232
4.50896
4.31183
3.68036
4.45886
3.9317
4.67184
4.87961
5.22246
4.67557
4.18446
4.44946
4.34773
4.50801
4.25924
5.3475
3.97229
4.7399
4.40212
4.31631
4.11805
5.44697
4.24076
4.60515
4.03438
4.2791
4.0908
3.93591
6.26798
4.39489
5.07696
4.1786
4.46708
4.31299
4.89716
4.50653
3.94141
4.1277
4.15796
3.9429
5.00201
4.54338
4.46599
3.84528
4.37667
3.98044
4.92084
4.44441
4.43592
4.66358
4.37625
4.26466
3.87145
3.87443
4.29857
4.51243
4.39663
4.40573
5.14754
4.54101
4.4722
4.43216
6.14762
3.89118
4.12401
3.79103
4.23405
5.17109
4.22134
3.71335
4.71062
4.38732
5.61256
3.82099
5.01345
4.6115
4.64652
4.26371
3.67058
3.85274
4.79021
5.88704
5.13744
4.17516
4.21757
4.46929
4.64371
5.41905
3.90041
4.54468
4.35844
4.14113
5.40769
4.59083
4.89367
3.88291
3.68502
4.19067
4.26724
4.28829
4.48648
4.37795
4.27941
4.18955
4.53176
4.46099
3.91551
4.15902
4.3559
4.32185
3.92673
4.74112
4.43137
4.22786
4.66549
4.52506
4.55515
3.81251
5.29222
4.28479
4.32393
5.16324
4.4624
4.3955
4.31974
3.43847
3.92808
4.08666
4.70761
4.70911
4.20929
4.98793
5.04715
4.82392
4.61656
4.05141
4.79384
5.33509
4.20603
4.26378
5.25964
4.48397
4.01392
4.05544
4.27784
5.39352
4.0222
4.70758
4.8146
4.05108
4.91928
4.16266
4.78021
4.45669
4.06021
4.06004
4.72619
3.80939
4.15491
3.98438
4.1765
4.35872
4.05518
4.5319
4.19424
5.55812
4.39578
5.4158
4.01179
3.64513
4.60627
3.90294
5.54577
4.05374
4.33975
4.11536
4.06801
3.89403
4.39816
4.18551
4.45915
4.91375
3.55857
4.67526
4.31541
4.40859
4.77262
6.13245
4.22955
4.11972
3.82905
4.25805
4.61922
4.60121
5.97671
4.10049
4.53682
4.24522
4.82349
4.74989
4.1702
4.9771
3.93955
5.02602
4.44342
4.56521
4.1053
4.70463
6.00177
5.10132
4.708
4.89027
3.80796
4.83196
4.86663
3.99204
4.33963
4.07989
4.62822
4.04246
3.91896
4.37687
4.19789
4.86145
5.02231
5.63421
5.53512
4.18361
3.91325
4.63774
4.01728
5.09373
4.00127
4.85085
5.92383
4.56832
4.90597
4.86768
4.42032
4.63875
4.07396
4.58236
4.84773
5.03603
4.33442
5.22705
4.20195
4.52271
4.71399
5.09832
4.27547
4.71972
4.1185
4.85734
5.12308
4.25035
4.10895
4.5263
4.15596
5.35876
4.15907
4.43063
4.81257
4.4506
4.10906
3.78129
4.53664
4.8185
4.58422
4.49863
4.07428
4.61048
4.30887
4.22666
4.16115
5.26991
3.99736
5.04649
4.71679
5.23897
4.22258
4.72901
4.01125
4.72655
4.79044
4.54856
4.24594
4.34434
4.08279
4.28271
4.44276
4.27953
4.21075
4.38488
4.80344
4.37484
4.79704
3.77347
3.99862
4.69419
3.39596
5.93108
4.40056
5.67682
5.5889
4.03033
4.77162
4.50241
4.32076
4.94458
4.23208
4.35056
4.56945
4.32719
4.41029
5.69929
4.54241
4.21487
4.74814
5.3683
4.5595
4.67212
5.7338
4.11941
4.25543
5.3502
3.95385
4.36622
4.61809
4.65683
3.96915
4.01941
4.80764
4.13524
4.27271
4.31591
3.996
3.71124
4.05826
5.23696
3.87599
4.28821
4.10387
4.25344
3.77065
4.18094
4.47947
3.95948
4.53719
4.43455
4.66036
4.20117
4.29247
4.72822
4.93074
4.38995
4.57684
3.9131
4.50463
4.38279
4.09688
4.13716
4.40351
4.16331
5.23357
4.4235
4.37677
4.5337
4.6634
4.83661
3.85395
5.44904
4.28283
4.52665
4.59491
4.47224
4.42766
4.37548
4.16389
4.69304
4.38974
4.60207
4.48675
4.52503
4.61674
5.1869
4.89937
3.91372
4.08944
5.94048
4.01408
4.62163
4.12458
4.53478
5.1997
4.3014
4.17082
4.62305
4.20188
4.08942
4.09325
4.01972
4.60346
5.35948
4.85308
4.52564
4.08486
4.96874
4.85432
5.41825
4.69173
4.68391
4.1453
5.69812
4.2835
4.66041
4.3249
6.40705
4.68522
4.25318
4.55473
6.08418
4.51548
4.53053
4.80183
5.97203
4.59302
5.16783
4.35845
3.94933
4.31691
4.91057
4.17762
4.21237
4.50513
5.23336
5.09689
5.58641
4.89397
4.62147
4.10463
3.92616
5.50804
3.71121
4.72018
4.62494
4.41005
4.80419
4.60342
5.241
4.42944
4.83293
4.98901
5.26972
4.79656
6.93105
5.21133
5.14253
4.1258
4.88429
3.96233
4.28936
4.27305
4.38168
3.52456
4.76144
3.68785
4.33167
4.28635
4.82823
4.2456
4.75741
4.14278
4.26213
5.77051
5.27662
4.89629
4.78787
4.91132
4.68733
4.46419
4.96675
4.54564
4.15675
4.81722
4.32945
4.38095
4.82836
3.76956
4.62955
3.82805
4.97017
3.96435
4.85819
4.46561
6.70279
5.31809
4.24293
4.82128
4.84074
4.41667
4.62834
4.01417
5.51641
3.98721
4.23815
4.82203
5.57431
4.45901
4.47775
4.06903
3.9092
5.30807
4.0516
4.30961
4.71141
4.58252
4.1348
3.93896
4.1818
4.83243
4.39579
4.70219
3.78282
3.90502
4.78861
4.10278
4.56402
4.67513
5.17077
4.39038
4.31316
4.48065
4.22083
4.40672
3.99537
4.13355
4.25954
5.86449
5.30354
4.20787
4.61548
4.14039
5.22671
4.09612
4.75902
4.97585
4.71736
3.83024
3.88418
4.08387
4.40936
4.54997
4.59951
4.59992
4.47224
4.94406
4.13984
3.4653
4.33444
3.7245
3.71753
4.69293
5.03512
4.15357
4.28638
4.7444
5.10799
4.55526
4.5151
4.80865
3.7346
5.23484
4.59166
4.806
3.80819
4.38998
4.1602
4.07944
5.16664
3.73676
4.93577
4.62319
4.80338
3.98882
4.5518
4.37832
4.25648
4.24568
4.21534
4.89948
4.03182
3.85008
3.87284
4.9156
4.42799
5.37248
4.94026
4.39912
3.77968
4.17876
4.42052
4.67826
4.67244
4.02434
3.89969
3.96578
4.17547
4.50885
4.4689
5.19959
4.89523
4.63481
6.14038
3.80242
4.27615
4.33558
5.82079
4.39466
4.79593
4.36802
4.27563
4.33262
4.16019
4.05988
5.12867
4.28545
4.74458
4.96787
4.11942
4.64589
5.3682
4.86499
3.82729
3.87233
4.82702
4.69119
4.97636
4.56801
4.8843
4.53558
4.55886
4.73796
4.14745
4.65616
4.218
3.97442
3.93085
4.45354
4.05047
4.11646
3.84877
4.28041
4.63732
5.77249
4.25013
3.6378
5.9383
4.06408
5.26617
3.80681
3.7339
4.35272
4.46103
4.95116
4.13479
4.39968
4.14223
4.39652
5.43159
4.22049
4.8016
4.45453
4.83536
4.14161
4.0779
4.23404
5.83538
4.19191
4.34535
4.31111
4.75366
4.52288
4.25712
4.45715
3.78264
4.44387
3.83167
4.03803
4.4649
4.81445
5.43932
4.04867
4.14213
4.40643
4.21846
5.49652
4.48829
4.73447
4.90568
4.66965
4.91013
3.937
4.64986
4.5251
3.99288
4.36086
4.70351
4.42548
4.06812
4.35591
4.1923
4.40332
3.90719
4.89142
4.38321
4.86642
4.82397
4.38795
4.72697
4.91603
4.98475
4.53477
5.18113
4.723
4.34916
5.08414
3.95958
5.15058
4.60811
5.16171
4.17103
4.56901
3.78132
4.88832
4.93337
4.86534
4.00852
4.93762
4.98969
5.07649
4.52519
3.79263
3.71844
4.05377
4.48287
4.65513
5.02698
4.17628
4.2015
3.7095
4.17414
4.31591
4.56996
4.08847
4.3829
4.51117
4.77934
4.80181
4.06028
5.9272
4.91861
4.25992
3.9413
4.62386
5.45276
3.74009
4.27188
5.72842
5.38353
3.96081
5.08533
4.04521
3.42427
4.39808
4.11562
4.00583
3.82616
5.11705
4.09226
4.54934
4.81239
4.47827
4.71876
4.44402
3.69579
4.9485
5.63223
4.8318
4.46172
4.89706
5.58408
5.65607
5.63905
3.85756
4.61504
5.49175
4.49412
4.58036
6.25961
4.15247
3.90502
3.95136
4.12483
4.66167
4.11261
4.28483
4.49286
4.39713
4.43629
4.61029
4.01478
4.05468
3.86124
4.54408
4.7307
4.59412
4.3852
4.56813
4.92074
5.0169
4.05989
4.8649
4.47148
4.21199
4.75911
4.47419
4.43353
4.82818
4.05262
4.45916
4.43917
4.26413
4.73867
5.16716
4.48497
4.20594
5.20122
3.93869
3.67692
4.03123
4.0646
4.45521
4.39749
5.1184
4.35407
4.3721
4.02084
6.06385
3.92746
6.03179
4.56493
4.25964
4.38553
4.35499
4.9419
4.26367
3.73
4.08591
5.21979
4.90466
4.22038
5.55065
3.94197
5.03041
4.36461
3.99882
4.75208
5.08011
4.55297
4.10655
3.94424
3.81705
4.35513
4.42529
4.48385
4.8733
5.09601
5.2379
4.69305
5.37472
4.02841
3.75241
4.98178
4.94226
5.51528
4.27792
5.19668
4.43451
3.94732
3.70718
5.31226
5.34249
4.49343
4.76462
5.79279
5.26999
4.07222
4.21039
4.24284
5.04823
4.94092
4.37477
4.51626
5.00158
4.48925
4.62951
6.15931
4.24713
4.89098
4.21705
4.44413
