12.5471
14.1433
10.4227
11.8124
9.70598
10.3763
10.2458
12.4273
11.3073
10.7301
15.8677
12.3475
10.8782
12.7787
10.2179
10.9522
13.1707
10.375
11.6753
12.4101
10.4046
15.2717
13.5616
12.0092
9.71747
13.1412
12.9828
12.6341
10.9871
12.0888
11.8626
9.95142
11.9991
9.65247
11.2877
12.8777
11.4034
11.9387
10.248
10.0487
10.7872
12.3079
13.1897
13.058
11.4249
13.5366
11.2104
12.7286
11.7971
12.35
15.8222
13.8768
14.1126
11.7792
14.8502
12.5282
11.5386
13.1921
11.3264
13.7931
11.5093
11.0245
10.4534
15.915
10.6201
11.8196
14.3992
14.4825
11.0686
10.4054
10.3842
13.0359
12.3928
10.9388
14.1753
12.1853
13.9447
10.9472
11.0079
11.5513
12.0448
9.78718
12.5236
14.8325
11.4122
12.4845
10.3157
10.595
10.7786
13.3598
11.2871
14.8818
9.67546
13.8692
13.3212
16.0645
11.2141
11.871
10.1473
12.4263
13.3654
10.7301
10.7909
17.7085
11.4234
12.36
10.6439
13.6327
11.9252
11.3272
9.35602
10.7172
10.9771
11.8222
13.3953
9.70366
12.3768
12.7162
14.746
11.1223
14.3278
11.5344
11.6431
14.1582
10.9984
10.1543
12.905
12.3071
11.4482
11.2033
12.0945
13.6062
10.337
10.093
10.9997
11.1142
14.9444
10.5134
12.8461
10.7727
12.5102
11.3106
12.9105
11.9959
11.8551
12.7935
9.93749
9.84779
12.7696
17.1419
12.3593
11.5589
13.4292
12.3086
13.3238
11.8957
10.7898
13.2063
13.3407
12.0864
12.0728
10.5566
11.8741
16.7994
12.4725
10.2788
10.9275
12.4293
11.0463
10.6999
9.8268
10.7755
13.9662
12.6107
12.712
11.0956
11.6183
19.544
11.3722
14.087
15.7775
10.6265
13.7528
15.2038
11.5738
10.2569
10.7356
12.6416
13.5746
13.3325
11.4219
11.438
11.9138
10.9441
11.4313
11.6496
10.7177
10.7432
12.478
11.4608
12.3841
10.8495
10.9776
12.2888
12.1181
11.6468
12.2437
10.866
13.3007
11.399
13.016
11.8136
10.1324
11.3987
10.8105
13.6503
12.3802
10.5698
12.2468
11.9968
11.2419
10.9806
14.279
13.0457
11.3225
14.3212
12.1722
11.0432
11.6123
11.1056
10.939
12.0556
10.4581
11.991
11.078
9.35382
12.4728
10.7562
12.8321
11.9194
10.767
11.4187
12.0985
11.8854
10.4853
10.2112
10.0342
11.4714
11.042
14.812
12.0512
10.6329
12.2105
12.9787
10.8067
11.9081
12.527
11.0936
14.0897
11.515
11.9841
11.6799
14.0013
12.7577
11.524
11.4065
11.6191
11.3145
11.7443
14.1167
10.212
9.86826
10.448
14.5543
10.793
11.7149
11.8189
13.8474
12.3436
13.0622
11.5016
13.4283
10.7874
10.8136
10.6292
12.2347
14.1266
15.7577
11.8842
15.3311
10.7234
10.1152
13.7442
10.2665
10.7071
11.8265
10.2458
11.6822
12.3175
14.6427
13.159
10.7049
11.214
12.607
10.4495
10.4629
12.1425
11.5275
10.4246
12.8856
13.9015
12.4806
12.5073
11.7119
11.8482
9.82901
14.3391
11.6796
13.4883
11.1783
12.2772
15.0544
11.6188
11.5228
12.0231
12.4193
11.0763
11.4157
13.019
11.7171
11.3025
10.8769
12.458
10.825
13.7775
11.8601
11.0209
11.6892
12.5002
11.2869
13.2339
11.7181
11.3215
10.7903
12.7671
11.8332
11.7601
11.9572
13.5661
11.6099
12.4491
12.416
13.6259
11.9771
11.825
11.1019
14.3439
10.0628
15.3866
12.5382
11.7687
13.3216
13.6152
10.2891
11.5418
11.4322
11.5666
12.1537
12.8201
9.62513
13.3883
16.572
10.4451
12.3361
12.1661
11.1235
9.92006
10.787
10.9509
10.4024
10.4807
12.3453
10.3169
9.79539
11.3951
10.569
10.8387
12.6028
10.1543
11.7561
12.7606
11.5062
10.9697
11.3524
11.9198
10.2713
9.88544
12.1512
13.0157
10.1618
10.5302
12.5795
13.8551
18.2111
11.4023
9.91322
12.2712
11.6904
10.4148
12.59
10.4211
12.965
10.6118
10.2639
12.4403
13.8654
12.7839
10.701
14.2331
10.5528
13.1254
11.8623
16.5466
11.1907
11.2544
12.3803
11.0184
10.1802
10.3086
11.7675
11.6954
11.1963
12.3023
10.5019
20.5077
12.8303
14.0056
13.6475
10.7674
12.5144
10.929
15.262
12.6626
11.8939
10.3244
11.6837
13.884
10.568
12.7736
10.6686
9.90388
14.113
10.9109
11.6362
10.5146
13.9706
12.4596
11.7787
14.2352
13.6148
14.6294
10.786
13.2312
10.8867
11.819
12.384
10.8109
11.9295
12.4177
9.94595
9.9838
10.4558
10.2009
10.4714
11.6048
11.2612
9.99754
12.5632
9.69767
11.8773
14.1715
10.8824
10.0498
11.9788
12.3355
16.409
14.1143
11.1628
12.0553
11.6339
11.837
11.376
11.2046
9.542
18.9413
11.441
15.986
13.7417
11.2613
13.0855
10.2344
9.94096
11.9321
10.9974
10.4034
10.516
15.9546
10.9496
12.4525
11.5798
10.821
12.8962
16.8068
10.6421
11.6623
13.2081
12.6525
12.8909
10.5919
12.5341
10.4711
11.5988
12.8766
11.2689
11.0982
10.3026
10.3089
12.975
10.8304
11.2845
11.316
14.9358
11.7248
11.6736
12.6412
12.442
10.6343
12.4221
11.3161
10.3894
11.1225
10.6772
11.3156
16.2387
10.962
13.999
10.0627
13.2558
12.006
12.9825
13.5146
13.4706
14.3859
13.0631
11.483
11.6421
11.8469
11.0775
11.5292
11.3434
10.1818
12.9978
14.9797
11.9589
9.89145
12.1276
11.7046
10.9595
11.5789
12.0728
13.9005
13.9349
12.7939
11.0103
12.0058
13.0617
10.1472
12.6702
10.1816
11.7706
14.2743
12.4836
10.7152
14.7523
11.2751
12.1207
12.0471
10.9954
13.1774
12.3796
13.7631
11.3527
12.6004
11.9914
9.68255
12.2934
11.7962
13.8083
11.5409
10.8693
14.3494
12.487
10.7494
11.7249
10.6002
12.4888
13.4863
12.5649
11.0832
11.1216
11.5438
15.714
10.9721
11.3033
12.1894
11.4314
10.6571
12.3668
10.9432
11.2976
12.4559
10.0345
11.4604
12.075
10.7494
10.0649
13.9409
12.4481
11.3016
10.689
11.8098
11.6539
11.8859
11.9131
11.4103
11.7152
11.3658
12.8041
10.2281
9.893
9.46856
11.6893
14.8489
11.0232
11.8774
11.1338
17.1387
11.3202
11.7484
13.8719
11.5448
14.7336
10.6527
11.3208
11.0387
10.9919
10.6326
12.1573
17.3123
12.2093
9.99925
10.9615
11.1082
11.5637
15.9525
12.4463
10.757
11.8121
10.5364
10.7609
13.4053
12.0133
9.99174
11.6747
13.1391
14.5021
13.6884
10.9798
10.5843
10.7242
11.7548
15.1419
10.9458
10.9399
10.5603
11.3992
14.8712
12.1263
13.5151
12.6059
11.4544
9.71842
12.9049
10.6634
11.3374
11.5226
11.2044
11.9382
14.3137
14.898
10.7215
11.023
12.8898
14.7334
10.6438
10.5567
12.7119
10.8367
12.3012
14.3472
12.1156
11.615
10.837
12.7676
10.0629
11.0959
11.6606
11.0869
11.6401
11.2287
13.5329
10.9626
10.5016
10.3045
12.975
12.3193
11.5927
12.6097
11.2165
14.8407
16.5711
13.3385
14.3553
10.9317
12.3556
12.3476
11.2566
11.815
10.3222
12.1009
13.3035
14.0495
10.4185
10.7043
11.5805
10.2835
14.1133
12.888
11.6969
13.3525
10.1942
11.7223
11.6713
13.4398
9.93499
12.9022
10.5287
13.3648
11.4619
12.8464
12.1616
12.7434
12.4627
13.8991
10.8044
12.2695
12.8468
13.3428
11.6051
12.2802
17.3817
13.2076
12.1556
10.4799
11.6932
10.7917
13.9797
12.6591
10.9773
13.1788
11.8141
12.3474
14.0959
12.3372
10.9167
10.6408
10.943
10.9778
11.669
10.567
12.4985
11.8447
11.1038
12.0277
11.662
12.4324
13.0657
12.3661
14.9052
9.74695
10.8974
11.2255
9.60628
12.8306
15.1725
10.8216
13.2647
12.0444
13.9463
10.8416
11.0813
10.6404
13.7229
12.8698
13.5026
11.5813
12.6432
10.6112
11.8942
10.903
12.2354
12.7745
11.3351
18.8713
11.6954
12.4142
9.91406
13.4965
12.2154
12.1101
11.134
13.6484
14.9737
11.281
10.6041
11.2367
10.4336
10.8654
13.2837
10.4923
11.0207
13.3974
13.9904
12.5408
13.2489
10.6556
12.555
11.0638
11.4256
12.6023
13.3471
9.28015
12.2564
11.255
12.9791
12.8084
11.4796
13.4276
12.973
10.2171
10.1555
11.1063
13.7016
12.9212
10.1627
10.8698
15.2924
12.5306
11.6549
13.7068
12.6811
14.4108
11.8252
13.79
9.73337
12.4233
12.5082
9.35252
11.2798
12.4537
16.5689
15.6959
10.7609
12.4953
11.5649
11.6297
14.1741
12.1931
12.9142
14.3263
11.2059
13.1197
11.385
13.0865
13.0203
11.5476
10.7215
12.4585
11.5934
13.6745
11.0287
11.8388
13.5672
10.734
14.9419
12.1613
11.4349
12.2092
10.499
11.0014
12.5301
10.8586
10.8041
13.3629
10.4953
10.3079
14.5331
13.129
11.9563
14.328
12.7497
13.9818
10.469
11.7656
11.2473
11.5501
13.1255
12.0385
11.4997
12.0656
11.4904
11.7325
13.2236
11.6582
10.213
11.854
11.5168
12.9162
11.0585
14.0021
10.4642
11.4681
11.8641
11.035
10.3256
13.732
12.6532
10.4502
11.901
12.6836
11.239
10.4015
11.1847
10.9729
13.7196
13.0364
13.479
11.0268
14.2902
11.7346
9.82526
13.4458
12.0452
11.3514
11.0806
12.9949
13.3687
11.1912
10.6925
11.1428
10.5323
13.9303
11.1921
12.1385
10.1802
13.795
12.7184
12.2966
12.6333
12.7018
13.2953
13.4597
11.6008
11.2999
12.2926
11.0328
10.9916
12.9197
12.0227
10.0529
12.2963
12.8672
11.5906
11.3964
11.7924
15.8389
11.0746
13.2561
10.708
12.0246
13.2707
10.4455
11.0689
13.0428
13.6829
12.7739
10.5207
11.8945
11.4579
11.454
10.7763
12.6161
12.0905
10.6207
12.9658
9.6812
11.5433
10.2507
10.6613
11.6662
12.3789
11.077
11.0847
11.6493
11.2097
12.3355
11.5608
11.554
12.474
11.0721
13.7122
13.2863
15.7903
17.017
11.3712
11.7053
15.3529
11.0224
13.3771
11.2362
12.8316
13.4033
10.516
11.7822
12.5594
12.044
11.4306
11.6863
13.704
12.2751
10.2387
10.7077
9.70871
11.5201
11.722
11.0424
10.0186
14.0952
11.5403
8.84075
9.7552
11.1936
10.6932
11.9253
11.1211
11.8369
12.6654
10.9005
11.1797
11.4412
10.3089
9.95679
11.6551
10.6045
11.1839
12.1203
13.704
13.1315
10.9096
11.2373
13.4778
10.0986
14.696
13.3857
11.2591
11.1405
11.3257
11.3003
12.2557
10.8775
11.033
13.5942
13.2397
10.6998
10.7326
11.7695
12.0357
12.8371
12.8592
13.4484
10.9154
12.1747
11.6176
12.1595
13.8298
10.483
11.0914
11.6949
11.7228
11.372
11.1583
11.75
11.3021
13.3055
10.4062
15.1374
10.3741
13.7439
11.2146
12.9509
12.7606
11.8524
9.99883
14.3342
10.6533
11.9468
10.1066
10.8289
10.8808
10.619
10.9329
10.3633
11.9654
10.8472
12.3699
12.0555
11.8317
10.7777
10.1615
15.5722
10.7914
13.483
14.7441
13.4634
13.8282
12.1197
11.0698
10.3558
13.0729
12.5144
11.4578
14.1591
10.1672
13.2811
11.1518
12.642
13.7051
11.3551
12.5018
10.7075
13.1061
12.5672
11.5462
13.0254
12.056
10.8171
12.9865
11.8852
9.0423
11.3076
14.4321
11.2653
9.72914
12.5525
11.4851
11.2875
11.0617
15.7702
12.3484
17.8214
12.17
10.658
12.2633
11.5017
11.578
9.85703
11.5321
11.3329
11.1213
11.7129
11.1174
11.0076
9.58379
12.3188
10.8316
12.8124
13.0152
11.8628
11.0659
14.3798
10.5127
11.5277
11.9616
13.6282
11.5396
11.3627
11.1884
12.1037
11.9995
11.6686
9.53713
11.3788
11.9789
13.8356
10.0268
11.6912
12.0259
11.7957
11.1758
13.5982
11.765
12.7359
15.3401
13.75
16.0392
12.3445
11.4719
11.1742
12.2643
13.1638
10.8564
11.7604
13.4155
13.6333
12.0065
9.98168
10.3973
10.0943
15.6238
10.7907
11.6126
13.5653
10.862
16.357
12.3017
11.0554
12.6767
9.67835
10.4615
11.1881
12.2057
13.3457
12.7932
11.6531
9.8305
13.5876
13.6693
9.40791
14.5691
10.9948
13.5665
12.8846
11.0378
10.1927
10.507
13.8909
14.1861
12.2057
15.8172
10.2339
14.9469
11.3995
13.8354
15.2767
14.7984
10.4356
12.9621
14.5742
12.1668
11.0787
10.9278
13.3253
10.5562
16.539
11.6503
12.0788
10.7389
11.4546
9.97901
11.1827
14.4025
11.4295
12.2684
12.0513
12.1845
12.692
13.4771
14.1218
9.57901
12.6528
11.4502
13.0631
12.1864
10.1724
12.0566
11.3388
13.5088
10.825
11.6036
10.7117
12.1042
12.7708
10.9822
12.9634
11.4137
13.3437
12.2937
12.2427
12.1013
12.1012
10.0996
13.1284
11.8421
13.4878
13.5438
12.5889
12.5437
13.9837
10.1748
11.9076
12.4326
9.63237
9.81112
9.65589
13.5921
10.8155
10.6249
13.8179
10.6794
11.5257
11.2313
11.5054
11.7609
10.8052
11.7963
15.4642
17.8407
10.3592
13.0366
10.2054
13.378
13.9877
16.5623
10.4872
11.6592
9.98173
11.1102
11.1668
12.0573
10.7468
13.418
11.0906
12.3005
11.6567
12.7533
11.906
13.7198
11.0103
13.2064
13.6008
11.4117
14.2858
11.6419
11.4223
12.4275
11.6511
11.0125
10.7201
11.9913
9.89638
10.9631
12.807
16.8106
12.5197
12.3288
9.91019
12.768
11.321
10.5386
10.3682
13.5024
13.6902
10.7606
10.6133
11.6319
12.1589
11.5378
11.8889
11.2641
11.047
15.5212
10.6213
10.6775
11.618
9.59268
11.049
12.1577
13.4513
11.0897
12.0791
11.7318
9.868
10.3382
12.7301
10.5809
14.4205
10.6042
11.6718
10.3317
10.8534
11.3904
10.4061
11.4055
13.1817
14.9322
10.8009
13.9142
12.9831
10.776
12.5736
11.4106
13.0936
17.2478
12.8142
12.6468
10.5144
10.4321
10.9844
10.7642
11.8058
10.2832
12.5371
10.803
11.0751
11.5686
11.5023
13.6743
11.3098
11.6683
13.3503
12.4476
10.0505
13.6662
11.6965
10.4363
12.0426
10.8958
13.5326
12.3522
13.4802
10.6736
13.7168
9.90477
11.3141
12.6448
11.6197
11.2622
13.426
12.5467
13.5921
10.8592
16.2853
11.5256
13.2917
13.4513
14.1534
11.3067
13.2742
11.729
12.5445
13.7895
14.4113
11.8846
12.1259
13.4193
13.7917
11.5384
12.6435
9.75177
9.95229
11.6744
14.2766
13.0342
12.7481
10.922
10.0143
10.657
12.7208
10.3607
15.1523
12.6017
13.4705
12.513
11.098
12.1908
11.0836
12.0005
13.9113
12.2071
11.6862
13.51
11.5378
11.8299
14.1065
13.0372
13.6323
15.527
11.5688
12.8649
12.4497
15.6265
11.8329
11.8342
11.4726
11.9067
11.1878
10.6999
12.7542
12.0396
12.8097
10.5878
10.7792
11.3522
12.0227
11.8663
11.6268
11.8078
13.9275
14.8383
10.66
11.2979
11.213
11.2379
12.4407
11.8393
13.86
14.9427
11.8618
11.8558
12.2304
11.9627
10.4499
11.0504
10.2611
12.8257
14.8055
12.1357
14.5922
13.7543
9.88556
11.9256
11.2777
10.2343
9.48573
12.3354
9.49064
16.5565
10.4582
11.2122
11.4869
13.8787
15.25
11.8236
9.97732
12.3036
11.2701
9.74306
9.81209
11.7864
11.1385
10.8567
12.4579
10.7488
11.7871
10.8248
9.88213
11.2449
12.9165
12.2948
10.2874
12.5677
12.0854
11.4149
11.5973
14.2298
10.8947
11.0211
11.1961
12.7901
9.84459
11.0539
12.0954
11.4464
13.1292
13.7546
11.8154
12.7454
11.514
11.2974
10.729
11.415
11.1557
12.047
12.6631
11.7187
12.2491
12.0377
12.7143
12.1842
11.7255
12.0976
12.2626
11.6636
11.4637
12.8419
12.4749
14.3659
15.8783
12.1604
9.89254
14.2136
11.4136
10.7709
10.6514
17.4384
12.3334
10.9544
10.4658
11.0834
12.0913
9.47082
10.1522
12.8063
11.3954
9.69249
12.5075
13.7304
11.0246
10.7519
12.1325
10.1458
11.4974
11.0465
14.8974
11.0658
13.4702
10.1789
12.6465
10.587
11.0217
11.6002
12.6822
12.3385
12.9871
9.79719
11.5855
12.1639
9.92105
12.7585
12.1563
9.75036
10.1807
12.9801
12.075
10.675
10.3162
13.181
9.8726
13.1131
11.9618
11.1257
13.1148
11.9396
11.1836
11.1843
13.2356
12.5461
10.8805
16.4437
10.27
14.4675
11.3
13.6728
12.5777
13.2837
15.0091
11.9742
13.5745
16.7324
15.4468
11.802
16.0382
11.796
10.3415
11.2938
10.4952
10.4322
11.7086
10.8811
11.4598
10.6898
13.4892
11.6946
12.7217
10.3954
16.007
12.0269
10.7407
11.1871
11.0514
10.1953
14.1807
10.7177
11.6826
10.6253
11.8725
11.0135
15.6722
12.6949
12.5856
11.8721
12.3279
9.46499
12.3039
14.1467
16.9097
11.2372
15.1798
11.6911
11.9142
11.6983
13.2895
13.4042
12.8044
13.3776
11.4967
12.1787
11.5011
10.4857
11.0705
11.5223
12.8836
12.1574
10.6655
13.1521
10.9013
12.6059
13.1043
9.62969
11.112
12.6432
11.7358
13.2545
10.2956
12.3525
14.2892
13.6637
11.9152
10.658
10.2952
12.0573
15.5687
12.0155
11.6752
11.3497
13.0309
11.503
12.2363
11.6884
10.3235
13.4622
11.0257
12.2252
10.6611
11.5273
18.3118
11.654
12.5131
12.0714
12.5469
13.6404
11.5714
10.9398
15.1281
13.7394
11.3632
14.076
12.3178
12.5324
9.0572
11.1554
13.0271
9.26192
14.3043
13.7182
14.091
10.5991
10.1516
11.9434
11.8291
16.2449
11.6043
12.1621
11.1502
12.1845
15.9296
14.1053
11.6526
13.0451
11.3193
11.7129
10.6374
10.5925
12.4973
12.576
12.0193
12.1205
10.0905
9.40297
11.0983
12.0916
12.7213
10.401
9.73694
10.8233
10.6498
13.1372
10.9741
11.6919
13.2665
12.1532
14.3398
12.8456
12.4861
12.4852
10.5542
12.8849
13.2757
10.8988
10.7951
12.7845
11.2591
10.7252
14.5199
10.4274
14.4042
11.0887
11.1637
12.3996
11.744
11.2812
10.7755
13.3832
11.9747
12.6615
11.1416
10.8229
12.4866
13.5273
10.8795
13.1875
13.0392
10.6952
11.5823
13.4278
10.407
12.3242
15.9547
13.0233
13.2558
11.723
14.0369
11.0879
13.1915
12.3316
13.1655
11.364
14.7941
10.0787
11.2802
11.3373
11.582
10.6796
11.4641
11.7673
12.5776
11.4061
12.2545
9.71843
10.2997
11.5931
12.9936
10.7547
10.8704
10.9873
13.122
10.771
11.2345
12.3931
10.465
10.0575
12.1471
12.4917
11.3523
10.8485
10.5991
13.3944
12.3385
9.77838
11.2812
11.5853
12.1994
12.6777
11.0615
13.7683
10.4359
11.0703
10.7923
12.3213
13.951
11.0471
11.3549
12.9939
13.1823
11.4434
10.555
13.6905
10.4311
10.6134
9.88356
13.0483
12.7407
11.2707
10.8073
10.8662
10.566
10.1843
12.2746
13.2501
12.6489
14.0251
11.9351
14.429
9.70669
11.361
12.3407
12.5324
10.2056
15.093
13.9321
11.8122
12.5307
12.9422
12.4096
12.9285
13.0927
14.9858
11.339
10.1999
12.6973
12.1833
11.2099
10.7374
10.0599
14.1366
10.2167
10.574
12.9534
11.4097
10.8566
11.1709
14.8289
13.0417
11.5993
12.526
10.5701
12.9552
12.2756
14.9223
13.1413
10.8182
13.2974
11.1129
13.8642
11.4824
11.6154
15.5688
11.0627
10.8478
10.3227
12.279
11.8323
12.1328
13.4472
10.4035
11.6923
10.4227
12.0482
12.2522
10.0679
11.66
14.1945
12.9922
11.4767
11.6728
11.5582
12.5014
10.5649
14.7578
14.1354
10.2361
11.9012
12.2956
12.0154
10.6753
11.032
9.84696
13.8023
14.1181
10.8101
10.3805
11.4998
15.5281
11.7703
11.0618
11.8118
13.1324
9.70694
11.2625
12.8686
11.3332
13.4814
12.9548
10.865
12.1671
10.7873
11.0081
10.4188
11.6671
11.6656
10.4731
12.8576
17.0335
10.4877
10.2198
12.7897
10.2793
11.2526
13.4731
12.1864
14.4099
13.951
13.3462
13.7629
11.9846
12.1538
10.618
12.9505
15.2116
10.8343
11.4975
11.9334
11.8521
12.6056
10.9463
10.8456
11.5789
11.3726
11.5409
12.0407
15.0234
18.2636
10.2655
10.2949
14.7955
12.7793
12.9068
15.6718
11.9893
11.9507
9.88593
15.9966
11.6681
11.3185
12.5822
12.243
11.7246
10.7666
14.4486
14.0549
12.9492
12.7739
14.4925
13.6461
10.749
10.0833
12.5515
11.7146
11.7285
10.7897
13.5281
11.199
16.2689
13.7906
11.9761
9.97625
10.8847
15.169
10.7254
11.0773
12.3708
10.2521
12.7644
11.2253
11.2683
12.583
10.4748
11.7989
12.2237
11.631
11.9952
11.766
10.7476
10.6337
12.8673
12.6
11.4955
12.3685
11.4226
14.1817
10.8364
13.0168
13.2935
11.4265
12.0942
16.0562
11.4296
14.1347
9.88831
14.9227
10.2092
13.4593
9.7807
10.0844
12.9462
13.3185
10.4788
10.9464
10.6763
12.659
13.4622
9.92936
14.744
10.8583
13.2144
10.656
10.1572
11.1779
11.4012
11.8583
10.6026
9.77919
10.855
12.8998
11.4546
12.4264
14.0359
11.9057
11.2091
9.8886
10.9919
10.7127
11.9182
15.2389
11.7095
12.7092
13.7428
11.1431
10.6151
12.4696
10.955
12.8423
12.4989
11.5547
10.7661
11.1806
17.7225
10.9423
11.428
13.5217
9.45515
10.5773
11.1028
13.1337
12.5509
10.9888
9.75392
11.5048
10.1683
9.50991
11.0494
12.8222
11.375
12.2949
11.6941
11.9963
12.9588
11.5996
10.4984
10.3127
10.5239
12.6377
12.3858
10.5453
13.5009
11.5223
10.4198
11.2362
12.3079
11.3293
9.70828
12.0054
14.3344
12.1653
10.7799
12.3549
13.9005
11.2273
13.3139
12.0769
11.0902
11.1485
9.9366
10.6939
12.0782
10.753
12.8668
11.6848
11.2966
10.8929
11.2775
11.0442
12.2524
13.2553
13.4191
12.6105
10.785
13.6033
10.7348
10.3625
11.1261
13.8826
12.507
10.5792
11.3776
11.3547
15.063
13.572
10.9314
12.384
12.0838
12.1477
14.1064
12.9653
11.7813
11.8308
10.6785
11.3126
13.3563
13.1228
12.6708
13.2822
13.2673
13.3681
13.2358
10.6498
12.3054
11.8839
11.9216
13.0997
12.0386
13.5343
12.8085
11.8008
12.1445
10.5349
11.0618
10.4212
12.4968
11.5166
11.433
12.3262
10.95
12.4173
11.2071
11.8645
11.4177
13.0075
14.7944
12.1615
10.1832
12.6381
11.924
10.2281
9.65389
10.5534
12.4213
15.5492
14.4777
13.7321
13.1814
14.3885
10.2461
11.5175
15.17
9.67776
13.4086
14.2266
12.1871
12.6943
11.5573
10.2999
12.5298
12.6726
14.2832
10.3337
10.2363
14.5278
13.136
10.2997
13.7399
10.8024
11.6966
16.8924
11.8639
12.4837
10.9836
12.933
13.5322
10.2192
10.7588
12.2425
14.751
12.5894
10.4839
12.8553
15.4649
10.5332
12.2065
11.2294
13.6501
12.8527
11.5835
11.3952
13.6423
13.3294
10.8424
11.3599
10.7299
10.934
15.888
11.1446
12.6074
11.3662
12.5287
10.7287
12.6195
11.5455
14.5148
11.92
13.8022
13.7587
11.9482
14.7978
11.0647
11.7203
12.5101
14.2924
10.6242
11.9594
9.54052
13.6192
12.1839
12.1511
10.8628
12.5397
11.1191
11.9625
12.4235
11.7214
10.3664
12.1411
12.1592
11.3906
12.1025
12.6817
10.5902
11.9378
11.4455
9.81286
12.1346
9.97659
11.4933
11.0373
11.4206
12.8526
12.6853
14.6714
10.6011
14.471
10.2333
12.1967
14.5996
14.9929
11.0908
9.71686
12.2505
12.5403
11.4068
10.642
10.6412
16.6764
11.6178
11.4785
11.2195
10.8531
14.4514
15.027
12.5948
10.1802
12.8845
12.181
13.3966
11.8103
11.2411
11.4618
9.73876
12.7036
13.5564
11.6319
12.8456
11.9974
11.4898
12.4326
11.8275
15.0243
11.1746
10.092
10.4306
11.0243
12.5995
11.9106
11.0596
11.5584
10.5249
12.9861
11.405
14.4453
12.0991
14.7567
16.639
10.3146
12.0903
12.9095
10.9306
14.547
13.4728
11.0058
11.883
12.2397
11.3327
11.5903
9.97302
13.4762
14.73
17.6585
11.9459
12.2154
12.7059
13.6076
12.9205
12.1117
10.5145
11.3786
11.5916
13.4615
11.0986
11.5526
14.6567
11.2883
12.8756
11.5793
11.5095
10.4723
11.247
10.1945
16.6083
11.0105
13.6556
13.9046
11.3703
13.9559
10.4263
9.92696
13.7483
11.3088
11.9203
10.1168
13.0691
12.7989
11.5124
14.7158
9.67433
11.8157
10.2887
12.847
13.1733
10.5545
9.54689
10.8702
11.9101
12.021
15.1474
11.0955
12.1978
12.6182
15.7381
12.8216
11.7077
10.8478
12.5381
14.1716
12.7242
11.265
11.0432
10.1502
13.7281
12.2273
12.0294
10.0338
11.7825
11.2392
11.8078
10.7979
9.26751
13.0376
12.6789
13.0881
10.2899
10.3334
13.9206
13.0752
12.0328
10.596
12.6188
10.0513
13.6369
10.0046
11.5638
13.6994
10.7538
13.3194
11.3822
9.8253
13.5331
14.141
13.245
11.5805
10.874
17.3878
10.8329
12.4002
10.38
12.208
11.4612
12.343
10.4943
11.2292
11.112
11.4898
12.0102
12.2452
12.293
12.0031
11.9427
10.2445
11.9522
11.1953
11.3667
11.6523
13.9796
13.2292
12.338
14.1306
11.6791
11.2755
12.0062
13.1197
11.0008
11.3672
11.5536
12.4608
11.4714
11.537
10.1132
10.9406
10.2473
13.6855
10.6391
10.6173
11.6999
13.8167
15.0651
12.9129
11.0007
10.559
10.3123
11.2985
11.1504
12.0905
10.8954
9.81786
10.6571
11.728
13.3006
12.4931
13.7466
14.1813
11.2198
14.1176
12.0254
14.298
11.2687
11.6222
12.7948
10.5966
11.1097
14.938
13.9154
12.0184
14.3749
14.0386
11.0304
11.4231
14.7425
11.8203
10.2576
12.5044
12.6338
11.1178
13.6283
12.4313
11.304
10.5158
13.1939
10.3976
11.186
11.5088
13.8848
9.76168
10.7536
12.2594
12.2136
11.8185
10.2814
11.853
10.9143
16.3128
13.9927
11.8704
11.4822
12.3028
11.6654
12.1201
13.5375
13.1971
11.9294
11.6719
11.8108
10.1612
10.5591
12.8265
10.9368
11.8503
11.65
11.5989
10.0354
11.8668
10.3114
10.7957
10.8913
13.174
13.3854
12.7272
15.9847
11.6077
12.7122
11.9356
10.2758
12.38
10.7636
10.7784
12.848
13.1293
12.5004
12.9435
11.5441
12.078
12.684
11.0636
11.3379
14.7743
10.3693
10.8853
15.4611
13.3851
12.1795
13.4182
13.1251
14.1613
13.2696
13.7686
10.2694
15.3533
12.6362
10.382
9.49987
14.7217
10.2244
13.0169
9.983
11.0999
11.7913
9.94791
10.6885
11.3323
12.527
11.2888
12.2216
12.2591
9.81537
12.9979
13.3456
13.8634
10.9264
13.6011
14.3537
10.504
13.5168
12.0654
12.1471
12.8263
10.9228
12.8667
9.90111
12.2951
12.6793
12.6298
10.953
14.3262
11.4707
11.4576
12.2843
11.8114
10.7568
13.2657
10.1219
12.6133
9.3136
11.5224
12.2119
10.566
12.1087
11.5952
13.0192
15.1643
10.3237
9.83435
12.8591
10.0091
14.5158
11.8892
9.58207
13.6863
13.3857
11.4968
11.2286
14.3949
11.5183
12.8532
10.137
10.6047
12.2574
11.8322
11.9836
9.91332
10.9149
10.3216
9.88333
10.9301
10.9442
11.2964
12.7779
10.3897
12.7877
12.4361
15.7673
10.2543
13.0996
11.0812
14.7537
11.8849
11.0092
11.3016
15.1856
12.5967
12.9238
9.29029
11.3521
15.1257
11.1837
12.0575
14.6355
11.8435
10.6379
11.1569
13.0459
12.7454
10.0603
12.1017
11.2947
11.2489
10.5703
11.4413
10.7398
17.3203
13.9718
9.73545
13.8693
10.7544
11.333
14.6974
12.1868
11.0858
10.5685
10.0772
13.426
12.138
11.1859
12.086
11.0514
10.3432
12.6729
11.7247
11.9479
12.1489
11.617
12.5662
10.6032
11.8668
13.2112
10.8815
10.3059
11.0696
12.0067
12.0296
13.6877
15.0871
11.8244
10.9192
10.711
10.4368
15.7135
9.51512
12.9591
10.5386
11.3462
12.4554
11.3598
11.5854
10.0083
11.4751
11.5453
14.0212
11.681
18.8927
10.9336
10.789
12.5258
10.8191
10.9056
12.4701
12.0731
10.136
10.9036
10.0349
12.72
12.0692
12.0618
12.1012
12.0714
11.769
12.4291
11.9899
12.4562
12.8625
10.0678
10.6226
10.289
11.3183
10.9489
10.744
13.5654
11.8732
11.2906
11.7505
11.0551
11.8478
14.4661
10.1699
14.5155
10.531
12.0395
12.5796
10.3684
12.8262
10.1231
10.8245
12.0097
10.8239
13.6801
15.1073
13.1903
16.5711
10.7727
12.5538
10.7559
13.5915
10.97
16.9619
13.9222
13.4652
11.9834
13.8169
12.4181
13.0889
11.4531
9.56954
12.2022
11.8823
12.4136
10.559
12.8769
12.9161
14.7064
11.7754
11.8524
9.26329
11.8074
10.5729
12.6714
11.3245
13.193
10.8782
10.2858
11.1851
12.3967
11.434
12.9601
12.9076
11.1205
11.8523
11.2371
12.8249
10.7824
17.3343
10.9462
13.1509
11.3429
12.262
12.0369
13.797
11.564
9.99342
12.1842
12.7155
13.1965
10.7115
13.5262
10.9218
14.3653
10.5489
13.031
11.6039
12.3879
12.1561
12.7381
12.659
13.1371
11.6441
13.2675
11.7928
11.8484
12.8441
12.062
9.7318
12.1161
10.6549
11.1663
11.5494
12.1785
10.6402
13.79
11.5827
12.9927
12.655
12.4384
12.3223
11.9844
11.4719
12.2821
13.1989
10.7583
11.7165
12.2383
11.5683
15.9239
13.0275
13.4741
12.9989
15.1325
14.5268
11.3448
13.4128
11.1668
11.2531
14.4761
13.0197
11.5403
12.0526
11.7315
12.1767
15.5456
11.2837
15.0258
10.5913
10.7741
10.6629
11.1239
9.8044
12.6447
14.212
12.1786
11.0896
10.9606
12.1457
11.6244
9.99442
13.3029
14.326
13.937
11.8215
10.4662
12.2622
11.6375
10.8947
11.5533
13.8119
13.9143
11.8113
14.5886
16.16
11.6061
10.7637
11.4935
10.1655
14.0026
12.3719
11.1401
10.7261
14.7232
12.3679
11.4611
11.6088
12.9351
12.5169
11.6436
12.9508
15.7839
13.2391
13.8953
10.3134
14.8828
11.9612
12.1564
10.5541
10.3653
11.2775
11.2231
13.3443
12.4771
11.9979
11.3383
11.4991
11.804
11.5237
12.3722
11.518
10.8563
11.4053
12.6632
10.5135
13.8926
12.5334
10.2009
10.5911
12.0128
11.1816
14.0974
11.9356
11.3792
12.549
11.8002
10.2068
13.5746
11.4805
10.6138
11.0779
11.6599
10.4754
10.321
12.2298
14.4699
14.8848
11.0208
11.9907
13.422
12.5613
11.6355
14.0194
12.2025
13.6437
13.0848
11.7974
11.5691
11.9256
15.4653
10.0811
9.69713
12.9106
11.1863
13.8381
10.3306
12.8819
12.5209
11.1947
12.3106
10.8504
11.8661
10.905
11.4086
12.9602
12.0299
12.5674
12.361
13.1689
10.3549
15.9299
12.107
15.9525
10.8243
11.6982
14.3232
11.2166
12.7604
10.3827
10.5035
10.8079
11.9684
12.4575
10.5591
11.3966
12.3552
11.7001
10.7164
11.2014
14.5351
14.0691
11.2468
11.2456
15.0582
10.612
13.0537
11.1249
12.0164
12.6776
11.9328
9.73871
12.0057
10.3869
12.7689
11.0256
11.7394
12.2848
12.27
11.0135
14.2692
11.7231
12.3867
10.1565
14.1921
9.53182
13.6303
10.9918
12.5159
11.7217
11.2318
10.5711
12.2812
11.7232
11.8762
11.09
10.3195
12.1482
10.463
13.4999
11.461
11.6218
11.2468
11.0556
10.2824
10.8944
11.2687
11.7541
12.8256
12.5369
10.2098
12.1498
10.0335
11.9256
11.3104
12.0565
11.5859
12.6417
15.5867
11.0126
9.8317
10.8953
10.5007
12.0498
12.0208
13.3267
12.0855
11.1299
12.7527
10.7745
11.8511
12.4347
13.2836
11.0533
10.2235
13.9568
12.5864
10.9548
11.0773
10.8089
12.2485
11.5986
10.377
12.0042
12.0689
14.0519
13.6388
10.7037
10.8057
10.7849
12.191
11.3833
11.6537
11.7255
11.333
10.7826
11.7709
13.1483
17.3427
11.1022
11.083
11.1509
12.1309
11.4183
12.7736
11.8111
13.1059
11.2381
12.3581
11.9476
11.294
10.8864
12.643
15.119
12.7653
10.6762
11.3664
13.2628
11.4869
13.4292
13.2449
10.6352
14.3108
10.9745
11.9662
11.5817
10.7716
13.1862
11.2682
9.71416
15.5331
12.6584
11.7323
13.559
12.913
14.7967
12.3623
14.1874
10.5493
14.6942
14.2105
12.7208
12.3661
13.8811
11.7041
13.0673
13.1912
13.4269
11.9187
10.4051
14.1164
10.9818
10.3862
10.7875
13.6421
11.7153
12.4627
10.2626
11.9379
10.1386
11.5377
10.6376
11.6216
10.3113
13.0378
16.6364
11.6604
11.7098
11.5148
16.5127
13.117
11.6986
12.7224
9.56047
12.0527
13.8452
12.0128
13.3189
11.8365
16.5171
10.1628
11.0456
11.6988
11.07
10.5711
12.2223
11.0408
11.7523
14.2161
11.192
11.0386
10.8822
11.5555
12.1459
13.0136
15.0365
12.1502
11.755
14.5938
11.2632
11.1191
13.4889
14.0223
10.7098
10.2845
11.2373
13.2056
12.8056
10.9758
11.5352
15.2379
11.8868
14.3684
13.3536
11.5676
11.5764
10.3212
10.4122
10.7477
15.9962
12.2537
15.0836
10.9669
14.1932
12.1558
11.284
9.34091
13.5728
11.9075
12.0984
11.9101
12.8082
10.4475
10.8041
14.1123
11.7387
13.386
11.2135
12.1351
11.422
12.846
13.6169
13.6022
10.0215
11.7819
16.7844
14.9712
12.5555
12.9268
13.3925
10.7398
16.2359
14.7005
12.8017
11.3111
11.724
13.6532
13.7662
9.94161
10.2309
11.8277
10.6775
12.5879
11.6446
10.8523
12.2724
10.7151
12.537
11.5334
13.3049
14.3523
13.742
11.6583
10.6228
10.3154
12.1901
10.5739
12.8047
10.7127
11.026
12.0397
12.7315
11.2009
10.3437
10.5828
10.4416
10.299
12.258
11.475
11.8557
11.8088
12.5629
11.2553
13.2769
12.4779
11.7998
12.5191
11.4714
11.4205
12.7882
13.5076
9.75331
13.2938
10.8533
10.1193
12.5163
11.7522
11.6283
11.3187
13.9873
11.6835
9.91308
10.4525
12.3693
10.862
11.0466
10.5031
11.5306
11.0301
13.5378
11.7605
12.4132
13.761
12.6449
11.8687
13.851
14.3807
12.549
10.6205
11.0785
12.7044
11.0335
11.884
11.0126
10.9653
13.1049
11.4166
10.8403
12.4585
10.1041
11.4576
12.3538
10.1596
11.9602
15.2846
13.893
12.0881
11.541
10.966
10.2409
11.6881
13.5701
11.7783
9.42678
11.883
11.1976
11.8109
11.151
12.3506
13.6927
12.2834
10.5462
12.1297
11.3147
12.2122
11.5259
13.2943
11.0144
11.4068
12.7049
13.7019
11.6027
13.4124
12.0149
13.425
10.0549
12.0078
10.115
11.9303
13.1826
14.7735
11.6241
12.4086
11.1954
11.3103
13.7358
11.5846
11.6039
11.0618
12.1592
10.9109
12.6725
11.7273
9.35759
13.5221
11.1249
11.2614
12.0202
12.1081
12.5357
10.6276
11.2551
11.699
10.6811
10.9726
11.0067
10.325
12.3859
10.1099
10.557
12.2393
15.1059
9.97421
12.6379
10.9865
10.1366
12.2688
9.77274
12.9414
11.2699
12.3625
12.4311
12.8669
12.2139
13.2496
13.4185
11.0083
10.8256
10.761
10.7736
10.2114
10.474
11.3855
10.7803
11.098
12.3675
13.1941
10.7763
10.8133
11.8233
10.4832
10.7862
15.6088
10.3898
14.1891
14.3598
10.9898
11.9917
13.1445
14.3251
12.4395
10.6967
10.2388
12.8538
10.7649
14.7572
19.4472
12.2777
11.105
11.3316
12.7071
12.1603
11.7029
10.5369
10.6702
11.6882
11.6193
12.1479
11.441
11.117
11.6555
10.123
10.7008
11.5476
13.948
15.887
10.6608
10.7529
11.9739
11.1462
15.4078
12.0565
13.6878
14.5227
10.2781
11.391
11.3883
11.8022
9.8243
14.8155
11.1834
13.6307
11.018
11.806
12.9581
12.1474
12.0324
13.5906
12.6931
11.4472
11.4141
14.0215
11.8837
14.6413
10.0003
10.8721
13.5803
10.3456
12.7619
15.6865
11.5362
12.9986
12.6233
10.8781
12.8511
11.6796
11.7081
13.1997
10.8101
11.3033
10.069
12.4316
12.1471
11.6857
12.2046
11.8814
11.9337
9.3166
11.1587
10.9938
11.7621
15.6694
16.759
11.7937
10.187
11.2745
11.5182
11.8986
12.0685
11.1913
11.7058
12.5766
12.2842
10.7162
12.0622
9.75247
11.6743
12.1093
9.2879
10.545
10.7263
10.8526
11.7837
11.2531
10.916
10.9656
12.5231
12.5486
13.112
11.1584
11.6684
10.1175
13.0153
11.053
11.9029
13.2506
11.1379
11.3331
10.2836
10.1359
9.81682
12.4204
11.5431
13.3285
10.689
9.84502
11.3279
12.0798
9.89351
10.0784
12.9573
12.8752
9.96581
12.214
13.3991
13.9448
10.9869
12.5177
13.4113
10.5782
13.0389
10.6145
12.6104
12.7219
11.6534
14.5265
12.9083
10.7529
14.1732
12.6358
11.6399
12.4345
11.9816
15.5953
14.0479
14.2629
12.5809
10.2382
11.2174
12.5226
9.32905
11.1501
14.9854
10.9591
9.47891
11.0185
11.9581
11.5645
13.5196
11.3454
10.4785
10.8276
10.4315
10.8573
10.9072
10.4179
13.0825
16.0091
11.4861
11.9327
13.1797
9.47782
13.1322
11.1293
13.7243
11.1311
12.0473
10.951
11.9289
13.3637
12.1471
12.9741
11.6734
11.4189
10.8258
9.67307
12.2543
11.7074
14.5889
14.0111
13.459
11.9433
11.3234
10.4245
10.498
10.6448
9.55162
12.5313
12.4386
10.6889
14.0993
10.2505
11.5157
11.6065
11.7139
11.0348
11.5663
9.92546
11.2434
12.7428
12.9039
13.4828
10.296
12.7681
10.8192
12.516
12.7725
14.3746
11.4303
14.1277
13.6327
9.66521
14.1714
12.039
14.5339
10.8459
13.5543
13.0504
10.7728
11.0435
12.051
10.7092
11.925
14.5834
12.481
11.5459
9.5099
11.1442
11.6074
12.3432
12.7495
14.3237
9.91783
10.0291
11.8776
13.7362
12.3528
12.995
13.8729
11.4947
10.4178
12.8858
10.4487
13.5899
11.8942
15.3446
12.5724
10.9879
13.5044
11.7395
12.4921
11.3731
11.0195
11.6397
10.9368
12.3813
12.4067
11.5777
11.016
14.2825
11.4289
10.5791
11.8408
11.1366
11.3175
11.0111
10.764
13.7614
10.9543
15.9232
12.3187
10.0789
12.2858
10.3845
11.6705
13.463
11.3705
12.935
13.3017
11.4581
10.8535
13.0277
10.9384
11.2079
14.6286
13.548
10.9431
9.9191
14.1467
9.84614
11.1609
11.21
10.263
11.7539
10.1756
11.6012
11.2441
11.4178
15.6141
13.3505
10.3191
11.9687
11.5614
10.1637
10.4799
11.6603
14.6437
11.2168
10.3762
9.48062
16.3929
10.6398
13.1866
11.7407
11.2448
10.6737
12.2579
15.7594
14.6406
10.3157
13.88
10.8012
9.71772
11.4965
12.7805
10.549
16.4244
14.2046
12.477
11.3516
11.1373
12.6661
11.9594
12.0634
10.8827
14.1537
12.0277
10.4952
12.6579
13.434
10.4626
11.1038
12.7692
11.254
10.3159
10.6694
12.8635
12.4384
10.0444
10.3178
11.9048
10.6608
10.6749
12.6014
13.2232
10.4813
11.3259
10.4816
11.5022
12.6355
11.5594
11.2449
11.5258
10.6562
13.089
11.796
12.2934
14.841
12.9942
12.0308
11.0167
9.32237
11.4471
11.0208
14.0223
12.0089
11.812
10.7096
16.7894
11.6573
12.4686
11.2701
12.9682
13.5174
10.9129
11.4636
14.1095
12.26
14.5036
12.5226
14.0513
12.4384
11.714
11.4465
16.702
10.7474
11.7785
11.6911
11.1259
11.3447
10.5717
12.2838
10.6301
12.2837
11.132
11.3079
10.4078
11.5139
10.5489
11.8379
10.7026
10.5484
12.3789
10.4315
12.9612
11.2457
16.5344
11.7361
13.4022
10.3903
12.9646
11.046
15.4477
10.2756
14.0802
12.896
11.2982
11.6933
10.2823
10.8675
9.65206
14.9491
12.2327
10.9809
10.5098
11.1754
12.217
10.0836
11.1222
10.906
12.0584
12.1063
10.3408
11.5853
11.0991
13.0454
15.8807
13.3891
11.2557
12.269
11.6223
11.218
12.5814
10.8404
11.2349
12.0219
13.9988
14.3072
12.76
13.9287
11.9417
11.9892
12.1673
13.4096
13.0543
12.4819
12.4773
11.5231
9.4968
12.3249
11.0025
13.0843
10.4121
9.17755
11.1351
12.5971
12.1942
17.9322
9.52938
11.1812
13.0133
11.1522
10.7814
11.0183
10.2313
12.1683
13.4656
17.3348
11.8986
11.3314
11.4714
10.7988
11.2615
13.1957
10.3575
10.9707
14.5176
10.2132
12.0873
12.4958
11.9622
11.7368
9.629
14.5864
10.5776
15.389
13.6718
10.4979
10.2638
10.1616
11.6752
10.49
16.7291
10.8497
11.6242
12.7236
11.6574
11.9333
16.6343
13.2877
13.997
13.5724
11.7619
11.8014
13.601
9.89006
11.1283
16.4483
14.2724
11.3168
13.2253
10.1099
14.2394
10.3257
11.3929
12.5165
12.0269
10.3477
10.4655
11.1946
12.5026
12.302
10.8942
14.4047
11.7674
13.2574
12.1323
11.5891
9.83568
11.8064
12.5176
12.9368
13.52
11.5894
11.0968
14.1522
18.6857
14.013
13.9471
11.4718
11.0601
10.4312
13.705
11.0713
12.0669
11.7561
10.1349
11.3084
10.0525
10.799
11.7194
13.902
11.1963
11.3195
13.7275
10.2075
11.4585
10.2468
9.97968
10.4049
11.5631
10.1296
15.5793
12.115
12.6764
13.2573
12.6678
10.3821
10.4697
13.5423
11.356
11.7402
11.5885
10.9083
10.1626
11.7654
12.0242
11.3918
12.973
11.9188
10.637
12.1351
11.7594
14.4367
12.4108
12.6716
11.6869
12.4695
10.3416
10.3207
11.8526
11.0479
11.8078
14.0796
11.5674
11.8519
10.6967
12.3336
11.3637
12.2267
13.4386
13.588
11.6035
11.5953
10.9164
11.4353
11.7257
11.7055
12.2527
14.3265
10.5526
14.7616
12.2697
12.3619
13.6245
9.58035
10.0866
12.2407
10.8825
12.5029
10.0686
11.247
12.8078
9.68883
12.8895
12.9541
12.2049
10.6301
10.3075
11.2178
12.259
11.2407
11.3273
11.9247
12.4209
14.3801
13.8563
10.199
12.6875
12.2227
13.3135
10.9574
10.9246
14.5753
11.4099
10.2647
13.8193
12.0154
15.0204
10.1536
11.7053
11.257
13.6832
10.6525
9.42835
15.3649
11.4353
13.5502
12.3496
10.9568
10.9995
14.6082
12.7711
11.2472
11.5536
11.5359
10.6321
12.2893
11.8155
13.7757
11.1174
14.8154
14.1036
10.2311
13.5433
10.1163
14.8654
10.234
12.243
10.5296
13.2452
11.3835
10.4409
12.452
12.5075
10.9523
11.4337
13.344
10.4335
13.1511
13.568
13.8379
10.6581
10.6824
11.6765
10.8137
12.1694
11.9762
11.9062
14.384
12.95
14.3323
9.3159
10.7677
13.0196
13.1455
11.9265
11.1732
12.7053
11.478
13.4521
13.1232
10.433
11.9715
11.6686
12.5274
11.1004
11.3794
9.62828
9.9575
12.1825
11.7413
10.8477
10.462
12.2154
12.1313
12.9933
12.6964
12.2847
11.4108
12.5072
11.7116
12.7054
11.9886
11.1886
13.1267
12.4342
11.3003
11.7729
13.5454
16.2888
10.8119
11.2834
11.4189
10.7908
12.36
11.4443
10.9088
11.7016
12.5677
11.981
12.954
10.6071
15.6176
11.327
12.8412
12.1184
10.8597
10.1982
13.2242
11.99
11.8135
10.7115
12.8983
12.9726
12.0778
15.2373
13.2037
13.4967
10.8137
12.9294
9.35639
11.7628
9.95524
10.96
11.525
10.3011
14.3927
12.9141
13.5439
11.9061
12.7963
13.5289
14.3938
13.1949
10.7696
11.5475
10.4076
14.5279
11.6433
11.6038
11.971
12.9676
10.7004
10.1907
10.68
11.7088
10.9874
13.882
13.094
11.5586
12.3179
13.3352
12.4791
11.6859
11.318
12.5664
14.7763
12.9756
12.3773
9.85699
14.9832
11.6244
11.5013
11.8966
12.6562
10.5428
13.0479
14.2705
12.3819
12.6563
12.8605
13.4991
11.636
11.1878
10.4821
11.9717
12.8034
11.9021
15.5064
11.8752
16.3406
13.8146
11.128
12.3073
17.1429
10.5869
11.7315
12.5455
12.6151
11.0036
11.3616
11.6312
11.4468
11.1707
12.5052
11.7986
12.4473
10.772
10.98
11.9368
11.7938
11.8656
12.5998
14.5813
13.4129
10.3111
11.3981
11.553
13.962
13.6894
10.1138
10.4969
11.2851
10.2984
11.4877
14.9645
12.7206
12.3081
11.3197
14.4997
11.1074
10.6916
11.8628
12.0843
10.8603
11.6239
10.2258
13.9493
11.1712
14.5192
11.3295
13.1476
11.4034
12.234
17.983
9.69948
10.7104
11.2946
16.0372
10.2778
11.509
14.4004
10.5059
10.632
13.1482
12.356
11.0884
10.2212
12.1486
13.7065
11.8512
13.8881
15.195
10.8751
11.9782
11.2845
14.1352
11.2801
11.3853
12.021
10.263
10.8753
12.6027
11.5013
10.8352
10.3424
10.8845
9.90935
12.9582
12.3165
11.3696
10.2777
11.9423
15.0103
12.3522
11.2886
11.1319
11.5383
11.3837
14.2517
10.4153
11.9168
11.0176
11.3349
10.6888
10.097
13.1906
11.1881
11.911
11.293
11.7033
10.9545
14.322
11.8044
11.0851
12.2274
10.4624
11.02
10.9657
12.6037
12.3342
15.0232
13.6785
12.7949
10.5435
12.6274
10.1403
12.3352
11.1783
10.705
13.5613
12.0464
11.6319
11.3458
11.2531
13.1099
14.0225
11.3977
12.3066
11.4821
10.395
12.8134
13.8154
10.4089
9.71377
12.7069
12.4748
13.1195
12.4023
12.5871
10.2729
11.7027
12.1972
10.6607
11.592
13.1184
10.8248
12.32
10.6362
11.375
11.4546
11.092
11.4156
11.9562
14.2554
12.0995
11.5299
12.3251
11.2715
17.454
11.469
12.6374
13.278
11.2502
12.3001
12.4773
13.133
12.5311
12.6927
10.9554
12.0344
14.4032
11.1761
15.7497
11.8352
10.8798
10.5851
12.7302
11.6667
15.0113
11.7388
12.7556
12.2097
12.258
10.8365
11.687
12.1345
12.1713
10.7248
14.3254
14.7487
11.0936
13.5537
11.5093
13.2638
9.34698
10.5783
11.7883
12.7703
11.8024
12.0186
12.9189
12.0574
11.6075
13.2834
12.9569
14.2678
13.1209
12.1749
15.4726
10.9494
12.6506
13.3193
10.4088
12.0884
11.2012
10.3892
12.2773
12.0549
12.2371
13.3618
13.4977
10.8546
12.3923
10.2871
10.5665
13.3916
15.1373
10.9498
12.0053
12.7299
10.8098
11.2485
12.5298
11.1954
10.0038
10.4784
12.9709
12.5747
10.4875
11.5236
12.2286
10.7575
11.3609
13.0359
10.7916
14.8222
12.0218
15.286
11.3094
13.1049
13.0546
11.5448
14.4342
13.0541
18.9636
17.5111
9.55087
12.666
10.2798
10.8768
17.7135
11.4225
13.3797
10.3035
10.6904
10.6409
12.5757
10.5945
11.3537
13.4162
10.5494
10.9841
11.5128
9.24511
13.6542
10.2971
13.4405
11.907
10.8608
11.6413
10.0745
12.3144
12.1795
11.6264
10.6184
11.3778
12.4011
12.9184
11.0605
11.5208
12.9439
10.5684
11.0416
12.9711
14.4997
11.0395
12.164
16.4232
10.8783
9.49898
10.9511
10.9974
11.8976
11.4357
11.6235
13.743
13.4194
11.7967
10.1963
11.5624
13.3074
12.8672
11.3283
13.6089
13.6846
9.872
10.789
14.7215
14.0009
10.1198
11.0857
14.0825
14.8752
11.6042
10.9187
13.9719
11.2315
14.3404
11.2377
11.0104
12.206
11.7636
13.4535
9.69164
12.565
10.4451
11.2586
11.0188
15.7087
11.172
15.9953
10.702
12.6769
14.1731
10.4589
11.525
11.9731
15.95
14.4849
10.6624
10.8578
10.748
11.1534
11.0062
11.0627
12.0363
12.7245
9.20952
12.7107
11.0425
11.5159
13.5983
11.1134
12.9064
10.9991
12.4283
10.2494
11.6924
12.3897
13.2511
11.8842
12.5658
10.3499
13.2885
13.5854
13.0243
9.81253
11.4793
16.9444
13.1506
10.8141
12.3678
10.7663
11.4639
12.9812
10.5652
11.0828
13.0776
12.6155
12.6029
13.1019
12.2029
11.6195
12.1454
14.5818
12.0696
11.11
10.7201
14.1139
12.407
12.3501
9.91267
10.3662
11.3635
10.9105
13.0435
10.5941
10.8969
10.9018
9.62639
14.2729
11.9078
10.9726
10.3815
12.4219
11.9924
12.3552
11.1945
9.67822
14.7086
10.5909
11.6788
12.9544
12.8541
13.3309
11.3816
10.5823
16.167
12.8182
10.8814
11.6481
12.6178
10.8597
15.3169
10.5194
16.3682
13.174
12.1313
12.2527
10.1772
13.1024
12.6359
10.3034
10.497
11.3033
10.6138
14.4243
12.5373
12.2694
9.5238
12.9222
10.2812
10.4438
10.3779
10.1877
14.1038
11.7187
11.2037
13.4266
13.267
10.0123
10.5785
10.9051
9.99704
12.5462
10.3443
13.0129
18.2057
11.0545
11.5054
11.3105
11.3272
10.8573
11.0696
11.7401
10.1081
12.3169
10.9972
11.8763
11.3505
13.37
11.0684
11.0766
10.4526
13.11
12.8718
11.8239
12.0329
9.97642
11.8861
12.0011
10.3214
13.6274
14.5289
10.3778
12.0188
13.4746
9.92591
10.0091
11.0547
17.9463
11.2491
13.4465
10.3016
9.86323
13.4398
13.1256
11.3723
9.25657
10.1407
10.7199
12.4853
12.075
10.5792
13.7303
12.4879
13.3963
10.7747
11.2479
13.3751
13.6916
11.6531
12.9041
10.3299
15.4556
12.0809
13.4839
11.2721
12.0895
10.7751
10.8666
12.4592
12.2254
12.6758
10.5981
12.5741
11.3
12.5546
10.3013
11.0832
13.9646
10.9523
10.9819
10.3463
10.0804
11.3391
10.8272
13.717
11.9556
10.2143
11.9028
11.3181
13.2662
13.4625
10.0619
11.8469
11.1507
14.74
11.4462
11.5873
10.1994
14.7615
11.63
13.7552
11.2712
13.4696
11.883
13.2686
10.9092
11.253
13.76
13.0745
11.4214
11.3982
12.3664
13.3672
10.9893
9.96379
12.2388
14.0787
14.5988
13.3025
11.4634
11.6223
10.8773
12.6247
12.3553
12.2951
11.4164
15.5616
11.1559
10.9512
13.1895
12.5762
12.3549
10.909
10.745
11.2239
12.1305
14.5083
11.8207
12.2476
11.1622
11.8447
10.1306
12.8823
11.7945
12.2817
11.6178
10.0919
15.3631
13.2724
9.82502
16.1215
11.4238
11.7311
13.8896
12.1455
11.4306
8.91775
12.4156
10.5163
11.4579
11.3397
18.3332
12.2986
10.1086
12.3184
12.9162
11.9618
11.4793
11.5054
9.77882
12.6773
12.9069
12.7441
10.8697
11.3626
10.959
10.2622
9.88432
12.017
11.7265
10.8451
12.6504
16.1169
11.8303
14.0832
11.4476
13.6025
14.1697
10.9403
10.3173
11.0565
10.7079
11.9693
10.1771
11.6087
11.6472
11.7716
14.5275
11.4209
11.3867
16.3352
10.3355
12.4605
11.2065
11.3949
10.5078
10.5265
13.0856
12.7104
12.4862
10.609
12.612
11.9662
13.7473
12.6473
11.1248
12.0274
10.6997
11.7844
13.9968
10.4156
12.9129
12.493
11.112
11.631
12.5247
12.6828
9.18109
11.2505
14.4451
10.1492
12.7194
11.3533
12.4274
14.731
13.1453
11.8702
11.9312
12.2127
14.6391
9.89045
14.8984
10.6541
12.1857
11.1698
12.8321
13.0407
15.4687
10.641
11.4611
11.3501
9.94812
11.7642
12.1277
11.9411
15.4009
11.3617
12.8301
11.0054
10.9795
11.6038
12.1773
11.2876
11.8231
12.5698
10.8534
11.1637
12.0851
11.4034
12.7292
12.3245
12.0459
10.4597
15.1453
11.7998
15.3797
9.99349
11.8659
11.9014
10.4092
10.2011
13.543
12.0816
10.7678
9.8922
13.8553
13.1163
14.1291
11.7869
11.038
13.7364
10.0907
10.3581
11.6828
10.5102
11.9731
13.2823
15.9383
12.8294
11.8636
13.5395
14.7012
11.3217
9.45881
11.7874
12.2014
12.0684
11.7469
11.5999
13.1456
10.3434
10.7643
11.8175
10.3758
12.0783
12.2903
11.4475
10.5917
11.4828
11.5427
13.0155
12.0689
13.2596
14.23
13.7098
11.4836
13.4581
12.396
11.8025
11.0748
12.2092
13.3152
10.4245
12.9827
11.2622
10.9339
12.9121
11.4174
12.7003
12.2536
10.4934
10.4805
10.9244
11.433
13.7825
11.335
11.6826
12.4357
11.0603
12.5812
15.8125
10.6157
13.5211
18.6563
13.2462
9.46229
10.431
10.6177
11.6201
12.7418
10.2165
12.681
11.914
11.1454
10.8892
11.8312
12.7267
11.4028
11.0476
11.5379
11.871
11.3348
11.3648
12.7023
12.9613
12.8072
13.3094
10.5647
11.7503
12.4678
16.6414
14.9001
11.909
10.4225
10.4934
13.3956
12.5442
11.9445
11.418
10.9027
11.3753
10.6862
12.8622
10.0441
11.6005
13.2445
14.0027
13.4614
11.4145
14.5937
9.9025
13.3895
12.8264
11.1733
11.3718
12.9748
12.3012
13.0806
11.826
11.9088
15.3381
11.8937
14.2128
12.0828
11.8272
11.0845
12.86
10.7546
10.9019
10.0088
12.1974
9.87493
13.5058
11.7673
11.3278
13.9128
13.1902
12.0626
10.9161
10.8885
10.7657
13.006
11.1494
11.7226
12.02
10.2408
19.1425
12.0631
12.1453
10.5078
12.4551
10.4189
10.8059
12.1002
11.8816
12.5018
11.1616
10.1736
10.6152
13.3336
11.9833
13.0003
11.9816
10.1092
10.7153
11.7521
12.7005
13.8218
11.861
10.3664
11.1157
10.184
12.6981
13.7911
12.1619
11.6243
10.2601
15.262
11.4771
11.6663
11.3235
12.4598
11.5694
14.3535
10.9268
11.9926
9.70478
11.9175
11.4385
14.474
14.2348
11.5896
11.4346
10.7176
12.3194
10.8008
11.0164
16.3647
11.1839
10.1762
10.7519
13.4636
12.1701
10.9755
12.1805
10.4276
10.5033
13.4757
10.4898
14.2464
12.8975
11.431
11.4972
11.03
12.0482
11.9271
10.4032
12.9584
12.3975
11.4057
13.3103
12.9662
11.5605
12.5913
11.0131
13.611
12.448
13.9783
12.5418
11.0002
12.22
11.653
11.8931
13.1871
12.7229
12.8882
15.5923
12.1351
12.4085
11.1277
10.9014
10.4421
13.5843
11.4798
13.0085
12.1823
11.4133
13.5239
10.5342
13.579
13.3798
11.6138
12.435
13.7552
10.3723
11.6952
12.6373
11.598
10.7588
10.7939
11.2834
11.0353
10.5072
12.2156
13.4413
10.7613
11.2513
13.996
12.6631
10.8796
14.3123
9.81233
10.2778
10.9958
12.5535
12.682
11.5369
13.7585
12.0192
11.4129
11.7569
10.7922
16.0463
12.5855
13.2334
14.3854
11.819
11.5239
12.1469
11.0503
11.8091
9.95105
10.7671
12.6742
12.2471
10.9717
11.2345
11.4191
12.8788
10.0052
10.2799
11.3506
14.9772
10.9746
14.493
15.9404
14.0547
12.2738
12.2486
12.761
11.2405
10.1601
13.2757
11.0646
12.5747
11.0972
12.5147
10.398
10.9984
13.1576
12.0278
13.6495
10.2394
10.1486
13.9535
11.862
11.5712
9.98572
11.4321
11.1199
13.4687
11.2426
11.1633
10.1859
12.5189
10.6762
13.085
17.3924
10.7645
11.7586
12.0044
11.1643
12.386
9.86133
12.0801
11.4508
10.3524
11.5189
11.1751
13.2551
11.0696
10.4551
12.6227
14.264
11.4546
10.7453
12.0316
11.3486
9.928
13.1746
10.1542
11.3017
12.658
9.77667
11.509
10.743
14.0172
12.1365
11.1932
9.97359
11.61
13.258
12.0484
12.3071
12.9691
17.5416
15.0643
10.4687
13.2535
12.736
12.6124
11.4972
12.6144
14.0563
11.8879
12.3926
12.0159
10.7442
12.6569
13.2802
11.4568
11.1619
13.5941
12.9486
15.1803
12.4331
11.4766
11.2816
13.0929
11.9033
15.2777
10.6105
12.4123
11.6249
11.7024
9.92444
13.2982
12.8675
10.816
11.8552
13.7378
10.4491
10.6648
11.8168
11.6632
10.4182
13.9069
15.4247
16.2147
8.79048
12.446
9.78659
10.6624
11.0206
11.8214
12.3384
11.9073
13.5032
11.2125
13.889
12.745
11.3485
11.3417
12.575
11.4748
11.1969
12.4215
10.2873
12.3178
11.8531
14.8309
12.8005
12.5156
11.5105
10.7067
16.5473
11.8343
14.9776
11.4131
12.2333
14.5143
14.2098
12.0249
11.7641
12.0964
11.3197
13.849
11.3139
13.0565
10.1086
11.9575
10.5731
11.4479
17.3738
11.2278
10.5017
13.32
11.914
11.4238
14.5519
10.5338
11.6425
12.7107
11.946
10.2972
11.6695
13.3226
12.2731
10.3763
11.1687
12.8467
10.7479
12.0005
10.2856
12.1069
14.0318
13.6446
12.8627
11.925
10.4055
14.8505
13.6789
11.6696
12.1519
11.8114
10.8875
12.8332
11.4133
12.245
12.5101
13.6603
12.0101
14.6344
16.2201
15.5707
10.9347
10.6844
10.2959
11.0779
11.6217
12.8019
10.4137
12.7849
12.4542
14.7151
10.4113
12.8324
12.9542
10.2053
11.0155
11.3684
10.0212
13.7192
11.9937
14.62
12.4817
11.5933
12.8126
12.0972
12.4343
11.5941
14.6094
12.5166
11.9636
14.1899
10.9959
11.6688
10.678
11.0082
14.24
12.1513
14.9426
13.4372
11.2427
11.9415
13.0785
13.3319
10.3007
12.5672
10.2152
10.3091
10.1323
13.0356
9.10212
14.5631
13.6373
11.4489
10.7095
10.8412
12.9349
11.8072
13.7813
12.6039
12.1255
12.8254
10.7572
9.88798
12.2871
12.2194
11.1407
10.2618
11.0251
12.4313
12.0955
10.1356
15.8929
14.2421
10.5911
13.1043
10.5309
9.84375
12.8867
11.2067
10.166
10.2285
13.8976
14.1727
10.8997
13.3592
15.6375
11.7798
12.1438
10.199
11.0098
12.0882
11.1566
11.8862
10.8105
12.0699
10.577
11.1187
10.6952
12.4169
9.87966
14.3641
10.6252
10.3685
10.7687
11.327
11.8199
11.6412
12.6475
12.877
10.635
16.6069
16.2501
10.5541
12.9032
11.1857
13.8651
11.1056
10.0066
12.7218
10.8113
12.0844
12.4687
12.2448
10.3684
11.6264
12.4888
9.93841
11.0089
13.2421
14.5419
16.5037
11.9629
11.4194
10.9059
9.98541
12.5455
11.3235
11.5816
14.9735
14.323
12.1832
10.6237
12.1911
13.9922
10.7115
11.8856
10.6825
10.109
11.4882
13.4176
10.6465
10.7791
11.098
14.2763
12.3978
10.8122
9.63303
10.7269
9.80922
11.5909
9.98499
12.6692
15.4438
14.4073
12.3197
15.5391
11.6106
11.4696
12.1572
11.1356
13.7039
12.5435
10.6744
12.548
11.1857
10.7407
12.5502
12.7752
10.6896
11.6829
11.1717
11.3789
10.3648
13.5982
13.2316
10.0112
14.1646
11.7364
10.3323
14.2466
12.1088
10.0889
13.7308
9.02905
11.6369
10.9375
12.5853
10.954
12.0889
12.1671
10.5421
10.9189
9.9718
15.2339
11.4785
12.1608
9.16946
9.98869
11.1528
11.8839
12.7968
11.5991
13.5946
14.0707
11.198
10.5334
10.9548
17.6399
11.6745
11.7307
11.5731
11.05
12.8876
10.2573
11.7772
10.7387
10.3638
11.8198
11.3838
10.9225
10.9775
12.0542
11.9573
13.7509
10.4038
14.7403
10.3364
11.7316
14.1264
11.0995
12.1282
10.218
11.8325
11.9794
11.5666
12.0239
11.6472
11.5974
11.5993
12.0997
11.2661
11.2231
12.5732
11.7672
11.1324
15.6277
10.972
12.0356
11.1334
11.3187
12.6898
14.1398
12.8676
14.5718
11.1161
13.1136
11.5668
12.9797
11.3429
10.308
10.2427
12.0286
12.4696
13.6407
13.0265
10.6839
9.90592
11.4468
11.3697
10.1189
15.3445
9.88323
10.9026
13.0724
11.4418
10.8025
14.6062
12.3531
12.2512
10.7214
10.9262
9.78725
17.1578
11.9563
11.2375
14.0947
10.919
11.7075
11.8157
12.053
11.2486
10.8067
13.306
9.52158
11.9189
12.7741
11.9347
12.1987
11.5491
11.0509
9.80907
10.5834
12.5441
11.2243
10.0372
13.8487
12.4036
14.3038
9.87893
13.1583
11.8411
11.4146
11.5678
11.8915
11.7687
12.607
13.0771
13.4831
11.3069
11.15
12.0997
18.3695
11.3994
11.7836
12.7075
14.014
15.9187
10.9613
10.7542
11.2459
10.1589
10.319
9.68783
13.7654
13.5436
13.0317
13.2668
11.7079
12.156
12.2666
12.7713
11.6996
12.5914
12.1718
10.3295
13.1022
11.6417
11.2421
11.7929
12.1458
11.5045
13.0083
11.1733
11.7082
10.7436
10.2385
13.533
12.9703
10.4817
11.7127
11.5422
12.3649
10.7165
13.2755
12.2142
10.7356
11.1978
9.72774
11.9428
11.4323
12.9125
10.3976
9.88281
11.4758
10.717
13.8538
10.3342
12.4053
13.6968
12.4784
10.7093
11.6944
11.9478
11.0622
10.9535
11.1788
12.446
14.8621
11.8734
9.9211
11.5413
11.6429
11.3585
12.7145
10.5259
11.5325
10.4464
11.5953
10.5163
11.2829
11.2975
12.0298
12.3524
10.3275
11.3338
11.1989
11.4066
10.6697
14.9002
11.5268
11.0434
13.783
11.6395
12.6256
13.0445
11.8981
12.1482
14.7511
11.6877
13.4075
11.4396
15.4346
9.26711
10.3556
10.8847
11.8252
11.1218
11.229
12.6767
11.0217
12.4778
10.1329
11.8343
11.5616
14.4913
12.2591
11.6726
11.1339
14.0614
12.9292
11.8
10.804
11.7047
11.5475
10.6014
10.6567
14.7199
13.5554
11.843
14.2105
12.3469
11.745
11.848
11.6891
12.6926
10.8101
12.7953
12.2389
12.654
14.5939
11.3514
11.2718
13.0507
11.7059
11.8558
10.7746
9.79861
12.8928
12.6941
13.8039
11.7047
10.7637
14.2718
12.6234
10.6577
10.6525
12.4429
11.781
11.0342
10.5153
12.5154
11.78
11.5471
13.7542
10.3829
13.4925
11.9727
15.9544
13.2564
10.2815
10.6308
11.2562
11.2936
12.7827
11.8472
11.3961
10.9637
11.5629
14.1094
10.6475
11.1917
11.3931
10.5715
13.2454
12.0554
11.0106
12.0022
13.7414
11.8627
11.2329
12.329
11.0126
12.0535
11.3769
11.6072
11.1885
11.0098
9.18338
11.9295
12.5124
12.2225
9.55666
12.2622
11.7221
11.4969
13.3422
12.0251
10.8
11.3522
12.3336
11.3023
9.87966
11.2615
12.0735
11.0141
11.2535
14.9869
10.7424
13.6728
10.2581
10.5984
13.5299
14.1871
12.1966
14.1101
15.1558
12.7062
13.2254
11.7059
13.2934
11.1556
10.9304
11.1067
13.0569
11.6628
10.4595
10.6171
12.1212
10.1737
11.4618
13.5046
11.1576
13.51
12.4767
11.7442
10.8149
14.776
11.7363
11.2074
12.3508
11.0968
11.5965
12.5197
17.6573
11.2614
11.3228
10.1474
12.2295
12.2302
10.1106
11.7088
12.1522
13.2589
13.3278
13.5009
12.1594
14.1385
11.0141
11.4354
12.9003
14.4861
11.3734
14.652
14.2194
13.1796
11.1089
12.6161
10.1762
12.7624
11.0751
14.9738
11.4284
10.8319
10.4078
12.3259
12.1146
11.2735
10.484
10.3994
13.1036
13.5565
12.903
11.4313
11.6962
11.2177
14.1767
12.0283
12.9662
13.8601
11.0952
11.7548
11.8288
12.6719
12.024
10.6535
14.7758
14.1108
12.6717
12.9341
10.9058
10.8556
11.5115
10.6869
12.2804
9.65256
11.6675
10.6869
13.0254
10.8562
10.2787
9.69265
13.3174
11.9454
10.1588
10.4079
10.3396
12.988
12.1969
12.4919
11.5289
13.6927
11.4193
12.0834
9.20683
13.8783
9.9288
11.3921
9.72798
11.5512
12.6846
13.9716
12.6047
12.9786
11.8878
11.6635
19.1487
11.5651
10.3306
12.0217
13.7347
14.599
11.5353
12.08
12.5173
10.6782
10.4237
11.7069
10.3538
11.453
12.535
11.6125
10.3771
10.332
12.941
11.7758
11.1195
10.6913
11.3928
11.2725
10.1957
13.492
12.9551
12.2979
18.782
11.047
10.9989
13.1558
11.01
11.7375
11.0005
11.7726
15.7422
11.3931
10.58
11.7585
10.9088
11.2081
11.5887
13.7844
12.9213
11.6807
13.1854
12.1567
11.6514
12.3342
12.3947
11.8492
10.567
13.0765
15.0031
10.5195
16.9394
11.8821
14.1308
11.5456
13.9414
11.2194
10.774
10.5372
9.8851
10.3255
12.6818
8.91001
9.87862
12.0346
15.9144
11.5761
12.1823
14.6919
11.7907
10.5057
14.8756
10.8955
12.1809
13.0861
10.304
10.1569
12.6248
11.4241
14.3491
11.2884
11.4954
14.416
12.0828
13.8177
10.3143
10.0907
10.5595
11.7395
13.6393
11.1767
15.2662
12.5185
10.5396
10.7153
9.99298
11.2043
13.3851
13.5197
11.0199
10.9463
10.6211
12.2303
12.3668
10.8698
10.7668
15.0491
10.7023
11.2427
11.0428
11.8192
10.7071
12.6086
11.1581
11.6098
9.26919
10.7838
13.9868
11.3267
12.4934
11.436
11.8699
10.4927
11.7657
10.7903
13.2244
11.0841
13.3776
11.8141
10.1354
11.2098
12.0568
10.3413
12.2516
12.291
14.1226
10.3366
10.2805
9.81576
12.8882
15.3989
11.016
11.6898
11.4508
10.6182
12.8625
13.2884
11.5194
11.8164
11.6981
15.1606
11.1984
12.1266
12.8127
11.8691
12.8504
11.48
13.0518
11.0285
9.83363
11.1055
12.864
10.9328
11.2714
11.5969
10.5593
11.6714
11.4514
12.7289
11.3275
10.0483
13.2469
10.9094
12.4589
12.5191
10.7977
10.2903
11.7401
10.7052
11.3411
10.3219
13.4875
11.4418
12.9874
10.0906
12.9618
15.6134
14.0868
12.2501
11.9334
12.0255
11.9664
12.8632
10.499
11.9803
10.2103
12.1769
10.6212
10.8372
10.5037
12.2774
19.3339
11.1467
10.9393
10.5845
9.35503
11.2215
11.5748
11.3694
10.8308
12.6786
16.4763
12.1787
11.342
11.7925
11.1299
13.4228
12.8782
10.3014
18.0273
13.0682
14.2012
12.5829
12.53
12.2374
10.6055
11.8731
10.3064
12.118
12.7671
12.9408
12.2572
10.5657
12.1788
11.935
10.9092
12.7248
11.564
11.4896
13.8658
11.8756
10.785
11.2089
11.0572
10.907
14.5085
13.2238
12.992
9.76211
11.6991
11.5055
13.4139
16.2562
13.0814
16.3968
12.5931
12.9169
9.08774
14.586
13.3556
12.2949
10.6264
10.8187
11.3506
10.4629
10.576
11.5609
10.3639
12.1943
11.5574
12.0145
10.6223
11.2649
13.3043
14.1052
11.6682
13.3359
11.9798
10.5034
11.4054
12.6974
13.846
10.7932
11.0896
12.0523
11.5003
12.102
10.0639
9.64744
11.5686
12.5246
10.8133
13.9528
11.4191
15.492
12.2305
12.6972
14.5616
11.5053
12.1111
13.2276
10.986
11.9124
12.5001
12.1145
13.078
11.1402
11.8803
11.0799
13.4941
12.4138
11.0331
13.7154
12.4781
10.9553
11.516
10.34
11.2715
12.6941
11.6255
12.0265
12.5038
11.6309
13.1855
15.1153
12.6626
11.0948
10.7927
10.6225
11.7521
9.56076
12.3486
11.6564
11.9233
16.7487
14.0167
10.5144
11.5738
12.0283
11.9063
12.6862
11.3822
12.0028
11.4857
12.3838
10.6721
11.5277
14.6072
10.7214
11.6983
9.24304
11.7729
11.7697
12.3106
14.3352
12.26
9.87172
10.9594
11.5134
10.7953
11.7235
10.6362
11.1746
10.6994
11.4087
10.4194
10.686
10.8735
13.0342
10.8381
11.7744
11.8245
12.9335
13.2653
10.9638
12.344
16.3478
10.4943
10.8618
11.0448
11.0088
11.1454
12.4204
11.2079
12.6045
11.9473
10.1453
10.5909
12.6106
10.3876
11.2706
12.8406
9.53812
12.133
10.0673
11.9992
14.4834
11.5769
13.8344
10.2706
11.1784
12.0626
11.4557
14.918
11.8924
12.6338
10.5923
12.3677
12.3723
15.3564
12.2898
12.7112
10.5553
13.9367
12.4048
12.1361
12.0452
11.553
12.1073
10.1609
12.2741
11.1895
11.8499
10.9896
11.3206
10.5868
12.4318
11.6489
11.4337
13.5153
12.2916
10.2943
12.5739
11.6281
13.9872
10.6342
12.9145
14.8624
11.9821
11.3392
9.81722
11.1989
11.623
12.5181
12.4065
11.0434
10.9643
10.4004
12.6622
13.0462
12.3174
11.5312
11.1696
12.0314
11.754
11.5243
10.0455
11.2389
13.38
12.7013
12.9822
11.083
10.4168
10.7022
11.6087
11.1101
9.88466
11.7966
10.8059
14.1655
10.8056
11.0276
11.0854
11.0696
9.90391
13.0187
10.3179
10.8071
10.5742
13.3155
11.924
16.364
11.4638
12.311
14.7396
13.6388
11.7458
14.8779
10.3469
11.9367
12.4265
11.8576
10.8406
12.6798
10.9885
10.0659
13.2771
11.374
12.7864
14.2783
13.1276
11.5174
14.2162
12.9623
18.7003
10.0239
11.7957
12.25
10.9848
11.558
13.5686
12.7453
10.9421
11.9628
11.5787
10.4494
13.316
12.1988
11.8617
11.7085
15.945
13.1072
12.2703
13.8575
12.4584
15.0572
10.3327
11.6359
12.6832
14.5466
11.4044
10.7875
16.2963
10.8057
11.7907
11.2148
12.9868
14.531
14.1059
14.3576
12.6904
12.8231
10.652
11.4069
11.5063
11.8294
11.3563
11.912
12.4522
15.0286
11.641
10.8381
12.186
11.1398
10.7995
12.2699
14.2791
13.0838
11.4072
12.2027
11.1369
10.5308
10.1967
11.6989
11.6768
11.3658
11.4696
13.3406
11.3732
11.0504
10.2327
11.7016
12.5744
17.3209
12.1217
9.88391
13.1629
11.9228
12.097
11.8151
14.5033
11.9158
12.9748
11.1099
12.3093
13.4711
10.2329
11.1441
13.0554
11.9413
13.3097
10.297
11.1697
10.5394
10.2142
11.8248
12.4094
14.4176
10.9909
10.0942
10.5323
12.265
10.5498
11.6334
12.1781
13.5438
14.5204
12.971
12.915
11.2311
10.9266
11.5713
10.8884
14.5722
11.5268
12.2973
11.1507
15.0703
11.9684
12.5368
11.5732
10.9703
13.5254
13.2701
11.2157
12.5402
11.0558
12.2047
10.7995
12.7737
11.5227
11.2394
13.6587
12.2246
11.2015
13.7586
14.8935
13.6851
11.9329
10.7998
11.717
10.7363
12.1467
11.6781
11.6525
12.9154
11.1746
11.7232
12.7978
11.4832
11.6613
11.5733
15.8001
14.6033
10.4879
11.3479
10.307
11.5517
12.0419
13.1545
12.2323
11.1109
14.3107
12.7505
11.4814
13.8137
10.2812
10.137
12.5572
12.2257
14.7599
12.3835
10.5954
11.8528
9.55921
12.4326
11.8633
12.7101
14.1431
11.6151
13.2201
13.1737
14.2331
11.2801
11.2481
14.0257
12.2006
9.11892
12.2302
10.9553
9.68115
13.8283
12.0585
11.2783
10.9799
13.5715
12.2974
13.7527
12.5845
14.3014
15.9527
10.3456
16.01
12.6477
10.9027
11.871
12.1214
11.8169
10.4995
11.4634
13.1453
14.1594
12.74
11.1708
10.6397
9.02612
12.1644
11.4683
12.4329
11.6616
11.9676
10.9845
11.2148
17.6895
10.6719
13.3454
11.847
12.5225
9.97669
12.5827
10.2506
11.3893
9.62516
10.7711
11.2303
11.8945
11.3022
10.7537
11.5085
12.6081
12.1526
12.4005
14.1722
12.5914
10.1959
12.3868
13.1091
13.4755
10.856
11.3324
10.1011
13.4099
10.5679
11.0421
13.56
16.1095
10.7417
11.8364
10.6327
11.5418
11.9382
11.0149
10.9838
12.0645
11.1756
12.1356
10.839
10.6991
13.4394
11.6742
11.1081
14.2666
12.1965
10.2864
12.6039
12.2387
11.8089
11.4973
12.5894
11.9562
11.3967
10.0969
11.3913
12.8909
13.0537
10.5362
10.2917
10.4291
11.4611
13.5567
14.307
14.3117
9.91248
10.398
10.3126
13.0652
13.9671
12.2015
11.1416
10.2912
13.3589
11.9625
13.7009
12.8125
12.5407
13.955
15.1856
13.1378
12.545
11.5527
12.7829
12.5275
12.8658
10.6297
9.61236
13.0873
10.5001
12.1742
10.9213
14.5326
11.4761
11.4983
11.2293
11.3591
11.1565
11.6344
10.6508
11.1453
12.487
12.5715
12.6976
10.6113
11.7199
10.2468
10.9374
12.0082
13.4246
10.9736
10.8785
11.4304
10.6945
10.5708
12.9507
11.4852
12.9582
10.2567
12.4727
10.8319
12.6722
11.2767
11.8035
8.87078
12.8613
12.2058
10.6511
12.8817
14.025
13.1611
11.2566
10.7278
12.4385
12.5571
14.0048
12.5376
12.6252
16.6889
12.1122
10.5338
10.1592
11.7153
10.9233
12.2705
11.9505
11.8887
11.2249
12.4953
11.9767
14.3002
14.0871
12.2705
11.2465
16.4084
11.7327
11.0773
13.4214
11.5005
11.8228
13.0646
12.6201
12.1599
10.6892
10.4677
11.9731
12.6431
13.2572
14.0844
16.7644
14.9807
9.84561
11.6003
10.9998
13.4373
10
12.1546
13.9218
10.7514
11.2165
9.79463
12.1844
14.4539
12.8297
12.1785
11.2492
12.6822
13.3126
11.4641
14.8265
11.832
11.5132
14.6598
9.65016
10.1608
9.96518
15.4658
10.0364
14.554
10.8695
13.5848
11.6988
9.6226
13.8404
11.4573
14.7348
11.3871
13.451
13.4648
16.1735
13.3436
12.8174
10.1269
11.1666
10.9046
11.8993
10.5177
12.6557
12.4086
14.8784
14.9081
12.8326
13.6594
11.3933
10.936
12.3318
13.0411
12.4909
13.7222
11.2905
9.6993
10.4175
9.74649
11.5475
11.9231
12.892
11.5625
12.2129
12.3525
12.2
13.7261
13.916
10.775
15.6033
11.0561
10.519
11.9347
14.0538
11.5744
13.5708
12.9286
11.1952
9.68386
10.4378
10.1329
12.9614
11.4972
10.1752
11.9991
11.3848
11.5663
12.8186
11.8391
11.4732
11.4834
11.4676
12.9427
11.18
11.2368
11.5281
11.2646
11.2428
14.2888
11.0081
17.8281
12.1806
13.4761
11.1076
10.5222
14.5647
12.368
13.2312
13.1231
11.0115
11.5232
12.456
11.7998
12.3111
11.6741
11.9642
10.7981
11.9044
10.5462
12.9327
14.2002
10.9842
10.7954
13.3902
10.56
12.9879
13.1088
12.9052
13.0322
12.8315
10.8932
10.6932
11.0903
11.5533
11.392
12.1605
12.2564
13.5321
11.8142
11.6852
12.8107
11.2488
10.1059
13.2417
10.5123
16.6458
11.8293
10.9524
12.6787
11.36
11.6748
9.62756
10.3393
10.7457
12.7914
11.577
9.23354
11.9359
10.5874
11.4779
11.3113
11.1446
9.71908
13.4211
12.091
10.0883
12.4889
12.8227
11.3088
10.9176
15.402
13.0069
11.9363
12.1146
10.3309
10.0287
15.3592
15.5081
12.8887
12.084
11.0929
10.9861
12.9467
11.4072
11.6172
11.0362
10.856
14.9869
14.0563
12.3779
12.3308
10.6397
10.4446
11.2352
12.6424
12.1078
11.0621
12.6452
11.2492
11.9711
12.1647
11.3946
12.4535
10.7569
10.9487
10.7147
10.1106
10.6046
13.5988
16.0565
10.0238
13.2108
12.516
13.2077
10.8212
12.0279
11.9003
11.1799
11.6499
10.947
10.9755
9.78562
12.3074
12.5377
10.4832
10.8195
12.0528
11.7042
12.7537
11.4484
10.9738
10.7484
11.0372
12.0899
11.0353
12.2405
14.1373
12.6273
10.7053
11.9915
12.5993
12.8187
13.0655
13.87
11.2702
11.0508
12.4005
16.0612
11.5406
17.2467
10.5156
11.4289
13.6427
14.1064
9.70309
10.7682
11.156
14.3861
12.6501
11.5949
10.9014
10.5045
10.841
10.4763
10.9332
11.6216
12.1684
11.6978
12.5516
11.4668
12.3906
11.7414
11.9065
14.502
10.9863
10.6347
11.5656
10.3838
10.1486
11.8002
11.3311
10.988
10.8899
9.3805
11.4311
11.4214
11.376
11.2038
13.2564
12.074
9.46653
14.2262
11.9761
14.1594
13.5361
15.6047
11.703
8.92663
12.1578
10.1968
11.4048
11.7874
12.0048
11.7268
14.9831
10.6639
14.2254
10.6088
12.4846
14.6977
15.8557
10.7284
18.2177
11.2953
12.4205
12.188
11.8514
11.1138
12.0665
12.6455
14.9603
10.411
10.5087
12.2134
12.5071
13.0507
11.6635
10.9643
13.7471
11.399
10.6848
11.9826
11.234
12.4441
12.0717
12.0378
13.8556
10.5468
10.7656
13.963
12.0109
11.9645
11.8573
12.014
11.874
10.8564
10.1508
13.2778
11.4584
11.4563
10.7264
13.7966
11.7022
13.0542
12.8526
11.6124
10.9857
12.3465
13.0308
11.5501
17.4914
12.4411
11.0508
11.1653
11.4827
11.7449
11.1724
10.4123
12.0025
11.773
10.4884
10.9578
12.6638
12.7366
11.2812
12.6781
11.6852
11.5107
10.9923
10.5053
10.174
13.056
13.4252
11.7644
11.2405
10.6599
10.8922
10.9334
13.6887
11.3529
14.316
14.3494
11.1878
10.7903
10.7167
10.7506
16.032
16.4914
13.357
13.0876
11.8854
9.64397
11.2199
14.6063
11.3626
13.6128
12.1455
13.244
11.628
12.5285
13.7654
12.785
11.8756
13.9889
11.8648
10.3466
11.883
12.8995
12.8078
12.4483
13.7632
13.0343
10.4278
11.8253
11.8312
13.6851
11.9183
11.5219
13.534
11.7775
12.6091
10.6752
12.1801
14.0877
15.1253
15.1327
11.3985
12.6658
12.2142
11.4688
13.3229
11.4679
11.6712
10.9974
11.0751
10.7763
11.2365
12.958
14.9511
12.7616
11.4815
10.5418
12.9234
12.7107
12.0905
11.7481
12.0211
10.3563
11.6549
10.6249
11.8046
15.0742
10.9203
11.9445
11.038
10.9167
13.2907
11.7924
14.7348
10.6412
12.714
12.6421
12.6372
13.1749
13.0644
12.6628
11.1253
11.7685
11.3588
11.3907
11.7076
10.74
12.892
10.64
11.8017
12.532
11.8003
11.3448
12.7275
10.8063
11.1843
11.0147
11.5603
10.5727
11.2368
10.9678
10.735
12.6214
12.8194
12.2341
12.9903
11.8002
11.7323
11.1811
10.2407
13.1911
15.5828
11.0163
12.121
14.1696
11.6397
11.5373
11.6932
14.137
12.4077
12.8829
11.0692
11.8225
11.9636
11.0181
10.7925
11.1759
11.7732
12.2507
11.5611
12.1678
11.6109
10.7646
13.3658
11.1481
12.2898
12.3128
11.4867
13.0242
12.5157
11.9091
11.7116
11.496
10.8625
10.8354
11.6441
10.8125
11.2345
13.0199
10.9369
14.5562
11.497
12.8809
11.9389
11.6589
10.4369
11.0861
11.7197
12.9959
11.7296
11.7279
12.1716
12.7926
11.8535
12.3031
12.9774
12.8537
12.5651
9.87033
12.1274
12.3342
11.3917
10.4644
11.7571
10.7859
13.4376
10.8287
11.6455
12.0001
11.2745
11.0869
12.3365
11.4421
12.1411
17.2025
12.4456
11.8724
11.3676
11.1028
13.2261
13.2693
13.8176
11.6764
11.3527
11.8698
11.637
12.0844
10.7066
13.0563
10.5687
13.3421
11.9364
10.7783
11.2797
15.032
12.5163
12.0018
12.4664
11.1606
12.4143
10.9303
10.4378
11.6622
11.9149
15.8999
12.2234
15.0292
12.6019
15.0083
11.8141
13.7046
12.3841
17.4462
12.0133
10.5117
9.59334
11.0964
14.1138
12.6254
12.8302
11.8541
11.5225
11.926
11.8988
8.83147
11.7877
10.8334
11.8432
11.2406
12.1154
10.6945
15.4678
13.0365
12.7367
11.1595
14.6355
11.2542
13.8821
12.0638
9.32532
13.275
12.3399
10.5681
9.40611
10.4118
14.3561
11.4946
13.2721
13.036
11.7143
16.0107
10.4099
12.1083
9.71855
10.7331
11.6297
12.5537
10.3694
14.9462
13.8344
13.0744
10.9031
14.743
12.3162
13.9583
10.3786
11.2929
11.8533
10.6739
11.2503
11.7642
13.2647
11.379
10.8502
11.4182
11.9964
10.6254
11.3182
11.6776
11.1928
10.5024
11.5229
11.4376
10.3701
11.7395
11.4779
11.7632
11.1314
11.4176
9.41025
11.9226
11.2809
12.8749
11.6163
10.9566
12.2263
10.6275
13.697
12.0318
12.4288
13.4108
12.1607
10.8265
11.6055
12.6169
13.8976
11.8686
10.6681
12.7592
11.1367
11.0568
9.75623
9.67267
10.9812
12.0198
10.4499
11.5815
11.203
10.4431
10.8295
10.7381
11.6591
11.9276
12.3462
10.9032
11.557
11.6772
10.8614
11.3427
11.5499
11.465
11.6981
11.2965
9.39833
11.4575
11.7363
12.0027
9.3071
11.8971
11.6335
11.3397
10.9134
9.8425
11.9162
11.7982
9.78738
9.84853
13.2605
12.7282
11.4461
13.1375
12.5865
11.7509
11.8333
14.8061
11.3748
10.295
10.704
10.6652
15.5264
13.701
11.7016
11.9499
16.0679
12.5575
12.6673
10.8591
12.5325
12.1526
14.613
11.5726
13.4878
14.3716
11.5915
13.931
11.1207
10.7714
11.0775
11.0378
13.096
10.9042
10.7236
11.8204
14.5551
11.3089
12.1428
14.7558
12.6272
15.1422
12.454
11.1943
13.6372
10.9129
13.3735
12.7723
12.5029
12.6514
13.2737
12.4516
11.1245
10.7141
11.186
9.97063
11.8031
13.3994
11.5895
10.9241
11.7936
12.8654
12.7937
12.4185
12.8587
10.1147
11.0777
11.8007
11.4396
10.3624
11.6348
11.5999
13.6706
13.8476
12.196
11.5159
11.0855
12.2813
11.0725
11.0608
12.4501
9.4742
10.1185
13.8611
11.3298
13.0954
10.578
10.5191
11.0767
12.6088
12.1603
10.3074
11.2684
15.1834
10.725
10.9493
10.7106
12.348
14.4628
10.5265
12.4628
11.3543
11.55
11.1214
10.9616
18.3811
12.1999
12.4304
15.6801
11.4107
11.1372
12.7343
13.7023
10.3989
11.27
11.4568
11.958
10.308
12.1927
11.5466
9.45585
13.6437
12.6859
14.869
9.86639
10.505
12.3127
10.7718
10.5632
13.0648
10.6903
11.0078
11.9548
12.6798
13.3402
11.4664
14.4939
10.225
14.3933
12.5527
11.0298
16.9644
11.4858
12.647
16.5488
12.2689
13.314
12.9314
11.7136
12.1965
12.1626
12.1105
12.2228
10.8001
10.8519
11.7037
12.0819
10.6468
13.3192
12.6571
14.0842
10.6195
11.493
11.0337
13.1248
10.8978
11.5771
11.1154
9.95591
11.8765
12.185
14.1441
12.2062
11.4
12.3761
13.5759
11.8566
12.213
12.8328
12.8176
10.3404
13.8842
12.9672
11.8819
10.6796
13.0159
11.2368
13.0062
12.304
12.1149
9.20627
11.5923
11.9279
10.6569
13.587
15.8188
12.404
10.959
13.978
10.4409
13.0734
11.3635
12.1012
10.8031
14.201
11.2835
11.815
13.0395
11.1453
11.6745
10.4028
13.2077
12.5324
10.2564
13.2725
14.2401
14.6997
10.0624
10.9184
10.7278
10.0501
11.0927
11.4271
12.4401
12.4465
12.1177
10.8372
10.8934
12.3958
10.609
12.6581
11.5962
9.58812
9.74306
13.4971
13.9639
10.7931
12.688
15.0264
10.7586
10.3786
11.9787
11.8369
9.2501
11.9859
12.5293
12.7989
12.4204
11.5714
10.8325
12.2424
11.3776
10.0912
11.5684
15.453
14.5015
11.6265
15.4986
12.1472
11.4849
11.9678
12.0711
11.0492
10.2297
11.7691
13.836
10.8841
11.8542
10.0678
10.422
10.2597
11.7296
10.4324
11.6468
11.3847
12.5853
11.7407
11.2747
13.5398
9.22194
12.0794
14.6259
11.1959
17.0407
11.1582
11.4856
18.2566
12.2486
12.969
12.1217
13.1982
12.0519
11.4363
11.3528
11.3338
11.2584
10.4114
11.9377
14.0894
11.6295
12.5287
10.1789
11.4067
12.015
10.5747
13.0054
11.4582
10.5042
12.0461
11.8107
10.2923
10.9646
11.2816
9.9448
13.2719
11.6372
14.4295
10.7949
10.5876
10.43
12.9311
13.9258
10.2877
9.08761
10.9145
11.347
11.5674
12.3784
13.2221
12.8422
12.2426
10.3995
10.4747
11.0948
14.3988
13.5491
12.6644
12.1609
11.0195
10.8941
13.4457
10.5765
10.6245
11.899
11.6242
11.242
14.1166
12.5391
10.724
12.3132
10.6095
12.3253
10.457
12.2681
11.0916
12.1106
12.1342
12.9636
13.4816
12.5315
10.2897
12.6264
10.3103
14.3655
12.1561
9.98135
11.0566
11.8776
12.2961
11.7065
13.205
11.4836
10.7998
13.2591
10.074
9.88103
14.4971
9.7304
11.2756
10.9087
12.8982
12.0954
12.0105
11.3163
10.156
10.6862
12.5992
9.98247
11.5204
13.3112
11.4649
11.3172
11.676
10.3675
11.1685
11.125
12.4326
15.2907
10.7814
10.4665
12.0969
10.0823
13.1066
16.7434
10.7692
10.8415
12.1645
12.3842
13.6484
11.0184
11.6156
12.1786
10.9351
10.4039
13.3695
11.4323
15.1662
10.4923
11.1894
11.9262
11.9664
11.8106
13.3365
11.3504
11.156
12.535
10.2314
12.2201
11.7017
10.2294
11.4661
12.6728
12.3249
11.5544
13.3229
11.4501
10.0321
11.7225
11.2068
12.6988
12.9885
13.2294
13.4092
12.9174
13.529
11.6783
10.8513
14.0074
12.8132
13.2022
11.8378
10.9929
13.4968
12.6966
11.44
13.6917
12.1046
11.7199
9.55329
11.7458
10.6118
10.5923
11.1603
11.3772
10.6795
14.2694
11.679
11.6957
11.5238
14.05
12.1105
19.17
11.1637
11.3866
13.6638
12.2915
13.3597
9.56861
12.8538
11.0378
13.1186
11.007
11.3227
13.0687
11.895
12.6946
12.3694
11.6452
10.5387
12.0481
11.8416
16.2643
15.6553
11.9922
12.2776
13.4509
13.9412
9.70573
13.4949
14.8713
10.3232
14.8449
10.5651
13.8081
10.9537
10.8226
12.714
11.0455
11.4666
11.1785
10.4902
11.36
13.6927
10.941
9.9398
9.74116
11.2643
12.5163
10.2304
11.5016
13.745
12.1819
10.8763
11.5709
10.1156
10.5657
14.4718
12.1451
12.6083
16.8091
12.8085
10.4781
11.8795
13.2881
10.5193
11.5533
13.3575
9.54287
12.9575
10.9965
11.4561
20.2232
11.4628
12.2957
15.2252
11.9218
10.7559
10.4996
11.3151
10.7605
10.8512
10.9593
13.7264
11.6695
12.2709
12.7796
10.3045
13.3951
10.5591
13.235
12.3426
11.0371
11.7914
11.9143
12.7076
10.3796
11.6247
12.1614
10.8221
11.9959
11.1203
11.243
11.8134
11.5805
10.8768
12.8157
11.6074
10.9569
10.3631
10.6104
11.002
10.249
10.0653
14.2232
13.2085
11.903
10.9994
10.4557
11.3366
12.5301
12.3893
13.0236
16.1585
12.5333
11.4357
15.1028
10.8824
11.5835
11.5356
10.8784
12.7793
11.5215
14.5416
11.5857
11.7594
10.9783
9.16713
13.15
13.7797
10.982
15.5431
10.7378
10.3885
11.1413
10.6293
11.5213
10.8864
13.3902
11.4971
13.1825
11.9591
10.8675
12.8246
11.8987
10.5227
15.8972
12.8407
10.6898
13.7716
14.8718
10.7914
11.5351
10.0596
10.1916
12.0221
11.4876
11.6487
12.0313
11.8862
11.2003
12.3212
12.9768
9.78896
10.3056
11.8928
11.8245
12.058
10.9217
11.6778
12.0375
13.1332
12.0263
19.4579
14.1031
14.5833
10.8388
13.7779
12.1134
11.5066
11.461
12.1201
13.0512
13.8681
13.2138
10.9637
13.9632
12.9422
11.0934
11.3581
13.1118
13.2227
14.4884
11.5412
12.2179
11.698
14.4205
13.8889
10.5515
12.0942
13.0434
11.0215
10.5306
9.92766
11.5025
12.44
11.3551
11.7061
13.1409
13.9239
11.8201
10.3594
13.5571
11.034
12.2654
10.3289
11.5028
11.9672
12.7931
10.3683
10.9741
11.8712
12.4063
14.9461
12.736
12.1197
11.0452
10.2926
13.5791
13.7773
13.3704
12.4827
12.8141
13.5346
14.8654
12.9427
11.1303
12.3267
12.9748
11.3805
12.4088
15.0395
10.806
12.2561
12.8993
10.5299
12.0659
11.3629
11.8818
13.9077
12.9626
11.5619
10.8562
12.6494
10.3429
12.3083
12.6437
13.0249
11.5533
10.8475
11.952
12.5352
14.6509
12.6326
11.3085
12.1613
10.8128
12.3151
10.505
10.8753
12.21
10.1153
12.6815
11.3001
12.1811
12.1059
10.8089
13.6013
13.3481
12.6812
10.8764
12.5685
13.181
12.9612
15.2626
12.0734
10.1667
11.842
12.2256
14.3642
11.8738
11.0893
11.6649
11.3308
12.2008
10.0626
11.6028
12.0499
13.5343
11.3536
10.649
13.158
11.8842
14.2362
11.8994
10.7938
15.1272
12.2248
12.8371
12.801
12.8079
12.2863
12.1683
11.6485
11.3765
11.6636
12.6486
10.6673
13.5258
11.6939
9.7189
12.2211
11.0453
12.9046
10.3204
10.3599
16.8207
10.5975
12.2202
10.6188
11.1479
11.4183
13.7135
9.9111
11.5928
11.7044
12.9476
12.0517
9.97374
12.907
13.1268
10.3882
11.5002
13.019
11.3716
10.2693
12.3912
10.8326
10.0402
12.7398
11.9768
14.6003
11.0092
13.2621
11.9896
10.3353
11.5812
10.7975
16.0758
13.2439
11.5257
10.9862
10.9773
10.9266
12.8445
14.1404
15.6501
11.8552
14.1862
12.5832
10.7866
12.7817
9.86214
11.4909
11.7435
11.6181
14.129
10.9961
12.2524
11.2116
10.6714
11.8458
12.9619
12.3648
10.472
10.2096
10.1032
15.0607
10.6719
12.1894
10.1022
12.0243
11.5541
15.301
11.5912
14.4983
10.7819
14.3451
10.7538
13.1783
10.1965
10.3493
11.6989
11.3707
11.4612
15.8251
13.1651
14.8246
11.4324
12.8287
9.46932
11.9001
10.974
10.5401
10.634
11.0684
11.6649
13.7597
16.2642
10.5625
12.158
12.2253
10.1856
11.6714
12.7968
13.7341
11.5643
10.2606
10.8431
13.3629
11.4339
13.3262
10.6861
14.6545
10.9357
10.821
16.8002
12.5983
9.47342
13.0968
10.9883
11.2281
13.1062
11.0724
13.706
10.8392
13.0009
11.5553
10.2711
12.8906
11.5671
13.5585
11.6314
9.76714
13.5898
10.8664
14.3238
13.2356
12.3888
11.147
12.424
11.3087
11.7485
13.332
11.0064
14.1805
11.1176
12.1585
12.3527
10.2683
12.6092
13.5785
11.2758
11.2056
12.8817
12.0022
12.2503
10.4067
11.4554
12.7229
12.4067
13.3365
10.7946
12.5587
10.6131
11.1679
13.6393
12.8868
12.6457
12.9649
10.7524
14.4766
10.1819
11.8097
9.83473
11.6336
11.7918
12.8655
13.9076
12.7275
12.1088
12.0021
18.9838
14.5349
15.6168
11.8163
11.451
12.0148
12.5773
9.84741
11.4323
13.045
10.9326
16.7073
13.4145
10.5049
12.4907
9.94861
11.4566
13.0106
11.0352
10.2292
12.3281
11.915
11.6666
11.2134
10.584
11.1056
12.3571
13.225
10.6565
12.5626
13.8392
9.51548
12.1346
11.3613
10.2348
9.87737
10.4142
11.0185
11.231
13.6304
12.8734
11.5271
12.7131
11.9821
11.3176
11.6323
10.4303
11.8217
11.0378
10.9144
10.1564
11.5081
13.7655
11.1559
13.9947
12.7848
11.7674
13.5728
12.7023
10.6866
10.6276
10.8488
12.8082
16.0442
12.2483
11.6811
12.23
11.2399
11.058
12.8784
12.0383
14.8665
11.6054
12.3578
12.1156
11.7795
11.8148
15.0583
11.9147
11.725
11.6992
12.4128
13.7052
10.943
12.9505
12.6363
11.8698
11.4619
11.6028
16.0166
13.6613
12.46
13.4794
10.567
15.7847
10.9328
10.3343
13.6488
11.7256
11.1764
13.129
11.222
10.191
13.3809
12.1719
15.0474
9.23726
10.8721
11.0723
12.707
11.375
11.7747
12.5772
11.9123
11.7359
10.9983
11.5817
12.9925
14.9053
12.1667
13.2176
12.4251
10.4964
14.2709
10.9856
13.867
9.83065
14.6241
11.9612
11.244
10.2157
13.2641
12.8352
11.5164
13.1576
12.7295
14.5202
11.9369
11.6055
10.7002
11.5342
12.4665
12.3245
13.3359
12.8832
11.7386
12.6654
11.935
14.4114
12.2607
11.0801
11.2426
12.7465
12.1457
12.1162
12.9832
11.744
10.0786
11.8273
11.6169
11.4798
11.666
12.2416
10.8416
10.4244
13.3279
11.3339
11.2851
13.5486
12.7817
15.1153
12.3131
12.2644
12.0952
11.4735
10.4602
14.9948
11.1663
14.3153
11.1029
10.0859
13.5166
14.6109
12.2842
11.7414
10.6983
15.8993
14.448
11.5599
14.752
10.5838
12.7782
14.2959
12.5447
11.5541
11.5202
12.2159
11.4098
9.93392
12.1923
10.3618
11.4031
11.8423
10.6526
11.116
16.2501
11.7584
10.7638
14.5189
12.3304
11.3772
15.1512
11.5409
11.5942
13.5273
10.5715
14.0098
14.6614
11.6625
10.4254
15.3903
11.7647
13.213
12.4782
9.89955
16.1527
9.95137
12.1898
10.8396
11.1486
12.841
13.9118
12.7792
10.8391
13.1343
12.9194
11.921
12.2403
12.2636
10.4045
11.1696
10.6169
12.594
13.8232
12.2074
9.81803
12.082
10.9373
12.4846
11.7604
10.3589
10.2748
11.4404
11.3118
10.2205
11.3245
10.6688
11.073
11.6299
13.5231
12.4235
13.1773
11.4911
12.8846
11.6262
12.3159
15.0096
12.6261
12.8271
13.6031
10.1574
12.3353
12.1539
14.5164
10.0228
9.87691
14.719
11.807
10.87
11.8346
14.0418
12.1027
10.9913
11.3257
14.9515
14.0581
11.1877
11.9792
10.8166
15.1316
10.1406
11.39
10.172
12.7414
12.4407
11.1342
13.4118
12.1181
10.5189
11.7322
11.4591
13.5385
11.2246
12.1378
11.3707
12.2547
14.7786
11.3048
12.1111
11.6384
11.0739
13.3236
11.9643
11.4712
12.505
13.4376
13.5146
9.74921
10.188
14.0612
11.191
10.4406
11.9987
10.0689
10.7724
12.5109
10.9136
12.8746
10.7384
12.9836
11.8782
11.7871
10.8182
10.6249
11.2002
12.3408
11.266
14.1726
12.0173
14.1582
12.1211
13.7481
12.062
11.768
12.2
10.3268
12.6618
12.3891
9.62915
15.572
13.4487
11.6357
11.5062
14.7082
11.235
17.2238
11.4824
12.4154
11.7339
13.9561
16.147
11.5644
12.9741
12.5711
13.085
14.36
11.9089
10.3997
10.3184
10.8786
14.8115
10.8197
10.2582
12.3682
12.2377
11.8855
11.7934
10.669
12.6123
11.326
10.4024
10.9837
11.5148
13.6601
13.8341
14.3072
10.7143
15.8656
10.4884
11.439
10.1509
12.4147
11.1597
11.8105
11.925
15.746
10.7114
10.7063
13.1077
12.0499
10.1362
10.7893
14.4203
12.4284
13.0332
13.0334
10.6794
12.0299
12.5318
11.0054
11.9734
10.7846
14.6945
12.6784
11.5773
14.968
11.0322
11.0483
12.2138
10.3703
11.4483
11.0251
11.675
11.4482
11.0103
11.4485
12.1589
10.0087
14.7476
10.5105
12.515
14.5464
12.9371
12.5515
11.4124
11.5935
11.7234
11.7408
11.438
10.9985
11.5605
10.7481
13.5456
11.1794
10.379
10.5902
10.732
13.2561
11.5803
11.3254
12.2333
10.7804
11.5704
14.4265
12.023
12.3079
12.1922
10.0767
12.7824
10.703
10.5604
12.2824
10.6489
15.0883
11.4017
12.5561
10.598
13.0697
10.8297
13.7302
11.6391
12.1934
15.8334
10.5772
13.0802
11.2296
11.1189
10.7206
11.61
10.539
12.2336
11.3621
10.2845
11.6225
10.1821
10.5283
12.3324
12.7622
11.6129
12.1722
11.1204
12.9033
10.7509
11.9056
11.3375
10.1437
13.1445
11.0923
10.877
10.7741
11.6503
10.5468
11.4382
12.8313
9.96513
13.4346
11.3848
11.8174
10.1045
12.2174
12.2741
11.6265
12.0735
11.7415
11.7267
12.4334
11.4837
11.6267
10.2521
14.8685
15.3816
13.0569
12.5318
13.9307
11.4995
11.114
12.5478
12.495
9.54997
13.6575
10.4436
12
10.5304
11.8859
10.48
12.0993
10.5665
11.3309
11.7914
9.4597
11.4842
15.1429
14.2215
13.2312
10.7375
10.9122
12.654
11.0205
14.5407
13.1703
11.5185
12.6456
12.0197
12.3379
13.4293
13.7662
13.9049
10.9895
10.3019
13.5409
10.9064
12.6445
17.3159
10.6043
11.8751
11.4403
11.6243
10.8821
11.9371
11.6083
10.7367
11.1459
12.7504
16.1363
12.2049
11.141
13.3488
12.5228
13.5616
13.4103
11.397
12.0896
13.551
11.732
11.6185
9.87173
12.0193
11.418
15.2192
12.2439
14.3215
10.6047
12.4431
16.4916
13.0898
14.0742
12.2279
12.8725
11.8257
11.8946
11.9037
10.2955
12.9821
14.206
10.5705
12.3616
11.4111
12.485
9.7762
11.0278
10.7804
10.3289
10.5557
10.6219
13.4809
10.6905
13.1356
13.3637
12.6395
12.8499
12.345
14.5309
11.2396
11.2339
11.6545
9.45058
15.0692
13.606
12.49
10.6469
12.2455
13.9378
11.1895
12.2633
12.1306
12.5715
12.0081
9.93611
14.2012
13.6167
11.1086
12.2871
13.1986
10.8261
12.5307
13.0901
14.0006
12.3458
11.653
16.1953
11.4197
16.416
11.1044
13.5875
11.7469
12.8449
13.4299
11.6301
13.8599
12.8934
10.4683
13.5348
10.4149
11.9164
12.1159
11.4897
12.6847
11.4589
10.4489
11.7358
12.1214
12.2577
10.2881
12.154
11.3472
11.1979
15.8929
12.653
12.2258
11.174
11.1348
11.1966
11.9863
11.9251
11.9715
9.93096
10.3135
10.7654
14.0369
10.5366
11.0662
10.9557
10.3585
10.339
11.4949
10.2428
13.6095
11.8295
14.6032
12.4681
10.8752
12.7354
12.548
9.0117
11.3091
10.8613
9.66656
13.2841
15.5032
15.3493
12.213
11.4431
11.6136
12.6321
12.343
10.165
12.3663
9.9103
12.8108
10.5388
11.175
10.8838
11.886
10.5463
15.5228
12.1878
11.9071
10.1385
13.9882
13.2149
9.82617
12.3153
14.5192
10.956
9.96171
12.6326
11.7941
11.4519
10.4459
12.8101
10.1563
11.8678
12.6594
14.1
10.4915
10.3602
11.7608
10.5082
12.3727
11.9841
9.51943
11.0078
11.7473
12.3153
10.7588
13.0693
12.8753
11.3659
12.332
12.3539
12.0031
12.0121
14.3551
11.5605
11.1183
11.7399
10.7786
10.5836
11.7868
13.0927
12.5786
12.1741
16.1138
10.3203
10.7105
12.3058
12.263
11.6107
10.1724
11.0921
10.7022
11.5674
11.7679
12.3694
10.9603
10.3847
9.90871
12.2077
11.2407
12.433
13.0953
15.6983
11.2484
9.79508
12.0708
12.3677
10.5061
14.8765
16.7909
13.0957
12.2276
10.775
12.2499
10.7422
13.5397
13.35
11.7079
12.403
14.8137
11.2708
10.7377
11.8197
11.1564
18.0404
10.8137
12.4405
12.4978
16.5113
12.3014
13.8676
13.2874
10.1101
13.6724
11.4765
14.7006
11.357
9.17866
14.0108
12.6742
10.3785
10.8277
11.961
10.8306
10.721
12.4858
10.7404
10.4834
13.5417
10.536
15.6337
13.4669
11.2952
11.1391
11.8835
11.7752
10.2652
12.4823
12.4735
14.4377
15.6189
11.0951
10.7701
10.5733
11.3216
13.8085
11.9065
11.9578
11.0121
11.3919
11.7851
13.6473
9.72476
13.9973
14.4378
12.4972
10.9689
14.7498
11.951
11.2383
13.7927
13.3464
14.9208
14.1229
11.5148
11.0523
10.3459
11.42
11.5172
12.8195
10.7775
13.309
11.0616
12.9481
10.6434
11.6086
16.1686
11.3942
10.8281
13.1295
11.9404
12.6368
12.3073
10.6544
10.3281
10.83
10.9352
11.4537
9.85046
13.3557
11.7065
11.6264
