6.047
5.73695
6.6979
7.06543
6.61443
6.44536
6.6951
6.46883
5.06286
5.04886
5.69323
6.07849
6.55448
5.22007
5.48538
5.88929
6.05602
5.42126
6.5479
5.52001
9.04513
6.12053
7.09876
7.06353
6.97419
6.50426
5.34671
6.54492
6.95414
6.01546
6.70336
6.45689
6.70813
8.40129
6.34607
5.92672
6.40524
6.02765
7.63549
5.7872
6.31226
11.603
6.0494
5.48006
5.61122
7.86039
5.72619
5.83988
6.10968
7.36304
6.26773
5.58713
5.088
6.3344
6.39109
5.31381
5.46689
6.1516
6.01805
5.10494
6.45988
6.31278
6.39386
5.74409
6.13363
5.65151
6.42257
6.51726
6.34467
5.31323
6.23628
5.15204
6.66249
5.53518
5.54413
6.41646
6.10067
6.46719
8.07788
6.02091
6.04717
6.10545
6.3969
7.3868
5.42031
5.86713
7.10585
5.91605
5.83607
6.6622
7.10565
5.87201
6.60708
5.4981
5.29213
6.2692
5.73087
5.58043
6.33278
5.73972
5.5744
5.5449
7.34173
5.70053
6.52968
6.77235
5.56136
4.96309
7.08109
6.37378
5.53237
5.73857
6.45693
5.6357
7.6072
5.54078
5.2067
7.59088
6.57109
5.74631
5.78136
6.29086
6.93044
5.90678
5.65541
5.43302
5.62522
5.55122
6.41395
5.93488
5.64263
5.57434
5.70376
7.93244
6.53496
5.76126
7.03379
5.66294
6.90651
5.75794
6.88473
5.17841
5.90402
5.86473
5.53661
8.27606
5.69742
6.52777
7.35704
6.72819
5.97761
6.8112
5.88344
6.16057
5.89113
5.993
6.51556
5.86625
6.80657
6.46798
5.76867
7.28117
7.26477
6.56137
6.10287
7.44936
5.38862
8.0657
6.37521
6.02251
7.28647
7.54744
6.64871
6.03828
6.32505
5.53006
9.61271
5.17826
6.02335
5.83208
6.4236
5.28471
7.08675
5.96498
7.12791
6.47538
7.33373
6.02126
6.74942
6.30376
5.61632
7.64867
6.93943
6.97826
6.50918
5.98797
5.76442
6.91793
6.02303
5.39239
8.81478
5.42383
5.03925
6.90235
6.02626
6.89462
6.16819
7.00895
8.0407
6.45274
6.51088
5.90079
5.64337
7.43275
5.89967
6.42573
6.00012
6.63949
5.96521
6.16221
7.12144
5.70787
5.35086
6.80732
5.90809
5.63535
4.99317
6.74371
6.38665
6.84471
8.80868
8.00454
4.71175
7.73475
6.60148
5.0395
6.28702
6.21062
5.92236
6.94489
5.68724
7.73269
7.05252
6.20348
6.20892
6.01866
6.49753
6.63667
7.53243
5.94992
7.36057
6.30051
9.46458
7.2796
4.88153
6.68605
6.95439
6.00875
6.57494
7.36098
5.33736
7.14539
5.46917
5.41329
5.7047
6.93245
5.30216
6.8528
6.3037
6.81403
5.85214
6.77223
7.83216
6.12848
6.14908
8.2824
5.48589
5.74233
6.79619
6.2119
5.89764
5.48897
5.94127
6.39692
6.16986
5.75017
5.95018
7.30182
7.95343
7.66511
6.33903
6.1161
7.13981
5.95983
8.90476
6.23992
7.07046
6.04549
6.66994
5.63711
6.29772
5.29783
5.88823
5.21793
6.1651
6.88824
6.58866
7.34155
5.49156
6.27726
6.25268
6.25074
7.96032
5.28642
5.68908
5.37009
6.9387
6.21291
5.70694
6.20088
5.32419
6.53393
6.1821
5.87959
5.73101
5.22394
5.79508
6.09876
6.37333
6.82733
6.10671
7.13502
6.22113
6.78066
5.37677
5.90405
7.5813
6.94514
7.89073
5.4303
6.44085
6.18044
6.7799
6.04034
6.47426
7.54009
6.41139
6.95794
5.78535
7.30455
5.06332
5.75795
6.90455
6.66956
6.18131
5.88927
5.16233
6.81683
7.3879
6.69956
6.03511
7.41378
7.27623
6.20153
6.17619
6.48081
6.22016
6.17039
7.03013
6.75489
7.42151
4.94623
5.30179
7.19736
5.79344
5.81277
6.6716
5.17949
6.48367
5.91617
6.04596
6.20992
6.19899
5.2759
9.69646
6.28762
5.44791
6.00528
6.54795
5.68617
5.54103
6.3861
6.91527
8.42893
5.49231
5.42817
7.62293
5.44483
6.76218
6.55225
5.87267
6.76295
5.58415
7.97024
7.24758
6.93554
6.59524
7.55923
6.33117
5.86932
5.79742
7.8331
5.07141
5.49299
5.25232
6.27744
5.80209
5.89382
6.50071
5.90866
6.36678
6.1936
5.77894
5.57279
6.32106
7.61496
6.42407
6.18891
5.10583
6.60119
4.85441
6.06963
6.70198
6.23396
5.46833
6.88737
7.53094
5.84022
7.09327
6.5756
5.624
7.03637
7.62558
5.30683
6.07672
6.34778
6.05729
6.06834
6.51256
6.52267
6.54846
5.88316
6.47685
7.22005
5.81794
5.29914
7.83553
6.53681
6.20528
5.68268
6.66493
5.27911
6.03641
7.96368
7.26057
5.55144
5.99982
4.98715
7.23546
7.17808
6.68134
5.86864
7.05827
5.42265
7.60586
6.31211
6.4951
5.77156
6.23312
7.02273
6.92441
6.1086
5.51415
6.32068
6.4473
6.09452
5.53996
5.76194
6.46821
6.31521
6.10592
7.94616
7.22359
5.38996
5.41097
5.07052
5.49988
5.39895
6.80914
4.85263
6.2614
7.1817
5.39491
6.02686
6.91961
5.17252
5.77286
5.46867
6.76346
6.09113
8.59407
6.39421
5.51636
5.78916
5.71124
5.26918
6.11814
5.98706
6.05428
6.0479
5.49181
6.5189
5.30982
6.93844
8.52484
6.65775
6.0899
8.052
6.49699
5.87272
5.75275
6.98705
5.88356
6.23573
7.53656
5.41865
5.76635
9.69239
6.97743
5.88742
6.03273
6.59362
6.032
9.26203
5.87743
6.93013
5.93219
6.3094
6.10293
5.8036
6.87502
6.55221
6.9987
6.47658
6.54075
6.4306
10.5387
6.42748
7.28469
6.17921
5.6219
6.51267
7.10033
6.11027
5.47253
5.42869
7.90271
5.99649
5.60566
5.6273
6.10662
6.45989
6.04559
6.15274
5.40419
6.27786
6.19142
5.47314
6.42283
6.65997
5.85546
8.44761
6.43064
6.5152
7.51278
5.11079
5.81586
7.93165
5.5218
5.48125
8.3629
5.70954
6.99149
5.66798
6.24948
6.04924
7.02721
7.2669
5.90817
6.02976
5.18073
6.35695
6.53978
5.92576
6.24852
5.48594
5.55106
7.09976
8.25648
6.48624
5.81104
7.04697
7.32497
5.69932
6.84253
5.83762
7.20201
6.01281
6.62311
5.65228
5.52903
6.06238
6.13432
7.06968
6.70385
5.22728
5.43811
5.41961
6.01401
6.59643
6.66158
5.72586
7.50491
5.16808
6.66217
6.09281
5.68613
6.09115
6.00968
7.12898
6.31612
5.83289
7.28732
7.53406
5.54625
6.70159
6.80188
6.4355
6.42782
6.13513
7.61171
6.13558
5.79373
8.18871
5.3714
5.93517
7.00297
6.11947
5.76527
7.32092
5.1399
6.23056
6.04515
8.22904
6.38313
7.88823
5.67944
5.62004
6.40896
6.85966
5.90594
5.70613
5.04891
6.06317
7.32648
6.2156
6.55945
5.36987
6.63955
5.19709
5.42475
6.53858
5.63828
5.96821
7.65803
6.16878
6.61643
11.5982
6.30159
5.7449
6.21422
5.97323
8.39523
5.15847
7.58569
6.56261
7.64253
5.63908
7.64465
6.89236
6.0057
5.43986
6.06222
6.34809
6.54867
5.95023
6.97597
5.7598
7.24405
5.06014
6.44329
8.53623
6.32036
4.81125
5.34191
5.8601
6.6095
6.93193
5.88692
7.37688
6.75799
5.72945
5.7958
5.22045
6.28224
6.42117
6.19631
5.97621
6.3251
5.83105
5.81662
6.44165
7.47504
5.74768
7.06297
6.08378
6.37111
5.7987
5.91437
7.92229
5.9739
6.21997
5.2677
5.62027
6.17597
6.88406
7.9902
9.51856
5.71872
6.95138
6.82512
5.29857
5.29455
5.65899
6.16289
6.25083
6.88646
7.65561
6.25279
7.5192
6.10243
6.78023
6.01915
8.61393
5.49267
6.0942
5.70298
5.34552
6.56502
5.33587
6.11384
7.75947
5.58624
6.51744
5.62142
7.265
5.87337
8.12495
6.28046
6.26127
5.62877
6.48374
6.1053
6.08752
5.4414
6.25453
5.6042
6.56382
6.43598
5.89791
6.28443
7.03841
5.90664
7.0112
6.74876
8.0423
5.77408
6.49327
6.41587
6.84808
5.88796
6.14112
5.56965
5.80224
5.36187
5.80507
6.47531
7.11833
5.32958
7.25323
5.78877
5.63916
6.03028
6.49199
6.21907
6.36466
6.02889
5.50203
7.0901
5.9343
5.58532
6.4745
7.38745
6.11393
5.39765
6.4336
6.1464
6.02048
7.65207
7.70175
8.22522
6.4743
5.82279
6.23031
6.39098
5.57846
6.25253
6.51813
7.74216
6.35773
6.16302
5.50323
5.67002
7.4441
7.41454
5.77253
5.88322
5.41216
6.67587
6.28379
6.25934
5.60721
5.74085
5.63947
6.92064
6.00461
6.4281
6.28831
6.78304
5.93698
5.48395
5.56647
8.28936
5.95036
7.11564
5.54147
6.20527
6.54778
5.64044
6.21684
6.93289
6.43052
4.95457
6.59347
5.25171
7.25182
6.54341
6.76894
5.80265
5.51448
6.47342
5.93403
7.35843
5.826
7.30405
6.32356
6.36552
6.95361
6.50547
6.02023
6.86152
5.72732
5.42412
6.21046
6.53598
9.79919
5.91987
7.43324
6.77203
6.92145
5.64264
7.04916
6.37372
6.03163
5.59955
7.2688
7.83324
5.79574
7.20677
5.78864
6.20792
5.35012
8.36693
5.43603
6.60758
5.83612
5.46045
5.55388
6.46756
6.40809
6.98503
6.78534
6.2209
5.08333
7.40277
6.01696
6.30909
5.56673
5.50101
6.65673
8.23585
6.06009
6.30718
6.00622
6.22373
6.20858
6.10893
6.33701
7.57446
6.1264
7.36351
7.00734
6.4257
5.26026
5.48146
6.46788
6.63785
7.41511
6.38164
5.40276
5.12664
7.36066
5.89505
7.08577
6.78006
7.15805
5.22198
5.59912
6.54098
6.76698
4.96959
5.92078
7.1501
6.4745
7.51037
6.40929
7.44572
7.17271
6.48949
5.80401
6.10258
6.36889
5.00884
6.28955
5.87644
6.10795
5.59449
5.591
6.09934
7.33751
8.20801
6.04685
6.14768
7.31813
7.89838
5.63329
6.38969
5.96889
6.08602
6.52323
5.34881
6.30455
7.69201
7.65771
7.6751
5.28928
5.73189
6.34645
6.20962
7.11111
7.62521
6.56233
5.79727
9.34043
6.48521
5.90407
7.3241
6.67587
7.44117
5.70101
6.76912
8.19534
7.26894
6.14132
8.22141
6.27009
6.2006
5.19118
6.20017
5.36769
6.54558
6.32408
7.10469
5.9538
7.15005
5.52521
5.88008
7.04233
5.74568
5.43892
7.12318
5.54128
7.07807
5.83688
6.16824
5.18725
7.01207
5.82861
7.36995
6.23983
5.6816
6.66778
6.26951
7.36153
6.83134
5.67502
7.82404
8.70063
5.33691
7.09221
8.41378
5.08772
6.34026
5.63245
5.69677
7.47967
8.14649
6.07619
7.46785
5.96908
5.96725
6.24264
6.87855
7.26169
6.18218
5.67698
6.2346
5.10457
8.33237
6.75378
5.75065
6.55143
7.18391
7.06003
5.65604
7.41553
6.28036
6.32409
6.07077
6.94194
5.69172
6.50392
6.0986
6.23461
6.74626
5.65653
6.59458
6.24736
6.67237
6.19156
6.33013
7.9181
5.82317
6.56273
5.53734
6.53272
5.86879
5.0249
5.93873
6.64668
6.92246
6.26684
6.08363
5.9258
6.37513
5.4891
6.70014
5.65905
6.97387
5.46966
5.75096
5.60044
5.6974
7.13764
4.76032
6.34724
6.82095
5.57354
7.4333
7.53021
6.77318
5.82838
5.70158
6.86231
5.29315
7.28897
6.16904
5.44749
7.3503
6.51895
5.81444
6.09697
6.03204
6.5511
5.56614
6.88609
6.6844
7.28896
5.93211
6.10917
6.46891
6.90961
5.5175
6.10924
6.35721
7.66185
7.08458
6.85594
6.57769
5.29585
6.36716
5.95488
6.94198
5.49999
6.93945
6.1351
5.99043
6.63193
6.93233
8.27903
5.93559
5.48447
8.68329
7.83596
6.78479
6.42185
5.56326
7.34828
6.01142
7.20141
6.74827
5.86938
6.0731
6.26132
6.10888
5.51993
7.3342
6.6903
7.02929
7.10374
5.51077
5.97361
6.23171
6.81283
5.25301
6.70606
5.61448
6.2536
6.36381
5.97526
7.38762
4.9925
7.10582
5.90631
6.63631
6.20847
6.06815
6.19862
6.07867
6.3679
6.1071
8.5391
5.1894
6.73548
6.23459
5.13234
5.16539
7.90916
5.59027
6.29824
6.9085
5.6362
5.90316
6.53069
5.52482
5.74993
5.91866
6.95537
4.94567
8.84146
6.64851
6.56825
5.71112
5.66339
6.73265
6.32472
6.37255
8.64229
7.03682
7.43964
6.0777
5.46039
6.34371
5.80054
7.68576
6.75278
6.30753
6.44289
7.03906
7.92567
5.80968
5.62693
6.78517
7.27106
6.0217
5.72408
6.24731
7.3668
6.41463
6.793
5.44047
7.05146
7.04912
6.41396
7.35493
5.89984
6.54474
6.37043
6.33511
7.43952
6.50325
5.66379
6.39333
6.26441
5.38152
6.31833
6.60726
4.96486
6.7501
6.20586
6.29961
5.79094
6.78714
6.12358
6.18691
5.93949
6.5352
6.15307
6.0204
7.18895
5.35448
6.19628
6.97032
5.67596
5.50236
4.93829
5.26963
5.9799
5.89634
7.20934
7.17075
5.67423
5.79131
7.93931
5.94647
4.8122
7.24507
6.10665
6.20168
7.42492
5.51743
5.79868
6.64354
5.70397
7.45653
6.16924
5.99876
6.8596
5.55396
5.82071
6.38472
7.02369
7.60118
8.8028
5.48624
5.53217
5.43435
6.05325
5.89439
7.26688
6.0211
8.30991
9.35188
6.63787
6.36122
5.99598
6.96546
6.61961
6.81103
5.54569
6.61292
5.3674
6.0618
5.55257
5.39154
6.70873
6.63624
4.89286
6.5984
6.78431
5.67579
6.57322
5.69502
5.21502
6.3962
5.69313
6.02697
6.84993
6.13735
6.5355
6.42508
6.67122
7.57761
5.64352
5.15335
7.55556
5.90885
5.50583
5.25
6.16159
5.87537
6.86301
5.76538
5.42163
5.57607
5.6698
5.77598
6.00175
5.37888
5.85915
5.95206
5.65556
5.49807
5.35353
6.20437
5.85653
6.14679
7.57725
7.01333
6.6853
6.46534
5.74669
8.42904
6.44859
7.32117
5.89905
4.74824
6.81461
5.8402
6.609
5.41468
6.46205
6.923
6.87909
6.61842
5.77074
6.20862
6.6527
7.39286
6.06929
5.71478
5.60607
5.80556
5.55975
7.24511
5.73066
6.2478
5.78208
5.76732
7.36117
5.60049
4.91291
5.07559
7.00585
5.57104
6.60037
5.67779
6.02238
5.459
5.36457
5.9129
8.08105
6.08802
6.07282
6.20407
6.2819
5.00381
6.30051
6.49111
5.52763
6.67806
5.9797
5.15381
5.41654
6.65742
5.85272
6.31364
6.65173
5.84499
6.95387
6.21349
5.47566
5.28406
5.96437
5.76219
6.31115
5.57999
8.07723
7.42562
5.35263
6.25382
5.84709
6.70039
6.0309
6.1463
6.85456
6.70112
6.52326
5.57321
7.60254
6.31045
6.36673
5.4592
6.33412
6.18207
7.12028
6.55493
5.964
6.38744
5.34817
5.73562
6.17342
6.61223
6.51248
5.73084
6.25643
6.27013
7.32327
5.88575
6.81524
5.31482
5.25576
6.07959
5.63389
5.99115
6.01282
6.77635
5.2301
6.27132
5.90706
7.87924
5.56714
7.64616
6.0057
5.7821
6.51616
5.92747
6.0696
5.72213
4.92916
6.23348
5.7668
5.8936
6.04348
5.35924
6.29556
5.66794
5.78728
5.43094
6.0535
8.39188
6.22234
5.48006
7.40059
8.33203
6.71812
5.8501
5.70898
6.09044
8.74836
6.42024
8.31294
5.64964
6.00618
5.32409
7.42394
5.51452
6.661
7.4351
6.58835
6.07043
5.18648
7.90319
7.39413
6.44628
5.61987
7.01373
7.86473
5.67129
5.5889
5.72502
6.41485
5.46729
6.61843
6.43112
7.02321
7.78571
5.90338
5.85908
7.49124
6.9594
6.38185
6.53159
9.83137
6.86392
6.82848
5.92468
6.41878
5.33244
5.66545
7.32037
5.42413
5.8115
5.35612
6.1564
7.2418
6.05796
7.33866
5.71591
5.68262
5.48247
6.72123
6.24254
6.36293
6.3125
5.00032
8.09309
6.5957
8.65553
6.29173
5.59154
5.83502
6.83902
5.29744
6.22895
8.38395
5.7008
5.99382
5.84489
5.2786
6.1905
6.14597
6.27352
6.27432
6.35356
5.67391
6.38848
5.22872
5.69538
6.72064
6.09036
7.34884
6.19451
7.16989
5.63876
5.97723
6.46873
5.07555
6.94072
6.75014
5.72792
5.55527
4.94566
9.06996
5.60804
6.82878
5.80065
5.93652
5.87394
5.74489
7.34897
6.3064
6.63031
7.54883
6.74821
5.4352
7.08867
5.44857
6.47361
5.66845
6.11157
6.89521
9.02968
5.22219
6.09006
7.44963
8.86127
6.52772
6.17321
6.35382
5.40964
7.22534
6.13029
8.75841
5.87207
6.02887
5.95841
6.68331
5.7614
6.4536
6.58421
6.06833
6.14312
6.28248
7.4951
6.44355
6.74038
6.84689
5.64381
5.47957
6.54801
8.43101
8.32266
6.37021
5.81165
6.19289
5.68583
6.28375
5.8389
7.83778
6.60332
5.98108
5.27347
6.99111
6.35794
5.45814
6.51484
5.50582
6.50772
5.272
6.10677
5.17195
6.30026
7.23221
5.59746
6.32189
6.05276
7.57806
6.66776
7.34161
5.95236
6.02781
6.70562
5.48751
5.61203
7.22208
5.7997
5.89037
5.62972
7.49166
6.14817
6.27153
5.03881
5.80148
6.17415
7.20511
5.25295
5.85239
7.48159
6.22508
5.78875
5.3242
5.98513
6.78732
5.79438
6.13851
5.42965
5.61186
6.45729
6.07301
6.6857
6.44386
7.00129
6.27078
8.37907
7.57339
5.79244
6.95941
5.21514
7.44455
5.74099
7.96735
5.18055
5.9133
6.73896
6.55031
7.96655
6.25449
5.62841
5.98658
5.11016
5.75507
9.69348
6.27691
5.63487
6.33466
7.27018
6.35235
4.91844
6.25955
6.49814
7.13185
8.0712
5.99899
5.23362
5.9749
4.97882
5.79743
5.49527
6.09435
5.48586
7.48176
5.72976
6.38047
5.61397
5.79134
5.25844
6.87977
5.59739
5.97325
5.17421
7.56621
6.12834
7.21755
5.63905
5.07374
6.95348
7.09737
5.75419
6.39683
5.60073
5.6276
6.47193
5.81973
6.76715
6.68149
6.42308
6.42201
5.72486
5.15497
5.44128
5.74563
5.67037
6.07506
6.91246
5.23553
8.0228
5.33209
5.78502
6.19745
5.78778
5.36618
7.485
5.81072
5.14485
5.6734
7.69338
6.77029
6.88091
6.22412
5.91408
6.03957
6.42558
8.97782
5.71888
6.33686
5.30956
6.70011
6.02667
7.63364
6.74462
6.15966
7.07282
6.23094
6.03555
5.61153
5.8981
6.06187
7.96541
5.70364
5.41297
6.30792
6.04053
5.73867
6.51005
7.10613
7.04558
7.26475
6.41135
8.56605
6.28942
5.99848
5.40584
5.95413
5.7062
5.50142
6.48236
7.32191
8.05405
7.2863
5.97609
6.73437
6.71836
5.40889
5.68596
8.05345
6.36678
5.60585
5.74535
6.21751
6.84069
6.62397
5.49146
5.68519
5.74117
6.04379
6.31271
5.97022
5.9288
5.70614
5.87651
6.89747
7.23835
6.11444
5.40608
6.86569
5.93258
6.43163
6.50155
10.2482
5.31629
6.69135
6.8295
6.24896
6.37356
7.21332
7.65398
6.70954
6.71658
5.46529
6.27076
5.42436
6.71047
5.92767
5.88421
6.58049
5.52903
7.10677
6.18567
6.54817
7.38561
5.35709
6.47028
6.22892
5.60803
5.99961
5.54408
6.71081
5.31609
5.41438
6.28254
6.5535
6.41836
5.97342
6.2842
6.14741
5.96717
6.59259
5.40122
6.90446
5.31376
6.33286
5.87993
5.67419
6.39005
6.18864
6.57023
6.40063
7.44712
6.17973
7.81875
5.95988
6.43366
6.07782
6.3515
5.77029
6.42881
5.87662
5.83794
5.76478
7.44831
7.40117
5.27612
7.44122
6.68964
5.85074
6.98321
5.78103
5.18598
7.02826
6.55272
5.91122
5.61835
5.46925
6.68622
6.24086
5.64494
5.41939
5.73327
5.34375
6.87551
6.37079
6.55788
6.48454
7.42358
6.33528
6.47066
5.83731
6.27609
6.70934
6.84253
7.70632
6.15448
6.11374
6.30695
5.9045
5.6222
6.46397
7.99316
7.41603
6.25183
6.44966
5.56771
6.91969
6.69051
5.17857
7.29588
6.81322
7.20443
5.23539
8.63914
5.5502
6.63303
6.21044
5.21126
6.95844
6.25817
7.11158
5.44643
5.78304
5.62409
6.05057
5.99323
7.21038
6.56991
5.58317
5.56979
5.20387
5.86386
5.18088
8.02394
5.31753
5.53252
5.91173
6.87178
8.17589
5.99813
6.8248
6.67904
5.76713
5.54669
6.02752
6.42416
6.24356
5.83678
7.009
5.75742
6.75556
5.68918
6.33775
6.2545
6.15589
7.12541
5.76058
7.58995
5.84318
5.7828
6.04672
6.60834
6.61378
6.52311
6.09798
5.58583
6.06015
7.72893
5.37355
5.75075
7.45645
4.91097
6.56903
7.16956
6.02856
5.75333
6.64198
7.00425
5.08836
6.55715
5.42024
6.58735
6.0873
5.44075
6.36763
5.99818
6.11306
8.59106
7.23626
5.87996
6.00453
7.38594
6.35719
5.55287
6.03192
7.56789
7.8901
5.28422
6.12465
5.93847
6.56641
6.12821
5.07924
8.45983
6.11796
8.20671
6.79193
8.51946
6.80083
6.16559
5.88292
6.8003
5.44894
6.201
5.53173
5.43669
8.30853
8.05248
5.66911
6.86405
7.25428
6.31746
6.98879
5.71342
7.89858
6.07439
5.73109
5.55854
5.70628
5.73347
5.14439
6.46676
6.07148
7.28873
7.75138
5.87616
6.00638
6.38905
5.73327
5.57597
5.91558
6.59118
7.07295
6.68374
6.54725
5.76487
5.93741
8.82538
5.72249
6.05314
8.03241
7.84718
9.36333
7.27997
7.15095
4.81282
6.45539
7.39328
5.19014
5.55601
6.21753
6.46152
6.90424
7.1814
5.94325
6.0493
5.99486
7.4129
5.91426
5.31476
7.73715
8.34074
5.87177
7.3236
7.48196
7.23642
5.74654
6.43879
5.69834
9.09568
5.43726
5.01531
6.19447
6.59009
6.35376
6.25655
6.22924
5.49873
5.3252
7.00009
5.97827
6.76049
7.21285
7.0627
6.56923
7.93618
5.82074
7.16919
6.16285
6.62777
8.62511
6.3099
6.06598
5.63351
6.21089
5.67453
5.88952
5.99653
5.50785
5.81668
6.62949
5.86553
6.64759
5.81618
5.35816
5.45895
5.5874
5.91964
4.99889
5.91863
5.6901
5.75396
6.4864
6.88738
6.80619
6.0893
6.09189
6.8152
6.25219
5.41381
5.44582
5.25984
4.99552
6.51673
5.54443
5.83943
5.82018
5.74376
6.64794
6.94752
5.87853
5.45123
6.53108
6.12997
5.51031
5.73171
7.33707
5.87169
6.42943
6.55318
6.7857
8.29029
5.47741
6.0125
5.60032
5.50912
6.69225
6.8436
7.5994
8.81459
6.91981
5.61966
6.03491
6.31407
6.82382
6.8398
6.84091
7.67544
9.52731
7.15877
7.34799
6.38371
7.08137
5.7735
8.26032
5.22605
8.52236
6.01558
6.94216
5.56103
6.13403
5.88783
6.04571
6.42213
6.69932
6.71675
5.56552
5.82768
6.22819
6.79379
6.93665
6.1511
7.30935
5.7926
5.13197
5.14439
6.38195
6.00731
5.86589
5.15842
5.8382
5.68774
6.30481
6.41704
8.11539
6.58127
4.89721
7.01413
6.47877
6.73985
7.33201
6.33951
7.28551
7.42144
7.72555
4.96643
6.79894
5.99174
5.46367
5.68923
6.83151
6.07261
5.87519
5.60411
6.02559
6.6148
5.26436
6.49591
6.137
7.21709
5.82073
7.02172
6.34522
7.1555
6.81705
6.90069
6.74322
7.36625
6.30693
6.17131
5.6738
6.47261
6.57013
6.43207
7.73977
6.66015
8.38247
5.37254
6.90686
5.55503
5.31915
5.35566
6.59386
6.78977
6.05644
6.27465
6.97265
7.32873
6.35317
5.52
6.06818
7.04629
6.01282
5.46672
5.91768
6.8138
5.24962
6.35838
5.4573
6.00848
6.63726
8.77897
6.50985
5.67689
6.5291
7.18887
5.34847
6.15135
6.77839
5.66397
6.43284
5.12376
6.71032
6.84412
5.7673
6.30386
5.60624
6.67248
6.1242
5.29015
5.87867
5.51667
7.63011
6.97198
6.38491
7.56014
6.32739
6.12311
6.07188
6.95903
5.63278
7.51567
5.63044
5.54385
5.90702
5.3966
6.57133
7.17286
5.04134
5.864
5.71961
7.12142
8.21577
7.80204
7.59696
5.82228
5.2393
6.33539
6.60195
5.93341
6.37613
6.58902
6.84596
5.16431
5.68552
5.98361
6.82218
5.73939
6.2787
5.98956
7.13196
5.39831
8.60145
5.09784
7.48554
5.79459
6.24161
5.17031
6.603
6.68734
6.1815
7.619
6.37028
6.22037
5.90781
5.73094
5.38065
6.67693
5.38545
6.86437
5.77295
7.11589
5.80196
5.77343
6.6583
5.16333
5.4397
6.49546
5.55022
5.46539
5.80144
5.83402
5.83949
6.07455
6.21847
7.22866
7.18572
6.18825
6.2823
6.338
7.32783
5.11245
5.55317
6.16636
6.17276
5.95954
6.81438
6.44054
5.58009
5.83562
5.75472
6.68782
6.62696
6.08656
6.03756
7.84408
6.10686
5.9066
6.2263
6.01384
5.93138
6.83712
6.22338
6.97648
7.79308
5.76757
7.35853
6.78092
8.45303
5.21637
6.20412
5.6537
6.17976
5.62863
6.5632
5.52787
5.92928
6.48009
6.42024
6.41734
6.17047
7.62588
6.64858
5.76318
5.84487
6.39918
6.13114
5.80706
6.42695
5.41664
7.09396
6.08527
5.88972
8.8491
6.92101
7.49667
7.1598
6.11251
6.2098
5.39225
6.11481
5.16646
5.76853
6.54992
5.77426
5.94977
4.71375
6.25786
7.58562
6.69821
5.69717
7.1172
6.91573
6.41727
5.42342
5.95242
5.44694
6.5515
6.38915
7.47146
6.72463
8.23445
5.75897
6.56772
6.8718
5.79208
5.85442
5.60208
7.58407
7.56622
5.8433
6.39569
6.48531
7.54098
6.23746
7.1338
5.69754
5.52103
5.32858
5.66415
5.78357
6.02237
6.09343
5.65935
7.49563
5.94944
5.80922
5.7628
5.57592
6.16784
6.63083
5.72533
7.41558
6.05662
6.41038
6.18822
6.88762
5.45189
5.82332
8.2435
6.08945
8.11164
5.75743
7.2233
5.0357
5.51012
5.91013
6.09851
6.27672
5.81539
6.66625
6.06551
5.55409
7.19557
6.61018
8.73451
5.80819
6.20754
8.27758
6.36142
5.16501
6.02629
7.06243
7.50717
6.30128
6.06478
5.40274
5.90691
5.19556
5.85516
7.48739
5.23312
5.85868
5.07993
7.48748
6.03298
6.3582
5.57719
5.9479
5.65319
5.86213
5.82699
6.3661
5.68928
5.54308
5.76086
7.99653
5.94142
6.35757
5.53012
6.08372
6.0371
5.67276
6.75154
5.58436
6.00918
5.44433
6.09444
7.15808
6.11014
6.64992
5.98168
5.94739
7.60938
5.05577
4.76327
6.20307
5.7993
6.22012
6.62974
5.51021
6.81254
6.0595
7.23728
5.37522
6.10125
6.42606
4.67364
7.33608
5.81324
6.84008
6.55195
4.87813
5.95828
6.04995
5.50675
7.07726
7.08137
5.64909
6.06527
6.31644
6.49421
6.7494
6.0705
5.42336
6.82385
5.97603
6.01354
6.77387
8.56746
8.11768
6.01254
6.31558
5.11707
6.94457
6.52732
6.55744
6.65496
7.72389
7.22766
5.51196
6.30775
6.13044
6.44164
5.43754
5.78639
5.73316
5.42071
5.30268
5.25279
5.69591
7.9563
5.56429
6.14595
5.9711
7.33238
6.93549
5.68575
5.94523
7.58219
6.2721
5.5728
6.97353
5.84798
6.15387
7.27668
4.92701
7.96129
6.85077
8.01407
5.67168
5.70828
5.94062
7.33065
6.03516
7.92963
5.14866
5.81
6.12525
5.98925
5.63433
5.67702
6.00069
5.15181
6.28515
5.7633
6.33879
6.06213
5.199
6.14838
6.61406
7.28924
6.57882
6.13022
5.39177
5.79409
5.93043
5.75423
5.82914
7.60379
5.74109
6.58221
6.34514
5.93337
5.72223
6.66047
5.19644
6.03171
6.92182
6.36377
7.90766
6.01747
6.49099
7.57858
5.94356
8.04441
6.96274
6.51113
6.82423
7.69528
6.70949
6.91597
6.21476
7.64674
6.21295
7.06424
6.50981
5.80377
7.34016
8.14319
6.33951
6.65708
6.00094
7.28054
6.2611
6.42022
7.61518
5.90599
6.42589
9.84988
5.61212
7.6748
6.18858
6.18446
6.0124
6.43937
5.6934
5.20586
6.63602
5.90905
5.66593
5.32858
8.21202
6.21455
6.46765
5.65602
7.52795
5.6065
5.78723
5.62011
6.72342
5.97036
6.6411
7.68011
9.15142
8.37127
6.40588
5.74961
6.76533
5.80637
5.64301
7.2447
8.50708
6.58247
9.65261
5.85957
5.96321
5.20855
6.26517
6.61931
5.98905
7.49421
6.64589
5.52773
6.65781
5.3912
5.74494
6.39628
6.36155
5.79805
5.60153
7.61084
6.22186
6.6669
6.50825
6.24825
6.7541
5.77432
6.84904
6.45264
6.42087
5.70536
5.61131
5.62246
5.62409
6.5465
5.80414
7.22114
7.19757
8.63984
5.37503
5.04742
6.49387
5.37925
5.0989
5.95178
6.12395
5.77682
6.03332
6.18751
6.06882
6.30081
5.36826
7.254
6.84273
8.78455
5.63994
5.33582
5.4887
5.53511
6.21577
5.20755
7.20787
6.76336
6.02673
6.07053
5.98676
5.9208
6.57194
5.82121
6.29365
5.92141
6.48212
5.88302
5.2365
5.91256
7.63673
6.32448
5.39842
6.83083
6.0617
6.03988
5.8777
7.33185
5.47145
5.3453
6.49048
7.32483
6.75183
5.85466
5.42902
6.93522
7.33991
5.65257
5.78955
7.41723
6.31634
6.30831
6.39155
5.96906
6.78146
5.8913
7.69878
5.92343
6.1817
5.9771
5.94481
5.32701
6.52603
5.3805
7.7051
5.49478
5.83066
6.05023
8.14514
6.36593
6.31756
6.69604
4.9128
5.85742
7.32333
7.05696
7.56616
6.83456
6.11689
6.08774
6.15452
6.71652
5.89993
7.15165
6.15785
8.88556
6.25893
5.64128
6.17392
6.4776
7.957
6.27314
6.30445
7.85942
6.67692
6.03971
5.06846
5.67062
5.86651
5.55077
7.82504
7.46151
7.4056
5.59606
5.58274
6.304
6.5701
5.43769
5.5468
6.16366
6.79493
6.04291
5.75659
7.35743
5.64202
6.89216
6.92595
7.02459
7.12232
8.90607
6.93115
5.85925
6.55821
6.42833
6.32015
6.14382
5.32574
5.85622
7.77686
7.1497
6.96335
6.33648
5.12785
6.18089
5.85448
6.50166
5.67358
6.12614
5.88951
6.95194
5.99655
5.61349
7.33125
8.8799
6.38759
5.37147
5.81844
5.82916
7.00159
5.93105
6.91091
6.12479
6.74993
6.4062
6.42532
6.25592
4.91675
6.41979
6.74267
5.57736
6.86438
6.68528
7.25331
8.90247
6.31205
6.77097
6.93355
6.22274
5.68287
6.8442
6.92171
5.80916
6.14457
7.15872
5.83576
6.63271
5.83105
8.11576
6.79745
6.68481
6.34803
6.31785
6.27091
8.02809
5.54494
5.88792
6.00258
7.13987
8.17252
6.08354
5.91873
8.60593
6.06474
5.25426
6.87831
6.80038
6.25951
6.60688
5.76767
6.63775
5.71006
5.51847
6.5564
5.9829
5.95859
7.09969
6.36778
6.68095
5.47589
6.09225
6.343
5.28057
6.42179
7.09872
6.8951
6.23286
5.90069
6.0688
9.95569
6.27259
6.78722
7.41497
7.73212
5.61735
5.39485
6.19057
5.94266
6.7431
7.66641
8.61156
5.38561
6.69713
7.04394
6.12463
6.82243
5.49368
5.88419
5.79764
6.30581
6.33107
6.19339
6.73855
9.05669
7.56109
6.03723
6.93848
5.93343
6.37721
6.11833
5.78249
5.96137
8.22624
6.13895
5.41898
5.89592
5.84282
6.60511
6.09384
5.67288
6.19407
5.50717
6.34078
6.14833
6.47775
4.97973
6.16925
6.7448
5.63862
6.91406
8.21291
6.79334
5.45046
7.26206
6.47082
6.53576
7.41589
6.20177
5.96436
6.03871
6.02559
5.99433
8.5168
6.52639
7.61059
4.91546
7.2008
6.20945
7.97785
8.59834
5.50694
6.92008
5.90475
5.79885
6.16047
5.35942
6.27107
5.38873
5.62865
5.53189
8.80781
6.71146
7.55899
6.3372
6.10102
7.00712
6.21882
6.2335
6.47933
7.11344
5.67007
7.19333
9.55389
6.2237
8.46393
6.317
6.86718
5.07353
7.13058
5.67014
6.42626
6.40818
7.21704
5.70591
5.63969
7.29174
7.23174
7.68778
7.74196
6.00793
6.26665
6.73311
7.25727
6.08389
5.04905
5.64026
8.85524
6.71336
5.62621
6.21599
7.54603
6.19082
8.1552
7.29664
5.28806
5.71337
7.0989
5.96931
7.891
6.65964
6.65269
6.18873
7.55938
5.5293
6.48045
6.70157
5.31299
6.2604
6.7535
5.13086
6.34262
7.44008
6.27645
6.56567
6.17773
6.56366
6.53521
5.37237
6.72264
5.69426
5.53123
6.01474
5.92416
6.31038
7.23441
4.80673
7.18281
6.26271
7.1177
6.84885
5.72832
6.01501
8.16677
7.94479
8.05996
8.72635
4.96422
5.66874
6.32502
6.17221
6.87944
5.65816
7.16833
6.60081
6.25758
8.06808
7.23384
6.36662
5.50186
5.67915
6.39266
6.1816
6.18982
6.07886
5.50013
6.93433
7.04843
6.55994
6.11762
5.8372
7.65987
5.57171
5.40235
5.7922
7.17794
6.2848
6.77463
6.24323
6.31372
5.67465
5.99724
6.41835
5.92572
7.17995
6.09104
7.59549
6.4416
6.47457
7.42184
5.47527
8.28543
7.61633
6.30482
7.3131
6.00136
5.39941
5.81887
5.22794
7.70787
7.30976
6.4278
6.79614
6.66765
7.35193
5.92878
5.93278
5.45853
5.64049
7.79228
5.91686
6.92632
6.1132
6.14374
6.23077
5.35982
6.35808
6.0916
5.95212
5.80961
6.96657
6.49505
5.80497
6.5017
7.71684
5.53156
7.1397
6.71862
5.68402
6.05518
5.29308
6.26164
7.30694
7.04944
7.2022
6.16269
6.23589
5.82354
5.96812
7.71553
5.22833
7.05951
5.48436
6.96254
6.6818
6.34718
6.15272
5.60693
6.40178
8.50397
5.01102
6.88405
5.72522
5.21871
5.09265
5.48984
5.92132
5.59538
5.46769
6.50417
5.83564
6.57301
7.13919
6.01872
5.71817
5.89349
4.94456
6.78656
6.61577
6.05426
7.84585
5.39267
5.75971
6.81085
6.35284
6.91317
6.59434
8.0003
6.77029
6.12521
5.12611
6.65687
6.93849
6.1555
5.86007
7.66259
5.24999
6.03329
6.23054
8.01423
5.75398
6.14629
5.66461
5.66699
6.94046
8.80152
6.31338
5.71343
8.47603
5.41342
7.62246
6.68673
7.37068
6.29646
6.65441
5.5183
8.19861
5.44427
6.30744
7.25265
6.76601
5.27758
6.72068
8.11425
8.95291
5.06238
7.23118
5.35314
5.95896
5.41935
6.62599
5.4084
5.81779
5.14392
8.10874
6.54021
6.34867
5.47611
7.18734
6.70389
5.88677
6.2253
5.8863
5.78761
5.18706
7.36845
7.08717
5.97244
6.89652
6.79689
5.44658
6.40211
6.67198
5.35241
5.5198
6.16187
6.16687
5.72174
7.08823
7.24141
5.89354
6.70075
7.18342
5.76032
6.01607
5.44426
7.55323
5.6928
6.68537
6.33457
5.70685
5.68831
5.88887
5.98892
8.61312
5.81942
6.03345
6.35282
5.69725
5.79209
6.32995
5.30658
7.13
8.81928
7.01975
5.58121
6.78724
7.26736
5.49118
6.09645
6.2465
6.57558
5.16225
5.82446
7.54302
6.95636
7.16153
7.47849
5.97709
7.84459
6.69397
5.76554
5.57924
8.39137
7.16188
5.40897
6.03881
7.74975
7.22146
5.80201
6.06788
6.52458
5.99884
5.87416
6.41853
7.19649
7.69427
7.23098
5.69717
5.40551
6.09462
6.44816
7.62919
6.8057
6.4456
5.93831
7.80438
5.80312
6.10434
6.70967
6.1699
6.00139
6.1053
5.43634
7.60183
7.5813
5.43401
6.14355
5.38397
8.99647
6.15851
6.88893
5.99455
7.16473
5.54143
7.02151
6.53851
6.04804
6.33009
5.99193
6.5004
5.24332
6.76745
5.93107
5.83346
6.28178
6.07431
5.93127
6.40198
5.86126
6.34824
6.16044
5.88771
6.1769
7.51927
5.71829
6.38267
6.53025
7.25976
6.23322
6.42991
7.22109
6.02464
5.79809
5.73361
5.26219
5.61117
6.81944
6.30059
5.32268
5.44568
6.48716
6.21648
6.16435
6.87129
5.91209
5.33636
7.27443
7.0762
6.73746
5.65125
6.04019
6.27443
5.73941
6.7179
6.11068
5.25628
5.25721
6.88807
5.96775
7.23675
7.49191
8.32481
6.33023
6.10206
6.28618
6.3668
6.87206
5.28391
5.82864
6.06598
5.61353
5.86799
6.25516
6.6181
5.69946
5.47344
6.61886
8.03232
6.7696
5.84767
6.55171
5.8636
7.66003
5.43467
5.91779
6.81037
6.45494
7.62812
5.57728
6.01581
9.011
5.99491
5.17895
6.90311
5.57707
7.24132
6.88003
8.91031
6.89799
7.83757
6.28094
6.16386
7.36151
6.76223
5.5141
8.06736
5.17917
6.03966
7.37164
5.69222
7.91301
6.42366
6.48594
6.84168
6.20537
5.1147
5.94673
5.36377
5.26587
6.78655
6.31534
5.67042
6.90599
6.80265
6.04447
8.08004
7.15531
5.83114
5.68876
5.76187
5.27784
4.91938
6.539
6.36433
5.31101
6.13876
6.63449
7.39652
6.3883
6.24295
5.76345
5.4419
7.5912
6.03396
7.35758
6.59844
5.94034
5.85334
5.37845
7.09777
6.13487
5.87424
5.28694
6.07152
7.61302
5.55844
7.868
5.22134
7.83675
6.65377
6.13053
6.81381
8.1004
6.18954
6.18787
6.1573
5.8754
5.61638
6.92345
6.32061
6.59788
5.81336
6.15532
5.76
6.90362
5.67964
5.88585
5.91792
5.1327
5.81613
5.67318
5.56448
6.31335
8.1618
7.30946
7.77894
6.62419
6.5263
7.10037
6.10374
6.51203
6.67807
6.62607
5.10702
7.14704
5.71444
5.97172
7.81138
7.14887
6.37534
7.07032
6.13557
5.70736
4.8819
6.47319
5.81032
7.44552
6.92264
5.37048
10.4693
6.16106
5.53051
6.64196
9.13431
7.51342
6.93103
5.87441
6.02669
6.85235
8.46125
6.83286
8.11351
5.01592
5.83743
5.98002
5.14316
6.77238
6.78584
5.97
6.42109
5.43483
6.07191
5.49327
8.85156
7.51101
5.85686
5.42091
6.51684
5.28625
6.87775
7.22966
6.43898
6.20204
6.80266
6.94236
6.36314
6.72324
7.68793
6.78983
5.98129
6.7409
6.11447
6.62437
5.2083
6.63809
7.4713
6.18898
5.43088
5.82041
4.91758
5.43343
6.86984
6.26182
7.14543
5.39893
6.61451
8.3359
6.06061
7.10468
6.18329
5.64975
6.79905
5.49207
5.32781
6.81912
8.2432
6.0831
5.61409
5.73977
5.73897
6.72816
6.02791
6.34684
6.08144
5.52792
7.67329
9.65481
7.62698
5.14486
5.20238
7.10539
5.49811
7.21147
5.94207
6.04967
5.92918
5.91724
6.80583
6.01759
6.3906
5.91611
5.67667
6.29271
6.06034
6.07673
5.55494
5.83328
6.39415
8.18154
5.35989
5.88078
7.60211
5.77335
5.86351
5.31879
5.94309
8.92401
6.97525
6.22163
6.40908
7.4396
6.31098
5.83908
7.68723
6.50603
7.15015
6.31069
7.34756
5.65528
6.39641
6.34553
5.86067
7.52814
6.93163
5.1825
7.74263
5.7952
6.07751
6.07143
7.67133
6.40845
7.01443
10.1438
6.44321
5.73774
6.25956
5.12498
5.91039
5.84737
7.17
6.34982
6.55729
6.1273
6.78581
5.44718
7.61534
6.38791
8.28899
5.89677
7.50828
6.03097
5.49283
6.1131
6.17681
6.14991
6.80931
6.37274
6.82314
6.5675
5.77551
6.15645
6.69058
6.73986
5.27651
5.97284
6.23126
6.15403
6.15775
6.1887
6.09201
5.81599
6.42203
5.00217
5.52703
7.86128
6.28132
6.75409
6.48081
5.80903
6.46304
5.86664
7.02999
8.06152
5.38402
6.12158
5.69095
5.85287
6.54496
5.97463
6.17388
5.97011
6.43897
5.7542
5.37616
6.80855
6.85546
7.33906
6.63255
6.56681
6.11533
6.23345
6.97998
5.29336
5.75152
5.73177
5.89307
6.10171
6.67528
6.26063
6.01653
5.87001
6.87889
6.40722
6.78012
5.56223
5.60439
5.79721
6.94351
6.10153
6.28127
6.98862
4.93796
7.30541
5.622
5.58694
6.55913
6.18425
5.3285
6.42927
6.3091
7.42243
5.57764
7.20674
7.13828
5.92218
6.42605
6.05652
6.4351
7.13836
5.80031
6.0655
8.02098
5.86193
6.78119
6.06953
5.28476
6.17694
5.68806
5.67667
7.44295
5.65263
7.0414
7.9247
7.17952
5.7666
5.38937
6.05283
6.24009
6.03211
7.02003
5.98733
6.81347
9.05654
6.22402
6.02881
6.29004
6.4747
6.56845
5.88769
6.33546
5.71677
6.80567
5.90173
6.1809
6.27383
5.57221
5.43411
6.0302
6.56616
7.49975
6.41436
5.48338
6.61018
6.35379
5.75152
6.35033
8.11971
7.14089
6.51955
5.47231
7.80205
6.44321
7.9439
6.30229
7.4016
6.05774
6.43952
5.7547
5.97885
5.24085
7.00912
5.38313
5.54391
5.8691
8.35327
6.50701
5.38668
6.98342
8.84336
5.05945
5.26546
5.77789
7.53423
5.83879
5.70693
6.04729
5.28083
6.52704
5.48405
7.71281
9.77397
5.60788
6.54234
5.83555
6.72631
5.6399
6.15155
6.19528
5.8127
6.70676
6.129
5.71042
6.82987
5.36124
5.40387
5.68366
5.93028
5.87794
5.70099
5.66859
6.09787
5.58078
5.42645
4.9568
6.69346
5.75308
6.88029
5.81365
6.15307
6.13993
5.90282
5.55437
7.33587
7.13232
5.25319
5.7312
5.85687
6.82424
5.42019
6.1139
6.33605
5.59103
6.16847
5.99998
5.7181
6.15616
8.12859
6.10283
5.20358
7.05323
7.11723
5.04229
6.24878
5.17123
6.57701
5.77677
5.79132
6.51201
5.35345
6.79262
7.30685
5.91102
5.06024
8.38172
6.47602
7.96809
7.03444
5.59999
9.05382
6.72121
6.29292
9.20739
6.99303
5.89113
6.99464
8.06891
6.1361
7.02938
10.0501
5.11301
7.04975
5.64712
8.38863
5.64001
6.99428
5.84227
6.47572
6.18059
8.22125
6.15751
6.57443
6.15374
6.5571
6.2366
5.64494
6.78581
4.91387
5.23104
6.27339
6.79219
6.70597
5.98522
6.30892
6.1542
6.31766
6.38233
7.3217
5.48355
6.16477
6.61276
6.11304
5.69781
6.90223
7.88707
6.50602
7.12895
5.76969
7.32952
6.79197
5.96652
6.59566
5.16731
6.81566
6.36595
6.87257
6.44067
5.57123
6.37373
7.31674
6.64229
7.01193
6.58398
6.02995
6.6496
6.54368
5.2782
6.09621
6.32018
5.73284
6.07932
8.48501
6.85963
5.36655
6.18022
7.22984
7.23899
6.88443
5.2587
5.89835
5.74187
5.12918
5.91065
5.73462
6.42112
6.03194
5.22303
6.83189
6.76723
5.63125
7.40544
5.73444
6.95779
8.92628
5.01164
6.6442
6.87981
7.4672
5.65723
5.72792
6.06388
6.06106
6.5526
5.23813
5.46188
5.51382
5.81084
5.58095
7.01579
5.81218
5.53867
5.46081
6.8127
6.85675
5.24608
5.62902
7.35522
7.21739
7.82157
5.5719
6.71651
6.58585
5.69661
6.81097
6.2121
7.24117
6.60709
5.5571
5.78979
5.97956
6.1013
6.8654
6.10432
6.67721
5.46951
8.96358
6.83674
6.41586
6.11227
6.20391
7.24266
6.9599
7.19964
6.79364
6.37866
6.23024
6.54929
6.49565
9.53789
5.7693
5.68917
5.85045
6.96644
5.70672
6.17252
5.30978
6.5132
6.07332
5.83875
6.85692
7.723
6.53205
5.95355
5.62853
6.70653
6.55303
5.40266
5.74097
6.42054
7.77464
7.34251
6.54437
7.35129
6.01941
5.31194
7.18367
6.67306
5.47954
5.74671
6.68698
6.22849
7.61063
5.97554
7.60093
6.65844
6.47193
6.36204
6.58587
5.55688
6.31465
5.75611
6.46733
6.90841
5.20667
6.3564
7.49881
6.30805
6.63323
7.87186
8.32198
6.13261
5.53747
6.6806
5.97125
6.70203
7.51539
5.44771
5.39493
5.89815
6.73911
5.69585
6.3394
5.83104
5.34152
6.60595
6.52356
4.96496
7.46765
5.69273
6.65995
5.90073
5.17161
6.30116
5.3637
7.56723
6.19402
6.04642
5.87972
6.31272
9.77637
6.16237
6.17734
6.73695
5.2134
6.43836
6.189
6.58479
5.35066
6.87075
5.85438
6.64661
7.92807
6.83425
5.97135
8.04438
5.87956
5.63313
6.16817
6.26472
5.67188
6.88361
6.63845
6.08128
6.03561
6.75306
5.96811
5.68633
7.09394
5.65728
6.58105
5.8328
5.87674
5.94739
5.95391
5.66906
6.14693
6.60568
6.02987
6.86448
5.71699
6.11467
5.82186
6.26352
6.51798
5.95436
8.25393
7.26082
5.81871
6.14116
6.88514
6.00924
7.58753
6.87363
8.2027
6.47756
7.25907
6.43739
8.53243
7.35012
5.58426
6.78426
7.89505
6.27514
5.88317
5.96232
5.63426
6.12459
5.39532
6.88985
5.24343
6.56808
6.42418
5.56412
7.10079
6.21119
7.45334
5.68441
5.82866
5.91496
5.84131
7.04323
6.41597
6.78971
5.83416
5.85429
6.24154
6.26641
6.08667
5.83099
6.52755
6.96526
5.65307
5.54223
5.62512
6.22921
5.80251
5.93868
5.96298
5.20759
5.52951
8.15282
6.33357
6.8754
5.70644
5.39241
7.4322
5.58377
6.86276
7.56217
5.91798
6.85291
6.15506
5.2963
6.20041
6.62165
6.2777
5.34655
5.94173
6.82954
6.22778
5.94409
5.40317
6.17931
7.01847
7.55284
5.57223
9.1245
6.53296
6.36538
5.97784
7.82099
6.46806
5.45709
6.38634
7.42219
7.12699
6.71334
5.98945
6.80388
7.18374
5.8676
6.92434
5.33507
5.68635
4.90479
6.44414
5.75583
6.70329
5.81315
6.04547
6.52217
6.10237
7.79471
5.35024
6.1979
6.1023
6.07565
6.16667
6.09943
8.04972
6.00674
5.43792
6.49545
5.88582
5.49828
5.81282
8.34001
6.08201
6.16107
5.9469
5.84655
6.58551
6.61009
7.62346
6.43031
6.02425
5.05826
6.74526
6.25713
5.8517
5.54438
5.65351
6.03874
7.46319
5.82984
6.33568
6.07268
7.60495
6.50441
5.53853
7.22312
5.92719
5.19474
5.99865
5.76776
6.30036
6.47411
4.77825
6.28002
5.70891
6.26676
6.6418
6.17949
6.3428
5.99671
5.30537
7.29406
6.53969
5.89424
6.92332
6.50855
5.68099
6.19106
5.63774
5.93298
7.53984
6.79927
5.21796
6.51239
5.25155
6.48908
5.49695
5.46334
6.12228
5.3261
6.73575
6.46388
5.9294
5.23285
7.69367
5.30545
6.37468
6.29069
6.76312
7.52781
6.12995
5.4497
10.7076
7.3035
6.4876
7.61489
6.06201
5.36324
6.99149
7.75411
5.04932
6.04356
5.82042
5.97684
6.21816
5.62039
6.53834
6.23501
5.85205
6.36559
7.02571
5.53033
7.68717
5.74613
6.11861
5.85635
6.58884
7.18887
5.93671
5.77686
5.73641
7.33464
6.1266
6.45144
6.83612
5.1338
6.82629
6.31698
6.19029
7.68521
5.99604
5.43739
5.19805
7.21755
6.64384
5.87132
6.41663
6.80426
5.77707
5.71353
4.88649
5.48987
6.80156
6.18695
6.75571
6.11656
6.08984
6.94357
6.64835
7.15521
8.24325
8.08605
5.77873
5.40395
5.16809
5.48933
5.53813
4.96744
5.80267
5.81063
6.11849
5.18873
8.67022
5.33122
6.05021
5.67927
6.57775
6.45404
6.44614
5.64488
7.34804
5.79329
8.41844
6.86563
5.86391
6.20012
7.44291
5.91859
5.84483
7.11984
7.21017
5.63397
6.41885
6.55392
7.32862
7.07215
7.99775
7.21741
6.90391
5.66861
5.87557
6.68842
5.63114
5.36828
5.46834
6.77645
5.11849
6.55686
6.04335
6.25535
6.88543
6.9456
6.08734
4.88838
6.40064
5.74053
6.89302
7.4174
5.37893
6.12268
6.62036
6.36668
5.73906
5.13792
7.89124
7.96185
5.12345
5.17365
7.86307
7.33977
5.14501
6.3738
6.48731
5.73155
7.7026
6.01813
5.91499
5.72685
5.80985
5.98452
5.46137
5.11866
5.87065
6.40814
5.66432
5.57683
6.71535
5.95572
6.00744
6.82334
6.61018
7.47484
6.46185
7.64727
5.57566
6.243
6.25717
7.69499
6.45606
7.10768
6.24527
6.48338
5.97605
6.31259
5.88235
5.33178
6.29413
7.81194
6.34891
8.047
5.62989
6.24209
7.31122
5.61297
5.74857
5.37989
6.2381
5.8897
5.52957
5.13941
6.81252
5.45746
6.37167
5.30282
5.75569
7.26714
6.80349
7.36229
7.37574
6.69939
6.28129
6.22849
6.37911
7.50736
6.0489
7.00101
5.72757
5.29829
7.11544
5.31765
7.01688
6.31944
6.02836
6.34795
5.94233
5.91711
7.10403
5.52806
5.71446
6.57267
6.4247
7.033
6.22661
7.17489
5.91379
5.17829
5.57186
6.03158
6.33617
6.07121
6.10664
6.90895
5.72956
5.76455
5.53892
5.23617
7.06353
6.21762
6.43029
6.30514
7.58136
6.6045
5.23839
6.80019
5.62718
5.56129
5.20969
5.18533
7.5354
6.79809
5.81913
5.43726
6.18886
5.87142
6.38231
5.62897
6.27236
5.23215
7.97857
6.23253
6.11186
6.36272
5.58507
6.41414
6.42843
5.84817
5.63779
6.06135
7.50578
6.69439
6.94936
6.05605
5.24889
6.69931
6.03022
6.57348
5.67174
6.001
6.12016
6.18961
5.45327
6.90982
6.40435
5.74064
5.62988
8.29288
6.75171
6.04514
6.90029
6.1661
5.31931
5.16051
6.02669
6.35976
6.04458
7.12767
6.06868
7.96032
5.44387
5.08051
6.09443
7.13868
6.83603
6.97389
11.109
6.80301
5.5998
5.65336
6.07342
7.63518
5.38063
6.17973
5.77743
7.4505
6.2124
7.00815
5.97583
5.63576
5.14047
5.42487
7.88659
5.55147
6.26096
5.24886
6.36213
6.78171
5.44196
6.15768
5.95301
5.75465
6.09568
6.11234
6.62085
8.49885
5.51304
5.34126
6.68508
6.67716
7.13813
6.21084
9.88843
6.48932
6.07053
7.2744
6.80957
7.2458
5.46962
9.60651
5.33317
6.35301
5.5258
7.28081
6.52991
6.38098
5.85251
6.41371
7.83463
6.0763
6.12589
7.35243
7.82649
6.0889
6.60883
4.84054
7.61252
7.37502
6.34054
6.15269
5.85218
6.73051
6.05523
6.43753
6.07233
6.14336
6.43021
5.38961
7.90006
5.44284
6.57845
5.39628
7.4339
5.4767
5.75858
7.3133
5.64395
5.72538
4.89498
5.28048
6.54011
6.70879
5.77403
5.68786
6.4672
8.59375
6.51512
6.16017
5.52175
5.77261
5.69626
5.72387
8.14229
6.61294
5.89472
7.41272
7.33439
7.58507
6.33165
6.95808
7.54672
8.45125
5.633
5.36581
8.26275
5.05918
5.49299
6.48234
7.72039
4.44582
8.17498
6.00537
6.16718
6.14228
7.33381
6.18605
6.34326
6.49097
7.30533
6.82763
6.4415
7.66336
6.55294
7.76697
5.41173
6.96421
5.81722
5.85495
5.35225
6.07314
6.00122
7.00659
7.42017
6.30823
6.13111
6.22509
5.55332
6.48351
5.81228
7.4419
6.34032
9.13734
7.1933
6.2981
5.35406
6.60818
6.23531
7.52443
6.38589
7.54451
7.38581
6.61246
7.09364
5.47309
8.86793
5.34831
7.86749
7.08063
4.97491
5.82765
6.32535
6.58234
7.71611
6.528
5.91387
7.4446
5.99968
7.54393
7.48915
5.1818
5.76291
5.75372
6.39431
5.6356
6.22697
5.19739
6.94132
7.06482
6.60332
7.33457
4.78392
5.53246
6.50536
6.13731
6.1804
6.45775
6.90434
6.72903
5.99983
6.70129
7.17384
6.96109
5.49071
6.91416
6.05603
5.71025
6.25431
6.77132
5.82344
6.73704
6.87186
5.42453
6.43949
5.74116
6.05521
5.36804
5.65193
5.9045
6.40226
6.16838
6.30288
8.352
6.46717
6.45418
6.0216
6.93243
6.26502
5.84326
6.39803
8.03382
7.19105
7.03648
7.27692
5.63882
7.8568
7.42163
7.3384
6.15118
5.89857
6.39203
5.86871
5.33554
6.79427
6.25893
7.65344
7.31403
5.46224
6.41062
5.18425
6.89145
7.60984
7.49477
5.79058
7.73474
6.1303
5.94656
7.57311
7.76345
7.85568
7.62149
6.48966
6.15626
5.4235
5.66999
6.33757
5.72687
6.36976
6.14448
5.52285
6.01022
5.55403
6.14383
6.53438
6.25322
7.72586
6.2644
6.2967
6.49491
6.10338
6.02941
5.40854
6.12694
7.28329
5.59368
7.35182
6.9132
5.89963
7.15564
5.6726
5.86442
5.92446
5.12544
6.03593
6.11627
6.61267
6.44564
5.47537
7.37324
6.60883
6.54297
6.7383
7.19328
6.17345
5.63876
5.3118
5.69942
6.56066
9.48279
6.95895
7.77692
6.72934
6.52034
6.09305
6.00576
8.85364
7.12845
6.39791
8.6571
5.8787
6.73163
5.69974
6.99361
6.26114
5.80446
5.17426
6.8534
6.16216
7.67037
6.78597
6.77184
6.2114
5.92586
4.65965
6.14022
5.77404
6.74033
6.08391
6.63641
6.68484
5.81316
11.5437
7.78516
6.41232
7.24163
7.05361
5.43186
7.04382
6.21563
8.82122
6.17288
5.58543
5.96056
6.19299
6.20474
7.9482
6.57423
6.74626
5.8444
5.21263
7.09698
5.3842
6.25922
8.23407
6.66175
6.52649
6.85362
5.97903
6.45053
6.34502
6.42141
5.87314
6.67359
5.96587
5.97226
5.34123
5.82158
6.57658
6.63765
5.7427
5.58033
6.46125
6.12444
6.91416
6.97063
5.72753
6.16942
5.9606
5.19781
6.41452
6.50383
6.62653
5.48372
6.24555
6.26035
5.79602
5.42783
7.37582
6.53859
4.98411
7.3622
5.90356
6.78205
5.89486
7.86382
6.02172
9.14736
6.60308
6.87508
8.13967
7.92177
5.30637
5.33572
6.11885
5.91599
6.70187
6.15011
5.87161
7.3198
6.04442
6.20546
5.74616
6.85398
5.93357
7.39937
4.90099
4.83336
5.75268
7.70933
7.23774
5.79752
7.3539
5.64525
6.11217
6.21613
5.38922
6.76155
6.65426
6.37861
6.9706
6.21955
6.71314
7.15978
6.02768
5.76804
8.53289
6.76246
6.20797
6.88399
5.88144
6.85695
8.57153
9.28468
6.12697
5.84656
6.50867
6.24883
7.35108
5.74167
6.13111
6.53004
7.36701
5.60029
7.23286
6.92909
5.90481
6.09101
5.68892
6.86458
6.19257
5.76294
5.79057
5.12356
6.20051
6.9488
5.7849
5.62567
6.64451
5.5629
5.84155
5.56833
5.05057
5.26216
7.59933
5.38934
7.457
5.76596
6.39333
6.61669
6.27914
6.78
5.95028
5.28517
6.07738
6.86549
5.72422
5.76563
5.66487
5.54437
6.45952
5.81921
6.27508
7.40996
5.9026
5.9801
6.27113
4.9372
7.00822
6.02966
5.8643
5.44242
7.3632
6.17538
6.21741
6.34698
8.45084
5.42684
7.25301
6.71773
9.58789
5.48161
6.87255
7.8707
5.67776
6.62339
7.17568
8.00674
6.04335
5.88322
6.2497
6.12611
6.29934
7.62315
5.9084
6.66982
6.66304
5.3036
7.21621
5.89581
7.8421
6.43721
6.11883
6.43472
6.43339
5.83717
7.43593
7.00409
7.05557
6.75605
5.59534
6.176
6.07642
6.20263
6.60386
5.79112
5.71777
6.38552
6.34276
5.75
5.83908
7.2549
5.19717
5.93699
7.60888
5.40641
7.37334
6.02321
5.1871
7.02648
6.58498
5.69917
6.03441
6.52163
6.35484
6.80034
5.34514
5.63815
7.78375
6.19242
5.52091
7.39091
5.70559
5.58362
8.23232
6.74713
5.97158
9.97
6.60594
7.31547
6.8838
8.82038
6.89804
5.78949
6.21041
5.97056
6.6048
5.8861
6.0156
7.43079
5.63383
6.28089
6.39112
5.56379
6.66447
5.12415
5.38926
5.66597
6.86924
7.52878
7.1433
5.99113
6.12814
8.69166
8.41133
7.10096
5.61278
6.10616
7.36679
6.6376
6.22083
6.45112
5.30173
6.53531
6.33966
6.35723
5.8421
6.47265
6.01427
8.10486
5.80715
6.88592
5.99821
7.4895
5.39522
5.46243
9.87507
7.26453
6.15383
5.6909
7.11245
5.47147
5.99965
5.17306
6.05791
5.94607
5.36125
6.32018
5.96211
5.49554
6.1702
7.76937
5.82068
7.01809
5.69049
5.07412
6.04741
6.07826
7.26194
5.85107
7.00123
6.27505
5.84742
5.58812
5.45358
5.94833
5.94227
6.28603
6.6731
6.06914
5.72147
5.50862
6.12454
8.0635
6.64091
5.30438
7.55127
5.44225
6.14084
5.95943
4.9554
6.02416
6.93912
5.70858
6.55088
6.94762
6.14405
5.81258
6.27903
7.62287
6.85786
5.38665
4.88194
6.21048
5.59588
8.91164
5.64919
5.6134
5.94569
5.70656
6.68572
6.45689
5.62036
7.60456
6.29499
5.15893
6.4286
5.72581
6.38527
5.33784
5.35535
6.22918
7.05441
7.36604
5.62332
6.37586
6.00219
5.33946
6.00275
6.28333
5.2401
5.86204
7.3309
7.18038
6.26431
7.06804
6.23738
6.92295
5.66433
7.10205
5.43194
6.11477
6.01164
6.32958
5.75945
6.01834
5.12848
6.27041
5.77096
5.55761
7.34411
5.67634
7.95811
5.73319
6.91006
5.43445
6.14155
6.36761
5.66699
6.38165
5.58662
7.8181
6.21332
6.1512
5.94941
7.08257
5.95712
6.08945
7.18627
5.496
6.13099
5.7009
5.89061
5.2708
6.35765
6.95542
9.52095
5.84729
5.74751
6.29294
5.22773
6.89305
6.87271
6.06415
6.45729
6.09993
5.65843
7.01398
6.08296
7.31515
6.76418
6.32693
5.41513
5.81364
5.60121
6.01288
5.20092
7.06322
6.18743
5.8332
5.81525
6.18908
5.77102
6.30626
6.77282
7.26779
6.19998
5.9782
5.5913
6.65722
5.37082
6.60766
6.56603
6.29226
6.27797
5.48217
7.53638
4.92174
5.3734
7.47644
6.43211
6.16692
6.29161
7.34125
5.54965
7.50809
5.24664
6.24635
7.01103
6.48825
6.23221
6.4611
7.86731
5.33128
5.37703
5.7628
6.59059
6.26122
5.85445
5.27623
7.0705
5.47474
6.41418
6.04492
5.53848
6.25037
6.68444
6.40748
7.96337
7.10937
6.5255
6.34002
5.30955
6.86172
6.06613
5.96874
7.93813
6.26899
6.43569
6.15728
7.75582
6.05153
6.36563
8.23573
6.29677
6.46977
7.38379
6.68336
5.51697
6.28536
7.27848
6.23279
5.64379
5.46892
8.75882
5.87521
6.08508
8.41129
6.39637
5.68766
7.05985
5.91102
6.21157
7.28611
7.04755
5.86583
7.18925
6.03923
5.7878
7.57875
6.46996
6.00289
6.37963
8.38674
6.1319
8.08177
6.28148
6.56191
6.50844
5.80795
5.36775
9.17356
5.71055
5.67951
5.47317
5.5464
6.68655
8.34719
5.90818
5.75486
5.72902
7.28298
5.51376
5.6012
5.57702
8.69867
6.39559
6.72023
5.5766
6.68173
6.40388
6.37701
5.78482
6.00125
6.75645
6.9002
6.04396
5.51674
6.98202
5.91411
6.70019
6.05727
5.25656
5.32857
6.04309
4.86089
5.68869
5.59217
6.266
5.96676
5.89581
5.45185
7.10808
5.70799
6.02774
5.88953
5.63052
5.79264
7.11739
7.33767
6.13379
5.19293
6.46044
6.00684
7.41361
6.75325
5.3627
6.69979
6.39044
5.99277
6.66143
8.36149
6.14576
6.3507
6.101
6.17103
5.50198
6.3838
6.03768
6.15819
5.14916
7.43653
5.17136
6.14446
6.79684
5.94144
6.2601
8.33862
5.83265
6.26909
6.13006
5.11973
5.42091
5.61631
6.31378
5.62216
5.92084
7.95184
6.5381
7.00175
8.0197
6.2938
7.2796
5.82239
6.253
5.92128
6.28362
6.35628
5.71815
7.37452
6.2581
5.42588
5.77144
5.71269
5.3877
5.77067
6.93599
5.84837
6.73836
5.50187
6.40723
5.59189
6.59473
7.49322
6.62242
6.27297
7.04072
5.81399
8.13226
5.47014
6.70583
5.77153
6.7695
5.62696
5.74206
6.81543
5.95937
5.0919
7.08369
7.02287
5.86753
6.30043
6.37212
6.51046
6.15835
6.02285
5.82723
5.0326
6.8796
7.55279
7.56538
5.39422
6.56658
5.57206
6.05232
6.24133
6.26686
6.8057
6.11968
5.86931
5.46867
6.2599
6.01099
6.64958
7.20642
5.80933
6.23392
6.13265
6.57368
7.5871
7.4083
5.89318
7.00095
7.97076
7.7719
5.93836
5.69824
8.0393
7.71029
6.12641
5.84062
5.80645
7.17232
5.65401
6.82152
5.69366
8.39683
5.51055
5.34877
7.41413
7.60969
6.13589
7.1014
5.96559
5.84026
6.78542
7.9376
6.53799
6.83744
6.4698
6.6859
6.39926
6.39043
7.31661
5.44056
6.0254
5.79921
7.05111
5.87424
5.61894
5.5536
6.44474
6.27518
6.77164
5.52601
5.63507
5.82125
5.43051
5.72967
5.44713
6.38089
7.84943
9.51713
5.80783
6.44384
6.45121
6.12801
5.92319
5.6869
7.18007
6.23186
6.18281
6.92909
6.41907
6.98632
6.73094
6.54079
8.57191
7.29893
6.09726
5.91211
6.66178
5.38023
5.84962
7.20942
5.45717
7.9081
7.19418
9.21268
4.88332
7.5851
6.05622
7.25961
5.65744
5.71577
6.97044
6.56879
5.00893
6.28242
5.70877
5.3997
7.33601
8.17808
5.51622
6.09222
6.3255
5.8048
5.80025
5.86483
6.42625
5.3475
5.83133
8.61786
6.08147
5.91942
6.96198
6.50303
6.74136
6.18968
6.56839
6.90538
7.72183
5.92269
6.68787
6.3681
5.21808
6.10905
6.72693
6.42038
5.25343
6.71085
5.7865
5.88473
6.59731
5.79985
5.44552
5.6527
7.07406
8.42812
5.97647
5.46084
5.93405
6.71934
5.53629
5.68231
5.93919
8.30752
6.97139
6.9885
5.04182
8.31485
5.78992
6.86909
5.68748
5.87355
6.15353
5.11444
6.24281
5.8866
5.93672
8.80255
6.24263
6.00427
5.78117
7.15152
6.05583
6.09457
5.9971
6.68111
6.0579
5.6787
6.63256
5.52325
5.97365
7.24369
5.81601
6.2901
5.96825
6.49821
5.44815
6.18402
5.77117
6.71447
7.94472
6.31474
6.65819
6.11316
5.92887
5.5852
7.04752
5.28412
6.90812
6.66086
6.35787
5.92997
5.53198
6.55915
5.69311
5.35173
4.99122
5.72079
6.53822
6.96184
6.22829
9.34075
5.85244
5.90951
6.01647
6.25529
5.9554
7.93261
5.56909
6.56689
6.66712
6.48686
5.78305
7.47637
5.99273
5.27771
6.00156
5.12742
7.21838
5.3891
7.22148
6.15284
6.03239
5.25554
6.2647
6.92065
5.94188
5.63305
6.00297
7.1769
7.33838
5.81834
5.86798
6.11773
6.31324
5.40332
7.59458
5.25778
6.56329
7.19732
6.65207
5.9065
6.16278
6.92296
5.90266
5.47325
6.4918
6.07207
6.27556
8.38364
8.15658
4.92486
6.51819
5.33018
6.55623
5.98618
5.67146
5.8896
6.3685
6.72044
8.25821
6.63743
5.34818
6.50611
5.86865
5.90158
8.75884
5.93849
6.14877
6.58029
5.51833
5.33058
5.70932
6.26313
5.93497
6.62516
5.40678
6.55225
6.50307
5.18489
8.83997
7.14044
7.40148
6.62874
6.73778
6.60414
6.50041
6.67369
6.01302
6.0678
6.10235
6.92597
5.51731
7.59755
5.74261
7.04081
5.86621
6.45675
7.56728
6.43914
6.14738
7.25313
6.6633
5.6839
7.24233
6.22116
6.56112
6.15313
5.52921
6.1436
6.31944
6.1285
6.79748
6.12507
5.20298
5.36589
9.51522
6.30728
6.55642
6.20232
6.1427
6.09491
6.57414
8.01151
6.59443
5.51208
6.53123
6.63629
6.13125
5.26107
5.7245
6.43362
8.03401
7.59655
7.75168
6.06203
5.1435
6.70336
6.36873
6.09335
5.53138
5.55442
5.20663
5.97753
6.56169
5.86921
5.95891
5.46822
6.93357
5.9294
6.84118
7.62848
6.21892
5.74067
6.6959
7.78935
6.30619
5.24488
6.34244
6.01928
5.58652
6.4023
5.65534
5.87414
7.415
7.51954
5.52824
4.7677
6.36385
5.4948
5.46339
5.69048
6.80694
5.56059
6.21293
6.52932
5.29297
6.91393
5.76037
6.30334
6.50266
5.69879
6.05423
8.49778
5.97284
6.6749
6.13441
8.06065
6.19521
5.43222
6.20667
6.01722
5.22012
6.51007
6.71754
7.19993
5.25893
5.47487
5.80836
6.39389
7.33237
7.43956
4.91175
6.34884
5.80018
6.55234
6.12722
5.76383
5.71904
6.21664
6.52769
5.16694
6.66072
7.03362
6.94678
5.75703
5.90287
5.22008
5.65467
5.84772
5.59742
6.75036
6.67186
5.90261
5.42773
6.66161
5.81731
6.6938
5.6745
6.93317
5.29102
5.86316
6.59977
7.05595
4.89546
6.7818
6.98078
6.40946
6.89003
5.32646
6.48583
6.19898
6.22389
6.33934
6.93484
6.63795
5.97035
5.70715
7.60123
6.463
7.01516
6.5883
5.64514
5.47457
5.94624
6.25366
6.66546
5.37941
6.75891
6.88849
6.49042
6.22399
5.80369
8.24693
5.88802
5.4002
5.20874
7.68625
6.07123
6.80687
6.74623
7.42233
6.20052
5.63299
6.44639
6.31876
5.8585
6.21719
6.10109
7.71359
8.43472
5.37802
5.40417
7.25962
6.35502
6.55904
5.57243
10.5481
6.99566
5.77469
5.16833
6.31505
5.45679
6.42329
5.16709
6.57448
5.85616
6.85081
7.26301
5.86427
6.26268
6.47554
6.43843
5.36152
6.24216
6.56521
10.421
7.50155
6.61884
5.43319
6.16462
6.38619
7.03147
6.32028
7.11016
5.50126
6.11095
7.28945
6.3853
6.37886
7.48996
7.80056
6.79363
6.17138
5.79222
7.64279
5.56169
6.02726
6.84534
5.41657
5.58812
5.8905
6.12597
6.59344
7.14628
6.1657
6.42901
5.38616
6.27911
6.06949
6.91112
5.65346
5.98007
5.69298
6.52078
6.17528
6.62841
5.75103
9.56791
5.58955
5.13205
6.21729
7.5276
5.8698
6.55597
6.38708
5.65751
7.19121
7.83861
5.70772
6.60389
6.12191
5.79638
6.38263
6.02631
5.68904
5.3834
5.55284
8.37221
5.37857
7.3398
5.75117
5.92179
7.72575
6.13774
6.01674
6.37309
5.97471
6.32869
6.34223
5.82799
5.729
6.48437
6.43831
7.27805
7.01268
6.50072
5.01737
5.60104
6.32584
5.28305
6.69623
5.7991
8.77601
5.70096
7.55902
6.39709
5.83029
6.35511
6.25156
6.13979
5.78948
5.81973
6.87015
6.98871
7.70225
5.56904
6.17592
6.34483
7.35642
6.72096
7.22743
6.86372
8.31348
6.98916
5.71851
6.39144
6.76935
6.83129
9.23525
5.73955
7.18396
5.51957
5.36122
5.0901
6.89614
7.00862
5.99354
5.84805
6.29434
6.45481
6.07906
5.17269
6.60453
6.85821
5.73567
7.05969
5.38818
5.83679
7.4829
7.49417
5.79781
5.96785
5.76435
7.09062
5.42649
4.8391
5.96144
7.23176
5.98926
6.47802
5.42344
6.50238
5.75323
6.5919
6.44021
6.06516
5.92635
5.93571
5.85859
5.94352
6.43652
6.16537
5.19666
6.30344
6.12213
6.15321
7.04953
5.74424
5.63901
6.53104
5.91652
6.23977
6.95149
6.48124
6.0475
7.66942
5.30132
6.82764
5.84827
6.26747
6.08906
6.66196
6.89525
6.09105
6.44146
6.36085
6.056
6.33755
6.00913
5.5992
6.31482
5.38224
5.70248
5.94388
6.51086
5.4327
9.88895
5.4581
6.83551
5.54772
5.63971
6.40666
5.17846
7.47374
6.06557
5.78748
6.43191
5.81688
8.23945
6.41566
7.03883
6.5961
6.07001
6.50791
6.04497
6.53174
5.67955
6.06729
6.66388
5.68906
5.78232
7.43491
6.95356
5.63659
6.32461
5.15106
6.99951
6.24601
5.56713
6.15014
6.16429
5.44337
6.4187
6.59807
5.99601
6.24303
6.51089
5.61875
7.5866
5.82909
7.43867
7.05972
6.03142
6.18239
5.52551
7.02616
5.66478
6.20292
6.85704
5.81699
5.81319
6.15786
6.04461
5.21743
6.86714
5.99115
7.63243
5.93548
5.35581
6.11569
5.90177
6.10284
5.3281
6.3026
7.97279
5.68133
6.47967
6.05193
6.33521
6.50214
5.99963
6.08482
5.68936
4.79904
7.16834
7.19367
6.68241
6.03297
6.99017
5.63862
7.35876
6.92894
5.71003
5.87259
6.54635
5.75468
5.73297
6.69545
8.08604
9.49131
5.67727
7.90523
5.2346
6.40245
6.46193
8.00636
5.39923
6.17188
6.00475
5.34382
7.34117
7.00141
6.40796
6.77582
6.81402
6.5047
6.08344
5.40094
6.6239
5.48171
6.412
5.70528
5.76347
5.74505
5.81858
5.77525
7.80291
5.79471
6.21493
6.89661
7.67842
6.15268
6.00255
6.28422
5.83746
5.58266
5.93987
6.52196
6.58335
6.44759
6.53466
5.27154
6.67957
6.7326
7.06498
5.60481
6.48568
5.23603
8.21607
6.24103
5.682
5.55971
5.12299
5.74423
5.78526
7.84955
5.40039
5.11815
5.98838
6.62928
6.18842
6.32661
6.14796
5.69032
6.4062
7.06268
5.56562
5.29631
5.80952
6.0165
6.16296
6.48354
6.08288
5.46156
5.50271
6.41778
6.51449
6.14576
5.69798
5.8437
6.94596
6.45748
5.60339
6.16014
6.52943
6.03724
5.63794
6.14824
7.76057
5.02872
6.24136
7.82528
6.50673
5.87511
6.29278
6.54232
6.43677
5.9985
5.86369
6.59881
7.34418
5.82309
6.62327
8.09494
6.17255
5.15754
6.19562
5.70448
7.19641
5.57969
5.79386
6.60586
5.72809
6.06993
6.55754
6.66197
4.86557
5.31443
6.37439
5.4588
8.97711
5.76508
6.96619
5.82806
8.28618
6.80355
6.29511
6.07127
6.33578
6.04152
5.28656
7.90434
5.86896
6.73692
5.94176
4.74553
6.29286
6.66734
6.93213
5.90483
5.43218
5.95363
5.88824
6.58888
8.79875
6.91934
7.00088
6.62047
5.86451
5.74788
6.00549
6.8146
7.6233
5.26811
5.70924
6.3163
9.36348
6.35854
5.9218
5.02401
7.21979
6.93821
6.87033
6.8786
5.64591
8.00685
6.26188
6.11675
5.40875
6.86612
5.06953
7.59667
5.50481
7.77106
6.39243
5.82725
5.28499
6.11102
5.75676
6.52386
6.14613
5.80305
5.75569
6.28429
6.92653
5.34764
5.87874
5.85687
5.30446
6.43731
5.5112
5.9721
8.99079
6.30151
6.65614
7.14353
5.49834
5.43554
5.81856
6.82039
5.31875
6.12365
5.58003
5.84859
6.29035
9.2076
5.81794
5.17546
8.52464
7.0341
5.97125
6.60354
8.12299
5.68614
5.11782
6.68895
7.24402
7.98629
7.13199
5.96487
6.38971
6.92393
5.9068
6.8429
5.63041
4.99923
5.46771
6.00423
6.62019
5.57778
6.62272
5.95791
6.83357
6.1562
5.83156
6.52361
5.74324
5.19788
5.98672
7.50923
6.32599
6.63255
7.18534
5.57386
6.45674
6.81478
6.66539
8.29906
6.82861
6.27776
5.92944
6.1749
5.96432
6.09449
6.26446
5.40748
6.55971
6.14962
6.47939
6.13123
6.7501
8.76416
6.89518
6.00066
6.26788
6.60353
5.64818
5.94595
6.82129
7.86424
5.35596
5.75883
5.64903
7.32344
6.51379
5.47043
6.92309
5.25586
6.05145
7.42553
7.84644
7.1625
6.51668
6.15754
5.50541
6.95427
6.23731
7.48242
7.87004
6.45282
6.99556
6.9112
5.82846
5.88289
5.78897
6.74171
5.75881
8.02936
7.71054
6.38668
6.56101
6.22682
6.91142
5.62402
8.83838
5.54233
5.94008
5.8937
7.40509
6.92327
7.79278
5.77328
7.16301
7.41886
5.02032
5.66947
5.56013
8.08245
7.55828
6.99388
7.07741
5.35892
6.35592
5.90436
5.7244
7.02371
6.30907
6.26011
5.75019
7.93185
8.31305
7.05939
7.78494
5.39159
7.82425
6.29207
6.29607
7.43494
5.08241
6.39699
5.66095
5.91175
5.15802
7.14307
7.24175
6.57079
5.79396
6.19471
5.689
6.29543
5.99721
5.65375
7.03258
5.932
7.31865
6.596
5.89466
6.2041
5.61646
6.64294
5.52819
5.98163
5.37764
6.10782
6.56025
5.04175
5.61713
6.11571
5.89149
6.62525
7.16604
5.55417
5.57923
6.70699
7.1716
7.43886
5.25868
6.4173
6.16416
7.45516
8.49421
5.89117
5.90972
6.9636
5.07746
5.80794
5.36281
5.81815
5.70728
6.39563
5.38661
6.38809
6.69966
6.17874
6.31649
6.58563
5.91942
7.22001
8.06317
6.43067
6.515
6.14602
5.29674
6.22969
5.39618
6.07976
7.65394
6.07325
5.78895
6.67149
5.45102
7.4726
7.54292
7.80389
5.78044
5.79002
6.66017
6.18272
5.44804
6.37873
6.86314
6.67195
8.072
6.07444
6.37209
5.84015
7.8608
7.58179
5.39962
5.95375
5.57139
6.31958
5.35805
7.43869
5.44549
6.05495
7.19984
6.32763
6.28309
7.3715
6.20449
6.02858
5.39239
5.1712
7.3081
6.33034
7.58287
5.31959
6.50987
6.69948
6.72272
6.54122
5.70783
5.86836
5.71251
7.17521
6.22944
5.1791
6.55089
6.26868
6.32993
5.98015
6.03146
5.73827
6.19547
5.73476
7.62667
6.17439
5.87883
6.34028
5.65345
5.06073
5.46294
5.80837
7.12091
6.5836
5.92229
5.52064
4.91636
6.62227
6.11258
6.00652
5.66864
5.52571
7.29281
6.12277
6.31287
6.81997
6.46746
5.60314
4.99658
6.87091
6.33583
5.40409
6.10811
6.02751
7.95406
6.43345
5.18614
6.32495
7.23783
5.46844
6.22047
6.56954
5.91985
5.70773
5.68744
6.85137
7.18344
6.60005
5.449
6.80807
6.29681
6.10512
5.97497
7.56197
7.75238
5.66822
6.48682
5.84346
5.56907
6.04286
5.33991
8.18699
6.30285
6.09356
5.38315
6.41979
4.97185
7.96501
6.52907
5.79698
5.51709
6.12832
6.71652
6.69434
5.62673
7.53726
6.833
6.79267
5.36788
7.9835
6.16189
6.54243
6.05464
6.0909
6.29564
6.46026
7.63602
5.91825
6.63298
5.6471
6.11473
6.96195
5.84346
5.51217
6.00663
6.52779
6.5938
6.64313
5.43096
8.19606
7.2103
7.62507
7.22401
6.38643
5.47936
8.21713
6.75104
5.31409
5.98739
6.2161
6.01153
5.73586
6.16837
6.0029
8.4064
7.17962
5.83599
5.55289
5.55417
6.40672
7.45198
5.32844
5.71882
8.30092
6.75463
4.8462
6.42339
6.15618
6.96387
5.79703
6.87385
5.65415
6.05523
5.78316
6.08974
6.43618
6.9663
6.25603
6.40794
6.76928
6.05902
6.93526
5.24046
5.70965
7.02367
5.17928
7.09244
6.0976
6.75821
5.74423
6.28688
9.11998
5.2288
5.39576
5.76318
6.91548
6.91259
5.85385
6.10626
6.81319
6.76039
6.528
6.8077
7.23075
6.25259
6.01586
6.28251
6.27443
6.69148
6.7893
5.09274
9.2062
5.80448
6.41719
5.26774
5.86385
7.12654
6.35354
7.06133
7.13834
5.48146
5.83209
5.20919
7.1725
5.75082
7.34061
6.368
7.3518
6.40846
7.12168
6.96792
7.01403
6.93013
6.1216
7.24398
5.74538
5.01203
6.62395
6.50232
7.8813
6.20169
7.56107
5.86983
5.93504
7.77346
5.82027
7.00125
7.06362
5.02656
8.49288
5.73251
7.10324
6.40896
6.35725
5.70534
5.1302
5.03377
6.27443
6.23262
8.03842
6.61506
7.03708
7.10715
6.1964
6.71347
6.21041
5.87989
6.27218
5.93591
7.05556
6.5386
5.91621
5.2973
6.67458
5.12524
7.40277
6.7791
6.27675
5.21169
8.77343
5.16189
6.31014
5.01657
7.0731
7.15717
5.73915
6.85185
6.30393
6.10382
5.32864
6.94255
6.04602
6.15859
5.77532
6.88364
5.14527
5.71708
6.02562
7.7177
5.42854
7.16444
5.71745
5.50177
5.94189
7.29293
6.55469
6.758
5.83028
6.79588
6.66527
6.3782
5.33762
6.9658
6.72204
6.49001
5.80853
5.92817
6.14828
5.32775
6.61197
7.65953
5.86827
6.91279
6.55561
5.64489
5.98014
5.91329
7.49986
5.8337
7.13875
6.00142
5.92529
5.96679
7.55539
5.38946
6.35513
5.27094
7.89369
5.42838
5.57479
6.46266
5.77819
9.11949
7.27271
5.57231
5.40133
6.91312
5.86827
7.01633
6.19757
6.17267
5.80493
6.44696
5.02788
7.97789
5.66216
6.7024
8.31151
7.81597
5.73597
5.83189
5.39802
7.3356
5.33959
7.46622
5.60684
6.01866
6.66883
7.39895
6.10552
5.75138
6.13053
6.8935
5.94859
6.0445
6.12275
5.39199
6.00392
5.56321
6.07106
6.65051
5.96464
6.98679
6.55305
6.59255
6.08039
5.64113
6.87455
8.04312
6.50927
5.62325
7.1121
5.14372
6.60349
6.11303
6.8468
7.00384
5.92939
6.19681
6.074
7.23945
7.12015
6.83194
5.65952
5.4342
7.67956
5.64798
6.72563
6.06739
5.81395
5.6043
5.93612
6.97416
6.48449
6.58631
5.57538
6.11173
6.23719
6.72193
5.87038
9.50799
8.53292
6.21413
5.10856
5.58522
5.87019
5.61516
6.8974
6.11683
7.13261
6.27957
5.78317
6.69859
6.75447
6.60567
9.69759
6.52042
8.91238
5.61115
7.32343
7.70768
5.35963
5.39102
6.39895
5.92959
6.91912
6.58777
5.76064
5.75816
6.73166
7.46602
6.06679
7.58367
5.74827
5.71627
5.78902
9.60872
6.9219
5.58458
5.82552
5.979
5.25323
6.55103
6.34736
7.86814
6.45514
6.51493
5.93878
6.28543
5.64211
9.71797
5.8693
7.7086
6.90765
7.15983
6.58492
5.0705
5.29502
6.69597
5.15703
6.27662
6.03037
6.84499
5.48069
6.36823
7.7719
5.79723
6.8811
5.92578
7.87069
6.30288
7.0409
6.78079
7.99532
7.18147
6.17417
7.25011
5.38525
7.20366
6.85399
6.21779
5.56799
6.5696
5.97054
5.67054
6.91901
5.69388
8.45021
7.25727
6.0991
5.73046
5.23245
6.03985
5.80708
6.27056
5.49684
6.31226
5.82742
5.8981
6.24592
6.43134
5.58998
6.9757
6.45664
5.96912
6.60727
5.8706
7.42452
5.75745
6.04333
6.66934
5.69723
6.47825
5.86237
4.98737
4.97987
5.53111
5.99461
5.96865
5.82678
5.67779
7.10018
6.35474
6.05681
10.1062
5.70831
8.08877
7.2541
8.29072
4.81713
7.09439
10.0125
5.79524
6.02924
8.57392
5.97564
6.25182
6.40782
7.21252
7.587
6.70168
5.94827
6.47801
6.03856
5.92696
5.59679
6.06714
6.07882
5.61882
6.15639
6.20726
6.09575
5.83125
5.15406
5.88145
7.21894
6.29268
6.99586
6.74316
7.70401
5.47876
5.96305
5.78877
5.51837
6.60744
5.17864
4.99768
5.4697
6.27467
7.02027
6.92358
5.685
7.22632
5.24386
6.46534
5.66774
6.63398
5.92048
5.28974
6.58982
6.03661
7.03067
6.43651
5.71247
7.11463
5.74891
6.70335
5.2006
6.34149
7.49781
5.75803
5.8038
6.73407
8.36722
5.11874
5.88365
7.70784
5.81325
7.34728
5.71659
5.98097
5.81005
5.89768
5.90219
6.19848
6.16605
6.36497
6.22124
5.90939
5.99563
6.19461
5.48667
5.84321
6.60274
5.90508
5.35943
6.77856
6.40286
5.73782
5.13199
6.1864
7.28862
9.31089
5.91585
8.17894
5.50243
8.45484
5.60272
8.33536
6.40488
5.54808
5.71155
6.0679
5.74203
8.40233
7.26847
5.2197
5.99272
6.24928
7.04726
6.63839
6.62261
5.99296
4.94741
6.54132
6.08121
6.33366
5.97897
5.65214
6.8576
7.15565
5.3559
6.54706
5.7857
5.21749
6.47426
5.26791
6.20951
5.83697
6.56129
6.42795
7.03102
6.71531
6.30263
7.19624
6.00975
6.49661
6.74701
6.92801
6.73001
6.10252
5.70994
8.02795
5.95854
4.95241
5.85171
5.56105
6.087
6.57118
6.86267
5.62241
5.74496
5.76426
5.7999
6.13465
6.07609
6.74408
6.90056
6.16176
5.41947
6.03676
6.33586
5.90899
5.72887
5.36704
5.97728
5.89811
6.53602
5.98372
6.60674
4.97362
6.59479
5.97307
8.99741
5.4633
6.19233
5.8938
4.94927
6.0276
8.28465
5.48152
6.68369
6.68335
5.62474
6.61966
5.66438
6.7625
6.01877
5.50697
6.79281
7.07099
5.34418
5.58534
6.20697
6.18821
5.49463
6.25931
5.74962
7.19998
5.92579
5.32533
6.08133
5.51658
6.75095
6.13512
6.19065
6.50137
7.22372
6.41643
6.53747
6.34833
6.51019
6.34938
6.46243
6.46494
5.24854
5.67799
5.59542
6.71616
7.00233
5.70308
6.98852
6.42311
6.43743
5.39631
6.05992
5.62
5.85874
7.45091
5.79004
7.40114
6.13692
7.42943
9.06543
6.30398
6.38616
5.67779
7.4207
6.31231
5.50919
5.42909
5.38728
7.86277
6.98443
6.65006
6.54077
5.43096
5.29916
6.1138
7.643
5.95073
6.6408
6.73055
6.511
5.55543
6.05481
6.85007
5.83354
7.41057
5.27166
5.88714
6.58519
6.909
6.04519
7.3062
6.10322
7.33693
6.15119
8.08248
7.11423
5.53354
6.06425
6.12771
5.5544
5.06792
5.64613
5.79817
5.65821
6.31433
6.02291
6.43924
6.64313
7.10906
5.91709
6.4294
7.46428
5.68572
5.89307
7.17075
7.12052
5.72572
5.66684
5.61408
6.40852
6.43374
6.48957
6.74829
6.61912
6.63694
5.70206
6.94717
5.56547
4.90172
7.71938
7.06521
6.55922
5.70666
5.48192
6.32809
5.27981
5.56848
5.79202
5.78168
5.95548
7.08378
6.41502
5.98398
5.56774
6.25188
5.86247
8.38422
5.31078
6.56059
6.35246
7.67302
6.36026
5.76568
6.63756
6.8785
7.15494
6.24439
6.36021
6.50651
5.96276
5.77347
6.55149
5.58569
5.31469
10.0084
6.24271
6.05943
5.3729
6.68694
7.41649
6.12414
6.1737
6.20117
5.92148
5.65722
6.56561
6.75993
6.55987
6.05466
6.33406
7.03988
5.77359
6.82197
6.72192
5.89455
7.34196
6.27224
7.69406
6.92693
6.28699
5.79702
5.62542
5.76926
5.89393
5.64393
6.07103
6.99062
5.94055
6.81357
6.60179
7.06509
8.63174
5.60808
9.76334
6.45316
7.58742
5.84192
8.59825
6.31766
8.74971
7.21335
5.5589
5.36052
6.62045
6.95015
6.3796
5.53664
5.89722
5.62673
7.39506
7.5237
5.64212
6.06623
5.50657
5.99745
6.86011
5.92826
6.18528
5.54135
5.99092
5.08878
8.39872
5.67259
7.04729
6.19796
8.03414
4.9475
6.6463
6.92516
6.25589
5.44516
5.687
5.44512
6.16325
6.00778
6.02502
6.75469
4.91105
6.97209
6.95254
4.92266
6.09073
9.16365
5.6975
8.29241
5.99472
7.29466
5.80304
8.06263
6.7387
6.41949
6.53905
5.84276
7.48373
5.45084
6.41721
6.74337
6.10162
7.61403
6.51641
7.38588
6.3114
6.27577
4.99607
8.07807
7.59321
6.241
6.11637
5.27109
6.29465
5.14715
5.87893
6.08672
6.89087
7.44642
6.79432
6.13188
5.89033
5.72106
6.68093
5.82694
6.27584
6.13785
5.89124
5.613
5.83658
7.06501
5.52521
8.29806
5.69662
5.91503
5.23613
5.69284
6.46673
5.50051
6.71125
6.18555
6.73784
7.12615
5.88808
6.27846
5.86362
5.79104
5.44931
6.04333
6.47159
5.93951
5.85596
6.6269
6.52694
5.50447
6.93592
6.09826
5.66875
5.8177
6.31229
6.18253
7.42057
5.99138
5.78596
7.50283
6.02759
5.93911
5.52274
5.91599
6.19385
6.42868
6.90613
6.19451
5.93877
5.85492
5.455
6.30373
8.01215
5.52981
5.59386
6.56405
8.67573
5.98019
6.70813
6.93048
9.03683
5.36619
6.06938
5.68284
6.56408
7.07936
5.8003
5.71284
7.23623
6.19718
6.26128
7.18405
5.67949
5.81944
5.84787
5.13859
5.98449
5.32579
5.43945
5.62163
5.47449
5.24155
5.54672
6.01061
5.737
5.05345
5.703
6.32402
6.41142
7.03719
5.26733
6.68578
5.69822
5.81162
6.17215
7.04771
5.72932
5.30557
6.36388
6.86543
5.8137
6.32243
6.27155
6.60295
4.91391
7.33472
5.8241
6.64637
6.46777
5.51973
6.97838
5.4099
4.92478
6.06699
6.54288
6.14206
5.96035
6.95774
8.3673
7.40188
5.5279
6.35056
6.68633
6.26792
6.26005
6.0141
6.57991
6.60526
5.94899
6.71506
5.24528
6.33254
5.38459
7.098
6.64905
7.17032
5.44359
5.87942
6.05953
7.63423
6.57522
6.56392
6.06794
6.763
5.26514
6.48341
6.78323
5.36218
6.65097
6.39569
5.83502
6.13925
5.81003
6.04481
8.16311
5.74166
5.03238
5.1676
6.25597
6.45779
6.55351
6.28379
5.74058
6.09459
6.0955
6.22871
6.21813
5.56447
5.66472
7.36376
6.38725
5.41259
6.70558
5.8407
8.13529
7.19982
6.44086
6.27153
5.32842
6.14127
8.81994
6.13312
5.59315
6.00139
5.45867
6.66197
6.08716
6.42828
6.24638
7.12151
6.21381
6.95559
5.94008
6.79677
6.27657
5.87012
6.27394
6.68688
8.96747
6.16193
9.04938
6.70476
5.29221
5.31383
6.43766
5.60927
6.73769
7.00911
5.52792
7.04982
6.61478
5.42788
5.15382
5.57853
6.29943
7.03415
5.74253
6.31155
7.22958
5.59574
5.93286
9.12829
7.07006
5.92988
6.99969
6.88689
7.30671
6.25431
6.52379
5.78285
6.40551
5.92252
5.38142
6.18114
5.3583
5.96147
7.37778
6.06872
5.98698
5.91251
6.07767
5.99109
7.77371
6.18449
6.78223
5.70185
5.98733
6.92889
6.14261
6.66705
8.10618
7.58343
6.14022
6.02759
5.80518
6.95497
7.80312
6.64337
5.03265
6.77754
8.81982
5.81728
6.59754
5.74077
5.77151
6.10032
11.2487
5.79634
7.21702
4.93662
6.7104
5.61801
6.3504
5.56641
6.70701
5.15324
7.15753
8.05322
5.36616
5.46293
5.60142
7.21857
6.80884
5.9852
5.42961
5.34995
6.90285
6.62906
5.70215
5.7429
6.9646
6.24347
6.0048
6.50763
5.95677
7.21017
5.30433
4.95064
7.25085
6.57877
6.62062
7.3949
5.93324
6.82712
5.91558
5.75345
7.03163
7.39998
9.03912
5.77301
5.71543
5.83771
8.10771
5.90839
6.71449
5.75326
6.78099
6.61966
6.57297
5.25364
6.37459
6.12869
6.37477
6.55261
6.3117
6.46332
5.09486
6.56416
5.85056
6.89294
6.66255
5.21841
5.79381
6.19269
5.44735
6.18491
5.21785
6.8798
5.32382
5.56274
6.13375
6.44823
6.47367
6.80603
5.90833
6.81111
6.06308
5.76266
7.14627
5.65222
5.87094
5.97067
6.34352
5.57929
6.95081
6.74246
5.51141
5.93654
6.61629
5.7206
6.09153
6.0245
6.36806
5.61767
6.28997
5.69047
6.47658
5.54427
6.54987
7.21086
5.93377
7.46075
5.53287
7.25556
6.20446
7.39272
5.48928
6.01883
6.09393
6.46276
7.67433
7.46848
6.98376
7.73321
6.2415
5.34372
5.68861
6.31495
7.254
7.10971
5.06444
5.40518
8.3857
5.86929
5.98423
5.92611
5.97204
5.38624
6.22726
6.93655
6.39021
8.27004
6.21858
6.50781
5.55114
5.93722
6.30423
6.81016
6.43265
4.96727
5.93404
5.68334
6.46739
5.91279
6.82316
5.52863
6.07927
5.28632
6.46455
7.06233
5.65866
5.37895
7.23617
7.63413
5.14181
6.17226
6.36569
5.50837
7.2293
7.22039
6.46404
7.51093
7.84416
5.12104
6.25363
6.77665
6.05846
5.93027
5.31243
6.49688
6.32426
7.32702
5.95157
7.62771
6.99342
6.77486
7.52872
6.50421
5.86275
7.30157
5.08111
6.13187
6.96924
5.5557
5.04143
6.12453
5.86257
6.50178
5.80801
6.49988
6.63816
5.55024
5.68467
5.52458
5.93912
5.70261
5.0303
5.58961
6.80699
5.88061
6.41737
5.91646
7.47656
6.10154
5.93422
5.60643
5.18013
5.40692
7.31621
7.3428
9.59743
6.24126
5.93145
6.06797
6.10046
5.17151
5.85381
5.93748
5.32862
6.34293
6.10123
6.09057
6.10161
5.70199
6.88469
5.99293
5.7983
6.84698
5.66486
8.56398
9.44373
7.72888
5.71368
6.32616
7.1599
5.80171
6.45751
6.28677
6.84371
5.14618
6.90368
5.45043
6.79413
5.50825
6.94651
6.38655
6.33212
6.30237
6.96808
6.61718
6.27536
8.52173
6.14996
5.00483
7.08149
5.51159
6.3238
5.73965
5.36639
6.25323
6.16144
6.98957
6.87405
5.14024
4.84631
5.78624
5.36502
7.5084
6.15418
6.51436
5.78858
6.43594
5.71749
5.57121
5.86834
6.89946
9.02317
7.51532
6.05248
5.45507
7.54706
7.07496
6.36155
5.97077
5.66734
6.9496
5.90304
5.87361
8.43717
6.24939
7.05386
6.19081
6.02759
5.76443
5.71562
6.15903
7.02429
5.77986
6.08309
6.31009
6.69086
5.16583
6.2614
5.86017
5.88683
5.8205
5.15946
9.22576
6.24145
6.2527
5.70661
5.65864
8.56392
6.60322
6.41847
7.4556
5.84156
5.88324
6.26555
6.93476
5.70788
6.16781
6.06321
5.25963
7.65116
6.6907
6.99031
6.11555
6.03299
6.30819
6.28356
5.85525
5.54253
5.66512
7.05047
5.85646
8.10192
7.82401
7.12463
6.34931
7.83908
6.42207
5.24486
4.84519
6.27424
8.22557
7.81228
5.8264
7.16805
6.61169
7.56929
5.70193
6.15803
6.20655
7.10764
6.72998
5.83851
6.04289
6.58081
8.02502
5.8663
5.48345
5.43172
5.63753
7.87664
7.71046
5.60662
6.40131
7.63048
5.63884
6.52846
6.19239
6.77322
6.01192
7.06923
6.02423
6.54205
8.77761
8.45256
5.99658
8.36015
6.5955
8.01807
7.9314
6.73264
5.6373
6.10551
6.99011
5.04691
6.74473
7.50174
6.55515
5.66345
6.51265
6.19911
6.39915
7.51184
7.82686
5.60853
6.24489
7.30294
6.05543
8.42581
6.14567
6.56805
7.37963
5.51639
6.79015
5.34325
6.04076
8.22173
6.00131
6.07326
5.71059
6.77982
4.97614
6.74662
5.44357
6.77098
6.2966
6.65068
6.35101
6.24473
6.38187
6.89765
5.93553
5.47009
7.51597
5.84812
5.55194
7.22329
5.38732
5.75336
5.34927
5.24399
5.3076
5.79364
7.41885
6.82847
5.53197
6.60062
7.79414
6.34698
6.54189
5.60466
5.6851
5.89771
5.67859
5.76355
5.35011
5.65879
5.17453
5.40132
5.46307
5.98655
6.29983
6.58919
7.56271
6.56827
5.70847
5.10975
5.05947
9.30417
7.60119
6.17609
5.65965
5.57039
7.14611
5.85709
5.66167
5.04982
5.43127
6.10118
6.24834
6.59176
7.44445
5.9877
6.00764
5.82874
6.11905
5.41481
5.82234
6.30503
5.87578
6.14482
8.09559
6.3805
6.16236
7.18362
6.07159
7.85797
5.96691
5.75876
5.00114
5.4177
6.35212
6.03879
7.81554
5.84758
6.10428
7.12304
6.5679
8.06112
6.30259
7.40515
5.71656
5.76496
5.53927
5.56561
5.95811
5.61302
6.05581
6.37094
6.43472
5.99566
5.0489
5.62784
5.27764
5.27122
5.91244
7.00004
5.63694
7.16194
6.80383
6.74093
6.16816
7.57508
6.78261
7.74806
7.73701
6.19716
5.21529
5.16549
6.23619
8.34836
5.5041
5.27345
6.7423
6.87502
5.95358
6.02121
5.44236
6.33043
5.79488
5.77333
5.59671
7.38959
5.82128
5.53909
6.47481
6.06568
5.68629
5.29452
5.2607
6.303
7.69303
6.44498
6.46294
5.20099
6.23806
6.52974
6.28915
7.06605
5.56044
5.953
6.39591
5.46001
6.82913
8.03393
5.65851
5.75309
6.54567
6.98135
7.17282
6.99831
6.68971
5.20657
5.99813
5.53927
7.23103
5.53055
7.3775
7.34141
6.21334
5.8517
6.36666
7.6604
5.48461
7.20834
5.46375
6.14002
5.72408
5.85697
5.99897
6.7981
5.64522
7.94818
5.86612
6.50417
5.44593
5.60945
5.39453
5.70622
5.36957
5.97206
5.03658
5.5044
6.04126
7.58551
5.71497
5.76363
5.81548
5.60361
7.12892
6.12105
7.09335
5.41151
6.22682
5.05962
5.48191
5.84271
6.63905
6.41828
6.36341
7.20164
6.46857
7.05701
5.3237
6.42052
6.86591
7.15756
6.29211
5.8384
7.89504
6.38389
7.18647
6.87821
5.82085
6.23384
8.6267
6.0681
7.44353
6.31505
5.65723
5.87565
7.45792
6.66645
6.24539
7.14612
6.76898
7.12072
5.5285
5.69758
6.90038
7.09988
6.31038
5.54819
5.9076
5.78196
4.96728
5.73138
5.80852
5.42358
6.07044
6.664
7.56782
5.55988
5.71893
6.40444
5.51192
6.38076
6.53688
5.98352
7.43786
5.61836
6.08524
5.64827
5.77705
6.43862
5.22077
5.66806
5.26326
6.81899
6.27687
5.74963
7.07313
6.48123
6.44113
6.86597
5.74097
5.84907
5.49816
6.02112
6.64674
6.1457
6.82123
5.49093
6.16487
6.19755
6.39815
6.81039
7.19072
5.70766
6.46175
5.26989
5.75291
5.38278
6.25797
5.7771
5.48777
6.75978
6.38341
6.39575
6.10681
5.45995
5.2112
7.57185
5.93905
6.38505
6.77084
5.2493
5.31905
6.56496
5.6862
5.30012
5.2511
6.01451
5.97964
6.18637
5.68495
6.50613
7.51472
6.26881
5.98839
6.9817
7.14375
6.48097
7.43331
6.69453
5.7486
6.17425
7.01086
5.20858
7.65172
5.84721
5.99896
6.50494
7.55831
5.23707
6.31013
6.1216
5.88297
5.15296
6.25397
6.67705
5.50024
6.58867
5.26351
4.86303
6.59569
6.1767
7.60745
6.47952
5.35579
6.76678
5.54135
5.66848
7.41042
5.60895
5.30671
6.06536
5.81858
6.11606
6.19407
6.89257
6.38904
6.30441
5.67981
5.3779
6.15083
7.0535
6.28776
5.83149
5.87153
6.00994
6.26598
5.50527
6.99067
6.34668
5.2045
8.58626
7.3211
8.27656
6.25155
5.1381
6.50508
6.05347
6.67628
5.41857
5.54439
7.20426
6.23588
6.27998
6.65646
6.48185
8.49023
6.44973
5.71588
6.48421
6.78207
6.46297
5.14267
5.67447
5.83488
5.41574
7.32117
6.04239
7.06874
5.60556
6.36422
6.51867
5.59216
5.59503
6.53074
5.77289
6.08273
5.87152
6.23885
6.24002
6.55879
5.86193
6.3272
4.79534
7.36742
7.05041
6.37444
5.91229
5.99722
6.08574
6.50168
8.33848
6.89967
5.6365
6.27418
6.12438
7.56473
6.13954
6.83025
6.25758
6.52911
6.13209
6.18877
5.4443
5.38062
5.83761
6.68146
5.90216
5.54273
5.80408
5.80621
7.11259
7.39113
5.2853
5.56725
5.72004
6.73417
6.02698
6.13065
5.24749
5.48196
7.04669
6.19652
6.94816
8.76196
6.35735
5.3401
6.75666
5.63905
6.11674
6.40343
5.40086
6.43441
6.50993
6.63451
5.80371
5.84942
5.63857
6.3921
5.56088
6.47244
5.50299
7.05708
5.5521
6.30274
7.55815
9.46803
6.47359
5.72937
6.2357
8.19888
5.23864
5.97992
6.03501
6.26175
5.21063
6.27092
5.96433
5.56801
5.22235
7.12931
7.83876
6.53666
6.81238
6.86096
6.55293
5.54967
6.43177
5.27572
6.32289
5.93673
6.08489
5.94847
8.0379
6.20701
10.8408
6.22501
6.49998
6.07099
6.02858
7.00983
7.00506
5.44092
7.10551
5.72936
6.48582
6.0328
6.83379
6.24448
6.33208
7.74724
7.33621
6.41304
5.31743
7.30197
5.08748
6.40932
5.7611
6.50247
5.38403
5.98172
5.80518
6.6359
6.89451
5.85562
8.45892
5.26709
5.96113
5.9315
6.34855
7.07962
6.33356
7.20144
5.7331
5.24429
6.62778
5.64157
6.50821
5.87263
7.87912
6.18048
5.26916
5.65648
8.19036
5.92057
7.09695
8.3535
6.50788
7.19723
5.7667
5.70955
6.47524
5.65828
7.36225
7.85985
7.36532
5.38849
5.2847
7.97011
6.6253
7.08204
6.19621
5.09658
6.23747
5.3671
7.45712
6.47021
7.53962
6.16111
7.54365
5.66134
5.00612
5.92349
6.71597
5.26507
5.8446
5.78087
5.84595
5.52387
6.48161
7.30988
5.98178
6.43733
6.15456
6.043
6.7614
8.37117
6.11524
7.05979
6.4024
7.70926
5.42031
6.03353
6.41421
5.29115
8.06489
6.97349
6.0382
6.24814
5.56844
7.58944
6.62324
5.54636
6.60059
6.35215
6.30797
5.80891
6.62339
7.61372
7.98722
7.67625
7.21423
5.87369
6.06414
5.73664
6.85803
6.16914
7.70875
5.94002
5.74526
7.33553
6.44146
5.74344
6.36293
6.77988
7.11863
6.13554
6.74909
6.10625
5.94112
8.27619
7.38798
5.82808
8.28465
6.43398
5.27342
8.43428
6.09231
7.91573
5.79087
6.68522
6.7191
5.96209
6.73672
5.19296
6.57346
6.10697
6.98343
6.25001
6.81741
6.84269
6.11236
9.86456
5.50342
5.79296
6.07242
6.44864
6.6974
8.44025
6.34057
6.45871
7.9936
7.90074
6.11463
6.95152
6.93445
5.49429
5.21726
7.54493
5.74272
5.89265
7.27403
7.41653
6.40674
6.06204
5.65706
6.39918
5.95754
6.08005
5.15892
6.62375
7.50728
5.54987
6.82089
5.94115
6.68424
6.0044
5.70899
5.54687
5.85243
6.20912
6.69623
6.19526
6.45169
7.46869
5.71423
6.36802
5.87507
6.21626
5.99952
6.69602
5.63342
7.34468
6.62518
5.53928
5.28853
5.17845
6.89436
5.25216
6.37921
5.67626
6.34705
5.23119
6.44285
7.33274
8.38687
5.6034
8.0411
5.80571
6.45482
6.48958
6.73959
6.53746
5.51642
6.05268
9.13461
5.85366
5.20953
7.11193
5.09961
5.61393
7.16371
6.2303
5.53895
6.36968
5.49133
6.04141
6.05779
5.97139
6.40142
5.15455
5.49396
6.71071
7.43894
6.6699
5.75061
9.09528
6.08281
7.43596
6.24543
5.69375
5.97397
7.60676
5.44563
6.38352
7.42687
5.63513
7.74431
6.92474
6.32292
6.85749
6.36486
5.92214
7.67693
6.48131
5.70886
6.2984
6.22799
5.15723
5.58798
6.57435
8.59114
6.35943
7.27776
8.44111
6.89747
5.94293
5.78888
6.23177
5.92424
5.49216
4.96829
8.24546
6.33013
7.56345
6.59305
6.6411
7.23559
5.91637
5.82642
5.87369
5.55001
6.31405
5.97327
6.0046
7.51148
6.29798
6.50131
5.35457
5.57481
5.81003
7.42731
5.83535
8.06095
5.69917
5.99997
6.84366
5.35745
5.33904
5.25983
7.09079
5.89071
5.6464
4.96264
7.7636
6.72582
6.80296
5.51567
5.74876
6.01421
6.3078
5.96695
5.5849
7.57661
6.21192
5.71953
7.4357
5.44824
6.53089
6.57802
7.25042
6.79788
5.6653
6.47268
5.46297
4.95864
9.2564
5.43392
6.85044
6.02947
6.11855
7.2573
5.82461
5.61693
5.52866
5.48262
6.04922
5.998
5.74042
8.53074
6.71499
8.71433
7.06197
5.41048
6.10865
4.63406
6.07408
9.84941
5.45687
7.23699
6.2978
6.35592
7.1203
6.32499
5.72966
5.70519
7.33786
8.17287
6.05258
5.74604
5.52726
6.33324
6.42525
6.33738
5.48606
5.02768
5.3789
6.34078
5.52275
8.96573
6.12479
7.89985
6.88203
6.19139
5.78998
5.91866
6.72425
5.73524
5.42899
6.67515
6.14125
5.79304
6.15142
5.35876
5.77782
7.01268
6.99086
5.72014
6.05331
6.58286
6.77942
6.19219
7.61518
6.50195
8.86281
6.08388
6.27305
6.00571
6.42924
7.69609
5.48744
6.1133
6.99132
6.5765
4.90253
6.99183
6.40467
5.16131
8.85904
7.82928
6.06087
7.44321
8.87416
7.26781
7.86545
7.1578
6.87159
6.88285
7.40735
6.05757
5.37195
6.64252
5.87921
6.43845
5.82545
5.35343
6.02215
6.27697
5.79844
5.33541
5.42494
6.37502
5.73645
5.10433
5.78069
5.50585
5.47483
5.64103
5.8722
6.50962
7.13588
7.80546
6.14394
8.17846
6.66334
5.76464
6.09391
5.92539
6.90255
5.83162
6.46878
5.45168
6.34114
6.00462
7.1019
5.99878
7.3685
8.6058
6.25575
5.43027
6.29036
5.39713
6.10688
8.22462
5.14153
7.40842
6.26807
8.17049
6.0084
5.38448
7.737
9.73412
6.87618
5.13976
6.61014
7.09963
5.53682
6.22064
5.61156
5.85242
6.09302
6.21023
6.18251
5.98745
6.00507
6.35694
6.93732
7.13931
5.9721
5.94187
6.28024
5.46325
6.15194
7.49663
5.8644
6.25342
6.7439
6.31487
7.59264
5.75537
7.56048
6.24147
6.54242
7.31177
7.48227
6.2894
6.9427
6.5332
5.42409
6.22856
5.39778
6.87662
5.86641
5.8781
5.45323
5.65823
7.02626
5.82537
6.75971
6.00596
5.72146
5.3706
7.30446
6.00484
5.85403
5.1655
6.03708
6.51386
7.13625
5.53371
5.88322
5.85173
6.4783
5.53573
8.19996
5.27932
6.24605
5.67347
5.91276
7.21996
6.51336
5.79886
6.03771
5.60762
5.36084
6.3777
7.10262
5.7654
5.78661
5.80907
5.74784
9.20752
6.67191
6.97616
8.37505
5.39192
5.75182
5.76713
6.18515
8.94435
5.37301
6.08438
7.14744
5.91682
6.41028
6.94323
6.59932
6.5474
6.80262
6.07474
5.85358
7.56919
6.08254
7.38377
6.65495
5.84193
7.63387
6.984
7.63311
6.55782
6.81334
6.46566
6.524
5.57036
6.48746
7.15386
5.76605
5.18567
6.64461
6.07438
7.00647
7.41028
5.56918
7.53625
6.00816
5.30622
6.81823
5.25377
5.75664
5.38731
6.47297
5.65019
6.11981
7.36743
6.28772
6.21143
5.82849
6.15141
6.30884
5.82207
7.27542
7.28226
6.1642
7.29078
6.20982
5.80944
6.60291
5.42851
4.77221
6.83174
5.65934
6.23674
5.67445
5.44181
7.75294
6.03462
5.90258
7.56786
5.80057
5.90677
6.12943
5.85635
7.03015
6.63103
6.75166
7.22241
6.79405
5.76393
5.18111
5.7791
6.27681
6.25475
5.95924
5.07776
6.2728
5.64171
6.6472
5.30393
