1.51253
1.57269
1.45763
1.56874
1.68818
1.62118
1.66529
1.63709
1.56262
1.55695
1.47764
1.59582
1.52574
1.55394
1.56773
1.54807
1.52964
1.59825
1.48889
1.55122
1.77104
1.65439
1.55968
1.53081
1.71872
1.64496
1.55329
1.62959
1.56994
1.65111
1.53106
1.49818
1.51641
1.58407
1.56388
1.64349
1.53648
1.54522
1.64573
1.65282
1.53524
1.48975
1.5566
1.66655
1.62039
1.53895
1.4439
1.67342
1.54474
1.61747
1.67542
1.4975
1.6928
1.55269
1.56549
1.57698
1.57812
1.59147
1.52528
1.62515
1.58183
1.57727
1.57253
1.63781
1.51126
1.4466
1.47118
1.49538
1.52812
1.4875
1.47294
1.56347
1.65866
1.58621
1.63055
1.52228
1.46721
1.50694
1.5623
1.64444
1.66663
1.42329
1.50703
1.51844
1.43922
1.52089
1.53885
1.53602
1.55118
1.50894
1.68485
1.61606
1.59668
1.48196
1.55658
1.57499
1.59226
1.54605
1.52605
1.61258
1.49959
1.64441
1.61812
1.53896
1.42775
1.63203
1.61821
1.61698
1.57161
1.65936
1.65214
1.52507
1.44019
1.6178
1.57519
1.51712
1.57384
1.65035
1.51359
1.53128
1.67532
1.59751
1.58022
1.638
1.63374
1.64713
1.52816
1.52488
1.6445
1.42039
1.61055
1.5961
1.5746
1.56344
1.54736
1.61956
1.53345
1.55745
1.63336
1.61812
1.52599
1.58571
1.69736
1.53857
1.48936
1.44682
1.66418
1.54648
1.56215
1.67531
1.49133
1.65948
1.50971
1.60498
1.50952
1.52081
1.4871
1.60664
1.65039
1.58211
1.59936
1.63386
1.75223
1.51366
1.5613
1.50631
1.59906
1.57799
1.60144
1.59398
1.61626
1.50435
1.56042
1.59423
1.51136
1.47826
1.65322
1.62635
1.54281
1.63935
1.62842
1.67006
1.63495
1.55784
1.6438
1.52815
1.53141
1.59116
1.62504
1.56472
1.56763
1.45165
1.65078
1.58382
1.5795
1.53008
1.70325
1.63945
1.46853
1.52894
1.64736
1.49053
1.63938
1.6113
1.6066
1.64819
1.57192
1.69549
1.54639
1.50332
1.52752
1.60613
1.53824
1.47586
1.53841
1.6606
1.61033
1.58094
1.50942
1.50533
1.68821
1.70587
1.4854
1.62573
1.52142
1.67574
1.5836
1.50309
1.48608
1.70475
1.6628
1.58275
1.61505
1.68744
1.64905
1.59235
1.51321
1.54993
1.72378
1.73056
1.54747
1.55663
1.55906
1.61117
1.43938
1.51145
1.70235
1.55327
1.63103
1.56321
1.55112
1.52437
1.6849
1.68195
1.47892
1.61448
1.59981
1.56903
1.44537
1.57443
1.52915
1.58247
1.62119
1.57886
1.65778
1.61931
1.70099
1.6239
1.52886
1.58446
1.46118
1.55442
1.53161
1.51344
1.54151
1.68879
1.54218
1.66825
1.63312
1.60662
1.60484
1.48334
1.50251
1.49438
1.53096
1.55624
1.49769
1.62804
1.65129
1.54322
1.49246
1.57375
1.53473
1.62407
1.66483
1.5751
1.66183
1.58493
1.54303
1.53923
1.69462
1.70435
1.55273
1.57103
1.61188
1.70226
1.56257
1.69861
1.47288
1.57726
1.64338
1.54593
1.51605
1.68719
1.56027
1.57881
1.65379
1.57407
1.50621
1.53568
1.55764
1.40451
1.37848
1.53814
1.50476
1.82698
1.6591
1.58373
1.63325
1.66634
1.60573
1.63533
1.55133
1.54872
1.55765
1.55112
1.52235
1.68581
1.57174
1.46032
1.59949
1.5762
1.47413
1.58229
1.5216
1.56318
1.5903
1.56477
1.56946
1.53885
1.58256
1.54579
1.68843
1.53072
1.54827
1.70629
1.55823
1.47349
1.54365
1.64362
1.54683
1.53091
1.55612
1.68361
1.57581
1.65341
1.45559
1.49263
1.63381
1.63895
1.58646
1.68041
1.5491
1.57565
1.61616
1.61907
1.6522
1.48908
1.61341
1.50788
1.66262
1.67771
1.7207
1.74576
1.60729
1.53186
1.50725
1.47808
1.58515
1.62008
1.60838
1.4305
1.53284
1.47317
1.56448
1.58122
1.6335
1.55569
1.53357
1.57949
1.5549
1.5682
1.51165
1.59824
1.40214
1.55925
1.65175
1.57597
1.56719
1.46358
1.6429
1.53112
1.58565
1.54099
1.50007
1.5182
1.55185
1.66059
1.50646
1.5128
1.46882
1.49191
1.56645
1.72068
1.56984
1.62412
1.56166
1.51624
1.59994
1.49759
1.69549
1.60682
1.59455
1.59782
1.53318
1.56635
1.63035
1.49312
1.4812
1.59365
1.55827
1.60315
1.5924
1.50658
1.60065
1.59293
1.53012
1.60484
1.63919
1.54372
1.75564
1.58893
1.4647
1.50589
1.64531
1.58274
1.60937
1.55179
1.59304
1.65513
1.6025
1.47936
1.60359
1.64833
1.53743
1.51622
1.63064
1.6283
1.49418
1.58681
1.56688
1.61001
1.56656
1.68447
1.59523
1.58115
1.57609
1.61803
1.49825
1.52897
1.6141
1.5707
1.64101
1.52075
1.79083
1.5855
1.52408
1.58419
1.53957
1.53289
1.59093
1.60306
1.51585
1.52459
1.7582
1.60236
1.70218
1.5219
1.52833
1.60027
1.63022
1.56679
1.54812
1.5141
1.58917
1.56779
1.61247
1.62045
1.49137
1.57266
1.68045
1.49991
1.70433
1.59313
1.59477
1.62478
1.63456
1.57363
1.43545
1.61088
1.55368
1.54113
1.4831
1.55966
1.4615
1.68363
1.51558
1.55973
1.57327
1.63517
1.72198
1.64425
1.59196
1.60181
1.65434
1.60478
1.54374
1.69594
1.72372
1.56219
1.63733
1.57364
1.52421
1.50589
1.66058
1.69521
1.66544
1.54462
1.60102
1.51283
1.54382
1.75183
1.54096
1.69089
1.63766
1.60315
1.64894
1.64287
1.48022
1.70817
1.56954
1.61707
1.41085
1.66202
1.48507
1.67292
1.60332
1.50132
1.56045
1.54073
1.55985
1.53468
1.54667
1.58092
1.59582
1.70193
1.62692
1.62289
1.6337
1.49058
1.5684
1.56339
1.57541
1.54607
1.47495
1.45323
1.62078
1.51199
1.51783
1.67515
1.6283
1.6682
1.5629
1.63078
1.55016
1.6632
1.62099
1.57677
1.59149
1.59094
1.55655
1.47176
1.56346
1.57754
1.63722
1.5545
1.61749
1.37813
1.58798
1.5142
1.56917
1.46748
1.62651
1.58827
1.59772
1.58888
1.53709
1.53895
1.5204
1.65866
1.56669
1.621
1.50473
1.60756
1.6155
1.40383
1.55495
1.54458
1.63918
1.51308
1.44976
1.50853
1.6548
1.53083
1.54963
1.70307
1.5434
1.59767
1.68028
1.62873
1.58578
1.52469
1.61453
1.51398
1.52341
1.54451
1.60667
1.53459
1.53967
1.6533
1.46643
1.64207
1.5674
1.45009
1.62469
1.61549
1.54973
1.52328
1.66774
1.80161
1.51642
1.64282
1.64261
1.74587
1.49922
1.72847
1.53377
1.64865
1.58454
1.59647
1.63692
1.71143
1.56106
1.56408
1.56203
1.56586
1.56996
1.57715
1.58042
1.49181
1.52443
1.64635
1.45329
1.56929
1.57055
1.55079
1.49769
1.52725
1.54125
1.60903
1.57673
1.56408
1.57991
1.51022
1.63312
1.56684
1.71032
1.65531
1.63965
1.62717
1.67308
1.50154
1.51063
1.5602
1.52705
1.53668
1.53021
1.56972
1.5206
1.54961
1.54104
1.56496
1.51315
1.53898
1.61084
1.64959
1.5289
1.63155
1.70481
1.67977
1.50639
1.6401
1.55032
1.56615
1.61233
1.72411
1.57483
1.52627
1.53719
1.47483
1.57176
1.76734
1.70516
1.60325
1.51104
1.67924
1.60021
1.63416
1.78561
1.56843
1.64489
1.56898
1.55179
1.53869
1.59617
1.59098
1.57554
1.5522
1.64872
1.53984
1.73433
1.67731
1.48814
1.55045
1.6511
1.52918
1.59238
1.53215
1.57752
1.68972
1.58089
1.63835
1.57883
1.73471
1.57854
1.65471
1.46117
1.53228
1.58335
1.56845
1.66362
1.59717
1.48185
1.5447
1.57779
1.46049
1.5313
1.53751
1.58218
1.60667
1.60081
1.67424
1.58712
1.61183
1.55811
1.45719
1.6973
1.58499
1.45899
1.59812
1.60605
1.48997
1.55135
1.61196
1.61453
1.52906
1.55677
1.55728
1.52151
1.46217
1.47794
1.60203
1.62856
1.71474
1.76158
1.55966
1.58943
1.60104
1.57866
1.64362
1.56416
1.59621
1.73283
1.54808
1.57912
1.64897
1.5314
1.57006
1.71747
1.51509
1.67548
1.56461
1.58288
1.53019
1.53048
1.50261
1.54564
1.57544
1.58663
1.60125
1.64437
1.71712
1.52346
1.6512
1.60645
1.55301
1.6298
1.61084
1.62046
1.57769
1.66056
1.57906
1.59069
1.56953
1.57094
1.70534
1.46211
1.4435
1.54048
1.56192
1.51638
1.47842
1.61007
1.61866
1.60235
1.55181
1.67185
1.65591
1.71022
1.48114
1.54184
1.50289
1.49163
1.66176
1.54206
1.53817
1.63243
1.48904
1.43959
1.498
1.59893
1.49464
1.75295
1.59285
1.63453
1.59059
1.68677
1.57799
1.62189
1.60178
1.57655
1.48793
1.58393
1.52881
1.52497
1.63398
1.58427
1.60751
1.53627
1.58495
1.55066
1.52156
1.56384
1.58014
1.56699
1.54656
1.55287
1.63177
1.71971
1.63658
1.47345
1.79061
1.56724
1.5946
1.7062
1.58817
1.65653
1.57593
1.68397
1.56228
1.72252
1.59007
1.53169
1.58387
1.74768
1.52087
1.54861
1.60507
1.49597
1.49858
1.58797
1.59764
1.56613
1.64962
1.60446
1.57202
1.57308
1.52152
1.47859
1.57564
1.58549
1.5889
1.49834
1.51014
1.53448
1.60235
1.53651
1.54628
1.60084
1.56457
1.50889
1.48501
1.64515
1.52311
1.51651
1.59172
1.63755
1.48803
1.47751
1.55204
1.47576
1.61285
1.64059
1.52883
1.6277
1.54991
1.44165
1.62997
1.58569
1.51797
1.57549
1.57158
1.69544
1.66402
1.53806
1.63544
1.55949
1.52494
1.5142
1.54364
1.69384
1.65772
1.54125
1.59521
1.44137
1.68761
1.53841
1.55178
1.55074
1.52964
1.59808
1.56347
1.60985
1.57662
1.54691
1.59344
1.72778
1.5437
1.51401
1.60133
1.50247
1.61013
1.72545
1.47366
1.65286
1.56326
1.54599
1.59347
1.56665
1.58977
1.51516
1.52867
1.58903
1.57185
1.53047
1.53809
1.5117
1.58846
1.49893
1.47981
1.53725
1.57668
1.66479
1.56087
1.57513
1.77187
1.52613
1.62598
1.58846
1.57928
1.58164
1.55795
1.52879
1.69639
1.65708
1.60055
1.6172
1.68627
1.51064
1.53632
1.52489
1.67591
1.56693
1.67103
1.59846
1.56166
1.57863
1.57791
1.65477
1.5608
1.60034
1.49214
1.54272
1.59607
1.51133
1.59863
1.55269
1.65568
1.59737
1.60861
1.51192
1.56318
1.66267
1.62934
1.61571
1.5719
1.64576
1.58012
1.5676
1.56039
1.67487
1.61311
1.53093
1.55794
1.63767
1.49911
1.67309
1.63477
1.70691
1.55353
1.53391
1.55778
1.59777
1.51283
1.61565
1.62542
1.55125
1.54502
1.5463
1.59067
1.62242
1.62493
1.46461
1.54704
1.52663
1.67628
1.70486
1.63348
1.63489
1.54478
1.56023
1.65546
1.70832
1.60088
1.537
1.55239
1.55336
1.74293
1.53444
1.58886
1.52041
1.60307
1.50712
1.70036
1.57161
1.51159
1.57008
1.57841
1.54177
1.64071
1.48988
1.59081
1.53305
1.4685
1.51391
1.60321
1.51782
1.68598
1.6141
1.52861
1.4164
1.63368
1.48893
1.57436
1.57311
1.56406
1.59182
1.51461
1.68729
1.55318
1.50676
1.61559
1.57317
1.52466
1.58398
1.61434
1.53965
1.66824
1.56345
1.66849
1.52003
1.55887
1.70477
1.65065
1.63636
1.56207
1.58465
1.64157
1.61844
1.52806
1.54029
1.5319
1.61188
1.55615
1.49102
1.58004
1.85292
1.59283
1.55095
1.7313
1.5542
1.50544
1.61317
1.68736
1.60798
1.55481
1.61569
1.4384
1.53759
1.5328
1.55855
1.48457
1.60996
1.6142
1.50501
1.58843
1.60855
1.66508
1.52884
1.49899
1.58494
1.59376
1.73853
1.6423
1.52524
1.55575
1.64906
1.51611
1.69657
1.50933
1.71554
1.47728
1.68289
1.50108
1.47934
1.53863
1.6805
1.6073
1.69524
1.68665
1.60624
1.51232
1.57791
1.64554
1.54533
1.67875
1.61951
1.56703
1.56045
1.5504
1.56048
1.69496
1.49119
1.51602
1.61509
1.50289
1.56596
1.58046
1.61202
1.68358
1.5355
1.49843
1.64495
1.58202
1.6083
1.57907
1.64586
1.56299
1.44948
1.55459
1.47078
1.57743
1.59247
1.56436
1.61528
1.6065
1.66618
1.51553
1.51743
1.54654
1.62473
1.52373
1.59318
1.62849
1.5996
1.60024
1.64151
1.62279
1.54328
1.54602
1.58549
1.56482
1.50143
1.66282
1.56186
1.5571
1.54767
1.65129
1.49434
1.54831
1.58828
1.48067
1.60638
1.5503
1.70182
1.54102
1.54175
1.7099
1.45315
1.52831
1.64302
1.59442
1.52193
1.51082
1.65665
1.53334
1.67807
1.66471
1.55493
1.49018
1.60013
1.57475
1.56132
1.65767
1.69121
1.59491
1.69689
1.55617
1.61378
1.63958
1.47365
1.66295
1.6304
1.49548
1.56853
1.59227
1.64938
1.56643
1.59696
1.64181
1.5839
1.56109
1.57799
1.57608
1.61406
1.52466
1.65135
1.5059
1.51262
1.56999
1.62666
1.46343
1.49808
1.57121
1.61443
1.54918
1.56604
1.79528
1.60873
1.54606
1.58212
1.65169
1.61422
1.50079
1.56537
1.49406
1.76685
1.54148
1.62768
1.57764
1.5646
1.55177
1.60103
1.44815
1.61271
1.60524
1.53465
1.59076
1.5645
1.50135
1.62625
1.59798
1.61325
1.57767
1.52562
1.63686
1.58447
1.69846
1.5069
1.59633
1.601
1.52583
1.57581
1.52098
1.4771
1.52833
1.52604
1.50899
1.64226
1.60352
1.53915
1.55222
1.55504
1.56631
1.6153
1.63261
1.49761
1.53422
1.49395
1.57295
1.57432
1.42563
1.60157
1.66549
1.58211
1.58818
1.59968
1.72115
1.72667
1.70572
1.60762
1.54173
1.48859
1.60166
1.63285
1.58558
1.63629
1.56177
1.70411
1.49806
1.50504
1.48248
1.58692
1.70002
1.55007
1.55726
1.57486
1.62418
1.66598
1.63482
1.45099
1.56077
1.51541
1.67401
1.6287
1.58547
1.59477
1.62118
1.65215
1.54947
1.65129
1.62817
1.51104
1.5563
1.51277
1.59352
1.56697
1.63254
1.6058
1.59751
1.55842
1.68124
1.5759
1.64949
1.54902
1.66365
1.57457
1.70309
1.5266
1.55733
1.56375
1.51295
1.56641
1.58596
1.61955
1.5957
1.58945
1.58963
1.55258
1.46642
1.60264
1.69247
1.56607
1.55455
1.47846
1.70897
1.75844
1.58648
1.59356
1.56379
1.61493
1.52374
1.58043
1.58855
1.63095
1.45242
1.51322
1.45537
1.59819
1.61837
1.67944
1.58601
1.66085
1.5629
1.61508
1.64761
1.77694
1.54741
1.59953
1.56355
1.51631
1.54442
1.52906
1.64315
1.56241
1.57876
1.78922
1.57482
1.65272
1.55811
1.55354
1.61099
1.62576
1.66759
1.50196
1.54482
1.55641
1.50254
1.56118
1.47648
1.53631
1.42532
1.55022
1.46864
1.61256
1.60644
1.60321
1.51997
1.66413
1.55132
1.4842
1.5984
1.52232
1.61004
1.70576
1.64451
1.64085
1.60815
1.55883
1.58672
1.58884
1.59709
1.4759
1.61128
1.68581
1.58051
1.5632
1.54973
1.69635
1.55757
1.5731
1.55386
1.71205
1.48389
1.52101
1.64873
1.71569
1.63982
1.65882
1.58709
1.52822
1.54883
1.64247
1.57745
1.4556
1.61574
1.59194
1.5481
1.65549
1.56132
1.50456
1.55633
1.66804
1.6755
1.58033
1.52271
1.55081
1.64794
1.5673
1.59028
1.51007
1.64244
1.48475
1.59756
1.63145
1.66466
1.59539
1.52758
1.60829
1.61241
1.60477
1.70978
1.60277
1.57446
1.4488
1.49359
1.57399
1.52972
1.58932
1.47022
1.55062
1.5129
1.5036
1.64102
1.53614
1.67642
1.46652
1.43202
1.55808
1.6568
1.6267
1.61725
1.58875
1.63507
1.59874
1.62362
1.60874
1.55608
1.52681
1.61417
1.46464
1.59276
1.57413
1.67415
1.64348
1.53846
1.61682
1.60428
1.53518
1.62831
1.56112
1.54946
1.5421
1.58092
1.46963
1.73614
1.56466
1.65132
1.59709
1.56897
1.54871
1.5792
1.52023
1.668
1.70068
1.45662
1.47278
1.54468
1.47955
1.61398
1.57688
1.46333
1.5228
1.61339
1.58202
1.559
1.617
1.548
1.61206
1.56711
1.58854
1.54731
1.57427
1.52394
1.4536
1.56501
1.53824
1.62919
1.58535
1.63782
1.59905
1.45131
1.6523
1.69963
1.5477
1.58165
1.77431
1.55262
1.63711
1.49536
1.54621
1.63084
1.47971
1.56031
1.4912
1.59072
1.53097
1.58186
1.63219
1.62031
1.57488
1.70399
1.62979
1.62208
1.66273
1.68439
1.59698
1.50839
1.63941
1.70684
1.63164
1.53842
1.72343
1.50717
1.58056
1.56399
1.56243
1.56476
1.65349
1.53685
1.60889
1.48834
1.52776
1.58742
1.53845
1.60235
1.56035
1.82732
1.5331
1.57996
1.50752
1.48987
1.59378
1.44593
1.48822
1.61169
1.54341
1.65467
1.47812
1.58313
1.58254
1.56519
1.43586
1.58307
1.53829
1.47924
1.59275
1.64559
1.51323
1.48402
1.60713
1.55286
1.68163
1.60949
1.56306
1.59053
1.75046
1.67872
1.6344
1.64211
1.54923
1.4827
1.60501
1.60198
1.51614
1.50277
1.61796
1.55143
1.48931
1.68513
1.5759
1.64625
1.4984
1.47202
1.61953
1.62442
1.54399
1.57518
1.49897
1.60463
1.55889
1.55646
1.48553
1.53283
1.6872
1.56215
1.5397
1.55533
1.51165
1.567
1.57454
1.5044
1.68673
1.53395
1.55507
1.56123
1.56774
1.49792
1.56409
1.68722
1.5747
1.60396
1.55809
1.56043
1.45491
1.58128
1.5443
1.65634
1.4816
1.59738
1.66651
1.54977
1.55463
1.61078
1.68988
1.67913
1.50564
1.6412
1.57148
1.57191
1.58122
1.54004
1.67986
1.6722
1.51903
1.60625
1.50075
1.56636
1.53571
1.6614
1.63123
1.59428
1.47383
1.55897
1.62325
1.5545
1.75561
1.55394
1.52716
1.64519
1.55893
1.51979
1.60814
1.48448
1.672
1.51467
1.61197
1.55939
1.64218
1.52199
1.48614
1.59283
1.57134
1.81198
1.47356
1.48065
1.5533
1.52921
1.58629
1.55462
1.52758
1.55129
1.55581
1.54045
1.66976
1.60671
1.5148
1.58776
1.60698
1.51755
1.66984
1.54029
1.6986
1.54903
1.57346
1.56128
1.59708
1.57307
1.51313
1.51825
1.45822
1.5738
1.49001
1.5583
1.61756
1.49688
1.5309
1.5379
1.58036
1.60064
1.5754
1.64409
1.54599
1.56826
1.56657
1.54513
1.47077
1.56629
1.59476
1.4611
1.50035
1.57906
1.57689
1.54878
1.63444
1.5399
1.47958
1.58764
1.63496
1.50319
1.67289
1.61831
1.55778
1.54292
1.60723
1.51983
1.68243
1.39279
1.66482
1.75465
1.56084
1.71927
1.61347
1.51886
1.54383
1.56618
1.53848
1.54252
1.58946
1.7085
1.52218
1.46995
1.59674
1.54198
1.52557
1.54165
1.58945
1.66133
1.66419
1.46122
1.52718
1.61254
1.6684
1.51646
1.64411
1.64484
1.72985
1.63595
1.66241
1.55313
1.55952
1.63985
1.61415
1.48583
1.5289
1.59013
1.50415
1.5899
1.5412
1.6979
1.5382
1.59742
1.60716
1.69299
1.56833
1.55293
1.47189
1.56604
1.60627
1.64649
1.62914
1.52886
1.48453
1.50226
1.54845
1.721
1.66976
1.70141
1.57696
1.6487
1.53593
1.53657
1.5018
1.55921
1.57235
1.62083
1.61101
1.70031
1.57861
1.46608
1.57263
1.64234
1.59417
1.6143
1.5537
1.59041
1.51283
1.60121
1.50767
1.50994
1.62029
1.52079
1.4929
1.54031
1.58041
1.62914
1.62752
1.50647
1.69897
1.52946
1.45837
1.50021
1.47605
1.56021
1.58143
1.62496
1.49844
1.48977
1.5219
1.63631
1.5066
1.61595
1.53092
1.57099
1.48025
1.58481
1.59973
1.65007
1.53064
1.72686
1.54158
1.53505
1.60507
1.50731
1.53152
1.64202
1.48054
1.577
1.5563
1.64178
1.76193
1.5937
1.65372
1.58623
1.54432
1.74499
1.63616
1.60094
1.53205
1.45438
1.63961
1.56519
1.53346
1.67855
1.5611
1.66909
1.60632
1.50545
1.6215
1.46977
1.5059
1.70576
1.55612
1.57044
1.67014
1.57428
1.6675
1.59
1.59998
1.63724
1.68502
1.4199
1.58862
1.49416
1.60009
1.53028
1.50057
1.60783
1.56372
1.52481
1.73037
1.59944
1.68228
1.48299
1.58599
1.5466
1.48752
1.64215
1.51453
1.62213
1.54493
1.54604
1.53366
1.75187
1.49735
1.47833
1.67952
1.50473
1.581
1.50708
1.59841
1.47608
1.62974
1.58461
1.59691
1.61152
1.60524
1.51036
1.5857
1.60393
1.62924
1.65339
1.54979
1.71463
1.54785
1.5999
1.66593
1.61618
1.60072
1.5051
1.50621
1.54665
1.46673
1.60643
1.5451
1.68086
1.6003
1.55341
1.62333
1.56825
1.46438
1.52928
1.53194
1.72256
1.47364
1.48217
1.57856
1.51418
1.58315
1.54309
1.53383
1.61705
1.66235
1.62236
1.60773
1.43803
1.51743
1.46979
1.51187
1.52295
1.61682
1.59364
1.61637
1.7049
1.59595
1.5239
1.76204
1.61835
1.71405
1.49207
1.53461
1.53583
1.43759
1.6394
1.68161
1.59133
1.53779
1.58746
1.62616
1.60455
1.6339
1.56982
1.50599
1.5901
1.51043
1.52843
1.54477
1.61937
1.57086
1.55567
1.62702
1.54078
1.58146
1.47565
1.6859
1.50884
1.55546
1.64554
1.61457
1.53156
1.56022
1.58608
1.5636
1.48595
1.55728
1.49855
1.54561
1.53679
1.50684
1.54945
1.58335
1.56318
1.67431
1.55113
1.66789
1.54607
1.66438
1.51177
1.51558
1.47974
1.68649
1.62299
1.73259
1.58373
1.50071
1.56485
1.62064
1.51153
1.49218
1.5534
1.57816
1.53863
1.73686
1.52914
1.69273
1.60994
1.50069
1.51327
1.60889
1.56294
1.54114
1.53896
1.53538
1.60127
1.71174
1.48201
1.50323
1.63358
1.60678
1.54007
1.53487
1.70538
1.57113
1.5113
1.74766
1.54255
1.46217
1.52483
1.54931
1.56543
1.52021
1.59573
1.53132
1.55215
1.51008
1.601
1.72814
1.64239
1.56134
1.58073
1.59217
1.54468
1.65377
1.58352
1.56203
1.52987
1.5537
1.57116
1.59453
1.75257
1.45811
1.61022
1.56292
1.71001
1.50077
1.53478
1.55824
1.55945
1.49201
1.48947
1.5637
1.58945
1.70523
1.59752
1.51739
1.49392
1.65925
1.66715
1.62167
1.6917
1.64948
1.50595
1.51537
1.56543
1.59936
1.56772
1.44395
1.55745
1.56649
1.49708
1.60933
1.63225
1.67587
1.54301
1.53871
1.62571
1.6361
1.54558
1.4975
1.6088
1.5371
1.68391
1.47285
1.52599
1.58357
1.61183
1.71461
1.64332
1.62242
1.55042
1.47512
1.54137
1.68239
1.56788
1.52419
1.51801
1.69457
1.54833
1.46472
1.6221
1.54478
1.55878
1.53032
1.55088
1.60382
1.58284
1.59593
1.62141
1.74208
1.5189
1.51772
1.67924
1.57062
1.55136
1.76195
1.61977
1.61133
1.61132
1.68288
1.56292
1.67411
1.53821
1.58249
1.58935
1.57513
1.51191
1.53372
1.49661
1.56305
1.59614
1.61533
1.58259
1.54228
1.53812
1.49488
1.47842
1.6804
1.4923
1.66447
1.52984
1.62504
1.58308
1.55048
1.69815
1.44446
1.5316
1.61239
1.56584
1.54771
1.70772
1.62543
1.63619
1.64676
1.66145
1.45748
1.56636
1.56545
1.49512
1.52673
1.55866
1.48946
1.63188
1.40411
1.6207
1.65458
1.65791
1.59592
1.59049
1.61975
1.61183
1.5988
1.61443
1.56954
1.55776
1.80135
1.52087
1.59637
1.4871
1.55579
1.5435
1.60351
1.56442
1.62248
1.53767
1.56809
1.63708
1.63389
1.5361
1.5768
1.50191
1.54918
1.5478
1.55294
1.61484
1.59074
1.62945
1.67646
1.51179
1.74512
1.57641
1.49461
1.52586
1.49899
1.63033
1.69632
1.53654
1.61951
1.71197
1.60064
1.59956
1.54205
1.52744
1.62733
1.58059
1.48077
1.55063
1.54892
1.56191
1.49324
1.61472
1.55684
1.64193
1.70627
1.69473
1.64686
1.66991
1.61085
1.6027
1.60915
1.61514
1.55485
1.52646
1.54691
1.56464
1.61356
1.47491
1.58612
1.52295
1.62781
1.56006
1.59915
1.56513
1.66148
1.60744
1.70825
1.65308
1.53362
1.57253
1.54092
1.55695
1.64521
1.59639
1.61798
1.55929
1.49931
1.53294
1.49398
1.71764
1.55266
1.59621
1.6173
1.69786
1.59289
1.66266
1.497
1.4762
1.52627
1.48515
1.51526
1.60192
1.54584
1.69945
1.61415
1.54033
1.66983
1.46892
1.46918
1.54953
1.58557
1.49451
1.57339
1.44193
1.6017
1.65941
1.66431
1.61518
1.56991
1.57959
1.52469
1.5271
1.52318
1.5619
1.5398
1.609
1.52104
1.51726
1.58892
1.54446
1.57933
1.57077
1.66264
1.61397
1.56032
1.53482
1.62664
1.45094
1.65407
1.68137
1.5731
1.57427
1.62189
1.60049
1.48087
1.50253
1.55861
1.5693
1.64946
1.58072
1.46326
1.5583
1.48015
1.50836
1.59234
1.58912
1.58016
1.47325
1.5063
1.62537
1.50046
1.52365
1.54167
1.54449
1.51111
1.54917
1.59828
1.54755
1.51535
1.55652
1.62126
1.6242
1.70221
1.55327
1.75733
1.58777
1.59545
1.68242
1.54477
1.66155
1.49676
1.66631
1.63537
1.60986
1.60203
1.59473
1.48765
1.54271
1.58196
1.6197
1.59951
1.60845
1.5522
1.67272
1.57015
1.65616
1.56166
1.51602
1.75473
1.51837
1.48984
1.61797
1.48937
1.57679
1.52945
1.61019
1.51189
1.5562
1.50456
1.54298
1.74241
1.60642
1.54902
1.58094
1.54823
1.57131
1.47124
1.65093
1.51973
1.56021
1.54108
1.49167
1.68107
1.59024
1.58872
1.62028
1.56269
1.52918
1.60548
1.75243
1.53602
1.57128
1.67164
1.67698
1.70935
1.57266
1.56295
1.56908
1.48184
1.61299
1.62317
1.54737
1.55217
1.56352
1.68856
1.64881
1.56633
1.47691
1.58022
1.51568
1.5948
1.52633
1.64098
1.68032
1.52275
1.60649
1.67283
1.58896
1.60646
1.74929
1.63883
1.53868
1.60132
1.59453
1.68372
1.52672
1.66951
1.48882
1.47071
1.59658
1.54939
1.62813
1.61
1.49414
1.588
1.6141
1.53132
1.57797
1.57765
1.52596
1.60621
1.48768
1.62219
1.62735
1.61819
1.57235
1.67248
1.57845
1.63735
1.65211
1.53554
1.68191
1.56641
1.55763
1.54693
1.67561
1.53959
1.57709
1.4657
1.44438
1.4587
1.56118
1.55625
1.6353
1.55168
1.54713
1.52338
1.55815
1.49046
1.57981
1.48885
1.64121
1.59394
1.50096
1.5029
1.57687
1.62233
1.58804
1.45954
1.61547
1.57348
1.59149
1.55122
1.65241
1.63359
1.58432
1.62265
1.49108
1.57988
1.67652
1.44152
1.65782
1.6774
1.56483
1.53762
1.52864
1.48756
1.6129
1.54778
1.59025
1.46397
1.63678
1.56195
1.65678
1.5185
1.69913
1.53299
1.69761
1.44329
1.45141
1.47053
1.56915
1.56386
1.53143
1.53479
1.6656
1.48414
1.57762
1.62411
1.54405
1.48776
1.57399
1.66935
1.48359
1.61105
1.55048
1.64284
1.59336
1.59884
1.55445
1.58835
1.61591
1.51384
1.62504
1.61012
1.55024
1.49598
1.64369
1.63118
1.62733
1.66325
1.71181
1.54601
1.69804
1.53995
1.71376
1.533
1.81289
1.60104
1.52386
1.69682
1.61452
1.56105
1.62349
1.54039
1.56231
1.56941
1.59414
1.57428
1.60198
1.49539
1.59094
1.61224
1.62251
1.49193
1.61962
1.64415
1.56614
1.53251
1.58457
1.59339
1.56967
1.52312
1.45984
1.6166
1.47079
1.62131
1.60693
1.53544
1.6812
1.60021
1.53597
1.59386
1.43588
1.74109
1.64767
1.53229
1.7388
1.62746
1.54841
1.57061
1.58632
1.60744
1.57705
1.60667
1.52391
1.57594
1.52575
1.56323
1.51485
1.50515
1.58753
1.53071
1.6019
1.547
1.54399
1.56331
1.57897
1.51555
1.36536
1.54542
1.61943
1.53787
1.50297
1.56901
1.62586
1.55743
1.51412
1.70451
1.65509
1.52686
1.50431
1.71858
1.59865
1.75814
1.46962
1.6528
1.66207
1.60477
1.69475
1.48291
1.63089
1.50293
1.61914
1.5459
1.5972
1.60007
1.72225
1.63917
1.74822
1.632
1.55762
1.50352
1.58308
1.53746
1.53277
1.63729
1.57742
1.51115
1.53221
1.54095
1.60153
1.67841
1.62974
1.74166
1.57187
1.64505
1.52984
1.49259
1.66012
1.58592
1.54394
1.49606
1.69887
1.76728
1.62122
1.5347
1.59639
1.73968
1.60245
1.67585
1.54192
1.54074
1.55636
1.5495
1.63791
1.49616
1.55445
1.56709
1.54537
1.57051
1.5686
1.57008
1.60969
1.59415
1.53908
1.57594
1.65217
1.58734
1.61516
1.50505
1.53302
1.53356
1.6583
1.56609
1.59553
1.56267
1.5822
1.60519
1.69123
1.66076
1.48316
1.55168
1.57267
1.5746
1.68069
1.46235
1.61006
1.54749
1.58531
1.63018
1.58708
1.54186
1.54407
1.58193
1.48184
1.6273
1.5541
1.60495
1.51302
1.57611
1.6351
1.68039
1.6695
1.53648
1.60343
1.56648
1.45144
1.53861
1.69829
1.66951
1.59041
1.51899
1.59977
1.60414
1.51536
1.6525
1.61684
1.66034
1.53587
1.49632
1.52527
1.4506
1.48543
1.55143
1.78593
1.48837
1.54488
1.5748
1.55794
1.66169
1.65378
1.62867
1.61333
1.51614
1.5437
1.57008
1.63142
1.6258
1.64056
1.58102
1.62087
1.58428
1.52374
1.58014
1.54713
1.53549
1.49124
1.57619
1.51708
1.66286
1.54563
1.54475
1.56708
1.45845
1.4842
1.67787
1.52304
1.58769
1.61322
1.59384
1.61268
1.58319
1.46968
1.61773
1.59989
1.61975
1.52921
1.51689
1.62065
1.61854
1.57127
1.51901
1.66358
1.62107
1.5601
1.5791
1.66158
1.54366
1.58902
1.60168
1.56934
1.51875
1.44635
1.60433
1.58079
1.54446
1.614
1.55704
1.58791
1.63717
1.63868
1.52328
1.51878
1.6185
1.69062
1.60654
1.60026
1.75889
1.56123
1.52351
1.61294
1.45892
1.64802
1.64403
1.36241
1.51665
1.44457
1.64694
1.4981
1.74331
1.51273
1.64452
1.59055
1.62213
1.49497
1.61223
1.52204
1.68121
1.51491
1.54894
1.68463
1.56618
1.7084
1.59379
1.60393
1.71936
1.67845
1.48449
1.52572
1.54993
1.48478
1.58454
1.55447
1.49904
1.60303
1.51678
1.68298
1.51334
1.51718
1.70489
1.71924
1.73918
1.68844
1.69821
1.62626
1.47231
1.63981
1.43212
1.57331
1.48983
1.52656
1.64771
1.60891
1.57667
1.52627
1.4795
1.60592
1.61482
1.5203
1.6426
1.53887
1.68033
1.6046
1.63021
1.55423
1.48862
1.58933
1.69991
1.6258
1.58828
1.6494
1.64213
1.64407
1.5254
1.59034
1.51917
1.56198
1.4833
1.66297
1.6313
1.53306
1.47517
1.4994
1.54171
1.58885
1.56153
1.41331
1.54566
1.49383
1.43463
1.52494
1.6103
1.56854
1.53833
1.58793
1.53557
1.50311
1.59273
1.64624
1.4755
1.52091
1.52591
1.54848
1.57174
1.73044
1.50766
1.48917
1.56732
1.59053
1.51463
1.59093
1.71116
1.67301
1.52516
1.5988
1.59502
1.55542
1.62071
1.5364
1.6026
1.55323
1.56302
1.57737
1.61909
1.45205
1.614
1.58377
1.53672
1.62546
1.65566
1.62184
1.51175
1.50023
1.64005
1.50721
1.6216
1.51083
1.54557
1.62166
1.6512
1.59004
1.55057
1.5504
1.61456
1.56549
1.60662
1.50971
1.56632
1.53101
1.69553
1.57994
1.58053
1.64797
1.547
1.66533
1.48783
1.56375
1.56547
1.45992
1.58055
1.64883
1.67585
1.59051
1.60457
1.62844
1.54978
1.63965
1.5319
1.56005
1.5895
1.47668
1.61065
1.50247
1.54102
1.56043
1.61676
1.59583
1.7122
1.52748
1.60387
1.54977
1.56184
1.55569
1.62436
1.57592
1.54203
1.55439
1.59453
1.66685
1.55328
1.52194
1.65089
1.54564
1.5252
1.4687
1.5183
1.59977
1.53528
1.53644
1.60133
1.62139
1.62428
1.55495
1.6624
1.66841
1.49091
1.60956
1.63551
1.43389
1.66018
1.60103
1.64692
1.62677
1.44911
1.55405
1.46069
1.55869
1.53273
1.54386
1.60474
1.6086
1.53553
1.60369
1.5107
1.51158
1.54891
1.65642
1.55255
1.48109
1.53619
1.6016
1.50821
1.72327
1.61778
1.6201
1.55518
1.57421
1.56961
1.56435
1.56848
1.596
1.60401
1.70904
1.63175
1.56225
1.66317
1.60888
1.633
1.50847
1.64187
1.52147
1.54886
1.54322
1.5957
1.45595
1.56507
1.56569
1.52139
1.56627
1.71853
1.59032
1.61381
1.52765
1.63103
1.49834
1.70285
1.59397
1.66265
1.6917
1.51239
1.46016
1.67645
1.62991
1.57914
1.45962
1.56763
1.53431
1.57152
1.53288
1.74351
1.63971
1.65138
1.61001
1.50617
1.5722
1.51628
1.68861
1.66711
1.52948
1.47247
1.55563
1.60832
1.61008
1.68231
1.42687
1.58133
1.68964
1.66333
1.60661
1.56963
1.50881
1.61498
1.5192
1.61374
1.60973
1.65375
1.67756
1.72973
1.67329
1.54894
1.58365
1.57275
1.58729
1.57525
1.5303
1.6001
1.62352
1.55969
1.47671
1.56108
1.5561
1.56633
1.55133
1.74309
1.50898
1.53513
1.64107
1.59155
1.45099
1.48854
1.65678
1.61462
1.70472
1.58932
1.54951
1.575
1.70762
1.55832
1.58351
1.47199
1.62019
1.60305
1.56307
1.53886
1.57671
1.58844
1.54778
1.63735
1.54491
1.5466
1.55561
1.58356
1.55087
1.56392
1.63125
1.57705
1.63852
1.78867
1.60913
1.63069
1.58404
1.58379
1.6493
1.46864
1.54875
1.56665
1.51204
1.55463
1.56151
1.54623
1.52158
1.57298
1.66356
1.60979
1.57445
1.5372
1.58091
1.62529
1.66912
1.52469
1.53198
1.62076
1.58403
1.66184
1.45266
1.64403
1.64576
1.62981
1.64275
1.60512
1.61861
1.68177
1.4958
1.57244
1.6535
1.54213
1.56434
1.55823
1.58488
1.54759
1.61235
1.6498
1.60721
1.48563
1.5914
1.52046
1.57177
1.60453
1.61742
1.42747
1.5776
1.61078
1.50518
1.58777
1.52348
1.48027
1.63581
1.62469
1.51686
1.55911
1.58164
1.62523
1.53771
1.53265
1.58172
1.5702
1.49749
1.58775
1.65578
1.63007
1.47879
1.60623
1.50191
1.65572
1.599
1.5584
1.52056
1.51655
1.48111
1.58055
1.56611
1.55347
1.54539
1.53043
1.79117
1.56466
1.49203
1.60325
1.61274
1.66011
1.49947
1.59313
1.57905
1.52887
1.52045
1.64051
1.61573
1.63417
1.57382
1.60389
1.48958
1.48695
1.56716
1.57429
1.67526
1.77013
1.57527
1.48933
1.47233
1.46432
1.54201
1.57053
1.55347
1.61861
1.70436
1.67043
1.63444
1.55737
1.57446
1.57779
1.71372
1.60158
1.57973
1.50191
1.51686
1.59218
1.58901
1.67001
1.58097
1.46413
1.57569
1.66209
1.59245
1.53514
1.51515
1.61712
1.52098
1.64055
1.61989
1.55185
1.53716
1.54825
1.52799
1.71261
1.54733
1.7476
1.62247
1.58059
1.52315
1.60636
1.53062
1.62185
1.52816
1.54839
1.48657
1.59695
1.75929
1.66072
1.61948
1.55691
1.52727
1.53119
1.61336
1.57166
1.67419
1.72317
1.55555
1.64927
1.51303
1.56226
1.63094
1.54186
1.68638
1.5234
1.63155
1.46388
1.61581
1.60468
1.57187
1.6152
1.47231
1.52544
1.49898
1.54893
1.65661
1.67113
1.53218
1.61709
1.5959
1.57992
1.64522
1.74751
1.87767
1.54422
1.58998
1.53615
1.60882
1.5667
1.57463
1.56879
1.65729
1.59302
1.65334
1.78284
1.55246
1.61427
1.68353
1.66033
1.58616
1.57241
1.64862
1.45039
1.56232
1.61682
1.62475
1.53566
1.61379
1.54755
1.55959
1.72507
1.63043
1.63409
1.57344
1.45338
1.57857
1.70911
1.57204
1.61728
1.43328
1.4963
1.65448
1.64606
1.52429
1.69137
1.6499
1.54523
1.66305
1.56766
1.64438
1.60401
1.52278
1.67787
1.76531
1.54498
1.57825
1.45257
1.53923
1.56084
1.64411
1.53049
1.68263
1.55434
1.51814
1.48175
1.66823
1.6626
1.51581
1.51374
1.72607
1.62427
1.52835
1.59113
1.69998
1.58883
1.63199
1.59774
1.58293
1.59546
1.4928
1.54273
1.57292
1.63708
1.50632
1.47247
1.50895
1.60352
1.63309
1.51687
1.59142
1.6465
1.51569
1.49718
1.61886
1.65869
1.59635
1.65942
1.50621
1.53828
1.55297
1.63776
1.58119
1.6314
1.58503
1.57123
1.66482
1.58663
1.63238
1.67552
1.48642
1.56481
1.56968
1.61717
1.5585
1.61135
1.5437
1.54705
1.61072
1.58263
1.62077
1.59368
1.56947
1.67095
1.53895
1.63121
1.65548
1.62209
1.60835
1.5134
1.58016
1.64187
1.50589
1.63413
1.60046
1.67912
1.55759
1.53032
1.47492
1.60641
1.71833
1.56305
1.65994
1.68739
1.68847
1.61179
1.53855
1.61903
1.61349
1.53495
1.70793
1.66797
1.55371
1.59017
1.52868
1.6109
1.55208
1.52225
1.59885
1.53528
1.47403
1.53484
1.52804
1.59009
1.68654
1.57242
1.59455
1.58318
1.51144
1.59876
1.58567
1.62096
1.6565
1.54539
1.50969
1.54727
1.66758
1.51985
1.67976
1.66677
1.52362
1.54918
1.74405
1.63823
1.5471
1.54182
1.55099
1.52487
1.54497
1.48377
1.60774
1.49665
1.57251
1.59919
1.57398
1.52528
1.64104
1.58083
1.56439
1.58036
1.69828
1.52945
1.64667
1.59524
1.53658
1.49684
1.61168
1.69012
1.48067
1.52676
1.59602
1.61085
1.56129
1.66131
1.59733
1.57436
1.69511
1.54081
1.72323
1.45905
1.53552
1.6369
1.58149
1.63491
1.55154
1.58704
1.56113
1.65341
1.59769
1.50385
1.62396
1.64261
1.60606
1.6387
1.66184
1.50618
1.543
1.72504
1.68688
1.72273
1.45761
1.5604
1.56687
1.55347
1.63746
1.57887
1.52157
1.5428
1.54083
1.46465
1.54745
1.54713
1.5436
1.54086
1.45409
1.46225
1.59392
1.68861
1.58214
1.49454
1.56203
1.62569
1.62165
1.62298
1.56094
1.55533
1.57409
1.72008
1.46016
1.58818
1.67223
1.62232
1.5219
1.61499
1.65123
1.5198
1.67422
1.57979
1.46934
1.67061
1.72466
1.54636
1.59794
1.61636
1.68251
1.59017
1.67627
1.68994
1.64367
1.50789
1.63295
1.54534
1.54931
1.69367
1.60782
1.53496
1.59511
1.73471
1.74193
1.55993
1.53994
1.55058
1.54021
1.63058
1.65055
1.59185
1.63636
1.50605
1.61799
1.54829
1.63255
1.62601
1.63726
1.65873
1.41318
1.61594
1.53466
1.53735
1.75963
1.54255
1.51685
1.705
1.70905
1.56735
1.6236
1.50551
1.58498
1.54922
1.59095
1.70508
1.52088
1.6049
1.5413
1.54367
1.67481
1.50947
1.72916
1.56303
1.58285
1.60894
1.49795
1.60737
1.62248
1.63629
1.50161
1.69748
1.67878
1.61827
1.60067
1.53355
1.58461
1.51854
1.53773
1.49993
1.58555
1.55621
1.52313
1.62521
1.62418
1.64017
1.65795
1.51881
1.71552
1.51946
1.53783
1.59723
1.57815
1.50836
1.60184
1.51956
1.58859
1.65047
1.6321
1.60082
1.534
1.53946
1.44515
1.58254
1.55372
1.69275
1.45866
1.563
1.57968
1.59349
1.63357
1.62114
1.58496
1.53657
1.59448
1.56964
1.5714
1.67609
1.51725
1.6148
1.49086
1.54466
1.4963
1.52873
1.64322
1.52925
1.48696
1.60023
1.53319
1.63409
1.54177
1.66895
1.51225
1.47411
1.63906
1.61664
1.71753
1.48031
1.60569
1.64111
1.51657
1.63909
1.52607
1.67299
1.59038
1.64543
1.66038
1.513
1.60713
1.52252
1.6886
1.62155
1.55
1.63402
1.64093
1.56663
1.73008
1.55158
1.61319
1.67306
1.58299
1.51717
1.65357
1.55148
1.61738
1.55042
1.6027
1.66469
1.5597
1.56498
1.53429
1.59185
1.53373
1.59943
1.6397
1.54717
1.69436
1.51465
1.53063
1.58124
1.65536
1.72679
1.51047
1.67365
1.62534
1.45572
1.54569
1.60749
1.47248
1.59021
1.58724
1.62067
1.6283
1.66594
1.50001
1.6226
1.56729
1.52106
1.53089
1.64584
1.67502
1.50093
1.7021
1.59519
1.74795
1.67577
1.54726
1.4661
1.4897
1.5848
1.80279
1.62699
1.55371
1.62971
1.63777
1.5154
1.58117
1.62365
1.57356
1.62731
1.53811
1.66276
1.57161
1.65186
1.67314
1.53989
1.66718
1.50255
1.5589
1.51829
1.59989
1.53129
1.58643
1.66926
1.61319
1.59533
1.56268
1.6978
1.47555
1.61198
1.57264
1.53872
1.56954
1.55016
1.61833
1.61192
1.65805
1.68004
1.58341
1.61656
1.59173
1.63512
1.70118
1.68302
1.63909
1.67662
1.49611
1.60264
1.59444
1.64887
1.50666
1.58801
1.57551
1.58956
1.62409
1.55209
1.5833
1.61094
1.56598
1.57059
1.57665
1.67098
1.54368
1.60118
1.592
1.56974
1.60255
1.57154
1.61244
1.46591
1.58772
1.53509
1.4893
1.58818
1.61294
1.51833
1.66496
1.68841
1.46713
1.67687
1.58262
1.55817
1.50853
1.62777
1.61294
1.57401
1.54354
1.53344
1.56899
1.49832
1.67202
1.65576
1.63005
1.4913
1.63097
1.63116
1.52997
1.58681
1.53176
1.52019
1.63285
1.59572
1.6655
1.68815
1.50141
1.47421
1.61282
1.64028
1.61225
1.72797
1.52016
1.57898
1.46759
1.47072
1.60171
1.63731
1.50655
1.65921
1.56648
1.5645
1.57181
1.58642
1.51774
1.51381
1.54479
1.6189
1.52898
1.5128
1.48794
1.50866
1.59211
1.57233
1.61339
1.62012
1.53268
1.55586
1.65211
1.67287
1.65761
1.57011
1.527
1.69046
1.55427
1.56494
1.51106
1.55947
1.65185
1.8025
1.59149
1.5759
1.427
1.75308
1.57263
1.65459
1.50432
1.54474
1.63858
1.57628
1.50319
1.51115
1.60979
1.58528
1.7089
1.58505
1.71172
1.55318
1.60155
1.58521
1.52121
1.72631
1.59105
1.53525
1.45527
1.5201
1.6473
1.59608
1.60702
1.65659
1.62623
1.6497
1.64162
1.6097
1.51615
1.60769
1.63978
1.61467
1.60386
1.57162
1.55192
1.63543
1.69112
1.70077
1.59719
1.74066
1.62659
1.60212
1.64325
1.71518
1.51986
1.46693
1.62294
1.63691
1.6801
1.63577
1.52634
1.48574
1.56389
1.69781
1.72323
1.71191
1.57553
1.61941
1.51268
1.56223
1.61628
1.67933
1.60333
1.57393
1.51968
1.52968
1.57289
1.51575
1.72573
1.45391
1.59643
1.57509
1.50012
1.59598
1.648
1.63009
1.59971
1.4874
1.72684
1.53144
1.68054
1.62379
1.5718
1.493
1.61928
1.64509
1.48756
1.62876
1.50574
1.63698
1.53783
1.48509
1.51885
1.54523
1.77527
1.51528
1.53803
1.62553
1.52004
1.53826
1.47162
1.45127
1.59738
1.49652
1.58505
1.61929
1.70139
1.55102
1.61442
1.66245
1.6471
1.61388
1.61544
1.52784
1.54975
1.5314
1.50055
1.61579
1.67055
1.55443
1.50926
1.61423
1.61909
1.47947
1.58345
1.53937
1.58601
1.53696
1.60885
1.59434
1.54585
1.54531
1.59662
1.56215
1.66704
1.68628
1.6163
1.6124
1.47382
1.53609
1.4873
1.61719
1.56309
1.60076
1.5604
1.60344
1.66312
1.53702
1.68302
1.68423
1.56587
1.5673
1.51253
1.56497
1.65564
1.43603
1.58418
1.66593
1.68957
1.56398
1.64093
1.4478
1.49908
1.59924
1.52475
1.55103
1.52216
1.72058
1.56303
1.64827
1.65521
1.55911
1.52254
1.57251
1.57098
1.56439
1.73281
1.50781
1.62351
1.56373
1.57173
1.63611
1.68543
1.54376
1.57499
1.66251
1.57752
1.51953
1.5404
1.65181
1.62793
1.54848
1.49609
1.63049
1.56036
1.48944
1.58724
1.70307
1.53043
1.55982
1.62435
1.74996
1.57664
1.47859
1.49599
1.57674
1.56546
1.52465
1.70989
1.48293
1.51868
1.55515
1.62201
1.51881
1.63374
1.56044
1.56021
1.60171
1.68353
1.64785
1.46411
1.50108
1.51692
1.40292
1.45947
1.66422
1.54372
1.63344
1.55233
1.56522
1.58038
1.50138
1.48947
1.53423
1.50934
1.59557
1.75901
1.54001
1.5711
1.45815
1.55832
1.5382
1.47914
1.59312
1.55068
1.49972
1.55995
1.73932
1.58685
1.63034
1.56997
1.53647
1.49997
1.66839
1.38657
1.67924
1.65184
1.59182
1.48613
1.53714
1.5504
1.54546
1.57286
1.55301
1.56059
1.63303
1.64001
1.74849
1.60869
1.78655
1.51861
1.49495
1.6409
1.7147
1.4815
1.52266
1.57333
1.62906
1.60505
1.47529
1.53802
1.54845
1.62367
1.58705
1.59158
1.65465
1.59244
1.62023
1.62696
1.52274
1.53938
1.47005
1.55856
1.62919
1.60186
1.51763
1.71346
1.57226
1.4743
1.42487
1.56556
1.52519
1.61867
1.53647
1.54609
1.58049
1.62224
1.42281
1.51462
1.49756
1.50534
1.57359
1.59324
1.6185
1.68151
1.59911
1.4778
1.51149
1.54915
1.46466
1.6142
1.56914
1.61476
1.53076
1.58039
1.64035
1.61199
1.65364
1.5692
1.65283
1.74911
1.70248
1.66785
1.55072
1.57808
1.54576
1.4753
1.58536
1.66711
1.47981
1.57096
1.52932
1.52286
1.61644
1.70413
1.61331
1.51909
1.46212
1.7098
1.56119
1.51132
1.54179
1.53172
1.48323
1.6039
1.46004
1.53322
1.71203
1.6585
1.53696
1.5898
1.54051
1.59548
1.54092
1.63934
1.58382
1.62286
1.61811
1.636
1.64733
1.64392
1.60737
1.60931
1.53299
1.53978
1.65066
1.57234
1.54675
1.54704
1.51565
1.59814
1.59699
1.48695
1.6061
1.61877
1.62317
1.6099
1.57548
1.67904
1.55579
1.68901
1.67957
1.54852
1.61424
1.58976
1.51371
1.43969
1.67881
1.67983
1.51026
1.63872
1.54454
1.63673
1.4891
1.55962
1.57639
1.56366
1.59293
1.50086
1.49146
1.51558
1.60873
1.49748
1.65552
1.66451
1.59964
1.53257
1.51601
1.64883
1.51104
1.52992
1.61165
1.59045
1.56884
1.57886
1.51913
1.54354
1.646
1.67072
1.75495
1.54859
1.63844
1.59272
1.49531
1.59241
1.56353
1.52228
1.50569
1.54546
1.59316
1.64502
1.58884
1.62771
1.5474
1.47472
1.61307
1.51695
1.584
1.53813
1.57003
1.49596
1.66387
1.52314
1.57412
1.53193
1.58456
1.53273
1.638
1.66742
1.49156
1.57657
1.64245
1.53101
1.78946
1.60531
1.64741
1.56195
1.70336
1.61721
1.61897
1.58677
1.65711
1.50941
1.57692
1.51549
1.49873
1.50991
1.59435
1.68718
1.58588
1.61974
1.74262
1.5871
1.64791
1.54432
1.59
1.50486
1.43566
1.49124
1.5645
1.52757
1.56798
1.5444
1.71426
1.58769
1.49621
1.50259
1.50821
1.63297
1.48248
1.56016
1.6879
1.59527
1.53075
1.60009
1.70948
1.53071
1.68342
1.51722
1.57016
1.61995
1.52226
1.61373
1.58369
1.56229
1.74562
1.55022
1.49354
1.53052
1.57364
1.55555
1.50317
1.62414
1.58563
1.55838
1.55472
1.58607
1.65857
1.5268
1.64572
1.62186
1.65383
1.62582
1.65011
1.51758
1.61443
1.53523
1.51338
1.60245
1.47786
1.50301
1.54723
1.4833
1.42838
1.52966
1.51044
1.52345
1.5505
1.67124
1.54083
1.54729
1.6677
1.53321
1.56289
1.63166
1.61144
1.52027
1.60506
1.60955
1.51542
1.5438
1.65097
1.51393
1.55388
1.61328
1.51185
1.62601
1.54829
1.604
1.65123
1.69215
1.48808
1.63871
1.6656
1.5213
1.57144
1.70221
1.62767
1.54553
1.68065
1.57122
1.62812
1.58757
1.62298
1.54944
1.60257
1.61057
1.54791
1.48987
1.56212
1.52689
1.51799
1.39837
1.56156
1.5545
1.59027
1.52374
1.56017
1.50526
1.61622
1.61814
1.56994
1.65442
1.55939
1.49009
1.6311
1.60049
1.57738
1.61452
1.56021
1.57684
1.60945
1.66873
1.54401
1.64003
1.70398
1.61303
1.554
1.4909
1.59618
1.51267
1.70273
1.51145
1.61104
1.55969
1.60815
1.6402
1.52624
1.56166
1.57948
1.52563
1.48114
1.52264
1.63166
1.50543
1.62973
1.55846
1.67716
1.64684
1.60262
1.54247
1.49889
1.5866
1.5936
1.54597
1.59778
1.55598
1.55895
1.66484
1.52145
1.66099
1.53046
1.62116
1.50675
1.63811
1.555
1.5183
1.54195
1.54797
1.67992
1.509
1.52871
1.58899
1.6098
1.62646
1.43351
1.68277
1.60471
1.62389
1.7149
1.61491
1.52114
1.5411
1.55933
1.66861
1.55808
1.55375
1.61649
1.59445
1.55157
1.61426
1.56342
1.56816
1.65718
1.67464
1.47448
1.49563
1.62402
1.65469
1.64578
1.48862
1.64708
1.66809
1.56591
1.56004
1.51927
1.60047
1.67503
1.5385
1.59775
1.62584
1.63061
1.56108
1.52782
1.53176
1.57802
1.65685
1.64231
1.61128
1.50506
1.52425
1.57583
1.58107
1.54208
1.56118
1.57575
1.5904
1.50623
1.51835
1.46593
1.433
1.48631
1.6122
1.57222
1.68221
1.57837
1.5914
1.51914
1.61698
1.5514
1.48878
1.51716
1.53557
1.59657
1.48455
1.56487
1.5488
1.5932
1.57271
1.64258
1.54153
1.50607
1.52425
1.55375
1.58749
1.56198
1.55079
1.50225
1.69986
1.57855
1.66505
1.60733
1.67299
1.64197
1.53653
1.47412
1.59994
1.60412
1.64286
1.63237
1.58864
1.5529
1.49984
1.63977
1.60871
1.48694
1.53692
1.46615
1.65844
1.52676
1.59454
1.51941
1.50714
1.7577
1.71914
1.64385
1.53953
1.49772
1.65463
1.46499
1.58704
1.55661
1.57275
1.52399
1.58324
1.60089
1.6366
1.51684
1.53118
1.61747
1.55352
1.52548
1.66127
1.64649
1.57587
1.68313
1.6257
1.76516
1.62439
1.64495
1.8674
1.62444
1.72505
1.4761
1.5201
1.55433
1.60425
1.72116
1.5239
1.53904
1.59827
1.69469
1.57055
1.59926
1.52848
1.67999
1.58935
1.46584
1.49353
1.504
1.65696
1.53767
1.56896
1.69012
1.51618
1.54214
1.62318
1.69219
1.58364
1.52305
1.62522
1.56892
1.58662
1.6522
1.48884
1.67088
1.57677
1.60681
1.66309
1.59206
1.65845
1.59456
1.5175
1.52867
1.61332
1.62418
1.64101
1.7571
1.6769
1.48106
1.64902
1.52118
1.6793
1.59356
1.63919
1.63542
1.66188
1.57261
1.60755
1.50005
1.65385
1.54383
1.47615
1.59194
1.506
1.63109
1.57727
1.58615
1.53573
1.56416
1.59838
1.6034
1.63019
1.55293
1.54301
1.61314
1.5997
1.53249
1.51648
1.54125
1.60908
1.44741
1.59113
1.48442
1.47416
1.67282
1.60794
1.57008
1.51897
1.6371
1.56747
1.50297
1.56721
1.56243
1.63666
1.56821
1.40441
1.58739
1.53822
1.52952
1.57285
1.59519
1.547
1.5387
1.57241
1.57622
1.51721
1.53754
1.52877
1.58268
1.53836
1.48901
1.58051
1.6464
1.51782
1.55519
1.62205
1.52483
1.57296
1.57491
1.6462
1.538
1.49367
1.5344
1.65038
1.61287
1.54821
1.52603
1.59036
1.62206
1.51936
1.58516
1.58416
1.62866
1.62257
1.66342
1.62603
1.58924
1.47395
1.57253
1.44481
1.48568
1.6801
1.58365
1.50444
1.50836
1.51853
1.73797
1.51406
1.49016
1.65227
1.62229
1.60776
1.56363
1.59721
1.57727
1.60406
1.53904
1.68278
1.52509
1.53303
1.54984
1.57408
1.65066
1.57153
1.47387
1.4861
1.52952
1.62024
1.47111
1.62054
1.58746
1.58092
1.50949
1.65081
1.55614
1.57509
1.64763
1.58132
1.57517
1.62252
1.53452
1.54367
1.59488
1.5622
1.64277
1.49442
1.57971
1.7122
1.61153
1.5413
1.65537
1.60507
1.63607
1.53409
1.65038
1.52246
1.66475
1.63184
1.55567
1.60955
1.48812
1.66372
1.51179
1.63605
1.56884
1.65602
1.56808
1.49379
1.61704
1.65634
1.60676
1.65928
1.63628
1.55741
1.58837
1.53353
1.67243
1.67488
1.54974
1.52727
1.42836
1.57989
1.59163
1.64718
1.63529
1.62092
1.53989
1.5836
1.54592
1.63007
1.63761
1.49795
1.59231
1.56003
1.54867
1.5186
1.67593
1.61945
1.78453
1.56401
1.42365
1.56475
1.53107
1.54926
1.52631
1.63844
1.59355
1.47832
1.48584
1.49559
1.60523
1.532
1.49143
1.63896
1.59467
1.68689
1.64073
1.61739
1.60246
1.57699
1.74683
1.66411
1.51584
1.55129
1.54106
1.62486
1.4959
1.55549
1.59431
1.63224
1.62075
1.56504
1.58989
1.5819
1.45523
1.5309
1.51846
1.5957
1.69205
1.64712
1.62788
1.68249
1.48216
1.55849
1.6021
1.62341
1.52889
1.59762
1.61007
1.62843
1.53295
1.59943
1.68568
1.54371
1.5259
1.67612
1.41942
1.55847
1.51215
1.61615
1.52035
1.64225
1.48498
1.58766
1.59632
1.66446
1.51351
1.59149
1.58873
1.50647
1.61876
1.52504
1.64338
1.59422
1.63199
1.49207
1.60076
1.54448
1.50567
1.66537
1.56477
1.56989
1.54071
1.51302
1.65155
1.5913
1.48746
1.49185
1.54815
1.63401
1.52632
1.59576
1.54804
1.52163
1.58702
1.55353
1.73848
1.60985
1.55062
1.75257
1.52805
1.56576
1.61146
1.61216
1.53076
1.67957
1.57115
1.57872
1.59696
1.46699
1.66852
1.53684
1.67853
1.52031
1.55043
1.53908
1.78448
1.54136
1.63441
1.57305
1.5471
1.69648
1.50023
1.59198
1.64822
1.7094
1.52119
1.55848
1.5972
1.63561
1.50347
1.57184
1.59415
1.73206
1.61169
1.50651
1.78897
1.6228
1.53146
1.59421
1.68462
1.50318
1.53804
1.59298
1.53967
1.5553
1.6166
1.6036
1.62018
1.50983
1.55589
1.57106
1.49864
1.60477
1.44423
1.55081
1.61455
1.5751
1.60976
1.65411
1.55838
1.62652
1.53121
1.50004
1.53267
1.56392
1.5907
1.54821
1.53333
1.67435
1.52319
1.63378
1.56179
1.50889
1.5624
1.61705
1.54493
1.67625
1.66202
1.61041
1.62356
1.62082
1.55947
1.48328
1.60839
1.52828
1.62845
1.53463
1.5699
1.53792
1.67388
1.51277
1.58801
1.68644
1.73327
1.51774
1.48966
1.60518
1.65507
1.70391
1.54443
1.54766
1.49954
1.52184
1.64096
1.47522
1.62212
1.57135
1.60667
1.54107
1.62251
1.65346
1.62233
1.70259
1.57235
1.61344
1.61136
1.59149
1.57659
1.57605
1.54874
1.5571
1.51134
1.58199
1.53981
1.54873
1.48501
1.52674
1.56474
1.63759
1.60688
1.66087
1.60838
1.63348
1.66201
1.50623
1.66213
1.70282
1.66246
1.61364
1.59024
1.553
1.45327
1.64337
1.53642
1.67841
1.41611
1.571
1.6019
1.67866
1.54523
1.64422
1.51861
1.47206
1.56879
1.66582
1.66015
1.60004
1.64942
1.5423
1.50076
1.62106
1.53018
1.57979
1.57817
1.66148
1.50672
1.6013
1.67507
1.53056
1.57542
1.53173
1.66695
1.53942
1.62372
1.55604
1.58913
1.58395
1.50363
1.60973
1.54569
1.63448
1.6034
1.55948
1.57581
1.47418
1.63332
1.52548
1.64584
1.58944
1.71924
1.73834
1.61854
1.55472
1.69641
1.72146
1.49423
1.61902
1.60126
1.47463
1.64257
1.68099
1.59173
1.51757
1.72316
1.47642
1.50689
1.54892
1.45447
1.56945
1.50338
1.59509
1.50928
1.55493
1.64702
1.63639
1.49648
1.71547
1.56993
1.52994
1.62099
1.75205
1.65124
1.65253
1.49845
1.65467
1.73441
1.8215
1.4668
1.51676
1.54792
1.54228
1.55202
1.62106
1.5104
1.47814
1.53491
1.5267
1.60857
1.48777
1.61199
1.53234
1.5142
1.55537
1.60493
1.51643
1.63424
1.60149
1.50107
1.6099
1.63304
1.67462
1.53033
1.5603
1.60849
1.5885
1.62507
1.67825
1.62858
1.43392
1.56703
1.59153
1.60935
1.70483
1.5328
1.60147
1.55315
1.56394
1.50813
1.51455
1.68793
1.65978
1.63164
1.69188
1.57006
1.60465
1.64168
1.60842
1.51031
1.65242
1.51262
1.5802
1.66075
1.53997
1.63233
1.62947
1.53662
1.71622
1.72084
1.59946
1.53699
1.63712
1.67953
1.48829
1.52027
1.71475
1.64703
1.63298
1.4877
1.44857
1.65219
1.53031
1.65688
1.62371
1.61245
1.5011
1.64143
1.49611
1.49176
1.53779
1.57091
1.58818
1.47955
1.49519
1.62408
1.45808
1.64108
1.52999
1.55355
1.4726
1.62543
1.63514
1.59978
1.64444
1.59781
1.53698
1.63712
1.4246
1.55372
1.6614
1.50999
1.67678
1.62091
1.55209
1.70194
1.63135
1.58643
1.52896
1.65245
1.71919
1.49073
1.71103
1.51679
1.62549
1.59259
1.59056
1.57477
1.54799
1.6216
1.59773
1.4551
1.41997
1.49569
1.55442
1.62608
1.55834
1.66231
1.59747
1.68423
1.59823
1.53929
1.53683
1.62245
1.53131
1.67284
1.69287
1.55395
1.53844
1.56586
1.52177
1.51889
1.6302
1.58714
1.50526
1.69751
1.51461
1.59608
1.66766
1.49332
1.45006
1.47831
1.68435
1.61681
1.52958
1.54578
1.59087
1.74389
1.44207
1.62761
1.70966
1.53248
1.58393
1.57653
1.54414
1.50961
1.53432
1.43454
1.56183
1.56101
1.70946
1.51939
1.53847
1.59969
1.57324
1.59956
1.63879
1.71655
1.60084
1.53131
1.59339
1.53419
1.5775
1.48727
1.66203
1.53088
1.63057
1.65167
1.6109
1.55136
1.6014
1.60987
1.58352
1.54739
1.48028
1.52503
1.47196
1.46265
1.55644
1.67226
1.78911
1.69532
1.54184
1.58421
1.57945
1.62054
1.63733
1.5269
1.55736
1.52345
1.60692
1.67145
1.61658
1.57253
1.587
1.60077
1.62305
1.61799
1.56797
1.6193
1.53331
1.67294
1.4389
1.61675
1.48768
1.5625
1.50332
1.52444
1.54795
1.53902
1.54934
1.53551
1.51733
1.49875
1.48616
1.5808
1.46713
1.55005
1.54828
1.63433
1.6427
1.54775
1.57519
1.57306
1.61419
1.64846
1.61405
1.53204
1.53808
1.58806
1.61197
1.52478
1.53042
1.55881
1.56332
1.62151
1.44319
1.53325
1.55365
1.70936
1.57608
1.56388
1.59581
1.54285
1.54233
1.63107
1.50432
1.46824
1.61643
1.50634
1.56608
1.68117
1.59033
1.52755
1.64168
1.54945
1.54369
1.66184
1.514
1.55667
1.69058
1.56785
1.55156
1.5771
1.63056
1.5232
1.68941
1.5786
1.49229
1.45747
1.53279
1.58874
1.65184
1.63616
1.55741
1.5629
1.62435
1.56658
1.50035
1.5452
1.57425
1.69074
1.65625
1.58848
1.54693
1.61254
1.61366
1.60699
1.48911
1.51252
1.48333
1.47747
1.5441
1.49178
1.55092
1.76081
1.65734
1.6287
1.65464
1.68032
1.57429
1.68185
1.64747
1.57861
1.57219
1.56382
1.58247
1.54388
1.5832
1.50854
1.5614
1.5861
1.54676
1.58119
1.61159
1.72301
1.58503
1.60387
1.46872
1.49298
1.49107
1.67809
1.6264
1.6019
1.53833
1.58738
1.55484
1.57494
1.58752
1.53888
1.43741
1.56202
1.59187
1.53289
1.64774
1.6062
1.48341
1.57755
1.55492
1.57618
1.55413
1.67016
1.53305
1.80491
1.51632
1.66267
1.62632
1.53317
1.56002
1.56644
1.64986
1.58665
1.50564
1.48592
1.66372
1.6392
1.54825
1.63148
1.53869
1.54679
1.56269
1.62714
1.57167
1.49171
1.67339
1.62652
1.49004
1.53687
1.77484
1.54626
1.48498
1.8523
1.62112
1.62773
1.65473
1.66654
1.51452
1.55822
1.65069
1.55413
1.52899
1.54972
1.63157
1.58908
1.65159
1.58394
1.5761
1.66672
1.69692
1.54687
1.64069
1.62487
1.69007
1.68683
1.45246
1.60955
1.67065
1.55633
1.62776
1.52533
1.54967
1.62611
1.54391
1.47829
1.68766
1.61324
1.6195
1.64817
1.74341
1.67917
1.52927
1.74897
1.59999
1.54807
1.64673
1.65345
1.61035
1.70772
1.57646
1.55501
1.48994
1.63651
1.66983
1.5893
1.64929
1.52395
1.53949
1.61802
1.53521
1.58358
1.42697
1.47923
1.56379
1.5843
1.56701
1.64829
1.67667
1.55096
1.64795
1.57113
1.59969
1.70308
1.5476
1.66675
1.54613
1.64402
1.54814
1.55208
1.54349
1.64624
1.6343
1.5274
1.49399
1.63903
1.66537
1.66615
1.62598
1.51996
1.57345
1.49851
1.51533
1.65561
1.51172
1.58226
1.58502
1.58308
1.7206
1.64701
1.68605
1.50244
1.56947
1.70916
1.47493
1.68137
1.73311
1.54931
1.56831
1.62485
1.56619
1.62874
1.59943
1.54987
1.54428
1.63007
1.62472
1.50422
1.49288
1.68095
1.75252
1.68167
1.37202
1.52013
1.50117
1.60704
1.62863
1.6186
1.53601
1.61304
1.58053
1.57055
1.53598
1.7269
1.55169
1.61667
1.65689
1.63428
1.54464
1.71718
1.60729
1.58479
1.57143
1.55585
1.55451
1.69632
1.57689
1.59055
1.6086
1.5756
1.57009
1.57203
1.56164
1.59829
1.53126
1.67889
1.68112
1.52074
1.52074
1.48026
1.50174
1.5721
1.60014
1.69021
1.56714
1.61981
1.53171
1.47011
1.77439
1.5398
1.42073
1.63747
1.57466
1.62894
1.53284
1.62916
1.71782
1.60478
1.56382
1.5354
1.58219
1.5289
1.64173
1.62022
1.68314
1.56031
1.43933
1.62904
1.52771
1.54551
1.56294
1.452
1.63057
1.51023
1.51057
1.43864
1.51501
1.51485
1.71406
1.66378
1.49509
1.51622
1.48443
1.4877
1.5575
1.55175
1.49842
1.57645
1.52066
1.56466
1.60056
1.68591
1.49947
1.54868
1.59368
1.59753
1.54547
1.56643
1.66969
1.62286
1.57613
1.594
1.57302
1.59666
1.6594
1.46166
1.69881
1.55177
1.54901
1.55442
1.75684
1.71306
1.65478
1.57924
1.58335
1.7076
1.61732
1.61721
1.55943
1.56973
1.53095
1.61408
1.78931
1.60061
1.4997
1.58191
1.48555
1.50134
1.6251
1.61907
1.62372
1.58469
1.64282
1.54685
1.59812
1.4905
1.58056
1.58487
1.54878
1.58294
1.51582
1.64506
1.56095
1.58578
1.64234
1.5198
1.54987
1.62107
1.55737
1.66631
1.61839
1.5635
1.52328
1.62679
1.67798
1.5338
1.72573
1.56246
1.71838
1.66438
1.66831
1.59257
1.54388
1.5878
1.69015
1.54243
1.61363
1.57896
1.7213
1.68065
1.62268
1.65452
1.54818
1.63551
1.68549
1.59766
1.66037
1.60066
1.59782
1.55663
1.5754
1.57276
1.5077
1.66067
1.61624
1.55617
1.50316
1.56173
1.60809
1.51158
1.57573
1.7437
1.49217
1.63243
1.51397
1.53487
1.68279
1.66194
1.5611
1.57426
1.51774
1.56411
1.56333
1.56899
1.51164
1.52084
1.54494
1.58852
1.56309
1.54855
1.60902
1.63707
1.56437
1.55094
1.55579
1.68361
1.53211
1.53919
1.66836
1.7295
1.55065
1.6559
1.62244
1.55548
1.66202
1.56456
1.62672
1.5119
1.46911
1.61214
1.57771
1.63089
1.68994
1.6505
1.54491
1.571
1.533
1.7179
1.7065
1.61528
1.5089
1.6157
1.63085
1.49533
1.6225
1.58721
1.52827
1.52428
1.54375
1.47656
1.69817
1.5717
1.64796
1.62355
1.60078
1.53438
1.66233
1.53946
1.58471
1.54228
1.61808
1.62669
1.61131
1.64726
1.52317
1.51018
1.69208
1.65736
1.48815
1.64367
1.48728
1.59963
1.58048
1.56521
1.53565
1.65523
1.454
1.43642
1.6649
1.52974
1.60519
1.56246
1.54069
1.55689
1.55745
1.48388
1.59452
1.60569
1.577
1.39835
1.55927
1.68845
1.55697
1.59582
1.50941
1.5008
1.47438
1.54131
1.47111
1.57027
1.56371
1.48494
1.56384
1.55033
1.54416
1.63474
1.55782
1.53927
1.53753
1.56045
1.59957
1.54329
1.72512
1.59172
1.77148
1.66003
1.63023
1.56565
1.56474
1.45789
1.59367
1.57816
1.47433
1.56974
1.49344
1.59038
1.60689
1.63509
1.80876
1.73549
1.68608
1.59626
1.56257
1.64772
1.54101
1.53601
1.66592
1.50229
1.46884
1.524
1.51047
1.55419
1.64535
1.60006
1.60252
1.72701
1.46476
1.61994
1.68987
1.47804
1.6594
1.61401
1.65546
1.56153
1.75868
1.54764
1.64945
1.58745
1.78054
1.69201
1.56103
1.58728
1.43755
1.68592
1.63192
1.58369
1.51908
1.68865
1.59114
1.67122
1.66853
1.53717
1.54148
1.62299
1.55505
1.5829
1.65188
1.52476
1.46555
1.57012
1.65319
1.60068
1.53442
1.588
1.52906
1.55255
1.48492
1.50384
1.69323
1.6078
1.60884
1.56777
1.58813
1.60398
1.47438
1.50884
1.54896
1.64657
1.59857
1.52242
1.57997
1.60995
1.52254
1.5845
1.64895
1.60418
1.59688
1.50625
1.61547
1.59127
1.64444
1.62471
1.57401
1.57662
1.61938
1.53457
1.50468
1.60784
1.61915
1.60214
1.68816
1.5629
1.61065
1.69292
1.57992
1.59154
1.53829
1.5462
1.60724
1.62022
1.5818
1.53721
1.55494
1.56323
1.51435
1.58482
1.60574
1.48774
1.53998
1.55656
1.54578
1.53256
1.43176
1.44767
1.56548
1.59312
1.64917
1.53871
1.60748
1.56152
1.44227
1.54769
1.55977
1.65801
1.59769
1.5796
1.53839
1.49282
1.52412
1.56791
1.57914
1.5811
1.56254
1.49683
1.63463
1.50821
1.63953
1.63296
1.63229
1.67482
1.51031
1.54548
1.6139
1.48011
1.48296
1.52688
1.53014
1.54312
1.63606
1.72744
1.55565
1.62824
1.61587
1.52421
1.5985
1.53712
1.73085
1.51594
1.51612
1.70205
1.59403
1.62407
1.60362
1.56302
1.46752
1.52751
1.51355
1.5524
1.54375
1.56882
1.63458
1.54184
1.52822
1.61458
1.55294
1.52334
1.64236
1.65296
1.67333
1.48283
1.52766
1.5408
1.64791
1.55598
1.60993
1.62055
1.69348
1.64363
1.63858
1.56979
1.55801
1.57828
1.53699
1.63265
1.58651
1.58498
1.54634
1.50121
1.62286
1.53639
1.64438
1.58825
1.52723
1.4872
1.5926
1.60726
1.65235
1.52267
1.49472
1.63905
1.52862
1.55728
1.62017
1.64656
1.64445
1.67096
1.49507
1.60479
1.65441
1.50915
1.53851
1.53955
1.64327
1.5491
1.57475
1.46979
1.62298
1.45675
1.71029
1.70333
1.56761
1.61137
1.63545
1.55075
1.69352
1.63063
1.62612
1.65886
1.65373
1.49654
1.6297
1.56679
1.63621
1.56275
1.70378
1.48159
1.60766
1.56657
1.59968
1.67302
1.54214
1.58681
1.63562
1.50824
1.53685
1.55619
1.61169
1.57332
1.57
1.74027
1.48242
1.63365
1.58739
1.53017
1.49812
1.62411
1.55339
1.47706
1.57762
1.58588
1.52192
1.61502
1.60332
1.70435
1.65419
1.58374
1.53662
1.62584
1.56289
1.51714
1.62845
1.56844
1.57793
1.49751
1.58372
1.62277
1.55006
1.47421
1.66992
1.61152
1.59067
1.5216
1.64998
1.55679
1.57496
1.53395
1.62269
1.52541
1.50664
1.63631
1.59752
1.5338
1.65694
1.63936
1.61859
1.53291
1.64504
1.55572
1.53952
1.58221
1.56227
1.68075
1.56449
1.60965
1.59028
1.58329
1.49978
1.62053
1.57714
1.51071
1.70377
1.562
1.60291
1.64347
1.54269
1.53496
1.5581
1.61789
1.44479
1.62574
1.54072
1.64253
1.67362
1.60818
1.52898
1.58358
1.69275
1.54778
1.62609
1.66311
1.53286
1.618
1.57962
1.61784
1.59676
1.53623
1.59509
1.59235
1.57368
1.51153
1.50441
1.58835
1.60706
1.64284
1.55179
1.47988
1.63189
1.54906
1.63069
1.5027
1.56632
1.51542
1.5309
1.54128
1.48143
1.58838
1.73391
1.4949
1.66233
1.56
1.53091
1.54343
1.53248
1.5455
1.52917
1.5636
1.54384
1.50859
1.6077
1.51121
1.55144
1.51521
1.56336
1.50152
1.58103
1.54928
1.50426
1.54042
1.62069
1.58646
1.54896
1.55061
1.58771
1.59578
1.56616
1.56708
1.55238
1.56207
1.54724
1.57728
1.70436
1.61382
1.56658
1.6341
1.57691
1.52878
1.45511
1.45976
1.54693
1.61892
1.69606
1.57358
1.64224
1.51822
1.46743
1.61682
1.51222
1.56405
1.51844
1.54156
1.73466
1.482
1.56025
1.62585
1.48689
1.59813
1.48498
1.56798
1.47485
1.57882
1.67722
1.60973
1.67856
1.59768
1.55371
1.52245
1.56294
1.51776
1.56569
1.52585
1.62037
1.5743
1.50005
1.5222
1.56514
1.49271
1.68805
1.57305
1.4821
1.61221
1.48234
1.54526
1.64507
1.55919
1.54142
1.51769
1.67769
1.6733
1.49472
1.51321
1.50367
1.4843
1.59234
1.54481
1.5202
1.48397
1.68113
1.55497
1.54366
1.51105
1.55781
1.55999
1.60288
1.61522
1.61885
1.71556
1.62815
1.62812
1.60811
1.47754
1.6182
1.48354
1.53745
1.60784
1.63994
1.56853
1.57736
1.60634
1.48959
1.42723
1.59075
1.6382
1.57004
1.5931
1.52013
1.5812
1.65673
1.64322
1.56768
1.69357
1.57117
1.57046
1.51721
1.63447
1.54942
1.55064
1.44594
1.47424
1.6582
1.62695
1.5628
1.65636
1.69183
1.49294
1.49632
1.56641
1.61691
1.49343
1.57238
1.49258
1.55906
1.70948
1.63145
1.6033
1.69217
1.59868
1.55534
1.67439
1.64949
1.54627
1.64389
1.53086
1.62305
1.47182
1.48152
1.52241
1.59411
1.67418
1.49826
1.63091
1.70669
1.60296
1.53515
1.65093
1.58263
1.74136
1.57381
1.53658
1.55163
1.58283
1.44039
1.57243
1.6317
1.57556
1.68536
1.52346
1.57203
1.56678
1.47629
1.55707
1.46647
1.57193
1.7508
1.55828
1.70462
1.469
1.5788
1.63595
1.46846
1.49016
1.65614
1.56291
1.60437
1.587
1.56226
1.70083
1.65917
1.64997
1.6161
1.58116
1.53653
1.68499
1.65589
1.60228
1.57416
1.57545
1.60044
1.46697
1.62141
1.5977
1.54154
1.57154
1.67368
1.57832
1.57739
1.6215
1.51505
1.6558
1.6163
1.62122
1.76777
1.55939
1.51809
1.52862
1.51643
1.58112
1.60822
1.4877
1.60888
1.46868
1.57623
1.54703
1.62452
1.59947
1.5725
1.62625
1.50751
1.52237
1.51993
1.48493
1.50612
1.64469
1.5372
1.52589
1.66823
1.69208
1.61652
1.48662
1.61668
1.5169
1.58368
1.5736
1.61826
1.5658
1.5666
1.50279
1.57992
1.51666
1.53849
1.6018
1.47997
1.55911
1.49477
1.56761
1.56077
1.63119
1.66118
1.55376
1.55066
1.56574
1.60164
1.6831
1.55084
1.4951
1.6198
1.55618
1.57158
1.49459
1.48792
1.56561
1.50244
1.57881
1.57398
1.48954
1.48042
1.64541
1.57736
1.53272
1.5636
1.54647
1.50451
1.48233
1.49401
1.55715
1.79948
1.51871
1.5598
1.67571
1.47027
1.47546
1.61472
1.5236
1.59205
1.59286
1.53331
1.52851
1.6348
1.55018
1.57269
1.62437
1.53475
1.57232
1.49172
1.53101
1.5061
1.59339
1.62957
1.56646
1.68242
1.63024
1.68246
1.54413
1.53832
1.54507
1.47998
1.69907
1.57106
1.49243
1.52224
1.4693
1.62321
1.63195
1.44564
1.5268
1.70097
1.47632
1.57207
1.58293
1.54156
1.62622
1.68658
1.77317
1.58277
1.4933
1.56717
1.56169
1.52623
1.61445
1.57028
1.65629
1.51393
1.58934
1.51591
1.54739
1.75985
1.6467
1.60999
1.5552
1.62034
1.64674
1.525
1.66849
1.58881
1.54364
1.61861
1.4653
1.56182
1.62101
1.48566
1.53724
1.69171
1.49786
1.52394
1.62353
1.58383
1.49945
1.65594
1.59885
1.5637
1.57716
1.59114
1.67805
1.63136
1.652
1.64393
1.6276
1.47233
1.45152
1.69462
1.65196
1.6007
1.58575
1.61163
1.53573
1.44872
1.58926
1.56385
1.5374
1.57988
1.6046
1.55271
1.58757
1.55381
1.518
1.71876
1.55062
1.5492
1.53588
1.66754
1.66221
1.55
1.73276
1.56607
1.56191
1.63839
1.61815
1.54056
1.52206
1.52451
1.53036
1.69037
1.67917
1.63511
1.64287
1.62947
1.64753
1.56974
1.59769
1.53966
1.5966
1.46464
1.50499
1.57959
1.5631
1.60835
1.77896
1.54992
1.55825
1.6632
1.5988
1.57633
1.5257
1.68907
1.58711
1.5924
1.62332
1.67401
1.58287
1.61661
1.51086
1.63016
1.57879
1.66568
1.5152
1.57366
1.54651
1.60626
1.66695
1.51041
1.55509
1.59891
1.58729
1.66597
1.61415
1.49151
1.57476
1.56764
1.44754
1.59057
1.7326
1.58768
1.58223
1.43962
1.60223
1.53616
1.48201
1.58015
1.66685
1.60145
1.60799
1.42561
1.56276
1.5192
1.6084
1.54655
1.50794
1.70656
1.56169
1.49021
1.58718
1.60138
1.5774
1.65175
1.66709
1.46506
1.56403
1.72378
1.79838
1.60372
1.65973
1.5223
1.67411
1.72792
1.68192
1.59865
1.64447
1.65776
1.66478
1.47245
1.54859
1.53043
1.49876
1.50262
1.64089
1.62674
1.62005
1.47772
1.55916
1.50824
1.61588
1.63157
1.64091
1.54689
1.51231
1.50377
1.551
1.58356
1.68321
1.60572
1.44689
1.57138
1.56728
1.68639
1.67121
1.52623
1.61176
1.72216
1.64263
1.4773
1.60152
1.60195
1.62776
1.60404
1.65878
1.53908
1.54539
1.52963
1.50494
1.5796
1.48614
1.5375
1.60202
1.62027
1.6603
1.50904
1.572
1.49965
1.57521
1.62599
1.60238
1.54127
1.61178
1.61471
1.58693
1.57143
1.68993
1.60253
1.67639
1.5367
1.58427
1.57666
1.52444
1.58581
1.60039
1.62347
1.51791
1.54863
1.41264
1.5519
1.51473
1.59515
1.61122
1.62272
1.53395
1.79049
1.53127
1.509
1.49989
1.70469
1.62258
1.6428
1.4984
1.53075
1.54407
1.56833
1.54505
1.61063
1.67214
1.61113
1.52065
1.5963
1.61026
1.61387
1.62219
1.57892
1.52271
1.72572
1.49443
1.56532
1.54222
1.53402
1.57508
1.52132
1.6174
1.5947
1.56276
1.64765
1.61277
1.65423
1.61041
1.52378
1.59554
1.60771
1.6473
1.56161
1.53144
1.51222
1.59107
1.50947
1.55482
1.71003
1.5459
1.60006
1.53928
1.63267
1.58365
1.62506
1.5812
1.51393
1.60759
1.54571
1.57741
1.65488
1.51983
1.48587
1.51674
1.60506
1.53787
1.56237
1.47737
1.64676
1.52888
1.69043
1.6914
1.49235
1.69627
1.44067
1.54023
1.58055
1.57171
1.463
1.70916
1.64186
1.53538
1.64819
1.55128
1.56123
1.5015
1.5451
1.60296
1.64146
1.54675
1.64012
1.70483
1.53083
1.76651
1.64868
1.58301
1.56424
1.71052
1.68003
1.51523
1.51573
1.53203
1.5643
1.5516
1.65578
1.62217
1.60851
1.61074
1.5923
1.52855
1.60762
1.62515
1.61468
1.4375
1.64793
1.53651
1.66798
1.61241
1.69542
1.61121
1.50043
1.56539
1.52938
1.53717
1.53972
1.5643
1.73993
1.54106
1.593
1.65452
1.52729
1.48779
1.67277
1.54214
1.62974
1.59271
1.66402
1.56484
1.5433
1.53951
1.57999
1.56045
1.49097
1.67071
1.59577
1.63083
1.53065
1.56558
1.56061
1.59461
1.61461
1.7656
1.65429
1.50355
1.49857
1.46807
1.73649
1.49517
1.68215
1.52224
1.72941
1.50869
1.69449
1.64421
1.54197
1.51119
1.62144
1.57672
1.54869
1.60587
1.49296
1.57626
1.52684
1.5899
1.4681
1.61534
1.589
1.64903
1.59281
1.61181
1.60799
1.51901
1.65618
1.67735
1.6332
1.6843
1.48026
1.58376
1.6829
1.55197
1.59851
1.39497
1.4903
1.60528
1.51185
1.56704
1.51817
1.67722
1.44613
1.6452
1.57968
1.55021
1.60951
1.6203
1.65954
1.62715
1.59342
1.56814
1.54953
1.52867
1.52214
1.52366
1.59986
1.63594
1.57368
1.60695
1.48621
1.6184
1.59235
1.58365
1.53213
1.61706
1.57343
1.53147
1.62296
1.57258
1.5626
1.61676
1.54845
1.55239
1.55045
1.45982
1.64058
1.51992
1.49995
1.59182
1.60145
1.63211
1.68278
1.50265
1.41355
1.634
1.62188
1.50208
1.65236
1.49787
1.47017
1.53838
1.55995
1.62685
1.71819
1.67528
1.69126
1.6448
1.42456
1.60397
1.60147
1.53011
1.52635
1.51537
1.50157
1.54541
1.66719
1.52461
1.55429
1.59275
1.56373
1.56748
1.46071
1.55952
1.60066
1.515
1.51118
1.52963
1.63763
1.59391
1.62195
1.56955
1.74241
1.76002
1.65471
1.43679
1.60271
1.64283
1.53328
1.59382
1.50784
1.56786
1.61859
1.56214
1.51881
1.60498
1.61835
1.49225
1.51429
1.57102
1.63356
1.56571
1.53098
1.6361
1.58965
1.52292
1.52235
1.46339
1.60831
1.54017
1.5145
1.50352
1.61498
1.52213
1.64717
1.55774
1.46005
1.51406
1.6092
1.5196
1.58129
1.63519
1.60643
1.58411
1.56508
1.65542
1.52791
1.51373
1.43498
1.57783
1.53212
1.58465
1.67526
1.59276
1.73712
1.67295
1.52208
1.61637
1.54326
1.62778
1.55508
1.43388
1.71662
1.61176
1.56206
1.60477
1.64466
1.5991
1.59564
1.51201
1.58369
1.50946
1.56571
1.68795
1.52619
1.54806
1.54035
1.59729
1.49544
1.5594
1.56358
1.61428
1.59771
1.52563
1.50397
1.51395
1.54677
1.54671
1.6157
1.49133
1.49702
1.7124
1.52566
1.57085
1.41195
1.45988
1.60009
1.64879
1.44928
1.51825
1.50525
1.57619
1.63977
1.56717
1.56513
1.59817
1.54449
1.52203
1.64507
1.64591
1.53255
1.56387
1.60453
1.63671
1.62216
1.61743
1.57861
1.53564
1.56204
1.47989
1.55413
1.61469
1.57615
1.67226
1.59303
1.58445
1.66978
1.65466
1.58097
1.4829
1.45265
1.51149
1.67
1.57267
1.74014
1.70083
1.72427
1.49808
1.61454
1.6225
1.58848
1.66441
1.60011
1.55462
1.63798
1.6441
1.67262
1.50256
1.71607
1.53503
1.56154
1.70866
1.57625
1.59126
1.52775
1.71017
1.47208
1.52577
1.56026
1.5885
1.63517
1.53793
1.62313
1.49263
1.61292
1.52207
1.53495
1.56775
1.64221
1.58683
1.4794
1.49682
1.68743
1.69946
1.59227
1.42733
1.59608
1.59951
1.6068
1.64664
1.64393
1.48958
1.48615
1.51049
1.61869
1.61163
1.53618
1.63129
1.5795
1.66353
1.57655
1.51688
1.54979
1.5253
1.56129
1.51635
1.6638
1.53134
1.51638
1.54267
1.61315
1.61513
1.49094
1.65823
1.53182
1.55176
1.61205
1.57969
1.67512
1.57623
1.47827
1.63339
1.58618
1.48198
1.60532
1.60134
1.54121
1.52509
1.58543
1.56191
1.62208
1.55356
1.62228
1.59251
1.52387
1.52103
1.5825
1.55254
1.5945
1.57083
1.6324
1.52863
1.57062
1.54249
1.60094
1.57755
1.57835
1.47284
1.57121
1.55123
1.54869
1.62228
1.7393
1.57491
1.55131
1.60225
1.56835
1.63056
1.6617
1.71102
1.51382
1.50423
1.56113
1.52921
1.5173
1.6518
1.55627
1.62186
1.53049
1.46585
1.63207
1.62849
1.58353
1.58604
1.65896
1.67956
1.50952
1.62609
1.57145
1.47092
1.51312
1.66756
1.57549
1.56309
1.52274
1.58826
1.6381
1.52428
1.67028
1.60719
1.56805
1.54898
1.64878
1.54793
1.53998
1.60725
1.51255
1.56748
1.50887
1.56651
1.45787
1.62668
1.50738
1.56099
1.60445
1.67232
1.58531
1.50192
1.51967
1.55955
1.62223
1.61894
1.66696
1.55476
1.50937
1.61767
1.61449
1.66341
1.62411
1.46684
1.63325
1.69522
1.56815
1.4788
1.52571
1.58216
1.53659
1.58168
1.51601
1.64258
1.47825
1.70471
1.53652
1.56584
1.59731
1.64892
1.6058
1.62025
1.51919
1.67689
1.58348
1.66347
1.67048
1.59885
1.55863
1.66748
1.51607
1.74817
1.78028
1.63264
1.42173
1.58722
1.63884
1.63201
1.69124
1.63515
1.70647
1.53922
1.62593
1.44379
1.61773
1.55122
1.49625
1.55873
1.65866
1.76977
1.49848
1.59646
1.50189
1.6363
1.50425
1.60424
1.64556
1.56132
1.54714
1.54723
1.5897
1.55483
1.50893
1.61053
1.51288
1.53986
1.57561
1.65601
1.63483
1.5174
1.52708
1.59246
1.55985
1.62923
1.60225
1.58039
1.62218
1.56087
1.55545
1.47403
1.64706
1.58931
1.47402
1.62954
1.49409
1.5359
1.54784
1.7388
1.59341
1.47759
1.54648
1.50369
1.50143
1.77538
1.43961
1.5854
1.55434
1.63059
1.46339
1.54267
1.58924
1.47948
1.56355
1.56265
1.56388
1.66014
1.55027
1.67806
1.57852
1.58223
1.56917
1.56511
1.5854
1.71057
1.57842
1.46724
1.67354
1.5148
1.55336
1.66248
1.57911
1.77937
1.52394
1.6861
1.49525
1.52072
1.57402
1.55961
1.65312
1.49968
1.56118
1.55936
1.54414
1.58801
1.54518
1.57657
1.56558
1.5407
1.55205
1.73145
1.61342
1.57966
1.63964
1.67382
1.5752
1.56493
1.49561
1.60298
1.50224
1.52556
1.75772
1.51374
1.45044
1.62074
1.61693
1.46519
1.65935
1.55879
1.58546
1.67868
1.61962
1.52446
1.59425
1.42878
1.67911
1.601
1.5774
1.57845
1.50415
1.61033
1.55667
1.51562
1.60939
1.59118
1.56885
1.60509
1.59512
1.56149
1.56962
1.61464
1.59776
1.56064
1.44907
1.62063
1.54928
1.60523
1.58199
1.69984
1.58793
1.7236
1.45396
1.61005
1.53894
1.62316
1.5037
1.48919
1.57765
1.5352
1.51868
1.59742
1.56259
1.5816
1.66563
1.6858
1.59407
1.44197
1.72938
1.50231
1.53359
1.66623
1.48946
1.51178
1.51327
1.59015
1.61662
1.59018
1.5306
1.60388
1.61752
1.59852
1.47339
1.66177
1.6956
1.71575
1.53526
1.58627
1.54257
1.59715
1.49256
1.50914
1.7078
1.59252
1.5925
1.55366
1.50447
1.46964
1.58939
1.55258
1.59008
1.5165
1.71025
1.53424
1.55799
1.59336
1.54873
1.60485
1.59094
1.54419
1.62477
1.49827
1.67469
1.60932
1.58908
1.61226
1.47999
1.55099
1.65345
1.67381
1.50166
1.58635
1.61453
1.68823
1.49836
1.57278
1.60973
1.51809
1.55571
1.63265
1.53715
1.58123
1.50514
1.57659
1.63934
1.61219
1.56584
1.76813
1.59202
1.6285
1.42951
1.52615
1.5837
1.50694
1.65209
1.52718
1.59621
1.45519
1.66858
1.5755
1.55679
1.43307
1.52736
1.5116
1.53299
1.58195
1.5025
1.64555
1.48519
1.48497
1.55473
1.53057
1.54487
1.42894
1.56041
1.59891
1.59995
1.61009
1.6159
1.51568
1.52636
1.59556
1.59982
1.61168
1.53349
1.70834
1.66395
1.60233
1.53591
1.55305
1.53636
1.45367
1.50983
1.58807
1.68187
1.5835
1.53457
1.50933
1.58201
1.61199
1.51727
1.64316
1.65626
1.57445
1.62229
1.50373
1.55768
1.62689
1.48299
1.53358
1.60625
1.53886
1.57143
1.62445
1.62174
1.54798
1.53095
1.62828
1.53664
1.57383
1.52644
1.51485
1.58169
1.70147
1.6009
1.59226
1.55781
1.6278
1.64666
1.51761
1.62528
1.73481
1.62605
1.49731
1.5632
1.48547
1.65755
1.65573
1.52258
1.55517
1.68935
1.49419
1.50883
1.5066
1.58389
1.59129
1.64222
1.70645
1.69958
1.56707
1.56942
1.62576
1.68269
1.65522
1.62097
1.57123
1.53508
1.62933
1.6542
1.56922
1.4769
1.47145
1.65679
1.61021
1.73603
1.58501
1.56916
1.54544
1.51593
1.74063
1.70496
1.63327
1.60709
1.41469
1.53117
1.65217
1.4801
1.51453
1.77487
1.45826
1.59058
1.54069
1.4968
1.60717
1.56
1.59531
1.62175
1.44634
1.55317
1.63701
1.48461
1.59863
1.55789
1.62018
1.4861
1.56002
1.59399
1.62625
1.59992
1.54448
1.56458
1.62198
1.54665
1.52006
1.48726
1.63907
1.62139
1.64989
1.44182
1.58109
1.56672
1.66299
1.53853
1.52461
1.53214
1.6288
1.56458
1.55315
1.4855
1.56936
1.57079
1.60016
1.60081
1.57108
1.55858
1.57877
1.55444
1.5175
1.50683
1.78093
1.52506
1.56659
1.6278
1.53907
1.69572
1.53983
1.59821
1.62744
1.57831
1.61527
1.53323
1.53649
1.49821
1.61341
1.56627
1.66574
1.56836
1.51186
1.58657
1.54397
1.69332
1.59726
1.48562
1.63005
1.56811
1.65449
1.56029
1.57902
1.48001
1.60117
1.54375
1.47093
1.57483
1.68507
1.59748
1.51788
1.71402
1.54243
1.6144
1.51091
1.53269
1.65584
1.54446
1.64071
1.612
1.74206
1.65299
1.54426
1.62519
1.54183
1.67217
1.58345
1.56345
1.58336
1.57372
1.6222
1.49586
1.51128
1.5316
1.55515
1.6214
1.56646
1.53104
1.64802
1.54269
1.66652
1.61598
1.46395
1.70673
1.57583
1.558
1.57275
1.58872
1.8229
1.5852
1.51395
1.56671
1.66476
1.60349
1.47855
1.51297
1.5657
1.5203
1.46939
1.64321
1.61644
1.59235
1.53971
1.59599
1.49052
1.68643
1.68209
1.52903
1.59296
1.63591
1.58703
1.55499
1.61617
1.49362
1.65247
1.74415
1.57017
1.61935
1.60052
1.49896
1.61544
1.58983
1.66461
1.55488
1.73895
1.71256
1.5607
1.63672
1.56099
1.53663
1.62315
1.65001
1.51162
1.54697
1.56923
1.62152
1.58933
1.45115
1.4354
1.54793
1.55545
1.51118
1.51491
1.80445
1.50819
1.59132
1.472
1.53112
1.54869
1.78549
1.63129
1.56775
1.47075
1.58162
1.56905
1.59123
1.58043
1.67379
1.63869
1.60791
1.63838
1.46829
1.57911
1.53848
1.62455
1.69239
1.48593
1.5528
1.65563
1.61824
1.62361
1.62168
1.70441
1.59326
1.72273
1.49912
1.57904
1.51674
1.55938
1.47481
1.48628
1.59513
1.59487
1.58676
1.51564
1.61997
1.67712
1.55628
1.50601
1.61351
1.51987
1.57351
1.65705
1.56415
1.51966
1.64885
1.6209
1.64293
1.74392
1.57503
1.60819
1.56635
1.56493
1.54768
1.57153
1.56708
1.58271
1.60455
1.46493
1.51708
1.58087
1.642
1.5263
1.54224
1.58324
1.52628
1.64288
1.57301
1.41787
1.4703
1.57247
1.76275
1.48497
1.50985
1.73265
1.56764
1.5325
1.60555
1.50415
1.59192
1.53506
1.53013
1.62355
1.53875
1.70821
1.62225
1.55076
1.65469
1.62016
1.7045
1.55796
1.55687
1.56023
1.57281
1.64265
1.62605
1.48866
1.54815
1.6593
1.60427
1.55561
1.61352
1.57621
1.58994
1.49128
1.73595
1.59881
1.69838
1.465
1.72129
1.55361
1.53009
1.52343
1.61551
1.65407
1.64196
1.61691
1.4884
1.62451
1.69369
1.5416
1.56751
1.57471
1.50896
1.52211
1.56333
1.54599
1.53688
1.54975
1.70624
1.47574
1.50832
1.70455
1.48954
1.56173
1.46884
1.56349
1.66887
1.59144
1.67005
1.6191
1.63473
1.5213
1.59172
1.70241
1.56885
1.53589
1.58323
1.54134
1.69124
1.65699
1.48465
1.69219
1.4721
1.45635
1.54793
1.48031
1.60458
1.43587
1.69995
1.59276
1.5859
1.52852
1.60071
1.53822
1.57545
1.53662
1.65269
1.4763
1.63249
1.54814
1.60384
1.54193
1.5603
1.51522
1.59474
1.58232
1.68935
1.58963
1.51953
1.59731
1.51784
1.48505
1.57471
1.57179
1.58512
1.59285
1.63686
1.5625
1.6298
1.47053
1.51792
1.50852
1.51706
1.61711
1.69095
1.61809
1.57707
1.5067
1.52002
1.72136
1.61851
1.51729
1.55116
1.6347
1.65054
1.54653
1.55377
1.6034
1.56495
1.47092
1.72216
1.46087
1.64017
1.49458
1.7162
1.50291
1.5899
1.48367
1.65489
1.65326
1.67888
1.56552
1.55576
1.62474
1.60269
1.51938
1.61342
1.54749
1.54355
1.49132
1.54231
1.58958
1.52854
1.59883
1.69145
1.5309
1.52046
1.59803
1.57479
1.54406
1.56061
1.53399
1.54193
1.59649
1.49236
1.55244
1.58106
1.47459
1.58413
1.43782
1.60279
1.67812
1.58534
1.55543
1.63177
1.54984
1.57294
1.64812
1.46052
1.64346
1.58951
1.60344
1.66087
1.63776
1.54528
1.52082
1.59195
1.5543
1.53391
1.49921
1.55604
1.68129
1.69872
1.51405
1.5751
1.68456
1.6045
1.57106
1.63278
1.56683
1.58969
1.50353
1.50434
1.55673
1.62737
1.54657
1.66403
1.55713
1.62759
1.63567
1.60746
1.65235
1.50899
1.57139
1.67854
1.60743
1.5427
1.67853
1.50221
1.56206
1.61857
1.54358
1.55431
1.48148
1.57819
1.40285
1.50749
1.65555
1.54362
1.64063
1.57542
1.61993
1.64317
1.70988
1.57036
1.53154
1.80383
1.57015
1.6216
1.5776
1.5727
1.59432
1.59216
1.5961
1.51085
1.59642
1.48895
1.60757
1.57789
1.60335
1.67586
1.49615
1.61644
1.52429
1.55261
1.47879
1.54811
1.56857
1.631
1.46788
1.61827
1.56784
1.60718
1.65426
1.79567
1.76466
1.6919
1.54432
1.56795
1.51633
1.55611
1.45191
1.50256
1.47707
1.59256
1.6244
1.5764
1.57862
1.47655
1.58815
1.59752
1.48577
1.64793
1.54895
1.5209
1.56085
1.51817
1.64613
1.73613
1.58877
1.59486
1.54953
1.61234
1.62148
1.53749
1.60665
1.65533
1.56434
1.59403
1.54153
1.59647
1.52605
1.49709
1.71238
1.62817
1.53412
1.59542
1.5287
1.55346
1.50641
1.60749
1.585
1.80475
1.74813
1.55497
1.66883
1.53189
1.67319
1.65036
1.53767
1.49861
1.72193
1.61371
1.57754
1.52741
1.61443
1.57223
1.67854
1.56817
1.5555
1.56715
1.54746
1.61631
1.51343
1.46726
1.61321
1.59104
1.5587
1.49452
1.66913
1.53499
1.5875
1.67822
1.45101
1.50428
1.56601
1.61693
1.52479
1.6153
1.52418
1.5672
1.79129
1.50026
1.42576
1.7583
1.56819
1.58597
1.48212
1.6309
1.65348
1.45858
1.54588
1.62203
1.55492
1.74422
1.64825
1.56494
1.58559
1.69045
1.57232
1.63028
1.47498
1.51263
1.61403
1.74757
1.52858
1.57176
1.63848
1.55959
1.52338
1.58154
1.63568
1.57571
1.6278
1.54203
1.47471
1.60845
1.58303
1.59759
1.6635
1.66147
1.5254
1.59769
1.52755
1.51134
1.54767
1.42708
1.56821
1.60617
1.51502
1.68328
1.59417
1.6521
1.54314
1.61664
1.48313
1.44129
1.57115
1.62713
1.53546
1.60092
1.52258
1.53716
1.59297
1.53047
1.50264
1.50508
1.62823
1.54729
1.59106
1.6273
1.55554
1.47021
1.50801
1.61429
1.69866
1.5262
1.57953
1.6569
1.67243
1.566
1.69039
1.54297
1.4925
1.68567
1.58021
1.61268
1.63692
1.53227
1.65548
1.51853
1.49034
1.50941
1.50525
1.54235
1.57986
1.50002
1.56508
1.72248
1.54505
1.58581
1.54797
1.64476
1.50583
1.66408
1.68485
1.53687
1.57708
1.55412
1.4979
1.55507
1.51086
1.60447
1.48147
1.60148
1.6091
1.50325
1.70863
1.63281
1.60077
1.56383
1.59855
1.50651
1.61587
1.5614
1.59312
1.58235
1.6665
1.45444
1.68657
1.54686
1.43336
1.72164
1.53767
1.58036
1.5398
1.71676
1.51294
1.60888
1.5737
1.62983
1.53983
1.62066
1.59417
1.51479
1.54634
1.63206
1.62165
1.51574
1.46048
1.66248
1.57989
1.60731
1.49898
1.584
1.63711
1.52362
1.60233
1.47811
1.56699
1.59304
1.61857
1.5945
1.67656
1.66508
1.50859
1.47661
1.78555
1.57466
1.51903
1.64365
1.59899
1.58371
1.50422
1.712
1.56369
1.42631
1.51596
1.60098
1.52509
1.65017
1.69229
1.58534
1.49399
1.54401
1.57201
1.64572
1.60005
1.64848
1.54607
1.522
1.59274
1.64949
1.57046
1.66559
1.55413
1.55236
1.59476
1.51257
1.61118
1.61158
1.62779
1.61357
1.6449
1.55063
1.55678
1.52415
1.49624
1.62546
1.50819
1.6454
1.65111
1.59053
1.50987
1.44125
1.51891
1.52593
1.58711
1.63455
1.57729
1.60534
1.47738
1.72601
1.53688
1.64009
1.57634
1.54879
1.57558
1.6324
1.59813
1.54544
1.55204
1.58706
1.54076
1.56462
1.59566
1.43617
1.65446
1.49292
1.60061
1.58113
1.54444
1.5216
1.57134
1.61753
1.60804
1.51833
1.47602
1.63896
1.51323
1.5908
1.56012
1.69315
1.64432
1.49644
1.60537
1.48251
1.59843
1.60989
1.53639
1.69258
1.50223
1.62575
1.52924
1.58299
1.50634
1.55894
1.56646
1.73749
1.58551
1.60363
1.62367
1.5488
1.52176
1.52842
1.53574
1.57812
1.64388
1.63385
1.55994
1.73372
1.53595
1.493
1.51901
1.59207
1.4302
1.56305
1.6476
1.53831
1.47732
1.65489
1.52864
1.57873
1.66592
1.61126
1.4473
1.60195
1.49641
1.46277
1.54966
1.65067
1.54301
1.57162
1.61883
1.57099
1.69997
1.62753
1.62338
1.56365
1.60697
1.59079
1.8107
1.56202
1.5533
1.56951
1.55261
1.50365
1.52036
1.64292
1.54737
1.64099
1.46472
1.56936
1.63468
1.61241
1.50259
1.66009
1.60014
1.52783
1.57524
1.62113
1.62544
1.5869
1.60616
1.53128
1.62896
1.5876
1.58864
1.61103
1.57337
1.63442
1.58226
1.548
1.4771
1.48202
1.59239
1.52068
1.5645
1.54086
1.54313
1.53334
1.55947
1.53695
1.60317
1.6213
1.55661
1.5933
1.59297
1.60872
1.6197
1.66738
1.59336
1.55055
1.54872
1.49428
1.60558
1.5313
1.68971
1.56676
1.65837
1.53149
1.57181
1.60129
1.59665
1.66848
1.53395
1.7236
1.59392
1.47475
1.61617
1.7382
1.54576
1.50967
1.52076
1.5554
1.69819
1.50944
1.64501
1.65964
1.55844
1.70889
1.57526
1.62202
1.58236
1.47669
1.54591
1.58528
1.53138
1.54758
1.53431
1.65848
1.57329
1.54915
1.58822
1.56053
1.57774
1.59056
1.53058
1.54578
1.61686
1.79743
1.5679
1.63547
1.60858
1.62149
1.61118
1.52474
1.56723
1.51904
1.61501
1.57092
1.62242
1.67666
1.53409
1.58257
1.47465
1.51641
1.52291
1.58242
1.67161
1.57462
1.55201
1.60738
1.54408
1.5414
1.57028
1.51637
1.57462
1.64665
1.6049
1.57958
1.56725
1.56255
1.6598
1.61336
1.58086
1.57012
1.55703
1.48318
1.59019
1.64082
1.51777
1.48814
1.53117
1.60266
1.55869
1.53546
1.75397
1.63088
1.66122
1.57032
1.44864
1.48603
1.67078
1.56119
1.45805
1.66166
1.61885
1.70801
1.54768
1.68864
1.60096
1.60488
1.57699
1.54263
1.52333
1.50283
1.49999
1.5783
1.52995
1.58353
1.54067
1.63236
1.63448
1.5217
1.59175
1.50509
1.5943
1.51933
1.56186
1.59815
1.66938
1.71715
1.51384
1.67018
1.62882
1.60548
1.66236
1.63404
1.54498
1.63172
1.62291
1.59948
1.56322
1.5649
1.56221
1.58048
1.6323
1.4197
1.4961
1.53284
1.64147
1.67819
1.60364
1.62434
1.44046
1.64217
1.48264
1.52564
1.6325
1.60258
1.60095
1.6628
1.62167
1.66035
1.58572
1.63321
1.61043
1.51823
1.75007
1.46646
1.55587
1.59461
1.68946
1.58014
1.74946
1.67239
1.62869
1.61784
1.54069
1.55783
1.70943
1.51095
1.55295
1.56203
1.56323
1.50353
1.58672
1.63498
1.67454
1.53799
1.53465
1.52286
1.6144
1.48248
1.49659
1.52004
1.59375
1.52604
1.64588
1.49657
1.57227
1.57548
1.65926
1.55076
1.62023
1.66423
1.5543
1.67829
1.62214
1.57735
1.54655
1.63863
1.57677
1.60097
1.52464
1.67405
1.63237
1.61315
1.78696
1.56963
1.56902
1.57986
1.57394
1.65873
1.63382
1.58683
1.70547
1.47291
1.46812
1.60128
1.59183
1.60221
1.60367
1.45844
1.55487
1.46936
1.45801
1.66865
1.60252
1.59549
1.61076
1.51447
1.55572
1.64576
1.59369
1.50956
1.58234
1.52042
1.58965
1.66683
1.6195
1.52774
1.63309
1.67183
1.65685
1.61187
1.57665
1.53544
1.63409
1.59979
1.58773
1.54718
1.57275
1.59433
1.56235
1.56066
1.68546
1.61599
1.61491
1.59941
1.54122
1.6304
1.54949
1.53905
1.68338
1.63774
1.60575
1.5614
1.59367
1.51983
1.46961
1.6199
1.48841
1.57896
1.55443
1.56058
1.66848
1.54454
1.59619
1.51807
1.54846
1.58319
1.50869
1.7362
1.57117
1.57931
1.49681
1.62336
1.64005
1.55105
1.58883
1.5056
1.55671
1.61119
1.65003
1.54136
1.52523
1.44999
1.56448
1.55797
1.59985
1.54469
1.44537
1.55789
1.67272
1.54999
1.62862
1.63385
1.5891
1.55721
1.54849
1.55825
1.54709
1.69297
1.60356
1.62685
1.52004
1.53235
1.61172
1.52553
1.55636
1.54185
1.50441
1.54086
1.67421
1.55484
1.55624
1.61038
1.57959
1.58473
1.59067
1.51588
1.45911
1.47881
1.59083
1.71531
1.57333
1.7106
1.56664
1.60324
1.57669
1.63949
1.48954
1.60584
1.55357
1.63401
1.59538
1.67108
1.64963
1.76487
1.58068
1.62964
1.61889
1.48162
1.74788
1.59326
1.55439
1.61348
1.55796
1.53207
1.53961
1.6576
1.61758
1.65378
1.51791
1.58334
1.55507
1.67172
1.58384
1.68696
1.58708
1.56181
1.55299
1.54406
1.57171
1.68611
1.62958
1.59387
1.62066
1.56787
1.73362
1.64904
1.52636
1.66387
1.60347
1.56719
1.69925
1.54372
1.66128
1.63731
1.60724
1.52661
1.50486
1.62445
1.70389
1.45406
1.81224
1.52678
1.59819
1.56794
1.56164
1.5667
1.49381
1.60945
1.51341
1.56444
1.57215
1.60185
1.51052
1.5611
1.54604
1.67544
1.68451
1.6011
1.49104
1.73939
1.6182
1.55355
1.57148
1.77197
1.69314
1.55436
1.57789
1.57385
1.70077
1.5197
1.54188
1.59467
1.56074
1.56407
1.55464
1.70006
1.47448
1.63954
1.56056
1.57807
1.5459
1.5166
1.52911
1.56467
1.53881
1.60303
1.51046
1.57609
1.67344
1.57324
1.67257
1.58143
1.62195
1.6675
1.53694
1.47646
1.52193
1.6235
1.60096
1.67733
1.65713
1.52894
1.65256
1.80901
1.6244
1.43889
1.51119
1.55776
1.60223
1.64467
1.59396
1.51878
1.53009
1.64555
1.54732
1.50322
1.5116
1.57703
1.58188
1.50983
1.62682
1.60612
1.45927
1.54728
1.55812
1.43694
1.63414
1.42355
1.5983
1.58933
1.53781
1.70401
1.50495
1.59756
1.55524
1.5947
1.6041
1.54491
1.57287
1.59046
1.53704
1.47331
1.57489
1.4706
1.52809
1.54204
1.49899
1.62038
1.49456
1.48732
1.56874
1.70328
1.63036
1.57631
1.71058
1.8598
1.60283
1.59491
1.53929
1.52421
1.59214
1.64738
1.60227
1.58316
1.64128
1.62749
1.58766
1.48277
1.68676
1.70286
1.60303
1.65832
1.56073
1.61759
1.44666
1.62463
1.40753
1.67389
1.6719
1.64956
1.58757
1.56442
1.44907
1.65189
1.48952
1.51768
1.67378
1.61434
1.6694
1.75633
1.61689
1.51525
1.49196
1.59734
1.52658
1.63284
1.58756
1.69096
1.67045
1.50874
1.58892
1.66669
1.48917
1.48128
1.54691
1.55357
1.54685
1.65485
1.47945
1.52464
1.53297
1.65073
1.59648
1.71063
1.60836
1.60464
1.70124
1.63172
1.46908
1.56105
1.57026
1.59561
1.58338
1.66533
1.62585
1.53231
1.62626
1.4775
1.46801
1.51566
1.60075
1.546
1.47119
1.56953
1.66858
1.57327
1.68652
1.54069
1.5192
1.57414
1.68953
1.63546
1.62989
1.5297
1.62101
1.60026
1.59379
1.72105
1.51253
1.59595
1.51722
1.61492
1.55399
1.60241
1.60245
1.61413
1.6299
1.65182
1.59306
1.58942
1.66945
1.49504
1.52161
1.54295
1.49422
1.45716
1.59977
1.60949
1.75899
1.50353
1.52602
1.51529
1.7431
1.47586
1.61909
1.58622
1.62201
1.69365
1.70859
1.59354
1.52842
1.59948
1.53757
1.57146
1.48519
1.57971
1.61367
1.49873
1.70891
1.53943
1.52504
1.49908
