2.04922
2.07164
2.15844
2.18076
2.33598
2.33594
2.77697
2.43855
2.20204
2.16893
1.97139
2.395
2.1995
3.27744
2.23808
2.06635
1.99197
2.26325
2.30098
2.02448
2.9589
2.27443
2.22858
2.32499
2.80945
2.04955
2.39006
2.62873
2.84071
2.53626
2.1987
2.10444
2.72146
2.69225
2.32082
2.57088
2.15482
2.82748
2.4917
3.00328
2.23033
2.2239
2.3509
2.32842
2.19388
2.33958
2.06495
2.33287
2.11641
2.51814
2.22894
2.03282
2.30562
2.15924
2.23681
2.43569
2.15754
2.26398
2.30445
2.20042
2.25432
2.3547
2.29513
2.55898
2.34846
1.95505
1.93168
2.21316
2.19553
2.01562
2.03929
2.42383
2.30244
2.4781
2.363
2.41587
2.18721
2.33447
2.36893
2.70502
2.35429
2.16
2.57995
2.14968
1.96247
2.10545
2.32052
2.34004
2.36907
2.07815
2.13666
2.36461
2.58732
2.4973
2.59691
2.59344
2.49812
2.15432
2.3421
2.33015
2.37769
2.36566
2.23978
2.15048
1.9226
2.33303
2.81376
2.70733
2.05875
2.63464
2.16484
2.09393
2.51619
2.33094
2.59847
2.49282
2.24868
2.30751
2.65535
2.16775
3.77668
2.32474
2.23654
2.10476
2.13112
2.27423
1.98907
2.4568
2.31283
1.90087
2.27736
2.31702
2.18517
2.337
2.48511
1.98198
2.64365
2.37221
2.25907
2.11729
2.46693
2.40616
2.22247
2.31962
2.04825
2.5415
2.32922
2.172
2.78685
2.43823
2.47345
1.95517
2.17869
2.1106
2.31971
2.73645
2.65263
2.23642
2.22061
2.35825
2.52332
2.36843
2.16193
2.31733
2.55575
2.37297
2.79312
2.26051
2.31161
2.33385
2.03254
2.62996
2.52033
2.37617
2.60794
2.58126
2.36141
2.79164
2.19772
2.62517
2.28222
2.36503
2.48544
2.58015
2.39092
2.32413
2.25489
2.2486
2.07347
2.47778
2.79868
2.7218
2.0319
2.45538
2.19723
2.02107
2.45645
2.66333
2.24452
2.5426
2.6248
3.18196
2.57899
2.51139
2.38365
2.20395
2.3367
2.07518
2.64457
2.12222
2.24271
2.08683
2.3028
2.45495
2.35796
2.03232
2.44867
3.0707
2.44323
2.31887
2.75219
2.35687
2.44007
2.2054
2.85738
2.18826
2.48079
2.36364
2.17455
1.98083
2.2922
2.46173
2.23708
2.37156
2.12143
2.48617
2.49713
2.48321
2.33246
2.18448
2.09432
1.86246
2.2787
2.50734
2.44388
2.43803
2.10409
2.1797
2.23317
2.34082
2.54586
2.21699
2.28391
2.17856
2.25789
2.12992
2.62186
1.94552
2.25249
2.4775
2.3187
2.35454
2.44071
2.45608
4.05402
2.07213
2.35276
1.9953
2.46258
2.00469
2.22222
2.1754
2.98523
2.3655
2.27599
3.25694
2.47052
2.2162
1.96012
2.0864
2.23937
2.0523
2.30134
2.03365
2.25566
2.99353
2.53983
1.98321
2.58167
2.13363
2.44282
2.29869
2.53329
2.36736
2.12265
2.22039
2.58589
2.36743
3.19653
2.1897
2.08417
2.38774
2.70573
2.15663
2.52079
1.98803
2.65884
2.55068
2.16313
2.18172
2.49934
2.40584
2.31817
2.42398
2.64778
2.15821
2.20472
2.27825
2.13997
1.91734
2.39599
2.09743
2.40243
2.10309
2.3835
2.39222
2.19513
2.9409
2.16219
2.1035
2.17592
2.92335
2.53512
2.34574
2.32408
2.60367
2.05755
2.37035
1.99092
2.21662
2.0577
2.64549
2.71575
2.59564
2.1662
2.45782
2.48367
2.28021
2.60521
2.27227
2.85979
2.59982
2.1685
2.45376
2.23938
2.32472
2.17829
2.60513
2.28583
2.3238
2.19208
2.60646
1.97573
1.9464
2.59388
2.07219
2.36007
2.81371
2.13384
2.43501
2.51651
2.38313
2.48074
2.08149
2.29002
2.21001
2.15185
2.36496
2.40634
2.3062
2.1832
2.20785
2.21804
2.28897
2.2779
2.54289
1.96126
2.26638
1.91688
2.59769
2.18294
2.26743
2.07856
2.10597
2.28146
2.32311
2.39189
2.71768
2.08507
2.07334
2.24989
3.35317
2.33028
2.2394
2.05115
2.45274
2.35091
2.51028
2.19181
2.44143
2.20708
2.08167
2.28175
2.07243
2.11776
2.02106
2.05146
2.26401
2.67846
2.62875
2.44847
2.43533
1.94951
2.31701
2.19829
2.35826
2.59303
2.5237
2.13645
2.22664
2.5208
2.10453
2.25607
2.3774
2.53881
2.34428
2.29651
2.33845
2.28992
2.2912
2.46207
2.16062
2.2494
2.49282
2.63489
2.56896
1.94932
2.2568
2.99379
2.20726
2.17727
2.17185
2.42293
2.33369
2.09979
2.45849
2.43555
2.03766
2.08837
2.5742
2.23131
2.11648
2.42564
2.13152
2.63181
2.33643
2.23006
2.42484
2.53217
2.0528
3.09163
2.16589
2.05059
2.63115
2.392
2.25448
2.19898
2.92285
2.54009
2.1561
2.35601
2.1829
2.57604
2.17218
2.13033
2.28431
2.36112
2.58452
2.71666
2.24773
2.29141
2.48894
2.27248
2.10982
2.03596
2.12815
2.35794
2.06405
2.16631
2.19628
2.17726
2.21158
2.29953
2.01604
2.43174
2.39352
2.2112
3.57012
2.44809
2.04812
1.88038
2.54118
2.12659
2.1481
2.17758
2.54282
2.44396
2.13328
2.52095
2.7457
2.13904
3.22787
2.71879
2.24463
2.37524
2.82163
2.28239
2.03229
2.38342
2.63074
2.51674
2.33305
2.35646
2.31822
2.1091
2.38934
2.41409
2.36114
2.3053
2.25019
2.14395
2.67792
2.26385
2.97808
2.61409
2.1919
2.29337
2.49368
2.06974
2.44498
2.23868
2.33925
2.05775
2.25862
2.21753
2.24554
2.28182
1.98799
2.59592
2.67329
2.17517
2.37877
2.22204
2.45061
2.4743
2.35964
2.98603
2.59593
2.09282
2.59968
2.17179
2.35503
2.27462
2.01762
2.15605
2.32707
2.16132
2.41692
2.37456
2.36182
2.27463
2.38167
2.25597
2.07147
2.43624
2.53853
2.55161
2.60691
2.17804
1.99685
2.29782
2.09799
2.19001
2.88337
2.77266
2.06423
2.14238
2.37323
2.40076
2.15256
2.39651
3.01393
2.25365
2.36581
2.12413
2.35449
2.30242
2.43249
2.21337
2.36192
2.09921
2.4719
2.1157
1.72253
2.29531
2.156
2.08501
2.29718
2.03984
2.09497
2.78493
2.10873
2.14408
2.64442
2.51192
2.2755
2.7078
3.02009
2.54993
2.12434
2.59642
2.24351
2.09605
2.21132
2.67839
2.33868
2.20458
2.27813
2.51983
2.32819
2.20755
2.25578
2.23048
2.08439
2.24128
2.33027
2.71664
2.6011
2.44396
2.73949
2.09822
2.27157
2.28105
2.36364
2.40469
2.22718
2.18454
2.30193
2.30543
2.45124
2.13782
2.4319
2.07
2.2408
2.1991
2.42326
2.44494
2.19733
2.15285
2.53844
2.24531
2.31978
2.04124
2.20702
2.27648
2.82498
2.10181
2.51987
2.10268
2.44884
2.57131
2.38147
2.79817
2.54331
2.21638
2.3375
2.10022
2.47462
2.68872
2.13107
2.05073
2.18992
2.35328
2.60912
2.3217
2.68768
2.22647
2.24602
2.32285
2.59031
2.04611
2.75093
2.34488
2.48628
2.23077
2.21038
2.15045
3.11279
2.50211
4.07477
2.26292
2.14302
2.11872
2.33058
2.00008
2.49322
2.7132
2.27936
2.11969
2.64444
2.59684
2.24803
2.57062
2.24177
2.85916
2.2669
2.3485
2.09659
2.25151
2.40317
2.27349
2.89344
2.00038
2.59243
2.71774
2.23835
2.0013
2.9612
2.20621
2.16781
2.48329
2.30366
2.80255
2.34397
2.39425
2.50049
2.61428
2.23903
2.66
2.41172
2.10048
2.17016
2.21788
2.21493
2.35112
2.27552
3.29988
2.31592
2.0085
2.37746
2.157
2.63493
2.36533
2.18468
2.84934
2.20083
2.17356
2.56575
2.01794
2.61218
2.33952
2.37244
2.18491
2.24845
2.44879
2.30959
2.22799
2.18026
2.16581
2.37454
2.23289
1.96232
2.1612
2.41713
2.96096
2.43285
2.59144
2.07479
2.23671
2.13079
2.28998
2.55409
2.08065
2.23868
2.69234
2.01532
2.16521
2.27952
2.01448
2.22367
2.01833
2.59873
2.31128
2.38253
2.36587
2.21213
2.1825
2.52804
2.28055
2.29781
2.26983
3.26418
2.63426
2.73909
2.14953
2.22957
2.16988
2.51262
2.23688
2.90871
2.20943
2.42498
2.68518
2.2986
2.11941
2.6087
2.31606
2.36361
2.38127
2.18357
2.22891
1.91197
2.40271
2.25214
2.42122
2.63933
2.94007
2.23072
2.46912
1.9256
2.55963
1.98773
2.25659
2.45053
2.47019
2.12999
2.53218
2.01292
1.85666
2.01133
2.09974
2.18416
2.33527
2.14234
2.46243
2.77137
2.54195
2.33703
2.68234
2.1839
2.11807
2.23635
2.26966
2.31597
2.31487
2.09362
2.62054
2.09731
2.14092
2.44225
2.38241
2.27743
2.89594
2.24407
2.39568
2.21266
2.60063
2.78362
2.43788
2.56068
1.95239
2.58267
2.14367
2.45461
2.70362
2.08047
2.73946
2.19108
2.23815
2.12462
2.81662
2.23955
2.37169
2.37151
2.24681
2.38349
3.37419
2.72144
2.01378
2.26313
2.12276
2.33373
2.40186
3.81352
2.5582
2.53261
2.1863
2.23996
3.0397
2.50018
2.39334
2.42231
2.32349
2.60868
2.4958
2.122
2.28744
3.47694
2.16959
2.02207
2.37688
3.05488
2.24707
2.27406
2.44181
2.2006
2.17002
2.05945
2.1252
2.37305
2.76262
2.33854
2.27993
2.13332
2.02636
2.51198
2.56193
2.13999
2.35444
2.30186
2.41173
2.51875
2.2537
2.58223
2.36486
2.24714
2.19418
2.04141
2.40123
2.33781
2.90662
2.13675
1.92423
2.39743
2.44404
2.28148
2.32005
2.1357
2.40741
2.36932
2.39408
2.36702
2.11384
2.26732
2.49556
2.35314
2.5308
2.44002
2.16471
2.38909
2.49177
1.95011
2.48827
2.14093
2.10686
2.22317
2.38124
2.27861
2.83854
2.01008
2.23477
2.50607
2.17253
2.26133
2.18849
2.50195
2.2191
2.12591
2.08222
2.59951
2.49718
2.42201
2.56007
3.16816
2.86595
2.52851
2.34385
2.09657
2.14519
2.32838
2.06493
2.57239
2.8889
2.47189
2.30809
2.73158
2.16353
2.30042
2.16267
2.31382
2.93752
2.50974
2.21717
2.09817
3.0882
2.58131
2.58965
2.39911
2.83705
2.35459
2.14023
2.34341
2.01669
2.26972
2.36609
2.18987
2.38957
2.41615
2.09289
2.32019
2.3817
2.29112
2.41328
2.15334
2.48504
2.31313
2.35898
2.1628
2.42562
2.02406
2.30929
2.15305
2.46195
2.30402
2.39594
2.06942
2.22353
2.2413
2.62254
2.21438
2.24574
2.31773
2.312
2.07982
2.29203
2.4131
2.55297
3.42004
1.99459
2.16911
2.21984
2.74513
2.60818
2.42849
2.84539
2.52775
2.01598
2.43909
2.55547
2.38998
2.77908
2.12316
2.28358
2.79221
2.55484
2.38346
2.133
2.20905
2.32091
2.39565
2.37923
2.01359
2.9535
2.39276
3.11348
3.56175
2.18455
2.20103
2.0773
2.1229
1.95552
2.54514
2.07679
2.32018
2.32519
2.37156
2.08622
2.60077
2.23577
2.21197
2.54709
2.24772
2.8747
2.3126
2.82216
2.31236
2.16473
2.26836
2.1738
2.0294
2.33927
2.38533
2.11287
2.48603
2.15287
2.48062
2.08346
2.41075
2.70284
2.54115
2.47762
2.37836
2.30792
2.28689
2.35908
2.03712
2.33079
2.76978
2.24827
2.20055
1.91393
2.51767
2.9552
2.35516
2.65363
2.42057
2.12106
2.18357
3.20351
2.52885
2.28625
2.29462
2.25839
1.99963
2.28163
2.32107
2.34282
2.34081
2.10574
2.75375
2.21521
2.3718
2.41252
2.32601
2.74393
3.23216
2.16716
2.32702
2.35211
2.26985
2.31026
2.19459
2.88731
2.33207
2.39646
2.18305
1.94022
2.22831
3.05796
2.40716
2.53518
2.58302
2.28296
2.22095
2.39534
2.38029
2.17116
2.38418
2.66493
2.32286
2.42671
2.09756
2.30242
2.81779
2.33438
2.10633
2.19462
2.17865
2.651
2.49411
2.50172
2.39157
2.32714
2.35004
2.26962
2.33363
2.78513
2.5617
2.7924
2.03751
2.14422
2.0738
2.2899
2.57286
2.34371
2.60142
2.21599
2.57529
2.23212
2.52554
2.69574
2.1973
2.17417
3.15576
2.36151
2.23893
2.96184
2.30902
2.65155
2.28033
2.14088
2.13709
2.11454
2.35044
2.02476
2.36846
2.58522
2.04396
3.16871
2.33182
1.97434
2.32081
2.65166
2.53039
2.17925
2.1089
2.344
2.19027
2.22126
2.86542
2.44264
2.13277
2.18144
2.8991
2.19265
2.51532
2.49647
2.07684
2.927
2.28768
2.15839
2.55342
2.41912
2.00137
2.56239
2.52334
2.46367
2.75374
1.89511
3.02013
2.78784
2.09975
2.24347
2.16854
2.25042
2.11998
2.84462
2.59501
2.54388
2.2369
2.36016
2.48009
2.25938
2.15802
2.58627
2.02409
2.27396
2.33604
3.01363
2.13553
2.45118
2.39714
2.44776
2.25394
2.35801
2.66044
2.57287
2.29263
2.61198
2.34037
2.64239
2.04666
2.29944
2.32923
2.9308
2.99941
2.99829
2.37943
2.46021
2.19327
2.83907
2.23037
2.46567
2.29069
2.10346
2.09691
2.06196
2.02986
2.33787
2.32727
2.11319
2.26943
2.76424
2.35301
2.38991
2.39357
2.71362
2.39228
2.1456
1.97428
2.01517
2.13641
2.14946
2.50848
2.66456
2.51519
2.287
2.27962
2.35027
2.27454
2.52714
2.67447
2.15201
2.34599
2.0197
2.316
2.02959
2.11281
2.3745
2.07843
2.31413
2.46374
2.50749
2.58965
2.69584
2.73758
2.39437
2.30497
2.41659
2.39638
2.01725
2.55475
2.63013
2.26868
2.77606
2.02402
2.39451
2.19761
2.27185
2.2251
2.05873
2.68937
2.46381
2.50849
2.12885
2.58609
2.53796
2.45044
1.95005
2.62441
2.4005
3.75573
2.43825
2.56573
2.54178
2.32251
2.56495
1.99494
2.87092
2.59633
2.07549
2.34312
2.19331
2.86327
2.27773
2.13848
2.39462
2.70079
2.89047
2.31675
2.37893
2.20474
2.4472
2.55095
2.70436
2.06496
2.84271
2.17075
2.0566
2.44367
2.72662
2.33636
2.14894
2.27583
2.37603
2.40529
2.05903
2.31589
2.67617
2.16893
2.05474
2.11456
2.41454
2.67532
2.15704
2.17407
2.34966
2.64679
2.34849
2.23536
3.96124
2.70261
2.02432
2.40483
1.92037
2.3151
2.27888
2.47079
2.20336
2.37313
2.16504
2.7366
2.47769
2.57408
2.26303
2.63188
2.32193
2.36148
2.11221
2.1643
2.51914
1.99571
2.18953
2.7511
2.48059
2.42282
2.02266
1.9044
2.46022
2.18273
2.32362
2.05233
2.15225
2.35311
2.13991
2.23074
2.10717
2.4568
1.96261
2.24118
2.08995
2.75875
2.27329
2.27936
2.28401
2.66193
2.3204
2.15238
2.48877
2.28473
2.33346
3.11841
2.32109
2.88427
2.41366
2.1517
2.83985
2.30025
2.19528
2.10942
2.29823
2.30562
2.27466
3.1745
2.26024
2.61414
2.07137
2.28982
2.19111
2.9133
2.43274
2.25758
2.59613
3.62572
2.33594
2.95163
2.25304
2.11871
2.41461
2.64625
2.13959
2.5579
2.20185
2.08086
2.59901
2.51421
2.55577
2.26221
2.20461
3.04744
2.87607
2.23849
2.21514
2.14871
2.58446
2.16841
2.27956
2.6084
2.11761
2.23908
2.723
2.21422
2.21848
2.25539
2.30898
2.83157
2.45683
2.38764
2.28112
2.50981
2.22752
2.25778
2.05141
2.24326
2.21687
2.19016
2.1364
2.24475
2.38303
2.18897
2.54154
2.0112
2.07348
2.35004
2.87028
2.35201
3.92854
2.54055
2.87556
2.3148
2.49296
2.21937
2.33622
2.70996
1.99123
2.10766
2.65151
3.52263
2.53284
2.03276
2.38407
2.34142
2.13359
2.42534
2.11216
2.24475
2.14117
2.14149
1.98722
2.72992
2.12418
3.03418
2.12992
2.05786
2.24695
2.59104
2.28418
2.39608
2.12487
2.04348
2.7933
2.15476
2.47837
2.49224
2.07451
2.48586
2.53033
2.11116
2.46899
2.72533
2.12546
2.46497
2.4331
2.33299
2.23178
2.0765
2.55154
2.14276
2.28924
2.21613
2.31005
2.40054
2.43643
2.27839
2.24709
2.99007
2.69547
2.07152
2.71593
3.06939
1.99082
2.90432
2.21048
1.98302
2.3719
2.04978
2.32876
2.33879
2.06868
2.10473
2.36748
2.46714
2.32302
2.29235
2.66631
2.64889
2.32901
2.39435
2.39186
2.10239
2.76464
3.00016
2.59447
2.20154
2.30821
2.07019
2.02683
2.27289
2.4937
2.92552
3.09809
2.2369
2.06461
2.27885
2.2551
2.09869
2.51989
2.13578
2.39735
2.25584
2.78962
2.57925
2.46678
2.11091
2.26661
2.30499
2.17661
2.55095
2.07125
2.0693
2.29659
2.13474
2.34798
2.0822
2.29809
2.06437
3.09574
2.32769
2.27441
1.95464
2.26378
2.01365
2.38769
2.58189
2.11424
2.2612
2.74499
2.65487
2.25307
2.22623
2.17034
2.33173
2.63456
2.46637
2.20254
2.3083
2.50413
2.10858
2.02024
2.2526
2.40409
2.57885
2.21951
2.05817
2.46334
2.31428
2.14933
2.39778
2.75319
2.47223
2.23271
2.11382
1.90409
2.06298
2.80998
2.23242
2.13778
2.3964
2.11052
2.0829
2.10315
2.13781
2.50069
2.6116
2.2659
2.11902
2.07012
1.9486
2.62132
3.00528
2.24712
2.32695
2.36219
2.23948
2.05066
2.12663
2.02319
2.47919
2.28549
2.11403
2.61638
2.49766
2.19947
2.29637
3.29016
2.17242
1.96892
2.19388
2.16795
3.71244
2.2575
2.20102
2.47131
2.58881
1.96921
2.22733
2.19149
2.26249
2.09644
2.22001
2.26899
2.12262
2.5072
2.25583
3.02591
2.4506
2.41299
2.24291
2.15332
2.28879
2.22666
2.11368
2.16451
2.42554
2.49841
1.89168
2.0737
2.54426
2.38656
2.08315
2.07757
2.23137
2.50042
2.27747
2.16822
2.07824
2.82588
2.62001
2.1604
2.18511
2.1426
2.15707
2.26562
2.39648
2.42143
2.07847
2.3689
2.20961
2.33064
2.31382
2.83153
2.51066
2.3003
2.24339
2.30919
2.11372
2.51499
2.24356
2.96761
2.04724
2.41527
2.47364
2.16752
2.26502
2.03671
2.24624
2.361
2.29961
2.10422
2.29269
2.16534
2.39603
2.42264
2.2481
2.04328
2.4404
2.32549
2.2784
2.3585
2.18604
2.39949
2.78317
2.2595
2.03553
2.50054
2.24021
2.42621
2.49977
2.36969
2.17061
1.92669
2.33831
3.21254
1.79222
2.21114
2.77162
2.53861
2.3188
2.04662
2.06445
2.65234
2.45063
2.54682
2.11152
2.38308
2.25581
2.31893
2.09647
2.17622
2.212
2.2742
2.48301
2.41393
2.57692
2.49354
2.04016
2.14008
2.30713
2.46544
2.26929
2.73573
2.17522
3.62124
2.47671
2.87845
2.38526
2.0592
2.32798
2.69118
1.94505
2.37693
2.55533
2.11246
2.26857
1.97985
2.24993
2.19629
3.20108
2.17592
2.79606
1.97246
2.34927
1.98075
2.48697
2.15241
2.45581
2.10833
2.24796
2.1354
1.93003
2.77914
2.41713
2.67419
2.58319
2.8307
2.27539
2.08134
2.18742
2.80239
2.27905
2.19965
2.93419
2.6313
2.39557
1.96865
2.17461
3.1443
2.36976
2.11055
2.48279
2.18355
2.24561
2.38877
2.0551
2.27568
2.27131
2.19882
2.23102
2.48983
2.33292
2.21541
2.84136
2.68011
2.40441
2.13921
2.17366
1.97111
2.34058
2.52194
2.10382
2.54527
2.02242
2.02023
2.72801
2.28898
2.54788
2.02808
2.30221
2.28426
2.33582
2.91246
2.22869
2.14769
3.06513
2.33843
1.93649
2.35333
2.14747
2.97134
2.59595
2.23225
3.03563
2.28829
2.88303
2.79185
2.02816
2.37649
2.57561
2.37734
2.59026
2.28921
2.27413
2.11147
2.13628
2.71889
2.41279
2.2378
2.3776
2.12746
2.8794
2.74917
2.26691
2.54431
2.47774
2.21306
2.49055
2.84807
2.0494
2.49279
2.48814
2.27412
2.74837
2.09442
2.31752
3.00287
2.02607
2.3662
2.24747
2.47661
2.13909
1.98113
2.93755
2.4454
2.29766
2.30355
2.66752
2.8332
1.95957
2.06342
2.34849
2.09595
2.42605
2.50494
2.7075
2.20867
2.18215
2.17313
2.91488
2.4457
2.0195
2.68925
2.33829
2.29041
2.73707
2.74099
2.39209
2.38913
2.22193
2.26751
2.30162
2.98411
2.24672
2.41463
2.41366
2.29228
2.22812
2.43471
2.37267
2.61214
2.21329
2.44481
2.26557
2.24023
2.27526
2.30859
2.21895
2.40375
2.19776
3.57803
2.44623
2.15134
2.42372
2.19909
1.87649
2.06314
2.63288
2.39909
1.9356
1.90636
2.24461
2.25854
2.45039
2.39446
2.1321
2.57556
2.42227
2.87697
2.35016
1.9245
2.17873
2.17686
2.33826
2.38086
2.48803
2.33889
2.40466
2.40675
2.52392
2.27643
3.07205
2.86159
2.59759
2.38576
2.27188
2.58932
1.98185
2.59398
2.22249
2.29787
2.00549
2.31214
2.73582
2.29664
2.62986
2.49722
2.61013
2.31702
2.0929
2.14287
2.52272
2.19454
2.36029
2.6521
2.60448
2.26326
1.92819
2.23188
2.0011
2.66775
2.51362
2.27361
2.14763
2.85162
2.07439
2.22286
2.0661
2.27773
2.13965
2.25627
2.54623
2.1998
2.16748
2.52164
2.37236
2.4094
2.06491
2.35265
2.88637
2.06269
2.06227
1.99044
2.50225
2.36787
2.58026
2.20896
2.00295
2.28708
2.23668
2.16787
2.15417
2.60333
2.17341
2.23547
2.48281
2.10419
3.41212
2.22105
2.10482
2.62898
2.55221
2.37037
2.27318
2.20836
2.13432
2.1458
2.44691
1.95624
2.02634
2.57214
2.12301
2.08495
2.18749
2.6051
2.26641
2.24079
2.66874
2.24973
2.33576
2.02168
3.80725
2.33768
2.23715
2.59654
1.99107
2.41269
2.17305
2.2767
2.5939
2.74625
2.19108
2.16643
2.07924
2.43311
2.66871
2.18906
3.1327
2.54913
2.25776
2.2926
2.53815
2.27165
2.00453
2.51446
2.18314
2.59879
2.09619
2.2373
2.47451
2.29921
2.03553
2.23244
2.36079
2.74474
2.20387
2.33251
2.59391
2.53693
2.82447
2.63797
2.90158
2.20898
2.87223
2.1684
2.09264
2.62973
1.99601
2.20106
2.29755
2.21609
2.20024
2.85928
2.7237
2.20178
2.19482
2.41136
2.64381
2.27902
1.9802
2.14551
2.71969
2.75371
1.90721
2.0942
2.71382
2.47194
2.6205
2.26905
2.15032
2.23729
2.01765
2.56229
2.57432
2.46998
2.08911
2.12086
2.50243
2.22659
2.10197
2.52765
2.60206
2.59365
2.18921
2.97933
2.37682
2.89262
2.56171
2.65592
2.66161
1.99391
2.27715
2.41141
2.14438
2.21087
2.37333
2.35096
2.39545
2.76782
2.11494
2.2997
2.12318
2.26214
2.39057
2.4423
2.16419
2.18952
2.31191
2.34194
2.46784
2.69572
2.63544
2.11677
2.28283
2.28875
1.89974
2.25174
2.05938
2.46377
1.98206
2.34075
2.07824
2.17778
2.27285
1.97793
2.09958
2.73932
2.03344
3.2145
2.59091
2.59165
2.35423
3.11718
2.42179
2.12431
2.30216
2.26124
2.19389
2.25741
2.19023
2.04108
2.36741
2.01704
2.14689
2.36434
2.87171
2.31771
2.151
2.35758
2.59571
2.23666
2.21622
2.32008
2.25541
2.78585
2.45814
2.16276
2.31074
2.28874
2.32792
3.67929
2.19554
2.38827
2.34887
2.24813
2.03726
2.29275
2.17699
2.17499
2.31068
2.7099
2.21863
2.45728
2.12003
2.18276
2.16672
2.00913
3.89196
2.17766
2.18664
2.11085
2.15861
2.48364
2.31231
2.26504
2.11503
2.36519
2.37672
2.30287
2.18688
2.22787
2.7537
2.60665
2.64885
2.90298
2.18983
2.47185
2.38967
2.19944
2.18612
2.46468
2.73683
3.06477
2.54883
2.98516
2.21295
2.33226
2.35151
2.86828
2.32006
2.3031
2.09883
2.15241
3.17618
2.20684
2.03187
2.39056
2.33209
2.14519
2.58095
2.63361
2.40894
2.12173
2.44935
2.3291
2.25196
2.22309
2.18637
2.33155
2.24084
2.10748
2.64335
2.11704
2.32905
2.15542
2.23513
2.34934
2.44892
2.70958
2.2147
2.74862
2.02503
2.55529
2.27432
2.15601
2.33192
2.35287
2.31833
2.78395
2.36252
2.66761
2.14618
2.32661
3.2893
2.04584
2.516
2.49265
2.71516
2.20661
2.26431
2.33185
2.6752
2.31932
2.3685
2.42058
2.16722
2.24286
2.98453
2.31486
2.30724
2.43243
2.16183
2.27875
2.31068
2.34275
2.30148
2.82917
2.26958
2.39889
2.6729
2.60369
2.24853
2.00093
2.74279
1.94774
2.28742
2.52629
2.47775
2.31475
2.2623
2.90318
1.96854
2.36508
2.78864
2.17898
2.40243
2.24277
2.01023
2.55982
2.39793
2.21253
2.63491
2.83998
2.44605
2.08879
2.8061
2.46995
2.01633
2.57232
2.22986
2.50535
2.24988
2.26664
2.26835
2.08199
2.0874
2.11535
2.85555
2.49397
2.45359
2.10031
2.86864
2.27394
2.26542
2.51989
2.73085
2.3594
2.24085
2.43942
2.42092
2.293
2.14372
2.3774
2.04543
2.52752
2.7635
2.45526
2.46063
2.10551
2.0608
2.51084
2.613
2.05674
2.68704
2.2046
2.22203
2.68749
2.20249
2.41632
2.24389
2.16759
2.38327
2.16732
2.07561
2.13055
2.49231
2.15809
2.11002
2.63231
2.44361
2.15211
1.90315
2.17237
2.2321
2.00017
2.5298
2.05967
2.23696
2.1969
2.4616
2.65269
2.23998
2.02573
2.41148
2.7772
2.2937
2.17457
2.65185
2.64624
3.16276
3.5403
2.19352
2.35684
1.99122
2.51788
2.57132
2.173
2.53099
2.16635
2.55091
2.48606
2.62868
2.54678
2.19179
2.04776
2.19646
2.20878
2.84109
2.30418
2.22281
2.5318
2.35727
2.183
2.67739
2.45492
2.39507
2.96746
2.18369
2.50624
2.50871
2.39802
2.01462
1.91456
2.26734
2.61321
2.50152
2.29598
2.13733
2.5229
2.22944
2.06938
2.24768
2.34759
2.20353
3.16726
2.09622
2.47303
2.65954
2.36947
2.25877
2.51574
2.21884
2.23056
2.4818
2.65943
2.46465
2.19242
2.10177
2.27097
2.69492
2.11561
2.34311
2.20305
2.07145
1.94815
3.15275
2.29535
2.35228
2.34545
2.19944
2.15312
2.45529
2.22083
2.45186
2.01695
2.64915
2.40704
1.98017
2.36305
2.42175
2.47086
2.12816
2.31131
2.45316
2.55109
2.48443
2.48355
2.4251
2.20736
2.8501
2.33702
2.31724
2.06893
2.23635
1.89375
2.65494
2.26549
2.3501
2.54476
2.09481
2.03722
2.49185
2.3047
2.42804
2.19901
2.40421
2.28464
3.16504
2.03016
2.61789
2.2748
3.16176
2.10329
2.38116
2.09304
2.22915
2.38664
2.19846
2.16066
2.35636
2.30529
2.08209
2.30838
2.22028
2.24747
2.29907
3.16946
1.98205
2.25099
2.18314
2.39569
2.30889
2.44098
2.65407
2.15401
2.30422
2.32009
2.05286
2.36051
2.13492
2.314
2.38993
2.58868
2.59333
2.52128
2.52296
2.46817
2.48263
2.2134
3.28076
2.02592
2.5258
2.45216
2.37564
2.88895
2.31958
2.43652
2.2559
2.28386
2.49299
2.20182
3.63377
2.24694
2.09938
2.54314
3.06991
2.7422
2.14305
2.87188
3.05034
2.36469
2.61767
2.67208
2.15943
2.21945
2.29415
1.98545
2.52453
2.19579
2.46452
2.30431
2.23735
2.11145
2.0504
1.89534
2.40128
2.31014
3.37053
2.47008
2.00478
2.56041
2.14305
2.53983
2.37954
2.46806
1.95037
2.93385
2.03991
2.41535
2.16283
2.08561
2.43658
2.05216
2.62925
2.45705
2.46684
2.32135
2.44549
2.00664
2.09681
2.23329
2.09695
2.30022
2.30076
2.71845
2.2872
2.13022
2.24137
2.49471
2.33884
2.391
2.18422
2.46315
2.45727
2.4605
1.94969
2.577
2.28724
2.28351
2.42751
2.33251
2.19987
2.12776
2.31004
2.26766
2.03112
2.32483
2.28691
2.74131
2.71387
2.11356
2.60347
2.2125
2.30732
2.26892
2.2285
2.35221
2.23859
2.18292
2.16781
2.51996
2.14724
2.45705
2.14363
2.79511
2.13272
1.91342
2.53247
2.29942
2.21042
2.00145
2.74051
3.45302
2.22705
2.94499
2.29995
2.66737
2.37779
2.41444
2.0855
2.06777
2.37272
2.07695
2.32988
2.24334
2.24561
2.28981
2.03046
2.31974
2.6758
2.34825
2.27813
2.32039
2.17946
2.37462
3.01353
2.73107
2.88617
2.22257
2.09365
2.24948
2.7129
2.52295
2.43281
2.74784
2.30238
2.65466
2.25888
2.57259
2.10419
2.84633
2.24388
2.3091
2.2745
2.20176
2.3079
2.48616
2.7241
2.16601
2.22778
2.40883
2.76924
2.0612
2.20551
2.13396
3.31721
2.2178
2.31102
2.61356
2.27595
2.29575
3.17094
2.38837
2.22112
2.04023
2.07757
2.26525
2.89318
2.46713
2.31391
2.38614
2.21664
2.60073
2.35886
2.23746
2.28941
2.28011
2.17218
2.18062
2.91437
2.39651
2.47179
2.73873
2.14874
3.42918
2.6907
2.04402
2.46157
2.35913
2.08903
2.48167
2.15891
2.13449
2.25499
2.04109
2.17302
2.76887
2.06339
2.3562
2.20688
2.1308
2.05918
2.34292
2.16618
2.08837
2.97695
2.15595
2.13254
2.1616
2.08335
2.6079
1.95211
2.22924
2.96766
2.16766
2.20175
2.27687
2.30724
2.51709
2.22752
1.95045
3.00604
2.50816
2.71462
2.21704
2.15634
2.63052
2.40188
2.19265
1.96723
2.39627
2.15448
2.46183
2.25354
2.51651
2.25859
2.39583
2.39182
2.43412
2.14333
2.24458
2.18398
2.32278
2.18186
2.27152
2.90106
2.4956
2.37476
2.27573
2.1837
2.95358
2.13992
2.89358
2.53545
2.98262
2.47775
2.11838
2.4103
1.99783
2.53716
2.87966
1.88264
2.06132
2.20343
2.4991
2.2995
2.63455
1.95781
2.24329
2.28845
2.23144
2.54195
2.17968
2.08776
2.39421
2.32129
2.15099
2.69028
2.53057
2.60333
2.45418
2.52875
3.82699
2.35923
2.20852
2.08985
2.2408
2.35347
2.66031
2.17722
2.29398
3.16685
2.05718
2.93938
2.05246
2.20169
2.71446
2.49175
2.95981
2.27135
2.49043
2.30829
1.93787
2.21985
1.94078
2.99228
2.15735
2.18674
2.60172
2.27805
2.31416
2.28152
2.0084
2.13753
2.48016
2.0085
2.27169
2.0513
2.5326
2.6578
2.28609
2.22799
1.95957
2.5356
2.72973
2.82053
2.24412
2.47393
2.43647
2.50158
2.63254
2.34111
2.08461
2.33604
2.09038
2.75817
2.43822
2.13556
2.41685
2.26047
2.38579
2.64458
2.79815
2.41821
3.16188
2.12548
2.06903
2.04939
2.29719
2.27152
2.27674
2.25233
2.35348
2.59573
2.20542
2.27862
1.89236
2.09818
2.14682
2.44002
2.33339
2.84668
2.31846
2.09559
2.49894
2.3445
2.31404
2.34545
2.50067
2.72188
2.39363
2.27589
2.48164
2.20802
2.18612
2.7538
2.17647
2.24513
2.40044
2.52269
2.94852
2.30221
2.22101
2.32721
2.46855
2.15916
2.43028
2.09188
2.29565
3.254
2.04539
2.85498
2.01624
2.1726
2.62298
2.61499
3.01731
2.22668
2.16221
2.10762
2.29701
2.07852
2.12158
2.95159
2.17
2.82174
2.52651
2.64949
2.50682
2.05015
2.69185
2.30744
2.11866
2.75812
1.99009
2.08988
2.04336
2.31325
2.27477
2.39287
2.25854
2.25627
2.4957
2.28885
2.70514
2.06692
2.62347
2.55465
2.47574
2.40714
2.15899
2.43738
2.59904
2.52262
2.18415
2.18116
2.36712
2.19418
2.52217
1.97792
2.08115
2.14582
3.70602
2.65315
2.25209
2.14004
2.16492
2.76147
2.14374
1.99354
3.71742
2.07297
2.44551
2.32738
2.3311
2.11883
2.48969
2.37085
2.39573
2.16572
2.32318
2.56277
1.97213
2.14096
2.77812
2.39585
2.41357
1.97549
2.33508
2.12741
2.20517
2.72948
2.53326
2.4387
2.31188
2.35526
2.24531
2.39546
2.00286
2.47993
2.26303
2.45076
2.23856
2.40856
2.70042
2.11126
2.55622
2.45254
2.51039
2.06327
2.32399
2.2486
2.11115
2.17768
2.27806
2.51911
2.45424
2.54029
2.39703
2.24672
2.38293
2.23213
2.50017
2.38786
2.20015
2.03672
2.12916
2.33541
2.29232
2.05738
2.35554
1.9889
2.23145
2.81906
1.99204
2.5482
2.55893
2.37383
2.5902
2.28659
2.47092
2.34282
2.24522
1.98915
2.27121
2.29999
2.67398
2.47263
2.00969
2.86367
2.1719
2.3312
1.9994
2.28491
2.36762
2.60095
2.25065
2.23191
2.55276
2.06742
2.49947
3.17234
2.23949
2.24017
2.47244
2.26302
2.24134
1.92254
2.28426
2.44121
2.56129
2.45099
2.31703
2.30241
2.11829
2.0639
3.05692
2.66539
2.30299
2.64826
2.19335
2.14336
2.2682
2.26345
2.22419
2.62436
2.22721
2.37346
2.62388
2.17443
2.18493
2.29111
2.47776
2.2794
2.20077
3.01895
2.22291
2.24531
2.56893
2.35632
2.30932
2.24308
2.56348
2.40449
2.37384
2.4059
2.31198
2.18916
2.38662
2.3316
3.30834
2.4421
2.06195
2.17819
2.92781
2.17242
2.37955
2.54723
2.41829
2.5261
2.52209
2.24195
2.10793
2.03561
2.46323
3.28221
2.27153
2.36802
2.51623
3.33232
2.20666
2.31588
2.25183
2.07543
2.42768
2.16437
2.27816
2.02265
2.60108
2.1631
2.83516
2.17909
2.21108
2.07375
3.75404
2.55537
2.12175
2.08691
2.699
2.54406
2.28241
2.14338
2.3165
2.68619
2.25218
2.2286
2.18542
2.62173
2.2437
2.83362
2.44173
2.28243
2.20617
2.14364
2.30692
2.22258
2.15223
2.27417
2.68248
2.24459
2.48064
2.43499
2.29364
2.32385
2.12669
2.20188
2.21356
2.14151
2.63259
2.62561
2.02177
3.2072
2.54373
2.14713
2.51874
2.52788
2.20401
2.3777
2.78614
2.72797
2.41647
2.17804
2.95389
2.22522
2.31799
2.31632
2.51681
1.8934
2.28994
2.43208
2.48125
2.24942
2.65028
2.15923
2.1594
2.14587
1.96216
2.26041
2.06819
2.3987
2.6837
2.32701
2.08614
2.34481
3.28209
2.35694
2.29381
2.30195
2.07349
2.03779
2.36631
2.32395
2.03324
2.21231
2.25468
2.32111
2.67218
2.08168
2.29181
1.9904
2.39115
2.69749
2.38768
2.46247
3.55981
2.24579
2.17786
2.10004
2.1134
2.23026
2.26087
2.14341
2.50128
2.5513
2.19569
2.21444
2.29968
2.20684
2.29762
2.39403
2.28929
2.64546
2.53554
2.16207
2.21284
2.40403
2.58892
2.50544
1.94952
2.22037
2.55596
2.94434
2.2529
2.19616
2.37353
2.03838
2.38647
2.18824
2.24909
2.34116
2.2434
2.19402
2.12354
2.47665
2.76279
2.45618
2.18635
2.12314
2.1648
2.4424
2.19892
2.18666
2.09739
2.73817
2.60597
2.14305
2.29419
2.28756
2.67357
2.01126
2.38557
2.31731
2.30781
2.50139
2.20379
2.15012
2.22212
2.00498
2.83725
2.83854
2.3056
2.22682
2.2915
2.35265
2.67305
2.26961
2.11853
2.03758
2.17685
2.12099
2.06764
2.62306
2.58658
2.04032
3.05512
2.10469
2.33196
2.60435
2.23665
2.66932
2.25518
2.44369
2.61062
2.41297
2.42318
2.32249
1.96939
2.31209
2.36295
2.42766
2.64348
2.78428
2.63463
2.56777
2.65533
2.51842
2.38091
2.13507
2.16011
2.34632
2.17513
2.36865
2.5299
2.44137
2.41153
2.25521
2.56575
2.41401
2.46944
2.62728
2.03632
2.12616
2.69645
2.94807
2.57754
2.25387
2.16016
2.75879
2.21853
2.34928
2.43157
2.40737
2.17962
2.51701
2.44559
2.20283
2.33988
2.56796
2.42286
2.37466
2.0204
2.16354
2.44879
2.43089
2.16761
2.55876
2.25517
2.03902
1.99317
2.49248
2.75905
2.35326
2.09678
2.3809
2.41325
2.30443
2.27811
2.32202
2.28014
3.41943
2.35894
2.1516
2.24129
2.02099
2.16498
2.43875
2.25475
2.41482
1.93223
2.44639
2.57558
2.4335
2.31946
2.35639
2.08886
2.04517
2.13648
2.49928
2.20132
2.32155
2.57388
2.17857
2.07251
2.38638
2.40408
2.20106
2.34036
2.73954
2.28703
2.52416
2.34199
2.42426
2.30224
2.28464
2.54334
2.27956
2.40749
2.98288
2.8019
2.17721
1.99715
2.11596
2.20687
2.3674
2.44935
2.71016
3.17522
2.20421
2.56544
2.38887
2.44275
2.45235
2.3382
2.54767
2.72622
2.36002
2.34562
2.35705
3.41784
2.5849
2.19481
2.16765
2.25027
3.28148
2.34781
2.8403
2.69609
2.44459
2.68245
2.17683
2.16242
2.06724
2.10968
2.24522
2.44201
2.219
2.11194
2.17961
2.42655
2.40321
2.27934
2.21896
2.06638
2.31693
2.10132
2.27917
2.00973
2.53068
2.41825
2.2113
2.32977
2.44822
3.03751
2.15657
2.31935
2.3717
2.43455
2.37413
2.35101
2.36691
2.25319
2.69543
2.56672
2.10763
2.11171
2.3592
2.29231
2.3375
2.56558
2.33008
2.09769
2.10861
2.25862
2.8008
2.09041
2.22576
2.51532
2.16357
2.16593
2.62398
2.44618
2.11409
2.30123
2.15081
2.49219
2.37027
2.19919
2.02854
2.38185
2.46021
1.8398
2.23455
2.36999
2.3987
2.17279
2.19678
2.31903
2.11354
2.50879
2.24704
2.44277
1.84732
2.47675
2.35778
2.26437
2.75079
2.4826
2.79734
2.16679
2.65501
2.60668
2.14592
2.15674
2.33942
2.30881
2.25037
2.22413
2.10359
2.37416
2.50956
2.22899
2.53212
2.24991
2.98716
2.1826
2.47103
2.379
2.31265
2.06207
2.45692
2.08192
2.0328
2.37618
2.56749
2.19101
2.27337
2.1713
1.9627
2.2135
2.73859
2.47694
2.08258
2.51618
2.30343
2.45288
2.21889
2.33886
2.53915
2.58498
2.26416
2.52565
2.69501
2.35841
2.72897
2.40051
2.65265
2.06254
2.54237
2.33545
1.91029
2.17263
2.54931
2.40919
2.09662
2.16525
2.56789
2.60795
2.46797
2.61961
2.57373
2.52569
2.47587
2.76787
2.75006
2.68437
2.47665
2.08767
2.49169
2.47166
2.70805
2.52919
2.21376
2.2081
2.12376
2.18515
2.49039
2.04699
2.1573
2.65728
2.25901
2.09612
2.95167
2.54816
2.75325
1.90584
2.18772
2.39536
2.17408
2.80853
2.10229
2.21117
2.24861
2.44797
2.35289
2.43439
2.39406
2.26229
2.17761
2.48454
2.50394
2.06392
2.76071
2.35747
2.37275
2.36846
3.43846
2.56849
2.5112
2.35821
2.21101
2.31372
2.41635
2.25196
2.58449
2.17668
2.87386
2.32462
2.38742
2.20094
2.40804
2.03694
1.92657
2.84152
2.24415
2.11756
2.90152
2.39359
3.0238
2.48857
2.77229
2.18183
2.25908
2.66281
2.16718
2.22067
2.26568
2.30653
2.42197
2.24106
2.24468
2.37255
2.64616
2.81105
2.52653
2.46036
2.34091
1.89457
2.58403
2.21161
2.64948
2.12697
2.41624
2.13863
2.3096
2.37826
2.28529
2.23132
2.27237
2.55476
2.52213
2.37503
3.11973
2.36597
2.20062
2.09314
2.3872
1.94904
2.46674
2.75269
2.12808
2.15554
3.00459
2.25341
2.28959
2.57342
2.21763
2.38419
2.05442
2.33871
2.67718
2.60268
2.15875
2.53594
2.24349
2.26961
2.57617
2.10978
2.41777
2.20345
2.60082
2.55564
2.62625
2.27182
2.30611
2.38166
2.5842
2.26804
2.44065
2.19818
3.02536
2.43002
2.26454
2.254
2.29222
2.17125
2.95616
2.20296
2.36377
2.31798
2.225
2.56788
2.13138
2.28854
1.99378
2.13708
2.76338
2.27
2.57736
2.14198
2.7152
2.58636
2.34647
2.26386
2.51155
2.8886
2.25326
2.48562
2.20363
2.11079
2.15737
2.45684
2.52939
2.11089
2.2847
2.77053
2.52142
2.64977
2.06284
2.73446
2.27722
1.95972
2.06873
3.04035
2.27067
2.80216
2.78927
2.70931
2.59382
3.2364
2.24174
2.26267
2.11061
2.37604
2.22002
2.80675
2.14837
2.66954
2.5086
2.11129
2.87887
2.34097
2.25909
2.11083
2.2296
2.29942
2.35786
2.10367
2.47722
2.35709
2.13799
2.51547
2.2324
2.63432
2.15782
2.23021
2.30922
2.19528
2.28
2.47376
2.56336
2.4415
2.22854
2.60723
2.25394
2.01363
2.66916
2.28455
2.10603
2.19154
2.13132
2.35567
2.22654
2.67274
2.27273
2.39093
2.33382
2.18075
2.32267
2.23029
2.05656
2.53871
2.79627
2.96805
2.55771
2.51364
2.26042
2.56943
2.23762
2.34861
2.7828
2.301
2.47498
2.32572
2.43896
2.09349
2.36981
2.76404
2.99089
2.50697
2.42292
2.23297
2.22294
2.41398
2.21339
2.04563
2.30169
2.36392
2.88981
2.24821
2.41697
2.20314
2.64944
2.44101
2.27297
2.08657
2.66406
2.41919
2.27541
2.39302
2.35408
2.16043
2.26316
3.00919
2.3865
2.90206
1.91795
2.40965
2.07516
2.21004
2.26999
2.62046
2.04598
2.44001
2.12791
2.73431
2.31694
2.2437
2.00286
2.70923
2.54382
2.66056
2.21364
2.54407
2.19857
2.08921
2.15865
2.34604
2.16822
2.10596
2.6685
2.45535
1.97126
2.40962
2.2804
2.16725
2.06195
2.26373
2.23747
3.02831
2.36303
2.13034
2.22669
2.46051
2.29606
2.59155
2.18525
2.30073
2.65382
2.36935
2.24622
2.2091
2.1861
3.01737
2.41009
2.22199
2.37111
2.21225
2.18703
2.19004
2.06468
2.10023
2.72257
2.11344
2.76268
2.21322
2.06758
2.36104
2.53642
2.11554
2.43969
2.73502
2.21862
2.58109
2.9717
2.59742
2.29924
2.64606
2.09629
2.27464
2.4238
2.05883
2.29023
1.82878
2.20339
2.55121
2.30409
2.40994
2.29574
2.59425
3.65248
2.2413
2.31403
2.03045
2.03083
2.17403
2.53298
2.22326
2.21233
2.25068
2.3737
2.27453
2.5265
2.59609
3.33366
2.36104
2.13243
2.28671
2.30216
2.93851
1.97814
2.64955
2.46789
2.62638
2.63136
2.01482
2.06224
2.14799
2.38123
2.60546
2.45503
2.34401
2.19475
2.10335
2.35012
2.31648
2.55528
2.6419
1.98312
2.55658
2.01952
2.44975
2.25254
2.57139
2.02945
2.4201
2.30462
2.22044
2.39667
2.38084
2.34907
2.1864
2.59662
2.84243
2.28797
2.9349
2.39116
2.08606
3.12362
2.52966
2.59012
2.14646
2.65072
2.42891
3.13371
2.28433
2.06125
2.4501
2.19535
2.68084
2.07558
2.60604
2.06914
2.21932
2.35891
2.435
2.17601
2.38749
2.0746
2.57305
2.73659
2.45964
2.14757
2.53507
2.33595
2.69361
2.33435
2.25656
2.1756
2.2198
2.02644
2.30715
2.91976
2.44247
2.13544
2.24724
2.15881
2.54061
2.16279
3.08107
2.14045
3.32164
2.05228
2.73267
2.26686
2.13661
2.31058
2.24051
2.92487
2.1712
2.5699
2.34799
2.34681
2.61496
2.32388
2.13341
2.51635
2.17687
2.32751
2.04902
1.9161
2.30187
2.46374
2.41484
2.39969
2.76078
2.03721
2.04922
2.54241
2.23461
2.11614
2.32107
2.66335
2.28643
2.20053
2.41964
2.28755
2.06518
2.21756
2.94549
2.30945
2.29224
2.61306
2.24887
2.42432
2.31421
2.7595
2.2938
2.60118
2.24941
2.36889
2.15776
2.43176
2.14466
2.16705
2.34982
2.63423
2.32073
2.1815
2.53366
2.43067
2.13154
2.61442
2.38757
2.42375
2.78131
2.08516
2.69449
2.7503
2.15293
2.58771
2.50484
2.08808
2.44079
2.72693
2.5526
2.59915
2.00213
2.2716
2.19929
2.18
2.32667
2.60759
1.97095
2.29299
2.07892
2.62964
2.17736
2.45826
2.16753
2.48808
2.65154
2.42074
2.24761
2.09174
2.27056
2.07632
2.4661
2.18979
2.43
2.39367
2.35227
3.13248
2.32391
2.23102
2.06128
2.10805
2.49704
2.64976
2.24826
2.12743
2.14897
2.44811
1.99923
2.06291
2.14335
2.59226
2.05123
2.36836
2.28418
2.76842
2.44934
2.33107
2.13473
2.10349
2.5613
2.00408
2.37411
2.43595
2.25753
2.06938
2.3665
2.21454
2.17031
2.18749
2.07183
2.23667
2.70457
2.24145
2.47157
2.17307
2.92129
2.2218
2.22252
2.76878
2.40072
2.09742
2.09753
2.41671
2.464
2.28498
2.16831
2.09812
2.11867
2.3571
2.07805
2.71413
2.83231
2.62947
2.21394
2.23104
2.23776
2.45188
1.85415
2.20969
2.16622
2.26432
2.21517
2.75787
3.10463
2.4585
2.2951
2.24353
2.26637
2.47047
2.54922
2.4625
2.90189
2.80971
2.29008
2.40172
2.07268
2.00415
2.24925
2.54369
2.24822
2.54269
2.28208
2.29337
2.19279
1.98089
2.24275
2.23417
2.30218
2.53182
2.21549
2.68264
2.27012
2.26208
2.54417
2.65168
2.72184
2.17954
2.16229
2.04829
2.40447
2.29926
2.20906
2.13861
2.30826
1.92514
2.48852
2.25221
2.085
2.35092
2.35068
2.40813
2.31092
2.08669
2.56793
2.21317
2.29212
2.80448
2.19336
2.01027
2.95368
2.1264
2.1748
2.81271
2.15722
2.59808
2.64241
2.23185
3.04725
2.16155
2.26997
2.27765
2.71593
2.83389
2.44749
2.65093
2.40214
2.26897
2.59608
1.91673
2.4417
2.92844
2.41485
2.36757
2.1857
1.9822
2.55421
2.28628
2.1845
2.27983
2.50778
2.68296
2.50042
2.32678
2.64029
2.22109
2.29794
2.33209
2.12117
2.27976
2.38325
2.59004
2.24838
2.51863
2.20295
2.16511
2.39813
2.17173
2.49893
2.37205
2.41309
3.077
2.36416
2.20728
2.47822
2.33035
2.19275
2.76311
2.63354
2.21774
2.06795
2.13628
2.13387
2.12129
2.8734
2.10144
2.22853
2.22847
2.32735
2.08937
2.19633
2.55396
3.55369
2.84275
2.39293
2.35583
2.21112
2.0943
2.42495
2.51295
2.10996
2.1152
2.09547
3.40919
2.42507
2.28003
2.26127
2.60197
2.06149
2.60365
2.12356
2.62493
2.40979
2.27555
2.05434
2.41861
4.10673
2.34641
2.07334
2.05448
2.43678
2.09643
2.17328
2.20155
2.30368
2.67213
2.75902
3.13157
2.25186
2.45
2.27428
2.48695
2.5223
2.35372
2.32864
2.59369
2.12449
2.47075
2.07344
2.29419
2.13407
2.54689
2.55888
2.2539
2.38398
2.59702
2.51311
2.51932
2.44186
2.27859
2.08446
2.2294
2.011
2.47461
2.14625
2.35707
2.23845
2.31973
2.26625
2.3704
2.21867
2.26779
2.62615
2.22874
2.26938
3.48561
2.09558
2.05965
2.33008
2.77904
1.98189
2.86642
2.10225
2.276
2.29206
2.1774
2.50372
2.30321
2.31278
2.75
2.04716
2.2348
2.11842
2.28397
2.52733
2.20067
2.39231
2.18758
2.11699
2.34999
2.09378
2.20755
2.1873
2.47769
2.38812
2.14553
2.41744
2.24954
2.08383
2.24068
2.2136
2.19168
2.20644
2.20942
2.06555
2.18177
2.16196
2.34173
2.29213
2.17702
2.14198
2.19566
2.44355
2.14763
2.84182
2.33353
2.3213
2.55246
2.73142
2.04459
2.23344
2.36721
2.15666
2.10382
2.33955
2.06365
2.30141
2.25728
2.66047
2.43202
2.49955
2.51415
2.25633
2.45789
2.09105
2.53332
2.51748
2.05692
2.44336
4.36504
2.45368
2.41429
2.84918
2.13261
2.39165
2.35169
2.1382
2.21277
2.37503
2.5354
2.23023
1.94563
2.48534
2.30239
2.48249
1.84875
2.82033
2.22479
2.69758
2.08428
2.79498
2.26457
2.49974
2.14632
2.56561
3.73791
2.16193
2.2733
2.08857
2.20603
2.67878
2.19163
2.36887
2.68013
2.20349
2.09673
2.64154
2.36533
2.08222
2.32169
2.25362
2.2724
2.912
1.97329
2.26232
2.60883
2.6659
2.59621
2.2202
2.02633
2.38683
2.48997
2.26824
2.18672
2.43831
2.24428
2.3539
2.67201
2.50491
2.36542
2.48442
2.24783
2.27029
2.2023
2.45467
2.52983
2.83387
2.25568
2.24332
2.55601
2.29016
2.99283
2.2208
2.23065
2.43871
2.44131
2.14417
2.39031
2.29566
2.22022
2.33281
2.2012
2.26992
2.0847
2.29819
2.30038
2.37815
2.19097
2.50398
2.44915
2.46059
2.41614
2.20014
2.58278
2.58816
2.50483
2.35834
2.17341
2.34341
2.8996
2.01534
2.2951
2.34207
2.63817
2.42835
2.16752
2.11306
2.22352
2.39945
2.29336
1.99673
2.26539
2.70508
2.11951
2.08228
2.22374
2.62857
2.37354
2.43283
2.40801
2.71786
2.05988
2.49467
2.23477
2.44869
2.27447
2.22368
2.07845
2.10194
2.65875
2.45824
2.34376
2.44737
2.41535
2.45043
2.50028
2.53283
2.12361
2.3127
1.91058
1.94953
1.99955
2.48176
2.38047
2.52663
2.17038
2.17026
2.44591
2.84568
2.17387
2.06631
1.95769
2.26271
1.9086
2.70784
2.13796
2.82107
2.12363
2.33132
2.34945
2.46195
2.26028
1.98403
2.45552
2.61543
2.20564
2.06313
2.98913
2.25132
2.44854
2.322
2.33389
2.09305
2.23432
2.28919
2.274
2.56485
2.37928
2.86987
2.14371
1.92498
2.3072
2.62758
1.97502
2.19433
1.9908
2.57634
2.13247
2.14959
2.48785
2.00845
2.69219
2.5013
2.4612
2.34669
2.13221
3.17257
2.3561
2.19859
2.54579
2.39872
2.09926
2.27385
2.16335
3.06232
2.3659
2.12129
2.14472
1.93771
2.2864
2.19613
2.95291
2.22862
2.51613
2.63842
2.16587
2.56656
3.13019
2.25927
2.63179
2.19241
2.62453
2.33308
2.57582
2.38729
2.3738
2.13581
2.1761
2.55035
2.2592
2.63852
2.08319
2.49669
3.43888
2.03773
2.19095
2.15612
2.28641
2.25627
2.72955
2.77612
2.48488
2.22017
2.20727
2.75254
2.4447
2.09498
2.18522
2.39166
2.30785
2.46589
2.13068
2.40489
2.26784
2.73963
2.16858
2.33231
2.93649
2.39043
2.78014
2.21596
2.42284
2.32656
2.6366
3.31152
2.51404
2.42317
2.38643
2.22116
3.01419
2.33329
2.37831
2.71962
2.47918
2.51422
2.16075
2.2046
2.44382
2.3671
2.24086
2.53048
1.95785
2.34379
2.33108
2.468
2.44842
2.33845
2.74048
2.24628
2.55834
2.20118
2.66732
2.40786
2.25548
2.155
2.31928
2.26071
2.20814
2.04322
2.35498
2.02349
2.0377
2.62606
2.14719
2.23698
2.6097
2.03357
2.13666
2.32823
2.24698
2.14733
2.25614
1.96738
2.38496
2.78088
3.15473
2.89658
2.41195
2.23903
2.15817
2.2888
2.25293
2.38615
2.32751
2.13479
2.69578
2.34963
2.03657
2.48853
2.47935
2.25295
2.32056
2.25475
2.15215
2.39258
2.28671
2.62543
2.40298
1.93756
2.07095
3.23896
2.66976
2.15515
2.3771
2.21833
2.42666
2.50684
2.3036
2.24396
2.3036
2.45706
2.61697
3.13179
2.15091
2.05264
2.56307
2.46651
2.27444
2.48776
2.27453
2.43232
2.07969
2.17119
2.51911
2.45044
2.34048
2.98766
2.14171
2.2338
2.26524
2.24297
2.38288
2.65224
2.4832
2.30668
2.23508
2.52371
2.50487
2.76658
3.09612
2.30902
2.30797
2.58186
2.60254
2.2636
2.23826
2.75215
2.19452
1.96638
2.61879
2.36415
2.15834
2.72536
2.8991
2.13815
2.37929
2.10817
2.25851
2.30538
2.25415
2.54326
2.42683
2.38559
2.91785
2.73673
2.29343
2.57239
2.79056
2.19265
2.98624
2.26482
2.37482
2.58288
2.18771
2.33268
1.96662
2.5561
2.10489
2.85331
2.45084
2.83841
2.91768
2.34743
2.2178
2.32229
2.58344
3.69124
2.38235
2.20258
2.35379
1.90192
2.26687
2.9296
2.25734
2.50805
2.48959
2.208
2.16702
2.60567
2.25154
2.2744
2.41282
2.67415
2.06106
2.37859
2.50501
2.09007
2.04204
2.27349
2.33795
2.42417
2.40045
2.24171
2.58564
2.21072
1.86834
2.48484
2.15063
2.36628
2.23972
2.99563
2.25745
2.08759
2.79646
2.38499
2.04299
2.32557
2.34373
2.36125
2.56871
2.04497
2.16338
2.32521
2.52215
2.86615
2.04676
2.11712
2.41705
2.42923
2.22894
2.22461
2.6492
2.29217
2.95008
1.95855
2.2647
2.26896
2.88699
2.26249
2.28132
2.96127
2.44571
2.76251
2.4382
2.34141
2.08021
2.46842
2.91462
2.25901
2.45904
2.19449
2.17285
2.5426
2.31237
2.17181
2.34959
2.57676
2.12018
2.15718
2.09386
2.10128
2.38693
2.22967
2.83992
2.04432
2.28353
2.55876
2.44146
1.93044
2.3329
2.56278
2.28614
2.59087
2.54517
2.47764
2.29495
3.54145
2.14932
2.14965
2.29282
2.2751
2.33736
2.40137
2.69235
2.56157
2.05056
3.36901
2.4495
2.20833
2.35731
2.31589
2.62666
2.40299
2.33733
2.3166
2.19826
2.37538
2.28607
2.70961
2.27454
2.19373
2.93142
2.0964
2.42926
2.42957
2.15702
2.36418
3.32855
2.20773
2.2993
2.53489
1.96702
2.74243
1.90504
2.85947
2.18283
2.25037
2.44783
2.58404
2.39063
2.80485
2.34168
2.10049
2.1983
2.09438
2.95384
2.34359
2.247
2.28663
2.15268
2.61109
2.25984
2.37616
2.63018
2.347
2.31826
2.32315
2.44374
2.31698
2.56415
2.60512
1.99715
2.34707
2.14078
2.37199
2.25324
2.25785
2.77846
2.14251
2.14072
2.08966
2.50545
2.30988
2.80674
2.14423
2.14774
2.74884
2.10236
2.23461
3.69593
2.64893
2.67235
2.18534
2.01619
2.17091
2.62919
2.68315
2.37057
2.36099
2.24747
2.37317
2.60952
2.59026
2.36102
2.33071
2.18797
2.47848
2.3322
2.68464
3.17551
2.30255
2.58108
1.90724
3.03463
2.27401
2.96827
2.29599
2.76235
2.16975
2.50749
2.51619
2.26806
2.348
2.61894
2.07374
2.18116
2.23596
2.23659
2.46149
2.33154
2.65856
2.00267
2.00466
2.50062
2.18959
2.39659
2.22262
2.28139
2.30845
2.18329
2.24425
2.50501
2.54252
2.33772
2.36442
2.42933
2.21482
2.45438
2.28268
2.5408
2.34285
2.21822
2.18402
2.26528
2.18711
2.03759
2.14871
2.2945
2.44318
2.67954
2.09223
2.46222
2.50983
2.22595
2.37499
2.56119
2.47501
2.24226
2.04959
2.13151
2.82778
2.1071
2.13117
2.17199
2.25139
2.2681
2.31592
2.13674
2.20609
2.37795
2.33225
2.39229
2.51837
2.3323
2.51302
2.53222
2.25024
2.26835
2.16918
2.00833
2.6098
2.10181
2.32526
2.00953
2.48921
2.48419
2.25164
2.50337
2.40325
2.58869
2.43813
2.28441
2.33714
2.21645
2.28743
2.11985
2.42307
2.51562
2.32731
2.20839
2.15187
2.69947
2.13103
2.15506
1.97971
2.26301
2.39172
2.63973
2.50426
2.4276
2.36571
2.22144
2.11528
2.94733
2.12503
2.07469
2.46132
2.39484
2.42786
2.19079
2.35066
2.18339
2.13559
2.07192
1.96048
2.94541
3.24087
2.48425
1.99296
2.46995
2.41824
2.21251
2.13723
2.8132
2.79029
2.45443
2.29504
2.58882
2.20443
3.10571
2.31405
2.40882
2.26892
2.81047
1.85672
2.3457
2.17363
2.09754
2.17332
2.21699
2.2954
2.10847
2.26995
2.11421
2.28374
2.07684
2.39739
2.37829
2.30198
3.17346
2.26373
2.09034
2.45448
2.68886
2.34201
2.37155
2.56956
2.82435
2.43969
2.69751
2.42381
2.215
2.21261
2.34783
2.36593
2.86087
2.2153
2.16134
2.51474
2.3795
2.74214
2.83418
2.24951
2.61018
2.12535
1.99268
2.56992
2.18237
2.25023
2.89501
2.25303
2.60058
2.12842
2.24309
2.14514
2.57119
2.04596
2.16704
2.36245
2.13812
2.39685
2.29608
2.6616
2.27929
2.97237
2.4141
2.50539
2.36718
2.45357
2.67724
2.11995
2.09835
2.49212
1.98835
1.91671
2.23074
1.98951
2.55763
2.19166
2.36131
2.14914
2.50612
2.03211
2.2042
2.13673
2.41754
2.3548
2.23177
2.21071
2.52601
2.0396
2.79608
1.9901
2.45234
2.14447
2.22796
2.55676
2.26103
2.96459
2.52964
2.20671
2.43055
2.43523
2.32157
2.61431
2.49086
2.23706
2.11192
2.55799
2.90704
2.28963
2.1774
2.71386
2.31784
2.11729
2.15494
2.19124
2.05421
2.44985
2.12689
2.01329
2.52679
2.8232
2.54968
1.80456
2.25282
2.6395
2.26783
2.64899
2.10681
2.48626
2.38446
2.46494
2.18759
2.07915
2.50814
1.96899
2.57627
2.72867
2.07696
2.42331
2.37356
3.23657
2.40819
2.39071
2.12359
2.21241
2.06568
2.96478
2.2747
2.00414
2.00259
2.25512
4.28584
2.99693
2.57225
2.21913
2.51196
2.45331
2.21614
3.50125
2.48483
2.1436
2.50055
2.0146
2.30546
2.06667
2.31952
2.18647
2.53875
2.31004
4.16134
2.37362
2.27911
2.28228
2.53026
2.26043
2.75016
2.5211
2.82614
2.28639
2.40248
2.19037
2.29146
2.3474
2.73903
2.00981
2.38771
2.573
2.10705
2.80249
2.42525
2.23971
2.21003
2.08959
1.91053
2.3622
2.27529
2.18472
2.47427
2.32833
2.64668
2.63247
2.18459
2.17947
2.15988
2.46622
3.24268
2.02428
2.09409
2.12295
2.28271
2.27261
2.23042
2.04292
2.34012
2.24001
2.23461
2.43291
2.47764
2.29975
2.19297
2.62593
2.6182
2.31757
2.16028
2.59019
2.12826
2.27584
2.34906
2.28221
2.08254
2.27257
2.18271
2.10535
2.2358
2.13965
2.56649
2.31887
2.15238
2.40252
2.33679
2.17778
2.25568
2.0592
2.54427
2.40502
2.42311
2.0778
2.23475
2.57603
3.54455
2.37996
2.33305
2.31417
2.67997
2.74431
2.04127
2.43491
2.14015
2.30988
2.79992
2.08849
2.37358
1.973
2.68535
2.31394
2.19826
2.47484
2.04488
2.49427
2.25884
2.33111
2.1
2.3445
1.92963
2.25804
2.25667
2.51708
2.37358
2.83834
2.5068
2.42394
2.52375
2.12626
2.74348
2.09983
2.03632
2.13924
2.19168
2.16625
2.51276
2.70785
2.03091
2.62537
2.17278
2.37559
2.30706
2.08593
2.31168
2.3531
2.37103
2.30269
2.10666
2.01756
2.7209
2.52056
2.08918
2.48407
2.05877
2.20736
2.57286
2.35648
2.25105
2.78919
2.47979
2.36495
2.49609
2.46976
2.2819
2.21872
2.4989
2.14961
2.33331
2.11246
2.31599
1.97267
2.35441
1.94676
2.63114
2.104
2.43425
2.30999
2.58181
2.28738
2.47815
2.23872
2.84336
2.38544
2.74689
2.34182
2.49073
2.46325
2.7822
2.11168
2.42004
2.18738
2.25441
2.67955
2.48881
2.16398
2.13724
2.10326
2.5335
2.08968
2.30783
2.17322
1.8897
2.18471
2.10271
2.71782
2.36232
3.08936
2.40459
2.31374
2.31203
2.40678
2.37867
2.03924
2.32173
2.26189
2.40589
2.5072
2.36295
2.70854
2.44401
2.27362
2.03804
2.40406
2.44358
2.62986
2.52301
2.31878
2.42068
2.26709
3.03576
2.27271
2.13209
2.55384
2.30011
2.46101
2.28082
2.3386
2.68592
2.3295
2.35514
2.21589
2.08953
2.50646
2.28018
2.46167
2.21623
2.26163
2.17696
2.85789
2.12318
2.13553
2.33554
2.63364
2.25996
1.90322
2.30996
2.65716
2.02077
2.27124
2.46985
2.27266
2.67694
2.37279
1.89798
2.79514
2.15178
2.4911
2.1559
2.82556
2.17148
2.54372
2.02946
2.38517
2.89318
2.67271
2.49063
2.20838
2.14221
2.61248
2.38612
2.41873
2.33871
2.60258
2.36947
2.35063
2.38874
2.32874
2.19064
2.63817
2.10352
2.38103
2.16047
2.27572
2.53586
2.87643
2.45881
2.35494
2.27927
2.22573
2.18365
2.33273
2.46751
2.11086
2.61371
2.29624
2.23777
2.43282
2.55211
2.3762
2.20534
2.28064
2.5681
2.42048
2.50325
2.43641
2.79153
2.30819
2.13498
2.15442
2.42501
2.16804
2.25225
2.5188
2.12264
2.24278
2.22771
2.82264
2.09287
2.27061
2.44682
2.48716
2.4573
2.47902
2.12292
2.70457
2.51466
2.938
2.29451
2.19086
2.17062
2.15995
2.78174
2.03294
1.97499
2.22795
2.5163
2.73148
1.85792
3.45404
2.07258
2.41179
2.6219
2.83878
2.2308
2.26911
2.44645
2.29428
2.18806
2.60587
2.55766
2.73684
2.56126
2.19424
2.24958
2.3245
2.84284
2.28984
2.47351
2.44239
2.0541
2.30669
2.3018
2.17997
2.36417
2.43846
2.67962
2.4575
2.41965
2.23337
2.1784
2.32151
2.77296
2.43869
2.29187
2.35301
1.91604
2.97494
2.42734
2.86803
2.24607
2.58784
2.27701
2.09961
4.35575
2.26198
2.55015
2.39525
2.14096
2.70256
3.05261
2.36754
2.64343
2.47395
2.60664
2.12849
2.79602
2.15584
2.75781
2.63025
2.55332
2.37423
1.92163
2.09067
2.14634
2.35391
2.48227
2.24689
2.07862
2.17159
2.11495
2.28844
2.42184
2.22298
2.56766
2.87384
2.08366
2.1535
1.99784
2.04141
2.3042
2.30674
2.1414
2.68172
2.53396
2.43606
2.70543
3.18945
1.91985
2.27006
1.92289
2.41997
2.12415
1.99109
2.49307
2.08759
2.1772
2.36846
2.3261
2.60363
2.28342
2.88617
2.2286
2.32683
2.30519
2.63542
2.40486
2.32954
2.02966
2.77258
2.20456
2.41158
2.36118
2.33134
2.35689
2.3226
2.19734
2.64066
2.78957
2.20965
2.39727
1.9523
2.1004
2.2778
2.29426
2.37256
2.11734
2.38603
2.43767
2.13005
2.4103
3.39894
2.49817
2.05382
2.00251
2.1421
2.6029
2.47966
3.18541
2.25037
2.23165
2.46344
2.47684
2.46342
2.55585
2.37558
2.5942
2.1361
2.37551
2.37005
2.22597
2.47458
2.10866
2.75158
2.37574
2.48455
2.1684
2.21659
2.18983
2.96718
2.60468
2.3572
2.4572
2.71488
2.3309
2.50496
2.56048
2.50314
2.26558
2.39308
2.61368
2.58366
2.52639
2.34985
2.35536
2.50355
2.57762
2.55751
2.21627
2.23922
2.17455
2.08899
2.06033
2.1784
2.74104
2.47783
2.71962
2.50388
2.32125
2.51435
2.24207
2.41109
2.51655
2.37941
2.41874
2.13769
2.5055
2.44624
2.71877
1.85338
2.46811
2.31596
2.1227
2.26166
2.04585
2.71972
2.46742
2.06256
2.24741
2.15672
2.28046
2.47296
2.14981
2.18134
2.3286
2.19455
2.49872
2.44395
2.48252
2.34869
1.98684
2.09767
2.20291
1.89884
2.30364
2.40803
3.01906
2.82073
2.29581
2.29114
2.35072
2.06184
2.81271
2.64705
2.28845
2.4678
2.42725
2.36332
2.26127
2.18696
2.30051
2.00781
2.06741
1.99511
2.5169
2.44188
2.68724
2.50971
2.26462
2.7935
2.45056
2.34985
2.12825
2.87153
2.31897
2.72523
2.68012
2.14086
2.60552
2.80439
2.3015
2.50089
2.50343
2.53183
2.3392
2.34557
3.19965
2.09762
2.58556
2.22167
2.81515
2.4462
2.36328
2.36536
2.12429
2.52985
2.8328
2.31107
2.16386
2.31635
2.39637
2.26348
1.99272
2.39018
2.24827
3.02244
2.10667
2.21314
2.26003
2.22101
2.10533
2.47989
2.24422
2.37222
2.32098
2.15566
2.29605
3.00951
2.26604
2.58806
2.19744
2.41228
2.42655
2.11699
2.37934
3.22222
2.13038
2.41607
2.25453
2.64064
2.309
2.22518
2.33738
2.57454
2.38826
2.19421
2.68321
2.20344
2.36904
2.85236
2.92647
2.3485
2.15427
2.52401
2.768
2.14184
2.14449
2.43399
2.08546
2.10669
2.23334
2.29482
2.62499
2.41141
2.07526
2.45295
2.70221
2.07458
2.47053
2.94528
2.08581
2.29671
2.30099
2.67425
2.43808
2.60638
2.15488
2.60453
2.92187
2.61186
2.1831
2.07575
2.06277
2.29203
2.78421
2.2848
2.12489
2.5713
2.31207
2.42456
2.54458
2.16113
2.44814
2.5982
2.61179
2.34172
3.04886
2.0842
1.91665
2.35587
2.48368
2.9852
2.14609
2.19028
2.20496
2.24737
2.20815
2.32545
2.89105
2.32476
2.18194
2.38091
2.28063
2.5939
2.21143
3.00142
2.56887
2.82776
2.47752
2.43298
2.31224
2.18632
2.28561
2.21577
2.67838
2.49186
2.47241
2.27091
2.36221
2.22137
2.2879
2.15202
2.27258
2.63373
2.54095
2.26143
2.09747
2.57375
2.23347
2.92778
2.40324
3.23726
2.70449
2.55052
2.20949
2.41705
2.40052
2.24507
1.9994
2.33353
2.19265
2.10697
2.54323
2.10563
2.20937
2.03698
2.29159
2.05945
2.15747
2.10464
1.93749
2.06721
2.25431
2.2179
3.73832
2.21377
2.33657
2.56125
1.89474
2.7288
2.36802
2.3202
2.54404
2.2341
2.06463
1.99061
2.31148
3.14441
2.19386
2.38147
2.32882
2.11869
2.16247
2.22417
2.72393
2.68285
2.3396
2.39997
2.29229
2.04114
2.15694
1.98763
2.15827
2.23718
2.65389
2.32494
2.1932
2.50138
2.34665
2.25099
2.07009
2.94816
2.16142
2.85005
2.35222
3.26408
2.83562
2.07415
2.70141
2.49214
2.55313
2.27937
2.10601
2.24004
2.31978
2.62626
2.09871
2.45741
2.30057
2.2582
2.61588
2.37848
2.00694
2.86862
2.08625
2.97515
2.74631
2.30668
2.16437
2.39759
2.57097
2.39108
2.34393
2.73567
2.40242
2.37844
2.27224
2.45038
2.32292
2.0522
2.25022
2.36669
2.26292
2.55333
2.22717
2.30425
2.40295
2.18433
2.82595
2.28937
2.18958
2.44856
2.37468
2.4035
2.05369
3.01526
2.29209
2.1511
2.32201
2.34006
2.17207
2.5427
2.22499
2.45509
2.77257
2.88528
2.24283
2.17887
2.44217
2.23138
2.32055
2.33669
2.43828
2.10405
2.43504
2.668
2.40115
2.45131
2.97827
2.45358
3.07164
2.78153
2.43461
2.82337
2.676
2.20338
2.13969
3.82631
2.28183
2.20541
2.31525
2.0767
2.95309
2.56856
2.52607
2.31091
2.46
2.34516
2.78056
2.08881
2.19957
1.95809
2.57649
2.4008
2.25412
2.65419
2.30522
2.47942
2.33385
1.94272
2.54824
2.35182
2.07671
2.22405
2.55416
2.79613
2.40564
2.31807
2.18655
2.52261
2.42744
3.0219
2.252
2.23991
2.05299
2.63585
2.50765
2.1818
2.13009
2.34589
2.07312
2.20445
2.30714
2.88831
2.57824
2.124
2.12382
2.58701
2.02882
2.07373
2.187
2.31509
2.17964
2.15129
2.40384
2.58359
2.17702
2.25743
2.18871
2.20844
2.4721
2.09304
1.93929
2.48222
2.36931
2.54404
2.27571
2.20235
2.2003
3.04649
2.30233
2.26644
2.42807
2.06031
2.45204
2.23981
2.4132
2.14363
2.30628
2.11365
1.94696
3.37102
2.05993
2.55195
2.42351
2.54795
2.66253
2.64251
2.0893
2.85529
2.12119
2.27168
2.26746
2.66762
2.26363
1.99431
2.49086
2.12785
2.23016
2.3801
2.38874
2.19681
2.03436
2.29256
2.38854
2.75139
2.34598
2.12197
2.02713
2.42076
2.16051
2.55078
2.39425
2.32513
2.45976
2.44266
2.10006
2.32283
2.53004
2.66857
2.0714
3.02658
2.0516
2.08826
2.36997
2.11965
2.08606
2.03346
2.38689
2.42603
2.03444
2.6981
2.33169
2.21187
2.03454
2.37953
2.09179
1.99973
2.09151
1.95381
2.1376
2.41953
2.52512
2.27646
2.68287
2.60006
2.1611
2.29922
2.09075
2.46348
1.93003
2.2626
2.47167
2.36139
2.59541
2.16104
2.51913
2.19347
2.01473
2.15819
1.96215
2.57473
2.27673
2.92409
2.18864
2.75615
2.19266
2.26182
2.38212
2.3797
2.20263
2.16568
2.31666
2.69524
2.13871
2.05237
2.77639
2.27309
2.24123
2.16358
2.40063
1.89413
2.38525
2.23958
2.7263
2.94053
2.15723
2.24837
2.25954
2.67838
2.10527
2.17378
2.40025
2.76996
2.07661
2.41499
2.28915
1.96718
2.08589
2.35866
2.32117
2.13228
2.11722
2.17647
2.14343
2.22801
2.15547
2.29671
2.41596
3.18028
2.24347
2.70575
2.36252
2.28742
2.65316
2.39858
2.01769
2.22286
2.61825
2.38855
2.41839
2.25614
2.35385
2.34063
2.31771
2.66689
2.46979
2.53317
2.31828
2.55603
2.58854
2.10625
2.27219
2.48414
2.40617
2.06474
2.44047
2.388
2.25763
2.47321
2.0249
2.07907
2.2229
2.45852
2.3862
3.01764
2.54014
2.11928
3.03325
2.20673
2.22468
2.86798
2.32859
2.25436
2.65897
2.41424
2.36162
2.63627
2.26338
2.06446
2.24002
2.57559
2.21163
2.5099
2.60041
2.17573
2.05403
2.46283
2.52949
2.19221
2.16973
2.04014
2.24763
2.37252
2.39924
2.57903
2.31478
2.64639
3.28426
2.31291
2.23707
2.29315
2.4325
2.10638
2.49054
2.24604
2.23509
2.2349
2.18613
3.26893
2.29133
2.32983
2.41985
2.66969
2.27977
2.34289
2.22917
2.50384
2.56132
2.19179
2.5706
2.53762
1.98723
2.39835
2.5365
2.41783
2.48491
2.21682
2.63661
2.40686
2.05233
2.48002
2.19765
2.16615
2.59254
2.30532
1.98853
2.28404
2.37901
2.18802
1.99262
2.46562
2.12427
2.25593
2.99975
2.4488
2.40277
2.58039
2.92664
2.37323
2.48537
2.11595
2.40755
3.0626
2.19818
2.23445
2.24098
2.32091
2.20155
2.51072
2.26816
2.22851
2.50168
2.22409
2.26011
3.03069
2.13466
2.25281
2.75659
2.70752
2.71308
2.15712
2.09475
2.6308
2.26383
2.10251
1.98029
2.41823
2.15348
2.46458
2.27029
2.22261
2.85674
2.45357
2.38307
2.40268
2.16497
2.29446
2.12576
2.3557
2.20369
2.47592
2.28026
3.33584
2.70079
2.26287
2.29698
2.2391
2.2772
2.41784
2.14258
2.45462
2.38645
2.23963
1.96362
2.15048
2.12443
2.16826
3.05322
1.99933
2.35031
1.91762
2.37494
2.43727
2.6167
2.32811
2.25667
2.15895
2.37506
2.31079
2.43988
2.19057
2.36718
2.23161
1.91069
2.5476
2.10254
2.35613
2.21929
2.26013
2.21763
2.26893
2.04732
2.15803
2.38337
2.56253
2.39588
2.56227
2.40691
1.89807
2.54737
2.35655
2.27798
2.3399
2.41126
2.01962
2.18728
2.33808
2.37961
2.3089
2.46683
2.23853
2.55604
2.30824
2.0072
2.02293
3.01153
2.30518
2.20961
2.35974
2.22568
2.08805
2.36987
2.78023
2.64943
2.39074
2.50522
2.32727
2.34448
2.23969
2.30861
2.41488
2.50184
2.06243
2.01153
2.28955
1.93988
2.35482
2.61218
2.10611
2.10198
2.24715
2.1225
2.37689
2.30068
2.71762
2.06619
2.12336
2.13035
2.6065
2.23732
2.49488
2.64543
2.33637
2.92694
2.38643
2.51586
2.03431
3.22679
2.37999
2.39625
2.12486
2.25388
2.229
2.33684
2.34607
2.18645
2.30537
2.61163
2.44699
2.16435
2.14722
2.39674
2.78908
2.26448
2.34368
2.2146
3.0704
2.79321
2.22252
2.33727
2.9582
2.40028
2.15439
2.62035
2.49956
2.16905
2.06432
2.07549
2.2383
2.65237
3.03145
2.15298
2.28003
2.03882
2.22547
2.27769
2.21405
2.16786
2.18713
2.19648
2.19366
2.07136
2.35448
2.16066
2.40932
2.28206
2.16504
2.10357
2.53246
2.68367
2.47067
2.57448
2.17964
2.55221
2.3451
3.00262
2.12252
2.28581
2.25308
2.09439
2.16857
2.65316
2.29824
2.24554
3.04069
2.81811
2.37266
2.60582
2.2546
2.11759
2.64998
1.99046
2.43266
2.23898
2.33329
2.48777
2.44823
2.23207
2.48931
2.50943
2.24777
3.00571
2.54907
2.26728
2.75171
2.39498
2.69235
2.32236
2.30355
2.29703
2.37071
2.37276
2.86558
2.08299
2.16488
2.69593
2.37192
2.0895
2.09243
2.19203
2.40003
2.46133
2.34199
2.65931
2.28578
2.35025
2.30352
2.20616
2.15413
2.36007
2.33239
2.19118
2.34528
2.35396
2.08656
2.26228
2.25745
2.51005
3.28863
2.39383
1.9842
2.51978
2.3598
2.4555
2.19616
3.41502
2.79616
2.3336
2.89333
2.13628
2.55578
2.23125
2.37117
2.42566
2.14185
2.48364
2.36143
2.80688
2.29871
2.25158
4.07587
2.52225
2.24536
2.46519
2.34403
2.78901
2.17061
2.22928
2.415
2.81386
2.52261
2.78065
2.21634
2.76752
1.96683
2.60161
3.07017
2.554
2.42944
2.4967
2.17407
2.28055
2.16845
2.65056
2.51987
2.17242
1.98662
2.22399
2.01681
2.66023
2.48174
2.25245
2.3869
2.95008
2.35438
2.28771
2.10977
2.30943
2.30715
2.23348
1.97896
2.21603
2.42123
2.2131
2.22396
2.51029
2.44483
2.29964
2.45591
2.36862
2.09571
2.41158
2.48679
3.30996
2.16812
2.75894
2.46848
2.18311
2.51082
2.25458
2.49053
2.18255
2.15086
2.42202
2.30263
2.44198
2.38537
2.71426
2.42942
2.40432
2.22954
2.49652
2.10049
2.36884
3.52392
2.97754
2.20087
2.52699
2.19409
2.23974
2.01007
2.24768
2.38756
2.1574
2.20058
2.51005
2.39685
2.61871
2.76043
2.49448
2.74215
2.12542
2.46571
2.38018
2.22524
2.89079
2.53824
2.5582
2.15032
2.33775
1.8939
2.32413
2.08096
2.53968
2.34397
2.50325
2.35544
2.14187
2.48525
2.23315
2.56303
2.43527
2.28324
2.34934
2.29157
2.35755
2.16887
2.39485
2.17833
2.13839
2.1561
3.09778
3.02184
2.48834
2.62713
2.33953
2.18876
2.02843
2.21163
2.38578
2.58857
2.54126
2.7655
1.99653
2.87949
2.03861
2.3522
2.42936
2.24434
2.22298
2.5842
2.36085
2.52895
2.45137
2.53444
2.55876
2.1593
2.24252
2.36716
2.09084
2.13145
2.18547
2.32472
2.3808
2.42365
2.55336
2.14211
2.11226
2.56311
2.34223
2.47157
2.35258
2.44259
2.09383
2.21571
2.46194
2.49029
2.80114
2.21069
3.03265
2.76117
2.16166
2.17083
2.17921
2.36936
1.96103
2.41676
2.80137
2.22187
2.3886
2.37507
2.54339
2.28835
2.34778
2.41068
1.93303
2.31067
2.24669
2.09769
2.38349
2.18958
2.3643
2.29769
2.27578
2.1239
2.22975
2.17374
2.46475
2.31067
2.08106
2.15287
2.68136
2.51956
2.12787
2.00066
2.426
2.09303
2.36983
2.34298
2.30836
2.45608
2.72155
2.35649
2.21229
2.62262
2.33711
2.19935
2.2303
2.29071
1.95151
2.39474
2.26366
2.70938
2.58269
2.06615
2.21516
2.10279
2.73258
1.99055
2.149
3.28375
1.99897
2.31445
2.48301
2.05938
1.97109
2.28604
2.19053
2.39565
2.41776
2.20205
2.20767
2.45597
2.7525
1.84967
2.78494
2.40782
2.70023
2.42139
2.60692
2.62927
2.96361
2.80976
2.47572
3.00166
2.42321
2.39443
2.33105
2.3184
2.12938
2.27758
2.19355
2.5893
2.71508
2.39067
2.22467
2.19087
2.4873
2.06025
2.39831
2.47538
2.36324
2.44894
2.2845
2.39879
2.30855
2.32851
2.50614
2.20386
2.9565
2.20191
2.15403
2.45868
2.65161
2.40102
2.5068
2.13036
2.47471
2.42098
2.4512
2.93024
2.57192
2.09174
2.15552
2.51529
2.4759
2.16152
2.29905
2.26405
2.19557
2.35407
2.32888
2.86432
2.00441
2.36656
2.36249
2.20871
2.3382
2.6598
2.18437
1.98903
2.32498
2.32121
2.50288
2.33464
1.91768
2.32715
2.3262
2.43327
2.51556
3.17587
2.47837
2.33361
2.24566
2.27254
2.02495
2.97291
2.1206
2.03529
2.27728
2.46968
2.64781
2.31912
2.35289
2.28755
2.26727
2.03535
2.50837
2.50702
2.14286
2.18337
2.17818
2.32326
2.30705
2.38954
2.43099
3.00747
2.45728
1.90372
2.35459
2.46088
1.99413
2.24221
2.23827
2.14957
2.35519
2.51662
2.26191
2.30462
2.05018
1.91896
2.32701
2.86137
2.21796
2.40484
2.04445
2.50194
2.30907
2.43646
2.08527
2.69812
1.93723
2.54789
1.95044
2.1944
2.2734
2.51292
2.2731
2.22847
2.16679
3.22906
2.6853
2.27977
2.42025
2.81561
2.12747
2.13575
2.27969
2.08547
2.34751
2.44372
2.25973
2.4947
2.24109
2.3502
2.34521
2.38649
2.54077
2.1774
2.03905
3.07715
2.02024
2.65895
2.28569
2.3522
2.10444
2.16602
2.05648
2.23754
1.98815
2.4154
2.48016
2.29799
2.32562
2.26696
2.219
2.25724
2.74042
2.28475
2.56944
2.15089
2.24921
2.2816
2.17109
2.37345
2.16889
2.50688
2.19133
2.35872
1.9617
2.57397
1.9933
1.95213
2.0351
2.56487
1.85453
2.21742
2.10295
2.40929
2.18266
2.30485
2.3671
2.37997
2.4289
2.07184
2.74314
2.27318
2.25989
2.61757
3.60395
2.49906
2.28707
2.24846
2.2488
2.51922
2.29239
2.17672
2.76807
2.52326
2.15673
2.77943
2.49973
2.17382
2.42812
2.33663
2.23702
2.25469
1.98245
1.94227
2.38523
2.21744
2.77627
3.12298
2.08756
2.45885
2.22574
2.56474
2.3097
2.75636
2.07076
2.19869
2.47671
2.98489
2.1492
2.52659
2.30432
2.18352
2.77594
2.56056
2.563
2.33599
2.52513
2.18893
2.33666
2.38821
2.72626
2.63914
2.07482
2.47104
2.04686
2.55261
1.99553
2.17661
2.33247
2.52139
2.22289
2.32746
2.30752
2.52278
2.34974
2.25191
2.12568
2.33798
2.12685
2.38959
2.39821
2.99113
2.31718
2.23294
2.15659
2.73757
3.16039
2.41514
2.29363
2.04812
2.12576
2.46125
2.07637
2.28984
2.63484
2.6037
2.47998
2.28586
2.43138
2.12478
3.02298
2.29134
2.20868
2.26438
2.54631
2.18219
2.14628
2.37181
2.57627
2.68459
2.26117
2.40638
2.14996
2.14131
2.28805
2.27958
2.27338
2.27167
2.83985
1.98827
2.13571
2.60463
2.93063
2.35027
2.24939
2.16772
2.27163
2.39361
2.12064
2.36182
2.36151
2.07881
3.07262
2.21693
2.54083
2.80636
2.04013
2.11357
2.88153
2.39491
2.37465
2.35842
2.55245
2.38536
2.03515
2.4048
2.31673
2.10801
2.73487
2.04783
2.77555
2.39515
2.04502
2.10334
2.52247
2.42866
2.11979
2.63826
2.14548
2.52789
2.52631
2.50417
2.20544
2.66657
2.51392
3.36761
2.15879
2.2499
2.09511
2.08257
2.24968
2.7756
2.1846
2.13568
2.39838
2.45616
2.35315
2.89467
2.23359
1.9639
2.11483
2.65159
2.13728
3.08798
2.39225
1.86647
3.67125
2.49049
2.38972
2.27752
2.54163
2.62374
2.16209
2.2842
2.53829
2.39288
2.54747
2.2439
2.35585
2.60239
2.31811
2.43049
2.05309
2.33549
2.4673
2.88167
2.4479
2.21117
2.11749
2.83384
2.06635
2.21222
2.09449
2.06456
2.23176
1.99197
2.25649
2.56886
2.32258
2.27295
2.32195
2.29162
2.18887
2.14281
2.25582
2.41039
2.12884
2.51497
2.12515
2.26063
2.64849
2.25229
2.38055
2.35826
2.30968
2.54885
2.72254
2.20442
1.75726
2.39309
2.40497
2.22555
2.19146
2.14419
2.46187
2.09922
2.23399
2.22837
2.13883
2.16602
2.25567
2.26329
2.31217
2.52819
2.38076
2.35287
2.08825
2.25331
2.15675
2.08016
2.38638
2.07985
2.20343
2.29479
2.40775
2.29873
2.411
2.47479
2.19387
2.40136
2.28444
2.39562
2.158
2.25089
2.46775
2.62961
2.37194
2.24231
2.97212
2.39903
2.28799
2.41221
2.27555
2.85431
2.00119
1.97345
2.35281
2.05294
2.23909
2.03642
2.45284
2.31697
2.54444
2.29412
2.05715
2.12523
2.59838
2.33505
2.30362
2.04798
2.43116
2.15712
2.38121
2.28818
2.06077
2.50511
2.52486
2.2601
2.61675
2.49663
2.30928
2.1248
2.28234
2.39836
2.62577
2.2618
2.03143
2.44894
2.26911
2.7986
2.95924
2.62824
2.4015
2.18481
2.44156
2.38672
2.13947
2.38193
2.1915
2.03204
2.02534
3.00323
2.13787
2.32333
2.18935
2.20738
2.45551
2.133
2.19171
2.18052
2.51021
2.13962
2.44126
3.26387
3.54594
2.57837
2.1745
2.26819
2.36841
2.50052
2.21977
2.55359
1.98318
2.11062
2.51082
2.53245
2.16041
2.47331
2.33616
2.41492
2.36015
2.50307
2.47615
2.51699
2.07973
2.3792
2.2534
2.27891
2.40095
2.32603
2.3061
2.08135
2.21638
2.61529
1.99427
2.42953
2.42861
2.31533
2.42367
2.84445
2.4051
2.23238
2.41085
1.91325
2.50517
2.39893
2.39899
3.15639
3.8876
2.11506
2.52244
2.16416
2.34425
2.22944
2.21104
2.23978
2.10501
2.64402
2.01545
2.31634
2.55132
2.81821
2.20095
2.66462
2.72282
2.39252
2.09795
2.64848
2.13264
2.30181
2.79633
2.51547
2.20798
2.11729
2.36933
2.33816
2.4383
2.16145
2.96906
2.44445
2.37678
2.36419
2.50292
2.59118
2.46584
2.24352
2.41395
2.16076
2.34814
2.22705
2.27617
3.37054
2.13493
2.30166
2.36347
2.28966
2.13884
2.46567
2.39812
3.10455
2.07043
2.83319
2.30876
2.13275
2.79546
2.45944
2.34596
2.26614
2.52581
2.29104
2.10089
2.13273
2.28416
2.33188
2.52158
2.33041
2.9347
2.46777
2.0457
2.49507
2.31472
2.46597
2.02054
2.10116
2.17038
2.39257
2.79001
2.49975
2.0923
2.27207
2.02892
2.2249
2.40185
2.31412
2.63167
2.83218
2.29522
1.97397
2.3402
2.48938
2.65613
2.35632
2.18888
2.37546
2.24425
2.49175
2.38931
2.0534
1.85934
2.08803
2.21249
2.30766
2.42717
2.75027
2.25085
2.04821
2.09782
2.70138
2.33468
2.08642
1.89962
2.11028
2.45649
2.25017
2.80896
2.03128
2.61944
1.94812
2.25853
2.54573
3.22756
2.20706
2.19469
2.64753
2.37977
2.27514
2.48739
2.42389
2.67174
2.67612
2.63845
2.058
2.22442
2.09967
2.21669
2.23985
2.51562
2.43663
2.41599
3.01881
2.07818
2.13534
1.93476
2.22701
1.97916
2.31822
2.25876
2.21532
2.82532
2.40056
2.49551
2.11857
2.1745
2.79815
2.30084
2.95156
2.08447
2.17914
2.6409
2.28938
2.75874
2.19479
2.63336
2.22355
2.61715
2.37935
2.35406
2.53414
2.5347
2.2803
2.03855
2.3452
2.72815
2.27437
2.56643
3.14499
2.02334
2.1868
2.06465
3.09743
2.12344
2.46277
2.46064
2.70128
2.3872
2.57791
2.30559
2.44679
2.46005
2.74919
2.60459
2.03664
2.33284
2.43158
2.44961
1.99399
2.08319
2.55477
3.04617
2.18991
2.23969
2.9126
2.61728
2.32399
3.05797
2.40599
1.9516
2.24142
3.02037
2.35834
2.41807
2.66469
2.17763
2.37441
2.18737
2.20972
2.07285
2.17346
2.17996
1.98255
2.46651
2.35071
2.63109
2.53802
2.16131
2.48582
2.16263
2.29355
2.10781
2.54231
2.62086
2.19766
2.22085
2.2265
2.39651
2.04876
2.73051
2.46213
2.26812
2.94742
2.45907
2.1425
2.22602
2.27998
2.66074
2.20584
2.1656
2.35836
2.2273
2.40361
2.32868
2.56108
2.23495
2.51941
2.70847
2.30348
2.34026
2.12177
2.15069
2.08701
2.91977
2.39145
2.31583
2.469
2.11891
2.43645
2.18146
2.17377
2.17467
2.13819
2.27207
2.02362
2.14958
2.30146
2.18497
2.29532
2.52049
2.17724
2.20533
2.00834
2.47381
2.18233
2.12247
2.23011
2.05246
2.2201
1.96129
2.32481
2.11678
2.42694
2.1127
2.04942
2.45692
2.56981
2.40424
2.02309
2.69246
2.16606
2.2653
2.08972
2.2787
2.78694
2.08521
2.59259
2.3728
3.1819
2.3896
2.26418
2.39043
2.44086
2.81855
2.77728
2.14588
2.24063
2.32953
2.36547
2.13785
2.06211
2.20002
2.40729
2.51025
2.50254
2.97013
2.25044
2.42242
2.54198
2.34686
2.72751
2.07035
2.37106
2.14095
2.90349
3.23195
2.17248
2.78373
2.11423
3.10609
2.13533
2.03132
2.61394
2.04786
2.01838
2.06577
2.47297
2.56308
2.42841
2.7733
2.50529
2.10619
2.88629
2.12326
2.33608
2.60989
2.258
2.25966
2.5306
2.07683
2.34296
2.67936
2.21034
2.35229
2.01614
2.76534
3.02394
2.48116
3.1605
2.32458
2.61847
2.56575
2.39408
2.16643
2.30551
2.32668
2.4873
2.16358
2.07237
2.23534
2.5411
2.26055
2.05016
2.12877
2.80328
2.68641
2.18305
2.18642
3.38615
2.05545
2.51151
2.12794
2.66863
2.34661
2.9336
2.83129
2.14434
2.10802
2.08172
2.23621
2.16183
2.49612
2.61837
2.27674
2.08496
2.27334
2.28029
2.68499
2.44175
2.42678
2.17017
2.46616
2.66956
2.4057
2.38258
2.68337
2.19859
2.36045
2.59465
2.18589
2.18507
2.11899
2.02086
1.98084
2.3631
2.51726
2.30197
2.46483
2.53502
2.51989
2.63168
2.09054
2.12804
2.30062
2.14196
2.31798
2.51972
2.27112
2.21334
2.58872
2.23987
2.91918
2.47654
2.3379
2.22441
2.18181
2.85106
2.12651
2.29011
2.22723
2.55212
2.02209
2.43442
2.34718
2.11448
2.09456
2.42538
2.00445
2.22468
2.13167
2.43904
2.23426
2.21068
2.21907
2.56716
2.12047
2.26169
3.14987
2.23
2.19842
2.48023
2.15664
2.52095
2.59441
2.11778
2.25108
1.9915
2.44966
2.26019
2.21385
2.36764
2.25279
2.40384
2.16789
2.17115
2.06173
2.50055
2.32275
2.65774
2.32705
2.65956
2.48656
2.54029
2.29852
2.15681
2.25888
2.50161
2.45854
2.41276
2.18445
2.42919
1.84572
2.28943
2.09316
2.23035
2.26217
2.23277
3.14901
2.21771
2.43707
2.2931
2.86013
2.35929
2.13171
2.32885
2.92576
2.12945
2.38293
2.16217
2.50075
2.63726
2.03526
2.50526
2.31715
2.45848
2.60097
2.1349
2.25337
1.96977
2.76867
2.8091
2.05363
2.42163
2.25215
2.02988
2.2192
2.68483
2.42644
2.39335
2.39029
2.24465
2.32774
2.48985
2.02921
2.30044
2.03057
2.2793
2.21115
1.99137
2.30156
2.14132
2.27916
2.20782
2.23175
2.18355
2.58368
1.95173
2.22477
2.26083
2.75754
2.60935
2.29729
1.94631
2.21757
2.28489
2.58153
2.06946
2.42819
2.45744
2.28875
2.46764
2.5365
2.0371
2.3763
2.1383
2.27499
2.04378
2.18052
2.27002
2.21202
2.32594
2.25554
2.0921
2.09883
2.09596
2.1213
2.39141
2.96146
2.24209
2.31065
1.95316
2.39607
2.27003
2.70267
2.36139
2.05634
2.31219
2.22189
2.32876
2.6613
2.27763
2.1556
3.31311
1.98223
2.21662
2.19341
2.67796
2.26875
2.35326
2.45204
2.47376
2.71147
2.2177
2.44275
2.32488
2.50519
2.34048
2.46759
2.39682
2.12487
2.54793
2.84665
2.17345
2.12324
2.31109
2.75824
3.12462
2.36233
2.00895
2.38082
2.43877
2.21231
2.3235
2.0871
2.80945
2.54124
2.35509
2.12117
2.28088
2.13133
2.24742
2.0014
2.37277
2.39909
2.27676
2.23958
2.47795
2.02732
2.46316
2.8521
2.04634
2.43513
2.29074
2.47024
2.88239
2.88847
2.14306
3.3341
2.10702
2.3389
2.42474
2.42518
2.17068
2.39064
2.45871
2.34537
2.6166
2.58666
2.33538
2.32134
2.37202
2.43007
2.1729
2.76075
1.97193
2.35352
2.3749
2.283
2.15835
2.45141
2.4906
2.50874
2.30395
2.69457
1.96894
2.73182
2.27624
2.43404
2.40048
2.7415
2.47923
1.99996
2.21981
2.22889
2.01577
2.24941
2.21151
2.01793
2.48747
2.07967
2.36541
2.36494
2.40141
2.39234
2.24946
2.5156
2.29401
2.70052
2.85704
2.23332
2.3444
2.31079
2.56483
2.60038
2.40479
2.25693
2.38062
2.34377
2.20802
2.0953
2.44235
2.26378
2.99456
2.24677
2.82242
2.35418
2.31623
2.38315
2.29739
2.47878
3.10609
2.23327
2.4699
2.14014
2.36973
2.42308
2.2838
2.68155
2.54272
2.68389
2.13151
2.2186
2.12672
2.36368
2.00767
2.27409
2.50631
2.33687
2.22497
2.07876
2.46504
4.46453
2.15029
2.51713
2.76238
2.09277
2.27406
2.43023
2.20391
2.11209
2.38752
2.46584
2.1773
2.83753
2.95863
2.08712
2.44995
2.18516
2.19561
2.23419
2.63204
2.4586
2.06844
2.59479
2.25165
2.26875
1.99605
2.16559
2.36413
2.59211
2.26757
2.54461
3.1633
2.1141
2.21992
2.18605
2.64568
2.75525
2.16476
2.19143
2.74452
2.57058
2.22938
3.01319
2.49874
2.29962
2.30977
2.07752
2.63471
2.31037
2.27562
2.65423
2.17075
2.46208
2.28872
2.57606
2.47498
2.70958
2.21412
2.60438
2.38403
2.20851
2.02292
2.54018
2.79186
2.25297
2.50606
2.20711
2.39006
2.75257
2.18672
1.87153
3.32696
2.2531
2.29537
2.12314
2.30404
2.05945
2.17764
2.2616
2.42524
2.30139
2.40321
2.2836
2.15091
2.38966
2.58608
2.59348
2.51706
2.17231
2.31041
2.10221
2.36668
2.44526
2.26041
2.54831
2.3015
2.29293
2.48931
2.25832
2.18503
2.10761
2.20625
2.16104
2.59461
2.63037
2.11551
2.16087
2.36145
2.11926
2.28981
2.18942
2.02871
2.33254
2.63385
2.06252
2.63975
2.60424
2.93973
2.04786
2.41361
2.22807
2.08696
2.14598
2.7064
2.56987
2.53387
2.0544
2.31213
1.97374
2.00523
2.4299
2.3641
2.30511
2.38446
2.29386
2.2431
2.11358
2.06085
2.11351
2.59813
2.09816
3.15875
2.49096
2.36318
2.33316
2.2701
2.23602
2.32328
2.78527
2.23609
2.29188
1.98968
2.36208
2.41573
2.10264
1.99477
2.49036
2.35602
2.21175
2.69592
2.82452
2.06928
2.58842
2.44913
2.32248
2.29545
2.83625
2.47069
2.16645
2.10596
2.94606
2.21647
2.12922
1.99427
2.60876
2.05181
2.17712
2.4737
2.25679
2.38148
2.43345
2.45137
2.1774
2.49145
2.10421
2.40913
2.00501
2.7463
2.41885
2.38322
1.9564
2.85323
2.3059
2.05054
2.39034
2.23298
2.48847
2.13648
2.52636
2.27948
2.65389
2.38662
2.23289
2.37242
2.46479
2.33032
2.22167
2.23427
3.03552
2.3817
2.08883
2.23969
2.63285
2.63832
2.3169
2.34662
2.44909
2.23458
2.00881
2.13623
2.07625
2.3477
2.5424
2.96318
2.50529
2.50792
2.31442
2.14537
2.32953
2.57701
2.23805
2.75059
2.79657
2.32069
2.29793
2.16755
2.83843
2.46116
1.9526
2.15686
2.26352
2.29009
2.495
2.59433
2.159
2.30726
2.34635
2.16869
3.12408
2.30246
2.6818
2.24943
2.20286
2.23592
2.4565
2.14391
2.68197
2.39521
2.25252
2.38785
2.31108
2.25475
2.67691
2.32386
2.47064
2.37196
2.44305
2.13078
2.32281
2.45558
2.5963
2.06086
2.58869
2.76331
2.58957
2.1895
1.84261
2.23173
2.20131
2.07189
2.14661
2.46621
2.49714
2.24604
2.87344
2.23927
2.34109
2.46428
2.26414
2.16259
2.4056
2.1784
2.40193
2.2464
2.40218
2.689
2.13003
2.35642
2.19206
2.49165
2.12305
2.68095
2.471
2.00989
2.45005
2.54677
2.30194
2.26157
1.99033
2.10859
2.72285
2.47137
2.31125
3.8757
2.15422
2.5515
2.24145
2.52211
2.69202
2.29603
2.34223
2.09668
2.2787
2.01011
2.17183
2.42277
2.32587
2.44872
2.4913
2.6865
2.71033
2.23635
2.50516
2.04139
2.15547
2.23573
2.31094
2.67525
2.17759
2.48933
2.09437
2.11895
2.06015
2.24303
2.00732
2.32516
3.22306
2.42936
2.06226
2.31315
2.10882
2.21229
2.42549
2.77536
2.00128
2.24282
2.3377
2.07058
2.45175
2.41037
2.22796
2.10939
2.66819
3.61955
2.47006
2.89885
2.63794
2.61387
2.28471
2.09106
2.67913
2.5203
2.08969
2.23015
2.29284
2.28621
2.20243
2.78553
2.1862
2.15375
1.87592
2.17286
2.71951
2.23105
2.14826
2.03189
2.55281
2.39421
2.18719
2.18186
2.36433
2.43003
2.11814
2.60824
2.89755
2.36442
2.328
2.05741
2.27282
2.25896
2.31714
2.42176
2.19481
2.65007
2.13619
2.37617
2.38777
2.70345
2.52561
2.39721
2.14883
2.0452
2.42999
2.20168
2.24321
2.35417
2.26992
2.40876
2.22216
2.77155
2.17502
2.35214
2.39644
2.83059
2.01692
2.43287
3.26826
2.14904
2.36809
2.73133
2.2103
2.22477
1.94311
2.83816
2.7095
2.0075
2.36691
2.92861
2.29255
2.48902
2.45493
2.2854
2.62671
2.45435
2.43748
2.74748
2.25724
2.84714
2.27223
2.40386
2.39615
2.06922
2.22447
2.21917
2.27448
2.15066
2.07742
2.27095
3.02011
2.31891
2.31897
2.27473
2.2938
2.35519
2.24501
2.25554
2.15664
3.22252
2.31104
2.66378
2.46716
2.23419
2.64945
2.14921
2.43911
2.21935
2.20903
2.07164
2.28008
2.33654
2.16499
2.07058
2.02418
2.11028
2.30956
2.38972
2.52884
2.2463
2.45054
2.13718
2.01302
2.28862
2.0684
2.51507
2.30125
2.24658
2.315
2.56097
3.03469
2.40543
2.35116
3.17036
2.1999
2.49588
2.06569
2.76242
2.62654
2.2404
2.33942
2.05439
2.30499
2.20779
2.13063
2.91749
2.54696
2.59292
2.31698
2.43283
2.09407
2.86216
2.1252
2.61618
2.67013
2.31498
2.21331
2.30023
2.43478
2.10052
2.29652
2.36564
2.36343
2.39991
2.223
2.11239
2.16875
2.20108
1.93145
2.06207
2.35687
2.12624
2.15446
1.95552
2.45431
2.21887
2.49451
3.10664
3.87818
1.94479
2.50814
2.46306
3.29021
2.29504
2.72388
2.74246
2.68265
2.75356
2.45037
2.38201
2.11409
2.43619
2.55758
2.82826
2.25625
2.23996
2.13932
2.38142
2.39505
2.24367
2.37664
2.00591
2.35937
2.40838
2.41735
2.59863
2.29286
2.3994
2.51321
2.27305
2.37487
2.25624
2.38109
2.10546
2.14283
2.66711
1.99918
2.23051
2.41147
2.50813
2.71371
2.95158
2.43923
2.3524
2.2934
2.34281
2.30256
2.43264
2.26533
2.15419
2.61148
2.69331
2.35958
2.37288
2.45982
2.21481
3.45864
2.15125
2.64119
2.3709
1.8405
2.12183
2.28856
2.38855
2.40284
2.30768
2.29239
2.32134
2.25982
2.23317
2.39734
3.13525
2.01949
2.28727
2.39736
2.59574
2.27596
3.55379
2.39779
2.46045
2.24961
2.69899
2.25412
2.30886
2.193
2.36568
2.17134
2.28122
2.3811
2.7355
2.16186
2.30393
1.80534
2.13581
2.20578
2.40952
2.05443
2.53469
2.03698
2.1441
2.01694
2.04829
2.33866
2.41501
2.29511
2.24361
2.02351
2.59411
2.61865
2.17058
2.51456
2.34
2.05182
2.38745
2.66177
2.47852
2.51695
2.16128
2.65397
2.42918
2.16648
2.09999
2.19508
2.55917
2.23003
2.20964
2.39938
2.3384
2.06082
2.16415
2.17509
2.4382
2.6964
2.54503
2.28505
2.22779
2.32078
2.35156
2.27902
2.66996
2.33809
2.11832
2.42263
2.1339
2.21407
1.98394
2.06182
2.20637
2.38137
2.44936
2.23495
2.31733
2.4005
2.58306
2.29921
2.32732
2.21799
2.0642
2.6841
2.16755
2.59979
2.17195
3.24208
2.54474
2.14561
2.35457
2.32478
2.21827
2.60372
2.44533
2.3171
2.17291
1.89071
2.35043
2.3967
2.26152
2.84117
1.96379
2.14876
2.261
2.18436
2.83717
2.46779
2.16449
2.21393
2.48008
2.31692
2.64197
2.50458
2.1241
2.3602
2.58478
2.20131
2.18385
2.14156
2.21675
2.08628
2.449
2.62532
2.56678
2.16585
2.78367
3.4419
2.17487
2.49947
2.1517
2.10893
1.89629
2.28291
2.45572
2.40229
2.44758
2.48749
2.17584
2.26559
2.41197
2.49625
2.20818
2.53385
2.14944
2.27105
2.55492
2.61665
2.34265
2.76649
2.19486
2.27194
2.79048
2.0256
2.29233
2.39105
2.13869
2.28915
2.34287
2.15755
2.4611
2.25971
2.48002
2.14949
2.32113
2.01784
2.60195
2.25561
2.87958
2.63496
2.15875
2.17156
2.08599
2.2844
2.40336
2.35557
2.2419
2.47931
2.39536
2.57592
2.44866
2.1028
2.46773
2.41738
2.25943
2.62558
2.1154
2.41369
2.5279
2.53103
2.30991
2.30333
2.36434
2.61038
2.06794
2.81273
2.32073
2.60806
2.36732
2.38872
2.04961
2.21096
2.25044
2.3553
2.091
2.44196
2.82803
2.2907
2.54127
2.03011
2.30707
2.22969
2.34772
2.28162
2.37117
2.33167
2.16765
2.24912
2.69267
2.47718
2.3628
2.38644
2.23562
2.86015
2.08841
2.34931
2.46439
2.56206
2.3851
2.30174
2.67521
2.14071
3.18252
2.26162
2.36655
2.41067
2.40452
2.14456
2.36307
2.44055
2.3731
2.28589
2.64769
2.30988
2.37942
2.45305
2.41114
2.45214
2.61519
2.40561
2.26906
2.22047
2.24823
2.37748
2.96848
2.37291
2.11492
2.76142
3.07292
2.11591
2.25769
2.66555
2.74166
2.60734
2.80322
2.06492
2.63343
2.2789
2.5225
2.17886
2.18226
2.27032
2.20131
2.47939
2.15788
2.63232
2.6901
2.46505
2.30115
2.32449
2.32886
2.60102
2.08963
2.54424
2.30008
2.29409
3.09653
2.15637
2.34615
2.29323
2.51285
2.25771
2.35396
2.30129
2.05133
2.32834
2.18417
2.40122
2.20705
2.22833
2.03081
2.14985
2.60278
2.07016
2.40976
2.63272
2.29098
2.16086
2.77893
2.56711
2.18301
2.58149
2.21836
2.31415
2.04748
2.82023
2.34653
2.19164
2.24276
2.30063
2.38059
2.06107
2.73419
2.68749
2.05894
3.0394
2.38453
2.72645
2.16537
2.26291
1.90519
2.4326
2.32696
2.68523
2.2797
2.15161
2.24742
2.56362
2.11093
2.24266
2.21987
2.53167
2.91074
2.8774
2.56649
2.18794
2.14162
2.60582
2.40659
2.95032
2.50269
2.48811
2.51398
2.07812
2.29596
2.56748
2.02478
2.00358
2.29002
2.51052
2.18209
2.43734
2.21066
2.34579
2.50563
2.58297
2.23644
2.90969
2.87883
2.34931
3.03055
2.37739
2.19822
2.54884
2.59781
2.39108
2.47105
2.86101
2.1907
2.54543
2.2607
2.06986
1.88049
2.27209
2.15635
2.32338
2.31767
2.37122
2.67568
2.26594
2.25967
2.08436
2.06119
2.01739
2.25276
2.36551
2.49782
1.97379
3.1233
2.34191
2.82466
3.07929
2.14172
2.23586
2.56007
2.3319
1.98878
2.44123
2.22602
2.21343
2.92128
2.97167
2.38938
2.09065
2.26684
2.13526
2.30102
2.45189
2.45591
2.26515
2.59264
3.1916
3.6416
2.48651
2.17358
2.58635
2.81688
2.03968
2.39925
2.06763
2.60755
2.44838
2.61626
2.66139
2.40773
2.66899
2.14048
2.90446
2.55788
2.51841
2.11506
2.05656
2.33763
2.05689
2.21781
1.99788
2.11402
2.1201
2.56199
2.32643
2.39255
2.05354
2.08914
2.14542
2.15344
2.19388
2.19819
2.4754
2.15752
2.82893
2.98155
2.40339
2.24124
2.06995
2.65096
2.11674
2.12314
2.04572
1.98273
2.26509
2.35516
2.23138
2.29601
2.26309
1.98298
2.82024
2.13356
2.10068
2.33888
2.22464
2.28964
2.10871
2.58163
3.17204
2.01201
2.10813
2.5196
2.37837
2.1501
2.62894
2.08088
2.71862
2.10421
2.017
2.43539
2.40077
2.03757
2.25222
2.74842
2.89671
2.15794
2.45804
2.31121
2.99639
2.39872
2.26124
3.13099
2.23468
2.71687
2.82791
2.24302
2.23872
2.15669
2.33527
2.46137
2.5624
2.60937
2.09542
2.54608
2.43415
2.60494
2.84276
2.73864
2.44099
2.38254
2.38761
2.27259
2.48998
2.43347
2.24657
2.57907
2.23266
2.76175
2.1215
2.2909
2.99617
2.15407
2.44285
2.58937
2.50073
2.49381
2.10692
2.1973
2.10791
2.34857
2.44987
2.20684
2.09124
2.00403
2.63643
2.82443
2.86716
2.63377
2.32712
2.16841
2.30808
2.27683
2.24085
2.248
2.37325
2.46388
2.1953
2.62851
2.04122
2.33146
2.14661
2.92058
2.48913
1.99647
2.30361
2.06388
2.26569
2.77998
2.20901
2.1322
2.16609
2.32572
2.45656
2.52664
2.51603
2.10429
2.43044
2.44039
2.35024
3.13139
2.52736
2.36746
2.2917
2.1103
2.19157
2.52184
2.69458
1.99369
1.95433
2.36924
2.09264
2.39613
2.23214
2.44586
2.08161
2.31989
2.56196
2.19061
2.0564
2.25778
2.67519
2.7704
2.3294
2.14835
2.39772
2.41958
2.28604
1.90081
2.1788
2.63993
2.53828
2.11805
2.20741
2.49474
2.51848
2.30141
2.42102
2.30638
2.05179
2.25954
2.31729
2.23428
2.36373
2.24577
2.27076
2.34914
2.34584
2.29518
2.42847
2.55126
2.36982
2.4518
2.26675
2.22569
2.12339
2.29095
2.73732
2.50255
2.14482
2.10481
2.66491
2.47027
2.50435
2.2777
2.32128
2.25132
2.17201
2.24595
2.10396
2.26434
2.21984
