62.8324
54.8785
54.248
67.3297
61.7799
51.3056
66.6425
61.3483
55.2218
57.2784
48.4287
67.8526
63.3399
52.4131
48.2602
59.6502
51.3796
55.0728
43.3118
53.1669
57.8864
57.8688
51.9329
65.5019
63.3491
51.7205
52.7137
52.749
63.6359
53.8181
53.6357
47.398
64.5908
50.554
55.6299
68.8183
49.9433
60.1862
58.4842
71.6836
51.2541
44.718
47.339
54.0271
65.2788
53.492
49.1684
63.077
55.9328
52.3552
64.4251
56.0889
57.528
50.558
52.8726
48.9918
57.1679
54.8449
51.3427
54.0063
59.0626
58.8324
55.0556
47.9463
49.0531
52.8069
50.4649
53.2728
55.7359
46.4973
56.8116
59.0109
57.5371
53.1734
49.4749
52.2209
50.624
55.3957
51.1174
61.132
51.9888
45.0733
54.2873
53.8439
55.6032
49.7537
54.8766
53.7231
47.6279
48.5792
64.2577
53.9878
54.5886
48.0224
48.529
47.0013
64.4163
54.9176
50.7635
60.8888
51.7914
49.4817
71.9146
50.242
49.9975
55.0298
52.5871
50.5979
56.2976
49.3947
57.3579
58.6307
50.7466
50.3084
59.3404
47.9453
58.9147
53.3442
47.1153
48.3649
59.8827
58.3128
51.5106
58.3665
56.0963
54.1111
55.0582
61.7291
52.7696
51.7124
52.6917
55.4423
49.7874
47.1376
50.7268
53.1896
51.4668
52.5926
65.6457
57.1365
51.4045
57.3485
59.7602
53.8105
54.4676
53.5381
54.5716
55.8075
67.9703
60.4514
51.6934
54.3355
57.6832
54.0378
52.1796
50.2053
48.7218
52.9968
56.9601
58.2453
58.0823
86.0323
53.292
52.4521
54.0027
57.0736
50.3105
58.6944
47.6381
53.7589
47.4512
47.2411
48.7019
52.0739
50.0796
56.8908
58.5252
49.1842
55.1274
56.1663
50.9858
59.8634
51.853
58.267
47.7552
55.0272
52.8111
50.1947
49.7672
57.9243
96.863
52.7026
56.5231
49.6513
46.934
63.151
59.4323
47.6547
57.1361
61.0925
45.5349
51.1904
53.7699
54.0689
57.2391
46.7019
64.2815
60.7595
48.2464
54.858
67.5621
52.5509
50.4763
53.9678
55.4575
57.1337
51.9596
56.3106
49.7174
60.457
71.628
50.6363
60.5117
56.064
57.9797
62.9739
57.5117
46.5151
56.7858
70.8937
54.3946
62.7348
59.8478
52.5665
48.5432
57.8409
61.7524
54.7747
48.6313
57.1408
58.5366
63.0087
53.0816
49.0604
47.3175
59.4147
55.7654
61.1549
52.6522
53.0822
53.5706
58.2644
52.1939
48.4468
59.5208
55.226
55.0398
60.5705
53.7659
59.0839
57.7072
53.2065
50.6686
53.8123
50.5376
58.0197
64.0474
49.6174
55.3249
47.1477
51.3182
57.2156
56.5484
47.2896
57.9387
50.094
53.4834
50.728
64.6784
50.5052
48.2047
47.5247
60.3423
54.6136
61.8521
55.8507
62.1441
60.1418
54.5032
51.5902
58.0225
62.2732
52.4819
56.4377
58.3137
57.0728
54.1515
50.209
59.6005
62.6096
69.4111
52.9034
50.5347
69.7133
54.1133
53.8561
59.4594
45.6345
51.7105
56.2358
57.5599
54.8894
65.8071
57.1879
54.8236
58.5789
52.8318
51.9523
51.2366
51.0907
52.8761
49.3489
52.6111
58.3815
54.1435
58.6893
56.5038
56.4521
61.5376
61.7513
51.592
54.0762
56.144
48.3767
53.265
53.713
59.4878
55.8582
53.0998
62.3267
58.8657
51.7737
52.8828
50.1241
52.9604
59.2104
53.888
51.9286
51.1279
48.9856
51.7531
55.7138
50.853
52.7357
62.9167
52.217
47.7273
53.1099
73.2001
51.823
58.6236
65.8338
56.7136
48.1057
59.7659
49.7041
54.8044
48.8021
55.7309
59.93
59.2798
54.5442
51.3124
53.849
47.8892
51.0853
59.3787
53.9745
57.8503
54.8291
57.732
63.5863
52.3155
52.3665
54.0792
53.1561
54.2119
57.4968
53.0148
56.5751
43.5302
48.2818
62.5135
53.6619
52.8515
49.8315
55.547
54.3606
54.9932
70.9111
52.0863
54.204
59.7221
50.9062
50.5887
62.2162
48.4356
50.5857
51.5155
58.3323
54.7677
50.7926
51.9804
52.2797
54.6099
58.8186
57.8892
50.583
54.9687
47.2057
46.6791
63.6158
54.6479
57.9267
54.015
52.2846
53.8208
52.675
49.3818
56.0446
51.1896
55.6539
51.942
52.6584
61.8005
50.2688
50.5988
51.1508
49.7992
56.1126
57.0328
61.9676
54.222
59.6326
56.541
53.1371
51.0891
55.1935
64.2347
66.2177
56.8629
58.712
61.0973
51.3432
55.0344
54.9074
53.5834
49.9801
58.8893
59.2808
52.3428
52.8257
60.3164
48.9071
53.8137
56.2195
52.7916
50.3769
56.6446
50.6616
54.7825
52.194
62.4669
64.7277
56.7827
64.9723
49.3129
52.3975
58.191
58.0334
51.3406
59.8288
56.2028
55.0379
63.5311
52.5947
50.6557
55.7131
47.9191
53.6367
56.0765
53.8575
47.394
61.9542
49.7322
54.7273
57.4268
53.9553
58.3382
61.6497
54.2588
60.0085
52.2321
45.152
55.4419
52.1199
52.3036
55.9952
50.8121
59.0859
52.8242
55.6521
56.0378
60.8768
49.3043
55.9397
51.183
47.6862
51.5552
57.5773
53.4467
54.3373
59.9736
49.4206
64.5112
52.4451
55.8224
48.0283
48.8113
56.9133
58.6668
50.6935
61.3989
54.026
57.8846
54.9326
55.7917
53.8283
62.0733
52.7176
59.198
52.0991
56.1885
60.9407
58.0419
51.6258
52.4101
51.9046
51.838
49.0873
57.8665
54.6026
57.3115
50.236
58.8462
64.5651
57.4276
48.5228
64.2505
62.8582
57.826
50.8796
64.6986
55.2663
62.6369
49.4813
71.2384
62.9172
58.7586
53.1999
51.5595
52.3918
51.5161
53.182
53.4854
59.1166
47.3216
59.2832
63.6096
65.431
53.7299
62.5804
52.9663
54.0698
59.5878
60.8488
53.6997
50.6107
54.1633
56.4606
53.0247
48.6654
48.2417
56.566
67.5766
47.802
57.8251
52.1066
54.4004
69.1512
52.2238
64.9115
65.6912
67.459
53.003
56.9427
52.1993
51.3084
47.6449
59.3513
51.2929
59.2605
52.5856
55.5045
50.4976
50.7917
54.9897
50.119
46.9715
49.2188
55.0803
47.3962
49.4341
50.3508
48.768
49.6482
50.3916
54.2508
54.3301
47.1581
53.2232
51.8558
50.331
51.3013
58.4034
60.5238
54.4815
53.2942
56.9825
62.547
53.0958
56.8921
57.5891
45.6573
51.8095
52.6338
54.4931
51.8249
64.3455
50.6687
57.2282
52.4415
56.8217
77.676
59.4299
60.4244
54.9455
64.2366
68.6066
62.6944
52.7734
57.8836
52.606
53.5194
70.0159
53.2552
48.8057
55.0189
60.5676
57.4945
58.0606
63.6363
60.32
52.6569
54.3091
54.3182
54.3117
51.9441
56.9834
60.445
53.1199
50.7418
55.836
60.8377
59.3085
51.7215
58.1712
50.0894
52.6407
47.9884
54.5664
54.3333
51.5215
53.6502
57.3295
54.1443
59.7285
54.5278
50.2862
59.0459
54.8906
60.8199
49.6826
49.2617
58.2391
52.2421
52.6378
53.5016
51.4103
53.1019
53.911
55.2033
58.3212
56.9777
56.8514
45.2936
49.7291
74.4858
62.3026
63.7205
59.4857
54.9033
57.5702
49.9496
59.6609
71.969
49.4693
53.8116
49.1283
55.9875
55.3889
54.5646
56.1615
53.1203
53.5051
57.4612
56.9897
58.985
57.7352
52.164
56.9735
51.9353
60.5558
50.5993
56.4263
50.3441
49.4641
58.4925
54.7453
57.2196
51.145
52.1997
55.2307
59.1041
48.5921
56.2422
49.8167
45.3742
56.0475
57.5675
59.4844
56.5529
68.6076
50.9649
53.5519
58.2248
49.145
58.9627
44.4608
47.2894
62.229
57.1401
52.8252
49.035
58.4603
54.9097
50.9027
59.2398
53.6329
62.863
57.0041
59.1122
48.3296
53.4936
58.602
57.799
52.5977
54.7831
54.833
49.3389
52.4744
57.7101
60.3791
64.9191
46.7321
51.4167
50.7684
53.1476
53.3859
53.0286
55.1025
59.9095
65.3149
63.719
55.5025
50.8243
52.6049
66.7689
59.9695
58.8782
53.5094
54.0494
54.2817
60.1377
58.377
55.3957
51.7104
61.4816
48.7628
57.3508
53.5074
50.6116
50.8898
57.9111
52.1455
50.7959
47.481
49.1815
58.1083
54.5275
56.3723
53.8167
51.0316
61.6903
51.3294
55.1679
54.0694
60.912
47.1827
60.1905
49.1928
51.2887
55.058
60.0868
52.6266
51.0672
53.5806
67.4522
63.6027
53.3782
48.423
76.5956
64.985
78.6062
54.726
78.0938
52.3821
64.7675
55.6853
60.7122
61.2378
55.0454
55.2988
53.8467
57.7114
62.4352
48.7739
55.3755
42.7909
50.7011
52.1751
74.3119
47.9756
58.5387
57.7419
62.096
52.2742
53.8116
69.8183
51.9608
46.1746
61.7801
47.1301
50.7902
52.6477
55.1877
59.8474
58.401
51.9981
52.0131
48.2071
51.3917
57.5502
51.3799
48.884
53.6253
56.1118
59.4832
50.357
50.1886
64.433
47.1728
51.2589
54.6028
63.4773
52.4367
57.6411
53.8682
49.3923
59.9945
58.7844
54.1691
55.6104
62.9214
52.0823
55.6488
60.5188
47.9146
49.4051
51.7171
53.5169
50.4147
55.7052
53.6846
50.3384
59.6482
54.4335
51.4933
50.279
55.5822
50.5554
54.64
55.5249
45.7174
57.6445
50.3274
55.1009
53.7034
58.7911
66.4191
52.4645
52.6803
55.4353
50.6594
54.3099
56.5991
54.5379
47.0567
49.1246
48.5789
57.102
58.3828
52.976
48.1975
54.2108
49.4876
56.3557
56.1185
50.2467
58.3204
47.4604
64.9247
52.2516
55.7704
64.3211
47.3551
50.8867
61.3832
52.473
52.0693
47.9488
50.4073
53.4457
46.3266
55.8949
58.3578
53.5032
51.594
60.2826
56.8055
57.7275
52.3857
51.0202
49.9407
50.8627
61.822
51.2195
53.7979
52.2495
57.4679
53.6024
53.7419
51.2081
51.1339
51.9412
54.8407
52.4994
49.2786
50.7353
54.4497
53.0842
61.8188
50.7985
50.3085
55.1208
52.7941
48.6391
52.8007
52.2608
54.3543
51.8823
56.7948
49.4185
54.1033
52.218
58.4178
57.6666
61.4387
50.4265
48.3526
61.8169
49.3477
56.3846
56.7738
52.7878
51.3921
60.1956
56.1857
58.1698
57.3655
54.2975
50.6059
54.3784
55.3528
48.9032
59.4873
55.1062
68.7746
50.2256
63.1501
52.6156
48.4722
60.9623
54.5899
53.0172
58.0522
56.6545
59.9886
53.0853
57.512
54.8452
52.1882
58.0704
51.0319
55.8101
55.5792
63.029
52.5959
46.9862
68.8661
56.9448
51.5803
57.9704
51.9141
50.6282
61.4815
70.4463
57.5953
63.5489
57.2817
58.674
47.1825
54.4252
50.5775
59.5173
54.8096
51.718
52.9698
53.7763
56.4075
51.7874
51.1094
58.6301
54.9505
59.9657
52.9772
67.5196
61.0942
52.7155
51.9305
54.2221
62.2279
57.4019
54.3335
65.508
57.2774
59.7544
53.3358
59.1384
57.1126
54.475
49.7447
62.7416
55.6594
59.8461
53.5368
49.3989
58.8873
56.7389
47.9301
52.7692
54.5363
47.9237
54.8337
60.8712
52.1275
60.9477
51.9157
52.1938
48.6254
53.7074
59.5423
53.8456
62.2933
52.9663
62.8498
51.7619
48.3486
52.1743
47.9315
54.0987
56.2351
51.6897
69.328
57.2375
55.2801
69.3895
51.0984
56.121
57.7375
52.2347
56.8038
73.8623
60.2377
53.2085
52.8129
51.6184
49.5854
64.0945
60.9549
52.6643
49.5923
48.5477
52.6188
50.5447
62.9343
56.0939
52.9847
55.9178
52.5054
53.1482
54.4046
57.6706
52.5106
43.8083
47.3171
54.1383
56.2298
74.4252
56.732
54.3022
63.9407
54.4535
52.9283
53.0171
61.1769
55.9923
50.7756
47.6844
54.2464
60.1123
54.9599
52.3722
63.5988
53.38
58.1361
52.0849
46.8075
70.0681
53.8951
52.7588
50.6713
50.2997
52.8005
61.8859
54.7484
55.0434
62.7083
60.6672
55.1566
58.5625
61.7081
55.2409
52.9536
60.6104
57.9482
54.3022
50.9884
51.2817
49.2417
53.4422
51.8641
59.6875
53.9776
45.0662
55.6907
49.8425
59.2797
50.3663
48.4117
53.2512
57.7978
55.6956
57.3048
54.9835
54.8091
53.9984
50.9382
55.628
52.7941
56.8938
48.9364
45.0143
54.7616
60.8345
64.3153
53.7257
50.55
58.3694
53.3561
51.6928
64.0571
62.2229
51.152
61.8227
59.8146
52.575
51.2856
49.8957
51.937
61.4679
76.8993
50.6501
53.0636
49.9752
49.8375
55.7676
49.0618
45.5938
58.349
51.641
63.5018
48.6705
47.6938
54.068
45.3946
48.2452
52.0682
67.1619
51.7614
57.4513
54.4982
49.0501
60.9633
54.2694
54.083
51.2489
56.9605
49.2205
54.6232
55.4083
52.4213
50.8649
54.4339
56.7919
59.3512
61.2706
76.9756
77.9206
56.4519
52.8121
46.9583
58.3471
53.1099
51.7781
53.2508
58.707
62.6484
58.3322
49.3089
50.9143
54.3924
50.0965
57.7803
50.024
47.9742
51.561
73.6235
53.67
53.0154
64.2886
61.7861
47.4025
49.1345
55.2159
49.2205
52.5239
53.072
55.408
48.9724
57.5163
54.9215
46.3549
58.9123
52.3896
52.3438
59.2773
49.3373
50.957
59.6058
52.0798
55.4577
47.3445
51.9194
57.7729
52.6326
56.0401
64.1484
50.3366
59.614
72.316
47.786
58.9531
56.4606
64.0929
51.5505
59.8953
62.514
48.0454
53.9156
56.2586
46.4329
57.9574
45.6082
57.9621
49.5393
52.1969
58.7891
52.0636
55.426
65.9775
52.582
55.8392
60.1904
50.0064
49.5234
58.6318
50.0283
52.4124
55.5267
53.8286
51.1965
54.3409
55.7936
61.8363
55.0224
64.523
69.5633
61.8876
53.9581
46.4213
56.8274
50.0089
52.3743
52.1207
54.3797
50.9503
53.4732
50.9013
57.183
58.2768
53.6778
47.5745
51.348
58.9652
58.8527
66.3992
60.6401
50.5318
51.9371
55.7087
52.7722
45.9025
57.3547
60.3561
59.0827
47.2207
77.027
52.9598
59.6704
54.0381
51.5553
49.9817
55.4774
52.2659
47.0148
54.076
58.2846
61.7501
48.3857
53.055
56.0596
57.4975
56.5597
56.8131
54.8625
63.5761
56.4868
52.8313
48.0941
100.054
57.3627
60.3747
56.4295
54.4433
56.5443
56.1749
54.4071
55.9092
55.4692
58.7524
55.8503
64.7683
57.6788
51.7105
63.4654
55.486
67.0444
54.2369
58.0743
49.6502
53.3043
48.4113
49.1031
53.576
55.0038
51.0735
60.1968
53.609
54.2859
55.089
57.1147
57.6084
59.6808
56.4334
48.5264
46.2742
48.3168
69.7229
49.6848
57.1598
60.3599
49.9326
51.1948
49.94
61.8827
59.8654
50.7249
58.595
64.0415
51.5935
54.8788
59.0008
57.983
57.2511
49.1307
53.0147
51.4574
54.8527
45.7403
53.5433
48.1565
49.6469
61.8604
61.7201
54.7081
52.4223
60.6082
52.7713
54.3421
53.6021
54.0377
52.7546
57.4058
53.5891
61.5271
56.0572
54.7388
51.4669
53.8387
61.1413
51.316
49.1326
49.9586
50.2528
59.0546
57.0359
61.5043
51.8911
55.0958
56.6991
52.9671
57.3909
64.6331
59.2878
55.392
57.7691
50.5999
65.8168
49.7285
51.7363
53.3622
54.5214
49.2694
66.1887
52.1786
49.0284
49.846
62.5544
56.3368
48.4453
50.5711
53.5
53.8742
57.057
70.4977
53.9906
55.9288
50.0537
70.8837
59.6218
54.4191
50.603
55.223
56.1978
49.313
49.839
61.567
54.9647
54.6323
56.527
48.8598
59.5735
59.9646
52.3084
49.8674
55.0225
53.6003
56.2974
57.3355
50.5152
48.9159
51.5847
57.7338
59.2782
60.6548
56.788
55.1001
59.3665
53.9682
66.7564
50.3686
49.8568
58.0538
46.781
52.5383
45.5899
59.2218
54.3434
54.035
63.9261
51.2606
59.284
46.5262
45.1478
75.221
55.2464
58.653
57.7183
61.5699
49.5307
59.4944
53.8341
53.9078
61.9334
53.5068
58.5275
51.7411
47.8979
53.3364
94.7401
51.2198
58.3022
51.8405
49.7069
62.9994
51.3132
57.0288
68.1461
59.0407
53.4777
51.5254
53.6581
57.7325
59.7683
54.3226
54.748
48.0878
54.9651
64.9432
45.6666
50.8537
53.5017
56.707
50.2381
68.3221
53.2237
55.3002
55.071
50.7552
52.8533
54.4521
55.8899
53.6076
57.3383
49.4714
54.9298
49.709
52.3984
48.3203
51.6627
57.2111
52.9861
52.6219
57.4554
56.7345
65.8812
67.7328
51.7098
63.54
51.7556
56.9228
64.6168
49.9929
56.8438
54.8294
56.2583
53.5743
74.5995
49.9132
53.6621
61.5511
58.9177
57.6487
55.5029
52.5391
54.8597
55.6
58.4733
49.511
52.7292
49.0559
56.092
64.959
54.3076
49.7921
46.0031
56.6109
72.3628
47.598
47.5158
50.5887
54.4689
57.0153
58.2884
57.7888
49.5108
53.4737
45.7634
53.3217
59.8066
43.7037
59.8306
53.5383
47.0563
48.6427
55.403
53.72
58.2553
59.1889
49.4558
76.1847
52.6282
57.5427
61.1412
53.8593
57.9628
60.4917
52.4668
57.0816
52.7494
49.0235
52.2746
53.3425
47.0917
66.8185
55.2686
46.2687
51.6343
49.5342
56.3053
66.2744
54.3175
62.2554
58.2112
58.053
55.9136
50.8299
59.0357
53.3162
48.3625
50.6491
50.7903
62.809
53.8138
60.0894
53.8901
51.2341
52.7267
53.0034
54.2631
52.5932
54.3624
50.0298
64.4793
60.4252
51.7509
55.0855
56.8026
55.586
50.5417
52.7199
55.5273
57.2352
48.788
56.1503
61.2063
47.7538
53.9293
50.0445
64.0606
52.1
52.637
57.7978
60.5316
52.9916
59.6965
54.9697
57.9092
63.4578
54.2487
56.8076
46.5664
57.3463
57.1808
59.4658
61.2175
49.0979
55.33
46.0295
57.8603
56.283
55.5363
54.4719
54.6524
51.8901
61.8645
52.5025
62.681
50.1057
55.6681
56.5026
57.9312
49.26
49.0922
52.2334
50.1005
61.145
53.1142
66.6203
49.3548
56.0018
47.4529
49.4156
54.0473
60.1054
50.7873
49.8796
55.9298
55.1238
57.8428
51.0794
55.1102
51.9467
62.2801
52.7057
56.6653
53.1055
65.4203
48.1999
55.3507
52.5658
55.9908
55.7316
51.1751
60.2638
53.7251
51.6834
47.4668
65.7729
58.6487
56.4091
58.1025
50.2217
52.5427
52.2678
58.5348
53.007
56.2167
50.5663
54.2666
51.5116
53.3197
46.5872
56.0718
52.1167
54.2777
63.6148
53.4744
50.0624
54.5486
50.6327
55.0641
56.0691
53.7838
54.1313
55.7801
76.674
47.3821
51.7739
55.4891
48.1585
63.1134
58.192
52.7369
56.3396
54.3145
58.9798
55.0218
55.755
53.646
60.8148
53.9253
49.5263
50.5653
48.9359
56.4971
52.3736
48.5381
55.4408
56.3359
50.8323
54.4408
55.0669
59.2159
44.0498
54.8879
52.8098
56.0906
58.1433
50.7943
55.1462
51.4642
50.7917
67.9891
57.123
68.6116
57.9558
53.089
52.3996
53.9655
64.2727
49.1719
59.3075
60.4729
57.6711
54.4474
61.1097
51.6862
63.3374
53.6279
55.5403
54.5669
53.4755
56.3373
63.7351
62.1849
53.6068
51.0557
61.5624
51.6464
53.8071
53.0384
53.0663
59.9872
60.6749
49.7059
50.519
44.4479
52.0639
58.1684
72.6967
63.4527
53.5183
58.8991
47.4485
55.3847
54.1919
57.5359
58.2239
46.7125
60.4175
54.3496
51.169
44.9156
54.0198
56.385
49.2848
57.7893
61.339
48.8613
51.4711
56.4879
53.8764
51.9411
49.2315
50.0624
59.0735
60.282
56.7299
48.9182
60.2258
42.9975
52.7599
52.3714
57.5484
50.9598
55.0708
61.0449
46.7193
51.3844
55.857
49.5293
60.4715
52.6678
60.3535
61.7095
56.8819
61.7178
54.9939
47.3167
54.3225
56.7089
57.759
57.5111
58.3453
63.9646
51.5616
56.0262
64.7216
58.4133
66.8097
51.4628
53.9371
58.1078
52.8006
58.3269
49.429
55.4002
56.0102
62.1024
50.8843
63.4848
53.016
76.8822
46.9313
46.5438
53.8847
57.017
54.8792
62.0733
61.2363
49.0482
66.5032
55.5229
55.9223
49.2426
53.1863
54.8136
59.8386
56.884
51.7351
54.606
57.4931
54.4837
50.6741
58.3804
52.2228
58.9151
58.0396
54.8051
59.6219
47.2352
59.7176
55.3941
46.5281
51.8921
55.7234
55.5694
63.147
50.9519
49.6492
45.6785
59.3806
47.924
60.5616
55.2629
52.5075
58.3833
48.0183
50.2083
52.9989
52.6204
48.5398
52.5995
55.3541
60.9156
61.4859
52.1305
108.928
54.3044
59.8536
59.1132
64.2714
59.3353
58.4561
54.1856
59.1978
56.7027
52.984
55.6575
48.3185
54.6828
49.4823
47.4529
62.2919
59.5222
59.4067
55.5853
63.4377
52.0797
48.0902
51.7547
53.9351
57.6643
58.7972
48.8252
50.5649
60.4988
46.6113
53.0716
52.5353
54.6255
51.0349
53.5808
54.8662
49.4998
52.9948
51.2038
57.3466
63.2391
61.043
60.528
54.0076
54.9565
55.043
48.4011
55.8173
51.8685
58.1018
59.136
54.2249
55.0472
54.0551
57.0795
56.7613
64.4836
66.8989
60.5461
49.187
54.1625
56.9417
50.87
55.8701
62.8335
50.1739
53.9465
49.6661
55.9471
51.2817
56.969
54.1301
49.8785
53.9878
45.9426
56.939
50.9337
56.6214
51.2748
54.9909
54.7173
53.4628
52.3323
50.6092
58.585
52.9512
56.9881
54.5685
55.4315
51.1937
54.9119
50.9953
61.1962
52.7691
53.9931
60.8861
61.1328
55.3308
64.5981
51.5651
58.4764
53.3917
53.0145
47.1823
52.7924
49.2733
56.2892
57.5671
58.8059
52.6752
65.7591
51.5481
54.0245
51.5655
64.0352
57.2344
54.9384
55.0828
50.1719
51.2172
65.0327
79.1228
47.2026
54.5002
65.812
56.8853
55.1222
65.5288
61.478
57.0549
62.7415
47.7617
52.0981
54.1396
59.881
50.0496
55.742
55.0623
55.5997
53.5355
55.6269
45.4786
62.9222
56.4632
51.607
58.8799
59.8964
46.5732
51.8574
55.566
55.6911
49.9128
54.112
57.299
58.5141
65.4671
52.4205
52.0024
60.1072
55.9786
48.4177
50.7214
46.7932
50.1033
50.4906
52.9079
53.6841
52.5093
51.4969
59.2768
49.9192
57.9007
62.5846
68.2682
51.6061
49.7001
55.8059
56.4599
47.2583
53.7323
62.9583
62.8828
49.2647
53.9223
55.1191
51.5468
52.7226
49.4084
62.8352
62.1313
48.6087
48.4309
58.5213
60.0203
60.8496
49.0346
53.9013
60.9502
57.6896
57.8709
48.8829
59.8575
57.8756
58.8232
59.8287
49.9354
49.5273
50.5083
57.793
56.8675
56.7089
50.8722
54.4809
50.3038
48.4154
62.7028
52.9418
50.4427
57.1564
54.9966
56.0313
62.0693
59.7325
54.9687
66.0748
50.3053
47.997
54.4589
62.0936
55.5491
63.8519
50.0366
55.3609
50.0129
57.6795
50.8011
52.9329
58.2591
56.2379
46.3728
48.7748
47.1283
54.1981
47.4224
45.918
55.3431
52.3899
56.6184
57.9787
62.556
50.7501
58.8275
66.8608
56.8686
55.9978
58.3212
54.4555
59.664
57.2017
55.8153
46.3497
57.4219
51.3834
51.5135
51.8123
55.3085
57.8466
52.7023
55.7306
57.5866
55.5097
59.6039
52.849
59.5823
49.907
52.312
56.0459
52.5788
59.1343
50.0945
52.4306
59.7176
65.5407
56.0926
57.1502
57.1476
81.1768
54.6872
52.8043
60.3803
58.0856
54.7633
54.13
53.5755
54.673
50.0006
47.6287
60.7684
56.4171
57.7574
59.7344
55.4278
59.3875
48.2263
60.7018
45.2321
53.7966
51.8803
60.302
58.3053
52.3456
50.1458
58.6939
49.4713
57.5909
60.6892
51.2595
54.1152
58.4749
51.4528
52.6246
55.5814
47.2198
62.6425
51.8354
55.0621
46.8934
53.2216
54.3092
59.5496
52.5356
64.7498
54.972
61.4657
46.1997
58.4385
54.8744
56.7294
63.492
59.4033
63.5081
55.0545
55.7327
50.2492
55.2366
48.5694
50.9598
49.8009
53.5508
49.5892
63.3356
56.1669
57.9261
52.7399
55.4712
47.3585
52.5727
45.7122
52.4465
65.1141
53.8974
53.8839
54.3426
51.3788
47.669
56.4032
67.7962
54.4166
64.522
47.126
50.2075
51.1556
54.3077
50.0301
49.3788
59.1246
56.5124
53.8495
60.3902
51.9951
51.9982
51.9509
54.4596
48.4886
51.3386
53.8314
53.3458
54.4635
49.4142
51.3569
58.0659
52.4091
59.9335
53.0188
52.8469
56.1286
68.456
53.6738
58.425
63.556
63.8857
57.6758
51.843
59.5853
49.7159
59.7151
54.7927
61.3795
57.5686
60.7065
54.4762
54.7132
52.2209
51.8657
56.7825
70.2128
53.6906
58.116
51.1457
54.4064
50.1665
53.58
58.5605
51.7894
52.4454
65.1186
58.0686
54.8264
47.7497
49.5505
55.8254
55.4971
51.0275
51.3735
51.2046
65.3838
52.7474
50.3368
46.5098
65.444
46.7896
51.2964
52.875
58.3576
52.4099
53.8996
51.8387
47.434
50.1594
68.5587
52.487
49.8351
61.447
58.1067
49.2379
50.9956
52.6574
48.1519
53.4184
73.2143
59.4192
61.9672
51.1843
54.0681
48.1375
58.1549
51.8671
51.6584
57.3522
54.5287
53.1547
51.626
57.0451
50.5321
49.2039
61.1888
50.0366
54.0932
52.7833
54.2967
56.4369
55.1446
76.0966
53.4006
53.5986
56.4839
57.9722
65.342
54.8233
59.8423
52.9221
53.6253
51.3941
71.0232
56.0918
52.0145
51.5042
57.6586
59.5766
52.3268
54.6537
51.6423
49.86
56.3663
55.628
53.8853
56.4233
61.7877
55.9533
58.3388
57.4608
52.5879
57.8873
58.2855
57.8354
64.6017
61.4438
56.7957
59.9093
58.7491
52.2606
52.8865
55.6646
61.9419
51.2964
70.6586
50.7823
53.683
63.1314
59.5845
50.2027
56.5548
52.3133
53.6492
49.1931
54.0987
59.354
59.8801
90.3726
56.9111
58.1969
54.9339
61.0392
60.8979
62.2459
56.426
57.8309
71.5948
48.1581
50.9981
63.6567
42.5728
50.8826
51.2888
50.2569
51.0288
46.1752
48.5978
56.3874
60.8589
49.1653
63.8337
57.8647
57.0833
56.9361
51.2538
49.1493
59.7195
62.555
53.6898
60.0208
53.9467
58.3371
53.5435
50.8563
59.0362
51.9974
53.8547
50.7414
59.9862
56.7639
59.6946
52.2479
55.665
54.6893
52.6395
52.2099
57.8297
50.762
52.1839
58.606
55.3094
48.8355
52.5517
55.9843
55.0762
50.1294
49.447
50.5089
60.5037
48.3263
53.0954
55.2669
58.0581
55.4284
46.634
56.132
58.6156
54.7303
54.5839
63.7504
52.3446
52.7737
68.367
55.0461
55.905
63.7975
54.8419
47.8405
52.4662
49.0919
60.7734
50.2334
56.756
58.5588
49.5071
52.6857
55.1803
56.809
71.9757
46.948
54.0232
53.6518
48.4431
45.4234
51.3312
47.5883
48.093
45.6212
56.5754
54.4708
57.7874
48.2843
57.7551
52.215
49.8625
59.2351
69.4042
53.7999
49.0323
50.9176
64.23
59.6143
50.9322
50.0993
58.0049
50.6246
53.6661
53.8357
53.5625
50.7899
58.988
54.7294
55.6398
54.5069
59.0657
58.6453
55.8608
46.3835
52.6678
47.7757
56.6105
57.2928
57.8247
55.1754
57.0811
54.8364
76.368
56.0715
51.9666
59.9502
52.1279
56.387
49.7525
50.8087
52.7817
60.6825
46.8906
62.451
57.8698
52.568
44.1907
51.4529
52.9826
49.1532
53.5221
53.283
55.2834
51.5487
52.0001
56.1652
53.3985
67.7407
48.9813
50.842
59.2677
47.0236
57.0818
56.5508
54.6121
53.2751
56.5617
55.9926
55.641
54.623
53.5748
66.0522
52.3589
47.1924
56.9231
47.6848
47.7605
53.3154
61.5836
52.8072
54.347
49.0708
53.3122
50.0966
60.957
65.5783
50.0166
47.37
51.705
53.5237
50.3368
52.8275
49.5657
61.8038
52.8523
45.4286
66.7072
54.7034
60.602
62.6749
57.671
59.8397
54.2999
52.6692
62.4624
53.6049
55.6101
53.5547
53.0652
59.166
55.0052
54.2683
58.2726
53.7378
54.1749
61.3747
50.4613
97.7748
72.3336
60.9822
53.2518
49.2633
54.6351
51.4942
55.4827
56.789
51.7354
46.698
54.5486
45.9727
58.8723
56.5639
49.8324
52.8793
51.4486
60.155
58.3971
70.7065
54.7068
50.4144
48.6824
55.3579
65.0856
60.9898
52.7735
56.7924
80.7515
64.587
54.5004
58.3673
50.7251
58.8283
52.8141
53.8302
51.0968
78.8202
48.753
52.7738
52.621
49.8267
49.0011
49.5041
57.0756
53.124
56.8131
56.0976
66.5423
74.7707
51.6205
56.7149
51.3812
60.1311
64.4339
63.3578
55.8627
54.3208
49.4747
68.9817
51.4027
62.1104
55.7957
59.6183
52.1426
56.3001
46.2092
53.5478
51.4608
54.9366
68.8446
58.6633
61.6472
53.6885
54.0733
51.6721
58.7457
49.6766
49.6121
56.7299
61.9044
52.1076
67.5443
59.2747
58.738
66.9928
58.2254
50.0256
52.6722
50.6098
62.8808
62.0048
49.3285
55.6207
57.5366
55.0166
57.8174
59.5365
65.9865
61.3692
54.2504
55.6694
47.4693
45.6692
52.0706
57.3757
49.9214
63.1641
50.659
51.8628
52.2913
53.2048
55.1189
52.9773
53.0017
49.8831
62.0714
53.8813
58.3357
57.3172
52.4908
51.5235
52.4977
49.2339
50.77
53.4941
61.0887
51.6849
55.5246
46.2748
49.894
54.8779
64.4881
54.1942
43.3253
54.1888
56.9794
52.9385
51.4781
48.9772
53.776
69.8905
61.3848
53.671
49.1737
66.109
55.7743
59.5554
54.7669
61.0973
54.0892
61.3577
52.8776
53.9075
51.1577
46.5988
50.7183
61.8394
67.5895
61.6069
56.6958
56.3575
48.3602
49.5406
66.3143
50.7501
51.4775
54.8554
59.8168
48.0556
49.9431
54.5314
62.5016
47.0992
66.757
61.6562
52.5964
54.3715
66.3556
69.0601
61.2128
54.1655
54.9866
47.79
53.1281
49.0172
53.4843
55.2651
57.0648
53.7513
57.5123
50.1262
56.1774
73.7253
51.3892
51.9856
57.2138
60.9182
58.4796
50.5416
47.8887
55.0604
56.6252
50.3129
50.4056
58.287
54.7345
56.3026
48.6873
52.2366
56.8129
57.6582
50.8631
55.8842
53.4442
58.8015
48.4698
51.3412
54.308
55.9599
59.9638
58.4395
60.0757
65.7111
48.551
63.1806
43.8908
56.2067
53.4053
51.6584
58.7864
51.6644
54.9624
48.6521
57.3608
58.6947
55.7273
52.3823
51.1049
60.553
51.371
58.0354
59.0403
51.3796
56.8019
58.1398
53.6958
56.5721
58.552
49.9424
49.1298
53.0059
64.9146
52.3787
58.1032
54.9346
55.4946
50.7125
52.8929
54.873
58.5855
56.1544
47.5289
47.9448
48.6467
53.194
47.8078
50.2238
49.6029
53.9779
48.6209
50.0511
50.3418
61.0143
57.882
49.5733
53.2
59.4512
53.7397
63.3267
58.0439
49.3884
51.1278
57.1592
53.7195
67.7463
54.6705
52.7146
59.0871
54.3691
58.8029
58.7582
50.7759
57.1142
51.7585
58.2124
54.2499
53.6439
57.0933
49.1529
53.6886
54.9504
59.3959
53.3612
50.2147
49.2854
57.7927
57.7237
54.3577
60.0592
57.9279
58.7594
52.271
60.518
55.5449
49.8506
53.3655
53.2385
56.7612
56.8069
65.6478
65.1423
56.6193
61.0524
62.5945
65.4055
52.5001
77.7382
69.233
47.289
94.4401
55.3235
61.5659
51.717
63.0769
51.3657
59.4999
45.9656
50.7492
48.8422
56.9982
56.4323
57.072
52.6207
50.2421
51.0548
53.3295
54.4812
54.247
50.7865
55.6709
48.4679
56.0173
55.2648
49.2137
60.8063
61.7996
57.3634
57.4393
56.4305
52.1114
53.1806
50.1259
47.347
57.4505
49.9123
52.3591
57.0398
56.5234
54.4146
51.0403
48.5179
45.9651
47.6326
78.6204
48.9659
55.9591
58.4066
53.0751
50.6742
58.7248
58.1702
60.4296
55.3233
49.6464
63.5074
50.7618
57.6096
49.7109
52.6566
52.5723
57.6447
48.4874
53.032
51.0814
54.6214
50.8046
49.2749
55.1815
47.9617
56.5351
61.0465
51.1434
64.088
49.7799
49.7302
48.5081
51.9974
58.5903
53.7844
59.4477
50.2422
57.0362
62.3713
50.7505
55.6499
68.9101
61.6016
47.1487
59.3593
48.9303
56.8132
59.9431
60.7275
74.4461
55.4303
59.9326
61.6585
55.8585
47.7252
63.932
53.7733
54.1024
50.4682
47.7706
52.9823
56.6747
55.4604
51.376
49.4147
66.3248
55.2219
56.6563
51.8845
51.9231
51.5671
52.902
54.1725
55.2442
55.4477
53.0511
53.2494
54.4135
54.7756
50.947
56.6185
52.2
48.733
52.3939
56.6324
57.6316
56.6446
57.0641
46.8781
50.204
56.4011
53.0992
54.7199
64.6409
51.2209
49.128
53.2098
81.039
54.2311
67.0559
50.3672
54.5945
59.2061
53.7862
52.6781
50.5497
53.8615
58.7104
50.9147
52.9835
56.2965
72.4439
64.3951
49.7337
66.6871
57.8404
67.9005
54.1234
54.0512
50.7711
55.2774
58.5188
54.5949
51.6118
46.6479
54.2207
55.5091
52.362
78.3027
68.591
50.6122
47.0176
56.604
52.0004
50.4788
57.1146
49.8103
52.5202
58.3593
63.3001
56.5166
55.4272
75.126
58.2528
59.1334
55.4742
55.853
57.4714
51.1395
54.2302
52.3172
48.6619
51.9726
47.2684
49.1756
58.1337
51.5263
53.2229
51.1748
57.5984
57.4181
51.5672
63.7996
54.8844
70.3349
57.1898
54.0986
57.6654
50.7778
50.4217
47.0535
48.749
51.1982
51.6503
55.5666
50.7374
52.3112
60.9473
55.6281
63.1023
57.1608
73.1244
48.2907
52.1677
58.6314
56.3021
56.8582
61.7994
54.0415
54.464
59.2817
58.2326
53.1939
60.1834
54.1402
57.6945
54.1767
62.267
49.6799
52.3292
52.7252
59.6721
49.1858
49.8393
55.0292
52.0344
55.1169
55.5753
47.4011
59.0142
50.3547
52.4832
48.8867
49.8967
58.7242
55.7981
53.4098
59.4102
53.1289
47.7303
52.6596
51.1853
56.2228
52.3337
50.692
63.1427
54.7411
51.8269
66.2071
53.2524
53.8975
66.375
49.8612
51.6948
58.3711
51.9904
51.2222
56.3487
53.9395
53.0532
57.7167
53.194
45.5166
50.1961
56.702
52.8373
56.5563
63.3831
49.8266
52.3847
49.9469
56.1555
53.8125
47.8855
56.3861
57.073
53.767
53.6636
58.404
50.3519
53.3637
52.9444
51.2053
62.4795
53.8121
51.8992
48.2056
54.5275
52.5604
62.9885
69.8273
57.6558
44.8695
47.0185
52.2458
50.0517
45.4226
55.5315
56.4514
46.0299
72.4476
64.12
52.3885
50.2152
52.2743
53.6537
65.6969
48.8962
56.5758
53.0871
61.3044
57.8618
56.6913
50.2909
51.9484
54.2432
50.6248
53.949
50.172
61.4247
53.775
50.6469
54.8034
66.0835
66.838
52.2708
51.5553
56.479
56.0202
47.1562
57.5372
52.2168
82.8442
53.4506
47.5896
50.5637
48.9309
48.8001
57.9449
58.6794
52.0587
51.9115
58.822
53.2157
57.5684
54.4809
56.3266
59.8755
60.348
54.5504
56.9683
51.7617
52.3462
55.9606
51.0096
54.9985
58.7416
54.6358
66.6589
51.185
64.7202
53.157
61.0502
59.4964
58.547
49.9024
53.5608
50.7778
55.1796
57.5665
47.1791
58.0537
45.7541
55.9697
52.9497
55.6578
58.7447
61.5776
74.311
51.2269
51.5302
55.7182
53.4578
59.6305
53.2276
55.0315
53.261
52.8193
59.6787
62.3536
51.1406
52.1135
55.3618
59.6923
54.7539
72.7222
56.5896
46.9582
61.1499
47.5178
62.8843
51.5164
51.4602
48.5317
48.6788
59.2307
58.1464
70.5946
61.1695
51.6184
53.9241
63.2966
45.6538
52.8471
48.7285
54.9188
61.2132
52.9639
53.3787
56.7865
53.7387
55.5052
50.9777
59.8235
53.1235
60.0829
48.8195
59.9251
64.0772
54.1991
55.6812
53.2462
50.7645
52.7599
56.9924
56.6477
58.5002
49.0347
46.9546
56.6594
63.0546
63.8881
52.2956
55.0501
61.4732
49.4122
50.9886
57.2749
52.4775
63.5268
55.0177
50.2845
61.0478
46.5427
58.8265
55.784
57.8537
54.8173
49.6007
54.2706
53.427
50.1633
59.1123
62.5846
51.6788
56.207
46.3497
53.5292
48.7469
54.9337
66.4747
59.382
55.1324
48.2055
69.585
60.2101
52.6254
55.3276
61.0625
59.6169
55.5525
45.5104
60.105
60.1964
60.9975
51.6613
47.1575
59.9221
57.4621
50.8813
52.9656
49.8577
50.4247
52.6863
56.9932
59.0294
53.0402
60.6125
61.3926
54.1619
56.339
53.8176
55.9325
52.8522
79.3033
60.0607
50.9415
67.5165
59.5551
52.8993
51.9231
57.3296
53.703
60.7888
52.8064
60.5705
54.7162
54.6978
54.2588
59.4286
49.8772
51.3012
52.69
60.0748
74.6675
51.1776
48.9245
60.5332
52.7435
57.3577
57.1809
49.5177
53.0166
55.2491
50.2959
65.0695
51.6974
59.0556
60.7742
50.5324
53.763
54.868
70.0798
60.8537
49.0456
55.351
55.2412
47.7481
66.4327
53.9455
58.695
63.3381
76.4362
60.2298
59.4046
59.6985
68.0704
49.5569
55.6135
51.2319
56.6569
52.7148
47.7912
51.4046
58.4025
48.4482
54.877
48.6463
57.8177
51.0697
62.5283
59.5519
68.8619
55.3363
52.6287
51.04
62.7438
55.8471
51.4512
49.6197
57.0304
55.3131
51.8718
50.4206
50.3567
56.5345
51.6658
52.162
53.1279
62.2249
55.9799
46.9221
64.9599
60.0254
49.6564
49.6741
60.5638
58.7031
55.6897
54.6831
52.7914
59.2572
60.2016
53.1318
57.9721
50.8037
50.7845
62.7976
58.3106
53.0839
52.0431
58.2088
53.8213
58.0792
49.909
50.9707
53.3239
53.4358
60.1809
61.1065
54.2473
47.7556
53.9036
50.24
51.7413
49.1841
67.0765
55.3531
51.8131
49.6746
53.2113
78.2567
61.1444
48.3412
52.7859
50.285
70.9468
56.9827
56.3597
50.007
51.7759
58.8608
54.3141
56.8393
59.2031
54.622
59.2614
56.9292
54.2049
49.3167
67.5095
52.241
56.1769
54.904
51.7708
56.5812
68.1906
62.7354
64.572
50.2072
50.923
61.0756
54.3818
51.7038
61.1407
56.5038
55.9566
53.2685
54.1957
54.7899
56.2501
62.3314
57.3839
48.5382
50.5748
54.763
51.5765
55.515
56.1763
57.2386
47.432
75.0239
51.9538
71.9492
61.0928
53.9836
69.5468
49.633
57.7758
58.1039
53.3273
71.0032
66.1295
50.445
53.3136
53.1268
47.1283
57.3837
49.2085
58.5925
51.5301
59.1679
61.6043
54.0693
56.1042
49.4453
47.9531
56.0064
61.6883
61.1474
59.0025
53.485
64.5248
49.0723
62.8508
52.415
59.2057
54.3455
54.9284
65.563
63.2563
57.9557
52.3588
50.6341
51.3082
50.5594
46.0587
52.8353
54.6184
62.9478
51.909
53.8417
61.1156
53.9597
53.742
53.1085
59.2855
58.5365
57.5659
56.6292
54.8959
53.5827
61.208
59.9821
58.4016
59.114
53.819
55.0337
53.7359
50.2543
58.9361
48.05
49.6458
48.4482
51.261
73.1042
51.8376
54.6462
57.4207
48.5369
56.1374
54.6547
57.8462
48.3372
61.7565
50.5056
55.0437
55.0989
57.8841
53.829
56.5722
59.4914
59.2191
54.8471
63.0125
55.3292
53.1939
51.1439
58.8311
58.1497
50.6887
57.4018
55.7957
55.6963
48.2439
52.273
57.018
55.5464
54.0913
55.7477
71.2171
52.3975
50.0532
55.056
50.3325
61.0387
54.1139
57.7941
58.697
52.5384
72.7663
51.3793
54.7975
67.6522
56.8058
55.8153
68.7354
54.3723
54.0164
56.1097
61.258
58.3214
58.0309
53.1818
52.7767
52.1782
51.8687
59.649
51.5433
50.25
48.5439
64.8632
53.0024
51.1817
53.8459
56.2369
62.2242
63.7467
56.4789
51.073
54.0006
56.106
50.1378
51.2087
54.8408
48.7716
57.1659
50.8762
54.4887
84.1971
50.9029
51.4668
85.7663
50.8817
49.8314
52.1701
57.8246
55.8752
52.6752
55.1567
50.0178
54.0006
59.3785
60.7536
52.3707
53.9737
50.2615
53.2713
56.1002
52.5352
62.6826
59.9773
52.5703
58.1259
53.7956
57.9226
52.4957
52.0612
60.1427
51.9202
58.7141
55.5968
57.1108
61.0446
60.4517
57.9839
52.4288
55.4568
62.3309
51.3235
50.951
54.1619
54.9979
50.9532
62.3371
50.1872
50.7853
52.8922
51.3112
48.1394
54.2147
60.6177
53.2747
56.2393
62.1746
56.0402
70.3954
68.9137
49.8468
52.9024
52.169
53.048
61.6315
48.7739
57.6298
55.7221
52.908
55.7083
61.7587
57.0217
54.291
58.7976
62.0629
63.5938
50.0343
52.2528
56.7297
60.2141
63.2947
54.9203
55.2962
60.2084
45.0683
54.5766
64.6082
58.2137
46.8929
52.0301
58.7518
60.3372
54.3225
54.7091
59.5375
60.9595
51.1305
55.9057
61.7184
61.247
63.8707
57.0389
56.6841
52.939
52.0022
50.5339
55.7189
55.0851
47.322
52.2487
60.2983
46.3713
48.3499
56.423
48.9749
51.4603
58.5541
47.9268
55.8119
75.8897
55.5372
58.8794
50.4069
47.6773
52.105
63.6649
50.2869
47.9501
54.8404
55.0366
49.5148
50.0777
50.5918
61.0661
62.2165
49.0028
70.1545
66.6954
49.6169
48.6553
54.9814
49.7542
49.3502
53.2379
56.6472
51.4987
51.8756
48.8513
50.3605
55.741
45.9674
57.9742
58.3309
48.2743
57.2534
58.748
60.6646
53.4924
57.6179
51.6697
59.3527
49.6876
53.6138
53.0778
54.9236
63.653
58.4263
56.919
47.1188
45.9996
57.9362
51.0213
70.1521
49.2526
56.7876
48.6192
52.5871
52.0704
47.4246
59.8093
49.0643
53.8592
49.2791
53.3924
65.3218
67.7937
51.5336
49.6329
64.8039
57.0514
52.3735
54.3529
53.6028
60.521
60.7413
59.4187
85.07
52.9568
63.462
49.864
51.7081
60.5845
53.6029
62.6449
53.2303
68.2029
50.3424
61.7503
48.6944
49.4679
52.6046
49.8169
66.9806
57.0287
57.5201
60.3405
52.6284
51.3428
48.5582
47.9396
62.4842
57.9386
64.7783
63.1099
52.4719
56.1867
54.5185
50.4475
51.7732
52.5381
58.7994
53.8065
51.5967
54.8662
60.8993
52.1894
53.3314
55.5873
52.1808
51.3947
50.6451
58.7568
51.4999
55.3883
59.8833
50.8519
57.7395
58.0728
57.3074
50.242
54.1155
52.3338
49.9324
53.9559
52.5345
50.1828
46.7889
50.0115
53.0495
52.1961
56.7641
52.8001
56.3397
54.7806
53.0704
55.1952
51.2623
53.6548
57.5716
53.9153
55.2729
51.8984
70.566
48.8752
49.0163
60.0554
49.2055
63
53.9442
70.3835
53.4048
56.5205
64.4605
61.5044
68.981
52.3987
52.5663
58.0598
54.0238
48.5295
65.0864
64.3101
56.3022
50.8012
55.2058
63.0729
49.9159
56.3875
44.9214
54.6032
53.2626
56.3722
53.2903
47.9885
56.3393
65.3094
58.0874
57.7398
52.1057
67.8637
59.8353
68.2622
53.5398
51.9715
57.9364
55.8907
59.6195
53.2089
54.5392
70.9842
49.5046
71.1265
56.4619
55.6163
52.8592
62.8324
52.4307
71.8948
54.1562
53.7261
53.7822
64.365
51.0619
52.6236
49.2793
56.1535
53.7737
56.7833
49.0316
53.2332
63.0489
73.9261
55.1925
57.5956
56.3126
58.0436
52.5813
52.3311
55.148
47.9488
51.5407
55.1868
51.1654
62.5697
60.1512
56.2288
50.3081
50.8751
53.7615
55.4253
54.6968
52.7738
50.2657
61.8491
50.9978
54.4658
57.825
49.8861
49.4518
53.5116
66.4354
57.279
52.0735
55.5755
64.3342
48.7819
58.1714
49.7996
52.757
52.9084
55.2279
63.8094
50.5097
55.3008
57.2649
50.572
47.8347
64.2065
55.2758
46.2314
51.2205
61.3887
50.9928
51.9969
54.7554
57.4223
48.1284
54.9098
54.7766
52.1079
54.6864
53.7825
56.182
59.6698
50.6432
53.4529
52.364
47.6423
52.5123
54.9076
49.7135
53.9995
46.2831
52.8482
59.4114
51.6318
57.8867
61.7247
56.5033
49.9004
57.8368
58.0785
61.3326
50.3214
50.4634
54.0692
53.5347
48.3991
52.118
56.2485
59.4075
48.189
51.7268
57.0176
47.2362
51.8239
51.178
51.1078
58.1741
50.7806
54.0155
53.2895
58.9754
56.5041
49.7268
52.0738
57.1581
48.9315
49.2266
49.3027
57.4891
52.2983
52.2776
57.6141
58.4159
53.238
51.8291
51.6847
65.7405
60.9593
52.9961
66.2927
54.3008
51.1806
51.7484
55.431
56.7926
54.2336
46.0487
52.9811
58.5942
51.9637
53.9508
52.2073
50.0033
57.4639
49.4534
57.3443
47.8853
51.8368
53.1818
56.1305
56.0056
52.276
51.5378
57.5302
53.0568
60.0553
53.4466
61.8099
54.9135
48.6059
47.2568
54.7755
50.9587
59.2045
59.0159
57.1345
53.7162
54.0499
45.7107
53.8949
56.6934
59.4274
49.5148
65.9579
55.2585
60.3692
56.7871
65.2224
50.2854
69.3585
50.93
65.4406
58.8468
45.024
66.881
51.0232
67.6482
68.7525
51.2454
50.6132
53.9026
52.4912
51.1712
50.1225
42.7423
52.2384
51.9805
59.3834
49.2728
47.4849
51.961
54.1171
54.6016
57.3421
52.8776
55.5438
53.6293
49.9553
48.992
60.8415
61.9533
56.5465
50.0752
73.9589
50.0996
51.1643
64.9253
54.1562
48.0897
54.9259
48.5875
48.7831
60.8679
47.634
58.9408
59.6348
54.5125
53.2705
64.4512
67.6318
60.4206
66.1662
62.8019
60.8313
58.0687
52.1133
48.9804
44.3384
67.4034
59.4399
68.4875
54.8443
58.9468
55.781
60.2625
57.3394
53.8216
58.7691
62.3145
48.6804
54.2123
47.8672
53.7659
48.0616
56.723
54.0165
48.4819
57.7408
56.7087
53.6976
52.1694
47.8198
54.0111
62.3453
64.5341
46.6957
53.8711
53.4806
56.3156
64.0339
63.6614
49.6684
51.3916
46.7394
50.1923
57.9556
56.4085
53.909
53.6429
53.582
52.4197
53.8155
66.5024
53.8124
57.8262
54.6104
61.8484
53.3309
54.26
60.1772
53.9522
58.5618
56.5264
52.1991
51.875
49.4681
59.1251
60.4546
62.7375
55.9281
47.8746
56.4113
51.3937
57.7551
63.571
49.0771
54.2997
55.6447
55.7007
49.1184
55.0106
57.0484
61.156
56.1487
50.4654
63.5434
52.686
48.4507
53.175
57.7282
56.5603
67.7686
55.46
57.2276
55.4132
51.6358
53.6839
49.3044
47.8995
61.2591
52.9267
58.1707
54.697
58.0358
61.3069
56.1463
69.615
52.1725
59.932
58.6292
51.6025
45.2933
53.9353
53.5916
54.9345
58.6698
52.7105
50.2333
64.1499
44.8239
54.3445
49.9227
56.091
51.082
57.6837
52.2825
57.6767
50.7311
54.7708
48.7951
50.0165
47.9655
57.0121
51.8831
57.7623
57.2268
51.0808
61.7559
58.7703
48.9946
53.6731
62.01
54.0679
53.5448
52.3548
53.737
55.9263
57.5227
60.3842
65.7112
54.6244
51.6545
54.6476
71.5669
56.4709
48.4819
53.0924
54.9883
52.0566
54.363
55.2213
51.9898
58.3757
47.0753
52.8242
63.8962
54.9499
49.9102
57.0479
54.1372
53.5299
52.2062
61.0924
54.2507
68.11
51.1991
51.9322
50.3537
63.0361
58.5885
52.1398
56.9053
52.7476
55.9256
63.9999
53.9532
53.4663
54.3464
53.7163
55.5142
52.1898
52.1976
53.3735
59.1705
50.7216
60.3428
54.4972
57.6273
53.0005
48.7755
56.9027
52.539
54.4996
49.0449
56.0204
49.8131
50.6086
56.2805
63.2401
55.883
51.8969
58.1729
50.2029
55.1906
52.2297
44.2659
59.3243
54.5479
64.0842
53.6153
55.2272
58.8735
58.636
60.4172
57.4726
60.175
55.7077
52.506
61.8995
48.2558
47.2003
52.188
55.8395
50.5282
62.4631
57.456
58.6773
55.3419
51.2167
54.6367
59.6405
47.7621
45.2905
58.4
53.4973
49.6381
56.4157
49.2349
54.4408
47.2437
54.1717
63.6397
52.7319
54.6598
73.6115
54.7716
48.4222
53.0089
51.5912
54.9429
50.8163
65.5754
49.155
79.5536
64.1236
58.4396
67.3526
43.9949
55.2386
57.8599
52.1735
45.4227
58.2289
67.3441
56.6025
60.893
57.7023
75.5353
49.3541
54.7021
60.1271
54.1237
57.5328
58.8396
59.0415
56.2587
55.2212
50.6836
63.0011
53.9837
53.7203
52.6092
49.1754
49.3245
67.2274
58.5093
51.3867
50.0308
44.2466
58.7819
55.4298
46.2431
49.734
52.9818
53.883
55.1304
46.6352
50.6627
48.1744
50.678
53.1295
52.1648
57.4454
52.4623
53.2699
52.7239
56.1751
58.0672
53.6059
77.2495
50.5138
45.7981
51.2624
53.3877
47.5391
55.771
58.0843
50.0735
54.8128
54.5922
55.4237
49.0448
53.55
48.6667
47.8656
53.9818
58.6277
66.4621
60.5462
60.9081
55.6348
49.2103
59.9541
57.9211
58.7252
49.0301
54.7363
57.3084
53.2247
55.2448
48.6952
49.5763
50.3566
50.2327
55.938
54.6536
59.9498
56.3554
54.2657
54.8801
57.1026
58.6309
53.3048
50.4464
54.4741
57.7135
52.1009
49.5638
49.8875
58.0812
60.3602
71.3343
47.2432
51.2191
55.5489
59.8748
46.2082
60.8056
56.1961
61.7527
51.9607
49.8275
55.4766
49.3307
59.3525
74.5591
57.6786
58.0766
54.4965
73.6897
46.9022
56.3676
59.3224
56.4711
48.2308
51.4094
59.1338
52.745
57.123
59.0026
51.6205
51.849
61.4623
59.7184
52.8685
53.8588
74.5819
62.0143
65.6161
62.6345
65.4521
58.4423
53.8415
72.4004
53.495
56.1253
52.3118
47.6151
57.8276
50.6886
57.8372
50.4224
60.116
55.4366
44.3049
52.8212
62.6373
57.7339
48.2688
51.6753
55.502
71.3061
57.8738
57.0394
52.027
48.2317
48.3455
53.466
61.1741
54.9155
53.4599
55.2461
54.5303
48.1936
62.8858
55.425
53.8872
60.6884
55.1658
50.1709
52.9895
52.4214
48.3322
48.1559
66.6817
50.2489
60.0838
62.2329
53.6728
67.1565
56.989
86.6266
56.0669
50.2507
47.023
47.9166
60.6314
56.3977
54.4193
52.3951
46.1032
54.7548
61.5316
50.3635
47.9922
57.8467
75.5844
56.0262
52.1778
50.6675
55.2651
57.0003
61.0567
54.7167
58.1217
67.5855
66.4371
58.6248
47.638
47.8931
48.8921
61.0421
53.4496
59.9602
50.5949
52.1443
53.3166
57.5781
51.6011
51.3441
56.3028
56.2399
52.6958
51.4951
53.6793
61.0779
52.299
55.1719
54.4572
55.7537
50.2249
56.0997
58.6217
50.1429
60.0113
53.9222
60.9543
56.277
52.4559
89.7689
53.2573
50.227
52.0658
54.7083
51.7729
49.5394
52.3269
55.928
46.6761
49.8013
71.8285
54.2442
54.6222
44.8062
54.0148
54.6674
64.72
58.594
50.5353
55.2081
53.7935
48.1833
51.1439
47.8953
56.7724
54.2124
53.0946
61.4097
67.8336
60.8714
55.1409
45.1141
50.9625
55.1081
55.6114
50.0335
48.5587
48.4222
65.6361
56.0283
51.0534
61.0762
53.7515
55.2127
57.1709
46.3437
56.9083
57.274
50.47
57.1072
53.3709
51.09
51.8587
48.4345
55.754
66.4301
44.5441
51.0375
55.7095
54.766
52.8619
64.6596
56.8287
54.0306
47.8285
53.9863
50.8997
62.4026
71.0412
56.3133
54.7571
49.8021
49.342
59.6495
64.749
52.7269
54.2632
60.5478
48.7525
52.9266
55.0088
54.2722
59.4791
51.2044
70.7017
50.3116
60.366
52.8544
54.9118
55.1587
67.8522
57.2134
58.5262
59.002
48.2565
54.8093
57.8978
63.5024
51.432
47.1218
63.2461
61.7753
56.8283
48.4907
53.1319
50.309
61.2844
50.297
54.0241
54.1732
60.6384
54.1974
52.2386
50.1628
51.6514
68.2076
67.2029
57.7268
54.6929
51.1732
58.2736
54.8082
56.6914
48.254
61.7652
55.9272
56.0385
59.4329
52.6092
55.4695
70.7752
48.587
50.7127
48.7481
48.4213
51.5231
55.6765
64.0058
52.9244
49.8963
58.4471
50.4565
54.8284
49.4898
49.2784
61.387
52.8956
57.5073
60.4338
51.6497
51.2424
66.0114
54.5386
59.5584
56.9089
46.8024
54.915
48.2643
48.5407
59.2964
53.8239
53.4051
64.0514
57.7118
59.6929
50.0732
60.7535
47.5784
56.5274
55.816
55.7122
61.1444
55.7956
47.9392
54.327
55.6127
61.8142
54.3148
55.5947
68.9344
58.6403
57.6289
63.1484
57.673
58.4746
53.3934
51.7074
49.6772
51.6922
59.2934
54.4656
50.1547
50.2597
57.6308
47.4949
50.2056
56.7882
58.9374
53.4704
60.3845
61.5075
46.3635
60.4264
49.7553
55.5211
55.8091
54.7531
51.6962
48.7393
54.0871
52.8847
52.5104
65.3675
55.0891
55.5966
58.7065
58.0657
56.7743
54.9168
48.246
64.6716
50.8089
52.0457
56.9839
49.2252
55.9594
52.3586
53.5643
53.7842
52.8001
53.2971
49.4361
48.4188
72.2317
53.4637
47.9758
63.2034
56.3407
50.8623
57.1217
57.8765
55.0927
58.5604
50.7632
58.4555
57.5931
51.3071
46.5645
50.8072
51.2543
49.8224
50.7691
50.0211
56.1453
50.6209
50.8534
49.7704
58.8865
52.2021
53.2726
50.4617
52.7922
55.8067
54.5489
52.6244
58.076
53.046
49.061
49.1754
59.149
53.4267
52.8697
55.6836
68.6885
56.564
57.6377
51.0389
53.2948
57.7401
64.7343
63.4209
52.6149
58.651
59.8771
60.9501
51.7098
55.7041
55.6852
60.1464
60.4569
61.2409
74.2714
50.1306
49.3141
49.5978
48.4347
52.3415
55.4661
57.4398
51.4677
46.0641
67.5941
59.6118
56.0814
55.5189
52.3985
51.3334
52.3164
46.7016
49.2718
56.9568
51.9723
52.5248
49.9542
47.4624
48.7048
47.3732
60.04
59.4406
46.9614
48.9956
52.2424
54.0201
53.1258
47.7847
56.873
69.441
50.1826
49.337
61.4741
60.2318
62.6394
51.5092
54.5076
53.4061
52.3667
57.1897
51.3985
53.0194
62.6227
49.9192
51.3322
59.2484
53.6336
51.2478
60.0367
47.9091
54.9636
71.5611
52.3113
62.4565
54.2602
59.6337
57.0452
54.1013
73.594
55.6994
57.8394
55.3379
58.4004
53.3009
50.8377
54.84
58.0926
56.4186
52.8493
54.6784
51.3711
53.8641
57.1392
62.6747
51.1882
52.1578
55.1681
55.2843
50.1123
59.5597
55.6382
48.8925
49.7923
53.1447
62.33
58.624
60.3919
51.6843
50.2764
60.5215
53.7721
73.7136
53.9934
53.6757
57.1064
59.0194
54.9969
56.8825
63.9051
53.0387
63.1426
50.6223
59.0214
58.6912
56.5773
54.7362
57.3842
60.7731
56.1808
57.3025
56.5327
48.2426
55.3614
47.0606
49.9294
54.8215
54.4849
55.7616
59.3753
49.7758
48.4554
59.2095
50.2343
63.9029
59.3489
57.0164
54.6911
59.9182
59.2149
52.9946
80.0739
51.1957
50.9267
52.128
49.6924
52.385
71.1008
60.8952
66.7394
62.0527
52.4363
58.3834
62.9219
50.0774
53.1526
48.07
54.2664
54.3377
48.7711
61.2735
68.67
52.8814
63.301
62.0481
56.7482
60.0107
62.2412
56.7205
56.9871
48.3805
54.4221
54.7775
53.7605
55.7447
48.7732
55.6149
49.9654
52.9318
54.3307
56.4236
49.9491
51.6065
57.9596
48.4381
59.7275
54.0419
55.9155
61.1863
59.596
62.1158
51.1057
52.6949
51.6678
53.5337
53.918
67.202
55.3747
56.8102
48.2492
55.7209
47.9524
49.6014
59.7543
61.7862
44.3347
58.07
48.4808
72.9682
56.5214
48.8723
47.6137
53.7542
51.7152
55.3983
57.8582
71.5224
61.0956
58.9418
57.6823
57.3372
53.7198
53.0485
54.3149
50.9547
70.1293
47.5122
69.1108
59.4769
52.2703
51.4942
61.8338
55.4902
62.2279
53.4272
53.7275
52.9437
55.7124
64.0847
54.2634
59.2145
51.9041
62.4291
58.1686
52.7213
48.2302
63.9166
51.632
53.6196
51.826
56.0398
47.9187
52.3411
56.6413
47.6258
57.7448
53.0829
54.1826
50.1608
59.1682
57.0441
54.436
52.4901
60.6779
48.4244
52.8018
60.2939
50.8974
47.9126
55.0472
58.0785
55.8287
61.6335
48.5057
47.8299
49.0499
67.6731
53.7246
59.1852
55.4512
57.1644
55.4998
70.6531
46.0077
58.4856
60.0061
57.1227
58.4626
69.1429
55.7982
53.9019
50.7715
56.8038
60.0968
52.8838
47.4671
52.6448
51.1755
53.8865
55.9477
51.7515
52.3312
48.0601
54.8336
59.2073
59.8197
54.6683
54.2941
50.9328
49.5272
54.922
90.2601
49.5909
54.4927
52.5527
57.1013
50.3432
59.5563
55.27
50.986
55.0289
48.0392
50.1928
57.5974
50.5777
49.1058
45.3289
67.8298
55.2599
49.837
56.2901
49.9412
55.2232
45.8784
58.1851
52.6272
60.2488
55.3316
50.8674
46.3723
49.6128
60.3168
53.4149
63.2848
63.5773
60.2435
52.1426
48.6584
54.9
49.3598
57.3029
55.2584
55.1291
55.1032
47.4953
62.0806
55.2276
59.6614
56.8586
59.7825
54.5009
54.6257
63.4435
58.2773
57.5711
56.3512
58.1574
77.169
55.8867
50.485
47.6646
45.4135
49.4379
67.7554
50.5434
68.037
61.0073
50.3418
52.5589
53.2711
48.7735
55.0595
50.3821
59.828
48.6751
54.6206
59.0593
50.0289
47.1976
56.1147
52.945
57.5615
49.2207
71.1043
53.1232
50.5197
55.1121
43.9225
45.7025
48.7351
67.5683
53.4416
73.0763
59.9165
54.2684
64.6838
51.6059
54.4165
50.1509
50.2056
56.8707
55.4736
50.4031
54.2082
65.7915
51.8612
63.088
51.666
54.7548
68.2454
64.226
51.5767
49.1135
58.1579
61.8761
50.6961
49.6527
61.2095
61.2401
56.0398
53.9844
52.802
50.0983
54.9617
55.3258
52.0746
47.7537
49.2876
47.1738
50.0058
60.6944
44.7115
47.0796
52.035
48.8985
56.8352
65.758
61.8595
54.5576
57.5612
49.6161
61.5292
59.6971
57.9708
54.5957
71.5681
53.3349
51.6575
52.2109
57.9121
57.3014
71.7807
54.9007
58.6728
57.5498
51.9836
64.1888
49.5799
58.4096
61.8779
53.191
56.5098
59.7519
54.5844
53.8938
53.4853
55.2195
62.9287
48.9161
55.062
50.2204
57.1658
57.0583
48.2792
55.6068
51.1719
57.3438
49.7191
58.0147
54.9796
54.4837
59.6639
53.1028
63.4859
60.609
55.826
57.0197
55.5699
53.4383
58.2214
54.5034
54.7956
51.9472
54.3321
56.937
55.1749
58.5806
58.1901
55.5716
61.7287
54.1206
54.2581
66.1839
43.7177
54.5865
50.3622
52.4535
62.3474
58.8813
51.6085
48.6333
49.2892
58.717
55.0412
55.7808
49.8957
60.8269
60.4975
57.7406
56.9974
49.0781
49.7998
46.027
53.2025
53.1448
51.2756
59.1317
49.8307
65.9954
53.9222
52.4089
56.1421
54.5593
46.9247
52.6675
54.6081
46.0955
62.337
54.6417
65.042
49.3072
50.7493
63.196
53.5388
52.7591
48.3048
52.8259
54.4306
51.7774
56.4021
60.5845
47.6073
46.7065
63.1324
53.9975
50.7325
59.7379
56.4273
50.4323
61.8544
58.044
54.4739
52.6703
57.6373
52.515
49.7958
53.1048
53.7248
54.1486
72.4883
47.6039
58.9435
66.1953
58.0763
53.2545
61.6901
53.6092
53.2974
62.9034
50.3884
54.3252
48.8556
56.7664
58.1355
49.1777
48.7257
52.9599
59.0525
58.4361
64.7182
48.0612
52.3231
58.5866
56.2667
62.0979
62.6432
58.6588
48.9048
49.2855
66.1599
61.1038
50.0654
52.7253
48.46
50.8351
53.209
51.2087
54.7812
54.8589
63.2851
58.2123
61.9753
50.0468
48.6094
59.5014
50.1425
52.0571
53.4807
54.3791
56.9007
52.2677
56.4037
53.0783
55.5684
45.6668
58.3383
59.1812
47.8223
54.4933
58.4909
49.9869
52.0626
57.4374
53.51
52.5301
54.6127
53.1193
50.2735
53.2486
68.1384
62.6772
61.4563
49.5903
57.0092
51.0915
66.4905
53.3406
55.9967
51.2874
56.8262
53.0158
74.7863
49.7062
66.6117
51.6587
51.903
55.0183
54.0387
60.9203
59.2914
59.2829
58.1033
52.3473
52.5912
57.9088
65.5435
57.4169
57.8018
54.8269
52.3009
49.9674
50.5511
57.6552
52.7745
47.8175
50.9321
57.8855
55.7321
50.8999
54.824
60.0729
50.7615
49.2645
61.6093
55.0001
61.6761
62.8992
50.6293
55.9261
62.641
52.2537
59.3102
54.8115
67.5335
58.1694
55.7399
55.6156
53.0145
51.4956
48.5706
55.5069
61.1872
57.4418
56.0627
52.9324
52.5883
59.2599
55.6069
49.4712
57.3332
48.6965
48.6643
53.8108
46.8521
47.4287
56.3702
55.6197
58.536
51.0533
47.4296
62.5937
48.7656
48.4091
55.7564
56.9418
50.0906
57.7472
49.599
57.2875
57.979
47.5536
64.6068
59.1051
54.1935
51.8948
51.1939
61.3675
65.1416
47.059
58.957
52.125
59.5392
55.4157
51.9232
58.6274
53.4313
48.8976
51.2699
57.032
61.8634
49.775
52.5311
49.3884
50.6182
53.4568
50.8808
54.0166
48.1119
56.8197
52.9032
48.4701
49.5825
55.62
56.6308
47.1146
53.7264
58.9573
59.1347
52.4903
56.9688
57.7973
58.9167
55.3089
79.2254
50.712
50.0762
58.2247
55.8027
61.9022
48.7545
54.612
51.5678
71.3779
55.5267
60.4022
50.5145
59.9898
52.0588
63.6157
56.6608
61.6053
53.2908
51.38
56.6513
63.1319
50.9476
54.5162
49.1359
60.0835
47.8735
51.2995
60.9838
52.6066
68.6291
53.7511
46.6747
56.2949
54.3313
72.1829
47.9231
52.1969
53.6522
51.1722
63.0004
52.0483
53.2591
50.545
60.5935
50.6948
54.6543
52.0942
57.9433
58.7459
62.6585
46.9858
55.2305
56.2522
52.1615
62.8949
53.4659
47.8106
64.987
51.355
50.3314
49.3318
61.2218
62.3695
50.3981
69.0204
52.9648
56.7291
58.7604
59.7451
55.8415
49.4361
57.8491
51.6768
54.2016
53.6039
58.8533
44.8744
50.5567
60.6297
52.621
54.0962
52.4149
64.9674
53.2448
51.424
50.4434
51.6478
57.0736
52.3684
61.5677
47.9307
56.2166
54.7944
50.1954
73.9263
59.7134
48.9436
57.581
56.1749
58.0296
53.7766
57.6838
48.7616
51.7297
56.1276
52.8056
53.1779
59.4237
57.8542
63.6074
56.6803
46.6671
57.7387
51.147
53.952
54.6867
60.4619
63.5411
53.661
54.7639
56.117
52.4425
55.283
48.4766
57.6954
48.4948
55.0846
46.531
53.3845
54.0747
57.306
59.3374
60.4298
48.553
58.8595
83.4407
54.361
62.5535
53.679
57.2355
48.5908
54.9834
58.0995
53.6013
52.3646
55.9876
53.1505
58.0967
54.7547
59.7709
57.6977
56.354
71.3191
64.0071
51.2234
50.1479
46.4303
60.0931
74.4593
54.8155
52.5423
47.3536
56.1198
51.9174
62.9416
50.3268
70.5474
56.3201
87.7355
59.5785
54.8997
48.4427
59.9692
45.407
53.3997
48.3348
52.6499
57.3259
51.4867
53.2825
50.6593
48.052
55.1347
49.6713
51.7124
54.5532
50.144
65.1869
58.2295
51.7327
54.1831
66.8477
56.5082
47.7859
66.655
49.6196
54.8376
53.8303
49.9418
48.2169
53.4831
53.507
59.3712
49.5243
55.9654
51.7882
56.9062
49.3625
55.6834
66.3069
53.0502
56.1545
51.4123
58.8563
60.5893
58.5356
51.6265
53.1227
57.1589
46.4831
54.2161
56.3511
51.6105
56.6246
59.7761
60.5873
65.1976
55.0756
56.0905
60.2403
58.6837
51.526
56.9259
53.8049
64.7825
56.6175
59.6629
54.6649
60.1134
57.0729
59.0892
52.6433
56.2906
44.6714
52.4211
70.0688
51.4651
64.3454
66.2258
62.3288
50.2261
58.5969
47.4826
58.5495
55.7762
71.3346
52.2044
87.6108
66.6391
53.7219
55.6641
53.4316
49.0108
53.5242
49.5352
53.3373
70.9036
54.7989
53.2924
53.4441
64.08
49.2617
52.6988
57.0922
54.7123
54.8076
56.2412
69.502
51.5697
48.6134
55.6931
51.7642
51.5605
55.1567
54.3867
60.6211
56.6709
57.324
54.3774
55.1055
63.0534
58.2938
48.3817
58.5647
61.3181
64.9854
47.909
60.4459
54.0107
49.6541
62.0273
54.2019
56.9477
52.6755
52.3713
50.3987
63.0641
59.8994
61.2143
54.2197
51.7403
62.1488
53.8336
47.968
54.4618
55.6305
53.5277
56.2051
57.8287
59.7951
57.3965
52.7378
60.4728
57.1005
54.6593
59.2137
57.4736
59.457
53.5313
52.0698
49.4901
68.5669
57.6447
57.5012
58.55
72.0772
58.0949
53.5115
53.1739
56.2711
51.7296
56.0772
52.133
60.0124
59.0739
53.8226
51.9371
52.959
47.9074
49.7517
54.2448
51.508
49.1246
57.4737
63.4881
62.1947
46.347
57.0895
62.7984
55.8679
51.2628
63.1121
49.2089
58.6584
50.4374
57.8698
53.2381
60.805
68.0101
56.1293
52.8835
54.4761
52.4555
50.0147
59.3452
60.0772
51.321
50.1136
50.2571
56.7118
47.6484
49.1754
54.517
48.931
48.6083
52.2646
61.4403
57.1581
55.941
56.2848
61.1986
55.4413
63.7091
57.5861
47.1906
63.5788
55.6265
55.47
51.9625
49.7621
58.9632
49.4254
73.9023
58.2139
60.4101
45.0164
49.4381
50.0572
56.8641
55.878
64.2899
55.1687
57.6991
47.8947
56.442
58.1596
68.4404
53.2089
52.1991
52.7108
58.784
62.308
55.2528
54.2892
51.0685
52.6558
53.3192
52.2677
54.0457
50.9524
63.0779
73.2654
53.2825
55.0861
53.1258
56.9814
55.454
49.426
53.8176
50.536
61.5553
57.4117
57.2854
57.0506
50.4658
48.9426
51.5819
45.7267
59.4695
50.6053
53.2456
52.8919
61.8344
50.2611
48.1081
64.8872
51.854
49.9704
60.3645
46.5663
68.6884
96.7571
52.4242
52.6639
48.8523
52.5193
54.969
49.6917
54.3412
64.1951
56.5293
50.6998
57.1137
57.6025
47.996
56.1529
54.0476
59.3454
65.4746
51.4428
60.9539
55.5992
59.519
50.4053
49.3009
53.5985
52.7838
59.5151
52.98
62.4757
55.8091
50.8404
62.9565
57.851
53.6686
55.0329
54.5121
55.7379
54.4923
56.0547
57.7534
62.1528
50.5741
56.7042
50.7358
45.9971
78.7127
60.1131
52.1033
53.8239
52.9681
70.7116
52.403
51.949
58.4796
53.7769
58.1745
53.9179
64.582
49.4222
52.4732
51.6796
49.5243
52.1993
50.3446
57.9124
54.6218
58.6471
50.9311
55.4229
56.2569
49.1425
51.2058
51.0044
50.4179
54.877
65.8104
56.401
49.8671
53.935
51.6955
55.215
54.2977
52.1675
53.8112
55.3706
65.1576
48.9776
51.8377
62.4311
53.5338
56.1047
55.8297
55.0849
47.2779
56.5929
53.9101
59.2179
64.5655
54.9227
45.6548
60.2889
59.3619
57.6734
60.4068
64.3528
56.7364
56.5588
51.5473
47.0728
52.5816
56.6732
62.4547
52.8804
51.4254
50.5493
46.3577
52.1536
57.3911
56.0921
45.5801
47.7446
66.104
55.3683
50.7354
51.1893
69.7994
53.3676
52.8797
48.6339
61.2291
58.121
54.6353
52.2097
65.1576
53.1502
53.7082
53.2399
51.794
52.6871
58.3526
49.1631
65.0004
50.8048
54.0163
52.0135
53.5774
56.6679
54.664
48.6573
55.8067
56.8137
51.6694
48.9397
50.2156
57.5939
51.304
57.6257
55.8894
61.4946
63.154
63.6833
61.8822
50.0229
68.262
47.0187
57.1859
62.7469
59.0767
61.7562
55.7307
51.7914
52.5613
53.0584
48.7206
63.8884
60.4689
52.9239
52.0945
56.9545
51.3764
57.5988
53.4618
49.6709
50.5391
51.8439
51.4341
55.3231
62.5781
56.5692
57.4042
52.7456
57.7481
48.788
53.9845
56.7877
83.3218
53.6114
57.0832
52.6721
61.0882
48.0892
53.3499
47.6658
46.2427
49.0788
72.9051
59.5067
53.6131
47.4056
49.2765
45.5925
48.3987
53.4924
49.5719
59.4232
49.1798
53.5324
51.9137
52.7234
50.7717
51.3201
83.0874
67.1674
51.4839
50.052
56.5534
56.7995
57.4676
50.2019
65.3291
47.2486
56.5113
54.9547
56.1176
50.5331
66.2517
57.9328
59.184
52.0164
58.6058
58.8987
58.1346
54.6306
54.8018
49.6061
61.2189
53.4203
68.6555
55.7841
46.3072
50.1386
46.8748
57.2636
49.9836
54.9676
53.9661
53.5244
58.8136
51.9498
47.4795
52.7115
61.2995
44.8021
65.066
52.2323
61.8941
53.2858
52.2731
53.7435
49.4955
57.2399
49.1948
49.8403
57.3378
56.8206
55.5092
56.7278
58.1474
46.2302
52.0356
52.878
64.8958
47.2649
54.7374
47.5065
58.1565
57.5531
54.7351
47.3583
54.1922
58.5624
69.0111
54.2603
56.6654
47.9532
53.3861
52.2939
54.6219
48.8025
52.1811
49.4414
51.0149
55.0748
51.1332
59.7339
63.5229
54.4149
49.0644
52.7279
73.1007
69.6084
65.579
49.3215
48.2559
55.8231
48.0291
58.748
57.4827
60.4673
61.5432
55.9652
52.1524
57.9983
48.4433
54.8033
51.5263
56.3997
56.9718
49.6359
62.1147
50.5113
61.422
64.9997
63.2157
50.51
51.8573
54.0751
63.1577
60.0593
49.3062
59.5976
64.3724
51.1833
57.5335
58.5646
52.0786
71.8742
51.6378
51.4683
53.0839
53.5197
55.7269
49.5773
59.0854
55.9642
51.3417
52.8138
55.7726
49.0286
58.2261
50.3266
48.6206
53.1867
60.8234
63.07
65.7687
49.8839
63.8981
56.0392
57.2372
54.2017
44.4332
57.7478
58.3746
55.4609
49.0748
49.9074
69.5079
55.475
51.3557
66.9943
58.9824
59.2538
49.2592
56.9355
55.5911
68.5896
52.7826
49.7254
54.1116
55.7715
62.7947
50.992
46.4358
53.4141
52.0523
54.7505
56.5321
48.3204
49.011
52.9608
54.5695
63.894
57.5514
67.7761
52.808
52.9758
50.1185
53.1533
74.3742
53.7186
59.0122
72.0305
48.0156
54.672
55.7783
53.8632
64.7996
52.6795
58.5332
52.5178
57.9729
51.8358
52.8342
52.9445
47.051
51.6288
55.2297
53.0804
54.544
54.409
50.7775
60.4339
58.205
53.9367
51.4654
53.0441
43.0742
58.0929
64.3972
55.7283
62.2799
64.2573
48.1418
48.0431
64.5118
57.4415
54.998
60.0487
58.3531
47.7842
56.8639
50.6997
65.0699
53.4497
48.5961
65.0503
60.1863
58.9809
50.2048
48.9032
51.048
49.3142
68.7569
58.4799
82.8892
56.8916
53.077
60.0298
55.3122
54.2338
48.5219
54.8418
58.2217
58.7506
56.2976
55.7847
51.2176
55.395
54.5319
51.9209
65.6799
65.6559
61.8063
74.7381
67.9498
49.1296
70.3466
48.5894
55.2483
64.9869
54.5158
54.3218
63.6029
51.1186
48.845
58.8637
50.9484
48.2057
54.4743
81.0635
54.9389
69.0997
61.3125
66.5803
48.0205
60.0634
59.9836
48.3915
56.8124
47.7755
60.1118
50.8734
47.0532
52.6862
48.2651
52.5885
47.9076
55.916
53.2946
55.4355
54.4896
61.735
60.0321
50.9097
54.1755
53.3571
73.908
67.5069
57.438
54.8925
48.3326
57.9178
59.9414
57.6203
50.082
51.6821
55.7919
49.2172
47.7305
54.9962
47.3593
61.4878
48.6107
53.6238
51.7382
60.0102
47.1871
56.4529
58.4506
55.0593
54.6918
49.8327
55.4861
63.0416
50.0289
54.1066
63.3113
55.1215
52.7384
56.0315
54.6782
58.6391
51.3695
51.4142
69.3105
57.1572
55.4537
52.4529
53.7842
47.3782
71.598
51.1562
58.4853
58.2774
54.3296
56.7404
55.7254
50.237
56.4697
54.287
51.0386
58.9345
62.6824
53.29
53.1139
55.5678
51.2828
52.5511
59.3197
58.6137
54.9915
59.9335
54.959
62.7063
53.8448
58.4627
48.7241
52.0708
53.5351
49.2998
56.1434
52.6378
54.8783
56.2135
53.0575
67.7089
62.5366
56.9861
49.9238
61.888
51.4518
55.4416
74.4088
58.3862
66.5703
48.9214
49.9142
54.4794
50.506
52.9945
63.5279
55.7356
60.0618
50.9229
53.0309
48.6709
50.3483
52.5163
49.9101
65.0072
49.0355
59.0694
50.4311
60.8306
49.802
53.0222
63.6417
59.9203
49.8101
59.6268
54.0954
61.3936
63.7592
50.6202
56.2392
62.3539
84.9073
53.3198
58.8146
53.0258
57.4377
55.3686
50.8773
49.0628
55.1082
50.494
53.2811
62.1975
60.5072
61.8505
60.6697
47.8875
53.0788
57.6097
61.6054
48.292
50.2921
56.0059
50.7603
56.9728
63.4054
47.7297
45.2976
61.3575
56.0312
56.3907
58.4149
58.0548
58.7481
51.8211
53.1664
49.0533
51.4813
54.0625
57.8495
54.5222
48.8304
50.152
55.7919
50.4879
54.3967
52.0944
53.4555
58.696
54.0122
48.0343
58.4555
53.0901
50.3865
51.0611
54.8196
53.5687
62.9743
52.9887
47.676
65.7352
67.0796
63.5437
61.6631
55.1397
53.7225
61.1777
48.3966
50.8673
52.3799
51.776
51.6318
51.4248
52.1336
61.1613
60.3936
54.0213
56.2865
51.7612
55.1703
52.3373
53.8968
71.3978
60.0483
50.4918
48.1132
58.7491
48.4745
60.6382
49.0913
64.7381
55.4369
46.7707
61.4525
52.1852
55.7651
60.4288
57.1478
79.6685
51.0264
56.7392
61.5499
53.2991
55.9966
53.7273
55.382
51.4762
50.8159
63.0845
51.7678
51.5335
54.3244
55.1297
57.5533
56.4451
59.0786
57.831
56.2721
56.4553
63.2543
54.4532
61.1647
52.0563
49.5973
56.7194
57.9249
53.9708
64.5617
58.3575
56.8641
51.7437
51.6334
50.8809
54.0078
61.8191
57.3621
53.896
50.8128
71.991
55.7591
76.492
53.5111
52.4214
49.6082
58.5925
46.1226
57.6733
45.8187
57.8813
54.0706
52.5204
57.9496
46.8982
60.1783
49.9302
53.6817
56.2176
58.7834
52.3728
65.0047
54.0854
48.4527
60.1972
50.3781
46.7966
54.9051
48.514
61.0204
58.402
54.8679
54.9753
72.1718
61.7241
52.925
62.5832
52.8286
48.536
58.2112
56.3895
49.0586
49.0513
60.0509
52.9652
54.8364
66.77
50.294
54.9144
53.3668
48.7552
51.0425
59.1528
61.426
59.7015
52.8283
54.5558
59.8042
60.0046
56.3447
64.8773
49.8482
57.4454
55.5349
55.6566
54.7328
60.9287
64.8885
59.074
53.1201
61.6078
47.4239
56.7636
50.0839
56.0844
45.3782
67.6765
54.5673
55.5055
55.0665
59.9635
64.2644
57.7478
70.9936
49.5052
59.6529
57.4515
52.752
53.4514
61.728
72.3815
48.8361
54.8614
56.4588
54.7776
48.6778
54.3491
48.9945
52.6296
55.0771
52.2831
50.186
57.7179
51.4523
75.6455
59.0262
53.228
50.6331
52.6984
50.8987
48.3977
64.829
50.3733
69.3737
50.1755
49.7912
51.8103
53.59
57.2057
51.1903
47.621
56.5952
58.6893
51.3041
53.7665
55.6594
58.4529
62.7624
61.6449
55.9278
63.9623
62.0913
53.9652
46.0044
47.588
48.5144
59.1919
50.4686
64.9356
51.2712
48.3996
55.8247
52.8554
53.1843
62.037
50.563
57.8386
56.2468
58.9232
51.8054
64.1658
53.2109
56.2732
55.4082
65.3881
52.9236
56.2932
61.3061
71.3796
51.3001
48.8032
55.9577
57.0245
55.2013
54.227
50.6871
55.8218
60.5069
60.4101
55.5773
50.8954
60.5085
55.4762
51.876
51.8626
63.0649
52.2543
54.4245
58.4679
50.518
57.7171
50.7118
51.1162
53.8869
52.1608
49.6235
54.5186
54.2576
60.5868
47.5119
58.6893
52.8632
53.8333
54.9751
57.7905
52.2501
50.7914
55.4391
56.7175
50.7708
53.4543
49.3217
75.7601
51.4228
60.341
54.7162
56.7808
52.3831
55.8924
59.5065
53.7651
49.9992
47.8999
49.1101
46.0502
52.3849
52.8799
58.9444
52.5971
74.6191
50.5467
69.2785
58.0157
55.2049
58.9018
55.8319
48.9349
63.4473
51.0189
58.9595
59.8659
54.4078
56.6377
49.182
54.2236
59.8685
49.5405
54.1711
61.1576
59.0735
52.7436
56.3634
57.0535
57.1133
53.4483
54.3576
52.91
52.943
53.5421
51.8843
53.4124
56.3699
52.9281
58.4087
49.8594
52.4846
50.3859
53.152
58.6295
56.9836
59.1173
59.6307
57.1558
59.5942
49.3979
55.3681
51.6188
58.9693
49.202
58.4032
52.1458
50.6379
60.5654
51.4976
54.4425
59.3028
55.6683
52.2793
52.4494
52.7325
85.3623
48.1014
54.8416
52.7742
51.5946
56.4039
49.9871
50.4133
57.4627
53.3951
57.9808
57.8958
56.8321
52.637
52.3208
56.4462
47.6699
49.9317
50.646
50.4814
65.6346
58.1843
52.9802
49.3012
46.6877
54.4298
52.4444
50.8543
51.1969
51.0964
55.352
56.8696
46.8794
50.0242
62.4019
56.6991
51.9513
53.9562
52.0359
55.7526
55.6368
55.7122
54.9801
52.8246
66.956
55.17
50.8226
50.9761
50.8648
53.1785
61.7262
53.748
55.2865
66.532
52.4186
53.5402
57.282
55.4538
51.8748
46.3944
58.8371
51.301
60.3881
74.761
60.233
48.1028
65.7748
53.3813
49.0676
50.8728
51.4362
57.2373
56.1415
55.2734
55.1805
46.8965
55.6154
52.7869
48.9748
53.1182
57.1048
52.3904
53.0622
53.6091
47.8333
51.2621
54.1022
51.6641
60.4497
67.1367
57.0063
50.6952
53.3478
58.039
59.4317
49.9773
48.9175
51.1169
57.578
49.8837
55.9856
51.3908
50.6366
50.8774
54.2053
52.4601
49.8603
54.7968
50.0907
53.4373
44.1664
52.6121
56.3169
55.3979
50.5907
58.758
47.941
81.1443
51.6581
47.6229
60.0445
48.8027
52.1411
59.5942
51.957
61.1095
50.7394
53.6305
56.609
49.9012
46.6157
48.2556
60.6839
51.7753
49.2865
57.7004
49.191
57.8201
62.7772
49.9418
48.4864
58.3488
49.4495
53.4945
55.2027
73.8899
55.3217
58.5497
57.8958
53.2556
50.4914
58.5588
55.51
58.1345
56.8962
47.2297
57.2136
55.2557
58.9269
55.7939
50.3587
55.1931
54.0948
46.0741
49.0401
59.4577
53.8073
52.0248
57.9017
55.4942
60.4783
60.611
58.6677
67.2005
53.4945
47.8007
54.2565
52.3382
49.0675
57.0048
80.3789
58.5723
55.3965
60.0472
56.478
54.3832
65.0268
55.9775
52.6434
55.0301
54.9423
53.1798
60.4124
59.329
55.2259
58.7113
51.4346
47.2773
54.7731
58.7308
57.8054
50.8683
57.1883
49.9717
56.8593
55.3168
56.7543
50.4674
53.8384
57.9563
46.9973
50.9353
57.9669
49.7695
53.9397
57.6684
57.0106
64.016
62.2672
46.884
59.8006
55.0538
51.7495
67.4634
49.89
53.4875
57.0064
59.7161
56.4969
59.5485
50.0181
50.1908
60.8683
64.7204
51.9013
49.6332
47.9332
53.8741
53.2322
51.5951
49.6393
55.6949
56.689
62.8264
59.9012
51.5659
62.3545
49.8561
57.9413
49.7991
66.6344
53.2871
48.7538
52.0096
58.0022
57.4006
53.2337
57.613
58.3397
66.0144
69.7352
52.8497
54.9083
50.9333
66.8572
55.131
56.6137
51.714
50.8144
58.0907
52.5885
53.2706
49.0276
49.3949
55.1765
52.6128
64.6769
55.2002
48.0874
54.0982
53.759
53.1663
63.6621
61.3459
56.4699
56.2785
50.3593
50.3592
45.6827
59.3328
46.1247
59.073
59.5354
69.0424
50.3289
50.273
55.9177
56.2375
62.6762
60.954
64.7025
49.6611
47.9871
50.3245
55.4282
54.8297
50.7197
54.7894
54.9115
55.947
54.9975
50.4736
52.5752
53.3653
57.0885
51.3002
61.9781
52.6566
54.0378
53.2251
60.8005
72.9167
53.0699
53.3505
50.6761
49.5771
55.4395
52.9875
49.4579
51.0117
56.2794
72.6799
71.7368
48.0336
50.2633
50.5925
57.0611
66.8408
56.9165
57.3149
53.2603
58.3093
49.0842
50.0523
59.6287
50.9611
55.9217
64.845
57.1861
52.8347
51.6776
58.3569
47.3013
59.6209
53.8403
51.6096
48.4626
54.2826
73.0478
50.513
58.0423
51.0247
55.7851
53.4364
57.2282
54.3816
44.5757
58.4805
53.0217
50.7983
52.5711
56.0712
52.2674
45.8208
56.6047
58.3883
51.0179
48.1461
54.6792
60.8854
51.75
55.871
56.0677
67.4595
53.2309
56.2649
61.4172
53.1431
50.8017
51.0145
55.0421
52.2954
57.0292
61.3387
60.9918
46.494
51.7021
52.0208
53.3015
49.9945
60.9434
58.568
48.7619
55.6425
51.1858
50.7229
53.2752
62.1201
66.7488
85.3683
61.584
47.1689
55.1974
63.1173
53.8096
46.0026
64.7171
52.0283
57.1017
58.3914
55.1092
48.8045
53.1231
52.4393
53.8644
54.7542
49.9048
57.6914
53.6913
51.0438
56.5289
55.3955
50.4137
49.8554
47.0683
58.6509
57.9861
53.7217
59.8499
48.3069
54.7721
56.0314
53.1455
48.1349
58.8893
52.8736
67.3163
61.9434
60.252
52.301
62.63
55.2476
56.7924
55.5533
61.7859
47.6748
46.2192
58.2927
51.9424
51.0652
55.6369
54.0065
57.1068
47.5072
55.1522
64.0642
65.5515
55.0498
50.8468
61.2004
50.9966
60.1473
53.0305
58.6404
80.4471
57.7994
57.1206
50.305
52.9654
51.996
58.7358
55.8668
59.9813
51.9914
51.199
55.2255
57.6036
54.1699
53.0649
58.3126
52.2375
49.6114
57.9408
53.4986
57.05
52.0364
58.3095
48.2852
53.4787
47.0062
56.5358
61.4391
46.9988
55.2142
61.9799
58.4644
54.9492
66.4917
55.9227
47.2699
52.6758
56.8503
58.5038
51.8077
54.7602
53.2974
63.0579
56.1894
55.3606
61.2656
56.7729
62.7138
48.2883
48.9105
52.4097
48.6195
79.6743
61.6929
51.3923
45.8725
58.1334
54.7334
58.1681
56.8497
58.5981
47.2343
56.3503
53.6044
48.0743
51.9081
45.1669
49.2132
56.9731
61.1271
66.038
55.3988
56.2922
62.0896
51.9058
54.1956
55.4682
48.3907
55.0063
61.8999
53.8062
59.3578
47.9144
57.524
58.2972
59.075
52.595
49.9206
51.161
55.543
49.5997
60.2681
59.6695
49.1252
48.9511
59.1967
74.9882
56.1071
60.3757
73.9183
45.7296
50.5722
48.6943
55.4382
59.9069
52.986
58.6898
55.056
60.1475
51.9891
56.9159
47.7666
51.4754
50.0655
50.367
58.7355
56.8267
54.5273
54.6687
46.1223
57.5571
61.9053
60.3022
59.6177
52.434
60.7889
55.802
50.8987
53.0417
60.6051
51.1524
58.0712
49.5556
48.2276
62.9684
54.0647
56.998
69.7136
52.5707
50.8026
51.321
45.3895
49.6391
63.5027
60.1393
54.3025
66.3607
53.345
59.3008
54.8016
64.691
54.5944
52.4251
56.3985
52.1263
53.2929
59.4039
55.1053
49.4335
47.1306
55.2335
52.7621
53.015
55.1474
62.563
50.7667
51.3351
60.7551
59.3047
51.2305
64.644
55.4169
54.6572
52.3835
51.0237
50.2709
57.4083
52.9897
50.34
49.2392
52.6949
64.6361
60.3686
58.3732
59.0763
52.5932
56.9291
55.5387
53.4282
56.7302
55.7487
60.2173
48.1343
52.4018
58.8173
55.8576
65.108
53.9759
55.3591
63.8943
53.1064
50.2112
54.4229
60.1629
64.1175
51.9246
49.251
58.559
48.7444
73.0906
47.8948
51.0083
58.3884
46.7567
46.4583
56.9242
52.6808
56.2638
60.2782
55.0258
55.544
58.6304
57.5105
53.127
56.0502
46.7393
56.3882
84.1657
54.2099
56.0145
52.2581
68.1637
54.9398
51.4733
51.0899
60.3808
50.8105
61.6546
52.5009
54.2133
57.1832
65.3702
50.7033
54.9717
53.8025
54.4001
48.5802
52.6992
52.3408
48.5923
50.4497
48.5851
50.111
48.5293
53.9709
50.7775
53.1683
64.763
54.4427
51.8163
55.4737
58.9391
57.4725
49.0684
55.2672
52.2314
49.4526
62.2451
54.411
60.0382
54.4978
54.0271
64.5538
54.2407
47.6826
58.0871
62.4924
50.8761
50.1672
56.195
55.8015
54.3655
52.0454
51.5128
52.5411
54.4217
53.7259
54.6468
56.4161
70.3199
56.5038
49.8269
50.0267
57.8133
65.0331
51.2733
52.4786
60.4294
54.3014
50.8585
54.996
54.9507
58.7371
49.6473
54.0046
65.8244
49.537
47.3821
58.3067
62.9229
52.5261
50.6923
52.7386
54.6796
49.8675
55.4005
52.2795
48.5032
52.1811
56.5792
55.4031
56.0272
52.7152
52.041
48.1938
57.0549
54.0665
60.5629
64.5913
63.3238
54.5982
53.1656
47.3769
51.0849
48.2386
51.7713
50.0034
58.888
58.5217
50.8323
51.7451
55.472
53.7086
58.1844
48.1697
56.0563
52.4179
56.8661
64.4527
49.7095
55.5969
48.2951
62.6135
51.3463
49.584
70.3755
51.637
57.9937
54.8418
44.9756
51.7366
58.644
51.7924
52.1309
46.9301
67.0907
52.1875
51.5921
55.3726
57.998
55.4281
74.5406
53.2716
51.4542
50.1392
53.7103
52.5203
56.7251
52.9463
55.0267
46.1751
52.8287
52.3055
54.9764
54.0072
54.8012
60.2228
58.1165
58.3298
57.3265
58.995
47.7857
50.7807
51.9504
60.8479
52.1992
58.0879
48.1806
59.1467
54.2215
59.2787
51.8603
53.5295
54.4851
55.5327
57.4657
51.254
52.1374
65.3427
55.6373
60.2005
58.2816
52.079
54.9076
54.074
47.9962
55.0856
50.6879
53.7244
73.0905
48.1109
58.415
60.7097
59.4687
52.3475
52.0658
48.4314
51.2381
65.9051
55.1059
51.423
54.9636
51.9646
70.1565
63.549
55.0718
60.9599
50.3069
60.4204
53.3652
55.8252
63.3317
59.4949
55.9715
54.1252
51.3678
72.9364
63.6242
48.4191
58.0973
56.3941
53.2606
51.8902
49.1915
54.0727
52.929
58.116
65.3335
52.4158
52.9314
49.3639
59.9485
54.7867
62.1897
51.8426
51.486
51.8416
58.0924
52.6565
56.4821
47.8641
52.7858
50.0632
52.162
58.888
45.6912
63.8046
61.5687
59.7837
52.3533
61.8417
55.5577
59.2969
55.5006
51.3469
57.8831
50.9758
46.3435
53.1027
44.2396
53.5051
63.4127
63.0522
50.0396
51.2319
46.6652
56.8809
52.113
50.7042
62.9171
52.797
56.7512
55.5086
61.058
46.5403
57.1454
63.2591
60.9687
69.3021
56.6288
53.0962
58.0192
60.4713
51.5104
57.5341
48.4641
52.2511
61.5875
61.6753
54.3424
51.7765
57.4654
55.2829
62.092
50.3369
58.5589
57.1699
57.2701
57.436
63.2362
50.1212
57.125
51.6107
60.1336
58.9128
54.4113
50.7515
48.0465
63.0773
48.6466
74.7948
50.655
56.0906
47.6811
47.0509
55.3245
51.2236
50.4887
47.7959
65.9669
59.2693
56.7566
56.769
55.9865
47.0579
48.5467
55.5798
52.4977
48.6415
51.4455
49.95
55.7921
54.3196
52.5854
49.7024
53.346
56.8973
56.4423
58.1186
54.6159
52.2764
49.397
46.6421
56.4154
51.8809
50.4293
59.4944
50.2552
48.5631
49.9321
58.6425
54.324
55.9829
56.3735
56.0197
52.0819
58.0875
51.5415
58.6554
56.9449
61.2894
53.4437
50.182
63.5453
58.1552
50.1587
54.221
55.2018
52.5777
61.2389
54.0795
52.4007
53.8913
58.2289
51.7979
54.2062
57.5871
65.7018
57.4611
52.9989
53.6054
53.1254
56.3993
53.0897
57.9513
52.4894
55.3959
54.3957
63.4737
59.4045
56.3712
57.9723
60.352
45.7713
52.3715
57.8735
54.7178
57.7468
48.8429
53.3073
48.5617
51.8927
49.9207
52.577
61.9504
59.6118
54.1445
52.1793
63.0206
54.4861
54.4177
57.3494
53.0986
56.3967
47.4528
56.726
55.4159
63.3383
50.0722
57.0021
47.5701
63.2656
59.7238
55.06
59.6828
54.3004
52.0311
69.6907
55.2318
56.5472
54.9934
56.684
59.1382
56.5549
53.0185
52.104
50.6978
59.6561
53.1206
53.6257
53.4849
55.797
67.0345
57.8356
55.2493
58.9432
61.2378
52.1998
50.2107
58.9814
49.1229
59.6116
48.2974
50.4928
54.9533
56.9727
55.0779
59.2831
52.4308
53.2883
48.9998
60.7748
52.8505
61.2833
45.455
50.7571
54.5429
47.8844
47.1835
50.3487
49.4662
65.9607
47.9787
58.3788
48.4977
47.4314
56.205
60.6243
63.9187
55.5961
49.2071
59.7816
50.4227
49.1165
47.1793
54.1319
46.6462
52.1664
53.4048
62.8781
49.0383
46.4879
52.5779
64.595
49.2207
67.2536
58.1007
49.9747
56.9012
52.169
64.7007
62.3708
58.8471
50.3286
55.6418
61.6242
52.6461
57.8327
55.2311
54.2791
62.2939
52.3971
58.2959
60.6269
60.0684
51.3879
62.6626
51.4755
54.4232
54.7951
57.745
57.2221
49.8533
47.7648
51.8462
59.0189
67.036
55.9284
50.5796
49.6013
70.1011
52.5897
45.9999
49.0204
54.8782
58.1874
65.2756
48.4
63.6481
58.4041
61.6995
58.8634
59.231
48.7179
49.3213
55.9109
55.6717
57.1654
57.8737
57.7375
53.7238
50.8076
59.9519
53.6087
67.3411
60.9583
52.41
55.273
49.3606
56.4902
59.4519
53.3737
61.681
58.4281
56.5152
55.0534
47.9299
62.1693
54.3095
60.6451
56.6405
67.631
58.3499
54.6902
53.4817
57.1374
58.2319
52.1749
58.2179
51.2508
51.9118
53.4651
61.5197
49.9586
50.4025
61.1146
56.2291
51.8582
48.5247
56.2488
64.9816
52.4275
52.0542
53.2035
52.556
51.7938
61.2745
50.584
49.4394
78.5669
52.9915
52.3288
55.2414
104.686
52.854
56.0019
56.0729
51.1218
53.2378
47.7102
52.9941
58.4753
56.2153
56.0399
54.002
54.7467
62.1696
56.452
48.54
52.1307
50.8707
50.9728
46.9456
53.4999
57.7618
46.8317
59.2857
53.1919
51.0332
58.6084
52.3165
51.7884
60.0758
51.7355
57.2642
65.019
57.5358
57.6014
54.2941
51.4976
55.2862
56.8347
49.1311
55.1369
54.0144
58.257
55.3077
57.2582
54.5384
51.4166
50.5848
54.7367
52.1382
53.6178
57.185
53.0828
62.5623
53.6348
55.6897
50.0156
52.011
63.2561
53.8486
55.5604
51.9204
51.9442
47.1328
55.2682
80.3901
54.0542
63.1316
49.1384
54.9856
55.3057
50.9798
50.2031
53.5682
56.476
53.8408
59.6443
59.682
53.7572
59.5656
57.1876
54.5582
57.3255
56.4551
55.4879
60.2191
54.3737
54.1306
50.7919
57.5604
52.0337
56.265
72.1294
56.1762
57.9138
55.5621
48.6
49.2199
53.3952
56.2674
56.5481
52.1002
55.9372
52.967
52.5281
57.7201
59.1984
55.9963
55.1473
53.3997
50.0799
52.9772
53.1989
51.3357
57.2643
55.7204
61.664
54.7641
45.0391
58.0384
52.1444
58.7451
52.4012
55.8487
66.7439
52.1385
48.8024
52.2696
51.605
54.8165
54.6405
65.5854
55.3543
53.6634
54.6188
53.4958
51.6151
56.9593
56.0494
50.1896
51.1768
53.455
46.6381
51.8188
51.9948
47.6162
59.9119
58.7563
67.325
49.9399
52.2806
54.098
48.532
55.1819
48.1417
52.13
56.3305
51.0666
50.3813
46.7658
55.1961
51.2091
60.1366
61.1186
50.3283
62.8688
52.8547
50.2679
53.1865
54.22
56.4819
48.5622
60.3941
50.3326
49.5611
48.1325
54.4673
60.0886
59.0764
57.438
52.0613
48.6072
50.0284
56.726
50.4683
49.7543
53.1453
56.1067
54.8141
57.3689
60.4705
57.8449
55.2947
59.8621
51.3446
55.9099
49.9426
60.2973
53.4817
51.1052
56.4439
54.8129
49.3248
51.4019
58.7606
47.1014
56.5787
53.8066
49.1701
48.5938
64.4746
50.2049
53.4177
53.2189
50.3854
55.7719
46.8819
50.9244
47.0172
56.7955
59.7696
48.9498
49.1025
57.2774
54.194
67.5623
46.7719
48.7532
87.824
54.4047
53.176
52.9041
54.5163
54.8718
60.8209
63.0476
58.2913
59.5072
73.7507
67.2818
52.8244
46.7999
51.0512
54.4776
57.3116
50.7975
57.4764
74.9276
56.2805
51.5794
55.7332
52.4566
64.9352
55.1859
49.2755
56.5669
46.5843
51.6113
54.1722
59.6603
55.0779
50.6858
51.5477
54.2869
59.1797
62.2281
57.7627
57.8149
56.9208
52.9606
93.5409
53.3233
49.9808
56.876
52.1191
64.8051
50.3995
70.3733
51.12
57.5636
45.6008
58.7016
55.6639
57.444
51.6271
50.3499
55.5071
51.1767
54.0227
63.9323
88.5815
59.9324
51.982
52.8869
49.3238
54.6092
49.8378
55.1099
49.0751
64.9158
53.4629
49.4994
52.7565
51.2881
58.0252
46.6033
55.2478
58.6219
51.9259
54.0698
52.1221
56.8809
56.6779
64.4956
55.2139
68.9541
57.0297
52.5062
59.0189
56.5895
53.6859
49.7835
50.4815
50.1668
48.9539
47.7415
66.1452
58.3755
54.0122
53.847
59.7957
55.4073
55.1909
65.283
51.6267
67.6355
47.521
44.4561
55.5054
55.0466
53.289
52.7232
50.5359
51.026
64.6267
49.9665
55.6385
62.0966
52.0172
53.6646
50.4739
52.9866
55.2837
61.1049
49.6584
57.1098
55.4016
48.3227
56.0381
48.205
61.0973
56.9732
56.3552
50.8482
52.9066
55.007
52.0554
51.5749
51.4971
59.4234
51.3862
54.1414
53.1168
51.6221
49.2425
57.5516
52.4479
67.1347
57.2204
67.88
53.6011
60.5419
54.9484
58.6034
49.9101
52.5743
54.4315
52.4417
49.6778
55.1638
52.8389
57.8324
53.1729
50.4701
50.2002
49.856
55.5236
56.5428
47.9454
53.6837
52.5873
54.2346
55.655
52.3035
59.5987
48.5151
49.0442
48.0292
49.5414
63.7815
62.6917
49.7995
50.8474
50.8713
59.9047
52.1697
58.9007
52.537
56.917
52.4398
50.8752
55.4208
52.8637
54.8756
48.3655
52.9004
53.7861
61.9095
56.035
54.7201
57.2439
53.4784
53.303
48.7981
55.2161
51.8309
58.3902
60.5136
56.048
61.4163
45.5735
51.1292
86.198
53.6623
55.7112
49.4838
52.7537
56.5159
50.4504
50.2241
64.9869
69.5124
60.0504
55.9106
52.8786
53.7866
58.431
54.3653
50.9444
52.1918
56.0727
49.389
60.1634
51.3755
49.3713
51.2616
51.6908
49.5486
47.3066
58.6178
48.8798
55.7391
61.8774
53.9148
52.6286
51.7327
52.29
55.7189
58.794
54.267
57.6069
51.354
56.1757
58.5783
54.3207
51.0526
60.0747
55.5517
55.9836
48.2925
57.2073
55.4222
52.3833
54.291
59.8162
60.9008
53.3113
60.005
60.3906
49.5187
59.0645
55.519
61.9702
51.6558
60.7145
65.9792
61.2603
62.5838
59.9387
56.5097
50.5939
51.9044
63.5997
55.2179
55.7758
63.0505
50.9317
53.3945
54.3014
50.7657
56.8949
60.4318
72.9872
52.3987
57.3374
51.5708
53.7789
66.239
54.5913
54.2486
55.3404
62.9564
55.1622
57.8747
46.971
57.1088
61.287
61.0028
55.6184
61.6251
54.4181
53.4909
57.7711
62.5923
66.2926
51.5056
94.1275
53.4983
48.3168
61.0996
55.1454
57.7307
50.3135
49.4131
52.9323
48.8669
46.7833
58.7604
56.7871
50.2723
50.7616
55.7587
57.4029
53.0048
55.1372
49.8379
52.7881
55.9196
60.8039
54.032
58.2587
56.9479
56.5172
61.7986
49.4484
49.6219
51.9376
57.5299
51.7146
58.0549
58.4008
53.8616
50.19
54.5333
60.2335
52.9512
63.8184
60.4223
58.8509
56.6501
52.0777
51.1688
55.1045
50.7924
53.0484
56.959
47.0431
52.6089
53.8843
51.5904
53.8033
59.4094
54.775
53.9947
52.5256
51.816
52.6362
53.9751
61.0017
49.7507
54.3703
50.1222
55.5699
58.6664
55.5487
61.6382
55.5186
53.2432
55.764
52.1297
59.2299
64.5969
49.992
51.2188
48.8665
51.428
54.9129
48.4046
53.0261
51.2324
54.385
56.1917
54.6309
52.1079
51.6344
61.2807
51.1407
49.2909
57.2872
48.521
57.5503
56.1688
52.8762
55.8261
65.6726
49.5747
55.3439
51.4494
62.8113
49.5656
51.758
54.747
53.4406
54.6912
48.0867
51.6752
54.6766
61.1973
64.5659
53.8393
52.8554
55.6085
50.6342
50.2004
52.6531
62.7049
49.2489
62.7321
61.7371
60.2368
60.4155
56.1685
54.1482
64.1185
57.9729
58.5359
52.3829
58.7464
53.5577
52.9486
50.981
55.6611
51.142
50.1869
76.8751
50.9158
47.5343
70.8417
54.8363
53.0526
49.3501
63.9496
57.4183
50.658
53.243
49.0629
52.6689
52.3154
52.9651
64.8865
61.4616
62.7747
61.5993
61.605
54.0205
56.7446
49.4256
53.7026
73.997
48.6541
50.4758
55.8427
48.0484
60.6015
55.6208
57.4735
58.2067
52.6279
53.8785
62.5758
52.3818
53.4902
61.189
62.6273
57.835
52.6329
56.9625
48.2565
49.5141
57.1933
59.4998
50.246
55.7399
45.3877
49.2153
67.9932
60.3426
58.4884
49.9854
58.0063
56.8557
64.6437
52.6153
52.6386
46.3344
56.2965
56.1525
51.5764
54.7589
55.6415
64.7097
53.2635
53.7875
49.2688
54.1433
56.7629
53.0898
57.5063
54.3245
46.8004
56.7794
61.4469
48.0216
65.0363
55.2842
53.1351
60.4859
47.6441
54.5692
46.7034
53.8239
56.3174
48.9219
59.7011
58.9097
50.1401
54.9064
54.8139
54.0265
59.7937
63.4266
46.6295
55.5803
61.3394
49.7552
57.7877
61.2424
69.1395
59.4767
67.6754
63.1349
52.2735
55.8783
54.3998
56.1575
61.7678
55.4925
62.3935
50.4488
53.6725
56.815
49.825
49.2251
51.2779
59.1103
67.2406
57.5234
50.0113
50.6234
53.4161
47.0349
51.3255
55.573
48.3401
54.9721
60.0741
49.9849
54.985
53.1043
55.3594
54.675
53.5423
50.9376
59.4206
61.223
65.4335
53.0986
65.7372
48.8757
51.1549
51.718
52.169
51.5661
65.2718
60.7303
55.1931
56.4451
53.9584
56.5653
57.8038
53.5762
90.6518
61.7133
53.8429
53.9481
49.8834
58.1146
51.1816
56.0887
56.8978
53.6241
64.5054
54.9964
50.294
52.8117
51.0796
54.2245
56.0236
54.5709
62.1548
49.8959
51.8707
48.3704
63.5763
59.3289
47.7987
49.5347
60.8165
51.047
65.0105
51.8347
48.0103
60.3612
56.0171
71.0199
73.0746
56.1674
52.4661
54.1778
51.8216
54.4172
60.7252
58.8368
59.6431
53.5805
55.7078
48.5461
50.365
47.1455
51.0188
46.0766
57.9184
52.6571
62.3349
49.214
63.4941
59.3133
54.5688
56.3466
55.6555
59.7361
52.7355
66.3055
56.2016
46.0855
62.7474
52.4926
60.8157
52.8085
55.7954
50.1025
50.6576
46.6813
51.8505
55.7748
52.9609
57.2062
55.967
62.9503
53.2645
58.6019
61.428
60.3351
61.3832
49.746
58.1648
55.8388
56.0762
53.5447
47.7
48.6901
55.1455
53.5017
51.0189
52.6011
61.6608
50.3589
60.2731
50.0537
62.6663
59.7503
55.8189
52.4438
57.7501
52.6785
56.9103
51.6385
60.9499
55.0194
55.3842
54.5158
51.9148
56.8129
48.5798
59.3339
50.0804
53.5572
49.9706
63.3324
49.8729
57.5519
58.985
56.5777
54.5987
50.3851
48.8104
50.1961
60.4763
49.7429
52.2621
51.9249
53.3113
53.5694
51.3756
53.583
51.5814
47.8736
54.7445
47.9186
55.0368
52.4172
52.9394
54.3917
50.3251
47.7056
51.0531
52.5355
55.748
56.5164
57.2316
