46.6658
41.6455
53.9804
53.8797
57.9634
55.9034
39.6658
36.4831
36.4113
40.126
40.5142
40.829
35.2395
63.6162
41.2184
33.3588
34.4334
38.1457
50.3586
40.4841
41.4056
50.5039
69.2664
40.9137
53.4503
41.7999
39.9725
46.772
41.9596
40.6367
55.5364
60.5816
35.7055
65.0182
56.9882
44.7654
48.7098
37.6395
44.2387
34.7405
40.3467
52.8321
48.3071
96.1855
40.296
41.7638
38.045
44.7761
43.0159
41.7714
39.2792
33.4049
37.1337
45.4684
36.9618
44.8176
59.3022
47.1811
37.2521
44.1951
45.1324
44.6567
36.9626
38.6693
52.4534
40.9203
34.4342
46.1852
45.5268
50.7388
36.0756
39.2923
38.2436
30.6664
52.0859
49.5956
49.0991
43.6808
66.4056
44.307
45.451
45.7657
46.8615
40.9997
32.874
49.4948
44.5749
46.0861
49.7333
47.0864
32.8854
44.4212
46.58
64.1646
35.3017
37.5652
58.2959
42.758
45.9046
50.5341
51.1409
39.6029
43.8499
50.6122
38.5834
51.9946
34.6414
46.8022
40.1168
42.4021
36.0741
46.3431
38.3511
40.9141
55.6846
44.9665
44.4215
47.3259
53.9455
44.7615
37.1114
42.8342
47.6817
38.772
43.0697
40.5884
36.1443
34.5483
39.2627
35.1184
60.8839
37.6958
55.5457
36.531
62.9326
44.5289
43.9812
49.5619
59.4192
49.9201
35.9605
39.5727
53.1594
52.9207
39.2174
44.586
43.8176
42.821
55.0866
46.9392
48.2038
38.1869
67.6005
39.3688
54.475
36.3814
40.2566
48.3543
51.8568
42.5846
50.4014
34.4984
47.6304
39.3434
41.6476
37.296
40.4651
34.9065
38.4658
43.615
47.6697
46.0477
43.0938
65.5066
48.8382
37.6596
49.8498
57.962
50.1267
49.6774
43.4771
35.4576
39.6561
55.7374
65.7618
37.7511
38.4081
43.7487
53.0208
58.3524
47.7264
37.5556
76.4527
40.6808
41.0014
61.3489
56.2065
55.5098
42.8479
50.3567
40.7274
33.5801
41.0018
35.8806
60.8189
60.2754
35.5572
35.6516
50.9565
46.0562
39.5621
42.8528
46.2877
44.5213
40.417
57.889
37.041
43.9264
59.5377
44.858
40.9258
40.8376
47.734
45.8028
33.3656
70.1563
40.2143
37.4247
46.1806
36.5635
41.7572
36.0486
41.2789
37.587
34.2631
55.3534
51.1815
43.7159
48.4454
36.9369
57.9178
55.3923
50.0861
40.4169
41.1129
50.5245
42.1328
40.422
37.1958
51.0022
50.7744
60.1199
40.6626
34.2384
46.329
46.47
44.5868
45.5997
45.1368
52.5371
51.3556
41.6792
44.8825
40.4058
60.4673
44.3866
57.434
63.888
45.6179
31.9629
47.8149
38.5522
55.5609
55.6592
54.6736
46.6908
35.713
39.1447
38.9415
34.6592
35.8402
42.7234
32.303
43.8195
62.7369
40.9223
52.4947
42.2944
46.0211
42.3336
43.9254
36.333
37.3412
53.2509
34.4109
48.3008
54.5512
42.0884
41.2654
43.0858
60.9039
34.9413
45.2439
55.4016
58.8031
38.8412
38.9305
38.7065
36.1365
54.1293
40.9317
40.441
54.9099
51.6381
49.8026
35.7629
50.7383
39.2888
40.3536
51.0388
49.4425
44.2835
39.9504
63.3606
37.2921
58.8279
40.8062
57.0074
37.1217
57.8841
39.9342
43.5008
46.4897
47.2898
41.9989
45.1411
50.1991
43.2014
37.7234
44.4482
64.842
36.4901
42.018
42.197
38.0324
49.7783
50.781
51.2603
41.7355
38.6858
39.7711
51.7466
34.441
42.8787
34.4012
56.0363
63.9407
51.2257
32.2813
34.2897
44.2969
42.636
45.8457
44.8507
48.7257
39.6398
43.3342
68.1337
49.1877
53.0308
41.7209
44.784
54.2348
51.5624
52.6071
43.2445
42.5309
38.5309
48.6939
42.2258
42.3045
50.6265
49.2219
76.1851
35.0886
49.0289
39.492
62.3216
47.1585
38.0764
38.9163
35.0034
48.0249
59.257
70.331
45.7105
34.442
43.1784
44.967
57.9914
54.0889
55.5909
36.4951
51.4579
39.7913
35.223
59.5495
51.3108
55.2005
41.2826
52.713
41.1362
45.3736
36.0973
43.837
38.6504
51.7993
39.1397
40.226
40.7094
41.1702
65.5062
44.5843
46.5689
44.7753
44.8288
51.8384
43.0946
39.5944
34.8083
36.1679
42.7362
51.7635
41.6003
56.2885
45.5698
46.8749
43.0807
64.3879
47.1232
44.5562
53.5327
40.6316
35.8105
30.5942
51.2307
41.3428
37.4189
42.5224
30.0318
58.6619
41.3777
37.7925
48.2937
41.6856
37.9301
38.8614
51.6293
56.1495
35.7418
36.2933
43.8081
49.689
36.7894
47.9173
52.1489
56.8733
51.9994
32.6691
36.6316
64.3892
42.9314
55.9796
58.0754
51.2897
42.9687
44.8163
42.8388
42.9861
37.7565
55.146
49.9019
39.8443
44.2106
47.2326
43.3002
41.2547
76.8501
72.2342
35.6091
44.2137
45.2196
53.8627
65.5445
40.8605
45.5299
45.7054
45.7397
53.5504
46.7751
46.8857
43.6913
36.2029
52.0401
42.5182
39.2931
38.3607
43.4003
48.4164
48.9421
42.7458
42.7265
51.949
42.8173
48.9136
60.4465
57.1057
51.9365
45.7975
49.3298
53.0815
58.6487
53.9094
53.4017
39.1537
44.8588
47.6252
54.7077
53.95
40.8659
51.3964
67.9132
45.0525
48.0391
54.0967
43.667
54.8881
46.6974
41.3043
46.0564
35.7516
43.0131
57.9331
42.2298
39.3468
43.1487
35.416
58.5019
51.2178
37.7739
41.197
57.248
39.3224
73.8936
51.4124
44.9376
39.3476
37.0666
38.9765
42.1513
65.1547
40.4093
45.9375
62.6577
40.7287
42.5317
46.3344
42.1466
53.1392
51.2684
35.5691
40.4359
36.6136
39.754
34.6858
45.473
41.2427
46.9003
55.9445
37.037
38.4622
37.8234
36.8487
39.7713
45.8846
51.8636
54.8615
39.9812
47.9512
46.1192
50.3273
52.3774
59.4283
36.6279
38.9071
58.7077
55.7363
35.5332
32.8708
43.6406
62.1434
45.2196
51.6089
72.6725
40.542
43.4799
45.6004
50.397
37.5621
55.1966
50.504
33.3043
35.6935
44.5862
45.2956
43.5853
42.6757
51.1046
36.5172
44.0044
49.5229
40.5425
45.4476
49.3055
45.864
40.5546
47.057
41.288
51.3588
62.4279
84.5362
49.1658
40.5795
33.0019
62.8419
41.1275
70.5392
48.2789
46.7168
37.009
46.1157
34.0092
43.9521
49.8927
45.8879
54.633
33.9421
43.9378
32.7836
37.282
44.1207
52.7733
40.5972
33.5462
75.2529
41.1229
32.6534
37.4246
61.4552
42.1351
40.628
69.8713
43.9914
49.347
32.9665
36.8948
35.5371
52.8458
46.8042
37.6148
42.017
57.7904
37.2486
46.6425
47.2397
45.71
38.6143
46.702
40.6312
50.4441
39.938
40.1778
81.399
37.255
43.2488
35.252
35.5123
34.8258
42.83
54.6641
38.1498
42.7029
43.2388
47.6127
49.7881
54.8904
37.3785
46.3755
47.3109
54.2867
40.0735
38.3175
43.8991
51.6384
55.2101
60.8268
51.914
42.4946
46.3249
56.182
56.2779
53.076
47.9711
45.8638
60.9171
37.4366
53.4583
49.4165
34.2392
51.3489
36.5342
41.5305
44.561
56.44
37.2887
38.1138
43.3039
44.997
55.345
38.501
41.4023
37.0566
45.1919
41.0275
42.7295
51.0156
58.6752
56.2281
52.9264
35.7201
47.108
51.408
59.1617
30.3337
72.6748
42.825
43.4834
80.5854
45.9027
54.891
40.5106
40.1047
34.2019
41.9614
49.342
46.6294
54.0055
42.3664
36.9939
42.4584
37.7512
41.3764
40.7647
40.4111
44.4938
37.1235
53.7404
60.2436
42.0752
45.713
39.6369
56.7698
35.4058
40.1363
50.8285
40.437
46.5353
38.7859
50.6629
52.7874
44.5154
42.0775
87.0542
49.4337
36.8465
48.3665
51.2867
47.1312
33.582
47.4232
46.7893
37.8424
41.83
36.5238
42.8213
46.879
46.8384
36.7632
56.2625
46.2626
47.2945
43.6664
50.2488
51.9173
57.5773
41.9375
37.4169
42.9359
36.754
48.3971
42.174
40.1842
43.1929
39.2096
41.4093
37.5115
47.874
48.6559
48.818
36.0402
44.3727
69.96
37.712
39.0682
50.0278
44.8301
36.4195
41.5425
41.77
50.227
67.2321
36.6773
51.5978
60.4791
36.4848
41.3395
37.6701
58.5323
84.7006
31.1539
35.2903
46.1778
41.6425
46.5237
42.0555
44.3721
48.271
54.4476
46.7383
43.4701
56.5285
39.901
44.214
46.9828
47.4294
49.1053
43.3155
63.038
53.1155
46.1456
36.8393
59.2497
40.4113
45.986
63.9268
40.0051
70.5133
37.2556
61.0052
47.4783
77.4381
47.764
53.9655
48.0502
68.8077
39.9877
40.8371
51.7189
39.607
44.0754
42.2579
57.7592
40.1363
34.5987
49.4721
41.3005
38.5407
38.6287
44.2639
40.418
33.4245
48.3534
47.6907
51.0022
63.2497
68.8083
46.9473
33.796
43.8891
35.514
59.3793
43.6364
39.4672
50.5938
61.1609
39.3037
39.3193
41.8085
56.7369
56.8499
55.1411
55.8739
34.6022
45.6512
41.0887
39.6131
39.8951
39.6077
52.1447
46.9265
39.5101
52.2703
63.2528
56.0638
53.7503
33.9311
41.512
59.5906
42.1711
59.8743
41.8768
44.466
38.8592
40.3097
39.7972
50.7449
45.2243
36.6877
45.0823
42.9892
66.6486
40.607
45.0523
42.9671
47.1996
46.2718
35.3952
50.5997
38.6841
49.3547
55.5745
54.7904
55.8661
36.6928
45.8297
53.2844
41.439
46.5134
52.6732
41.9118
39.5339
34.5702
76.4138
54.1704
45.8971
61.5689
67.7024
55.715
61.0307
74.2931
39.2479
59.3726
35.8211
45.6984
37.6328
36.0943
47.3057
37.4687
42.8677
48.8987
55.214
62.7208
54.395
48.4946
66.2277
48.0349
44.8385
69.142
48.7831
35.418
35.7829
32.6771
46.5249
42.2668
44.7981
59.686
43.8659
47.2519
40.7153
46.6209
52.0774
50.7879
61.1007
51.8968
48.3548
42.5717
40.538
46.3387
51.0847
46.8949
47.759
44.1529
52.6669
50.463
51.7796
42.2178
40.632
34.2923
47.7054
44.4775
36.1712
38.9926
43.6333
48.3835
42.2597
40.3192
45.1733
35.0074
40.5497
51.7375
39.3737
40.753
53.7967
38.55
33.5208
42.9249
42.8212
42.5469
47.8275
41.4731
38.8174
62.1889
45.0826
47.5061
36.0583
49.1792
42.8222
40.5883
44.7696
33.1985
44.8224
51.7151
28.5734
31.8403
41.8729
48.0322
39.4243
43.0685
54.5271
38.8228
59.4672
40.4902
38.1117
38.4709
43.1263
66.1333
53.7612
39.3277
50.3636
38.9926
44.3076
50.524
51.1562
38.2019
39.7047
31.2483
60.241
43.5054
39.8214
56.3776
45.9061
57.3166
40.565
59.1078
44.0051
36.2157
38.1039
50.1095
48.5332
40.119
74.0975
52.6059
48.8366
51.4527
33.0918
35.4885
34.75
34.354
52.4403
35.2173
43.6883
54.2815
39.0996
40.7485
42.4828
43.8915
68.4129
52.8309
39.4926
46.3535
51.0271
47.1082
42.4454
34.754
34.3782
39.5981
40.2519
42.2757
39.6592
45.1007
37.0957
37.3547
51.8442
62.0367
44.6959
44.7878
43.626
53.3242
41.4965
37.0545
50.4484
39.1412
60.8258
39.1767
47.2741
47.1051
52.1478
42.3563
46.9198
57.0482
37.6056
51.8274
47.6298
39.476
43.9699
63.7075
35.9361
40.0237
44.1408
56.0407
47.1354
42.8224
41.1338
41.2756
40.7405
41.634
38.482
37.7997
38.1574
34.6253
31.7768
41.9436
42.6065
40.8793
56.2649
56.4079
38.2013
43.4559
67.8178
43.19
49.7397
34.23
36.052
41.1254
44.2924
41.6347
39.2376
35.8596
51.9177
40.5335
39.581
41.2227
40.8726
37.8233
48.575
45.8528
62.2177
46.2378
35.2098
42.458
46.8952
28.6545
61.0196
46.5778
39.288
61.3915
45.6235
55.4567
57.5574
33.1349
50.3316
39.6498
45.8078
39.523
41.7441
46.208
53.096
39.892
37.0353
38.7495
36.8471
36.4845
54.8821
47.2293
32.8803
44.5537
49.1086
45.1754
48.5271
48.7567
48.2266
64.8446
31.3355
46.3355
58.3809
52.4302
42.7474
33.4357
38.9689
51.9359
45.8597
49.8017
60.283
44.8316
44.5942
49.8279
51.2319
36.0044
64.357
51.3775
40.6794
54.8458
47.4342
35.1542
50.5719
42.2303
39.3787
40.1017
45.8543
36.1109
41.6891
46.7503
51.5056
45.2979
62.9133
40.256
58.8268
68.6133
52.9881
31.0391
55.3906
41.0822
43.6512
58.1437
33.9145
47.3186
44.0704
45.0862
46.1888
32.7139
55.1663
42.0323
41.056
43.532
45.2731
49.5308
72.3364
66.0422
35.6712
37.3422
43.7122
36.2664
44.4039
45.7563
40.8166
50.5207
42.6808
46.0253
44.1317
39.7845
44.0928
43.0212
61.0118
55.1281
43.4238
35.2319
55.2968
39.133
41.9841
44.8474
47.3521
33.7928
47.3189
43.1266
45.0753
38.1184
37.502
63.0085
41.1911
33.9848
71.9025
38.6498
45.6198
35.3125
46.6019
58.356
38.022
44.0233
56.0317
41.0402
41.5276
46.114
32.545
43.0534
38.8343
52.6789
57.2304
43.3855
39.0467
49.7351
42.7906
38.5642
37.0543
36.2791
56.977
45.8391
41.6234
58.4028
52.0888
33.1777
43.8706
51.7813
45.033
47.8378
38.2526
40.7182
51.9758
35.5506
43.5981
36.4638
48.7663
38.5432
47.6923
44.2476
43.5759
50.2784
49.0836
58.3624
40.3436
39.8117
37.4833
41.0207
43.8192
52.3044
42.8775
42.7091
45.5086
54.7759
55.9817
41.3168
37.6946
46.9002
39.3674
40.8777
44.9773
36.4778
46.4827
44.0296
36.9291
42.2011
53.522
51.1863
49.5328
41.7759
58.7042
41.7747
42.3254
39.2687
57.8529
40.1544
35.8048
38.8131
48.906
42.3097
41.792
36.7704
34.7159
43.8407
48.7442
45.5942
37.7637
42.5956
44.7831
40.4982
39.953
33.8852
49.4617
41.3573
33.8289
42.2572
50.6863
51.0383
41.5196
47.9508
39.4575
39.7007
48.5109
38.885
45.362
48.9098
47.3389
42.1059
45.3904
57.3081
47.437
50.5168
41.1507
64.2917
37.0758
37.7765
78.88
39.548
42.4076
43.6343
38.6872
57.5412
43.0659
52.7208
54.3995
33.3452
60.3814
45.2478
43.8992
37.4585
55.8263
43.9713
45.2861
42.0159
39.3407
50.2724
36.5146
56.5614
41.5999
64.2964
51.3989
37.6711
51.3532
39.0061
40.0497
50.4218
47.3987
47.9901
42.4628
35.9374
35.0921
35.4568
58.2007
46.7672
38.1257
29.66
47.5801
40.7975
48.7846
47.9719
38.6115
51.9883
37.6997
45.2178
34.9291
37.7934
50.8598
48.0871
56.8147
39.0189
41.5604
48.8972
43.3032
57.7786
39.0702
42.149
40.3983
58.402
51.6302
36.4121
44.816
46.3665
37.7405
45.922
81.0048
30.4927
38.2401
48.2168
56.5633
38.8481
51.2815
36.1889
37.3597
44.7699
35.7166
48.5626
65.9685
42.4373
63.7736
44.2837
40.9716
55.5409
47.1263
42.9846
48.1205
40.7516
73.3671
63.313
61.9302
37.0174
54.1812
55.423
42.7614
52.7209
41.0136
40.6127
44.7826
47.0043
42.087
32.8691
35.1627
43.2262
43.1753
44.4344
41.8865
47.9771
51.3612
56.5977
43.4656
44.6134
39.7359
56.2521
42.6219
45.8565
36.0919
45.6225
32.3404
58.615
52.2519
37.5199
52.39
58.1088
47.5325
38.4668
43.4311
35.8894
43.7482
44.3774
47.0905
54.0348
49.1696
40.1526
45.8032
41.4566
44.0413
37.0474
37.6454
43.8254
47.7026
49.5686
50.4448
39.1828
71.764
40.6222
36.9951
45.8112
44.2365
34.5457
45.1094
43.9408
41.1887
61.5357
37.4887
50.586
54.5249
45.1732
44.2562
33.8538
75.781
51.0441
42.9447
44.7155
40.4274
43.8578
35.4885
55.6523
45.9335
37.5731
56.1184
46.3292
44.6456
46.22
42.5503
39.0189
39.0324
40.8967
40.6556
50.3116
39.9685
51.4435
41.0576
47.8266
43.6426
51.0852
53.5139
40.2705
46.0564
40.3364
34.5759
40.2688
46.3226
37.9866
38.4935
53.428
47.9816
35.2859
39.5837
49.3404
46.4662
35.6517
47.3132
49.0009
60.9969
37.7039
40.1031
65.6487
42.4827
58.4954
35.3065
36.2155
42.7759
41.8164
37.9724
50.0897
56.7825
59.8666
35.6447
49.4705
41.6234
46.4632
79.4914
39.4086
39.2365
38.3416
78.2076
67.6205
45.2391
49.697
39.9774
47.5787
51.4669
44.0376
38.5122
68.4764
45.0842
34.2853
51.9255
44.3408
31.3258
34.5213
47.2399
42.4145
42.4235
42.8805
44.8476
34.8291
41.9246
42.5011
43.3409
47.7417
46.0544
37.6324
38.4012
49.7875
58.8357
46.9885
36.6454
39.4643
42.091
33.6097
37.613
57.1538
40.2877
45.6562
55.0486
45.455
45.6782
40.1212
48.8828
41.1133
45.1904
48.9805
40.6337
42.6345
59.2218
34.2768
37.6462
42.6699
45.3829
43.366
39.0893
58.2715
41.6444
44.701
52.9636
59.0259
66.1355
46.4679
50.9232
38.5825
66.4748
42.6295
49.2916
60.8303
47.7167
38.5053
46.2917
43.7438
37.6925
37.0251
47.648
41.011
70.7633
51.4745
46.5325
43.8858
40.179
54.0747
35.1691
41.2631
45.7988
58.2097
44.7446
60.5761
38.0373
40.7919
40.0929
46.3153
58.5255
46.2006
31.4264
47.9853
65.4317
47.6064
37.8041
50.6621
44.1876
44.9927
40.9653
45.8673
34.2105
45.4187
49.7576
70.3812
37.1583
49.1649
30.83
37.5028
46.9704
40.6977
34.6068
43.1042
42.2104
37.2344
48.7886
62.2523
31.6828
37.1859
37.4517
35.7776
39.4089
46.2589
46.0745
44.9498
41.5971
34.7757
42.6911
46.2457
44.956
45.1937
38.7289
33.2827
38.0183
63.9758
45.0926
44.5915
39.5205
42.9051
37.5433
62.9214
37.4852
45.2587
36.1652
35.8459
59.7564
48.8889
40.4539
33.5908
42.6826
70.686
50.0184
39.2517
49.3307
44.585
46.6471
39.8521
38.0651
40.4632
34.244
40.0031
38.2629
41.0844
29.2602
75.7045
40.9862
38.7111
53.5291
45.1735
35.722
55.2157
39.6633
41.467
39.9399
33.3495
39.9858
44.4154
40.7968
48.1822
35.649
37.6789
46.7773
48.9611
38.7127
38.5828
48.2258
45.1995
45.2325
39.7184
36.2743
72.1552
45.0159
57.2515
47.9785
62.3823
59.9805
39.4343
47.6552
40.8541
44.519
48.2683
44.2808
41.9769
45.5598
45.8222
61.8199
42.1225
36.0765
48.002
36.5089
31.9489
47.9718
39.6346
79.2755
46.8054
56.7124
56.538
50.0334
43.445
40.1467
52.4062
39.4177
68.9228
39.3028
40.5998
44.337
38.9047
38.3628
38.8266
59.0161
46.4996
50.0745
48.6516
44.5021
61.3982
52.4002
50.7274
46.1231
65.4193
45.4998
38.0619
40.4363
45.4972
35.0406
60.1845
37.3396
60.8252
43.0376
41.9412
46.9494
39.9091
55.8806
40.4887
42.3908
52.6725
39.1668
48.8997
45.4754
72.3704
35.4329
32.7623
46.4129
57.3879
36.6038
34.0596
42.8302
41.1509
35.9129
75.2718
50.7199
33.9126
51.4409
40.5133
37.9336
40.5073
32.8801
35.7421
42.8187
45.0061
39.1854
45.6252
68.951
45.4149
59.1211
38.6734
45.3069
39.8001
39.9157
50.3968
37.5423
53.6515
44.2216
44.2891
51.2308
55.2904
37.8046
36.4363
44.9398
51.6537
42.7207
44.7385
44.3936
46.2449
65.6626
33.1853
64.1512
50.9667
55.6736
51.7664
53.7988
51.507
40.8505
51.2371
49.4813
36.5683
47.5552
42.0688
41.9099
39.486
35.8743
61.4512
47.4671
55.9971
41.9145
44.4554
42.3128
54.9997
49.6443
34.5109
36.7024
37.8601
59.0088
64.128
38.6813
42.3242
39.1759
41.8626
41.6703
58.9507
44.3558
56.4935
49.4759
56.4239
44.3966
64.4448
53.7968
33.209
37.6112
36.1801
49.4872
67.5325
42.2518
39.88
41.4122
44.3035
32.9587
34.6425
52.8358
46.1434
47.6569
38.213
50.0674
45.0808
49.5836
42.277
37.0737
41.5769
38.645
57.0663
48.0446
57.6662
78.5356
48.2957
39.9832
39.3845
38.6474
40.1214
37.142
48.7613
36.9783
55.4597
50.6255
44.6156
38.0594
41.2461
40.0489
39.3554
39.2634
43.9007
56.2111
34.6629
44.0169
50.025
60.6872
45.0949
54.2649
35.7452
39.0661
49.5686
58.7175
39.8083
41.5965
38.7016
49.7282
41.7082
49.0694
35.1976
54.5959
45.7031
43.6012
40.7027
42.8812
85.1481
40.6367
54.0348
45.5963
48.5599
43.4615
44.1338
53.1759
53.2005
51.9907
47.2182
46.3633
39.7804
72.0033
45.8654
45.4224
39.3672
40.6547
56.6374
38.4334
43.4865
32.7416
37.2699
41.9833
51.6616
43.4935
59.8347
57.9627
42.4279
50.4043
69.3808
46.648
37.8418
52.4991
35.8728
47.764
37.1416
49.9453
39.8785
43.738
65.5254
50.619
37.2585
42.4102
40.9945
39.3237
45.0809
42.3122
44.0374
48.3751
45.1657
53.1442
41.3964
49.7339
41.0789
45.0983
42.8314
45.6704
40.33
34.3914
49.136
50.2311
58.7612
40.3072
55.377
68.5084
39.549
40.0596
42.4301
43.6028
37.4207
51.3262
60.3615
39.5542
43.5564
70.8378
45.8061
44.8631
48.7618
42.7322
47.5528
34.3313
41.685
48.217
46.7213
36.9791
54.9873
41.0245
48.3921
45.487
44.5607
42.9659
37.8373
31.7725
39.0096
38.7916
42.8613
51.7011
51.6942
53.648
53.8118
45.9828
50.364
39.7438
50.5962
41.484
41.8243
34.4079
54.7455
37.1847
53.7986
69.5147
48.8359
37.0427
40.2511
40.163
35.9161
33.1565
39.821
35.0619
40.8858
41.2962
42.1682
42.8774
40.0022
50.9414
50.1842
40.0775
41.7023
35.5086
39.7669
44.7787
50.3854
41.0468
44.2165
46.8112
68.603
41.5249
63.2144
47.2766
52.8906
47.5107
36.3141
44.1755
37.444
43.4421
46.1986
38.9829
52.0243
44.9159
52.5289
40.849
41.6328
37.4715
40.5007
48.3336
66.8925
39.0893
48.7557
43.0835
41.2398
52.2245
49.516
45.6985
58.4479
45.1183
53.8483
34.0891
54.6184
58.4263
47.0733
44.2344
38.6136
41.6547
44.9063
45.5605
68.9068
50.9495
39.4437
43.31
36.938
51.6069
58.1629
53.51
42.5552
49.5415
43.8649
48.5321
52.1643
45.7767
54.9975
44.748
49.6261
42.0071
41.5775
48.8702
41.3301
41.4844
63.8845
34.2917
53.1202
44.6939
33.4967
40.0713
41.3803
37.5989
54.2282
42.903
40.0897
40.2595
48.7661
52.4004
40.0636
61.3598
45.7532
50.9259
52.1364
51.0018
47.1643
52.8356
53.9702
32.3143
36.8322
41.5166
35.1054
50.5012
44.4006
60.8713
44.3803
49.3436
45.0955
53.2787
43.253
71.3347
31.0854
34.9548
29.4379
53.2939
46.4721
36.6118
45.1603
53.1563
55.974
45.9471
46.6431
50.3359
48.9031
61.8675
37.9414
37.6039
38.8019
63.4713
48.3913
63.1142
44.5591
37.8848
47.8539
35.1778
50.3704
57.7729
44.9428
59.6656
65.841
46.1584
45.1834
43.8652
38.5998
47.2466
46.5742
56.2048
53.492
41.6721
44.3432
37.5162
58.8261
39.4561
47.6874
37.8704
46.4834
34.6808
56.6547
39.1846
52
43.1579
48.6162
41.0219
46.1773
32.513
52.3482
48.012
37.9902
45.1044
48.3115
42.9587
36.8698
39.4787
59.2716
43.7667
43.8289
39.7595
44.3605
51.4094
43.5797
31.9612
36.6696
61.0863
37.9611
45.1981
41.7595
36.4918
33.206
48.6078
51.3655
35.3388
55.4966
33.0502
44.707
44.9809
39.8238
50.4774
45.2472
75.4296
40.8029
41.5673
34.1323
64.0443
37.0649
48.8144
41.8322
53.5754
47.955
40.1929
50.0903
38.9221
55.6052
37.0758
46.7214
58.2191
49.0583
35.5837
58.7275
44.7235
41.2239
39.4659
74.7025
50.9082
52.6389
49.8955
35.5213
39.967
56.8499
41.7089
47.8976
41.4755
38.5236
42.242
41.0738
38.6998
47.1151
57.6471
44.2699
48.552
49.5778
37.0169
50.0231
42.2145
51.7569
45.397
38.6236
37.7211
41.829
43.079
46.1121
41.1549
32.4228
38.6165
45.828
37.9619
54.0493
34.7077
49.5061
64.0917
44.7389
45.6005
41.3604
49.5857
46.2807
31.8332
48.4858
52.9619
56.7713
34.1392
46.4372
48.5204
56.3066
60.4806
69.0676
41.5345
50.5547
44.7544
52.8188
41.106
41.9819
45.514
37.8064
39.6561
49.0624
42.8787
35.4897
36.8554
62.9214
44.4043
31.5253
37.3832
49.4726
45.9787
34.5063
42.8535
47.6218
45.6958
45.7352
34.8658
43.894
52.4691
48.1778
31.471
56.5501
32.8312
42.768
38.7819
41.9944
39.5383
49.2473
34.443
37.7896
42.9881
50.3123
39.5579
42.3627
51.6644
37.1388
39.6203
38.9277
54.4238
43.7646
51.9027
38.1697
36.0219
40.763
32.4227
53.4048
38.6001
61.417
50.451
45.4761
38.3772
39.8524
59.9635
35.0053
61.1726
45.1303
35.4063
37.1926
41.5053
61.7075
45.2201
45.4413
42.8213
48.4027
63.9663
39.9193
64.7682
49.1304
76.4104
36.6292
34.5854
47.6811
45.7992
45.1341
45.4176
74.8287
44.6107
49.7068
37.2129
56.7611
45.8056
40.1408
39.695
50.1015
49.8348
43.0188
46.5299
64.7406
65.0974
44.5895
51.7985
54.1477
43.3225
43.4198
37.1336
48.707
47.9743
47.2585
56.6206
37.9674
44.4673
50.4561
42.7979
35.7899
36.8732
49.2833
73.302
37.9621
45.6303
66.1001
54.0549
58.2947
35.7466
44.9239
61.483
42.7098
45.2626
42.3202
61.7667
43.0607
44.0361
56.9896
66.3951
48.7117
54.429
49.4522
43.6906
60.8003
41.6585
46.4214
44.248
34.0702
63.206
50.4773
85.7534
41.5125
40.4881
36.3588
69.4851
43.1886
43.0052
47.1126
56.4747
45.2049
68.0842
44.7286
49.4842
45.9729
38.7975
46.3433
48.812
34.3346
49.7214
52.893
40.6229
39.3444
38.6101
43.3085
46.6644
53.802
38.3948
48.6017
77.6152
57.0779
40.7132
52.4567
47.5064
36.677
43.9071
47.9545
75.9185
35.7132
53.0384
48.8002
43.8953
51.5435
37.3474
44.4782
45.1218
44.4136
49.849
43.4429
41.0906
45.4202
48.3231
35.5003
68.2139
47.524
51.0867
60.9874
51.1894
41.3016
37.1857
55.7613
57.529
41.6105
45.411
47.1628
44.3925
54.8112
49.7494
42.317
52.4738
44.5059
32.9735
38.6714
33.6376
36.2527
41.6971
36.3556
50.6502
42.5328
46.8171
49.7094
57.7973
44.6572
48.5067
49.4891
49.7051
62.3988
55.5488
51.8358
42.4004
40.1292
50.0651
71.0732
58.0693
37.8983
38.2749
50.0132
38.8674
43.5377
41.2843
52.8527
37.6108
44.6709
36.6436
61.5517
40.3559
35.4976
52.2915
60.3968
41.1525
68.7909
52.5595
35.3875
63.647
55.3851
36.0123
40.9466
35.559
69.2104
40.2759
51.5725
51.3982
32.995
47.015
55.567
73.3774
40.6784
42.94
48.2862
50.4728
43.5617
39.437
40.4257
46.5723
47.9117
44.0814
44.1364
64.7829
51.2304
42.6858
50.2526
47.6446
55.7621
46.7702
43.1479
45.3234
44.9407
39.7015
56.2856
36.3527
43.7945
45.0221
47.7736
47.1026
54.4318
43.1976
37.837
47.7132
44.8035
54.9558
46.9931
39.5998
43.082
41.8014
49.5564
52.5987
50.7473
33.6915
54.0537
32.8192
51.5129
48.4397
39.2965
33.9119
42.5466
31.1041
47.5155
34.3478
42.356
60.3841
58.582
46.5918
45.0488
41.392
34.5298
44.4446
54.0185
45.1228
50.3631
44.5604
54.9373
64.223
51.3838
43.1257
72.878
36.9224
56.7013
37.4892
51.1073
47.7019
50.9648
47.327
36.2006
54.4461
61.5042
33.5355
43.7575
53.4851
32.5037
50.5796
37.97
45.0584
32.7968
38.9703
40.0133
41.862
34.1348
33.7856
49.1768
39.5058
43.1849
57.1299
43.5679
41.5816
43.0718
42.386
42.5163
47.46
35.4797
39.1607
39.8282
34.4924
38.1227
41.8424
47.1351
41.9818
43.7177
39.7787
43.5753
74.5113
50.6725
45.6045
37.9515
55.4044
36.3782
56.603
55.3958
41.57
46.7027
44.3191
57.1818
50.0541
51.0226
44.8072
36.9941
51.5247
38.1829
46.0392
55.0039
47.9673
36.2718
46.7519
35.4535
51.8348
49.0809
42.8627
40.8638
47.1396
49.0143
42.3137
44.095
52.4857
42.9743
44.6808
54.0567
43.2688
50.3984
48.9003
39.6108
62.3026
39.9122
56.308
44.2232
59.4183
46.3802
40.4963
41.3069
41.1934
39.8984
57.8583
58.2021
41.6202
42.6261
46.6391
43.3857
36.9236
38.7814
40.2788
42.6837
40.017
38.2034
45.1016
42.163
36.8219
50.5588
42.0907
53.2069
47.6496
65.7615
48.009
49.137
39.0506
69.4856
50.4999
37.7938
39.3207
47.3263
51.5095
37.1377
38.3394
40.9812
52.856
54.1454
43.9495
39.6001
47.4737
50.5757
60.2051
46.1504
33.0747
44.1724
52.393
54.9765
36.9043
39.7858
44.5336
38.496
57.929
57.6497
38.4941
39.1215
44.6575
33.655
59.394
43.3999
42.8392
37.6705
74.0101
44.8839
54.6675
58.0324
45.8028
51.4975
45.6814
68.353
37.5125
40.1076
41.3205
40.0842
73.8789
48.2641
41.0508
49.5173
50.3371
35.3709
42.0402
39.9198
44.0029
40.9324
29.9866
39.7077
36.6619
54.716
53.0719
47.5898
50.8246
47.1198
40.4905
43.6107
37.1112
44.3101
33.54
40.6922
51.5091
54.6425
43.0171
68.0554
59.0645
43.989
46.5973
50.7222
47.3803
43.2948
44.184
62.5389
46.4532
45.7523
52.8567
50.7424
47.9301
49.4283
45.784
46.574
49.3719
49.4572
40.7336
35.5062
46.0983
37.983
55.3552
43.8399
60.9328
41.7369
48.2768
37.2367
44.1435
64.4574
46.9128
48.4676
48.1878
48.6211
44.1405
40.831
45.9125
39.9215
37.1714
60.0702
44.9521
53.4587
42.4131
48.5934
57.9898
64.8928
38.1144
39.3349
41.6602
43.2376
44.92
41.7585
55.707
54.8411
45.6749
52.4145
61.7231
42.1436
43.2564
45.1895
40.3568
36.6924
55.4011
40.3236
48.0443
55.7539
57.6998
47.6121
47.6192
49.145
51.2504
48.2425
78.2359
48.7908
57.3135
39.0419
48.6844
66.2681
43.4796
38.7441
45.571
32.5299
39.8719
49.475
35.7751
61.6059
56.7543
50.3122
41.8056
34.4642
48.7588
42.2339
47.4747
69.7072
59.1076
37.7398
52.0205
37.8599
38.7362
56.3852
41.8004
52.2203
39.4658
42.1343
41.5108
53.0506
57.1776
49.0917
57.5838
70.5449
38.7792
46.6493
48.2179
55.4183
51.261
58.2452
60.174
52.4534
46.6595
40.8996
44.2543
41.5512
69.1468
42.9442
52.2705
56.7287
42.7522
55.9014
39.7182
41.5232
38.1327
47.5771
48.3722
47.3502
51.2805
40.8104
51.3253
58.7711
55.3902
65.3877
45.3438
43.5335
47.7668
54.0935
61.8777
36.2935
45.0377
43.6517
39.7885
61.524
45.9411
46.1285
45.3261
45.7072
40.5167
47.5826
45.6321
43.9332
45.7496
82.5184
39.2828
44.885
51.5715
42.1457
50.8315
40.3373
44.4469
48.1671
39.7241
60.1591
59.471
47.0803
76.7499
48.7485
33.2477
38.9032
49.4208
46.0101
38.6873
38.1201
49.2318
41.5984
45.8515
40.478
44.9215
41.1454
59.68
41.986
67.5136
40.7142
36.1081
44.9928
43.0503
35.122
46.5869
53.7019
40.6041
34.5861
34.2753
31.2283
34.8638
53.9866
41.8309
37.0755
44.6418
40.9071
39.3516
49.442
33.5324
39.7211
57.9427
42.3367
34.2335
54.0313
37.0098
41.6101
55.1675
49.8779
41.793
50.3295
53.6179
37.9178
38.1496
41.0072
41.0325
46.9359
50.2672
46.6658
36.4686
43.0799
60.0306
36.8484
47.616
39.1444
44.9142
51.6708
47.0463
38.6746
56.5123
44.7199
47.1504
40.3984
47.3613
34.3306
64.7436
34.8538
42.0122
50.6268
42.5691
37.1495
38.1633
38.85
37.4571
45.2383
49.3622
38.0467
44.6619
32.2909
37.7861
56.7973
47.8788
37.3262
39.7726
53.9355
61.0519
39.8169
50.0173
61.3864
45.6265
36.1648
54.3774
44.7211
49.0111
49.5967
59.7241
43.3999
52.5074
33.2829
44.6346
45.9804
53.934
48.2231
46.4933
47.5259
65.619
39.193
44.9523
54.9443
58.7923
52.7854
37.4959
39.0811
43.8018
35.4576
49.6217
53.0816
36.4944
46.635
35.6198
48.908
45.6944
49.1704
38.4794
44.0217
37.6426
40.8631
37.969
58.7819
39.6921
49.4735
46.7973
51.6943
41.619
34.7298
48.4092
52.6455
38.8071
43.8583
47.4909
44.1563
43.7529
42.4198
47.568
46.7758
53.0492
34.6529
34.2082
39.2747
56.1811
43.3126
43.6574
28.3767
43.4876
47.3117
46.1434
44.9969
34.5532
32.7733
39.5767
46.4404
49.3526
52.5737
63.3177
40.6297
49.4757
43.7268
46.7731
50.2029
36.8289
45.6832
66.9204
34.1345
59.5605
47.8356
39.2699
59.9362
56.7961
55.4489
44.0723
41.4629
43.3242
55.1799
61.9857
55.6469
34.6365
50.4811
49.9516
45.3192
38.4837
46.3376
45.9278
37.107
43.3537
40.8048
49.0224
44.8827
41.5988
40.1469
36.7314
43.9655
82.9462
52.1983
76.6772
38.024
54.0753
41.6235
46.3856
36.7296
62.2567
32.0707
85.2552
39.737
48.2441
56.2028
50.1325
64.7976
39.6028
55.0981
52.995
44.5933
44.8855
66.562
53.5729
42.7727
40.4748
40.9372
69.7534
45.1941
43.9106
43.3838
44.6572
52.1832
36.1771
33.9945
47.7179
36.8829
43.2935
57.6389
46.4549
55.7951
35.6254
42.0408
42.8565
43.0898
39.21
47.8481
36.0934
31.1856
34.8504
50.0708
37.4432
43.5629
61.8349
41.1789
41.6304
38.587
42.1717
74.1431
54.6371
39.2011
67.0459
37.1194
39.4974
44.9975
41.4889
31.4321
39.8421
34.4502
42.5696
51.2904
44.9242
39.9041
51.3639
39.5036
48.3884
39.0534
50.309
45.1679
47.6775
36.0614
48.2174
52.6154
39.7312
39.9436
73.4032
58.9851
38.183
44.3195
49.659
55.0891
56.8755
56.5934
39.0641
43.6562
41.3342
42.2112
49.7555
59.6696
36.3709
37.4916
67.1369
47.1084
58.9476
40.0781
57.6282
53.0168
43.758
50.8526
51.8888
43.6013
53.0486
44.8102
47.7321
47.3435
71.8453
34.0624
36.7773
43.1674
38.0893
37.4861
47.6543
58.4916
33.7712
50.9999
52.674
38.8571
43.1924
45.6932
40.4226
45.103
41.0765
31.665
48.0565
45.3022
39.075
34.2229
74.8605
46.7114
50.6755
38.1337
54.7547
52.636
38.1239
42.727
68.1325
34.7096
37.1467
37.7593
59.2674
59.7209
64.2369
42.2361
40.872
45.6957
38.2396
43.1002
45.5707
42.1798
53.3225
90.4606
45.4176
38.3362
51.8675
42.3383
44.9923
49.0262
28.8298
33.1174
42.1304
65.0579
55.3304
32.657
40.2833
51.5358
54.622
39.6556
43.7827
39.7342
45.8132
44.2753
47.4655
61.2279
48.2556
45.4137
47.379
44.4098
51.5633
37.4437
42.6892
42.158
75.5423
33.5552
35.2728
35.7125
39.4179
55.0878
45.6277
39.5391
43.6844
39.4694
43.8976
45.0381
46.2396
52.857
47.075
33.648
46.7862
43.4876
33.5827
37.9365
38.1049
42.2293
47.5686
40.6117
42.2226
46.4381
42.0661
49.8361
40.8823
68.1989
52.5563
69.4574
42.7689
44.606
56.5634
46.8763
37.0654
47.3486
43.3506
46.2265
46.4885
55.3459
57.334
36.8514
36.5509
36.8901
35.3039
34.6357
38.8312
48.8867
46.5115
65.8382
52.5495
39.0293
38.8779
39.0703
44.4767
38.8544
45.6541
52.4679
41.4324
57.8529
46.4485
47.8588
44.2406
60.8485
62.0558
55.4191
44.0048
41.9339
38.7034
48.0531
44.1355
73.9538
53.4455
52.5861
42.4851
41.1702
62.9489
37.5727
57.549
85.5244
47.886
49.3098
35.2285
44.6452
50.7034
59.11
32.8131
58.2618
58.2372
50.749
48.7704
63.4877
44.352
39.4536
50.8362
34.8731
46.2678
46.881
32.9883
45.2624
37.7551
46.3019
41.583
57.1103
48.929
56.6654
42.3156
39.146
46.4055
48.408
49.0595
47.4156
54.4553
53.763
48.5193
49.5366
55.1841
44.7405
51.6672
42.3003
65.5858
49.0913
33.0247
57.7391
64.6532
40.7601
70.1354
42.0302
45.0966
38.0058
36.0657
38.6634
51.0068
51.4032
35.5638
46.2377
77.4814
46.2296
31.6157
50.3885
40.9968
42.8609
42.9113
41.719
41.7864
76.4167
46.8304
39.4399
54.7956
36.6877
41.7991
54.3284
57.484
41.3457
38.2084
62.1747
35.3529
36.5098
38.022
38.0625
35.2662
49.5103
54.0427
44.1095
51.1504
48.7162
37.37
42.0588
43.7938
38.1688
51.1513
36.6987
60.9136
39.8055
55.4873
54.5236
52.1336
48.0656
48.0193
41.9917
36.5382
56.3792
46.5282
37.7603
40.2739
52.4943
43.071
50.7204
32.3553
54.9606
33.5355
41.3298
34.5335
38.8463
44.8105
57.2631
51.9152
36.3548
44.5617
62.2916
46.5572
32.4583
40.1059
47.7133
50.5749
36.7731
40.0058
50.271
43.445
47.5678
47.304
44.3457
41.2578
58.4834
39.5567
45.4481
41.1773
41.2027
48.7935
39.1671
50.5326
40.9036
49.0916
50.7312
46.513
72.9379
50.8042
50.7922
41.9534
32.0807
43.9624
54.736
42.7039
33.1277
52.4114
47.7251
57.9275
45.7394
52.6378
34.065
59.2146
40.5818
49.0255
42.9416
37.435
67.6102
42.5201
50.9734
54.064
45.4443
35.8829
40.8965
43.6998
31.3592
67.5005
43.8687
37.723
54.6447
43.9232
41.835
53.5684
44.0797
53.8313
48.0088
47.3588
65.0015
36.6714
45.6723
41.8812
49.0262
43.2354
47.7422
62.835
54.6253
42.0935
50.5937
41.0677
41.5717
44.2512
42.1102
38.4388
64.9358
52.1
51.3288
40.7944
43.2695
54.0302
45.1021
39.281
37.9136
53.8609
44.378
49.9098
48.4337
48.4602
35.0592
38.562
42.8605
49.1987
57.7824
38.8206
36.6662
41.8828
36.2462
51.0392
49.2171
37.4851
41.4085
38.9846
54.9773
39.0134
46.4089
46.9007
44.6903
37.2371
38.6366
39.9309
38.0005
36.5335
44.0582
49.9222
38.2728
38.7681
53.5322
52.2531
63.4247
45.6132
47.8049
53.1634
48.9841
40.7896
41.9967
53.0135
39.3382
51.5416
46.4709
36.2043
36.8882
55.0891
50.2652
43.1093
41.6485
41.0232
53.7289
39.2152
40.1686
43.348
59.8548
45.5711
37.2119
41.3356
34.3029
40.0993
42.7787
41.5984
50.5163
57.1765
39.6792
33.8055
50.3614
42.9593
31.6142
42.7805
39.8691
45.6214
47.1254
36.2033
45.8922
35.5932
57.6553
44.1236
53.9078
28.7945
35.9281
35.307
52.5186
40.0421
43.1917
64.6208
48.8336
42.4044
43.5837
61.0734
48.0291
36.7448
44.4024
54.0108
42.0659
70.4342
49.5926
43.2912
50.6712
41.1443
37.4533
43.6139
50.7663
65.0327
62.9878
45.1523
36.6351
43.1813
38.7939
46.6101
63.6925
59.3141
45.4417
46.5265
51.4593
71.6245
43.3228
50.0322
39.3192
54.2006
38.5774
49.04
41.116
46.461
47.8231
39.3583
41.7737
47.1598
42.9521
41.7593
36.0914
32.6961
33.3507
42.1275
52.5097
36.1083
47.3615
44.2211
54.9894
47.3763
44.3757
48.0408
46.4742
47.247
55.8491
57.3562
40.4328
45.9131
33.9863
40.9071
35.1461
45.1417
43.4872
51.712
46.6776
43.8696
43.5954
41.7277
50.3508
36.5621
41.8865
44.7316
43.5651
36.1432
64.2666
72.1238
41.0597
35.8923
43.1202
42.8993
37.6124
53.6488
49.5767
40.3579
37.2393
40.7219
47.794
45.6929
39.199
37.952
54.5621
48.5686
54.0787
43.9185
36.3688
54.1522
40.493
41.8747
55.194
52.8612
39.5596
35.1095
36.7144
43.4118
38.5216
42.359
39.5894
42.8517
44.2136
36.2468
32.0229
48.3601
49.3391
38.709
40.7862
36.2715
48.461
45.0977
37.6421
44.1105
49.3306
51.6156
43.4327
56.7339
47.8849
51.4219
61.6509
35.1583
42.4643
44.6613
38.4523
33.9285
42.0819
47.543
36.1084
45.9131
53.6176
39.251
40.2524
39.1983
37.7424
36.5168
40.1504
46.101
41.6537
33.9193
68.5747
53.9643
62.293
69.1505
38.6818
45.4472
49.986
65.7701
57.9699
44.2602
48.4028
41.855
32.6318
41.7018
38.2362
71.4851
46.5262
36.1495
68.7845
77.2597
33.6714
42.1485
64.7555
47.2598
44.0321
48.3656
56.4804
36.0014
43.7967
43.1931
67.9613
41.7349
55.8082
48.7258
61.8159
48.5551
44.8665
56.2093
56.8081
44.8588
48.777
40.9349
45.5189
36.5923
49.1613
87.6888
52.4376
44.3535
40.3937
63.8065
38.2307
40.5386
46.6905
82.3702
51.5103
45.2747
36.4495
41.4198
40.698
44.6361
65.675
40.706
37.1552
53.6137
34.8351
64.5923
57.8862
39.0496
68.6507
47.3644
52.0154
55.9995
35.9073
41.4779
63.7295
40.0885
39.7183
53.5322
33.1188
39.6445
44.0083
37.9852
55.1096
54.3083
38.5208
51.2252
37.5167
38.9056
41.5478
41.3953
48.1429
53.3493
41.5002
45.6732
40.4866
43.9389
43.4627
43.9158
38.2636
58.4974
61.6919
46.2166
47.1392
44.3405
40.2156
60.1501
44.947
40.8179
55.5809
35.4225
33.9891
42.3251
42.7339
45.8911
48.549
41.2435
39.3033
54.4641
52.6559
45.331
65.3552
34.1035
36.632
44.272
44.5142
41.7973
44.5717
40.7652
39.2452
38.5157
33.3467
41.3165
39.4317
64.9563
48.2086
52.0875
43.2198
63.3417
58.281
44.8561
39.055
36.2341
34.9511
49.2165
50.1325
55.6007
80.799
36.5466
33.2195
43.2539
48.8747
45.5069
28.6751
38.6414
40.9864
56.412
41.2895
33.2591
39.9128
34.2441
49.3796
41.7001
36.3757
56.3705
44.5483
36.096
37.324
39.9645
38.1559
40.3342
41.5228
65.2058
40.3318
38.2755
36.7632
40.4508
54.8224
56.5925
38.9277
45.294
60.1614
61.3264
48.3254
47.7619
33.5538
63.839
42.0091
57.9118
60.9139
37.4025
41.14
44.4721
39.5384
45.0304
56.4007
57.1881
52.2923
53.4478
62.479
59.2177
38.7063
44.471
44.9338
43.8939
33.3333
31.2162
55.2162
45.0731
51.2245
46.2121
48.275
40.8435
40.5573
34.5967
47.9684
42.065
47.4997
38.5715
37.5411
55.9991
58.3184
38.3898
41.9274
32.9491
41.3957
41.1328
42.1305
39.7379
47.6363
58.2483
48.6935
37.2542
47.277
45.4562
46.2284
42.1643
44.1239
40.8156
42.8076
69.4899
44.4846
44.3761
70.3743
57.3563
38.6872
35.2884
37.3914
40.605
48.2821
53.4509
55.4931
47.3434
62.402
38.8008
44.2322
65.3214
39.1464
40.8753
44.7613
53.2538
48.5571
44.308
56.4482
56.9318
43.5744
36.637
37.2637
45.3303
59.7125
47.4561
42.6317
41.5106
35.8037
41.6164
39.7025
49.0298
45.3463
45.8009
42.7568
37.8359
37.9266
49.5732
36.3575
41.1016
55.9179
42.7641
49.2052
47.0405
42.7985
44.3246
45.1641
56.1601
42.7161
45.3842
42.1717
55.7643
50.2889
37.5943
38.8034
41.935
55.3881
41.8429
36.7255
60.5882
43.9452
40.7547
54.9005
41.7727
47.7529
29.7413
47.5346
61.2492
52.8438
53.4603
40.2708
47.1493
51.2133
52.2043
41.7151
37.435
39.7038
71.3616
58.9863
48.2957
53.1991
32.8369
60.1352
47.2329
37.3733
37.62
47.3562
72.8381
43.4077
49.516
35.4933
59.8756
40.2877
56.7104
47.0912
39.1199
41.3734
46.9305
45.2659
38.4219
49.964
39.1059
40.6229
43.3103
45.9722
49.4183
50.3994
40.0693
39.3339
32.5781
46.0991
49.7118
44.1966
38.5151
60.0243
38.2413
76.0446
41.47
42.7383
37.0664
53.3316
43.7503
46.0317
37.3174
61.3963
49.6483
37.9341
51.639
38.9778
36.3593
46.0043
57.5575
58.5302
45.5195
52.8307
41.3694
45.7973
46.7224
40.5692
35.8945
42.7932
36.3203
48.4488
45.6844
40.5636
54.294
43.2113
29.2791
35.1357
44.6636
48.9264
106.23
57.3004
46.8898
64.6711
40.135
50.8615
45.7583
31.4054
38.3211
51.2454
89.9574
54.0722
36.2539
56.9661
78.9274
52.1147
36.7946
47.2483
38.4077
50.3553
35.8023
43.3713
42.7148
43.7217
38.0673
49.4403
52.1131
44.7521
42.1609
48.8558
75.4674
52.8221
49.3898
41.1695
64.2324
44.6271
51.4727
32.4723
47.2794
60.9419
38.243
54.0435
43.3376
42.4058
41.9606
48.8608
41.7054
39.8543
43.0587
45.2615
39.5038
36.1615
34.3219
39.3569
53.2282
53.0207
49.181
41.7683
42.9683
52.8286
61.0611
43.2469
39.9923
36.5201
54.2134
38.8897
39.2804
40.6364
69.3498
40.7915
45.7041
43.2701
41.2906
36.0528
36.6792
39.2037
38.8602
48.6413
33.9252
39.165
33.9402
46.4901
65.3446
66.8849
42.3313
44.4451
54.7706
37.8441
57.2039
42.7103
44.3251
64.8871
37.9004
47.7332
51.5826
55.2645
51.5469
36.9371
61.8714
51.5073
38.7282
48.2107
54.7031
43.1079
43.5386
48.5699
63.8858
45.2841
38.8106
38.853
41.0477
56.0621
51.156
71.7983
47.0735
57.8835
42.9185
51.2268
44.1283
51.2033
39.54
47.5227
45.0518
35.8178
45.6362
50.4526
46.2095
35.7961
48.7052
46.3724
31.9434
47.3416
38.654
32.8838
54.6149
41.3808
55.5477
51.0098
71.2913
63.4522
58.6954
55.4221
41.4574
41.6622
45.5275
39.7114
43.1703
52.1549
37.3985
54.7074
37.1565
39.6144
38.2562
60.6145
49.8595
44.8586
46.6298
37.1703
59.3038
76.097
50.6217
45.7214
49.7543
64.6167
61.7604
42.1408
42.2144
34.7753
52.1046
37.1398
44.3474
37.2149
38.4472
65.5386
48.585
44.5051
40.5748
42.1934
38.432
41.3434
47.6029
39.9734
38.2437
43.6179
36.714
38.9623
41.1433
40.9107
58.2942
61.1847
43.8612
43.2048
41.4908
41.2439
32.3364
47.7029
47.4609
72.3979
48.2519
38.8744
43.1935
39.6561
34.9766
50.336
62.7101
43.6669
41.2882
37.6808
45.2296
48.1393
76.4888
41.867
60.1572
55.5573
36.903
53.6135
39.3516
44.7695
43.3362
55.1172
51.6251
45.0114
53.226
36.6517
37.5744
41.1583
32.5287
43.8248
40.2423
44.0352
35.2255
32.2471
41.0869
42.9367
41.211
50.283
42.5391
42.6048
43.1709
36.4689
40.6546
42.9315
45.0249
40.8643
49.3081
43.2651
41.5597
42.0865
49.1601
39.547
37.534
92.0017
50.9745
56.8077
52.272
39.606
47.1034
53.3349
50.1851
41.0068
32.2894
43.6828
40.6811
42.3249
48.465
60.5122
42.5398
47.6929
66.6395
44.1245
40.5078
38.8745
58.8353
50.0426
44.6833
38.9833
43.2837
42.3631
61.205
45.3621
41.1341
52.6381
40.7344
39.7864
44.8648
58.7194
43.4802
50.786
42.998
43.8081
45.6386
40.6672
40.149
46.5901
63.2971
52.1191
49.9182
40.9257
53.5053
38.8244
48.9836
41.8434
50.0592
44.2556
55.0261
40.4231
35.0013
41.081
46.8076
41.9559
63.1086
52.4521
33.2277
42.5371
41.6672
66.221
34.6931
46.4789
34.5076
35.8352
63.6756
34.5597
50.4599
33.468
49.5808
48.4445
40.0519
52.7829
44.7025
35.4286
42.8579
47.7245
52.1443
32.4655
46.6122
60.7459
39.0291
53.0571
47.3839
32.5611
35.6962
37.5581
46.6284
40.9421
52.7996
52.5549
57.2795
41.6876
41.4404
41.0442
54.8312
43.3309
43.8516
41.9152
39.9487
41.2259
47.9983
39.1267
66.5371
49.1873
38.5866
47.4324
49.6416
43.0161
55.3415
43.9748
34.3556
51.0869
37.8662
40.7133
39.292
60.8807
42.8795
46.5888
69.9845
44.9614
39.4113
55.6758
50.7315
58.2872
40.3784
54.4395
53.1199
35.3225
58.04
45.9242
39.7112
35.3914
45.0036
36.3557
54.6418
38.1101
43.6796
41.066
41.9754
56.109
58.5927
35.5485
45.1616
45.5253
44.4036
43.8221
28.6463
45.6662
44.5248
38.0097
48.4637
44.7239
47.8578
38.3376
51.6382
32.6771
54.2045
41.4063
41.3226
42.063
72.2588
35.5689
45.295
51.4766
39.6833
36.9329
50.6007
39.1252
47.2935
57.1584
56.3256
45.5853
45.7092
46.609
53.742
35.3945
38.2151
59.0414
40.5983
38.8307
44.8041
47.7621
43.8117
53.6407
45.16
45.8028
58.902
40.783
50.975
47.9464
32.6168
44.7599
48.3955
45.2488
37.9421
59.2372
44.8809
32.1783
44.0914
59.5858
48.763
47.6794
46.523
45.1541
37.8605
36.6047
68.2034
48.9127
39.5246
61.4462
46.0626
46.6828
37.4289
36.7653
45.2463
51.9116
51.6872
73.7778
43.7533
55.2758
41.8038
34.7726
82.5788
40.9106
46.2559
42.1171
43.2829
37.3096
35.5169
45.6356
38.9464
31.403
39.1878
54.196
38.6729
46.7013
53.0129
57.2675
54.6585
61.7712
36.7811
51.9999
46.6887
39.2063
49.3396
41.6396
38.8713
52.1124
45.814
53.4878
62.1367
69.6669
49.324
48.4975
47.1386
51.5929
62.6062
48.7119
38.1324
40.6892
40.2543
46.1716
39.6578
43.2571
80.2943
37.4558
45.2355
46.872
41.7603
67.3879
49.7266
39.2052
48.1464
46.5701
46.33
52.3598
43.3608
43.73
45.4866
46.6653
58.9901
46.4127
49.5973
38.7771
49.0107
37.752
42.9877
34.0547
39.8028
38.5352
34.3701
42.2683
39.7408
38.6361
38.2616
44.9454
44.4482
37.7107
47.5071
45.4299
41.4507
38.3629
45.4994
45.2966
46.0001
37.3899
53.4194
34.275
54.3783
44.2574
46.8031
56.9802
45.733
47.2783
49.9238
36.208
57.5424
51.6285
45.9044
41.4241
53.5641
33.9727
66.2389
44.6087
43.2613
58.2126
38.1831
37.5803
50.0692
59.2999
37.9029
36.9253
56.5522
45.6393
47.1858
43.2521
54.9285
61.4578
42.6193
47.8947
50.1126
39.7656
55.1897
34.5471
36.9389
59.5432
45.2957
44.6201
53.4188
40.3708
54.1972
73.8376
56.6056
38.5444
39.8071
47.7927
53.7724
37.793
34.6743
42.7809
72.2227
41.2912
50.5742
35.3777
48.9687
68.464
45.4912
48.438
52.3592
42.7161
51.1707
49.9353
38.556
58.1452
51.5887
49.5371
46.232
47.3189
57.7647
46.2965
57.6645
36.7909
38.0338
39.1106
52.8784
43.0588
35.6443
36.8211
43.9254
40.2123
40.3082
39.7226
39.1457
45.4541
54.9729
43.6492
41.4831
51.4631
55.7149
43.1951
49.3277
55.0606
40.8109
45.8541
42.8428
34.8243
47.1246
40.3418
68.7725
45.9809
38.9732
45.4706
46.95
38.6438
75.5914
39.5877
42.1421
50.3416
50.6484
41.2565
69.0202
44.6079
59.686
51.4542
45.6669
59.5099
44.4796
35.3254
38.1455
53.0188
39.1767
37.9137
50.8828
38.1465
46.7612
53.6102
41.9383
41.5665
35.5956
46.2282
35.3907
51.6303
33.5449
43.7136
59.652
36.0089
69.9317
54.3039
40.939
38.5056
50.2339
51.6648
42.0755
41.2587
49.8574
40.3457
36.5546
55.4522
47.8858
41.1592
48.7444
42.687
47.2808
46.4392
42.3216
30.299
41.9971
36.3227
36.3026
61.5781
37.907
53.7009
49.2032
43.7486
42.1921
48.4001
47.3639
57.3203
59.6691
35.2932
42.2144
46.192
41.9365
33.3227
67.1108
38.5663
34.9873
45.6985
34.4182
36.1979
47.009
51.4583
38.1381
31.9746
34.5433
44.6863
42.8429
38.5
43.2707
40.7352
41.9117
47.6112
41.4088
44.7254
40.3845
43.9059
40.3545
42.364
41.196
45.3638
46.8502
40.7459
34.5989
46.7081
40.8709
57.6566
35.4204
41.3674
39.2778
39.1368
36.3594
69.2633
43.8331
49.3888
45.4707
42.4121
43.1839
38.2577
52.7526
58.1074
43.7313
44.4591
48.9083
45.377
37.3471
36.0258
55.0179
66.0691
61.6502
41.5142
48.6088
52.9918
77.9633
54.5006
53.3491
41.2437
47.3021
39.3403
47.0387
39.8024
46.7405
35.558
33.6956
51.8333
39.7352
40.5314
42.3651
41.5905
35.8117
53.3512
35.3244
36.9195
64.4595
49.0201
54.0576
34.5667
67.1747
47.9134
42.8041
57.7925
52.9949
38.2675
43.7103
46.826
35.7061
45.3994
67.1863
47.4767
41.9751
41.1642
45.8414
49.1765
81.0094
51.5949
38.6039
50.8816
41.1492
55.6581
44.7327
64.0565
51.4808
42.839
55.822
50.9005
46.6044
53.5709
66.6727
50.9919
35.2003
44.56
37.5837
67.6625
40.5556
41.8475
36.3369
46.5721
38.8271
69.3068
40.5898
50.2475
41.2025
37.8365
38.0267
55.6112
59.3723
71.6707
41.7331
42.2995
35.647
31.5142
43.5485
34.7149
48.245
52.588
50.0386
32.8742
60.3826
57.0801
45.5251
38.0486
71.0114
41.2418
49.7648
43.0974
40.8435
56.2897
34.7912
45.296
36.3533
34.0058
49.4044
37.6587
58.0005
58.2388
39.3936
41.7495
52.9426
70.2079
47.7503
39.2888
57.0952
35.6865
43.4466
33.8338
56.1102
43.5709
50.5584
40.4278
41.2173
24.8747
50.7198
38.3701
32.3906
46.2011
38.7038
50.7496
41.2846
55.1432
39.7271
61.7117
42.9869
46.1768
63.8079
35.2462
42.5998
61.5049
41.0205
44.3303
37.8459
56.1331
44.747
41.1639
40.8701
53.7861
47.4694
62.441
90.1865
45.2677
43.5489
55.1939
60.5307
57.3843
45.8434
57.2593
64.2314
40.1875
40.7885
37.4665
49.9864
43.1579
61.1526
36.8433
33.2495
48.9836
36.7776
41.9713
36.4227
63.0326
39.6189
37.4154
33.8982
46.9874
52.8869
42.9762
51.8168
41.3222
68.7297
44.723
48.6665
46.5149
37.0031
39.7432
34.7739
47.0735
42.7692
51.9967
70.8591
34.8801
45.2942
44.4362
46.1083
41.5975
45.5425
46.3532
40.0245
35.1792
32.503
48.3902
58.8398
48.5867
46.4618
45.8457
42.2315
40.2748
39.7863
39.4543
57.2017
48.9137
44.5751
34.2772
49.7247
54.7796
37.3782
40.982
43.3607
53.8513
44.0295
52.5314
40.492
49.7086
49.911
39.0347
41.9602
45.0465
41.6858
47.1081
50.238
53.5717
39.6463
33.6071
36.4446
39.7271
39.4823
42.6113
35.4361
58.3809
37.3099
37.2512
52.0712
44.6587
38.7001
80.9558
48.5143
64.8262
50.5139
40.438
59.1952
45.3099
56.233
41.9256
37.9354
40.5248
39.3383
45.5696
39.772
47.1959
37.2584
38.4516
35.6099
46.8679
60.3824
37.467
47.3431
64.1963
45.9389
44.7293
43.3602
40.1471
49.1187
50.956
51.058
44.2527
72.4136
44.1333
59.3722
38.7367
43.9822
35.4875
41.5857
45.5068
47.1099
40.3905
49.9579
39.0615
64.1297
54.7217
54.3684
35.4644
53.8615
71.553
33.0547
36.5786
45.7214
49.6326
38.6923
33.036
38.5915
93.3278
47.187
57.8999
39.2024
43.7468
37.7393
38.4042
58.8507
36.7083
50.7161
50.3933
52.4868
33.9455
44.6455
56.9121
41.6867
38.0824
57.85
44.3018
44.319
38.7285
42.8441
36.9136
49.8116
42.415
56.8224
56.7702
38.663
60.226
55.7344
33.0978
36.3855
51.0642
62.7253
41.3647
38.451
36.4828
46.1737
52.2425
41.4175
50.4654
46.5114
46.7506
45.1977
50.411
50.1111
56.3222
35.4145
54.2797
52.3237
47.9113
37.3008
42.245
34.9387
44.5399
37.254
45.9298
61.887
35.917
45.3545
49.015
41.5922
49.4575
41.7689
50.9668
44.2108
40.2731
37.7655
48.8108
50.0038
43.2645
64.0186
48.3291
45.7363
54.9777
51.1509
38.2513
55.2455
34.2367
43.3388
43.8423
40.0009
34.0114
48.417
40.3262
33.2045
37.6876
42.7539
34.1375
45.8143
56.7924
57.7585
42.481
45.9908
45.7845
37.9751
41.277
36.2056
38.9398
57.7599
66.7149
40.7211
46.8682
50.5453
42.7473
37.4808
43.0361
42.2597
75.7901
48.1595
47.1113
71.2425
37.9531
57.8588
50.3175
52.3233
71.3957
43.2081
51.3954
29.6522
46.1179
39.2289
49.245
46.8319
48.8676
64.939
51.6123
49.2959
41.3476
67.6248
58.5087
54.5591
36.0685
35.3214
42.6817
39.2927
38.8437
50.4051
50.5313
37.6409
44.5966
48.9727
67.0763
89.8667
33.3094
34.3084
55.1077
41.8607
41.6172
36.3214
46.7762
46.1921
45.8401
39.5791
28.3453
36.3985
55.6846
54.3222
47.8547
49.1408
39.143
43.0908
39.9497
42.3621
39.207
45.3957
36.3972
39.5809
38.8234
56.1571
54.7304
53.6844
37.9192
44.0198
41.1026
46.8883
40.6002
38.6883
55.5998
36.9771
46.4767
54.5382
39.5299
36.268
55.2054
40.3443
45.0133
33.367
51.3968
37.3889
50.0555
61.0629
40.8699
34.2657
45.8671
41.2101
40.0004
50.1925
48.7779
52.5587
45.0426
43.4208
47.9934
39.2192
33.662
55.0277
52.1976
45.2567
50.6475
38.0719
66.7007
51.318
37.2666
32.4098
41.0901
40.2486
40.2422
41.5708
32.9694
51.2327
54.7
49.4509
41.7827
38.3648
47.8893
48.1473
37.1128
45.1776
34.5758
46.8171
46.417
55.1076
38.8106
41.9202
46.3147
38.6641
34.848
43.5065
39.1415
56.0593
52.8061
42.9737
44.9601
40.2776
67.3685
33.0826
38.7413
53.5093
42.6284
47.936
42.5738
46.6067
32.2086
37.2195
53.6817
47.6976
62.8685
35.5277
45.6618
65.9329
41.9756
49.9818
47.4707
42.4423
41.7886
52.1983
49.3758
53.9152
32.8957
36.4234
41.2417
57.813
71.0266
41.4352
38.8725
44.755
54.1461
53.7982
37.6496
40.6521
43.074
43.5967
53.9201
31.7108
41.1303
51.2447
44.6175
57.9758
43.5375
65.7649
49.3143
39.4261
35.1226
43.6042
44.3908
52.5236
41.7173
40.3669
48.253
49.0436
46.2425
38.9604
38.8558
35.2384
38.3699
34.9891
47.9846
44.959
50.8871
36.3685
30.8919
50.7541
50.4105
60.1155
36.4101
33.4466
34.5619
42.7646
64.9165
55.9049
39.5239
39.4821
45.0758
37.8068
38.151
61.5583
54.7404
36.7512
86.726
41.479
33.5856
45.2248
37.1148
57.4931
42.163
37.854
67.6555
40.5004
41.0625
45.0142
43.1273
57.6507
73.7436
34.1835
40.9393
33.6361
45.0191
42.8052
36.2071
44.1865
38.6257
37.5447
45.3585
35.7229
35.708
32.3414
37.4987
44.4191
76.8397
40.6794
40.8059
37.2782
32.2524
35.2459
51.9176
46.9239
40.0921
45.053
47.8854
34.9286
50.1939
51.1646
50.8167
33.8244
51.6704
36.812
47.9279
76.3546
40.9947
50.8372
51.7064
37.9553
47.7194
46.8811
37.9632
35.7859
40.8298
45.501
55.5833
54.8575
42.7114
47.5301
45.1034
48.4849
35.1033
45.8856
50.9188
49.3423
58.8293
49.3626
43.4659
46.1127
44.4605
45.6544
52.2199
52.6627
48.7166
46.842
55.0793
34.3381
58.5875
39.8628
39.9124
38.4822
46.9756
45.2997
51.7537
56.8582
46.7866
83.0039
42.7432
57.1273
60.1109
40.4845
41.9189
49.7141
66.9678
47.4497
37.1592
48.1816
33.4457
54.5682
42.8766
49.8516
46.0753
47.3148
51.7715
39.881
47.9954
52.7005
45.0968
43.1655
48.468
53.8219
32.233
40.5466
34.6549
53.587
65.9136
48.1058
64.7713
42.3736
39.2604
53.4782
63.6641
57.323
49.5615
43.3255
47.0989
42.0552
43.4963
45.645
44.9922
47.781
36.0646
42.7409
59.4421
43.1545
47.1482
39.2793
31.3637
40.2937
62.5238
53.1366
50.0309
45.0607
66.1191
45.2666
52.8778
40.2254
50.6766
42.8719
52.6257
54.9994
43.5132
39.3754
48.0443
35.5487
37.4569
51.044
43.0162
47.8084
54.2067
47.9478
48.3189
33.6078
44.329
54.5118
45.5041
42.3459
47.0004
73.331
39.0247
59.5019
40.1489
55.6541
41.2272
39.8722
43.7139
37.8119
45.0443
50.4607
54.9614
37.698
37.0143
59.4338
37.9986
44.2081
44.4973
46.5571
37.7487
34.2334
40.4903
42.9869
52.8881
55.324
29.7141
61.2996
50.341
45.5405
40.276
49.8928
48.2404
48.784
38.6713
36.8544
49.344
53.2476
48.4091
63.6336
53.3217
40.0846
44.279
29.3036
42.7851
37.6424
36.3083
58.8381
47.2616
57.6687
55.1068
43.8737
33.6347
41.6295
46.3468
38.2027
69.9444
35.4547
39.5979
38.6444
31.8785
48.2272
36.7519
49.2089
36.9279
37.8068
58.9344
37.3739
45.2618
54.586
69.9028
38.0758
32.3882
40.5553
59.8249
49.6133
40.2689
34.5796
52.5405
32.3449
38.8911
45.1478
46.7763
45.8779
46.7144
35.1166
44.1467
38.5616
31.7148
49.1841
43.95
49.8397
37.0372
36.0751
40.1533
39.4028
58.2259
56.4081
52.7477
47.9062
46.7002
59.7715
47.5831
45.1982
50.7486
34.5348
45.3545
47.6299
46.5981
47.6266
73.7941
48.4708
38.1684
52.7408
48.8194
49.9475
39.6629
39.9812
53.8421
34.5027
42.3312
34.4226
37.6792
44.627
39.4239
51.7882
48.0086
42.1775
44.2384
58.4686
39.8675
45.8919
53.0618
50.0895
47.6828
35.061
38.5169
46.486
41.8627
43.8514
67.5381
46.6324
32.5968
48.5337
35.6566
49.0462
42.57
43.4082
65.7648
36.1476
41.5376
53.607
35.4336
52.1938
34.541
59.298
41.6486
40.5072
60.2322
57.439
50.6294
36.6113
47.419
45.3105
42.7868
52.638
47.0461
53.4088
45.2412
40.078
59.2744
48.9395
33.7041
48.6393
43.874
52.3554
51.0055
39.4668
44.637
39.5996
44.2945
72.0958
45.2298
39.7457
64.8069
33.9614
37.9506
47.0747
57.1683
60.5471
59.4104
44.496
50.4997
43.9983
62.8971
37.5838
37.9717
37.2518
37.801
46.2981
71.5199
42.7108
66.4984
46.2063
61.0897
41.8075
75.0382
73.4002
48.0415
39.9585
43.9378
58.9716
44.4505
48.8865
44.9617
41.3882
52.1394
44.8109
61.1862
38.149
43.4953
41.9901
41.1383
45.7468
50.0206
41.8172
48.7122
51.1058
48.314
62.3182
40.0167
40.6268
39.5689
32.2035
35.3387
42.3007
45.9688
59.1916
48.5448
86.7896
51.546
38.8532
37.0861
38.7943
45.657
64.7644
52.3565
59.4243
44.3367
51.5105
40.5386
53.304
41.9665
40.5321
37.3255
42.4603
35.1524
53.7827
47.8165
41.8472
62.3763
39.2492
49.1751
26.5197
47.255
48.6833
48.3005
41.1275
52.3237
39.4371
33.8413
45.2351
44.3523
42.2776
41.1769
38.7346
36.2439
37.301
40.4055
54.7763
43.8448
48.6583
42.9162
39.3112
44.3101
39.6419
51.5101
41.4555
37.8066
61.1706
69.994
51.7944
50.606
45.8371
39.8351
44.0613
39.6689
41.9929
43.3251
72.0853
46.4638
40.1503
46.2125
39.6884
41.8519
37.5635
45.3118
46.6552
52.377
43.2571
43.4329
43.4939
49.677
45.4271
55.3579
39.7727
42.1386
59.0763
40.8036
47.3921
38.1788
41.5706
47.4914
40.122
49.9327
45.684
40.8102
43.9744
43.3373
58.869
40.1246
38.2672
53.3783
51.3948
41.1169
38.718
39.0157
79.2513
47.3108
43.9523
52.1481
37.9081
37.1793
55.6027
37.087
36.3567
42.1187
39.8857
41.1497
54.0891
54.1076
36.1334
65.7901
60.509
50.5556
52.5357
46.6152
46.1494
37.7709
41.4168
42.4528
52.453
37.8851
37.8533
63.6826
43.482
61.729
38.8842
41.0784
43.9821
42.589
39.3208
48.7978
54.6584
56.5199
40.7106
45.3476
47.7114
48.0265
38.3763
38.8064
42.3382
36.9262
35.1308
39.458
55.7045
33.5421
51.6065
46.0632
47.753
39.5801
42.8716
40.7723
36.2206
48.7589
47.2894
48.8611
43.6841
57.7566
52.1531
46.064
36.6934
48.6223
69.2823
47.0048
35.6732
41.7336
37.6205
37.5074
42.2561
34.4945
36.8245
50.8089
36.51
53.0046
35.5881
44.1324
43.9884
38.3951
40.1316
41.6528
45.8317
42.6471
73.8901
58.3162
55.4587
53.9426
44.335
39.2095
39.7079
36.5042
44.1556
39.7224
35.1154
37.0006
47.2726
59.0316
39.5706
40.5472
45.3585
46.7486
46.3511
64.338
58.0941
33.8674
39.7054
47.8701
32.6051
54.6941
59.3407
52.1133
52.9081
40.0797
42.4837
35.6833
41.4449
51.3904
47.0534
54.5646
43.1017
59.8916
40.562
39.2447
32.3749
38.7556
40.3268
60.5102
40.4217
39.4919
80.9858
42.857
54.4339
55.9246
74.5007
39.492
49.6271
47.6333
45.5459
41.8307
56.3337
44.1113
57.1976
55.6048
35.718
36.4779
40.4107
53.1288
41.5497
36.6162
58.435
46.6746
56.2531
43.703
43.2785
42.4887
44.9744
41.3436
38.026
46.5421
44.9986
45.537
59.0467
39.9415
35.474
36.0729
51.5682
49.1986
54.0799
51.1362
50.7691
45.3304
37.0713
46.508
45.3118
54.4844
44.5446
36.9691
46.7568
34.8784
43.0674
51.7654
43.6078
42.1063
32.8261
45.1968
47.9297
41.3982
44.5696
41.2758
54.1033
54.5071
51.1747
49.7645
47.5611
48.8804
47.4031
69.6509
39.6582
37.3975
45.4125
52.6458
49.1571
67.4882
47.9231
48.979
38.4513
38.686
50.4785
74.9682
46.7162
46.5349
36.1274
52.391
38.4776
57.8741
37.8002
52.912
58.6396
34.9049
38.5047
46.2594
56.6242
41.6314
38.0608
35.6008
42.6323
41.5701
51.3536
47.1453
49.7651
44.2405
46.8592
42.6657
43.846
42.7612
38.6913
45.1921
72.1691
42.9684
50.2985
42.923
49.9318
35.1712
45.056
59.2179
38.1612
39.6773
36.8874
39.0987
36.3512
36.8775
43.058
40.9534
57.1537
37.4922
43.1413
53.5171
38.9885
52.8894
45.488
44.5157
42.9554
47.8726
50.3333
51.847
42.9668
46.9793
35.708
48.9623
66.8094
44.4066
53.7574
37.4433
46.6285
49.1608
38.5828
44.2639
43.2328
48.3278
38.7757
30.1858
39.8757
75.5178
47.0038
52.4006
56.2015
42.2985
37.9324
44.243
43.6659
38.4621
45.2165
50.6416
52.0798
50.426
44.3345
38.9887
40.1704
36.2281
44.4698
66.1055
46.9404
41.6691
45.5188
31.207
43.1966
42.7512
41.1444
46.7927
69.6963
49.3101
34.2831
38.3541
47.1177
63.1691
45.0973
42.76
52.4461
45.3894
53.6151
75.9684
31.8321
55.5907
48.6079
46.3135
83.5806
34.9047
45.0297
49.8222
44.6036
37.1733
43.4678
47.3433
49.1203
34.1138
46.5695
47.9135
71.3794
32.264
43.3953
38.9975
33.9439
56.5961
39.2646
37.3334
42.6201
36.7279
62.5585
45.2656
45.4315
52.921
46.4424
45.1217
43.3715
38.5902
51.7962
34.4851
51.7671
45.5164
40.1651
31.7172
37.1336
53.6572
66.9
33.8097
45.2227
38.7534
53.1634
39.0986
61.0069
47.2475
34.7798
73.7917
47.1504
39.9116
38.6059
45.9935
41.0737
47.8629
40.7898
48.3433
59.8313
30.6574
37.6092
64.9305
79.0559
37.162
50.0343
50.7374
37.8964
45.9
38.9181
48.2146
40.2213
39.0668
36.42
48.5483
47.8279
48.9945
33.3242
50.6945
49.9691
44.2057
35.8262
41.8392
36.9847
43.1387
46.042
39.1067
58.7047
58.4684
52.9687
41.471
48.3618
42.2377
56.4879
64.1972
38.9804
47.3421
67.2275
38.0203
36.2399
40.7896
52.6829
58.8587
47.9838
38.6407
44.9866
52.1806
43.226
40.9854
41.2823
49.0429
42.0119
48.5504
43.0432
41.7164
60.5242
41.8254
43.3577
38.5499
53.5684
46.1366
46.8229
41.5712
55.7375
40.7299
45.726
44.2747
52.5761
42.3219
69.3435
66.9776
61.6207
54.7521
36.5128
44.8337
40.8051
43.7033
41.9207
43.6023
38.0987
40.368
33.2511
81.6019
49.4832
45.829
38.4415
47.3866
47.6537
41.436
42.7843
48.0897
38.4632
41.8849
46.4643
37.8654
43.1271
45.0709
47.6993
42.1082
30.759
40.2536
40.6543
39.2908
52.5898
42.8207
62.9509
56.1762
49.2712
44.8835
38.385
36.9449
40.8751
41.0268
44.9515
53.9192
42.2947
38.1513
40.8735
33.2347
37.088
57.9414
51.554
48.2163
32.9258
50.2661
45.9071
69.1334
62.4235
33.9676
53.5078
40.7673
44.065
43.9436
37.8697
43.709
39.4939
48.2731
41.8333
51.4016
48.6702
42.5211
56.9195
52.3524
39.8195
40.5737
45.1508
48.3414
54.6592
34.8606
47.0468
58.1875
36.2828
51.6595
47.9365
55.1521
44.0139
72.5401
38.3986
46.1054
49.0938
42.8559
48.324
46.1155
35.776
67.8682
44.1043
39.3325
39.7713
34.8523
47.9846
43.5641
38.2329
35.2582
47.3323
45.587
46.4144
47.4886
35.507
42.9586
40.9841
42.1464
42.4146
53.5299
51.0936
37.7693
54.9671
40.1965
59.9724
45.7722
43.0809
39.4495
54.6171
45.6313
37.8493
37.1724
47.9135
35.692
46.6649
41.7247
50.9433
37.908
36.6083
40.7084
30.0764
74.5073
55.7368
50.2103
54.0182
44.863
46.9847
38.8527
42.6874
43.9337
43.5451
49.2578
36.2128
41.9464
38.7002
34.3061
40.4983
37.9409
58.4581
33.1209
38.53
36.9736
48.8637
52.0268
59.9185
46.8306
32.7345
35.7298
42.3913
63.2667
50.015
40.5843
40.9592
35.5397
34.1181
49.7007
53.9782
38.2414
33.4718
37.4919
39.961
46.3413
63.9344
36.5959
34.4695
61.1605
61.0429
44.092
63.7819
50.4881
58.0726
51.9335
45.8763
36.845
42.8172
36.9031
35.2886
39.3453
49.3668
45.2272
58.0321
61.2761
38.1171
54.9718
53.5837
46.6406
49.4468
45.3352
66.2829
44.2034
40.3992
49.1538
34.491
52.0542
45.4769
41.469
53.704
48.3352
60.8358
67.1546
58.3361
59.6241
35.7416
35.3827
40.428
44.0162
43.643
33.6752
41.4144
63.3607
58.414
39.0377
49.8321
44.542
42.1367
56.6891
36.8628
37.4374
32.7051
55.0008
37.1321
57.5007
42.9844
55.9943
34.4396
51.7145
49.4725
48.9803
52.4827
63.179
51.7844
48.5722
38.2288
39.9503
43.3968
59.5849
48.6755
47.5974
52.932
41.6889
42.082
45.8871
42.1262
47.8647
53.0039
49.5534
72.1656
68.5421
43.7094
48.6298
33.373
58.5065
40.2466
40.5837
44.1042
40.1283
48.8561
41.7029
41.3364
37.2089
45.7085
52.4479
50.3594
40.9497
37.0408
52.1521
57.8923
38.2464
38.8772
44.1264
43.7409
43.4094
34.501
44.5299
47.4594
56.4348
43.1248
63.6128
47.2959
49.7151
50.5894
38.7393
46.4585
52.6418
50.0703
30.0385
44.4537
49.8641
48.6562
64.5009
44.0899
42.6914
44.0346
42.9681
38.5436
42.0592
38.6952
42.9494
41.9811
47.8756
48.8785
47.3687
50.3654
57.3384
34.1589
47.6679
47.3544
50.1425
35.3687
36.5781
40.0487
42.6421
51.7388
49.94
40.082
57.2532
37.736
38.5289
39.3153
40.2505
38.3717
58.0608
38.2928
41.2971
49.9567
58.7999
48.7042
49.854
36.1102
34.0299
50.7141
38.2881
48.3603
46.6538
39.8231
42.375
37.0099
34.6327
46.4954
51.1444
37.184
40.3042
46.686
50.4677
35.0664
43.765
47.2813
49.6091
42.3458
68.1183
35.1715
57.7589
89.1103
57.7838
46.3938
33.832
59.8397
45.848
31.6034
54.4585
40.4286
35.4087
44.3064
50.1619
56.105
38.3866
46.9606
44.1022
42.4905
48.4222
48.2233
42.025
40.9828
48.0668
41.6826
54.2991
39.3685
45.4061
47.2445
54.2922
40.62
33.223
41.3144
46.7556
42.2506
52.3638
54.479
44.044
38.4569
40.2343
42.4893
32.5558
38.7341
49.2194
34.0236
54.9085
61.0915
44.0894
35.2909
41.4749
40.2482
37.2368
41.3728
66.4527
56.9423
44.9742
56.5221
38.3947
35.9904
43.9041
50.8956
43.5387
47.7284
45.1335
40.8584
42.8269
49.8984
39.4301
38.5023
33.5054
40.5753
45.0272
70.2609
51.0509
32.1524
53.088
34.3607
35.482
47.2385
52.7543
41.0472
46.7032
82.827
40.1673
40.4742
39.4628
36.3402
40.1379
41.6957
60.5685
38.5132
42.1388
45.8684
51.9667
48.0173
67.9735
38.5735
44.6455
38.9071
43.4449
48.7307
46.4296
70.5063
37.1058
54.4139
47.6082
33.3603
42.6315
48.9945
41.2718
32.4482
39.0578
32.8898
41.765
31.0197
40.8238
75.0594
47.626
48.5431
38.4147
62.6699
59.1484
38.7115
67.6579
63.4956
34.7603
47.1869
34.5509
45.7487
42.3135
50.3701
42.1396
50.0028
45.7666
38.2493
49.5099
54.2368
39.3151
43.0853
39.9714
38.8547
43.4168
41.3835
35.3181
36.5251
53.072
44.4001
53.0375
56.8605
40.2672
41.9065
36.9711
45.2911
48.6311
46.2645
37.1499
37.0238
44.4093
39.4255
55.1412
44.0958
43.6896
47.1313
37.2131
72.9063
37.2958
41.0473
44.9775
40.2185
38.5185
41.7211
44.1315
44.0744
56.6479
65.7911
37.6363
41.0453
50.7272
39.4483
62.008
45.3047
53.5951
41.1119
42.0649
43.1047
36.1938
44.727
44.4556
39.6155
36.7186
36.9636
41.1887
51.6107
55.3164
36.5905
48.7001
54.6432
56.5959
35.8539
37.6498
43.188
47.2475
36.6113
66.0117
42.743
59.8232
38.4953
47.0347
32.9038
33.3116
42.7593
36.7334
41.2673
58.0978
45.2324
62.8984
53.6227
41.7026
46.7234
43.0234
31.3586
48.8897
34.9959
44.3982
47.3175
40.0057
60.7282
52.3017
38.1127
47.8828
36.7972
51.1209
40.2108
54.6677
43.2767
45.9308
58.0593
35.2304
33.7328
39.3763
42.513
43.0699
58.8024
36.351
45
34.5747
41.2075
61.3602
46.8155
38.4076
40.236
51.4969
42.5523
52.6684
50.7936
53.3119
34.4058
53.1731
47.902
43.5589
55.8587
43.0698
43.4053
52.1071
41.4628
46.4324
39.6148
45.5774
39.1456
49.0905
50.6654
47.164
55.8796
37.8243
60.2723
37.0425
40.4021
37.1143
47.1478
50.8005
47.4071
55.3636
41.0868
76.8919
48.5694
50.9581
45.3371
48.6293
35.2309
41.5847
61.2566
72.4129
48.6597
50.4837
41.6377
42.4368
37.719
54.4294
47.1881
39.7027
40.8022
56.3972
40.1398
43.618
59.1093
55.6173
54.072
44.4775
60.9383
56.7194
42.6904
84.4752
52.6188
34.5432
35.8691
59.888
38.309
39.3826
50.2302
37.3397
47.7656
59.142
37.8006
47.35
56.3876
53.2948
35.4515
33.31
33.7754
67.4406
42.9004
56.8144
35.908
47.5322
45.4184
30.9858
47.6121
55.6444
36.0689
47.7983
42.2135
39.5819
43.8879
40.5961
56.6149
43.0184
44.7336
39.3414
34.14
66.179
49.3614
42.9578
39.7728
38.3656
64.7074
37.1336
49.9469
48.0969
49.333
58.1088
49.1583
33.1421
39.8612
52.3126
42.8734
44.5308
45.1603
45.1191
32.3111
70.8272
46.5132
48.611
49.061
46.9103
42.9082
39.241
34.3879
57.199
47.3703
49.5708
38.3064
59.5765
40.3652
41.1127
41.8304
50.2688
37.9014
45.0254
40.1348
54.4141
60.3125
51.7707
35.9396
53.4646
53.3576
37.6995
35.2553
47.942
40.1077
46.1821
58.383
39.7752
53.4825
41.0677
40.7525
39.3915
48.2235
43.6817
35.5207
42.929
36.2841
50.9267
41.2151
57.9131
40.7421
44.7935
49.1922
34.0789
67.5196
90.429
58.4056
47.6642
33.3206
43.8867
40.9707
69.4308
44.9445
49.7583
51.3231
52.6322
64.9548
34.9853
56.9522
32.8803
41.6258
37.1747
37.5229
44.0723
35.8508
32.2821
64.3292
89.3882
42.4135
63.8596
43.8932
38.6141
34.319
32.8897
44.6577
60.1319
40.5936
40.6724
43.5997
51.7156
49.9303
35.8923
35.7654
37.3643
48.0732
47.941
49.2455
44.5467
47.0644
45.6538
96.0725
41.713
48.8153
41.2854
60.7631
38.2035
55.4941
48.3007
37.3704
41.0628
44.7902
37.9234
63.4541
37.8118
49.2716
46.3355
41.6051
61.2414
37.7939
37.5369
37.7974
39.8138
40.7274
42.0709
46.9821
51.2164
46.1846
46.1664
66.0046
47.0922
44.7138
42.9848
43.4007
55.2259
44.1869
41.1519
42.5539
36.1992
45.5397
38.4865
41.8583
54.1194
33.7269
44.8255
44.9772
35.3209
49.4547
37.7444
39.7047
66.5307
33.0262
48.5995
46.3611
49.6417
45.8321
52.9708
38.7863
41.9847
40.5789
46.06
48.4291
34.3584
41.891
45.3729
31.4738
47.325
47.4224
38.6161
41.896
55.2488
43.5586
41.939
37.3104
45.927
41.0939
32.6223
41.3804
37.6214
49.8743
61.3071
52.934
40.6176
39.2566
48.003
39.3355
54.0267
49.8375
45.5395
51.9797
39.9771
45.1906
32.1317
37.9317
40.7269
60.0888
41.8136
34.4437
43.2522
38.7418
36.7597
49.6418
58.0314
32.4674
44.487
50.068
46.4111
32.1372
38.4952
40.0049
38.7362
44.3041
47.5731
53.1613
40.9847
42.3445
48.1135
51.0698
53.1949
38.1839
43.2043
75.655
41.6968
39.9503
52.1724
64.4739
35.7204
47.0483
47.5002
45.6226
40.6546
42.4972
35.4821
34.9142
47.9312
65.3072
51.964
41.9708
49.613
67.7711
36.1955
63.2192
54.1953
38.4422
34.4777
42.8504
38.9962
48.1937
56.8868
71.9484
44.3817
49.3343
44.8408
40.2501
47.9752
41.156
73.5605
50.8838
41.9724
81.2729
32.7374
52.568
42.7029
51.0363
36.168
51.3934
100.311
39.8341
43.6931
38.1551
62.4431
63.4881
66.9623
41.6414
44.5431
47.1256
39.4769
45.7558
43.9266
42.9004
54.947
38.6635
49.2404
44.508
61.3718
57.9268
54.5422
43.711
43.4986
41.7663
44.5849
39.3851
63.9611
34.1306
33.0616
58.6142
70.9894
47.2694
37.519
42.4088
38.8409
32.3772
55.0882
35.7562
37.6324
34.7645
47.1323
54.8116
45.4688
37.0885
35.9935
48.7013
49.9745
34.224
44.3032
47.9728
64.4385
48.5987
41.3222
41.0616
55.3628
46.1508
38.6767
54.2754
52.2521
46.3431
41.7831
49.0824
44.8023
37.7111
44.0426
48.6596
37.2112
57.0864
41.8355
51.3553
37.0785
40.875
47.2744
45.8832
37.5859
37.952
48.2308
72.6156
36.9477
38.9512
44.5754
40.6938
37.1637
39.0931
46.8102
41.851
38.0477
40.3191
38.4371
41.4956
50.9187
38.746
43.7513
56.3935
42.015
60.2818
42.4712
46.4099
46.0273
40.0681
34.858
38.6995
56.0256
38.9498
59.0207
72.6208
49.6382
55.1089
47.8729
46.8581
42.642
36.0741
51.3961
41.1496
40.5203
33.2202
35.4206
52.925
43.1647
44.6512
53.2852
44.0202
36.5019
44.33
46.9939
47.1868
52.2377
40.5891
43.6366
39.8398
42.7197
44.3235
40.7897
44.2916
34.0717
52.4048
48.9505
44.9645
44.3192
34.3276
39.8479
34.13
47.8976
56.0684
34.3054
51.2497
36.7938
38.2919
38.7556
63.4606
49.3915
42.5265
46.4896
32.9836
55.739
37.5882
46.0271
44.2673
49.8
47.9282
39.5531
41.2444
68.1526
39.8557
42.2748
43.3794
50.8867
52.2443
49.5562
57.2314
45.2336
43.8417
41.9378
37.8552
58.3979
43.6504
34.5057
51.0466
36.1031
51.8084
38.1583
40.3496
42.4995
48.2898
34.3862
37.9428
46.9122
39.4125
59.7713
57.4502
58.2991
38.901
37.8922
46.6918
46.6557
43.3267
45.0758
37.5982
40.3673
39.436
49.1219
46.075
50.2849
63.1687
63.2136
37.6601
49.0977
54.5652
38.934
43.5888
51.092
35.078
39.9324
42.4838
45.4811
33.9438
36.1638
44.3146
55.6855
52.4902
48.2101
38.6295
45.7569
46.7214
42.3824
51.9637
47.6878
43.847
37.2055
34.5921
39.8411
32.7409
43.7714
42.0668
42.327
42.5849
56.9421
50.8232
59.088
38.1907
35.6285
42.4915
41.4418
54.3697
41.7374
54.1955
43.6738
45.7802
45.0669
39.6168
46.7639
42.0848
40.6244
37.7833
60.3738
44.6982
35.2152
32.4799
45.9036
46.1983
47.2088
32.7355
42.8931
57.8612
44.6394
48.723
37.0157
36.6327
45.533
45.4389
53.7242
33.1725
41.6279
48.9857
46.9864
50.7257
52.5844
45.3175
51.3783
41.6245
54.7011
65.9448
43.0082
34.3517
42.5768
45.0547
35.7391
46.4341
45.4151
42.595
46.3872
61.0156
44.8313
48.2691
42.8042
56.7871
51.7443
38.4421
42.3178
41.643
36.8939
41.5
54.6582
43.6775
50.0871
45.2357
44.2123
41.771
51.9341
42.917
52.8313
52.0545
39.5911
50.8357
36.3884
34.7752
46.9646
37.521
48.6773
64.6426
36.9981
51.9874
57.8525
49.9532
34.3724
45.529
54.4995
45.4694
39.1131
51.4324
61.0574
35.0186
42.2282
37.9388
49.6134
39.6893
58.4659
40.9609
35.5951
47.2872
44.4775
40.4304
41.0472
37.4536
45.3473
38.2341
61.764
60.4503
43.0578
36.5024
47.088
45.6023
43.5341
43.856
28.4242
37.7551
37.3095
45.4496
43.6193
40.4581
39.7809
44.1274
34.6082
51.1762
39.8882
47.4676
38.1813
41.1781
55.1068
43.5633
45.7458
39.8732
52.4878
51.7674
40.881
53.8235
64.0749
52.733
45.1875
52.8003
54.7019
57.2466
48.169
36.484
61.8406
45.2396
40.4069
61.7439
42.1471
36.0825
39.037
45.5473
40.6212
54.6084
55.6731
52.1733
37.1226
41.1233
35.8001
32.697
53.806
43.6888
61.3653
43.7289
54.7271
47.4248
35.4413
50.3366
56.8493
44.4671
36.0667
32.0441
30.92
42.1233
54.9698
50.0351
45.8222
39.3318
49.8175
44.8526
41.336
59.7065
39.8306
35.201
41.9401
47.6006
45.0463
67.7787
41.6252
58.2828
46.6809
46.5283
34.1033
41.9622
44.9928
45.3467
55.3354
33.6019
36.7975
39.3767
47.2962
33.9517
38.6569
67.7621
38.2612
50.8693
55.1323
55.7023
58.833
52.4738
40.8233
37.4348
36.4077
48.1131
43.4173
48.5813
51.7248
43.0126
41.772
44.9998
40.9074
52.32
59.3035
44.7924
39.5701
37.7771
47.1986
40.9148
37.639
59.8273
67.2678
38.7844
40.2788
39.7368
43.4176
42.4515
54.2576
50.9302
39.1274
39.1414
36.9216
39.7294
51.9998
59.3429
42.0659
34.9688
40.843
41.6939
40.3134
41.251
47.4747
35.7878
54.7948
46.3828
41.9315
44.3715
51.998
55.2216
43.7534
42.3444
51.8625
38.88
50.925
40.2029
36.9823
44.6946
58.2934
31.5822
57.1332
32.962
37.3308
45.3691
41.0849
31.3121
52.1286
41.5018
37.4975
38.5425
40.0997
55.9854
43.3526
46.7104
42.1945
40.3652
44.784
55.2491
41.8692
38.1913
38.5954
53.708
35.2272
36.8341
54.193
64.0105
33.0634
33.0126
28.1412
37.6172
41.5672
30.2616
50.4259
44.7727
57
43.2415
49.8433
39.2543
53.8948
54.6179
46.2129
65.5343
50.6696
35.333
44.1434
52.8649
47.8328
59.2961
53.0574
33.203
45.1383
41.7425
55.3449
58.9244
43.4189
41.5556
47.147
38.9208
47.9597
50.1764
42.942
41.2442
38.7738
34.3735
41.9559
67.6869
39.3918
48.1245
43.1474
38.077
35.0497
44.9817
46.4309
34.7197
37.0623
44.4962
44.4063
40.8883
42.1887
47.5769
41.1683
41.2035
47.8209
40.8386
72.9887
53.3942
44.4281
32.5419
53.8258
39.4853
39.2242
49.5117
64.0078
49.3511
42.4291
50.6011
42.7145
59.0083
34.7581
55.779
48.4651
74.2949
60.1988
35.7867
40.6093
53.1697
30.7051
61.748
36.7079
34.9813
59.7261
47.0898
40.4627
55.3722
49.9929
54.2089
39.5508
41.0515
61.5453
58.5325
65.8289
55.3446
40.8741
38.6472
61.4909
40.6746
65.6249
55.021
46.4101
46.7993
38.6273
57.0986
38.4856
45.26
46.1743
74.3951
35.9777
32.32
50.0862
62.2089
39.1131
45.4678
40.8238
51.9854
56.252
41.5833
50.4582
60.7894
38.5326
50.3715
32.9357
42.4446
38.2259
53.1962
35.9163
41.5841
39.7194
42.6283
50.069
66.1446
46.3396
42.4523
45.3456
34.6994
36.6082
40.4254
49.0565
44.5983
51.0626
40.8608
57.4999
37.5974
42.8933
41.909
71.2483
35.4458
56.4396
49.7969
39.7789
49.6137
46.4679
51.3878
44.202
37.6485
48.0617
45.5681
49.0128
57.9734
37.068
40.4946
50.632
42.084
76.8278
42.1198
43.21
46.5448
60.6825
45.9124
42.2166
34.7108
36.3892
52.0661
87.959
47.5572
34.4451
49.5031
49.8753
37.5841
46.094
41.4443
62.1896
42.9064
42.0657
41.4615
49.5417
34.9986
40.0154
50.66
41.2217
47.0292
62.8504
40.2085
42.4035
42.4096
42.3192
39.6663
66.9701
49.1129
49.433
36.6001
44.4521
44.425
39.557
32.7263
71.1862
49.8457
39.6879
49.523
40.5425
49.063
53.3739
51.3047
36.1273
48.3188
30.9187
59.595
61.0674
39.4063
55.6091
37.9602
39.907
48.1288
41.819
57.9901
49.2785
37.6595
37.3583
39.6765
50.5726
39.2541
49.0659
46.9965
58.5338
38.3414
40.7916
55.6772
56.9691
42.0248
38.8848
40.2766
32.7692
51.6624
45.118
42.6952
44.6245
52.0162
45.4682
45.8926
46.363
94.3769
41.1149
39.8224
40.2967
45.1275
42.8551
43.7525
50.092
38.8367
45.5192
39.6249
39.2065
39.0074
53.0655
47.1477
52.3082
38.45
43.0536
49.1752
54.1889
46.988
38.3374
53.3639
40.3096
39.2295
52.6355
48.2915
42.243
44.4777
34.5141
37.6743
44.0814
47.656
38.3807
45.684
42.2439
44.6711
44.1876
34.6984
34.5654
36.6269
55.7185
43.4327
46.0962
46.1401
50.2459
51.7775
45.661
40.6385
36.3399
38.359
40.6848
42.1262
41.8181
43.0194
49.538
38.3167
43.6588
48.8281
52.3331
49.7651
41.7983
70.6854
47.1951
45.1395
43.6144
60.9804
46.2496
40.5882
49.9348
38.2613
44.7109
40.6593
59.5426
58.8115
45.8162
34.9234
47.7253
37.2595
47.1466
40.5519
52.4122
61.5347
43.6797
45.6859
32.7469
59.1401
45.915
38.4407
60.3702
63.6816
38.9858
46.671
47.6536
43.8584
43.3167
43.2644
32.6629
39.1004
40.3082
42.3851
48.4226
34.5706
60.0476
43.6942
46.4575
54.3603
60.6984
38.5557
48.9897
51.0674
36.0762
52.2722
48.4236
49.3929
48.9459
36.8067
61.6512
48.1642
39.9926
40.1387
40.0308
39.0804
44.7957
39.1909
38.0501
61.1671
42.6803
40.3844
59.2687
43.5205
47.4236
48.4238
55.2273
49.4968
32.1888
50.3149
33.308
43.2627
48.3469
50.1562
57.7564
51.8231
37.4348
61.3914
45.0966
45.7136
44.7792
48.2235
54.0085
67.019
35.4933
60.6731
63.6504
58.0985
58.5842
39.745
56.7816
46.0628
37.48
59.1218
47.7405
50.3822
53.7785
43.311
43.0204
40.9139
47.8034
41.1905
39.1796
39.7098
51.913
36.305
52.0437
48.2397
39.8495
36.9929
57.138
41.8061
34.415
50.2773
52.1822
50.5152
52.3626
43.3912
32.9544
46.3887
48.8196
37.9705
57.1575
49.0863
42.9394
49.979
36.7542
44.1333
47.6353
47.971
64.2229
32.7411
40.0391
54.9192
38.0929
41.1945
50.1229
47.5303
35.1706
46.8101
41.4129
41.9367
63.6795
57.6135
37.9905
71.6533
64.7628
41.5488
35.6605
47.2216
63.018
50.6034
45.4614
47.5748
50.0707
50.4766
55.7003
42.4967
56.4026
56.9043
42.6855
41.8375
51.3854
54.9526
47.1557
61.2802
39.9991
48.6466
45.8769
47.2101
33.5761
58.9979
42.7301
59.3448
76.352
48.9528
34.9609
36.4009
46.9731
40.1039
45.2811
42.0821
47.2952
46.8241
42.956
39.5103
31.1059
38.8708
64.6249
52.9687
38.2212
51.2171
46.1104
46.5361
46.7444
45.4067
43.6734
40.3967
47.3894
49.1729
36.3169
34.6589
50.5872
51.3575
45.8022
49.6748
53.309
48.4961
50.2571
44.2833
62.9409
32.8789
35.7052
47.3709
48.9096
33.6418
34.2519
48.8094
78.9409
43.2108
48.896
45.8602
39.9166
45.2614
60.8915
37.7229
34.6163
47.5231
51.4012
41.5267
44.7251
39.5717
41.9051
62.722
37.9513
47.2934
42.1978
40.4204
43.4128
43.227
63.8555
46.3164
42.0205
46.9124
54.5898
49.3392
33.4518
38.5647
33.5938
38.8366
50.4266
54.7699
40.1278
36.5219
45.8915
40.1282
48.0817
36.6453
38.7572
35.7034
61.7733
39.9521
44.7385
46.722
34.7942
47.1437
35.9408
45.7079
53.3762
54.6536
37.797
54.2796
44.754
45.4084
46.7434
39.3605
40.0499
44.717
40.6188
41.4938
48.9527
61.8989
50.7954
45.78
38.4506
46.6521
34.6731
34.0817
46.2409
47.6033
35.7708
43.026
38.8139
47.4946
45.9426
37.682
58.3293
37.6845
43.8235
52.0119
34.8556
71.5388
40.4856
40.6884
39.5391
54.1347
46.6018
36.0034
45.9904
41.5575
36.5811
44.8253
33.1879
41.9145
41.4712
53.8577
39.3265
50.6527
57.6245
51.4673
42.564
41.625
54.6001
41.3274
52.1725
38.4066
45.4082
41.5968
46.162
44.0322
53.818
37.0307
37.8994
58.239
39.6338
33.4874
36.9115
54.2453
38.1555
47.8124
59.1206
54.588
41.3037
42.1716
48.4437
41.369
59.7883
48.5681
40.4021
53.8998
47.3956
41.7859
35.4198
36.5259
50.7156
45.7664
49.4141
43.0379
42.2124
37.1049
33.8711
47.0552
48.0216
53.8787
41.7986
39.8513
44.5271
41.389
53.3388
49.7391
39.6194
46.876
41.3015
33.4582
44.2702
56.6414
42.4059
48.2644
38.0667
51.0209
47.6757
50.3031
42.7668
42.5295
71.584
59.5532
41.5788
57.5881
41.3062
50.325
43.6105
48.3166
49.9141
44.4225
42.7191
36.1036
44.2536
59.8467
56.0258
49.2123
41.8127
46.0735
48.3388
38.7788
41.7447
69.4741
57.2022
30.4928
46.0019
34.9249
59.4822
47.6963
44.7111
43.5006
47.4397
45.5712
50.4627
42.8564
43.8305
46.5696
32.3124
36.0787
38.0422
35.9204
51.0345
41.7591
43.2373
32.4847
33.9553
48.577
44.7656
41.9246
39.4653
58.736
47.6097
44.0008
46.8206
39.7772
39.1011
42.4002
42.7119
44.7907
42.655
44.5106
45.5094
44.4856
43.1691
56.8638
32.3794
34.0617
35.5807
51.9513
43.4313
55.0163
41.4933
49.8311
57.7119
52.7838
50.6332
40.7522
45.0797
48.8634
44.0227
50.3844
44.7782
37.0418
39.0988
59.5348
31.7447
42.7323
55.1859
39.0681
42.1172
46.7944
37.7999
48.4922
40.2598
52.3998
33.8542
38.5742
45.5475
53.8127
38.0586
49.3393
37.8014
44.5526
45.7299
50.8913
36.5639
48.71
39.9703
35.0157
54.6592
45.2383
39.5423
46.0125
33.504
39.7623
36.9178
51.9191
47.7861
51.8253
34.8879
54.2362
42.7239
39.5237
34.3899
47.3882
35.7169
49.3649
49.6959
56.6464
47.5437
52.325
47.5307
46.1691
43.0904
37.8571
38.3391
50.164
57.3853
49.2328
56.9263
33.8634
43.421
41.551
48.5057
37.8087
35.0823
44.0952
56.367
49.9247
33.6971
48.3437
45.1491
53.2352
52.2594
35.0733
50.7536
53.638
56.7713
42.7443
55.9037
55.7711
45.8668
43.948
47.8322
57.1408
54.6933
53.3843
35.9347
50.5341
66.7964
53.8408
36.0219
59.0902
54.8829
54.7519
57.6048
46.7557
45.9487
40.3867
46.282
43.3116
60.0773
44.2099
36.4034
42.1186
53.4908
43.9875
32.1612
51.2543
42.4935
42.1973
54.4387
43.4891
43.1946
38.6455
34.7124
37.8207
37.6601
53.3141
62.8296
47.6315
47.6663
48.2681
56.795
59.4797
50.351
41.2772
43.3844
51.8372
42.8919
43.4638
46.4896
38.3446
49.3175
39.8372
37.8491
41.8865
44.924
45.8223
38.1509
44.6985
42.0562
59.9044
45.1775
41.9707
45.0452
44.1057
40.9468
47.2746
55.7981
42.7083
47.8431
60
44.0699
49.2192
56.6062
37.1005
38.797
52.6972
38.0244
42.366
46.0408
53.6132
43.1177
50.5093
38.2661
50.493
58.365
37.0192
53.141
41.0155
45.9034
47.2167
45.9465
56.1389
39.5039
59.417
45.7293
44.6848
47.6566
48.8819
55.1045
41.7712
34.9613
41.4075
42.7216
47.5126
48.7376
41.8758
55.3363
47.4956
33.2759
46.0259
51.8695
41.6991
68.1368
51.4716
38.0173
40.6827
73.4628
39.7573
68.2338
61.4389
37.3585
57.2175
43.7152
51.1357
35.2592
47.1012
40.9849
39.8566
48.4062
49.1214
75.0496
36.7081
56.9526
48.3396
36.3836
46.1061
60.268
42.1579
39.0903
46.4522
43.0166
45.3658
48.8636
50.9478
43.4162
44.0692
45.6235
46.1083
33.7792
46.8683
38.3074
33.0534
37.2227
34.9424
60.5366
43.5015
50.5862
60.1567
48.4945
46.4698
45.0204
57.0963
35.6707
58.8828
44.1658
34.5251
38.3702
39.6437
55.1925
46.9194
51.0641
34.4017
55.8526
45.7363
43.9859
36.0213
61.2977
42.4021
36.5608
31.2856
38.9749
39.2354
34.3334
35.1579
41.0771
43.9853
53.553
45.2795
40.5814
44.6139
46.0037
69.3625
46.1349
39.4391
41.3441
42.798
52.2875
46.7377
35.7529
44.4951
52.2891
38.0364
42.4561
37.8214
41.8236
61.495
46.2798
46.3303
42.2784
44.0507
67.1
33.0063
51.9314
37.6319
55.1892
37.0163
34.9869
48.4182
47.7596
51.8313
42.764
47.4748
48.875
43.6241
60.979
58.2615
82.5474
48.0911
43.7462
46.8119
63.2776
62.096
38.0827
53.5743
63.9146
39.3476
53.8774
38.4141
45.0793
45.6493
48.7487
37.9951
49.5566
40.3176
31.3758
44.3532
41.3687
41.0487
48.1285
36.2694
40.403
51.1684
47.3046
69.0673
40.6024
67.061
61.4648
50.4114
34.0481
63.5104
57.1109
44.3937
51.8272
41.9024
50.2552
42.8746
39.0181
64.4613
35.8327
38.9166
45.9208
74.447
43.4107
52.3158
42.127
39.682
56.1572
36.722
32.6816
43.3388
48.3178
44.7214
66.4186
30.0697
35.469
42.9646
45.6445
55.3358
36.8121
34.7956
36.3066
50.0264
40.4073
52.3215
49.9006
53.8014
69.7002
47.316
41.0414
56.6734
37.0776
44.1827
58.2258
36.1196
43.8826
45.4558
39.2868
47.9527
34.5655
42.3098
59.8588
37.646
42.955
56.0465
36.6077
39.041
54.2696
39.7321
59.2383
64.7202
42.8921
49.0679
58.2906
42.6785
35.9418
38.8343
37.2232
45.7947
40.0312
38.5935
47.5763
51.5721
42.0368
46.5244
42.721
51.8337
72.6668
39.8561
47.4912
50.109
56.5439
51.457
63.2134
49.154
44.4004
40.0925
41.4088
40.2346
36.1879
46.7941
43.3967
40.9675
52.5086
45.8908
41.1685
39.1454
38.9225
55.2413
54.9809
46.1033
52.4204
38.4312
42.8037
42.9528
35.4144
50.7278
56.4166
40.8328
53.8343
37.0344
57.0841
47.9271
41.6367
51.8721
47.1107
82.4766
47.743
40.692
48.0224
55.7793
40.8481
55.1098
67.2715
42.1946
46.0585
64.7953
50.5369
34.5243
43.3314
43.7227
49.2527
39.2968
44.7121
38.7767
50.6527
33.3942
40.3319
42.0677
46.6888
39.1743
39.696
50.6886
44.6633
54.2029
37.3761
43.5899
61.5325
41.6909
40.1791
48.4829
60.1658
45.1037
51.9525
35.4954
45.3353
49.4793
62.8463
37.453
50.1716
45.8858
36.7167
48.6178
43.1513
60.7331
45.5179
48.5945
53.4152
55.4126
48.5119
46.408
36.7403
35.6194
51.9363
54.5038
55.77
35.9468
37.8121
46.6365
35.2867
48.8581
34.0369
49.4895
35.8234
46.8492
52.724
38.0802
53.9668
56.444
41.3121
61.5146
45.9523
39.1519
56.69
57.7976
67.3926
39.4142
40.0027
56.0252
57.8998
52.1307
58.4957
45.7752
35.9233
34.0767
40.4673
57.7009
35.7195
60.8618
75.8757
36.4112
40.8973
43.6337
81.2577
44.5264
57.0683
42.9532
43.9377
53.6109
47.8715
41.5686
52.3865
34.3833
38.0564
46.4119
47.3667
55.5829
35.9859
47.6664
43.8885
40.35
35.5679
32.2951
29.9202
53.5481
39.6096
59.5949
41.8974
42.9892
37.0737
46.7825
42.2865
66.326
35.4096
43.6671
49.7775
35.7839
39.3793
58.61
39.9163
52.6689
40.7809
48.1461
49.3291
38.8131
41.1729
49.0344
51.7525
37.3865
51.032
44.9426
35.3642
50.1514
39.3411
34.7328
47.9734
42.1946
40.5931
46.8175
37.7899
37.6388
41.0368
47.6941
67.7549
42.8922
38.3621
34.5786
46.3869
45.9025
34.4493
41.576
43.2158
36.8415
40.8937
69.9166
34.7277
36.535
36.3527
39.9813
52.3677
46.8962
37.2116
31.5636
43.1195
56.9592
36.5731
42.1723
43.3871
39.4712
43.6232
38.8572
47.5007
45.5535
39.4244
38.529
53.2231
48.6049
40.9935
54.1849
41.1441
47.4634
41.7498
33.2729
41.9303
35.9198
48.4874
36.9498
39.0863
46.5754
68.6918
33.8651
42.9096
53.9266
43.9027
37.0101
65.2888
42.8935
53.5518
53.1815
41.3977
47.6861
45.5078
39.9566
60.4766
50.1063
46.7626
44.6183
37.6418
36.627
42.6986
38.3655
45.6387
62.2428
41.6651
40.5959
41.1971
53.5725
43.2752
32.3937
55.6398
52.7677
36.9894
43.7025
40.4248
59.5552
65.7488
56.3915
40.2124
49.5155
44.1438
31.9834
58.6043
44.8686
109.496
53.3167
48.5833
39.348
37.5721
37.2345
42.9412
36.1996
35.1892
61.8451
43.7457
41.1766
61.7442
35.4125
36.0533
43.7326
49.1869
36.1845
57.0455
44.4505
62.7782
48.9894
43.5257
34.5469
38.8557
47.2592
61.9735
54.142
53.8622
54.8849
64.6248
39.7387
36.251
46.1164
47.5683
52.196
42.4567
37.6473
47.2387
38.9905
39.2993
32.8409
57.0034
41.5003
49.272
44.4549
52.0745
46.1129
56.7114
46.3127
49.4579
50.2428
44.6575
43.8696
61.1477
63.342
35.0549
41.5086
36.3358
40.0645
47.2402
41.0976
49.222
59.8672
45.5129
56.3209
52.7719
49.4242
35.4269
42.4791
43.3806
46.843
60.5186
39.7758
45.8088
41.2859
38.4185
41.9771
65.2504
53.4748
68.4366
51.9424
33.4797
40.4087
45.9551
43.4339
44.0513
64.6096
40.1403
40.4394
42.7943
55.9851
33.902
42.9513
53.512
49.5483
36.0544
52.559
34.1362
51.5208
39.9
55.0303
41.332
43.4209
50.4375
