4.22932
4.12626
4.2959
4.73625
4.64269
4.43166
4.61028
4.5015
4.4314
4.23043
3.94091
4.33806
4.22434
4.19467
4.62307
4.23898
4.28148
4.21554
3.93995
4.15647
4.71536
4.41302
4.03279
4.04712
4.65054
4.25128
4.60408
4.63596
4.20163
4.80944
4.73417
4.42338
4.42825
4.67089
4.14924
4.75996
4.56835
4.29308
5.13865
5.1952
3.90927
4.0475
4.05763
4.48613
4.29094
4.15842
3.92804
4.74706
4.14027
4.52269
4.7389
4.03119
4.21735
4.55846
4.16207
4.43779
4.05615
4.37959
4.15564
5.4376
4.19173
3.93163
4.43612
4.66164
4.04801
4.03192
3.92039
4.47099
4.17299
4.36716
4.18838
4.19212
4.55039
4.21485
4.31412
4.27145
3.89103
4.39011
4.478
4.57006
4.24157
3.84672
3.95187
4.66863
4.02127
4.79253
3.95662
4.27224
4.43654
3.99633
4.43731
4.72342
4.57934
4.31511
4.24027
4.19708
4.3004
4.28092
4.29281
4.5514
4.04084
4.29391
4.48829
4.32947
4.1864
4.67327
4.40185
4.31509
4.16556
4.38712
4.46672
4.5085
3.83462
4.66113
4.3217
4.38106
4.38843
4.29989
4.08668
4.35542
4.85651
4.42457
4.41218
4.4414
4.34928
4.756
3.99588
4.13514
4.78181
4.01838
4.25508
4.69616
4.49128
4.2556
4.72379
4.34579
4.16859
4.14151
4.70669
4.54736
4.44823
4.52898
4.5464
3.9817
3.90708
4.08155
4.71371
4.16688
4.15083
4.1637
4.54833
4.63644
4.13151
4.10573
3.96713
4.28686
4.10716
4.23379
4.58899
4.68736
4.42323
4.56048
5.38137
4.08797
4.26632
3.96053
5.01093
4.72183
5.0588
3.89005
4.24653
3.84634
4.08022
4.59132
4.0478
4.1022
4.68633
4.57068
4.12075
4.48829
4.45824
4.45663
4.42831
4.45861
4.76208
4.00237
4.1412
4.19232
4.39904
4.19207
4.28717
3.88971
4.80196
4.25969
4.56414
4.26182
4.66354
4.20908
4.01848
4.15967
4.35332
4.47674
4.30931
4.61432
4.08444
4.87448
4.00521
4.31851
4.40062
4.14985
4.05224
4.81527
4.07288
4.26963
4.20394
4.38515
4.81006
4.83428
4.03735
4.23753
5.10597
4.76832
4.11575
4.13052
4.3478
4.37946
4.50353
4.27005
4.18668
4.45183
4.63434
3.95321
4.58914
4.71107
5.14061
4.48997
4.01989
4.05874
4.14097
4.78483
4.79847
4.37976
3.98304
4.51707
3.75322
4.10295
4.5413
3.99949
4.40047
4.50834
4.50125
4.65519
4.28363
4.61351
4.32086
4.57229
4.26502
3.94861
4.15588
4.64622
4.46358
4.26345
4.14248
4.18938
4.6914
4.15572
4.69499
4.73413
4.49025
4.68887
4.1162
4.48232
4.43116
4.0437
3.85096
4.66986
4.2224
4.53437
4.73683
4.47853
4.66418
3.872
4.32421
4.33905
4.25175
4.33468
4.49366
4.26276
4.64014
4.30635
4.11912
4.6388
4.27787
4.27794
4.65146
4.88027
4.56084
4.35912
4.37112
4.13355
5.04454
4.73969
4.36557
4.37722
4.54762
4.28283
4.42675
4.99411
3.88353
4.58487
4.50289
4.0138
3.96543
4.84353
4.20645
4.52727
3.96502
4.56048
4.02158
4.53253
4.13063
4.40108
4.14549
4.05101
4.1274
5.01274
4.47603
4.32244
4.477
4.71668
4.76066
4.49447
4.12823
4.0442
4.60613
4.26241
4.42177
4.55808
4.2284
3.96515
4.43521
4.17041
4.19563
4.1762
4.02551
4.29553
4.45878
4.57759
4.36677
4.35168
4.46283
4.08783
4.50456
4.45422
4.23065
4.64063
4.41534
4.15835
4.56788
4.71294
4.33722
4.36477
4.26194
4.55912
4.1733
4.82173
4.01639
4.30054
4.3114
4.22415
4.49763
4.67002
4.24011
3.84295
4.42892
4.64116
4.99331
4.09872
4.44619
4.04353
4.44439
4.88434
4.75555
4.43937
4.264
4.30981
4.23025
4.01047
4.42687
4.44925
4.36045
4.05031
4.2453
4.24036
4.23684
4.50978
4.2369
4.26744
4.32787
4.43027
4.55046
4.002
4.3987
4.5684
4.13916
4.43306
4.4152
4.4462
4.63276
4.19285
4.4408
4.33247
4.34927
4.05618
4.10008
4.01203
4.06922
4.38744
4.37019
4.16739
4.14732
4.26746
4.93733
4.66341
4.41082
4.44198
4.73737
4.07438
4.60694
4.61569
4.56851
4.29297
4.27447
4.27982
4.26904
4.47452
4.58373
4.19867
3.91018
4.62453
4.61258
4.49366
4.41018
4.13646
4.35129
4.39235
4.43533
4.29863
4.61528
3.93349
5.12894
4.62704
3.87908
3.97982
4.70587
4.22095
4.24919
4.20786
4.69644
4.14793
4.51863
4.54064
4.36169
4.41549
4.08705
4.31835
4.46186
4.60163
4.15092
4.68735
4.47396
4.25292
4.16444
4.52265
4.49456
4.73446
4.54234
4.42603
4.13846
4.11208
4.45573
4.87727
4.06934
4.25482
4.65632
4.43352
4.28601
4.4924
4.27318
4.38882
4.16565
4.22538
4.10588
4.18429
4.69429
4.71277
4.73708
4.39234
4.18514
4.27483
4.62023
3.93261
4.20145
4.03966
4.55531
4.37753
4.4391
4.47985
4.18178
4.24639
4.32496
3.88074
4.46957
4.2627
4.06634
4.45296
4.67728
4.55699
3.8972
5.01464
4.12788
4.25469
4.24337
4.46628
4.13632
4.69132
4.20215
4.07425
4.37598
4.49478
4.69508
4.5742
4.35564
4.20666
4.69192
4.14655
3.9397
4.66292
4.41069
4.17505
4.45867
4.17824
4.21065
4.3573
5.08957
4.63305
4.25919
4.24198
4.49685
4.093
4.14826
4.64201
4.28675
4.77521
4.16405
4.32432
4.12855
4.39765
3.98642
4.41551
4.65047
4.42265
4.3866
4.54927
3.89753
5.34398
4.79441
4.33212
4.41894
4.11424
4.45629
4.04777
4.33995
4.10454
4.60371
4.52047
4.72469
4.38952
4.77641
4.24573
4.48741
4.29244
4.94061
4.22171
4.1036
4.42212
4.48062
4.2457
4.20854
4.20623
4.24112
4.58442
4.15702
4.17898
4.43598
4.92763
4.82929
4.3939
4.14951
4.59585
4.03811
4.03049
4.11772
4.37561
4.205
4.66378
5.00204
3.70995
4.52885
4.25929
4.99436
3.99571
4.52025
4.42077
3.96098
4.21598
4.35896
4.33032
3.81706
4.33939
4.26568
5.02549
3.96874
4.00202
4.30701
3.84072
4.42246
4.43768
4.40411
4.34784
4.24133
4.49503
4.32486
4.35632
4.25535
4.57429
4.27003
4.65354
4.57569
4.46655
4.29835
4.31387
4.31025
4.30182
4.07237
4.09579
4.61686
4.02324
4.14185
5.04478
4.12315
4.49644
4.66476
4.26241
4.51972
4.5233
4.37087
4.40916
4.51077
5.2773
4.59023
4.32461
4.4198
4.74585
4.46267
4.74609
4.09975
4.52853
4.38843
4.66733
4.4429
4.72179
4.22558
4.49533
4.16596
4.49058
4.84991
4.45483
4.00755
4.36684
4.47423
4.61834
4.03177
4.14741
4.92177
4.24798
4.58062
3.99194
4.14878
4.52388
4.51898
4.28789
4.32336
4.27854
4.45407
4.47007
4.75334
4.52982
4.62936
4.37438
4.43452
4.40004
4.36837
4.1311
4.36162
4.25319
4.04305
4.53678
4.14159
4.14906
4.57432
4.20648
4.15583
5.04712
4.51188
4.67077
3.93974
4.64235
5.21849
4.68127
4.12131
4.09396
3.93937
4.55191
4.85479
5.18045
4.74392
4.24964
4.21608
4.53732
4.57845
4.49327
5.05102
4.34552
4.34952
4.31612
4.77598
4.14377
4.47156
4.54241
4.52613
4.35541
4.40027
4.18931
4.10327
4.82783
4.45926
4.12017
4.65809
4.01968
4.96292
4.44958
4.3222
3.96732
4.67655
4.22144
4.47113
4.07418
4.55292
4.52747
4.63057
4.34992
4.99221
4.84726
4.02247
4.29045
4.25371
4.21276
4.4092
4.34758
4.48907
4.41395
3.92372
4.22571
4.45637
4.31434
4.54435
4.08376
4.5803
4.20742
4.31321
4.60911
5.08139
4.22839
4.11519
4.0056
5.13871
4.25419
4.07275
4.4477
4.64274
3.92608
4.6592
4.59871
4.68835
4.55172
4.65915
4.35917
3.96471
4.2096
4.21632
4.34427
4.46326
4.86337
5.31509
4.16198
4.30371
4.55123
4.5538
4.50267
4.54752
4.26578
4.91307
3.93525
4.28226
4.92827
4.03036
4.51025
4.85217
4.13048
4.7186
4.19915
3.99145
4.62038
4.33054
4.01201
4.85436
4.44716
4.33204
4.41901
4.76591
4.45252
4.37516
4.18611
4.35009
4.14405
4.84663
4.51795
4.34869
4.143
4.74406
4.35085
4.39675
4.32158
4.32863
4.49047
3.90487
3.75785
4.2523
4.62874
4.47951
3.88427
4.44073
4.57714
4.34555
4.64148
5.11018
4.58774
4.74332
4.49309
4.5224
4.16313
4.22933
4.74763
4.63099
4.58941
4.48466
3.78389
3.79164
4.55317
4.90936
4.34443
4.78708
4.29045
4.32641
4.52118
4.59211
4.60175
4.46644
4.4541
3.95809
4.14836
4.62956
4.46902
4.23723
4.26308
4.41814
4.47872
4.22507
4.45346
4.20732
4.30141
4.80423
4.19439
4.70408
4.2432
4.23705
4.89368
5.06858
4.53212
4.38045
4.87162
4.10381
4.0097
4.72097
4.34834
4.68849
4.38628
4.09025
4.18788
5.11552
4.57585
4.09443
4.43681
4.96409
4.14117
4.26686
4.60502
3.99157
4.13376
4.06206
4.57664
4.1455
4.48228
4.52213
4.18513
4.58359
4.43182
3.84962
4.10424
4.49887
4.21439
4.0239
4.29046
4.13055
4.61226
4.12548
4.2032
4.1419
4.8662
4.55666
4.18138
4.43011
4.52656
4.3703
4.3222
4.2915
3.90041
3.92377
4.30933
4.04068
4.31979
4.85971
4.23757
4.73028
4.09994
4.04657
4.30708
4.47294
4.102
4.3271
3.91874
4.56369
4.02576
3.78807
4.56159
4.34035
3.92439
4.23668
4.28307
4.6668
4.33357
4.40313
4.2436
4.34696
5.09367
4.49766
4.38101
4.43001
4.14585
4.28097
4.29562
4.2051
4.35129
4.14222
4.29728
5.02886
4.45196
4.19618
4.46888
3.99296
4.28107
4.59487
4.37331
4.45316
3.95644
4.5241
4.33651
4.34827
4.34613
4.05301
4.44182
4.25402
4.30231
4.4513
4.45711
4.08322
4.64677
4.55166
4.21472
4.37668
4.04776
4.28516
4.51553
4.40215
4.51579
4.47393
4.428
4.51116
4.22657
4.42079
4.44802
4.21772
4.73071
4.75442
4.5246
4.26313
4.71778
4.34716
4.47922
4.0677
4.52906
4.35655
4.6125
4.00133
4.08716
4.38364
4.44282
4.56837
4.4554
3.94128
3.88767
4.3352
4.03012
4.05348
4.3338
4.44024
4.51441
3.98665
4.09688
4.23174
4.29818
4.85713
4.91818
4.25572
4.63832
5.0903
4.31892
4.0552
4.4622
4.90094
4.46981
4.31143
4.32883
4.56762
3.83601
4.799
4.7583
4.80214
4.31812
4.37483
4.49986
4.30667
4.33779
4.53673
4.68614
4.27319
4.74989
4.3963
4.33702
4.56248
4.52365
4.00149
4.20633
4.74829
4.28564
4.39066
4.54995
4.50057
4.20872
4.13301
4.21496
4.25893
4.17715
4.59883
4.55118
4.24559
4.91783
4.1553
4.73385
4.34595
4.02908
4.64961
4.91197
4.35219
4.16617
4.41121
4.44732
4.54442
4.29346
4.01996
4.30553
4.63409
3.88024
4.14109
4.58956
4.14242
4.55713
4.38761
4.02837
3.98047
4.74002
4.1422
4.05753
4.31378
5.02312
4.18184
4.12205
5.0394
4.22913
4.2542
4.33846
4.02219
4.24608
4.53776
4.4741
4.53795
4.38608
4.579
4.43736
4.25991
4.60742
5.19098
4.42382
4.46464
4.23422
4.59116
4.47844
4.04493
4.20457
4.26208
4.1084
4.39938
4.3441
3.97464
4.42474
5.02911
4.57529
3.99753
4.58505
4.29035
4.05125
4.34898
4.20213
5.00026
4.6434
4.38114
3.92379
4.53317
4.30317
4.37413
4.27527
4.31756
4.60233
3.90356
4.08588
4.23082
4.60053
4.82047
4.05816
4.43387
4.06182
4.84397
4.39421
4.35006
4.34136
4.41501
4.21172
4.78659
3.90114
4.61618
4.03706
4.31654
4.23815
3.92884
4.40627
4.09983
4.31569
4.50594
4.55503
4.38399
4.23195
4.46337
4.41826
4.2115
4.84452
4.76488
4.30771
4.13291
4.39558
4.21524
4.64113
4.51123
4.34604
4.30665
3.99843
4.35916
4.4803
4.32809
4.83952
4.04642
3.97838
4.4802
4.65794
4.3683
4.74465
4.35711
4.07829
4.1571
4.87518
4.45151
4.13521
5.15888
4.26959
4.3203
4.46639
4.84284
4.05279
4.14427
4.24052
4.45326
4.65
4.32731
4.77839
4.21098
4.57256
5.1175
4.43062
4.09721
4.30173
4.14187
4.09009
4.49404
4.36728
4.61739
4.55818
4.1001
4.57501
4.55202
4.15415
4.39703
3.96648
4.32555
4.74523
5.00579
4.23466
4.35284
4.52538
3.89264
4.4685
5.136
4.33083
4.28118
3.87364
4.59809
4.07305
4.34451
4.65736
4.31029
3.97577
4.12367
4.36766
4.3175
4.61469
4.56023
4.35195
5.11135
4.18656
4.56572
4.65598
4.26986
4.70456
4.51347
3.96318
4.31266
4.17863
4.50778
3.9029
5.0433
4.31133
4.52551
4.50221
4.69051
4.78072
4.32672
4.72911
4.36028
4.03164
3.9908
4.68185
4.33363
4.08396
3.97151
4.19608
4.71255
4.0771
3.96476
5.00057
4.36003
4.33434
4.30189
4.42544
4.62618
4.03221
4.23594
4.40295
4.58609
4.37592
4.21625
4.35329
4.40057
4.25823
4.53896
4.39454
4.26158
4.30471
4.45888
4.37473
4.42739
4.22928
4.36207
4.55036
4.3531
4.61009
4.01573
4.34257
4.22517
4.50767
4.27941
4.33041
4.4502
3.95605
4.42066
4.10968
4.45694
4.16153
4.37518
4.30037
4.46156
4.63569
4.21887
4.49528
4.43148
4.45948
4.00063
4.3276
3.97603
4.09155
4.36758
4.123
4.4163
3.85465
4.2867
4.49925
4.14354
4.46339
4.88681
4.55293
4.61788
4.40156
4.43311
4.73104
4.13759
4.09655
4.30249
3.95493
4.05199
4.48588
4.47646
4.47963
4.2993
4.08387
4.43456
4.63884
4.67226
4.16501
4.56238
4.73864
4.64231
4.43904
4.29568
4.32322
4.07051
4.42417
4.24398
4.31372
4.80634
4.82579
4.52371
3.77895
4.50987
4.38998
4.31811
4.04119
4.00286
4.37603
4.45587
4.11411
4.39656
4.36282
4.29902
4.74867
4.2573
4.33219
3.94555
4.643
4.47221
4.89996
3.9765
4.4194
4.55952
4.38518
4.45923
4.17897
4.35987
4.51861
4.43929
4.32139
4.54973
3.98694
4.23873
4.40237
4.1931
5.03761
4.12653
5.09345
5.06755
4.16772
4.32065
4.48616
4.23592
4.03199
4.43295
4.70424
4.36875
4.17325
4.56601
3.88658
4.36312
4.43389
4.74147
4.46581
4.62018
4.01106
4.20921
5.06133
4.55238
4.31401
4.35084
4.12757
3.94404
4.60481
4.5946
4.56694
4.29851
4.42775
4.63973
4.38077
4.44368
4.39544
4.19636
4.83162
4.40315
4.23084
4.27186
3.90238
4.08385
4.16324
4.12389
4.12594
4.34301
4.18716
4.26096
3.89357
5.30339
3.96789
4.36688
4.031
4.38583
4.12661
4.00765
4.31812
4.55121
4.19551
4.51214
4.96261
4.61849
4.08411
4.24308
4.36548
4.01733
4.78347
4.40688
4.21416
4.73891
4.34126
4.71564
4.18198
4.38601
4.47104
4.23107
4.58407
4.65059
4.38917
4.1836
4.16061
5.02973
4.56908
4.45564
4.8246
4.38728
4.14353
4.45752
4.26145
4.20316
4.51148
4.40792
4.30118
4.75117
4.11958
4.19185
4.54666
4.81602
4.55008
4.4281
4.18246
4.05648
4.06752
4.40142
4.13021
4.40386
4.43331
3.91812
4.11904
4.9841
4.45424
4.531
4.35465
4.432
4.68736
4.48732
4.98671
4.19316
4.75552
4.70357
4.23087
4.49592
4.15632
4.59512
4.20617
4.30739
4.69666
4.11723
4.32718
4.41938
4.58748
3.94096
3.87944
4.25031
4.16687
4.78754
4.40622
4.31012
4.32191
4.64637
4.97849
4.70653
4.31483
3.94936
4.11971
4.27894
4.22133
4.381
4.51947
4.41862
4.09311
4.42176
4.23489
4.42442
4.63146
4.16559
4.39612
4.79945
4.47857
4.34766
4.22863
4.29947
4.65137
4.6825
4.21288
4.19957
4.36404
4.49857
4.47606
4.8164
4.36042
4.15898
4.05252
3.85138
4.89075
4.49007
3.78704
4.31975
4.26773
4.68296
4.2914
4.50598
4.24682
4.4694
4.31838
4.14175
4.31984
4.5655
4.16779
3.88797
4.51454
4.25332
4.34938
4.25081
4.65722
4.20668
4.13409
4.88032
4.75884
4.31888
4.46001
4.56082
4.3673
4.4067
4.07855
3.88976
4.57028
4.14213
3.95792
4.507
4.28805
4.10773
4.36309
5.11651
4.26341
4.29316
4.24177
4.50931
4.38044
4.59535
4.58172
4.22263
3.97549
4.29
4.45609
4.60449
4.59571
4.55463
4.13043
4.52293
4.18193
4.53301
4.449
5.14281
4.34435
4.3933
4.16154
3.98544
4.32824
4.57541
4.4967
4.4861
4.64454
4.12905
4.71692
3.93191
4.14501
4.52691
4.06582
3.96778
4.36322
4.31518
4.48169
3.72035
4.51975
4.38173
4.57355
3.56101
4.5084
4.39753
3.96695
4.16504
4.39925
4.18841
4.20706
4.51925
4.13846
4.4833
4.36207
4.02433
4.33387
4.68947
4.84169
4.2371
4.35716
4.53126
4.39283
4.52089
4.2335
4.37384
4.11237
4.09905
4.06653
3.94106
4.79913
4.08431
4.42714
4.25361
4.04996
4.48295
4.69301
4.20679
4.75045
3.97215
4.72515
4.09358
4.47075
4.16108
3.8223
4.41261
4.31883
4.27509
4.24867
4.10548
4.36148
4.21648
4.1115
4.52262
4.28961
4.06225
4.16545
4.23188
4.11359
3.95424
4.60331
4.40132
4.36321
4.307
4.30959
4.07916
4.08706
4.39328
4.45834
4.16646
4.30315
5.10339
4.14949
4.9498
4.2357
4.70003
4.34752
3.90016
4.208
4.34352
4.06208
4.24055
4.15147
4.79974
4.39813
4.1586
4.60145
4.05658
4.50917
4.2577
4.21182
4.37383
4.30662
4.174
4.19432
4.72369
4.01672
4.96531
3.92151
3.96251
4.1256
4.35591
4.11135
4.57419
4.3417
4.16927
3.8931
4.31929
3.984
4.20824
4.16984
4.06337
4.54931
4.72708
4.86034
4.16955
4.06729
4.07336
4.05189
4.46534
4.68299
4.47329
4.26742
4.17537
4.05866
4.65661
4.22134
4.34171
4.26438
4.75694
4.07924
4.19548
4.4483
4.82633
3.98062
4.54252
4.13532
4.16602
4.27913
4.23995
4.41063
4.34326
4.10339
4.27899
3.92149
4.27125
3.84681
4.07014
4.527
4.6058
4.22069
4.18781
4.23801
4.32105
4.36714
4.1822
4.107
3.74387
4.21693
4.27374
4.40977
4.12325
4.21172
4.30921
4.21343
4.54705
4.58087
4.20648
3.9661
4.65991
4.08656
4.08631
4.77836
3.94365
4.34863
4.18459
3.99436
5.17759
3.90454
4.42843
4.97266
4.49681
4.72751
4.19096
3.92481
4.23868
4.7398
4.2601
4.02007
4.59045
4.65353
4.49454
4.20251
4.75468
4.24811
4.13634
4.06996
4.35951
4.53564
4.37182
4.14111
4.24726
4.35123
4.53203
4.35874
4.40854
4.50402
5.21968
4.53209
4.86536
4.45935
4.55071
4.74337
4.60056
4.20109
4.51737
4.42431
4.19711
4.35751
4.30232
4.78185
4.28927
4.49073
4.15447
4.55499
4.16524
4.15878
4.0263
4.1791
4.10174
4.49384
4.57341
4.35492
4.16414
4.4026
4.03575
4.88242
4.34948
4.77611
4.2872
4.73729
4.28651
4.01994
4.20059
4.02554
4.19223
4.83436
4.45808
4.45548
4.78951
4.56113
4.46757
4.21072
4.23984
4.15813
4.27825
4.29255
4.20746
4.29014
4.33313
4.11651
4.37993
3.83205
3.99692
4.173
4.30446
4.22622
4.64252
4.21852
4.92337
3.93512
4.0826
4.30809
4.12885
4.43209
4.46566
4.88795
4.19156
4.16341
4.05887
4.58175
4.4191
4.19439
4.52397
4.32803
4.32867
4.31599
4.52425
4.477
4.66762
4.80006
4.12819
4.23427
4.17618
4.27307
4.65616
4.57095
4.0452
4.44846
4.28183
4.88245
5.1118
4.30152
4.36311
4.36121
4.51102
4.75215
4.36996
4.25739
4.43683
4.15976
4.40703
4.0495
4.13911
4.63013
4.23925
4.77354
4.22652
4.67936
4.66944
4.5109
4.19379
4.84736
4.27673
4.58415
4.71672
4.49052
4.58318
4.26622
4.46775
4.43317
4.49776
4.17715
4.30918
3.95486
4.84507
4.01744
4.6513
4.41173
4.29485
4.4603
4.44604
4.40223
4.37029
4.64955
4.62175
4.28286
3.82214
4.46786
4.27922
5.05768
4.32664
4.47663
4.23224
4.94955
3.89566
4.10441
4.77911
4.24141
4.48983
4.0154
4.38518
3.88166
4.7338
4.02797
4.2689
4.40903
4.13638
4.39064
4.26243
4.56016
4.5407
4.35727
4.23962
4.51992
4.29886
4.41004
4.45028
4.31182
4.28805
4.12921
4.12174
4.03303
4.20765
4.49871
3.99766
4.30261
4.44828
4.09185
4.31941
4.393
4.00915
4.3036
4.60183
4.3941
4.06149
4.18971
4.2421
4.11429
4.30594
4.18126
4.01169
4.37127
5.12413
4.17344
4.12164
4.35681
4.09824
4.33274
4.30383
4.20876
4.36858
4.54937
4.27478
4.69477
4.27077
4.32027
4.77401
4.61556
4.65415
4.12796
4.13833
4.18007
3.70704
4.80791
4.63135
4.26325
4.08875
4.48905
4.54899
4.41658
5.47037
4.1974
4.57638
4.59261
4.21755
4.07128
4.38324
4.69483
4.45489
4.3358
4.44169
4.32553
4.48333
3.78928
4.43937
4.19697
4.1603
5.19941
4.16787
4.4488
4.30852
4.23816
4.18907
4.18808
4.16854
4.34356
4.09622
4.20719
4.10045
4.28374
4.48976
4.18548
4.78362
4.09554
4.47545
4.12757
4.6008
4.2554
3.98877
4.11208
4.48459
4.18702
4.54848
4.29557
4.09509
4.62017
4.509
4.69893
4.44606
4.07891
4.08161
4.59247
4.65021
4.29606
4.35469
4.43142
4.39778
4.32741
4.14499
4.03183
4.50832
4.12915
4.16854
4.50652
4.85674
4.1699
4.42753
4.41466
4.52696
4.25591
4.52051
4.40327
3.98883
4.55292
4.74595
4.04502
4.03181
4.26186
4.3922
4.21433
4.35669
4.37022
4.36971
4.27677
4.1486
4.544
4.85918
4.68066
4.09177
4.28621
4.48657
4.34402
4.39397
4.38368
4.58763
4.02575
4.5531
4.56693
4.36903
4.95648
4.14968
4.58527
4.04666
4.40139
4.11994
4.26749
4.26375
4.14673
4.13368
3.95437
4.29497
4.7838
4.61135
4.42709
3.87915
4.2382
4.66262
4.9043
4.20463
4.86631
4.91177
4.70819
4.39145
4.31643
4.37621
4.15599
3.95045
4.09519
4.2701
4.24569
4.38685
4.35873
4.92758
4.47744
4.37858
5.07074
4.61954
4.24906
3.78559
4.33506
4.11426
4.34519
4.77817
4.47388
4.36596
4.15622
4.74054
4.21845
4.03679
4.48779
4.49465
4.08375
4.4415
4.44284
4.14909
4.2014
4.3599
4.1764
4.01432
4.91334
3.99981
4.11214
4.1044
4.13808
4.44721
4.15361
4.81866
4.31214
4.8452
4.62653
4.1812
4.68537
4.52824
5.17884
5.19701
4.58739
4.40194
4.30728
4.4915
4.26049
4.60572
3.97457
4.44311
4.29044
4.28449
4.51727
4.49141
4.27507
4.44959
4.63389
4.18915
4.35906
4.27477
4.26065
4.25555
4.26867
4.72858
4.25517
4.53665
4.14474
4.00882
4.32853
4.66301
4.41678
4.00648
4.26752
4.46344
4.54428
4.15227
4.3895
4.48564
4.50671
4.3285
4.50031
4.02626
4.32881
4.09972
4.03139
4.13891
4.02703
3.96666
4.29523
4.46375
4.66767
4.19455
4.71091
4.49514
4.45215
4.5041
4.52453
4.40355
4.37574
4.12161
4.22642
4.54767
4.34853
4.7492
4.3905
4.07002
4.44523
4.30026
4.69094
4.38313
4.15979
4.16794
4.78184
4.51335
4.55602
4.13134
4.06205
4.48402
4.22573
4.162
4.29412
4.52677
4.77871
4.39669
4.8076
4.52621
4.20122
4.1976
4.24899
4.21986
4.13773
4.74436
4.43537
4.92214
4.4231
4.30854
4.28329
4.1364
4.42288
4.6506
4.06915
4.36234
4.68883
4.44876
4.29394
4.1856
4.12822
4.45482
4.41974
5.12188
4.64889
4.35384
4.2061
4.74226
4.40452
4.12618
4.32625
4.28283
4.02371
4.13418
4.17922
4.49246
4.24483
4.2101
4.1354
5.39246
4.23477
4.12125
4.61482
4.60751
4.09259
4.99017
4.44399
4.331
4.01163
4.40702
3.89002
4.52142
4.57406
4.50163
4.17258
3.99759
4.17352
4.22121
5.00971
3.99972
4.55648
4.28437
4.31124
4.04535
4.58368
4.08682
3.96621
4.16186
4.14898
4.35239
4.26671
4.71713
4.82254
4.74268
4.22477
4.64834
4.17225
3.98151
4.18391
4.35499
4.19097
4.33457
4.35428
4.4055
4.42148
4.43348
4.24182
4.09592
4.58129
4.16787
4.12389
4.41535
4.28915
4.42645
4.51115
4.63024
4.5363
4.47113
4.05006
4.13001
4.40143
4.63065
4.40737
4.09133
4.08669
4.23908
3.95148
4.41758
4.47202
4.61759
4.17351
4.58634
4.47712
4.2231
3.93516
4.42675
4.11932
4.51688
4.17461
4.27514
4.45482
4.18551
4.06157
4.29249
4.76736
4.1898
4.12177
4.51505
4.43236
4.3204
3.86797
4.43067
3.93968
4.23613
4.51842
4.0715
4.30013
4.16061
4.22829
4.43011
4.95583
4.36363
4.03864
4.85869
4.5797
3.97443
4.5811
4.64183
4.54914
4.1061
4.69939
4.43762
4.43401
4.58398
4.10688
4.13995
4.20495
4.20982
4.59109
4.94394
4.52644
3.98512
4.40097
4.54002
4.56323
4.18062
4.3563
4.91154
4.07265
4.26508
4.4469
4.0843
4.45916
3.98888
4.14582
4.17388
4.43
4.1985
4.46256
4.84917
4.22989
4.34065
4.29815
4.61319
4.43678
4.15591
4.38501
4.24244
4.54712
4.71315
4.38205
4.83155
4.80497
4.37949
4.86542
4.36011
4.13414
4.29596
5.19896
4.54868
4.27837
4.56504
4.76368
4.64388
4.23187
4.49961
4.20248
3.82836
4.40779
4.3062
4.42989
4.01799
4.44684
4.43262
4.60527
4.32133
4.14915
4.35887
4.58391
4.44485
4.50117
4.65135
4.39689
4.21616
4.08003
4.69941
5.01731
4.25372
4.88708
4.39294
4.74155
4.38319
4.18777
4.58316
4.22713
4.92744
4.03213
3.91783
4.53711
4.144
5.04735
4.62481
4.03983
4.9545
4.2974
3.93643
4.42633
4.28264
3.9749
4.58388
4.22528
4.26659
4.5307
4.55035
4.13111
4.68465
4.24195
4.34373
4.336
4.17749
4.61846
4.39824
4.4794
3.96723
4.15086
4.18975
4.13944
3.96796
4.18259
4.3763
4.41892
4.3033
4.25464
4.06862
4.15437
4.51747
4.24646
4.33285
4.28539
4.32015
4.89326
4.44603
3.95893
4.47413
4.45489
4.62347
4.19164
4.24318
4.36888
4.388
4.29229
4.41616
4.57214
4.26472
4.62049
4.25075
3.99047
4.29688
4.45197
4.05729
4.33729
4.07273
4.31094
4.41989
4.28978
3.97473
4.13187
4.23253
4.65518
4.45201
4.73648
3.87363
4.93546
3.87834
4.53775
4.38654
4.82205
3.9508
3.7914
4.09109
4.39865
4.47262
4.46057
4.45013
4.62199
3.99076
4.39832
4.32798
4.29824
4.2481
4.85201
4.79865
4.12362
4.85584
4.41388
4.33118
4.24147
4.3229
4.63528
4.06019
4.47005
4.31055
4.44671
4.59166
4.0158
3.9545
4.78729
4.72991
4.85451
4.53695
4.54375
4.44122
4.63255
4.03347
4.68062
4.21074
4.79377
4.35012
4.14497
4.36621
4.74599
4.28312
4.39419
4.04311
4.51566
4.17811
4.52338
4.2297
4.47609
4.25495
4.18977
4.27601
4.43835
4.12039
4.43814
4.56764
4.67757
4.03133
4.22644
4.63417
4.31513
4.20147
3.9876
4.55819
3.84641
4.19752
4.70531
4.4203
4.67537
4.24767
4.04882
4.34779
3.79107
4.70819
4.34637
3.96539
4.66475
4.79601
4.12008
4.38735
4.3321
4.31153
4.61236
4.95215
4.29107
4.81544
4.00315
4.21697
3.85227
4.33951
4.49614
4.00773
4.63068
4.06409
4.20894
4.37908
4.29256
4.51914
3.91012
4.05599
4.21561
4.15638
3.98554
4.46956
4.71707
4.18313
3.9843
4.74797
4.57181
4.49648
4.35101
4.79327
4.77226
4.26113
4.0369
4.81634
4.53294
4.53583
4.98605
4.32518
4.32651
4.29403
4.78684
4.06069
4.0529
4.26376
5.05665
4.68773
4.32713
4.9691
5.04152
4.11296
4.36934
4.72732
4.136
4.86933
4.32458
4.21363
4.16432
4.14716
4.1487
4.45984
4.58439
4.61248
4.19045
4.25825
4.03842
4.42873
5.04294
4.51073
4.49334
4.14356
4.73115
4.95088
4.32728
3.82186
4.52436
4.49926
4.27629
4.9192
4.1126
4.20159
4.70854
4.02479
4.40621
4.11943
4.20544
4.50992
4.25363
4.26402
4.31915
4.73877
4.38433
4.65703
4.23044
4.86357
4.61138
4.39112
4.57389
3.97468
4.41525
4.00264
4.29508
4.50377
4.47706
4.52871
4.37824
4.59104
4.5397
4.88983
4.19024
4.08975
4.36106
4.20948
4.57501
4.28147
4.30844
4.18143
4.26929
4.43925
4.27285
4.32956
4.5552
4.06761
4.15843
4.50848
4.39843
4.93878
4.49593
4.2731
4.65907
4.40006
4.80318
4.09507
4.5515
4.57013
4.16933
4.10775
4.53476
4.32986
4.32785
4.29991
4.52896
4.53795
4.2942
4.34962
4.45742
4.50936
4.34625
4.29052
4.26819
4.12325
4.23657
4.20114
5.14265
4.10382
4.36201
4.45588
4.04404
4.83731
4.96019
4.60921
4.52902
3.94485
4.64202
4.32642
4.42092
4.31122
4.47741
4.57254
4.62457
4.29487
4.37398
4.29393
4.18771
4.06744
4.01839
4.74324
4.36373
4.70912
4.65032
4.3018
4.25668
3.85412
3.99352
4.31365
3.92549
4.15033
4.14448
4.07366
4.33605
4.35747
4.16647
4.71733
4.33628
4.32466
4.62803
4.43573
4.43536
4.53262
4.48507
4.03563
4.31482
4.66389
4.30942
3.79237
4.41338
4.3513
4.23051
4.15937
4.40815
4.29781
4.04855
4.57973
4.29419
4.10898
4.38959
4.19987
4.28087
4.42147
4.3547
4.4521
4.30811
4.7658
4.50189
4.12575
4.33923
5.02411
4.17056
4.09731
4.90969
4.0999
4.98303
4.73478
3.88939
4.24056
4.07274
4.4773
4.19676
4.29748
4.06454
4.55586
4.18546
4.40036
4.35601
4.8612
4.69432
4.74123
4.19123
4.14666
4.90375
4.09162
4.63058
4.20074
4.59961
4.91365
4.79978
3.94844
4.04926
4.10216
4.48163
4.53429
3.99452
4.20441
4.41845
4.45473
4.33554
4.09929
4.10963
5.03562
4.92105
5.26646
4.7813
4.86283
4.39338
4.10878
4.70201
3.99949
3.95331
4.15302
4.39853
4.62336
4.33115
4.39481
4.32682
3.83668
4.44351
4.37721
4.31826
4.5974
4.30865
4.76842
4.38026
4.38782
4.19875
4.07356
4.50522
4.62736
4.50636
4.67895
4.33227
4.87094
4.39071
4.60804
4.94471
4.2843
4.08779
4.07377
4.69814
4.63732
4.73852
4.2112
4.41863
4.51934
4.42268
4.38392
4.12132
4.70863
3.98172
4.25792
4.19798
4.2748
4.35113
4.36722
4.34763
4.22085
4.57246
4.07443
4.59475
4.36903
3.98476
3.98123
4.24437
4.02323
4.59088
4.38721
4.07471
4.29758
4.57853
4.09572
4.264
4.89038
4.33098
4.21675
4.30984
4.81189
4.22088
4.60997
4.04295
4.54079
4.69543
4.46215
4.59272
4.74218
4.10889
4.43401
4.49159
4.14175
4.30305
4.6698
4.79362
4.18958
4.02755
4.54538
4.24871
4.38776
4.07323
4.32154
4.41492
4.63511
4.56524
4.32799
4.36864
4.14989
4.30108
4.29917
4.19072
4.25613
3.82938
4.5457
4.48995
4.31005
4.6462
3.97961
4.64362
4.14151
4.2426
4.29806
4.07706
4.25559
4.25775
4.53613
4.11918
4.72259
4.07663
4.05724
4.5502
4.10091
4.09372
4.90652
4.43953
4.82105
4.27201
4.40641
4.34756
4.45159
4.07133
4.46118
4.38126
4.14852
4.39354
4.40266
4.10643
4.50004
4.27027
4.03148
4.80331
4.00229
4.69794
4.06687
4.2466
4.4575
4.05368
4.23442
3.79477
4.73175
4.33612
4.21937
4.26855
4.23045
4.26977
4.47673
4.31825
4.2797
4.35031
3.99332
4.10641
4.85305
4.05527
4.33765
4.36288
5.31435
4.4857
4.08962
4.26237
4.0192
3.79254
4.44663
4.43343
4.46042
4.58379
4.49851
4.35385
4.22638
4.30278
4.34177
4.36878
4.33337
4.2163
4.51641
4.44901
4.27179
5.49037
4.52459
4.43898
4.29507
4.41835
3.91644
4.36497
4.29764
4.45027
4.57412
4.7585
4.44933
4.40207
4.1441
4.61817
4.29496
4.13971
4.32688
4.3261
4.15945
4.41505
4.40668
4.08004
4.41227
4.30124
4.01231
4.08706
4.88627
4.32906
4.55384
4.76597
4.66065
4.17539
4.34142
4.52048
4.47613
4.74871
4.17676
4.22545
4.61579
4.20685
4.37966
3.97609
4.24658
4.1319
4.92186
4.47811
4.25541
4.2927
4.91479
4.56733
4.40319
4.24385
3.97608
4.4815
4.42781
4.00886
3.98155
4.02919
4.32492
4.33536
4.65383
4.19011
4.45225
4.63589
4.51233
4.52795
4.45647
4.32283
4.34986
4.04917
4.53893
4.3702
4.6788
4.9741
4.69064
4.16898
4.35374
4.26918
4.08634
4.41774
4.65106
4.25945
4.46517
4.52527
4.26818
4.55097
4.40835
4.17141
4.46838
4.47331
4.7013
4.17128
4.15166
4.61166
4.68267
4.21834
4.32882
4.55402
4.42114
4.30196
4.5034
4.79921
4.55743
4.86791
4.48234
4.03159
4.52472
4.54214
4.45526
4.77842
4.63365
4.49037
4.41731
4.30947
4.17148
4.46269
4.26388
4.3217
4.16734
4.04771
4.56511
4.61766
4.30328
4.68074
4.6437
4.68409
4.48201
4.29683
4.48886
4.25373
4.10998
4.34157
4.08687
4.2774
4.26212
4.1794
4.35994
4.1306
4.26405
4.49029
4.43147
4.62411
4.10856
4.08797
4.31147
4.32513
4.46389
4.46455
4.52152
4.29316
4.66707
3.83168
4.46111
4.60473
5.08736
4.55763
4.49355
4.60287
4.43981
4.22679
4.66171
4.53218
4.70448
4.02233
4.01633
4.13264
4.2019
4.47592
4.26073
4.53634
4.17568
4.35047
3.99735
4.11569
4.2857
4.69399
4.26562
4.18948
4.44785
4.32136
4.04351
4.44669
4.16483
4.63091
4.60739
4.2147
4.44202
4.20828
4.59144
4.10939
4.08649
4.62339
4.3038
4.19901
4.59652
4.12103
4.2323
4.24073
4.60471
4.15169
4.31164
4.80347
4.03866
4.01513
4.16521
4.27501
4.82812
4.13684
4.31468
4.14376
4.59009
4.52422
4.07968
3.76876
4.22353
3.99036
4.5083
3.94054
4.15968
4.39689
4.28399
4.26266
4.53917
4.27618
4.46787
4.3965
4.36455
4.26463
3.91417
4.5197
4.50635
4.67495
5.00767
4.192
3.92172
3.93569
4.37809
4.28318
4.31936
3.99537
4.38074
4.6664
4.30593
4.52994
4.66796
4.64965
4.19739
4.92868
4.4606
4.25409
4.12154
4.04864
4.24156
4.38168
4.46469
4.59069
3.76905
4.49791
4.35456
4.58179
4.29028
4.13802
4.64807
4.16586
4.6808
4.37167
4.14887
4.36834
4.37859
4.1741
4.95974
4.17269
4.60865
4.95292
4.22243
4.40067
4.22882
4.40789
4.79907
4.25139
4.28972
3.94711
4.28315
4.58546
4.34314
4.6685
4.35445
4.01196
4.48766
4.53133
4.43682
4.74551
5.07312
4.30094
4.45202
4.80202
4.15802
4.52831
4.45833
4.50042
3.88627
4.43142
3.99812
4.409
4.5845
4.37074
4.85697
4.40991
4.31919
4.37082
4.16903
4.65716
4.85471
4.23269
4.9564
4.39424
4.38395
4.37631
4.79527
5.0417
4.28435
4.49518
5.01328
4.47364
4.24953
4.52872
4.0987
4.14181
4.57436
4.65379
4.27856
4.27452
4.47981
4.56005
4.9018
4.54747
4.42356
4.12448
4.14363
4.62467
4.2954
4.38987
4.09131
4.45967
4.52387
4.35638
4.65442
4.3783
4.97482
4.23334
4.27897
4.14499
4.42171
4.23549
4.91343
3.89522
3.83119
5.01241
4.15366
4.41412
4.96118
4.75198
4.55481
4.72957
4.52552
4.57078
4.31924
3.97844
4.53062
4.75089
4.40059
4.48576
4.14394
4.19606
4.41998
4.54411
4.42248
4.34372
4.18457
3.96699
3.91821
4.35784
4.45597
4.05725
4.54601
4.66326
4.14708
3.99993
4.17717
4.74691
4.68838
4.88339
4.18538
4.62807
4.17668
4.31155
4.48578
4.51702
4.63652
4.22751
4.62888
4.34618
4.25866
4.96023
4.36254
3.99531
4.34866
4.06943
4.20466
4.53142
4.03844
4.61346
4.72051
4.24721
4.55877
4.72095
4.77143
4.47492
4.37603
4.13191
4.37537
4.25594
4.12281
4.30698
4.24548
4.19871
4.65957
4.48738
4.41897
4.4823
4.27172
4.13987
3.70717
4.36737
4.6023
4.44046
4.26259
4.44435
4.57629
4.56108
4.6336
4.57321
4.24137
4.41233
4.48305
4.52199
4.60113
4.26489
4.39753
4.24053
4.12126
4.3665
4.40549
4.38537
4.24997
4.36519
4.60749
4.90547
4.99875
4.54135
4.31773
4.26237
4.63927
4.21162
3.9532
4.81143
4.21985
4.09283
4.2987
4.06583
4.40078
4.14098
4.37869
4.37081
4.07292
4.00961
4.29802
4.86737
4.48456
4.56851
4.10555
4.92048
4.94218
4.38719
4.32813
4.60509
4.39641
4.65433
3.96548
4.2324
4.36383
4.31082
4.55451
4.85647
4.56684
4.18687
4.53306
5.04611
4.81219
4.21164
4.22125
3.92589
4.73689
4.11354
4.12478
3.93713
4.19427
4.35158
4.43538
4.84947
4.34842
4.29315
4.58386
4.05791
4.2049
4.68487
4.4055
4.86864
4.22206
4.05322
3.9293
4.95333
4.47318
4.05368
4.34875
4.29691
4.22236
4.41242
4.34743
4.53858
4.29517
4.43055
4.36913
4.97396
4.04769
4.09587
4.5865
4.3822
4.55222
4.9037
4.47807
4.30638
4.78568
4.46785
4.18785
4.02329
4.52996
4.67698
4.57305
4.71435
4.41574
4.51916
5.21435
4.22278
4.58941
4.00145
4.80564
4.57346
4.41316
4.58046
4.23348
4.59298
4.36864
4.29723
4.19596
4.82676
4.0133
4.33114
4.3494
3.94114
4.03326
4.57671
4.58684
4.59787
4.55942
3.98489
4.83139
4.54832
4.44224
4.38162
4.37276
4.1151
4.67236
4.19352
4.57185
4.63142
4.87991
4.421
4.80513
4.59551
4.02838
4.59862
4.3123
4.05891
4.43491
4.45809
4.4511
4.39873
4.38195
4.62605
4.58306
4.40028
4.65982
4.52728
3.95671
4.97788
4.0411
4.41877
4.95176
4.52425
4.32244
4.05423
4.98027
4.65416
4.43425
4.41332
4.08098
4.20363
4.35115
4.99249
4.37714
4.14059
4.15355
4.50071
4.72763
4.43789
4.66621
4.75893
4.88509
4.02707
4.24337
4.38839
4.42667
4.90717
4.1128
4.55529
4.68686
4.77108
4.33435
4.13962
4.40088
4.39748
4.09249
4.61564
4.68768
4.28166
4.44392
4.04455
4.41526
4.36927
4.36879
4.94154
4.44683
4.17162
4.21807
4.05739
4.71346
4.21089
4.82685
3.92464
4.53202
4.62646
4.33615
4.49803
4.12167
4.43044
4.33971
4.43139
4.07035
4.2873
4.39731
4.57877
4.22878
4.5328
4.42696
4.64156
4.55664
4.68139
4.00249
4.28827
4.31708
4.55038
4.30822
4.0328
4.14922
4.01888
4.43337
4.55292
4.59007
4.31246
4.5801
4.00252
4.46534
4.35257
4.39142
4.37188
4.23965
4.43432
4.27549
4.85081
4.67917
4.63049
4.28595
4.48032
4.36706
4.24177
4.88299
4.47778
4.24283
4.2282
3.88875
4.06752
3.96811
4.57616
3.99807
4.30195
4.27086
4.67333
4.60631
4.65275
4.15234
4.27624
3.91071
4.61391
4.51765
4.09712
4.3198
5.09355
4.41811
4.11128
4.16121
4.19695
4.55034
4.18386
4.48045
4.48124
4.0882
4.37734
4.44396
4.49917
4.46153
3.97752
4.79107
4.44675
4.19636
5.13486
4.77658
4.72981
4.08376
4.75076
4.86223
4.43588
4.5762
4.56004
4.21548
4.39696
4.66008
4.11228
4.25821
4.22417
4.39152
4.67203
3.89884
4.46524
4.01422
4.41683
4.66654
4.20214
4.30907
4.62099
4.76774
4.37554
4.74561
4.71542
4.20995
4.3312
4.43718
4.55619
4.15992
4.52961
4.36457
4.4803
4.30534
3.98735
5.06745
4.12367
4.12583
4.19897
4.57087
5.62006
4.26154
4.41648
4.32586
4.98807
5.0108
4.27402
3.80843
4.45566
4.20187
4.74659
4.49616
3.99665
4.68665
4.53729
4.5596
4.51169
4.4682
4.48417
4.4299
4.48539
4.57468
4.69729
4.07948
4.76086
4.37972
4.34854
4.09775
3.93378
4.27023
4.2213
4.16393
4.17053
4.30266
4.1207
4.20481
4.17806
4.90829
3.83465
4.00788
4.1744
3.91357
4.24546
4.9589
4.30515
4.4614
4.30077
4.5653
4.25216
4.54808
4.63662
4.53478
4.88142
4.51364
4.33617
4.4591
3.82052
4.3307
4.37712
4.5014
4.28408
4.53811
4.24012
4.45848
4.42928
4.32044
4.77967
4.2469
4.62621
4.56191
4.24719
4.7082
4.17843
4.67865
4.45413
4.16461
4.77635
4.29324
4.3938
3.78541
4.63844
4.30281
4.22549
4.25338
4.41272
4.5985
4.76609
4.58115
4.02531
4.49114
4.76126
4.74745
4.33089
4.24459
4.68398
4.51221
4.17325
4.06792
3.89347
4.08066
4.30042
4.73786
4.57237
4.26813
4.39189
4.15325
4.54193
4.07013
4.23813
4.12625
4.39377
4.31277
4.45917
4.99133
4.0501
4.07635
4.68269
4.28406
4.56174
4.5936
4.31406
4.57524
3.88108
3.85757
4.26399
4.32897
4.44475
4.61664
5.04739
4.39153
4.6497
4.38845
4.1337
4.373
4.2043
4.1409
4.35956
4.35964
4.01588
4.12255
4.58992
4.10003
4.19956
4.27986
4.3709
4.37633
4.6014
4.52104
4.5891
4.39915
3.77955
4.78675
4.7975
4.20073
4.42299
4.38588
4.0215
5.56784
4.1522
4.03283
4.1677
4.36529
4.11722
4.91841
4.38227
4.23262
4.44131
4.26116
4.03446
4.20524
4.45626
3.98546
4.27944
4.48034
4.7551
4.17103
4.2294
4.40619
4.23746
4.82552
4.29001
4.48672
3.99557
4.21501
4.42311
4.15005
4.12626
4.84135
4.47566
4.95982
4.80249
4.28935
4.52943
4.1235
4.32701
4.2629
4.53323
4.50104
4.8298
4.39536
4.37435
4.73346
3.86078
5.04535
4.22926
4.46137
4.63032
4.17714
4.65765
4.01045
4.23383
4.4918
4.43874
4.78774
4.36387
4.25656
4.39175
4.45876
4.32929
4.6641
4.68732
4.40851
4.14334
4.19013
4.22286
4.64923
4.1616
4.16367
4.36388
4.47589
4.29433
4.30257
4.88143
4.1677
4.47057
4.1682
5.00959
4.40487
4.63324
4.53071
4.15544
4.00028
4.61323
3.80338
4.51766
4.36704
4.06081
4.35551
4.54017
4.41621
4.0866
4.28035
4.03222
4.19962
4.29275
4.25899
4.39636
4.14213
4.43795
4.13332
4.23157
4.63084
4.43643
4.55417
4.31309
4.47267
4.43672
4.31218
4.43182
4.02983
4.9532
4.09641
4.69885
4.40278
4.5519
4.2709
4.4224
4.35409
4.207
4.18529
4.11312
4.93648
4.33201
4.22985
4.30851
4.45971
4.79073
4.14741
4.22053
4.37583
4.3654
4.13127
4.39702
4.37433
4.03571
4.37974
4.65182
4.40592
4.51358
4.39782
4.34045
4.7449
3.85706
4.85877
4.34106
4.24059
4.66673
4.15172
4.17978
4.14967
4.57571
4.37039
4.54101
5.0551
4.02412
4.81472
4.22932
4.23849
4.88745
3.84926
4.44748
4.42197
4.23116
4.26743
4.13165
4.1109
4.14091
4.36199
4.44716
4.161
4.30407
4.79977
4.52969
4.33242
4.3291
4.41995
4.67995
4.51686
4.46795
4.28554
4.59117
4.10715
4.49547
4.30619
4.36631
4.56909
4.71669
4.69627
4.09719
4.70015
4.63635
4.18743
4.53807
5.217
4.63888
4.18554
4.08873
4.37848
4.19196
4.02492
4.25716
4.4996
4.29211
4.73936
4.33653
5.00116
4.63861
4.04558
4.21087
4.54543
4.83559
4.46965
4.73365
4.21598
4.46127
4.18647
4.53764
4.12544
4.65967
4.43515
4.15818
4.55199
4.72751
4.48802
4.1847
4.38285
4.23937
4.05232
4.21071
4.3563
4.02278
4.72212
4.41727
4.33045
4.2442
4.28424
4.54924
4.45813
3.99262
4.13836
4.77791
4.34714
4.12399
3.94123
4.32157
4.36321
3.92427
4.09044
4.18366
4.21287
4.27298
4.35424
4.53733
4.3046
4.49508
4.40638
4.10092
4.67055
3.95098
4.56104
4.97245
5.0973
4.09163
4.34327
4.20463
4.05375
4.66009
4.06834
4.19672
4.23194
4.44156
4.90891
4.16715
4.93836
4.26562
4.44624
4.46088
4.93879
4.11573
3.99344
4.55087
4.40525
4.38265
4.21293
4.13379
4.44052
4.55452
4.32131
4.54616
4.51131
4.59115
4.43637
4.3891
4.19169
3.9372
4.19462
4.30755
4.41014
4.2246
3.9762
4.77144
4.27914
4.36717
4.08068
4.4975
4.42392
4.50719
4.23191
4.18619
4.53081
4.13678
3.92865
4.68588
4.39898
4.22279
4.66351
4.37482
4.46351
5.09289
4.19269
4.08883
4.44595
4.25655
3.94396
4.32014
4.24921
4.48868
4.76984
4.04681
4.56245
4.63792
4.40074
4.436
4.54406
4.89934
4.49485
4.5615
4.33437
4.17517
4.25172
4.19665
4.35235
4.65435
3.87396
4.5936
4.0652
4.22044
4.39071
4.65903
4.82009
4.06298
4.03996
4.4059
4.32549
4.33119
4.63787
4.42216
3.92881
4.18136
3.97208
4.34918
4.75721
4.56855
4.19184
4.16321
4.3122
4.53531
4.18148
4.30902
4.5158
4.46786
4.03815
4.70037
4.52693
4.40122
4.77824
4.57831
4.28382
4.37296
4.54301
4.21777
4.17646
4.35756
3.76251
4.09711
4.56706
4.06626
4.63586
4.43844
4.64894
4.3666
4.41143
4.59824
4.70294
4.69009
4.93448
4.02989
4.48211
4.03021
3.92691
3.94572
4.46552
4.92225
4.28998
4.52891
4.07584
4.53396
3.99815
4.30639
4.64847
4.27637
4.33628
4.29927
4.17544
3.92724
4.16129
4.51127
3.94119
4.79198
4.30065
4.16825
3.83027
4.10177
4.03786
4.39983
4.32673
4.2947
4.13035
4.11867
4.20031
4.30864
4.26194
4.42721
4.537
4.20628
4.57364
4.19409
4.23984
4.23346
4.74124
3.76672
4.45522
4.19249
4.51948
4.7302
4.42942
3.89873
4.34087
4.13207
4.83253
4.1574
4.57295
4.41658
4.24684
4.23366
4.11121
4.30541
4.58797
4.44126
4.35927
4.34487
4.50024
4.18144
4.54403
4.12374
4.90998
4.03517
4.97405
4.21461
4.31386
4.3444
4.50963
4.34409
4.68754
4.40568
4.56294
4.05393
4.45075
4.02254
4.27321
4.29788
4.00988
4.33699
4.36488
4.68972
4.50308
4.86243
4.20979
3.93333
4.60499
4.23083
4.01144
3.95688
4.178
4.27461
4.46792
5.02221
4.48499
4.46966
4.21692
4.25516
4.39081
4.33202
4.30402
4.4155
4.3289
4.39315
4.30092
4.54092
4.65054
4.43451
4.30248
4.1092
4.17497
4.25825
4.53317
4.3242
4.24722
4.54677
4.73034
4.31331
4.1113
4.41216
4.12617
4.20518
4.66799
4.63544
4.35184
4.16289
3.90208
4.50328
4.10126
4.25076
4.91437
5.06863
4.40899
4.22914
4.37656
4.32497
4.23622
4.2828
4.25095
4.40069
4.47377
3.90077
4.0825
4.49351
3.95279
4.06075
4.21638
4.15773
4.1668
4.6441
4.14866
4.10389
4.76067
4.12998
4.33801
4.24406
4.41536
3.87734
4.34597
4.41768
4.11545
4.18713
4.76357
4.05089
4.2452
4.11714
4.34272
4.36601
4.38134
4.87336
4.51907
4.62572
3.95241
4.50661
4.51049
4.39038
4.01957
4.82036
4.64129
4.17707
4.66287
4.15019
4.16337
4.05382
4.38438
4.46706
4.33357
4.77247
4.09315
4.11603
4.19279
4.19224
3.99868
4.13189
4.47564
4.67204
4.35951
4.40589
4.2014
4.40141
4.53374
4.36948
4.22362
4.71557
4.24337
4.2533
4.36806
4.75915
4.46782
4.22113
4.43622
4.49996
4.43897
4.48197
4.62529
4.55883
4.44003
4.86436
4.22641
3.82035
4.20934
4.10006
4.71461
4.08197
4.40302
3.85127
4.70148
4.66111
4.29236
4.19665
4.10238
4.05936
4.37074
4.41847
4.74103
4.73869
4.61738
4.08325
4.48148
4.61971
4.75296
4.89405
4.17744
4.51102
4.80618
4.66038
4.26491
4.1734
4.37902
4.6168
4.26955
4.61654
4.09047
4.59076
4.07818
4.44431
4.34021
4.16208
4.19801
4.19913
4.64979
4.14857
4.01784
4.12968
4.93992
4.81082
4.13512
4.6798
4.66606
4.65466
4.53551
4.35082
4.01248
4.13978
4.57419
4.51505
3.99677
4.33265
5.34341
4.29613
4.33285
4.10868
3.92019
3.89949
4.62831
4.1601
4.08724
4.44294
4.49482
4.46908
4.43718
3.95631
4.49841
4.31946
4.08343
4.47234
4.24406
4.31935
4.59809
4.1635
4.58814
4.26631
4.61503
4.26408
4.32095
4.07359
4.72994
4.07979
4.56007
4.33622
4.25017
4.30554
4.46119
4.23899
4.25017
4.3227
4.18507
4.4086
4.19199
4.17869
4.18857
4.08719
4.35968
4.29489
4.04662
4.09014
4.37223
4.25998
4.53227
4.10685
4.56533
4.22672
4.29554
4.1127
4.56725
3.99457
4.71397
4.11525
4.11187
4.30896
4.20283
4.33408
4.0969
4.52858
4.16991
4.38225
4.23594
4.54748
4.33288
5.00317
4.28206
5.22189
4.29811
4.15316
4.22202
4.59005
3.90764
4.90452
4.00311
4.29983
4.81751
4.88521
4.44922
4.20676
4.27156
4.63178
3.79519
4.42178
3.81992
4.47684
4.11019
4.3925
4.71458
3.75769
5.30639
4.7823
4.31307
4.41364
3.99028
4.72384
4.24215
4.57853
4.55762
4.26097
4.2219
4.37724
4.48094
4.59344
4.42403
4.1152
4.44526
4.57127
4.43849
4.51578
4.67447
4.62965
4.77719
4.95371
4.60933
4.00842
4.98704
4.68527
4.04306
4.83596
4.27418
4.37715
4.27661
4.68609
4.71303
4.32091
4.39326
4.53009
4.62459
4.39359
4.6388
4.3107
4.76331
4.04377
3.99716
4.24234
4.18664
4.78017
4.4293
4.22268
4.54314
4.14329
4.27784
4.89236
5.10677
4.50487
4.07996
4.55904
4.23063
4.34631
4.31965
4.11002
4.42344
4.27325
4.75717
4.535
4.76053
4.35134
4.12431
4.54367
4.03784
4.21251
4.21729
4.53977
4.85413
4.22773
4.2681
4.43782
4.29362
4.4143
4.06143
4.30611
4.72401
4.40523
4.19151
4.51363
4.19248
4.89005
4.32799
4.33516
3.98534
3.90411
4.37933
4.33226
4.26936
4.61514
4.4659
4.49284
4.05899
4.42
4.77365
4.2309
4.47533
4.52003
4.01729
4.52989
4.26836
4.46763
3.97416
4.3771
4.13096
4.36549
4.29557
4.11348
4.31386
4.80952
4.41218
4.42144
3.99544
4.31428
4.00897
4.66414
4.40841
3.84443
4.34261
4.50957
4.39674
4.26743
4.64699
4.09316
4.84283
4.34083
4.15468
4.35644
4.16555
4.26594
4.5035
4.17169
4.19863
4.35876
4.34887
3.95638
4.32419
5.50649
4.06573
4.14805
4.27619
4.61161
4.33533
4.01529
4.18025
5.15577
4.55182
4.56702
4.06074
4.42613
4.49251
4.24867
4.34214
4.53136
4.83707
4.35353
4.52084
4.59389
4.47897
4.02049
4.46835
3.996
4.24844
4.57343
4.46212
4.60318
4.23344
4.46053
5.59475
4.22202
4.47873
4.27688
4.28484
4.5685
4.17446
4.23953
4.39601
4.24014
4.67163
4.7126
4.22788
4.04997
4.32502
4.4908
4.67592
4.46666
3.79185
4.06394
4.08232
4.67903
4.10697
4.82048
4.098
4.33739
4.44893
4.33824
4.1921
4.52141
4.55593
4.50204
4.32724
4.33367
4.02129
4.3951
4.76972
4.14434
4.14672
4.028
4.01666
4.72089
4.19379
4.04384
4.37625
4.50959
4.37783
4.19656
4.95485
4.09974
4.513
4.58568
3.92007
4.85057
4.06639
4.6516
4.2643
4.35472
4.61819
4.49931
4.09387
4.10076
4.43883
4.7644
4.76756
4.47685
4.42264
4.17422
4.66129
4.18569
4.54989
4.79784
3.99373
4.1952
3.85289
4.41325
4.83735
4.71521
4.63445
4.64915
4.20092
4.39968
4.26421
4.80752
4.57927
4.18524
4.27317
4.77826
4.18654
4.23401
4.38232
4.43486
4.59174
4.21672
4.12763
4.08053
4.23132
4.58375
3.90355
5.0553
4.37758
3.8783
4.35747
3.85757
4.34992
4.26851
3.79233
4.66637
4.32868
4.94802
4.75544
4.39606
4.50401
4.33062
4.68589
4.46615
4.13366
4.37095
4.16861
4.43719
3.80554
4.04431
4.3817
4.45286
4.26705
4.5235
4.51472
4.18062
4.16732
4.11291
4.37633
4.43191
4.56897
5.06361
4.70541
4.43966
4.19696
4.51944
4.60821
4.39032
4.02771
4.50207
4.16225
4.44844
4.40108
4.5818
4.35882
4.30563
4.28587
5.08847
3.92164
4.77591
4.11825
4.52054
3.98568
4.49862
4.14172
4.41544
4.36365
4.30096
4.05767
4.29007
4.29098
4.22977
4.76885
4.0719
4.46933
4.29861
4.25229
4.20896
4.64602
4.35037
4.22496
4.40753
4.43271
4.59766
4.5844
4.41725
4.12651
4.60617
4.3976
3.88576
4.55554
4.36388
4.48211
4.30947
4.46415
4.35669
4.24535
4.13894
4.71957
4.22558
4.23169
4.52303
3.93568
4.1124
4.28982
4.78095
3.96989
4.87486
4.27185
4.4195
4.48942
4.06789
4.87535
4.09757
4.67254
4.45197
4.15665
4.21433
4.83706
4.26783
4.59346
4.34511
4.55507
4.42496
4.54587
4.08168
5.0465
4.41354
4.8014
4.3848
4.51658
4.64384
4.43606
4.3486
4.30138
5.0436
4.25573
3.99509
4.37667
4.24993
4.11964
4.62907
4.84827
4.04368
3.97956
4.38114
4.37417
4.30501
4.32267
4.34759
4.47842
3.88668
4.10405
4.11299
4.45135
4.62861
4.0891
4.18992
4.78275
4.11013
4.72166
4.69352
4.38549
4.17101
4.17943
4.11475
3.96963
4.2828
4.054
4.05013
4.378
4.40577
4.09021
4.57493
4.34448
4.41225
4.24655
4.28076
4.24929
4.48926
4.42333
4.49899
4.64378
4.05216
4.55551
4.09036
4.18867
4.22522
4.37054
4.20934
4.39942
4.31964
4.26863
4.59048
4.17431
4.54972
4.31755
4.17834
4.15522
4.41564
4.36132
5.05454
4.33523
4.40707
4.11549
3.97377
4.6672
3.75732
4.79049
4.2755
3.99216
4.12294
4.33855
4.53613
4.16406
4.93991
4.37269
4.4163
4.51345
4.17361
4.49536
4.48955
4.20692
4.26438
4.60067
4.05254
4.16636
4.26933
3.92373
4.31524
4.38009
4.66671
4.64106
4.57568
4.89514
4.11045
4.00894
4.44585
4.51093
4.53166
4.31138
4.68432
4.32858
4.63843
3.85263
4.21191
4.44938
4.70946
4.09127
3.84224
4.44509
4.5631
4.41831
4.34054
4.76576
4.30903
4.67103
5.05661
4.57355
4.2302
4.61481
4.11499
4.0605
4.27932
4.22445
4.75373
4.4814
4.83444
4.26081
4.41403
3.86041
4.21566
4.56164
4.05137
4.91641
4.46551
4.82949
4.41909
4.61081
4.09778
4.12694
4.66262
4.56716
4.33717
4.32184
4.49373
4.2453
4.34201
4.63686
4.08463
4.29823
4.36451
4.66419
4.30826
4.5059
4.17389
4.45904
4.9084
4.11009
4.10768
4.31466
4.40052
4.39615
4.58825
4.36995
4.62196
5.03534
4.13489
4.03899
4.8266
4.00556
4.45297
4.25668
4.43624
4.30538
4.18319
4.58611
4.50145
4.31413
5.10029
4.54348
4.01923
4.56397
5.25511
4.3899
4.8455
3.92208
4.36731
4.58172
4.91153
3.86222
3.9902
4.33736
4.35875
4.26319
4.61893
4.09369
3.94394
4.27564
4.4307
4.02262
4.4607
4.52182
4.42906
4.34938
4.12175
4.33478
4.53434
4.56965
4.45762
3.98794
5.08679
4.6163
4.5301
4.17157
4.13999
4.55927
4.23678
4.44347
4.22369
4.49557
4.0625
4.38617
4.0439
4.53089
4.21647
4.36372
4.24565
4.93375
4.24067
4.04817
4.01745
4.54641
4.46164
4.48712
4.56936
4.44247
4.36072
4.33394
4.26883
4.17103
4.43057
4.04732
4.26163
4.45868
4.39674
4.50341
4.81569
4.11301
4.94875
4.55727
4.51915
4.44671
4.83585
4.69399
4.34466
3.99989
4.81355
4.1817
4.36378
4.10591
4.03738
4.56112
4.19194
4.51468
4.12606
4.85844
4.09334
4.26713
4.17447
4.36973
4.27828
4.55912
4.1899
4.23222
4.16929
4.50418
4.4539
4.80169
4.14765
4.24324
4.08701
5.05239
4.17333
4.44773
4.41738
4.11654
4.66223
4.37249
3.76218
4.2018
4.33226
4.83134
5.10483
4.38744
4.15205
4.39375
4.51354
4.23103
4.50784
4.60724
4.3776
4.3173
4.52347
4.15421
4.75376
4.40685
4.1801
3.99317
4.18863
4.13108
4.29749
4.22237
3.86489
4.07436
4.63293
4.44426
4.33498
4.30341
4.55554
4.62048
4.65362
4.25916
3.89965
4.70917
4.22521
4.59982
4.86329
4.19149
4.22095
4.36583
4.63876
4.20126
4.64645
4.16956
4.05061
4.64483
4.07399
4.24784
4.61777
4.07919
4.10037
4.05795
4.95238
4.3113
4.28097
3.94629
4.4392
4.75654
4.2036
4.37384
4.39047
4.19925
4.02839
4.36048
3.82809
3.97123
4.04334
3.78749
4.2991
4.65799
4.48343
4.28924
4.0387
4.24128
4.13078
4.68297
4.45867
4.89659
4.6026
4.30431
4.51877
4.1014
4.30382
4.07783
4.35923
4.28738
4.4888
5.29607
4.67667
4.08328
4.3349
4.5565
4.36422
4.33222
4.04129
3.98095
3.88302
4.25556
4.27456
4.40441
4.11482
5.09616
4.18756
4.36503
4.23518
4.45665
4.40885
3.9656
4.34297
4.07656
4.50571
4.81628
4.27026
4.07575
4.59127
4.6514
4.46851
4.18163
4.31236
4.63225
4.13456
4.40284
4.03456
4.35328
4.31188
4.26177
4.4983
4.24601
4.3889
4.58136
4.38969
5.04469
4.36327
4.07514
4.1161
4.57728
4.05825
4.27558
4.24797
4.55341
4.61997
4.50245
4.58628
4.09935
4.55446
4.71061
4.48284
4.04956
3.89372
4.93519
4.42787
4.13366
4.46928
4.16195
4.78343
4.25775
4.02634
4.42096
4.51194
4.37826
4.22069
4.54385
4.41203
4.0704
4.44362
4.58145
4.21354
4.19402
4.32703
4.08114
4.3983
4.43232
4.27085
3.99701
4.43734
4.12902
4.34215
4.51575
4.10824
4.21883
4.66194
4.41021
4.48102
4.349
4.41365
3.95344
4.28472
4.07363
4.32055
4.13401
4.04696
4.40339
4.38995
4.44447
4.15743
4.21918
4.58533
4.2609
4.66729
4.29892
4.23
4.68049
4.75406
4.20357
4.69144
4.122
4.42129
4.21958
4.11162
4.03465
4.20048
4.43246
4.66372
4.43156
4.29402
4.76677
4.15355
4.37613
4.6194
4.68774
4.65315
4.51041
4.49818
3.96857
4.62523
4.32781
4.4619
4.30616
4.29163
3.92219
4.41822
4.33456
4.41483
4.31673
4.47413
4.38061
4.04082
4.46423
3.87743
4.37807
4.38292
4.23182
4.80827
4.66748
4.3547
4.19535
4.23155
4.27448
4.6786
4.39418
3.86412
4.12579
4.35362
4.81761
4.55874
4.2288
4.07929
4.22126
4.31926
4.35979
4.17932
4.52758
4.11815
4.99391
4.00768
5.34041
4.52934
4.17326
4.08961
4.0412
4.92187
4.34979
4.20283
4.26708
4.95911
4.26858
4.27857
4.60635
4.18757
4.45712
3.90159
4.0895
4.81273
3.74977
4.44671
4.09419
4.39893
4.67715
4.78099
4.10249
4.09749
4.92341
4.41701
4.5308
4.5092
4.43651
4.34952
4.61782
4.68151
4.18941
4.18709
4.30988
4.15613
4.05857
4.43522
4.30159
4.34245
4.48164
5.202
4.6291
4.50285
4.61699
4.34063
4.99413
4.02466
4.4257
4.26908
3.99285
4.48086
4.13097
4.19149
4.38969
4.64233
4.51679
4.30799
4.35919
4.94419
4.46752
4.77379
4.93671
4.58676
4.85558
4.68166
4.57188
4.83471
4.69865
4.0697
4.50033
3.80853
4.44548
4.26076
4.78455
4.76274
4.31544
4.84757
4.07404
4.23429
4.35728
3.91346
4.46365
4.14269
4.43457
4.04247
4.5022
4.05303
4.21317
4.42929
4.29655
4.76129
4.35239
4.49679
4.6089
4.15077
4.69121
4.29221
4.36226
4.35314
4.1492
4.24031
4.11627
4.31348
4.10251
4.04407
4.5675
4.19514
4.64476
4.11852
4.10001
4.72201
4.18856
4.29033
4.47092
4.35863
4.26131
4.17811
4.0025
4.38431
4.44225
4.87592
4.22425
4.3602
4.50663
4.00646
4.9547
4.49456
4.36411
4.37712
5.09514
4.59673
4.5058
4.63592
4.22742
4.23959
4.42404
4.31715
4.0783
4.07609
4.68317
4.88256
4.79175
3.68813
4.22267
4.13634
4.2729
4.27131
4.54283
4.25258
4.55631
4.17703
4.12234
4.46553
4.6883
4.4122
4.47925
4.29675
4.13319
4.49258
4.71796
4.57867
4.43982
3.94472
4.30212
4.39194
4.62592
4.37313
4.40522
4.31046
4.20082
4.53606
4.16339
4.2851
4.22011
4.23101
4.3818
5.05954
4.03081
4.0226
3.96911
4.20709
4.07356
4.27691
4.42413
4.2958
4.50435
4.35054
3.93276
4.49232
4.03293
3.88057
4.61629
4.61896
4.42094
4.00785
4.28068
4.66114
4.44698
4.53845
4.2602
4.83332
3.94667
4.58636
4.83693
5.18484
4.27696
4.03875
4.48671
5.12402
4.54597
4.47171
4.24618
4.68112
4.31261
4.24267
4.16131
3.93453
4.38729
4.77063
4.49222
4.19689
4.42728
4.22331
4.09616
4.27873
4.40123
4.09732
4.6815
4.08767
4.38603
4.03058
4.64179
3.75756
4.42868
4.54245
4.13086
4.61753
4.14724
4.67814
4.65233
3.95322
4.63227
4.36248
4.41284
4.36911
3.93156
4.78718
4.08784
4.28637
4.65179
4.92246
4.8511
4.27646
4.03964
4.37902
4.46031
4.56284
4.299
4.32409
4.50273
4.40787
4.42295
4.64503
4.60733
4.31858
4.35928
3.92395
4.26907
4.4703
4.9814
4.43764
4.43417
4.9113
4.46027
4.46139
4.30513
4.22646
4.18411
3.98199
4.43731
4.02964
4.61152
4.19578
4.27385
5.15905
4.03842
4.26119
4.31803
3.97239
4.81666
4.36041
4.52797
4.14532
4.57201
4.50351
4.06966
4.6644
4.1805
4.91125
4.5564
4.13669
4.83106
4.15844
4.11506
4.44757
4.83096
4.99958
4.29218
4.49902
4.59556
4.44591
4.64486
4.62721
4.67326
4.48021
4.14626
4.50933
4.82359
4.0235
3.96531
4.38881
4.46246
4.44243
4.48515
4.45267
4.01442
4.11344
4.30618
4.22746
3.91823
4.27715
4.96464
4.0547
4.61773
4.16408
3.95347
4.39292
4.721
4.63942
4.12628
4.15909
4.41314
4.44246
4.57692
3.95791
4.71685
4.13589
4.52624
4.30399
4.3481
4.225
4.5439
3.85205
4.2878
4.16139
4.53241
4.85282
4.38918
4.67477
5.03172
4.4276
4.61296
4.70279
4.34909
5.17261
4.44114
4.21763
4.17447
3.98951
4.46259
4.71404
4.51449
4.6558
4.70917
4.66972
4.24348
3.96044
4.37695
5.14409
4.83798
4.35029
4.52471
4.74946
4.14003
4.50218
4.50732
4.39582
4.08628
4.15949
3.86888
4.92057
4.22387
4.38796
4.14401
4.40817
4.43216
4.61539
3.78276
4.51372
3.81435
4.28902
4.5628
4.54252
4.34119
4.15488
4.47248
4.21177
4.59346
4.30847
4.69185
4.11735
4.54257
4.4264
4.3256
3.96023
4.27163
4.08292
4.0129
4.50663
4.30114
4.76579
4.04639
4.23881
4.28306
4.31837
4.24923
4.14569
4.19955
4.3729
3.91427
4.3464
4.6714
4.11639
4.39996
4.24161
4.31363
3.92769
4.28377
4.12674
4.37887
4.4269
4.12505
4.43986
4.48802
4.26275
4.24068
4.18404
4.46448
4.57452
4.52403
4.08028
4.35671
4.56171
4.44711
5.39407
4.55166
4.46578
4.1998
4.73954
4.03704
4.3117
4.46559
4.36282
4.24077
4.06554
4.40719
4.60987
5.03116
5.09905
4.72449
4.95419
4.68229
4.35091
4.54378
4.15749
4.46354
4.80718
4.02432
4.5787
4.68197
4.33396
4.61921
4.58374
4.23089
4.68006
4.9315
4.16809
4.21105
5.00213
4.27522
4.15767
4.38273
5.48482
4.36185
4.55076
4.18863
4.29583
4.54765
5.29337
4.75411
4.51034
4.37907
4.10242
4.56738
4.52612
4.44001
4.19782
4.34682
4.60841
4.35956
5.0552
4.13799
4.53381
4.3193
3.84812
4.37268
4.69902
4.21537
3.71875
4.20685
4.28477
4.071
4.10731
4.3964
3.96198
3.93064
4.01425
4.18383
4.72522
4.365
4.36322
4.39005
4.45527
4.79674
4.33073
4.32761
4.17752
4.44526
4.39242
4.24528
4.50918
4.84711
4.41523
4.23907
4.46407
4.19011
4.29127
3.93553
4.75127
4.72175
4.44235
4.23482
4.66615
4.27145
4.39445
4.39285
4.10587
4.25777
4.66604
4.23016
4.47058
4.19528
4.76408
4.79269
4.29716
4.35405
4.52554
4.29983
4.65574
4.314
4.52721
4.42032
4.13654
4.2451
4.33271
4.54144
4.39042
4.00831
4.36811
4.02524
4.19369
4.09433
4.10255
4.03098
4.23308
4.27246
4.60705
4.57007
4.22035
4.31649
3.90994
5.42539
4.32314
4.45533
4.29706
4.61264
4.28872
4.19009
4.5702
4.15537
4.13799
4.53636
4.29298
3.9351
4.52351
4.10492
4.61676
4.91251
4.24014
4.44766
4.12344
3.9955
4.32227
4.18839
4.31701
4.04835
4.31585
4.43946
4.32557
4.72228
3.91334
4.25894
4.92147
4.19225
4.4064
4.30781
4.57445
4.08016
3.91005
4.82668
4.16187
4.06166
4.15764
4.33666
4.14076
4.23979
4.17523
4.30479
4.15575
4.46336
4.45702
4.18801
4.56662
4.3197
4.79475
4.13097
4.76523
4.26118
4.86445
3.98224
4.47613
4.09701
4.5718
4.32173
4.78281
4.46491
4.7989
4.35447
4.7525
4.03792
4.23695
5.18846
4.86529
4.20959
4.77232
4.13326
4.03951
4.36913
4.93289
4.17015
4.47304
4.15939
4.51375
3.78852
4.29513
4.8483
4.5555
4.2451
4.20903
4.54475
4.08559
4.27411
4.3407
4.1507
4.57689
4.3921
4.18757
4.59305
4.63428
4.27991
4.04218
4.30633
4.45101
4.09553
4.36799
4.2947
4.37109
3.93258
4.24853
4.39307
4.30514
4.23277
4.74734
4.30709
4.66649
4.57811
4.13525
4.49846
4.31958
4.09795
4.5183
4.27338
4.85298
4.70313
4.61065
4.14208
4.43219
4.12973
4.47871
4.46434
4.15049
4.27547
4.31521
4.11478
4.28347
4.18465
4.75769
4.55344
4.27998
4.78602
3.87678
4.24048
4.22584
4.21229
4.7647
4.49155
4.25871
4.10678
4.23824
4.31223
4.27147
4.09203
4.47422
4.28505
4.9496
4.39239
4.20195
4.8224
4.28797
4.38264
4.3347
4.32924
4.38413
4.20984
4.16525
4.36261
4.23504
3.92728
4.87116
4.94157
4.55199
4.29184
4.81129
4.37789
4.19046
3.99238
4.21545
4.10202
4.08317
4.48107
4.30319
4.30745
4.54766
4.38278
4.70761
4.27977
4.80614
4.17446
4.1752
4.31086
4.02819
5.11245
4.19584
4.59049
4.08375
4.72433
3.77165
4.56066
4.28626
4.42515
4.71296
4.39606
4.11543
4.23427
4.06068
4.23366
4.39819
4.34048
3.79095
4.54659
4.36551
4.40412
4.55205
4.48516
4.30006
4.28034
4.40554
4.13544
4.53599
4.6041
4.28106
4.3449
4.1307
4.24352
4.34877
4.76171
4.21278
4.51107
4.02034
4.5609
4.091
4.64923
4.97664
4.66683
3.90339
3.94791
4.55741
4.21349
4.43034
4.47079
4.25207
3.92675
4.45897
4.29773
4.21513
4.30265
4.72458
4.25175
4.29268
4.44635
4.14627
4.36691
4.1126
4.41119
4.29976
4.21017
4.32126
4.04257
4.34216
4.05905
3.93033
4.52931
4.14131
4.48305
5.10614
4.74333
4.29019
4.21372
4.1479
4.36071
4.3726
4.61706
4.63735
4.32677
4.32697
4.54889
4.57905
4.44425
4.88481
4.06097
4.59141
4.4203
4.38152
4.12231
4.19364
4.06334
3.99462
4.50608
4.43929
4.58465
4.53022
4.28226
5.03107
4.6179
4.14984
4.25267
3.89027
4.27328
4.20923
4.19847
4.41931
3.84768
4.24894
4.79641
3.99007
4.29276
4.03309
4.41332
4.60114
4.37695
4.71292
4.87623
4.72347
4.43716
4.32502
3.86125
4.14017
3.89804
4.71899
4.14734
4.98161
4.40809
4.1828
4.13417
3.93555
4.23471
4.59604
4.64246
4.2021
4.51111
4.23729
4.50227
4.39873
4.28344
4.60322
4.03879
4.77785
4.60475
4.27192
4.10637
4.61781
4.24089
4.36675
4.29219
4.48361
4.3113
4.61093
4.27617
3.97148
4.63849
4.2961
4.85586
4.42126
4.38755
4.45279
4.44296
4.51892
4.70064
4.55678
4.24694
4.56612
3.77105
4.47356
4.68033
4.43294
4.56789
4.36727
4.3266
4.19547
4.0107
4.31416
4.54415
4.74005
4.6426
4.1377
4.39043
4.464
4.04471
4.10863
4.68799
4.44549
4.46111
4.2812
4.28887
4.49971
4.33543
4.0216
4.29183
4.54811
4.29528
4.65443
4.91748
5.07419
3.96708
4.27311
4.53306
4.54622
4.49533
4.43739
4.27378
4.03945
4.35238
4.52035
4.19206
4.51438
4.41999
4.58287
4.4869
4.69861
4.36063
4.7725
4.42138
4.55376
4.20931
4.11461
4.07363
4.79411
4.82567
4.12002
4.53839
4.58897
4.44819
4.24579
4.52888
4.87009
4.34643
4.01707
4.08207
4.7163
4.47148
4.3273
4.1813
4.36623
4.5654
4.43147
4.4413
4.54476
4.23901
4.25376
4.78607
4.13792
4.19006
4.82077
4.44746
4.71747
3.96935
4.45059
4.58428
3.9517
4.48413
4.78969
4.42604
4.56608
4.53801
4.23348
4.26085
4.90216
4.54814
4.98326
4.23751
3.99755
4.96115
4.37144
4.88189
4.47669
4.38897
4.43639
3.99255
4.61236
4.42529
4.70347
4.43509
4.61719
4.12522
4.69692
4.18796
4.15741
4.4131
4.38768
4.54133
5.08413
4.50345
4.35956
3.93111
4.20003
4.46831
4.4001
4.11922
4.5194
4.20713
4.51493
3.97839
4.50919
4.28354
4.89035
4.21949
4.30203
4.04119
4.29655
4.05658
4.06779
4.82949
4.29235
4.31321
4.77755
4.4229
4.5104
4.2847
4.46011
4.16683
4.0898
4.47831
4.37342
4.01157
4.26253
4.75151
4.65367
3.85195
4.42669
4.32428
4.23481
4.03538
4.1762
4.34527
4.09561
4.66828
4.05054
4.29569
3.97542
4.22323
4.14778
4.20876
4.58743
4.60107
4.52074
4.18396
5.06857
4.1991
4.00776
4.20179
3.82352
3.98775
4.30871
4.13962
4.11883
4.98343
4.28402
4.27376
4.06934
4.2561
4.50057
3.8395
4.16387
4.35841
4.45728
4.30174
3.96608
4.34439
3.96361
4.07493
4.3192
4.21412
4.03265
4.46343
4.49413
4.24736
4.43012
3.71179
4.26635
4.21718
4.15427
4.66376
4.40132
4.43513
4.16004
4.50335
4.40149
4.28615
4.62092
4.82588
4.92679
4.40794
4.29566
4.27321
4.39566
4.35034
4.37103
3.78897
4.52624
4.27364
4.96506
4.51329
4.32685
4.19879
4.37484
4.5428
4.38094
4.37784
4.56371
4.98839
4.62038
4.84423
4.44072
4.37679
4.33923
4.41641
4.34346
4.56194
4.17331
4.67666
3.99475
4.2543
4.14273
4.38081
4.66891
4.49547
4.25496
4.20544
4.57905
4.15677
4.0107
5.13742
4.31694
4.2732
4.30547
4.09289
4.15895
4.68275
4.03854
3.83929
4.20967
3.93861
4.10387
4.42477
4.71886
4.60416
4.41227
4.57543
4.92993
4.38587
4.31935
4.43973
4.45525
4.83776
4.05013
4.24929
3.67083
4.12018
4.57405
4.66605
4.28037
4.29995
4.5115
4.47502
3.9538
4.39042
4.29422
4.43426
4.09838
4.77873
4.36583
4.3004
4.2909
4.52818
4.27914
4.62671
4.28871
4.14037
4.54536
4.1738
4.30756
4.38701
4.30043
4.60552
4.82301
4.56456
3.98645
4.32624
4.26705
4.36788
4.71594
4.62348
4.38333
4.36353
4.69511
4.57988
4.58877
4.41803
3.98775
4.49601
4.45858
4.19697
4.28835
4.6265
4.57581
5.35756
3.70737
4.13911
5.00157
4.49798
4.03153
4.50202
4.58644
4.23445
4.57199
4.81636
4.9112
4.35769
4.75664
4.21461
4.71478
3.96827
4.48164
4.20584
4.21154
4.5518
4.30333
4.34922
4.19593
4.2298
4.27409
4.4592
4.52438
4.28959
4.13482
4.3748
4.12165
4.0685
4.5291
4.3873
4.5452
4.16866
4.23707
4.17519
4.17081
4.19033
4.19451
4.51857
4.75084
4.49002
4.17245
4.20781
4.49373
4.37625
4.15639
4.4444
4.20385
4.50862
4.26433
5.11626
4.4693
4.47073
4.8993
4.50379
4.52497
4.47398
4.4766
4.31991
4.60695
4.36239
4.33739
4.59358
4.70202
4.61091
4.47023
4.50554
4.4893
4.77686
4.05273
4.51548
4.38887
4.22345
3.93778
4.16023
4.60566
4.71321
3.87444
4.47889
4.48893
4.80179
4.43234
4.73481
4.54241
4.28595
3.73263
3.93449
4.3106
4.48833
4.05066
4.08883
4.38408
4.03943
4.42004
4.95384
4.06966
4.42241
4.75977
4.20294
4.04549
4.24961
4.14372
4.71275
4.27515
4.81958
4.13215
4.23005
4.51172
4.46959
4.55009
3.99418
4.15231
4.66908
4.17869
4.62775
4.44034
4.17385
4.28561
4.20077
4.18942
4.54543
4.45876
4.47219
4.5288
4.53414
4.1438
4.10056
4.26657
4.64339
4.47863
4.58906
4.40647
4.28748
4.19159
4.27137
4.52065
4.47501
4.43721
4.02369
3.96616
4.13109
4.96106
4.09523
4.6732
4.27424
5.03359
4.43609
4.17179
4.16845
4.76762
4.39451
4.54816
3.857
4.16874
4.26878
4.1405
4.60859
4.36982
4.54042
4.50356
3.96013
4.64635
4.32717
4.28861
4.5898
4.00425
4.64867
4.35748
3.86825
3.81384
4.39545
5.33026
4.18822
4.2905
4.46283
4.63805
4.16042
4.25941
4.42337
4.45705
4.0806
4.1396
4.60463
4.38006
4.52634
4.39578
4.36552
3.88833
4.59434
4.09942
4.39485
4.38418
4.34734
4.56295
4.3401
4.4173
4.22888
4.52094
4.22636
4.17063
4.16411
4.22008
4.5083
4.32887
4.1388
4.29558
4.20679
4.14076
4.20127
4.25743
3.94065
4.53763
4.04771
4.17531
4.70555
3.8464
4.47595
3.74061
4.1135
4.36467
4.37739
4.15717
4.63258
4.5826
4.21499
4.48335
4.30363
4.44367
4.41632
4.02877
4.41037
4.44581
4.20356
4.27399
4.41823
4.49654
4.50722
4.37276
4.3085
4.22514
4.47734
4.62624
3.94319
4.06913
4.45623
4.57317
4.3046
4.92304
4.46565
4.34331
4.59549
4.27123
4.13806
4.01465
4.57997
4.27882
4.22393
4.32068
4.14671
4.77356
4.24623
4.74645
4.74691
4.34084
4.19802
4.31778
4.18191
4.6067
4.27391
4.72411
4.11025
4.24475
3.98646
4.25925
4.28312
4.29192
4.16928
4.70691
4.09888
4.58792
4.50632
4.72973
4.29257
4.63457
4.42432
3.99957
4.47227
4.39335
4.28405
4.19185
4.51983
4.20942
4.55672
4.59671
5.11079
4.60707
4.21286
4.16784
4.26709
4.59786
4.06738
5.03386
4.18273
5.48099
4.06257
4.353
4.4831
4.32021
4.09488
4.36385
4.27994
3.8928
4.43061
4.01973
4.47174
4.55615
4.58571
3.91046
4.98867
4.68781
4.52792
4.34594
4.53008
4.80336
4.4935
4.71177
4.68104
4.70756
4.37872
4.31718
4.0809
4.60692
4.43728
4.24904
3.65693
4.03616
4.26184
4.43196
4.25827
4.33518
4.74288
4.0724
4.85813
4.61614
4.66064
4.41801
4.32688
4.32162
4.25289
4.33963
4.30446
4.28724
4.33439
4.12068
4.00757
4.4142
4.39743
4.36392
4.66297
4.11223
4.40225
4.6495
4.93898
4.47603
4.39727
4.34557
4.26255
4.28649
4.63182
4.34872
4.2558
4.69472
4.38789
4.01954
4.03035
4.46292
4.20947
3.89619
4.76089
3.98969
4.30244
4.60603
4.13234
4.30602
4.33358
4.3515
4.28663
4.42806
4.39346
4.08917
4.23789
4.06926
4.41873
4.58474
4.48547
5.09005
4.59075
3.99683
3.92057
4.33521
4.51721
4.00333
4.4469
4.12267
4.29131
4.24625
4.45303
4.53911
4.17863
4.22234
4.60899
3.87503
4.50476
4.75317
4.08423
4.14746
4.23401
4.88983
4.63928
4.06763
4.41656
5.17392
4.75803
4.57864
4.13543
4.49539
4.85203
4.12117
4.42681
4.36604
4.21375
4.48621
4.44024
4.22363
4.6593
4.22243
3.95592
4.0454
4.34996
4.73079
4.32109
3.99775
4.26032
4.39774
4.23982
4.46869
4.12717
4.15016
4.36506
4.59891
4.08839
4.15177
4.10126
4.22251
4.08488
4.31756
4.35951
4.40617
4.67112
4.08318
4.56197
4.51563
4.46551
4.17411
6.26347
4.58135
4.04182
4.30254
4.44912
4.18204
4.69975
4.87821
4.34715
4.47856
4.25602
4.35449
4.45786
4.69602
4.25432
4.4511
3.92512
5.30898
3.99817
4.384
4.66538
4.54334
4.30084
4.35433
4.03158
4.58969
4.01107
4.47061
4.73287
4.21286
4.05136
4.2648
4.00504
4.16763
4.06206
4.31771
4.25123
4.70065
4.41515
4.25833
3.97508
4.08776
4.30342
4.33418
4.25805
4.04404
4.58951
4.3736
4.26295
4.14327
4.13739
4.38013
4.65824
3.7097
4.11848
4.61291
4.24127
4.60052
4.22669
4.31559
4.24446
4.29255
4.10031
4.23203
4.63013
4.40683
4.06922
4.74609
4.46017
4.69321
4.53576
4.09361
4.01845
4.04829
4.52204
4.21788
4.66734
3.99453
4.72021
4.66594
4.64827
4.58976
4.2326
4.52206
3.96916
4.04461
3.92942
4.81916
4.13741
4.31796
4.50422
4.62361
4.15019
4.45022
4.60466
4.08523
4.55994
4.60973
3.99329
4.59559
4.21307
4.4578
4.15913
4.44252
4.11277
4.59106
4.77145
4.07345
4.51857
4.15373
5.50352
4.20136
4.55722
4.10401
4.30209
4.87529
4.25635
4.47827
4.01759
4.33752
4.13698
4.29644
4.40929
4.31827
4.41765
4.20407
4.08573
4.2109
4.9861
4.78988
3.92822
4.37927
4.78079
4.38093
5.05843
4.62707
4.05439
4.02901
4.50627
4.04171
4.5059
4.68748
4.35541
4.25179
4.83041
4.19983
4.13172
4.50494
4.36038
4.5162
3.9822
4.42588
4.56738
4.24312
4.38154
4.46747
4.81538
4.27269
4.36159
4.10903
4.02138
4.55913
4.2857
4.63894
4.23611
4.03058
4.11772
4.43723
4.10495
4.4877
4.14423
4.11559
4.11045
4.05358
4.13442
4.63652
4.26553
4.91934
4.26412
4.41027
4.29077
4.31565
4.01959
4.06726
4.08365
5.1441
4.37548
4.22149
4.40118
4.31859
4.41695
4.57055
4.09409
4.39351
4.501
4.27676
4.48567
4.68155
4.46345
4.28403
5.16337
4.36843
4.26235
4.29173
4.50418
4.43159
4.36756
4.20811
4.07924
4.05059
4.83632
4.54827
4.45239
4.44722
4.09441
4.43499
4.63939
4.20491
4.3395
4.74086
4.43887
4.28772
4.26866
4.4815
3.8699
4.16126
4.46248
4.1611
3.97094
4.38752
4.30017
4.72801
3.97505
4.7598
4.35308
4.14236
4.22917
4.33252
4.14257
4.24832
4.59559
4.13755
4.13844
4.04926
4.0766
4.14761
4.72332
4.12808
4.45914
4.68908
4.75313
4.78071
4.00414
4.18215
4.55808
4.68169
4.44983
4.5884
4.5388
4.39862
4.44958
4.50306
4.76043
4.50757
3.92035
4.41646
4.64372
4.3946
4.21878
4.15297
4.11258
4.2566
4.03114
4.44727
4.20891
4.2222
4.81367
4.43592
4.1235
4.5705
4.01506
4.33513
4.74532
4.02115
4.96042
4.42983
4.36728
4.51736
4.44298
4.05896
4.41588
4.19628
4.84278
5.00386
4.23703
4.17402
4.2549
4.38221
4.38019
4.8549
4.11475
4.73035
4.10966
4.21824
4.32525
4.64142
4.55582
4.47821
4.22816
4.58758
4.98823
3.95977
4.36295
4.088
4.28178
4.37316
4.69
4.82774
4.48416
4.32625
4.56441
4.47366
4.44848
4.55142
4.88613
4.68892
4.56249
4.17636
4.43378
4.18614
4.32606
3.86132
4.00402
4.61062
4.54001
4.3721
4.06498
4.89952
4.5099
4.18817
4.10445
4.41129
4.45209
4.06407
4.4729
4.06188
4.54842
4.65149
5.08832
4.3728
4.03918
4.40096
4.07791
4.05571
5.41821
4.36554
4.18388
4.0535
4.30461
3.99087
4.57483
4.20206
4.37031
4.20078
4.4671
4.09959
4.48723
4.47661
4.67233
4.42111
4.37657
4.07446
4.60099
4.33298
4.98603
4.27562
4.21453
4.53066
4.10729
4.19892
4.93297
4.38701
5.319
4.22279
4.75869
4.41951
4.45638
4.38467
4.40062
4.36775
4.00463
3.99003
4.22504
4.20695
4.43572
4.54021
4.39305
4.59198
4.56069
4.73676
4.46168
4.19389
4.48024
4.49102
4.62925
4.65867
4.31431
4.28234
4.43032
4.21197
4.55821
4.70474
4.00314
4.03253
4.54929
4.41393
3.87625
4.52982
4.71537
4.48403
4.85929
4.48885
4.12518
4.63953
4.23832
4.69805
4.06691
4.20525
3.98148
4.16723
4.53556
4.2353
3.883
4.18214
4.36182
4.61986
4.54383
4.30415
4.34839
4.1904
4.11664
4.49209
4.23084
3.84339
4.44221
4.28888
4.22519
4.49363
5.00879
4.62369
4.78472
4.22949
4.42592
4.52513
4.39219
4.30754
3.99715
4.23847
4.19611
3.96397
4.36276
4.54262
4.21655
4.72113
5.36985
4.63324
3.88809
4.55001
4.08828
4.53643
4.76718
4.16721
4.38057
4.03263
4.40779
4.60565
4.54549
4.27911
4.67846
4.51031
3.97818
4.17697
4.27793
4.80495
4.69919
4.58936
4.72319
4.17983
4.54131
4.07529
4.93649
4.71771
4.37984
4.63877
4.25959
4.1492
4.002
4.3185
4.0866
4.38487
4.31458
4.55027
4.15015
4.29763
4.1513
4.20804
4.37161
4.26012
4.48164
4.36201
4.16216
4.4523
4.19195
4.37519
4.37981
4.1891
4.47295
4.5898
4.80123
4.30653
4.76218
4.78116
4.81191
4.13113
4.21213
4.50852
3.88746
4.21297
4.87362
4.11439
4.23836
4.29131
4.39324
5.18249
3.92494
4.21248
4.56904
4.76643
4.19742
3.91331
4.1784
4.86697
4.44276
4.77632
4.78873
4.40518
4.17469
4.72965
4.61006
4.22765
4.18924
4.50811
4.22181
4.4387
4.34515
4.20261
4.54896
3.96504
4.33978
4.22067
4.36962
4.56718
4.11131
4.40527
4.45047
4.0782
4.06136
4.49929
4.20646
4.53015
4.33514
4.41044
4.28404
3.95151
4.33568
4.66801
4.69181
4.39531
4.16726
4.20709
4.31727
4.05362
4.47183
4.86096
4.26977
4.46933
4.29197
4.10158
4.52748
4.74952
4.56905
4.59976
4.04334
4.61546
4.28301
4.25228
3.95463
3.91037
4.52771
4.55953
4.32174
4.7156
4.27427
4.43811
4.07591
4.14457
4.46482
4.37862
4.21867
3.86595
4.113
4.76968
4.40055
4.24518
4.39508
4.73883
4.36033
4.39645
3.95596
4.60139
4.61941
4.20351
3.98192
4.97221
4.24357
4.64893
4.64645
4.13522
4.10517
4.53474
4.38354
4.12673
3.91475
4.11627
4.5078
4.24879
4.7661
4.74503
4.32218
4.67897
4.60322
4.43552
4.47905
4.29895
4.61487
4.27729
4.33127
4.30421
4.25053
4.15207
4.10966
4.37542
4.30028
4.6806
4.32233
3.97871
3.9381
4.26241
4.84581
4.57407
4.15655
4.28937
3.92351
4.44299
4.6046
4.14676
4.62281
4.64186
4.19002
4.49395
4.21054
4.03473
4.37188
4.39109
4.24472
4.40319
3.93824
4.67951
4.54595
4.25074
5.09848
4.20914
4.52983
4.07742
4.09204
3.95449
4.48506
4.27319
4.06649
4.21798
4.94946
4.1687
4.40613
4.33424
4.54303
4.97244
4.30042
3.72566
4.58005
4.02302
4.98247
4.25611
4.52221
4.10546
4.34149
4.21628
4.56797
4.44469
4.53905
4.29453
4.3348
5.04272
4.08059
4.90237
4.4182
4.29796
4.23618
4.12623
5.43638
4.30939
4.64211
4.27306
4.31027
4.74324
4.3319
4.45489
4.10642
4.33062
5.15711
4.27163
4.5673
4.04476
4.53232
4.33152
4.78511
4.38826
4.2225
4.33358
4.31272
4.24148
4.35909
3.83607
3.89202
4.29127
4.60095
4.11813
4.82266
4.19966
4.9909
4.34103
3.80821
4.35195
4.36915
4.196
4.29242
4.60132
4.1929
4.48732
4.27153
4.53916
4.88675
4.20438
4.61121
4.5871
4.40751
4.18694
4.25546
4.90463
4.11531
4.44624
4.28083
4.14013
4.26195
4.30923
4.48949
4.18557
4.19359
4.26953
4.55812
4.41354
4.66719
4.2021
4.27458
4.18792
4.8384
4.25326
4.44308
4.72724
4.35581
4.17504
4.38685
4.38438
4.78104
4.27135
4.1111
4.46512
4.26475
4.45029
4.13342
4.52892
4.41205
4.15707
4.41262
4.63318
4.87133
4.10689
4.36102
4.39036
4.06828
4.53526
4.86087
4.07236
4.48507
4.63754
4.85964
4.32229
4.58617
4.40125
4.48736
4.72042
4.44374
4.47567
4.39078
4.22714
4.09498
4.59878
4.72314
4.0838
4.68863
4.64248
4.40836
4.67662
4.33467
4.07625
4.69355
4.68578
4.30736
4.22991
4.31974
4.94756
4.50111
4.43129
4.40684
4.28708
4.42942
4.17716
4.07419
4.44638
3.93282
4.1011
4.15815
4.75053
4.46827
5.08133
4.91658
4.5934
4.04789
4.52251
4.35259
4.14275
4.28351
4.72698
4.23192
4.64402
4.65041
4.08474
4.27997
4.26844
4.50279
4.51028
4.25905
4.38434
4.60374
4.88828
4.25075
4.49669
4.49964
4.51148
4.72882
4.05487
4.57792
4.44883
3.99765
4.00911
4.05748
4.56463
4.05766
4.19489
3.914
4.48027
4.59028
4.52704
4.41433
4.34371
4.45163
4.00721
4.10179
4.27203
4.06495
4.44077
4.66086
4.42963
4.57484
4.51042
4.58422
4.60173
4.1899
4.58939
4.38443
4.54685
4.41398
4.4542
3.91097
4.30432
4.34451
4.23171
4.16487
4.51305
4.42487
4.14176
4.94008
4.32301
4.10356
4.31207
4.78263
5.31123
4.63121
4.4666
4.35434
4.02524
4.41126
4.44605
4.18581
4.6948
4.43108
4.15318
4.70198
4.0358
4.6884
4.43009
4.23667
4.38945
4.1822
4.36156
4.08234
4.16009
4.37938
4.35237
4.35352
4.56377
4.48109
4.33307
4.62415
4.61937
4.53054
4.67719
4.28468
4.13635
4.33013
4.57986
4.25897
4.52885
3.96216
4.6771
4.3554
4.11718
4.71864
4.13848
4.15924
4.57365
4.23029
4.07312
4.41492
4.95218
3.90302
4.524
4.51577
3.94383
4.17286
4.38574
4.49134
4.38097
4.36592
4.85659
3.86338
4.25976
4.74913
3.95811
4.49434
4.25511
4.39518
4.35817
4.16803
4.4039
4.52565
4.22764
3.96922
4.21133
4.53158
4.21744
4.21239
4.21273
4.59035
4.63607
4.6324
3.99177
4.4652
4.1573
4.11029
4.13526
4.08318
4.6189
3.80055
5.33986
4.58373
4.45538
4.02832
4.34974
4.34943
4.715
4.38505
4.63435
4.66507
4.3491
4.08677
4.34299
4.24677
4.21116
4.149
4.13971
4.76814
4.64464
4.74036
4.26215
4.08151
3.96709
3.83644
4.1173
4.36348
4.38429
4.10551
4.72676
4.42595
4.94947
4.04093
4.16301
4.08622
4.38983
4.38428
4.87924
4.47647
4.89832
4.10014
4.20761
4.7496
4.87774
4.28291
4.22344
4.54292
4.55623
4.16935
4.3205
4.29244
4.7017
4.09802
5.06062
3.76951
4.34347
4.50399
5.06992
3.92539
4.37168
4.18345
4.4935
4.47999
4.56254
4.48353
4.21588
4.55308
4.56674
4.52686
4.39142
4.22936
4.42365
3.82213
4.30375
4.28564
4.01566
4.29986
4.67769
4.19046
4.14397
4.3493
4.83859
4.49838
4.42024
3.99514
4.42356
4.94145
4.37295
4.33357
4.58619
3.95795
4.15787
3.96256
4.34873
4.55879
4.06381
4.03807
4.50925
4.16757
4.15405
4.5113
4.33111
4.31805
4.49708
4.4451
4.67452
4.64843
4.42112
3.99128
3.88254
4.00447
4.38667
4.54091
4.15218
4.83183
4.72448
4.11143
4.22648
4.26701
4.25343
4.381
4.28851
4.56512
4.46629
3.89968
3.84523
4.41721
4.62731
4.27588
4.36055
4.12308
4.40085
4.34779
4.59449
4.64371
4.05141
4.30173
4.74229
4.53424
4.17328
4.22812
4.49312
4.29155
4.53833
4.05241
4.51363
4.26769
4.41094
3.88182
4.33237
4.52135
4.38434
4.59457
4.3834
4.31258
4.41256
4.65617
4.44292
4.59541
5.06457
4.05537
4.30551
4.29869
4.28181
4.49455
4.72285
4.27398
4.35813
4.06
4.3237
4.09196
4.59523
4.42333
4.31977
4.24007
4.92385
4.24726
4.3303
4.24978
4.35519
4.24017
4.36392
4.11661
4.50897
4.23977
4.45439
4.73208
4.82698
4.77155
4.43243
4.25927
4.43492
4.48491
4.0463
4.10452
4.32912
3.9705
4.39464
4.15146
4.45216
4.36716
4.44207
4.63487
4.34088
3.99605
4.90137
4.26761
4.11942
4.24689
3.85349
4.81097
4.72019
4.13064
4.14254
4.68826
4.54552
4.85946
4.37203
4.28249
4.18817
4.62446
4.36911
4.64953
4.87297
4.60979
4.0802
4.48107
4.50471
4.17153
4.14161
4.27224
4.40539
4.13832
4.60594
4.34003
5.02525
4.87946
4.43799
4.49895
4.05987
4.9476
4.55715
4.54508
3.95957
4.59087
4.34157
4.69069
3.98167
4.59469
4.14251
4.55179
4.46061
4.36933
4.57004
4.65425
4.62279
4.14565
3.70447
4.39466
4.60682
4.42489
4.48276
4.45633
4.20137
4.59817
4.46367
4.08526
4.00636
4.24102
4.40664
4.13298
4.4831
3.93524
4.19327
5.24004
4.64221
3.99581
4.54289
4.23602
4.13159
4.22372
4.44107
4.35498
4.25671
3.88466
4.61247
4.6849
4.66614
4.64195
4.50406
4.40169
4.28261
4.50732
4.31486
4.09115
4.4955
4.40291
4.50061
4.32591
4.28956
4.16316
4.67599
3.90731
4.60768
4.36619
4.15955
4.50257
4.21548
4.16107
4.54973
4.28284
4.81625
4.69962
4.48415
4.34606
4.66344
3.93919
4.1934
4.0515
3.83719
4.09349
4.47866
4.35793
5.11072
4.49115
4.68398
4.2479
4.24207
4.02152
4.12979
4.3482
4.48076
4.36507
4.52237
4.12711
4.18872
4.41729
4.21872
4.04227
4.11105
4.38745
4.66021
4.5622
4.1491
4.4341
4.1989
4.13007
4.47991
4.06021
4.7507
4.66298
4.73533
4.74861
4.55197
4.41165
4.40691
3.72443
4.48552
4.13565
4.70276
4.70233
4.45581
4.25639
4.3155
4.26333
4.36645
4.24573
4.46137
4.35487
4.3934
4.21022
5.02572
4.17089
4.5858
4.37922
4.7964
4.03383
4.51694
4.33405
4.09806
4.18601
4.4831
3.98014
4.24293
3.92685
4.98865
3.8319
4.48807
4.41529
4.14153
4.90771
4.42787
4.60473
4.20455
4.73059
4.32058
4.43188
4.54349
4.62602
4.20032
4.71207
3.94225
4.77204
4.12582
4.01349
4.49944
4.00725
4.37337
4.20713
4.37804
4.413
4.15049
4.31121
4.33595
3.84481
4.84776
4.37574
4.37037
4.36885
4.31841
4.39675
4.10739
4.06935
4.31093
4.33038
4.25729
4.49867
4.41665
4.30293
4.43752
4.15476
4.16696
4.40213
4.23595
4.36779
4.72657
4.43383
4.8447
4.06502
3.93489
4.51559
4.5758
4.05508
4.46104
4.59926
4.32629
4.07372
5.12372
4.32891
4.20006
4.05553
4.2179
4.14723
4.58605
4.77577
4.16198
4.08152
4.40781
4.51922
4.26778
4.72074
4.49794
4.21681
3.97674
4.21107
4.14243
4.48338
4.2779
4.52515
4.08595
4.33072
4.57338
4.76554
4.18849
4.61695
4.89254
4.28944
4.48594
4.49125
4.20054
4.43359
4.58346
4.18105
5.00407
4.42768
4.24517
3.93482
4.06585
4.05748
3.90535
4.24548
4.70048
4.54917
4.50142
4.25676
4.70004
4.20668
4.14981
4.48921
4.56946
4.55642
4.67147
4.67246
4.16963
4.60285
4.41245
4.33772
4.08735
4.55408
4.25245
4.62945
4.11528
4.69948
4.63464
4.02016
4.37132
4.04148
4.43216
4.18307
4.22624
4.02165
4.36045
4.48765
4.45722
4.12421
4.65408
4.43989
4.10443
4.57249
4.06265
4.62548
4.43599
4.10264
4.72289
4.1485
4.23853
4.11966
4.58633
4.31756
4.19626
4.59091
4.77359
4.33757
4.56286
4.60397
4.07919
4.01241
4.48732
4.10725
4.12314
4.67132
4.4624
4.35933
4.62473
4.52637
3.98633
4.03746
4.64101
3.77322
4.37373
4.81679
4.38066
4.08913
4.93793
4.36519
4.43529
4.35154
4.46376
4.17796
4.33079
4.35823
4.63093
4.25895
4.47385
4.20095
4.175
4.51751
4.20117
4.58747
4.38264
4.48275
4.25815
3.99315
4.11329
5.06675
4.36541
4.20185
4.27594
4.25916
4.28483
4.3126
4.23605
4.70272
4.37232
4.05119
4.51594
4.51829
4.74355
3.95727
4.15899
4.63421
4.18449
4.37782
4.6688
4.2509
4.59798
4.36647
4.24147
4.30899
4.45686
4.4967
4.4418
4.38753
4.15939
4.56645
4.28014
4.45353
4.32201
4.3011
4.39454
4.35604
4.7492
3.99374
4.24342
4.22486
4.35038
4.12595
4.44228
4.11925
4.46013
5.28552
4.20425
4.70249
4.73788
4.62177
4.11205
5.14902
4.01134
3.98599
4.04147
4.71361
4.31063
5.22977
4.2606
4.71652
4.69317
4.40589
5.36613
4.25297
5.13065
4.4439
3.8299
4.49357
4.36946
3.96417
4.29957
4.31505
4.45074
4.54147
4.32015
4.35392
4.38346
4.47125
4.70668
4.35609
4.3664
4.51344
4.2808
4.43576
4.11662
4.09636
4.33061
4.64607
4.32738
4.05692
4.31842
4.09106
4.43436
4.38624
4.46859
4.14882
4.1176
3.85789
4.77851
4.43341
4.37068
4.54638
4.34611
4.2725
4.32778
4.51961
4.36563
4.35368
4.58911
4.7172
4.44644
3.85261
4.28274
4.16926
4.07054
4.42797
4.79804
4.33499
4.60085
4.25694
4.38992
4.26799
4.03848
4.13224
4.12111
4.42584
4.54938
4.03044
4.27747
4.54979
4.60731
4.59988
4.25614
4.30372
4.50866
4.40344
4.17977
4.66898
4.85086
4.06105
3.88955
4.67618
4.19763
4.04577
4.27325
4.50502
4.11441
4.84523
4.28025
3.89485
4.26725
5.04468
4.0442
4.12401
4.32454
4.31263
4.89307
4.40804
4.59977
4.61623
4.53502
4.59528
4.5757
4.14465
4.34779
4.34187
4.35395
4.17066
4.49363
4.51021
4.30625
5.16545
4.02129
4.38993
3.94032
4.22337
3.91981
4.26557
4.55115
5.02962
4.91637
4.11704
5.17833
4.13007
4.59856
4.28962
5.08447
4.49277
4.172
4.4897
4.38002
4.59839
4.38302
4.0313
4.50192
4.38426
4.28672
4.54184
4.01824
4.32116
4.59249
4.38193
4.53439
4.01951
4.4541
4.15045
4.31585
4.37954
4.16813
4.50217
4.46933
4.44137
4.18169
4.26595
4.72611
4.2745
4.42548
4.87592
3.90654
4.21703
4.44852
4.49506
4.20685
5.20437
4.37354
4.6506
4.42337
4.72987
4.1751
4.39933
4.12816
4.64601
4.19219
4.58903
4.13694
4.36839
4.51978
4.62102
4.39457
4.26941
4.31893
4.81124
4.19135
4.36152
4.3346
4.21446
4.07952
4.14446
4.19895
4.38158
4.47905
4.7462
4.12704
4.41776
4.30487
3.97901
4.29139
4.49985
4.62701
4.24888
4.8768
4.84238
4.6001
3.81283
4.81813
4.57059
4.49494
4.89689
4.18296
4.28969
3.9609
4.19524
4.52932
4.47477
4.65502
4.76551
4.20565
4.04681
4.41964
4.86444
4.14868
4.42604
4.22584
4.14968
4.04441
3.9165
4.29333
4.49029
4.17528
4.12151
4.09508
4.53265
4.13885
4.46581
4.08364
4.58858
4.6101
4.53706
4.75998
4.62319
4.1912
4.21723
4.36756
4.50038
4.42502
4.20296
4.67847
4.13308
4.53969
4.86708
4.58288
4.40368
4.147
4.79199
3.94922
4.55366
4.16598
4.58959
4.63838
4.51695
4.32563
4.69024
4.00444
4.53667
4.69071
4.30869
4.19733
4.25195
4.28134
4.10564
4.10724
4.29331
4.554
4.34982
4.15494
4.37084
4.24758
4.17275
4.20195
4.1986
4.22938
4.00199
4.88645
4.44896
4.28366
4.1849
4.07269
4.91617
4.5104
4.5827
4.19933
4.54887
4.4661
4.05431
4.29984
4.31436
4.09567
4.41028
4.16251
4.64727
4.10979
4.16633
4.09548
4.71384
4.67342
4.44367
4.22702
4.41091
4.69138
4.39928
4.29822
4.0686
4.74646
4.09083
4.66402
4.14864
4.40861
4.68025
4.17764
4.20461
4.30226
4.03871
4.34483
4.16254
4.07667
4.41415
4.09339
4.35905
4.49524
4.32296
4.20167
3.78869
4.14751
4.43164
4.32507
4.2499
4.84094
4.19612
4.77728
4.48271
4.30615
4.19554
4.77605
4.2242
4.51937
4.19392
4.33647
4.38937
5.20799
4.15042
4.22693
4.38253
4.23325
4.91458
4.31224
4.26736
4.76322
4.35111
4.50176
3.87001
4.61496
4.43623
4.44377
4.69384
4.36589
3.74802
4.27852
4.92199
4.5592
4.21033
4.51483
4.72713
4.05645
4.22108
4.79205
4.45555
4.17328
4.33642
3.85519
4.67528
4.56246
4.28467
4.11444
4.24464
4.53376
4.76845
4.31012
4.60632
4.77785
4.6055
4.20166
4.38159
4.5466
4.945
4.6411
4.76039
4.10747
4.38849
4.4975
4.61553
4.71494
4.02542
4.34144
4.37295
3.99046
4.56807
4.34263
4.10615
4.43225
4.25759
4.41262
4.78247
3.93475
4.24694
4.5573
4.35156
4.39416
4.13932
4.52214
4.52493
4.14139
4.30586
4.5733
4.66031
4.35489
4.14817
4.12244
4.33284
4.24963
4.34613
4.7254
4.19037
4.29623
4.39825
4.52582
4.36624
4.38111
4.30604
4.30206
4.4031
4.22547
4.15486
4.24051
4.58618
4.15878
4.71137
4.25866
4.52356
4.34464
4.20236
4.15745
4.65274
4.91807
4.63961
4.42376
4.48575
4.23257
4.39341
5.11129
4.367
4.26689
4.48285
4.49368
4.38969
4.20159
4.12324
4.25234
4.24605
4.25841
4.24818
4.00813
4.16295
4.33145
4.35297
4.55078
4.61195
4.22637
3.93746
4.04935
3.99649
3.87019
4.12146
4.12988
4.70264
4.17749
4.49451
4.92104
4.11712
4.34223
4.45507
4.24705
3.9422
4.65222
4.54206
4.27437
4.37305
4.16213
4.27336
4.30643
4.4827
4.17848
4.56917
4.69818
4.15578
3.94164
4.29249
4.38924
4.34411
4.08209
4.69748
4.73616
4.06449
4.5274
4.24586
4.20883
4.48878
4.70115
4.32276
4.04857
4.69371
4.1788
4.52979
3.83429
4.36994
4.51602
4.54513
4.67813
4.34527
4.4019
3.94099
4.23561
3.81467
4.61091
4.52917
4.69001
4.39381
4.16784
4.13642
4.50069
3.91793
4.24147
4.59834
4.43366
4.84892
4.73109
4.34931
4.6215
4.37563
4.10325
4.04788
4.75906
4.10197
4.84283
4.77452
4.26769
3.93607
4.53014
4.06474
4.69126
4.23571
4.32523
4.34446
4.3981
4.45067
4.44891
4.12444
4.7195
4.08928
4.5581
4.48117
4.63507
4.73115
4.65424
3.7695
4.28491
4.44737
4.36808
3.98948
5.05721
4.36004
4.44433
4.71367
4.04756
4.02111
4.37424
4.45895
4.53277
4.05531
4.39209
4.29086
4.28553
4.82957
4.07512
4.14719
4.67474
4.42269
4.14312
4.13348
4.27147
4.5473
4.41256
4.17281
4.56893
4.44413
4.7849
4.2043
4.41718
4.3326
4.35606
4.13332
4.49142
4.70238
4.36059
4.16125
4.70907
4.45247
4.38528
4.1177
4.15827
4.38135
4.08772
4.18208
4.46582
4.80603
4.30336
4.44002
4.53673
4.8064
4.06117
4.28595
4.2723
4.4346
4.33736
4.70765
4.39515
4.07861
4.14527
4.42374
4.25505
4.07511
4.44202
4.53715
4.20607
4.44081
4.06531
3.9882
4.34276
