6.36106
6.10288
5.97862
6.45717
6.64047
6.05532
7.30361
6.74142
6.46118
6.18044
6.00653
6.5067
6.19353
6.15128
6.04618
6.51356
6.11293
6.36766
5.64528
6.11435
6.69878
6.6032
6.20504
5.96114
6.71977
6.19802
6.12963
6.16647
6.3547
6.5063
6.33444
5.85299
6.7937
6.41684
6.18449
6.42736
6.14575
6.19566
6.73816
6.88917
5.95488
5.80111
5.73928
6.5819
6.50354
6.09881
5.88098
6.78025
6.58265
6.49925
6.51711
6.20496
6.47308
6.02644
5.98082
5.81311
6.19527
6.22128
5.99875
6.32547
6.06101
6.11523
6.39325
5.95562
5.67527
5.77397
5.95562
6.12376
6.05008
6.18323
6.10024
6.44592
6.76681
6.25934
6.38582
5.99434
5.73546
6.05431
6.47637
6.29895
6.417
5.65712
5.91588
6.10304
5.86133
5.84807
6.25968
6.12927
5.79712
6.04104
6.6443
6.54015
6.48878
5.72747
6.1774
5.78733
6.53119
6.22344
6.03499
6.69577
5.86116
6.45679
6.53312
6.3285
5.89582
6.50628
6.13529
6.09639
6.34484
6.14955
6.37131
6.37287
6.02148
6.28013
6.11921
5.91532
6.32774
6.54199
5.84143
6.09479
6.45574
6.65176
6.26999
6.32879
6.25757
6.26753
6.06454
6.55849
6.34019
5.73974
6.52261
6.14242
6.35133
6.01667
6.2995
6.83683
6.18663
6.27068
6.36985
6.40503
5.97245
6.29465
6.62446
5.94219
5.90696
6.01621
6.33709
6.40446
6.96312
6.32923
6.06597
6.29577
6.16889
6.2636
5.80077
6.36591
5.89093
6.03047
6.42279
6.22932
6.13344
6.41681
7.46033
6.16072
6.12513
6.00972
6.41261
6.20848
6.27012
5.97056
6.48944
6.03891
5.81202
6.45882
5.85203
6.07583
6.3311
6.73244
5.91782
6.50036
6.15879
6.3643
6.38405
6.09751
6.51951
5.573
6.43754
6.40505
6.25931
6.24123
5.8203
6.63018
6.61065
6.19361
6.11766
5.83937
6.34506
6.27766
6.08701
6.00194
6.45496
6.06555
6.39147
6.38462
6.40144
6.74811
6.20813
6.84154
6.64205
5.9963
5.82114
6.79938
5.86151
5.89514
6.55329
6.46757
6.24843
6.44954
5.83218
5.77649
6.36516
6.98574
5.64458
6.46142
5.99251
6.43218
6.22789
6.03682
5.85295
6.77945
6.74242
5.94312
6.45365
6.78175
6.8873
6.39776
6.14613
6.14054
6.86384
6.29614
6.40472
6.18309
6.57642
6.21895
5.92201
5.93779
6.56048
6.03682
6.15337
6.28976
6.05178
5.90602
6.09019
6.40895
5.88346
6.70237
6.55175
6.43871
5.99405
6.17591
6.34369
6.25595
6.08968
6.26156
6.35858
6.35606
6.67363
6.81651
6.14549
6.66629
5.87965
6.02468
6.2665
5.83809
5.71318
6.66824
6.14023
6.4893
6.10013
6.75904
6.51825
5.57605
5.90455
6.18658
6.44434
6.59337
6.55075
6.53702
6.65768
6.4228
5.9646
6.37809
5.74675
6.17791
6.44862
6.59202
6.52873
6.20001
6.24735
6.21829
6.40911
6.46888
6.24681
6.3785
7.2702
6.5698
6.25452
6.83231
6.0896
6.29781
6.43286
6.22736
5.84873
7.22687
6.67182
6.1619
6.73223
6.22267
6.05143
6.26517
5.77369
6.21248
5.87522
5.91831
6.04227
6.49832
6.55916
6.10844
6.55358
6.37037
6.34823
6.24661
6.43602
5.93324
6.22493
6.00989
5.94251
6.64386
6.25349
5.98175
6.39706
6.44454
5.87181
6.05403
5.92768
6.40622
6.56808
6.76354
6.26775
6.15697
6.03005
6.35595
6.53874
6.06475
5.932
6.34398
6.12635
6.05735
5.93605
6.60877
5.93299
6.22347
6.28041
6.66267
5.77525
6.51053
6.00549
6.33627
6.27114
6.29286
6.56792
6.93466
5.99448
6.34206
6.47752
6.10848
6.46487
6.14138
6.16999
6.17077
6.48442
6.92432
6.94324
6.37972
6.11822
6.25829
6.11953
6.1089
6.53317
5.91161
6.47757
5.47644
6.06203
6.14961
6.20299
6.1473
6.23947
6.4929
6.23954
6.22932
6.56066
5.80203
6.37657
6.29507
5.78395
6.1614
6.46287
5.92401
6.35292
6.27028
6.62842
6.18175
6.23854
5.99321
5.98988
5.84451
6.14135
6.45511
6.02077
6.07458
6.10292
5.78037
6.34654
6.59485
6.36432
6.31839
6.14983
5.97842
6.13765
6.09058
6.49866
6.10692
6.55923
6.08366
6.39987
6.19343
6.09808
5.94457
5.75639
6.15773
6.35343
6.43264
6.38363
6.05908
6.47434
6.35727
5.95534
6.19496
6.52152
6.48626
6.69875
6.16542
6.11196
5.96388
6.78382
6.5614
6.14496
6.08285
6.67944
6.29216
6.7964
6.17898
6.19544
6.74038
6.12844
5.89432
6.63601
6.58578
6.10303
6.36415
6.34747
6.28771
6.20455
7.02812
6.52125
6.31308
6.76067
6.11496
5.9106
6.04872
6.11873
6.30591
6.77804
6.30371
6.79084
6.57435
5.95194
6.29541
6.20498
6.2056
6.29553
6.27777
6.07574
5.97863
6.53681
6.52582
6.39914
6.38638
5.91149
6.37225
6.23759
6.36447
6.13115
6.03966
6.11638
6.22446
6.44829
6.04606
6.01622
5.93969
6.46251
6.21039
6.83133
6.26687
6.38224
6.47194
6.38135
6.43266
5.71192
6.34257
6.35914
5.91681
6.19882
6.50044
5.83992
6.86538
6.06335
6.07285
5.88797
6.07468
6.52392
6.53003
6.17265
6.28025
6.53067
6.56217
6.19548
6.67589
6.41956
6.36022
6.23247
5.99647
5.9549
6.1459
6.61867
6.58323
6.81601
5.97214
6.01429
6.1178
6.11082
6.42183
6.35226
6.5871
6.1629
6.31649
6.38462
6.39331
5.8238
6.72468
6.31893
6.37295
6.015
6.50212
6.313
6.7741
6.29611
6.40078
6.14156
6.3354
6.43449
6.00838
6.19941
6.11087
6.18386
6.73044
6.51237
6.05374
6.69849
6.31185
6.49928
6.23074
6.25931
6.30582
6.03285
6.45007
5.98335
5.84077
5.94568
6.5514
6.33295
6.60182
6.0152
5.95462
6.14908
6.71395
6.26358
6.06306
6.28251
6.64936
6.4096
6.18381
5.9211
6.68822
6.50503
6.11489
6.49151
5.54616
6.29996
5.93187
6.05758
5.93518
6.17356
6.47294
5.81567
6.20318
6.21582
6.26189
6.0062
6.14598
6.13224
6.27639
5.85698
6.13545
6.26581
5.68492
6.38409
5.79119
6.28908
6.00527
5.78883
5.78666
6.65514
6.31378
5.92424
6.82358
6.23667
6.19491
6.77118
6.48844
6.72805
6.47391
6.54407
6.06352
5.57616
6.25293
6.63001
5.9398
6.09736
6.60145
5.91875
6.53639
6.05778
5.84996
6.57013
6.33506
6.07269
5.99418
6.37093
7.23827
6.26031
6.52234
6.17576
6.83304
6.00678
6.84716
6.2208
6.19554
6.66511
6.3975
6.3879
6.53522
6.40684
6.60604
6.08643
6.16397
6.45086
6.67034
6.09713
5.9709
6.27228
6.45791
5.79722
6.29118
6.4626
6.28515
6.17388
6.20094
5.98974
6.09406
6.01782
6.23157
6.51826
6.21075
6.37222
6.59545
6.97224
6.55604
6.37303
6.30295
6.59929
6.33186
6.10481
5.83363
6.12284
6.12774
5.8586
6.31117
6.02641
6.02875
6.31701
5.89942
6.24309
6.48903
6.1299
6.63588
5.86858
6.39368
7.21215
6.60939
6.28061
6.45595
6.18268
5.91958
6.48418
6.65156
5.99802
5.82011
6.46383
5.71827
5.98609
6.84884
6.70723
6.37668
6.11958
6.31979
6.39977
6.50518
7.26847
6.00866
6.5593
6.50773
6.50673
6.3095
6.21163
6.42757
6.1994
5.80952
6.56406
5.94831
6.65477
6.44812
5.83742
6.06697
6.8251
6.34287
6.39316
6.09103
5.9817
6.50023
6.58284
6.51495
6.49634
7.09334
6.03428
6.15018
6.0996
5.74688
6.49012
5.79528
6.32813
6.75861
6.29562
6.24845
6.18782
6.24996
6.40071
6.01817
6.22803
6.11418
6.45937
6.25948
6.47713
6.41622
6.12379
6.149
7.03325
6.4297
5.8389
6.17944
6.39708
5.97134
6.34205
6.54626
6.69339
6.00097
5.93667
6.33781
6.1529
6.11702
5.92689
6.27352
6.62588
6.97518
6.38453
6.2634
6.37011
6.42529
6.47582
6.31429
6.27241
6.31665
6.51146
6.14854
6.10868
6.52838
5.8489
6.34888
7.24235
6.23115
6.74329
6.40145
6.13648
6.02372
5.95298
5.9963
6.05667
6.15131
6.17733
6.24156
6.44751
6.49765
5.97933
6.48417
6.40982
6.04617
6.34804
6.75173
6.63789
6.21892
6.29091
6.02675
5.89684
6.1386
6.21816
6.7386
5.88973
5.90702
6.39847
6.23494
6.31373
5.68952
6.68865
6.67222
6.95376
6.02489
6.81973
6.37871
6.72385
6.34727
6.42306
6.03822
6.08037
6.55191
5.92042
6.4426
6.69507
5.97528
5.80799
5.59328
6.41794
6.07028
6.25328
6.00737
6.40189
6.274
6.63894
6.17302
6.33078
6.46593
6.0538
5.73006
6.4781
5.98768
6.01246
6.44015
6.27098
6.69907
6.44284
6.25125
6.12388
5.835
6.44713
6.57563
6.34018
5.73469
6.13535
6.24603
6.71374
6.25973
5.82025
6.67745
5.90672
6.00304
6.40043
6.24929
6.3164
6.43017
6.1595
6.05972
7.20252
6.37938
6.3346
6.13658
7.04204
6.16376
6.3135
6.49325
5.82896
5.88264
6.01276
6.51383
6.07826
6.61647
5.99444
6.15018
6.57473
6.12474
5.98537
6.39113
6.43246
6.32606
6.08114
6.06331
5.94667
6.74076
6.31799
6.07767
6.18713
6.46364
6.74095
6.01833
6.38005
6.49337
6.02012
6.30535
6.68473
5.82953
5.67989
6.13095
5.85987
6.16426
6.89843
5.97914
6.38314
5.93463
5.77165
6.30782
6.37806
5.85247
6.20019
5.81339
6.33816
5.91213
6.04833
6.50466
6.16773
6.3668
5.90974
6.48256
6.17373
6.03883
6.16565
6.31463
5.7293
6.46283
6.14341
6.13958
6.21386
6.48919
6.4214
6.75197
5.99158
6.24338
6.20699
6.33017
6.8605
6.39458
6.06674
6.32937
6.21806
6.521
6.6142
5.86738
6.48796
6.25194
6.47238
6.31084
5.99077
6.6161
6.37472
6.18061
6.37741
6.33404
6.16928
6.22243
5.82028
6.14644
6.23448
5.77618
6.12658
6.04373
6.38964
6.42279
6.01697
6.91315
6.24869
6.2565
6.37559
6.06266
6.32764
6.36275
6.16901
6.83367
6.87556
6.32126
6.27679
6.96609
6.40359
6.17837
6.17451
6.65599
6.45913
6.11487
6.09112
5.78164
6.31397
6.46481
6.87386
6.25244
6.45447
6.06261
5.84292
6.13505
6.12434
6.5221
6.59944
6.43178
6.25361
6.20208
6.35319
6.32724
6.36648
7.04885
5.86608
6.55378
6.27983
6.19011
6.37791
6.21361
6.61461
6.40502
6.18223
6.55341
6.35604
5.7801
7.22979
6.59581
6.44066
6.20122
6.2354
6.32469
6.22006
5.92332
6.24564
6.32821
6.42934
5.94137
6.13841
6.37093
6.3378
6.17806
5.92068
6.24601
6.15521
6.66246
6.4368
6.2639
6.6202
6.30361
5.67961
6.60477
6.52592
6.14643
6.10982
6.3975
6.14575
6.60978
6.24731
6.42189
5.89071
6.15703
6.2011
6.97207
6.15512
6.03736
6.10464
6.26387
6.38763
6.25489
5.81728
6.06663
6.20852
5.90728
5.70381
6.21607
5.93321
6.43227
6.07108
6.1826
5.99908
6.2792
6.2712
6.61595
6.68012
6.34186
6.34412
5.8315
6.4406
6.04064
5.96288
6.13812
6.06836
5.85463
6.13004
6.07353
6.27734
6.33879
6.34041
6.54864
6.31286
6.61097
6.79082
6.95822
6.51313
6.35761
6.22049
5.94656
6.34165
6.2309
6.39304
5.87831
6.6909
6.12178
5.87261
5.82858
7.1164
6.31229
6.19928
6.37073
6.04844
5.84603
6.33423
6.53915
6.38001
6.35193
5.98089
5.61301
6.12806
6.31017
6.79809
6.06225
6.97198
6.69513
5.96707
5.93177
5.9064
6.30939
6.13703
5.74953
6.18258
6.27141
6.5346
6.61812
6.16507
6.4621
6.62826
6.23539
6.96972
5.89819
6.97721
5.91744
6.54572
5.94775
5.77809
6.26045
6.5844
6.42764
6.47112
6.59808
6.32306
6.15265
6.08488
6.56809
6.14061
6.1928
6.47261
6.15756
5.87912
5.9597
6.35559
6.14714
6.1121
5.86726
6.44678
6.01882
6.06693
6.33957
6.27269
6.79956
6.12814
5.97438
6.57907
6.28624
6.28046
6.6048
6.23649
6.36203
5.93478
6.34607
6.46438
6.29871
6.42579
5.97579
6.24102
6.47766
6.8818
6.20918
6.06995
6.1096
6.16954
6.17935
6.38295
6.82689
6.37108
6.21845
6.93783
6.47243
6.08185
6.06526
6.04318
6.18437
6.13625
7.20091
6.24247
6.24883
5.66662
6.78789
6.15511
6.20064
6.0537
5.72908
6.45587
6.18781
6.7847
5.94304
6.19878
6.45805
6.04421
6.02727
6.56648
6.6092
5.99574
5.8377
6.43501
6.05429
6.71136
6.31252
6.74387
6.07217
6.45411
6.36427
6.07735
6.5399
6.31068
6.25811
6.52972
6.13947
6.27971
6.66134
6.28072
6.74239
6.3641
5.85891
5.98775
6.07129
6.18508
5.91714
6.14774
6.66188
6.29356
6.51932
6.3541
6.433
6.54931
6.23534
6.41695
5.67208
5.91532
6.49971
6.69012
5.88157
6.05052
6.40472
6.41357
6.2058
5.83057
6.87154
6.41942
6.03956
6.26946
6.30345
6.20205
6.39697
5.96938
6.06108
6.73976
6.2553
6.274
6.23224
6.65689
6.16134
6.50757
5.6996
6.65317
6.07995
6.64194
6.38379
6.18624
6.21942
6.15527
6.30596
6.37556
6.1846
6.02427
6.33536
6.21898
6.71432
6.21911
6.30214
6.20297
5.81712
5.94395
6.16508
5.89366
6.15096
5.85832
6.049
6.12429
6.54183
6.41405
5.9809
5.81546
6.21093
6.34835
6.58732
5.99201
6.1698
6.07705
5.9077
6.27224
5.73981
6.30146
6.67689
6.01704
6.46066
6.36183
6.99187
6.45315
6.67675
6.59361
6.55071
6.20674
6.03787
6.79993
5.9601
6.14245
5.88825
6.76467
5.69394
5.83317
5.84828
6.36385
6.67201
6.402
6.08134
6.35829
6.81333
6.47681
6.46545
6.04486
5.94948
6.15869
6.48164
6.6866
5.99732
6.3835
6.49281
6.69996
5.89695
7.15174
6.43549
6.43623
5.94913
5.92747
6.40929
6.25703
6.21263
6.20216
6.30355
6.12764
6.56926
5.99508
6.57807
6.15632
6.45244
6.51975
6.87366
6.04598
6.42703
6.22331
5.9564
6.13898
6.86107
6.42487
6.49338
6.60907
6.14127
6.07181
6.02356
6.46585
6.24129
6.47859
6.60066
5.87664
7.41267
6.5703
6.0291
6.51145
6.46169
6.28719
6.25152
6.40056
6.06214
6.17013
5.51914
6.11723
5.77371
6.18301
6.23677
6.82601
6.46986
6.60203
6.28592
6.25882
6.56084
6.7492
6.21918
6.14847
6.32124
6.15359
6.27816
6.47401
6.30423
6.21351
6.45697
6.55074
6.35752
6.1248
6.613
6.14336
6.36053
6.13288
6.19941
6.13308
6.16815
6.37599
6.03341
6.29767
5.81881
6.37417
5.86514
6.1523
5.63087
6.48912
5.98972
6.18662
5.89723
6.51853
5.96929
5.95339
6.08308
6.27376
6.59587
6.41607
6.83427
6.46946
5.92321
6.40252
6.60031
6.08091
6.36242
6.12589
6.21115
6.46476
6.09136
6.20973
6.32018
6.53591
6.18151
6.30459
6.3247
6.31471
6.12336
6.36195
6.48638
6.52215
6.62874
6.14197
6.18168
6.19343
5.84184
6.63638
6.0852
5.94679
6.28954
6.05267
5.76845
7.03855
6.37029
5.83812
6.31588
6.27524
6.81534
6.20888
6.33096
6.61553
6.51679
6.39861
6.36865
5.96269
6.1141
5.82418
6.80019
6.53061
6.70582
6.50243
5.9597
6.09628
6.0241
6.22502
6.45913
6.19832
6.43998
6.08711
6.13155
6.26006
6.60977
6.38362
6.14246
6.35211
6.18443
6.0776
6.61142
6.15505
6.54587
5.85579
5.9146
6.1885
6.26558
6.2917
6.60083
6.52245
6.43641
6.23484
6.45969
6.41969
6.18458
5.94108
6.23738
5.82948
6.43515
6.06634
6.73808
6.55455
6.03417
6.37386
6.2599
5.88978
6.87685
6.26098
6.05229
6.46598
6.40862
5.94731
6.63439
6.10601
6.50053
6.27907
6.17664
6.06413
6.21505
5.88076
6.24085
6.77109
6.09998
5.76358
6.312
5.8656
6.70651
6.32233
6.01448
6.38316
6.36186
6.08504
6.173
6.11472
6.30025
6.7448
6.37156
6.02557
6.0635
6.34063
6.07215
5.54759
6.09825
6.00996
6.33802
6.15512
6.54913
6.30978
5.88029
6.85669
6.16874
5.89368
6.18233
6.49769
6.13266
6.1491
5.79651
6.10379
6.56823
6.11193
5.72552
6.12192
6.29027
6.18313
6.12154
6.83835
6.42157
6.56195
7.01876
6.41216
6.64566
6.68163
6.24689
6.47868
5.98543
6.471
6.6787
6.35381
6.19545
6.9413
6.0832
6.31307
6.11622
6.25165
6.62858
6.3187
6.11918
6.29697
6.12684
5.79609
6.10188
6.1738
6.14376
6.16484
7.69878
5.95086
6.19415
5.84282
5.91182
6.78523
5.78323
6.00546
6.42022
6.27387
6.71203
5.86184
6.29243
6.0193
5.9577
5.56206
6.26074
6.29749
5.65888
6.29902
6.58381
6.05264
6.03484
6.14427
6.18222
6.40998
6.40664
5.90316
6.72654
6.47706
6.63381
6.45998
6.34384
6.16537
6.14519
6.69695
6.16658
6.15288
6.04586
6.21335
5.9261
5.82674
6.90518
5.78903
6.10084
6.10245
5.85151
6.43309
6.40237
6.22724
6.58706
5.98322
6.27138
6.0346
6.32101
6.08961
5.91977
6.66604
6.10909
6.05562
6.47423
6.05012
6.60248
6.08964
5.96278
6.20047
5.98401
6.0196
6.00484
6.47567
5.96114
6.54226
6.81101
6.18177
6.21122
6.10209
6.36841
5.6213
6.11606
6.19143
6.4721
6.14911
6.54474
6.82059
5.81409
6.05517
6.07112
6.82502
6.44984
5.97337
6.38318
6.91492
6.0274
6.16657
6.14807
6.86235
6.55418
6.24061
6.32307
5.9112
6.29707
6.41269
6.60836
6.40219
6.0675
5.96941
6.10045
6.41403
6.32253
6.52327
6.18722
6.09826
6.24553
6.33525
6.05831
6.58514
5.8497
6.38258
5.85941
6.62233
5.9405
6.38222
6.33132
5.86671
6.60183
5.95574
7.20195
6.13262
6.40519
5.72708
6.0687
6.02468
6.49814
6.08478
6.14691
6.06587
6.16124
6.52159
6.31226
6.23338
6.0765
6.66172
6.18084
6.3032
6.55717
6.72243
5.94426
6.83736
6.05604
6.19873
6.16302
5.93743
6.37984
6.01529
6.21962
6.26152
6.00966
6.12893
5.91898
5.98364
5.84778
6.0762
6.21465
6.17426
6.45719
6.65033
6.22626
5.94326
5.79798
5.83976
6.05644
6.29504
6.06732
6.24904
6.38895
6.22668
5.71819
6.72805
5.8794
5.98138
6.26424
6.5297
6.2316
6.43475
6.58985
6.02803
6.08295
6.4026
5.94757
6.79596
6.04557
6.45342
6.52841
6.2931
6.39588
6.2081
6.04694
5.88019
6.76992
6.41225
6.0901
6.05622
6.55154
6.14869
5.82089
6.35273
5.96023
6.32791
5.94793
5.92546
6.15376
6.92251
5.6644
6.16849
5.9822
6.23312
6.13133
6.40709
6.21554
6.47607
5.95823
6.40346
6.23854
6.53874
6.77045
6.58911
6.34017
6.24846
6.50946
6.1254
6.18681
6.21236
6.57351
5.99967
6.57966
6.2243
6.50318
6.05231
6.55253
6.35101
6.44098
6.50398
6.5328
6.65924
6.39486
6.06414
6.39535
6.05063
6.28385
6.39825
6.85316
6.39584
6.39421
6.18397
5.92781
5.75569
6.2883
6.47845
6.48108
6.67274
6.51847
6.52965
5.72888
5.97356
6.28937
6.33251
6.37601
5.81815
6.48633
6.30936
6.59816
5.94944
6.20657
6.29318
5.61841
6.09126
6.08427
6.14071
6.29946
6.34433
6.01698
6.71798
6.213
6.04731
6.22051
6.06484
6.54122
6.16408
6.58913
5.6685
5.98298
6.17774
6.18525
5.85824
6.70515
6.49987
6.19871
5.93004
6.1396
6.11612
6.64342
6.21826
6.62332
6.4663
6.30244
6.59654
6.05281
5.88057
6.39486
6.29097
6.39084
6.14221
6.77098
7.02066
5.91506
6.43801
6.49373
6.33692
6.85767
6.2657
6.12953
6.23986
6.08659
6.88039
6.04936
6.11706
6.39844
6.21659
6.66047
6.3212
6.05267
6.53717
5.7893
5.85336
6.67417
6.2682
6.48849
6.85459
6.22872
6.25173
6.73029
6.35358
6.63992
6.21044
5.99814
6.37217
6.03411
6.19777
6.0313
5.93698
6.19157
6.29797
5.76336
6.96118
6.3968
6.49341
6.21291
6.62905
6.04545
6.03884
6.29939
5.83085
6.08129
6.2311
6.04433
6.45368
6.7663
5.78261
6.46221
6.12978
6.15828
5.82661
6.32188
6.24857
5.89994
6.83436
6.07043
6.04388
6.53962
6.33503
6.2563
5.84491
6.34561
6.49111
6.74357
6.04617
7.29861
6.34317
6.44675
6.37643
6.35559
6.40256
6.03146
5.96526
6.19908
6.14906
6.48392
6.00247
5.98189
6.17509
5.99714
6.19473
6.44232
6.16313
6.30607
6.10921
6.72425
5.91781
5.83679
6.32381
5.96134
6.0918
6.07684
6.09382
6.06928
6.94601
6.16877
6.34767
6.0917
6.16214
6.08853
5.85084
6.02322
5.99351
6.29195
6.28435
6.69106
6.30695
6.30103
6.47374
6.43527
6.41315
6.23699
5.96829
6.24228
6.0023
6.64153
6.34051
6.3298
6.45119
6.54495
6.34902
6.24428
6.68462
6.32083
6.32263
6.15876
6.21256
6.17832
6.08596
6.37977
6.73208
6.22291
6.45924
5.94589
6.29548
5.69498
6.50745
6.11806
6.08987
6.57121
5.93215
6.20602
6.17504
6.29694
6.22612
6.18209
6.10306
6.1373
6.03801
6.13156
6.05557
6.1106
6.13035
5.79265
6.5859
6.32916
6.42626
6.11043
6.47997
5.91785
6.04695
6.06103
6.87439
6.11831
6.61321
6.10297
6.20373
6.28041
6.64354
6.14834
6.21578
5.85224
6.35132
6.26008
6.644
6.02653
6.55239
6.34668
6.05903
6.22726
6.46003
6.32026
6.12773
6.08569
5.98594
6.27371
6.59112
6.31358
5.88691
6.25575
6.3093
6.0546
6.53732
6.37711
6.60543
6.2323
6.79067
5.81949
5.96812
6.45601
6.24343
5.91342
6.36782
6.19648
6.07156
6.09525
6.29906
6.15191
6.61336
6.46016
6.23764
6.3343
6.19818
5.93468
6.1064
6.58879
6.51362
5.87239
6.2107
6.23686
6.52407
6.76471
5.69413
6.56214
6.02061
6.58258
5.97299
5.96805
6.00527
6.00075
6.03077
6.20778
6.11858
6.50406
6.57567
6.33724
6.04245
6.24853
6.80727
6.93258
5.95864
6.73608
6.18911
6.35067
5.77382
6.08036
6.27739
6.42268
5.77977
6.20853
6.08667
6.10065
6.40287
6.24124
6.43532
6.39673
6.31023
6.32709
6.59653
6.13392
5.9226
6.17497
5.8449
6.79384
6.38699
6.44358
5.96973
6.54124
6.73024
6.40057
6.24763
6.24276
5.82677
5.75346
6.64298
6.28435
6.34322
5.87838
6.34966
6.07759
5.93813
6.29761
6.14111
6.02396
6.00832
6.48239
6.56195
6.26879
6.58246
6.42706
6.81213
6.20288
6.06088
6.66325
6.43334
6.25871
6.8811
6.26238
6.35723
6.35034
6.60714
6.61526
6.3516
6.25535
6.27074
5.89189
6.08813
6.0843
6.222
5.77617
5.99149
6.54631
6.28181
6.42633
6.41761
6.38018
6.24752
6.01948
6.57302
6.26365
6.55947
5.9335
6.1005
6.16904
6.44859
6.89362
5.7286
6.17939
6.49619
6.23359
5.97811
6.38508
6.52101
6.17814
6.77225
6.85471
5.80407
6.10979
5.9799
6.22849
5.92777
6.19541
6.12885
6.20032
5.77156
6.11191
6.52127
6.79979
6.50749
6.26457
6.44673
6.05607
6.36477
6.31939
6.05894
6.35292
6.68277
6.08142
6.17494
6.22971
6.36124
6.45713
6.17141
6.52443
6.11308
6.36887
6.08275
6.38891
6.25759
5.69032
6.39179
5.70023
6.43023
6.03225
6.43973
6.06133
6.16031
6.46881
6.31885
6.38676
6.6063
5.95027
6.28391
5.96721
6.40776
6.40971
6.57935
6.70654
6.268
6.51667
6.30971
6.72287
6.17462
6.28445
6.63055
6.20721
6.25765
5.97753
5.86024
6.44835
5.9768
6.13692
6.5307
6.43579
6.77276
6.77153
6.83908
6.24223
6.35876
6.15103
6.13169
5.85565
6.1955
5.97271
5.92905
6.01723
6.35414
6.12479
6.12638
5.96811
6.50869
6.06903
6.51069
6.16554
6.42746
6.33836
6.32282
6.30714
5.99665
5.98075
5.93197
5.86283
6.67557
6.34314
6.65591
6.216
6.01207
6.02042
6.20209
6.58399
5.95095
6.51811
6.12994
6.22803
6.54016
6.20197
6.0095
5.95144
6.31586
6.03409
6.18465
6.33926
6.24827
6.67785
6.20298
6.02149
6.73481
5.91531
6.15735
6.44507
6.20303
6.06271
6.71293
5.84631
6.34075
6.52797
6.46212
6.1686
6.03902
6.35283
5.84594
6.03697
6.03704
6.09957
6.42114
6.06649
6.23751
6.28125
6.07009
5.84805
6.39242
6.92647
6.69438
6.31048
6.26197
6.18368
6.22248
5.71986
6.31563
6.57443
6.26794
6.30796
6.38849
6.63812
5.94931
5.93714
6.05474
6.05594
6.27926
6.33136
5.7715
6.47196
6.10888
6.07344
6.11007
6.45255
6.02644
5.93227
6.08591
6.36698
5.9137
6.02689
6.12399
6.01407
6.32827
6.41935
6.29002
6.27622
6.00694
6.29144
6.17799
6.19913
6.65361
5.64237
6.96717
6.79585
6.64943
6.47536
6.20921
6.58781
5.81076
6.08664
6.53098
6.12788
6.64898
6.25745
6.06039
6.29353
6.54012
6.3395
6.13059
6.37511
5.85708
6.21935
6.10182
6.10383
6.11031
6.09275
6.86864
6.14874
6.2495
6.3123
6.26383
6.34094
6.22794
6.13572
6.2425
5.89201
6.06825
6.05759
7.03243
6.39461
6.03275
6.2771
6.27131
6.4205
5.91368
6.17139
6.22131
6.28455
6.17931
5.97407
6.37254
6.43578
6.33047
6.49612
6.63532
6.02197
6.47806
6.90198
6.4569
6.21021
6.4855
6.64296
6.76922
6.62856
6.22598
6.56002
6.17698
6.58252
5.93983
6.40285
6.07086
6.42631
6.62273
6.66882
6.28304
6.41656
6.20892
6.04597
6.41198
5.93721
6.55297
6.55602
6.2851
6.28778
6.90743
6.2346
6.0803
6.55613
6.29773
6.83704
6.24811
6.35853
6.41076
6.48035
6.64871
5.56958
5.93636
6.22102
5.96392
6.17443
6.40359
6.16633
6.55121
6.57267
5.95219
6.65891
6.59741
5.87424
6.59498
6.10525
6.02518
6.36383
6.71359
6.11024
6.48023
6.48576
6.57591
6.15372
6.28142
6.32192
6.07228
6.14679
5.99341
6.35118
6.1777
6.56579
6.05324
6.13617
6.05355
6.2221
6.76397
6.19577
6.04231
6.0966
5.97867
6.14653
5.79992
6.35156
5.94305
6.56919
6.19449
6.13255
6.1647
6.67899
6.21842
6.00256
6.02941
6.32614
6.44052
6.11804
6.3201
6.6727
6.03389
5.99286
6.53875
6.19331
6.27469
7.04872
5.90487
6.50489
6.55171
6.30796
5.75783
6.17161
5.94749
6.10459
5.92865
6.46227
6.11653
6.3635
6.14342
6.5412
5.88414
7.07633
6.02709
6.95272
5.93889
5.71575
5.82227
6.04465
6.2623
5.69658
6.07486
6.99094
5.92673
6.44064
6.23776
6.25498
5.88536
6.20126
6.81465
6.14971
6.46604
5.9701
6.17994
6.18235
6.30559
6.36405
5.96062
6.42748
6.09163
6.0832
6.53825
6.10027
5.75796
6.60909
6.79032
6.28593
6.52273
6.64294
6.29081
6.63611
5.57797
6.66353
6.15398
6.99782
6.37414
6.23747
6.53457
6.53357
6.43785
6.94828
6.15102
6.03394
6.21201
6.21833
6.44224
6.37191
5.75575
6.11244
6.12358
6.47324
5.87757
6.53292
6.30589
6.46801
6.02931
6.28879
6.27485
6.17136
6.13022
5.89063
6.48845
5.74687
6.18753
6.51099
6.096
6.50969
6.19762
6.18905
6.29872
5.74742
6.83801
6.63154
5.88236
6.16155
6.40493
6.25799
6.31255
6.34697
6.1643
6.63186
6.54823
6.04715
6.17246
5.84756
5.84454
6.12604
6.30149
6.02725
6.15604
5.97586
6.10839
6.11974
6.36794
6.36259
5.88948
5.75175
5.92655
6.09861
5.8746
6.04712
6.06313
6.49313
6.02817
5.844
6.78641
6.56763
6.16668
6.11107
6.80372
6.64806
6.34483
6.33087
6.51056
6.25225
6.6368
6.58587
6.01434
6.21192
6.32546
6.431
6.38557
6.72208
6.08609
6.96325
6.41592
6.63104
6.44979
6.46937
5.82468
6.01595
6.37623
5.90878
6.43031
6.02966
6.21993
5.92889
6.08967
5.91893
6.4931
6.33416
6.24059
5.87516
6.61214
6.145
6.51929
6.34287
6.27826
6.09317
5.85032
6.50845
6.93764
6.22891
6.15647
6.14621
7.49469
6.50119
6.66436
6.49476
6.13311
6.37738
6.44099
6.26069
6.02017
6.73928
6.27981
5.98277
5.92784
5.99787
6.39996
6.09304
6.46887
6.86555
6.54007
6.21457
6.32409
6.61022
5.9996
6.03833
5.99522
6.71281
6.28414
6.50778
6.36266
6.08006
6.38678
6.33395
6.61956
6.21409
6.19412
6.24574
6.1741
6.49511
5.7626
6.41857
6.44881
6.4596
6.64218
6.15883
6.26746
6.09101
6.20569
5.81376
6.70689
6.20252
6.19908
6.28889
6.6015
6.2788
6.60075
6.82683
6.46868
6.17838
6.19849
5.80027
6.10084
6.8675
6.53904
6.23706
5.94561
5.95106
6.38739
6.08192
6.63915
6.37733
6.36715
6.27949
6.06047
6.31173
5.81137
5.95279
6.23239
6.60105
5.91211
6.32724
6.18753
5.97058
6.32245
6.55636
6.50197
6.05532
6.17199
6.16256
6.45506
6.08928
6.37925
6.55837
6.28332
6.18425
6.12224
6.11037
6.22418
6.04582
6.27495
5.94127
6.41211
5.76177
6.27561
6.08343
6.32697
6.36641
5.75434
5.88145
6.38531
6.3896
6.19404
6.12037
6.13551
6.51829
6.52127
5.96466
6.22174
6.13333
6.32838
6.09715
6.2279
6.46726
6.50689
6.22917
6.11068
6.23353
6.35213
6.00994
5.88603
7.37175
6.31535
6.34414
6.11813
6.32957
6.23518
5.82573
6.63252
6.36572
5.70218
6.23683
6.19562
6.09444
6.51371
6.65991
7.04022
5.79385
6.37777
6.89855
6.12621
6.22936
6.71573
6.37046
6.32554
6.45926
6.35066
6.46421
6.50809
5.79386
5.94257
6.1247
6.35339
5.76446
6.45708
5.86368
6.76908
6.67414
6.352
5.79676
6.30608
6.36075
6.58821
5.97536
5.98328
6.43784
6.13603
6.21235
6.34305
6.51956
6.78066
6.6291
5.77454
5.94382
6.26089
5.93153
6.20431
6.15779
5.91112
6.36701
5.86832
6.39089
6.04224
6.28159
6.69745
6.86941
6.76817
6.60188
6.48553
6.26892
5.7159
6.30176
5.77018
6.34083
6.22175
6.23439
6.43611
6.4337
6.2466
6.05931
5.96885
6.27389
6.17288
6.26229
6.24972
6.28865
6.46834
6.25478
6.40407
6.03137
6.01048
6.82221
6.77644
6.47169
6.19083
6.4996
6.29809
6.40867
6.17815
6.19208
6.32875
6.08363
5.99951
6.29882
6.5477
6.05324
5.82407
5.90329
6.44385
5.96535
6.10839
5.87332
6.37266
6.12627
5.87316
6.19596
6.62618
6.28687
6.29871
6.46224
6.44198
6.21287
6.02241
6.67838
6.52874
5.9201
6.10543
6.42344
6.68045
6.51536
6.04488
5.78779
6.26446
6.55352
6.28231
6.30377
6.52994
6.40873
6.10688
6.51562
6.56094
6.02157
6.4094
5.86709
6.43484
6.32116
6.24388
6.18393
6.47265
6.0052
6.05965
6.54663
6.04093
6.31073
6.6062
6.60223
6.0116
6.11425
6.6504
5.99237
6.2808
6.03765
6.28426
6.26231
6.63257
6.5715
6.13989
6.40194
6.6051
6.59854
6.40318
6.17463
6.8016
5.83845
7.03326
6.46281
6.35722
6.70028
5.95875
6.2321
6.34655
5.9813
6.29773
6.04706
6.08093
6.29693
6.73278
6.25175
6.04761
6.34021
5.99548
6.38139
6.78172
6.07698
6.60853
5.93998
6.84779
6.46598
6.14171
6.26363
6.39287
6.33229
6.57332
6.27017
6.28311
6.10863
6.01881
5.92418
6.27318
6.45127
5.83175
6.46588
6.04646
6.4655
5.97789
6.18082
6.28613
6.09733
6.38431
5.84565
6.37587
6.46694
6.12763
6.15647
6.24237
6.16148
6.07125
6.3303
6.28568
6.37592
6.04927
6.73037
6.50965
6.0691
6.3594
6.30419
6.43471
6.14215
5.99373
6.37286
5.83566
6.00296
6.26388
5.97466
6.26327
6.44031
5.97714
6.59801
6.19585
6.2411
5.94219
6.39285
6.50219
5.91854
6.39786
5.96009
6.11254
7.21313
6.05637
6.62942
6.53931
6.86913
5.89753
6.17807
6.07345
6.40507
6.65585
6.73251
6.55383
5.89125
6.38805
6.64912
6.43898
5.95616
6.31491
6.10756
6.58362
5.96553
6.34765
6.06898
6.00891
6.1686
5.98217
6.06411
6.95162
6.05037
6.12618
6.18161
6.46059
6.24767
6.56801
5.99511
6.48304
6.58707
6.32265
5.95569
6.54505
6.35472
6.28137
6.16604
6.49226
5.89655
6.61527
6.34842
6.4602
6.56407
6.79161
5.96899
5.83763
6.29334
5.89274
6.49098
6.55715
6.02716
5.95688
6.08325
6.27215
6.10392
6.58403
5.85983
6.38782
6.34753
6.5641
5.93334
5.86182
6.10001
6.51372
5.94547
6.30746
6.45217
6.64558
7.37394
6.30896
6.59768
6.11474
6.62886
5.96325
6.39027
6.00063
6.14498
6.30676
6.51141
6.39733
5.84473
5.78935
6.15482
6.30561
6.34494
7.15779
6.01937
5.85614
6.77034
6.23622
5.90071
5.96554
6.42101
6.43713
6.31447
6.48555
6.62062
6.46659
7.31183
6.28617
6.35807
6.05484
6.3646
6.42997
6.01454
6.11934
6.15142
6.09009
6.09701
6.16656
6.0786
6.51785
6.07366
6.49836
6.19618
6.37939
6.60557
6.10352
7.33974
6.72269
6.35506
5.94853
6.42234
6.12433
6.58045
5.60919
5.75486
5.97554
6.03663
5.98289
6.22281
5.95075
5.84326
6.29121
6.26583
6.54611
6.62384
6.36357
6.15519
6.23281
6.32406
6.17849
6.46373
6.6089
5.88504
6.43544
5.96951
6.43322
6.32963
6.68195
6.56737
6.48672
6.5528
6.70443
5.93733
6.23595
6.14426
6.64646
6.02727
5.74412
6.71829
6.27879
6.27144
6.63974
6.32167
6.07549
6.15354
6.21543
5.93094
6.52972
6.55758
5.9698
6.40091
6.45251
5.84952
5.87233
5.88112
6.2221
6.19211
6.13141
6.06511
6.48275
6.3932
6.07172
6.17721
5.89306
6.57449
6.63917
5.99523
6.21684
6.41651
6.57352
6.02286
6.5404
6.17289
6.42496
6.41625
6.21867
5.62234
6.10008
6.01417
6.20736
6.57087
5.95924
5.85592
6.0303
6.20693
6.18789
6.01887
6.38362
6.06001
6.45259
5.91113
6.18785
6.29993
5.85288
5.83667
6.29293
6.139
6.40538
6.36471
6.02526
6.02025
6.20325
6.24283
6.57901
6.76649
6.90034
6.07083
5.66238
5.93214
5.93372
5.89688
5.85428
6.40986
6.09649
7.00322
6.84183
6.24024
6.17078
6.09465
6.1536
6.28839
6.09681
6.40748
5.66898
6.32269
6.26627
6.2264
6.22848
6.13339
5.72343
6.19488
6.20521
6.24014
6.37083
6.06989
6.75747
5.92688
6.70792
6.31523
6.1189
6.4767
6.11071
5.95956
6.22991
6.39451
6.61786
6.35665
6.10985
6.14971
6.1149
6.04821
6.46663
6.23523
6.04803
5.9535
6.35576
6.63519
6.88214
6.36495
6.15952
6.32904
6.50128
6.58248
6.12304
6.80631
6.39858
6.15056
6.53744
5.87757
6.23921
6.31777
6.16504
6.62395
6.11745
6.57122
6.30702
6.6576
6.45141
6.21008
6.229
5.88902
6.23452
5.8276
6.35444
6.51909
6.47727
5.9128
6.52663
6.19126
6.41326
6.49529
6.55962
7.02379
6.12813
6.1435
6.2223
6.4224
6.42032
6.22609
6.45636
6.49995
6.23122
6.15667
6.73675
6.07454
6.66953
6.62818
6.56231
6.32903
6.35373
6.72716
5.69556
6.24361
6.10651
6.60666
5.94464
6.08157
6.2278
5.96975
6.49588
6.01159
6.69198
6.73876
5.98965
5.90093
6.54786
6.24329
6.24539
5.92969
5.94906
6.50481
6.3899
6.18452
7.14327
6.73773
6.10039
6.35951
6.24187
6.38592
6.78417
6.02859
6.44282
6.61245
6.16057
6.42651
6.1376
6.02258
6.46996
6.36407
6.34648
6.76881
6.02932
5.79149
6.03977
6.51416
6.30903
5.67274
6.08782
6.80857
6.06415
5.8989
6.38504
6.5499
6.36312
6.03458
6.0149
6.35559
6.27085
6.34897
5.88559
6.2662
6.79942
5.84494
6.35093
5.89896
6.17375
6.12988
6.0228
6.19233
6.55079
6.21367
6.20258
6.50554
6.29641
6.72803
6.38384
6.16227
6.01412
6.27672
6.66926
6.01774
6.18999
6.1883
6.22776
6.35713
5.89393
6.4659
6.41438
6.16032
6.17286
6.0477
6.48927
6.23989
6.14869
5.89355
5.92636
6.44443
6.06451
6.53262
6.43652
6.2892
6.59523
6.54679
6.84415
6.50828
6.38113
6.23211
6.16713
6.98552
6.17599
6.18252
6.46044
6.37476
6.32403
6.50292
6.05157
6.2589
6.39667
6.3871
6.43741
6.10657
6.55494
6.17198
6.43239
6.14032
6.35285
6.1529
6.15145
7.73089
7.06888
6.09923
6.49369
6.06511
6.30784
6.22724
5.89636
6.27042
6.15375
5.85826
6.01159
6.3061
6.37842
6.67159
6.12432
6.33792
6.21374
6.21956
6.37098
6.1213
6.27987
6.68755
5.99606
6.36687
6.39509
6.56744
6.41403
6.97871
6.54734
5.9731
6.17586
7.00866
6.5403
6.06653
6.06276
6.16353
6.08837
6.14871
6.32162
6.27873
5.91867
6.55005
6.06068
6.29598
6.38034
6.33275
6.63414
6.50105
6.12355
6.52707
6.4483
6.34338
6.31658
5.94545
5.91072
6.55419
6.27708
5.91882
6.13368
6.41131
6.3308
6.22346
6.47123
6.50422
6.28421
6.57965
6.13728
6.77984
6.25668
6.0646
6.39833
6.39478
6.4003
6.36791
6.20808
6.2874
6.86603
6.26642
6.09077
6.10993
6.26773
6.19091
6.86343
6.53139
6.21982
5.97543
6.68338
6.22664
6.4805
5.48289
6.38523
6.04208
6.06063
6.39446
6.31667
5.99943
6.33426
5.83388
5.60118
6.11784
5.98913
6.05519
5.94859
5.94334
6.06205
6.32817
7.19616
6.36843
5.95718
6.20527
6.05001
6.85836
6.26068
6.12407
6.31361
6.17226
6.63152
6.00269
6.51541
6.71042
6.57968
5.95111
6.35986
6.55858
6.16154
6.83598
6.19886
5.97563
6.5218
6.62432
6.24298
6.36658
6.38156
6.44211
6.16825
6.19285
6.63299
6.14253
6.28091
6.52916
6.2534
6.18243
6.75803
6.52235
6.19462
6.09239
6.87444
6.85562
5.93566
6.09722
6.4508
5.93856
6.16036
6.66282
6.57947
6.25914
5.80877
7.21564
6.14971
6.74211
6.42215
6.31409
6.67932
5.75156
6.58901
6.58342
6.39759
7.50179
6.56164
6.25679
6.48019
6.33554
6.22846
6.28623
5.85982
6.42939
5.94698
6.12022
6.74322
6.21818
6.45452
6.00795
6.19316
6.74858
6.17423
6.60599
6.44614
6.07855
6.2618
5.8177
6.20406
6.24461
6.57284
6.24932
6.48881
6.49609
6.07575
6.62535
6.60776
6.17832
6.0051
5.71583
5.61092
6.23966
5.86318
6.23438
6.42828
6.49693
6.37843
6.12902
5.98755
6.65847
6.3055
6.55199
6.66485
6.68817
6.07525
6.49244
6.31979
6.51185
6.86224
6.44161
6.29438
6.13522
6.25585
5.71789
6.12529
6.07999
6.08617
5.7741
5.95118
6.54695
6.25423
6.27766
6.46297
5.91492
6.12358
6.13378
6.17772
6.35853
6.6149
6.03933
6.27315
6.10256
6.19931
6.21989
6.26421
6.7758
6.40781
6.03229
6.21169
6.17413
6.27968
6.09351
6.55049
6.25391
5.8437
6.1349
6.80568
6.60604
5.95145
6.08624
6.25872
6.08446
6.19927
6.1107
6.86951
6.17021
6.27028
6.49381
5.91871
6.37647
6.30727
6.58914
6.47943
6.28978
7.29661
6.22626
6.02369
6.53411
6.26938
6.40946
6.29272
6.22224
6.23034
6.48625
6.49716
6.38455
6.23693
6.17505
6.50551
6.29361
6.12038
6.38944
5.91113
6.1199
5.93813
6.54093
6.05441
6.30904
6.209
6.58622
6.07051
6.58798
6.48797
6.19115
6.25962
6.75363
5.79041
5.90028
6.4234
6.13577
6.51303
6.24067
6.61706
6.64613
6.16537
6.09579
6.79366
6.03669
6.02186
5.73868
6.71367
7.32909
5.9633
6.54377
6.17217
6.67954
6.41418
6.11064
5.68273
6.09194
6.05589
6.61798
6.45278
5.96236
6.5384
6.25193
5.9964
6.54162
6.63089
6.35429
6.32192
5.99021
6.54974
6.02796
6.43934
6.49488
6.14875
6.25064
6.25658
6.29951
5.9558
6.66127
6.32574
6.26788
6.41486
6.27743
6.2633
6.08229
6.40619
6.10645
6.37254
6.40106
5.88084
6.23409
6.38132
6.40423
6.50354
6.69512
6.48424
6.32811
6.37728
6.95737
6.11421
6.38321
6.52044
6.64862
6.20219
5.81748
6.53329
6.2987
6.44529
5.8453
6.33383
6.36065
6.66666
6.50692
6.45573
6.11231
6.03453
6.21365
6.45316
6.48434
6.60528
6.2019
6.44275
6.57374
5.94508
6.62578
6.23152
6.69118
5.81999
6.21355
6.37184
6.13135
5.86504
6.3299
6.19943
6.51016
6.26492
6.30258
6.52542
6.91548
6.57782
6.08923
6.17756
6.58487
5.83033
5.95047
6.17762
5.91777
5.74522
6.66858
6.4056
6.22799
5.8948
6.65346
5.87694
6.57996
6.37109
5.99406
6.08903
6.43959
6.31492
6.44702
6.2785
5.8753
5.78509
6.29672
6.19874
6.34564
6.62385
6.0746
6.21453
5.59086
5.844
6.36127
6.31055
6.07775
7.04256
6.53877
6.20364
6.43569
6.32809
6.20651
6.20404
6.31428
6.56117
6.24001
5.99341
5.8005
5.99401
6.56125
6.06447
6.24509
6.56613
6.14764
6.58004
6.65066
6.6071
6.86316
6.44046
5.80584
6.99766
6.08061
6.03591
6.16055
6.13253
6.41954
7.02347
6.43265
5.95367
5.52692
6.60078
6.09404
6.82304
5.97563
6.11155
6.24595
6.3611
5.97986
6.05779
6.30951
6.16865
6.88229
6.30786
6.6112
6.25652
6.52415
6.50299
5.91674
6.89495
6.11171
6.21283
5.95608
6.04067
6.59486
6.42419
6.34154
6.84248
6.26173
6.64898
6.284
6.38095
6.16874
6.02805
6.38211
6.29013
6.62937
6.20266
6.56585
6.36829
6.26361
6.41471
6.3324
6.92783
6.35559
6.38524
6.4202
6.14154
5.97162
5.88102
6.71243
6.5049
6.26261
6.89785
6.48259
6.08245
6.14964
6.51272
6.56774
6.79668
6.12014
6.02366
6.06466
5.91958
6.11121
6.76106
6.55216
6.4074
6.28448
6.02209
5.92046
6.13198
6.29044
6.17877
6.42948
6.03736
5.76972
6.24202
6.70405
6.59797
5.9418
6.26552
6.44835
5.79851
6.3057
6.36216
5.95919
5.90926
6.34402
6.24569
6.13843
6.51092
6.00394
6.53942
6.21043
6.15828
6.30099
6.03487
6.6633
6.38483
6.2601
6.24243
5.95764
6.24053
6.00511
5.65201
6.52731
6.1136
6.8284
6.52064
6.61529
5.78881
6.22207
6.50083
6.66208
6.33592
6.14936
6.11689
6.43959
6.16686
5.90799
6.39578
6.35194
6.27377
6.05596
6.27906
7.02258
5.8881
6.15868
6.09112
6.50685
5.9077
6.52627
6.2864
5.8673
6.43045
6.55296
6.23013
6.38371
6.15928
6.31617
6.32116
5.76018
6.13814
5.77901
6.13946
6.07373
6.26541
6.21012
6.2161
6.39907
6.3293
6.7461
6.62192
5.8554
6.5474
6.36106
5.84269
6.62068
5.8143
6.25198
6.60917
6.81673
6.43771
6.32447
5.79056
6.20147
6.71755
5.91977
6.31423
6.04432
7.0031
6.4381
6.47325
6.49302
6.44185
6.43996
6.52825
6.19214
6.15542
6.36502
6.40897
6.06823
6.40376
6.17056
6.51864
6.47304
6.07133
5.91651
6.64041
6.75262
5.95435
5.97352
6.31748
6.73771
6.098
6.19842
6.57839
5.93142
5.78139
6.1166
6.48601
6.0716
6.20574
6.22112
7.48985
6.3048
5.71587
6.11492
6.41297
6.35557
6.24251
6.45008
5.78214
5.923
6.20945
6.26678
5.83556
6.37233
6.31431
5.94429
6.41616
6.46322
6.18684
5.94433
5.87808
6.21213
5.88558
5.80439
6.6616
6.02741
6.9674
6.40473
6.23841
6.36567
6.18956
5.96642
5.96253
5.77855
6.26081
6.73279
6.04188
6.30219
5.75883
6.15499
6.23491
6.223
6.50773
5.98753
6.23084
5.91635
6.75819
6.53554
6.60494
6.07498
5.98131
6.23713
6.54074
5.84819
6.53013
6.63132
6.25772
5.85418
6.33988
6.58996
6.05305
6.60058
5.82783
6.20108
6.59904
6.39353
6.61761
6.21696
7.19036
6.5547
6.06329
6.1662
6.28748
6.02576
5.79154
6.51712
6.02944
6.1006
5.87384
6.43842
6.49025
6.28495
6.05997
6.14709
7.08811
6.38058
6.20428
6.36672
6.08281
5.78883
5.82347
6.20893
6.11557
6.21807
5.73401
6.72125
6.16539
6.14989
5.9072
5.94853
6.13967
6.51416
6.19616
6.331
5.90606
6.03672
5.77956
6.78204
5.88927
6.28889
6.03682
6.32926
6.27851
6.9568
6.0649
5.9046
5.90451
6.23644
5.57749
6.15674
5.9518
6.63001
6.11573
6.29987
6.41724
6.41852
6.49242
6.00913
6.89981
6.90961
6.3088
6.69385
6.00435
6.25958
6.18348
6.18622
6.24173
6.5385
5.81562
6.49822
6.25806
5.83475
6.43497
6.25845
6.62925
6.2454
5.84147
6.66269
6.16618
6.02199
6.37016
6.23776
5.42799
5.99937
5.77205
6.35694
6.3414
6.08391
6.0929
6.44562
6.23096
6.27262
6.36104
6.24705
6.50425
6.57136
6.18964
7.04649
6.35517
6.26348
6.32738
6.88255
5.76317
5.942
6.76038
6.19273
5.83536
6.19937
5.75311
6.23128
6.44827
5.69262
6.14448
6.18982
6.07358
6.25159
6.94703
6.76489
6.25711
6.66654
6.77067
6.22675
6.37936
5.90575
5.90831
5.71473
6.91182
6.56193
6.79695
6.59043
6.28326
6.49798
5.89085
6.15856
6.32524
6.18709
6.28058
6.05206
6.07153
6.16587
6.15321
6.04774
6.36089
6.10447
6.53485
5.96819
5.98249
6.42071
6.08168
6.07672
6.15471
6.4878
6.20625
5.9762
6.24438
6.08434
6.09715
6.40143
6.74695
6.10104
5.94703
6.06946
5.95282
6.06962
6.06742
6.01399
6.12383
6.55544
6.23848
6.52811
6.35029
6.07422
6.24044
6.3404
6.71165
5.99122
6.09111
6.48609
6.21643
5.9511
6.27197
5.95314
6.07155
5.97028
6.4439
6.8842
6.36366
6.22108
6.24337
6.53182
6.29744
6.06779
7.42637
6.15452
6.27519
6.47481
6.5807
6.51585
6.30445
6.26289
6.35167
6.26096
6.45172
6.20682
6.05544
5.80624
6.20114
6.83752
6.30489
6.39431
6.55419
6.13143
6.38172
5.9921
6.35575
5.80262
5.89276
6.05577
6.14909
6.30155
6.45226
6.271
6.92236
6.46398
6.48404
6.30487
6.01387
6.51428
5.88254
5.88313
6.33362
6.2841
6.02828
6.2964
6.86486
6.15711
6.69405
5.83118
6.22991
6.26016
6.30273
6.30658
6.06999
5.96768
6.81745
6.21674
6.12949
6.7927
5.98563
6.16421
6.22962
6.36758
6.35951
6.17378
6.18727
6.0246
6.36445
6.35783
6.40745
6.40333
6.27019
6.21041
6.2507
6.24382
6.32816
6.55243
6.44937
6.34576
5.86636
6.20688
5.86469
6.26871
6.09086
5.97408
6.16453
6.13492
6.20255
6.27977
6.24069
5.89365
6.66571
6.46486
6.02589
6.42003
6.37933
5.95339
6.17342
6.63278
5.85335
6.29686
6.58579
5.9046
6.29039
6.40696
6.07166
6.17287
6.38961
6.45662
6.30645
6.60603
6.0136
6.58625
6.76504
6.1878
6.07468
6.83903
6.32701
6.25375
6.57269
6.10451
6.20782
6.10539
6.16428
6.65038
6.06817
6.34594
5.93661
5.88154
6.43289
6.25872
5.70282
5.88161
6.15483
6.01525
6.5295
6.39815
6.51922
6.11656
6.34277
6.53663
6.04225
6.61554
6.13604
5.88187
6.4572
6.65417
6.22343
6.5092
6.19342
6.59311
6.31892
6.76857
6.30962
6.28202
6.33779
6.55127
6.46903
5.6702
6.39624
6.26155
6.57074
6.02657
6.41203
6.07434
6.4056
6.39675
6.04244
6.45834
6.08044
5.88039
5.98927
6.48741
6.32015
6.04171
6.73978
6.12175
6.46268
6.79687
6.99259
6.18972
6.31242
6.37217
6.72763
6.53633
5.97474
6.13009
6.04351
6.78046
6.11224
6.88624
5.82995
6.83973
6.13383
6.51908
6.29148
5.73276
6.3423
6.41599
6.7069
5.64921
6.19637
6.72064
6.7643
6.55293
5.87561
6.93111
6.43913
6.53404
7.03032
6.41779
6.11559
6.23226
6.2451
6.86774
6.15127
5.78257
6.39752
6.17652
6.34899
6.15506
5.90649
6.22126
6.6173
6.41649
6.00473
6.04425
6.24632
6.62551
6.30491
5.78553
6.16285
6.53308
6.30865
6.55563
5.70369
6.03198
6.58124
6.09747
6.33239
6.2932
6.6373
6.2121
6.01261
6.19832
6.11776
6.36635
6.17905
6.4765
6.04339
5.67871
6.17977
6.35913
6.04034
6.08913
6.39935
6.24051
5.9024
6.51144
5.86933
5.55425
6.02581
6.44959
6.03756
6.29066
6.21564
6.44717
6.49218
6.22394
6.1585
5.90264
6.24591
5.84241
6.38149
6.2377
6.05234
6.24378
6.15473
6.4371
6.19699
6.09291
5.91915
6.21933
6.13927
6.25946
6.11862
6.18552
6.49
6.69061
6.40011
6.56486
6.14653
6.41106
6.67883
6.09454
6.35972
6.66576
6.08504
6.33669
6.79088
6.84262
6.02009
5.92829
6.53855
6.5856
5.91467
5.96382
5.84524
6.61009
5.78481
6.17148
6.09978
6.00053
7.05571
6.94721
6.59891
6.06721
6.15401
6.71894
5.76506
6.27416
6.40805
6.30167
6.13343
6.03479
6.35931
6.29143
5.95203
6.35235
5.96905
6.04826
6.42906
6.31037
6.4395
6.55486
6.6021
6.51479
6.93112
6.66256
6.42461
6.9719
6.48405
7.05857
6.03899
6.19243
6.22759
6.23531
6.77446
6.22007
6.14758
6.39216
6.53231
6.30201
6.05281
6.2717
6.65881
6.60363
5.8719
6.27605
6.05118
6.90346
6.73628
6.42517
6.89077
5.81822
6.10298
6.50518
6.84678
6.27864
5.68738
6.01919
6.38017
6.00601
6.60941
6.03859
6.35578
6.04381
6.80908
6.43437
6.53159
6.2359
6.15526
5.94486
6.31433
6.16047
6.1796
6.60409
6.96273
6.96941
6.04098
6.4734
6.2615
6.34048
6.12374
6.12641
6.33198
6.33947
6.11805
6.30881
5.89106
6.62441
6.50531
6.04586
6.00741
6.16126
7.04116
6.43138
5.93049
6.00442
6.68467
6.61362
6.60479
6.48598
6.59179
6.47874
6.42346
6.36032
6.0249
6.30663
6.06399
6.4849
5.63882
6.19133
5.7787
6.01409
6.40886
6.40716
5.99203
6.25738
6.48486
6.19734
6.10272
5.99343
6.06955
6.37562
6.0764
5.79657
6.6775
6.15611
5.95652
6.4084
6.41342
6.49738
6.47076
6.28521
6.54443
6.0451
5.96062
6.47985
6.31419
6.16225
6.18242
6.28342
6.36627
5.96371
6.17633
6.83339
5.9302
6.18776
6.22729
6.68763
6.12527
5.65469
5.74289
6.64355
6.48454
6.26187
6.00583
6.45549
6.44929
6.20861
6.07603
5.98122
6.4167
6.10553
6.80524
6.45893
6.3003
6.42988
6.25494
5.74756
6.12777
6.74518
6.51919
6.10912
5.86027
6.01742
6.83473
5.9541
6.2504
6.41432
6.23853
6.28766
6.11259
5.90757
6.369
6.7145
6.05746
6.3578
6.09255
6.06535
6.02122
6.17922
6.58083
6.54175
5.64347
6.03779
6.22414
6.58102
5.79375
6.81411
6.06559
6.21061
5.92915
6.36419
6.19529
6.44712
6.79114
6.414
6.26521
6.23
6.13649
6.43632
6.47397
6.1786
6.50514
6.36846
6.00822
6.59392
6.35147
6.11393
6.687
6.19749
6.45057
6.04487
6.85437
6.07633
6.64591
6.20441
6.00392
6.15141
6.64354
6.2471
5.8437
6.55611
5.99438
6.92004
5.99102
5.64107
6.26806
6.56455
6.61427
6.22021
6.56302
6.01774
6.69922
6.26304
6.46763
6.35808
6.17085
6.40146
5.9133
6.59692
6.09627
6.65162
6.52825
6.94133
6.12404
6.16122
6.16955
6.85745
6.48121
5.69002
6.22902
6.19805
6.10189
6.05194
6.17453
6.49674
7.3541
6.38158
6.08261
6.13719
6.16167
6.23997
6.31537
6.62016
6.21501
5.87025
6.0568
6.04894
6.4908
6.16372
5.82632
6.60994
6.54968
6.49564
6.32266
6.13745
6.15754
6.4361
6.45363
6.67986
6.15265
6.07726
6.07726
6.28733
5.6928
6.28061
6.38329
6.49397
6.233
6.04956
6.33706
6.28406
6.21512
5.95089
5.97398
6.1312
6.65958
6.82533
6.22852
6.24268
5.98795
6.16098
6.39904
6.17648
6.09916
6.62581
6.33657
6.50452
6.45654
6.23592
6.42014
6.17141
6.05696
6.48826
5.85173
6.59793
6.30354
6.27364
5.91823
6.74921
5.76068
5.78623
6.28402
6.25995
6.03054
6.56086
6.53609
6.03356
6.09744
5.8839
6.29198
6.22491
6.42191
5.92547
6.44495
6.17637
5.88756
6.00845
6.47311
6.43053
6.38538
6.02511
5.97381
6.74021
6.24742
5.7031
6.43732
6.09757
6.41185
6.12609
6.14151
6.40739
6.15634
6.05331
6.68531
6.12361
6.25352
6.43796
6.01709
6.55787
6.26248
5.99723
6.60992
6.93819
5.95223
6.24932
6.66652
5.93508
7.01971
6.10735
6.39779
6.23256
6.45802
5.96964
6.67387
5.99203
6.31666
6.03567
6.22542
6.35143
6.03929
6.17996
6.2843
6.14892
6.15802
6.19581
6.50605
6.41161
6.12895
6.21599
6.15075
6.70341
6.5312
5.74195
6.33659
6.33968
6.18206
6.46019
6.5327
6.25663
6.14333
6.30526
6.14494
6.50559
6.45665
6.39722
6.61658
5.89612
6.49152
6.24145
6.21116
6.796
6.18216
6.07557
6.78111
6.14951
6.42544
7.18648
6.1023
6.41826
5.83181
6.10621
6.06105
6.09657
6.24882
5.97939
5.77945
6.27287
6.38493
6.08523
6.34363
5.85636
5.98009
6.23324
6.14935
6.64333
6.50445
6.13435
6.31433
6.36634
5.90916
5.84782
6.07592
6.29355
6.30118
5.7604
6.02768
6.11439
6.51916
6.30651
5.97526
6.4389
6.9911
6.75338
5.86298
6.38148
6.89821
7.1018
6.13084
6.18563
5.82259
6.19088
6.21258
5.73049
6.18187
6.68273
5.98857
6.09014
6.78669
6.25799
6.13293
6.38277
6.28103
6.51417
6.8091
6.08617
6.23064
6.4905
6.21152
6.32929
5.98364
6.57878
6.14811
6.2945
6.15083
6.4067
6.3176
6.40852
6.22576
6.55538
6.35248
6.86708
6.15592
6.12174
6.39494
6.56521
6.47172
6.30531
6.41843
6.14086
6.01478
5.98245
6.11193
6.3298
5.7344
6.15898
6.26803
6.78264
6.50127
6.61991
6.18008
5.95053
6.37251
6.27903
6.9811
6.19255
6.3131
6.16886
5.92957
6.30482
6.4007
6.30557
5.97044
6.75248
5.95886
6.4777
6.23958
6.05387
6.48301
6.22553
6.54949
6.42678
6.52139
6.32284
6.06169
6.55869
5.76734
6.46049
6.17816
6.44911
6.30275
6.29165
5.73186
6.15797
6.51535
5.89472
6.63686
6.30671
6.46956
6.40974
6.44024
6.19302
6.44845
7.16541
6.0413
5.99982
5.90894
6.00244
6.06664
6.61261
6.2577
6.64144
7.04023
5.93558
6.0289
6.53373
5.91315
6.29198
6.19213
6.6256
6.27252
6.43919
6.242
6.56339
5.95333
7.13081
6.15932
6.1593
6.61195
7.00474
6.28277
6.63256
5.94389
6.64922
6.46512
6.64862
6.13628
5.59789
6.11966
6.45912
6.06789
6.64044
5.99702
5.95179
5.99999
6.48622
5.96769
6.03755
6.34713
6.19902
6.00317
6.62667
6.61405
6.35551
6.50268
6.32821
6.00582
6.37874
6.39981
6.49545
6.18405
5.95166
6.51635
6.08707
5.98694
6.75409
6.53034
5.80436
6.23305
6.21371
6.64836
6.43671
5.97745
6.23995
6.01847
6.46344
6.04957
6.16709
6.44649
6.15118
6.51385
6.59659
6.04223
6.36482
6.14982
5.67877
5.95196
6.31533
5.91588
6.30843
6.36165
6.28621
6.31135
6.92317
6.67507
6.74513
6.73408
6.07578
6.27588
6.38022
7.35406
6.65929
6.07113
6.69528
6.49059
6.61366
6.14644
5.89997
6.84295
6.16558
6.51898
6.55983
6.26822
6.04391
6.18561
6.12431
6.33032
6.27296
6.51734
6.39996
6.34603
5.99968
6.23693
5.79734
6.31301
5.83419
6.05322
5.94213
6.62244
6.33824
6.41501
6.51669
6.37233
6.11294
6.18965
5.8967
6.02121
6.0011
6.78695
6.51774
6.73358
6.15801
6.52244
6.45583
6.41661
5.85726
6.44438
6.4923
6.02365
6.36565
6.40044
6.58116
6.41604
6.27095
6.22532
5.99
6.29025
5.95909
5.87705
5.85949
6.11919
6.11925
6.46557
6.12524
6.15739
6.23087
6.45686
6.33531
6.10114
6.28827
6.26391
6.1462
6.167
7.0409
6.05056
5.74807
6.10087
5.98248
5.84117
6.5726
6.60428
5.80964
6.34934
5.62333
6.16611
6.71165
6.13047
5.77187
5.81948
6.68798
6.43025
6.10061
6.17733
6.36305
6.81198
5.62443
6.76059
6.14344
6.39214
6.12804
6.15849
5.85173
5.78586
6.5072
5.81958
6.17908
6.7396
6.6952
6.11822
6.12306
6.27751
6.38855
6.5931
6.49702
6.88001
6.17236
5.88352
6.54948
5.75688
6.38921
5.67861
6.6368
6.13527
6.11533
6.61883
6.29147
6.37634
6.30291
6.73425
6.68866
6.30245
5.86221
5.55774
5.63402
5.91127
6.61687
6.12731
6.58509
6.94724
5.86355
6.2068
6.25616
6.40783
6.08014
6.05112
6.30811
5.77816
6.61743
6.46778
6.35127
5.84858
6.41272
6.15483
6.33483
5.99068
6.32593
6.52122
5.81659
6.33467
5.98121
5.99849
5.6842
6.42443
6.14664
6.39768
6.44227
6.15364
6.29234
6.20236
6.39576
5.73864
5.82761
6.52225
5.89923
6.10062
6.18052
6.52998
6.45282
6.5185
6.30204
6.25944
6.54223
6.45746
6.6405
5.86854
6.22249
6.83304
6.01577
6.02044
6.13196
6.14167
6.24769
6.45561
5.93616
5.91169
6.20635
6.52501
6.20063
6.00394
6.27913
5.82241
6.072
6.28436
5.86047
5.79397
6.17022
5.66752
6.34923
6.62346
6.64887
6.10746
6.45995
5.99083
6.03448
6.25358
6.31752
6.20537
6.66239
6.00106
6.47087
6.18483
6.35845
5.84032
6.72875
6.40204
6.01277
5.61166
5.92128
6.83164
6.61433
6.56359
6.27323
6.35841
6.6103
6.13512
6.36801
6.17099
6.09436
6.65932
6.56998
6.22638
6.42999
6.08874
6.206
6.14169
5.82701
5.79929
6.13397
6.18873
6.14613
6.10466
6.09215
7.06086
6.63518
6.14728
6.77474
6.73397
6.47382
6.58657
6.45854
6.01043
6.92065
6.24704
6.2851
6.10507
6.49775
6.21067
6.27884
6.17903
6.20649
6.12861
6.3409
6.79915
6.24309
6.93123
5.3716
5.9906
6.26578
6.21598
6.32257
6.4623
6.14057
6.19297
5.79733
6.30726
5.91929
5.92484
5.75614
6.25426
6.35508
6.43796
6.65775
6.6236
6.34397
5.99958
6.13784
6.52712
5.95912
6.15749
5.69837
7.05701
6.27968
6.16305
6.49322
6.18514
6.29327
6.20271
6.28405
6.20942
6.20109
6.29848
6.99647
6.44464
6.11582
6.67333
6.27885
6.30625
6.3607
6.42638
6.6287
5.86755
6.49915
6.31155
5.94159
5.91848
6.74741
6.26037
5.99967
6.87354
6.48774
6.29771
6.52071
6.43134
5.99982
6.22482
6.60037
6.35687
6.00915
6.29282
6.35682
6.39461
6.70202
5.95873
6.50705
6.79252
6.79608
6.33588
6.65197
6.51159
6.43476
6.7788
5.78517
6.36603
6.3249
6.3682
6.25528
5.96523
6.10352
6.24717
6.11116
6.04738
6.53259
5.96488
6.27926
6.48248
6.76334
6.51206
6.19258
6.80172
6.32662
5.99216
6.78504
6.51214
6.72083
6.36844
6.2056
6.16354
6.22667
6.09798
6.28608
6.17316
6.70468
6.30434
6.57642
6.48835
6.10427
6.28498
5.73111
6.00608
5.93627
6.42085
6.21023
6.48514
6.33746
6.22039
6.58377
5.70009
6.48571
6.43491
6.03297
6.04581
6.29383
6.86611
6.10078
6.11297
6.39092
6.22325
6.35438
6.08763
5.74524
6.21761
6.66855
6.40716
5.96083
5.90084
6.49597
6.23533
6.50947
6.33577
6.1516
6.35565
6.09724
6.01357
6.89637
6.16299
6.9901
6.1446
6.24306
6.55858
5.94591
6.49202
6.85456
6.09361
6.25691
7.18713
5.99568
6.23921
6.51372
6.46545
6.05741
6.51154
6.20334
6.17902
5.94132
6.29634
6.5327
6.49602
5.47558
5.98093
6.10074
6.19623
6.21061
6.74415
6.58274
6.33059
6.25273
6.20402
5.98338
6.7344
6.13781
6.3751
6.45733
6.03328
6.08276
6.78758
6.61459
6.3379
6.00901
6.05182
6.13356
6.4746
6.06907
6.2238
6.73078
6.2474
6.67198
6.30488
6.22687
6.62523
6.13637
6.17644
6.36558
5.95241
5.88036
5.62404
5.74636
5.92657
6.54783
6.72771
5.88879
6.87416
6.22353
5.58208
7.03352
5.97619
5.84138
6.32338
6.12418
6.6955
6.23111
6.36454
6.90792
6.25462
6.25828
6.36954
6.3908
6.07048
6.3965
6.24995
6.8924
6.42377
5.62871
6.3381
6.11637
6.31272
6.51851
5.81002
6.45778
6.18911
6.09524
5.83432
5.91191
6.08633
6.41216
6.19306
5.67919
6.26812
5.79538
5.83173
6.37099
5.91151
6.12704
6.35512
6.17067
6.18055
6.51882
6.73555
6.05745
6.07371
6.27431
6.52508
6.28011
6.20169
6.53362
6.39932
5.93873
6.64722
6.36629
6.37483
6.55253
6.29546
6.73416
6.2953
6.13913
6.30618
6.84804
6.66559
6.3455
5.91663
6.16416
6.60161
6.56535
6.52612
6.56377
6.11973
6.08148
6.29892
6.93344
6.15914
6.06039
6.15261
6.40863
5.90133
6.25698
6.53117
6.26013
6.25309
6.2207
6.02537
6.11387
6.03702
6.41523
5.87056
5.94827
6.17876
6.00298
6.50843
6.2775
6.02669
6.46946
6.1387
6.19673
6.14248
5.98465
6.66322
6.58282
6.35134
5.77725
6.41617
6.4971
5.78912
6.89031
6.28441
6.34024
6.45445
5.94878
6.59737
6.24887
6.31448
6.33958
5.90407
6.44407
6.32858
6.52346
6.76298
6.71979
6.75133
6.19917
6.23161
6.22966
6.40503
6.25075
6.20691
6.08002
6.09166
6.26953
6.50332
6.49293
6.45544
6.79015
6.3134
6.02832
6.00041
5.96199
6.22659
6.32908
7.31585
6.077
6.46753
6.1317
5.9008
6.69085
6.20812
6.33547
6.4337
6.53055
6.41972
6.28381
6.46136
5.89067
5.95355
6.49019
6.14043
6.12279
6.09326
6.2318
6.41747
6.42792
6.34868
6.169
6.33685
6.47479
6.3697
6.44189
6.76224
6.45175
6.29029
6.14696
6.32124
6.61651
6.11853
6.24536
5.82124
5.72738
6.04702
6.3107
6.25132
6.64365
6.51861
6.47918
6.35928
6.32426
6.93912
7.11017
6.46167
6.15156
6.48139
6.76531
5.65667
6.44786
6.53876
6.0824
5.699
6.20983
6.1203
6.74006
6.34446
6.60459
6.65378
6.042
6.33442
6.44261
5.85558
5.98139
5.73101
6.36821
6.73382
6.35286
6.41574
5.54607
6.08108
6.33847
6.80094
6.31967
6.50569
5.94494
6.57832
6.44188
6.10795
5.92418
6.45505
5.46171
6.01262
6.21288
6.17747
6.45472
6.16258
6.28281
6.03093
5.96721
6.31692
6.25652
6.68045
6.17455
5.87506
6.33111
6.38635
6.16576
6.58493
6.25703
6.013
5.73684
6.53975
6.07337
5.98192
6.34857
5.90682
6.10425
6.29179
6.47081
6.40951
6.16745
6.6058
6.03481
6.09966
6.11907
6.14799
6.30132
6.43415
6.96205
6.58235
6.14427
6.0979
6.33052
5.83876
6.20309
6.60695
6.03659
6.21286
6.21089
6.05932
6.27255
6.64757
7.06622
6.95975
6.39265
6.20731
6.51391
6.5061
6.01796
6.04877
6.49529
6.18715
6.49861
6.32658
6.11377
6.48857
6.46027
6.1643
6.53314
6.84402
5.64984
6.26193
6.427
5.82041
6.60892
6.55912
6.23181
6.33161
6.78583
5.95969
6.5678
6.294
7.51194
6.2475
6.18963
6.74691
5.71028
6.45631
6.46166
6.13924
6.17876
6.28915
6.08766
6.53054
6.73144
6.18005
6.44884
6.31858
5.78889
5.91707
6.34689
6.279
5.66948
6.27735
6.40447
6.23625
5.77184
6.64032
6.14159
6.03093
5.90623
5.72114
7.19795
6.25444
6.11113
6.4495
6.13732
6.86264
6.22262
6.07387
6.53596
6.76394
6.52579
6.35426
6.42406
6.38568
6.37937
6.3781
6.66449
6.33163
6.17941
6.03976
6.4807
6.24318
6.33617
6.04629
6.51673
6.07335
6.54658
6.31043
6.2158
6.7081
6.17029
6.3377
6.53357
6.26769
6.49308
6.77287
6.39395
6.67018
6.32317
6.08675
6.49075
6.20247
6.42402
5.83325
6.17546
6.22273
6.40813
6.43383
6.13429
6.27868
6.81161
6.18904
6.13381
6.48993
6.04213
5.60994
6.0482
6.27909
6.33411
6.38664
6.19847
6.00236
5.6985
6.19335
5.90298
6.39351
6.18464
5.94792
6.03759
6.21318
6.15293
5.82197
6.43647
6.27825
6.27578
5.67641
6.22904
5.8833
6.4033
6.90613
6.49685
6.84684
5.74117
6.1109
6.18271
6.0359
6.22009
6.08316
6.35634
5.91043
6.28894
6.41304
6.05489
5.74502
6.25911
6.31249
6.09582
6.05247
6.55707
6.28455
5.98195
6.85839
6.47051
6.15049
6.45886
6.23558
6.02244
6.1647
6.00827
6.00986
5.92816
6.40148
6.47532
6.4221
6.12745
6.33998
6.17368
6.0486
6.45907
6.62123
6.60227
5.84051
5.93762
5.79471
6.69721
6.26816
6.56112
6.24542
6.55697
6.23681
6.49182
6.027
6.2981
6.4588
6.3576
6.30687
6.63344
6.21784
6.00002
5.82828
6.43929
5.82657
6.86202
6.33982
6.28131
5.78342
6.92555
6.54579
6.31426
6.07791
6.17416
6.56395
6.19824
5.99336
6.23192
6.25433
6.55165
6.61115
6.20063
6.68229
6.61509
5.81518
5.87177
6.12286
6.85327
6.13983
6.33651
6.29857
6.79211
5.77341
6.00243
6.72266
6.16033
5.9057
6.67557
6.05351
6.69874
7.14274
6.07296
6.27016
6.22974
6.52738
6.55791
6.10872
6.26745
6.62594
6.71144
6.01638
6.26495
6.12471
6.31864
6.25327
6.09077
6.26784
6.42616
5.95713
6.42104
6.46227
6.33426
5.98349
6.08768
6.84275
6.18009
6.64612
6.38781
6.52955
6.13221
6.20603
6.28076
6.1671
6.21645
6.44793
6.41343
6.55332
6.14277
6.64609
6.65516
6.41356
6.18041
6.63219
6.06573
5.94535
6.48613
6.3395
5.89913
6.11505
6.37754
6.59513
6.05842
6.00275
6.83066
6.48044
6.33403
6.22039
6.34754
6.2557
6.06009
5.95922
6.20319
5.67441
6.30951
6.32391
6.53526
6.25351
6.03945
6.41026
6.60198
6.00447
6.36457
6.21001
6.12798
6.47948
6.49937
6.2787
5.98692
6.28459
6.19268
6.20111
5.66084
6.1902
6.18244
6.22267
6.40558
6.23119
6.19615
6.56168
6.17001
6.37124
6.1801
6.20675
5.86175
6.49279
6.10068
6.60837
6.81399
6.30269
5.88455
6.26995
6.55557
6.29081
6.75481
6.51319
6.16624
6.43607
5.71403
6.38636
6.2026
6.36404
6.08913
6.17877
6.2478
6.28584
5.83046
6.3289
6.62677
6.70942
5.84861
5.87366
6.51547
6.26897
6.64869
5.93767
6.61539
5.78051
6.1697
6.06357
6.07934
6.5126
7.11446
6.13794
6.13214
5.88242
5.99705
6.08188
6.11405
6.00762
6.35611
6.28209
6.469
6.1373
6.36027
6.28681
6.02571
6.19545
6.45909
5.76182
6.46377
6.30266
5.95862
6.07468
6.35153
6.3779
6.228
6.75514
6.5225
6.5608
6.46615
6.05401
6.21869
6.17911
6.30108
6.1996
7.26686
6.55099
6.26436
6.49074
6.15394
6.24574
5.79228
5.9324
5.9051
6.37632
6.88916
6.22012
6.47948
6.49751
6.10222
6.25616
5.8075
6.04367
6.09677
6.36604
6.25708
5.82021
6.43796
6.43237
5.91758
6.21239
6.37897
6.13004
6.26822
6.495
6.62264
6.40476
6.79326
6.55827
6.19086
5.98507
6.19425
6.23
5.81675
5.88427
6.38384
6.29467
5.96373
5.95457
6.00815
5.94719
6.20317
6.2325
5.9692
6.43435
6.11213
6.35784
6.50002
6.12406
6.08478
5.89217
7.00372
6.61011
6.07124
5.70038
5.93428
6.25933
6.33961
6.13684
6.36633
5.89212
6.24188
6.12631
6.10794
6.014
5.97911
6.39285
6.51876
6.24861
6.59362
6.47689
6.41034
6.34899
6.63254
6.02146
6.28411
5.90009
6.84693
6.48143
6.49757
6.01269
6.18021
6.39125
5.72311
5.69937
6.06204
6.7665
6.47328
6.07527
6.05196
6.26096
6.52944
6.09671
6.28529
6.37936
6.80495
6.27977
6.02097
6.61884
6.10927
6.12438
5.885
5.94087
6.97537
6.21911
6.24789
6.8703
6.64278
5.71246
5.97394
6.37019
7.07585
6.09727
6.52251
5.63715
6.15396
6.74094
6.0573
6.21943
6.41836
6.90813
6.32193
6.34474
6.86672
6.22328
6.32761
6.1242
6.25807
5.8571
6.02227
6.04225
6.31084
6.53989
5.98509
6.38322
6.39648
6.29383
5.89375
6.56742
6.53742
6.6502
6.33058
6.10172
6.0466
6.2573
5.86705
6.30897
6.24586
6.27211
6.72107
6.08291
6.34891
6.11741
5.76578
6.45186
6.02686
5.94343
6.50135
6.10655
6.59772
5.78744
6.43064
6.68157
5.93184
6.04846
6.71907
6.26944
6.48771
6.30185
6.19906
6.28026
6.63667
6.37628
6.37709
6.25517
5.84278
6.62334
6.14301
6.26099
6.4127
6.20488
6.4391
5.7584
6.51643
6.22359
5.89474
6.30625
6.43622
5.90283
6.83752
6.23582
5.93109
6.47848
6.85659
6.19115
6.73668
5.86281
6.07418
6.16952
6.2417
6.4646
6.15226
6.04619
6.31065
6.25398
6.0678
5.75262
6.7881
6.17619
6.16842
6.39481
6.19108
6.11255
6.06644
6.11603
6.30768
6.64736
5.94875
6.13498
6.64405
6.36518
6.62291
5.78206
6.06766
5.8776
5.81294
6.44172
6.17287
6.17211
6.26704
6.30221
6.1841
6.18594
6.2591
6.33965
6.18901
6.18133
5.97517
6.58821
6.40363
6.34614
6.19979
6.4536
5.92202
6.28567
6.48896
6.61333
6.31646
5.89286
6.3968
6.20003
6.72548
6.30182
6.22537
6.28641
5.9579
6.06397
6.22673
6.08867
6.23169
6.41488
6.01213
6.39351
6.20866
6.46205
6.10706
6.13201
5.57111
6.23381
7.16936
6.05616
6.37453
6.7557
5.55132
5.89895
6.41155
6.13342
6.74465
6.42252
6.11219
5.87539
6.27016
6.02181
6.58068
6.33343
6.08695
6.7549
6.0896
6.14613
5.84184
6.19844
6.18974
5.82671
6.6461
6.38517
7.95889
6.03417
6.14727
6.1486
6.01053
6.69165
6.43236
6.14711
5.89235
5.8801
6.34933
6.40375
5.83924
5.9352
6.11273
5.88418
6.47371
6.33818
6.65551
6.76395
7.09607
6.9749
6.63966
6.11758
6.00649
6.19554
6.14128
6.31824
6.76014
6.29966
5.74973
6.57283
6.05488
5.75392
6.8525
6.9056
6.0786
6.03306
6.58593
6.47157
6.3239
6.77583
6.61255
6.04389
6.43262
5.79305
6.47842
6.53315
5.72441
5.7567
6.2672
6.07327
6.31281
6.58555
6.35336
5.87942
6.58946
6.8227
6.41989
6.11771
6.38737
6.53905
6.61119
6.73269
6.34807
6.34111
5.85319
5.8966
6.52287
6.28554
5.92209
6.06663
6.36014
6.27806
5.69566
6.25879
6.09834
6.41467
6.13834
6.44184
6.3242
6.34267
6.2802
6.32203
6.28637
6.33223
6.11913
6.01255
6.54482
6.75021
5.92441
6.63351
6.19702
6.21319
6.30871
6.50408
6.06206
6.29174
6.17944
5.97713
6.83206
6.52654
6.1603
6.34336
6.48215
6.21453
6.59732
6.12054
6.37946
6.54974
6.18104
6.30825
6.37397
6.18418
6.44676
7.69648
5.83285
6.28722
6.59996
6.33159
6.12369
6.16517
6.2644
6.12655
6.27034
6.66267
6.42114
6.21755
6.10594
6.08785
6.40792
6.3115
6.69087
5.81726
6.13424
6.10284
6.16268
6.42357
6.15499
6.1316
5.87096
6.15635
6.98595
6.28132
6.21462
6.05975
6.27154
5.60311
6.4613
7.00121
6.40635
6.3212
6.027
6.07221
6.17699
5.99482
6.16686
7.03185
7.04102
6.65958
5.97341
6.32064
6.1992
6.1259
6.34984
6.02572
6.60217
6.05642
6.00391
6.26392
6.22733
6.10075
6.41413
6.56337
6.02924
6.10555
6.69562
6.60467
6.25898
6.58185
6.02898
6.21271
6.49551
6.8274
6.39563
6.36758
6.48759
6.43976
6.07025
6.18366
6.0612
6.29503
5.69139
6.72562
6.51362
6.65152
6.04838
6.38364
6.09466
6.38116
6.59391
6.4197
6.2673
6.19103
6.11591
6.31168
6.17625
6.21197
5.99045
5.95419
6.29846
6.11088
6.67654
7.1071
6.55082
6.77261
6.53742
6.24969
5.73213
6.27456
6.3106
6.25598
6.43138
6.66831
6.00269
5.99654
6.37533
6.06817
6.08283
6.04787
6.55215
6.34433
6.27112
6.8639
6.01467
6.22408
6.13984
6.25296
6.18776
6.67833
6.03495
6.13644
6.25838
6.49085
6.39606
6.17026
6.42619
6.62194
6.60662
5.98886
6.57629
6.10761
6.24144
6.44714
6.34304
6.37651
6.37706
6.19561
6.26682
5.8492
6.28937
6.40112
6.93002
6.30362
7.02484
6.3458
6.11648
5.99147
6.68361
6.20099
6.80589
6.11377
6.48691
6.07203
6.12935
6.20018
6.42785
6.44561
6.47592
6.05931
6.69352
6.17614
6.35242
6.28817
5.83034
6.40743
6.31836
5.83061
5.84894
6.67656
6.33641
5.94534
5.76132
6.20505
6.26797
6.26119
6.48777
6.75743
6.1017
6.40742
6.09355
6.54364
6.32594
6.76779
6.05061
6.07975
6.11908
6.40601
6.03523
6.62403
6.45207
6.10122
6.17282
6.02134
6.2802
6.30019
6.44664
6.17266
6.38111
6.33197
6.71504
6.27078
6.30495
5.95007
6.02137
6.11972
6.24668
5.7807
6.32246
6.14145
6.5788
6.13711
6.70468
6.76188
5.92276
6.54294
5.643
6.35142
6.69807
6.40338
5.77883
6.50205
6.67099
6.07687
6.34251
5.9495
6.21319
5.91841
6.13009
6.33996
6.53911
6.2442
6.56871
6.77624
6.3217
6.92717
6.69527
6.40949
5.88776
6.80183
6.58203
5.69874
5.79439
6.17577
5.95147
6.34216
6.87168
6.27355
6.41959
6.26098
6.21217
5.97231
6.18864
6.33061
6.27075
5.95253
6.21599
6.27283
6.7681
6.49595
6.50909
6.62448
5.9768
6.51484
6.15187
6.46744
6.21766
6.16825
6.5015
6.25582
6.20579
6.18011
6.44576
5.8992
6.32848
6.01732
6.66501
6.21228
6.29832
6.21338
6.45008
6.32082
6.45202
6.61611
6.11873
6.58403
6.40507
6.31309
6.27879
6.04037
6.18322
5.955
6.52026
7.14281
6.66556
6.11257
6.17179
6.22253
6.2675
6.15828
6.47818
5.95942
7.22588
5.83912
6.5086
6.41554
6.1396
6.21516
6.39649
6.2165
5.97591
6.28658
6.12302
6.71684
5.8454
6.06325
5.73859
6.382
6.13449
6.10769
5.91286
6.29017
6.35237
6.02039
6.71427
6.38604
6.40569
6.89191
6.132
6.22138
6.45403
6.99153
6.35663
5.60547
5.72608
5.86563
6.26804
6.12064
6.18208
6.52605
5.8567
6.61528
6.35185
6.06872
6.79181
6.20065
6.35755
6.76944
6.45831
6.21879
6.49856
6.25129
6.26379
5.94932
6.49161
6.39907
6.34695
6.39052
6.11765
6.29366
6.20073
6.27931
6.42125
6.62516
6.15562
6.02634
6.34984
7.14043
6.34153
6.25612
5.88565
6.19698
6.37124
6.04738
6.28486
6.10196
6.04626
6.64316
6.59346
6.26379
6.508
5.88123
5.86511
6.39992
6.14449
5.77879
6.53648
6.07305
6.0669
6.28034
6.17002
6.6067
6.49475
6.70406
6.96105
6.53123
5.88964
6.02801
6.55238
6.02295
5.80885
5.95338
5.95793
6.47133
6.53798
6.23944
6.62432
6.34233
6.12875
6.48695
5.78559
6.21105
6.01358
5.74054
5.76559
6.17053
6.2654
6.48509
6.07293
6.40608
6.55002
7.11935
6.29618
5.8516
6.43076
6.42857
6.01423
6.1626
5.88928
6.30627
6.39239
6.10119
6.26439
6.29429
6.26187
5.92563
6.14247
6.2864
6.34329
6.10377
5.89822
6.75758
6.34218
6.35278
5.98933
5.93872
6.27665
6.13517
6.25869
5.80922
6.08161
5.9573
6.11871
6.23451
5.88023
6.02945
6.30841
6.10717
6.32131
6.23812
6.37704
6.13041
6.25366
6.95885
5.8489
5.92043
5.95202
6.00718
6.33999
6.47516
6.23539
6.10102
6.87501
5.97905
5.83686
6.15158
6.18833
6.10271
6.09753
5.89733
6.75054
5.84563
6.15704
6.37255
6.25728
6.40117
6.35855
6.11712
6.42646
5.93767
6.52638
6.77698
5.95585
6.09718
6.31318
6.27729
5.84454
6.05832
6.49918
5.92201
6.56291
6.18589
6.12315
5.77342
5.92621
6.35816
6.03814
6.29584
6.10828
6.60161
5.95527
6.15586
5.84701
5.94274
6.55745
6.32756
5.93108
5.84822
6.31368
6.12869
6.33276
6.14378
6.24114
5.91434
6.21406
6.17936
6.38386
6.40923
6.01726
5.92028
6.61784
6.30527
6.40674
6.53728
6.17002
6.12168
6.29885
6.11007
6.11561
6.38813
6.21209
6.18733
6.65658
6.27036
7.05643
6.1653
6.34064
5.72667
5.85742
6.15952
6.37038
6.48384
6.60984
6.45191
6.25265
6.01034
6.36329
6.6244
5.97759
6.46731
6.57448
6.06556
6.26353
6.17377
6.2317
5.75643
6.63576
6.40045
6.11738
7.07389
6.2709
6.68467
6.02653
6.86258
6.21566
6.06211
5.99367
6.31908
6.31706
5.71505
6.30464
5.88373
6.38212
6.1958
6.55403
6.10801
6.23844
6.11898
6.20999
5.83163
6.05476
6.73258
6.5181
5.83814
6.4694
6.36682
5.99524
6.44421
6.50576
5.81689
5.98798
6.02027
6.53075
6.38407
6.2374
6.56474
6.16932
6.54282
6.13018
5.84895
5.7402
5.84952
6.36018
5.98966
6.12398
6.53726
5.6779
6.58631
6.66882
6.40718
6.16702
6.16693
6.18775
6.25218
6.44382
6.43062
6.80188
6.15907
6.16383
6.11781
6.19956
6.29392
6.33812
6.07446
5.96547
6.19957
7.03654
6.40529
6.46239
6.18904
6.21109
6.31719
6.49991
6.00653
6.23049
6.42654
6.11967
6.06864
6.48734
6.18055
6.37767
6.3318
6.43337
6.43741
5.92247
5.95279
6.25431
6.0551
6.46983
6.03858
6.90056
6.25194
6.18421
6.60463
6.34545
6.25557
6.78203
6.52884
6.01839
6.31865
6.27083
6.22837
6.12836
6.5638
6.10784
6.71716
6.04513
5.96639
6.56661
6.11614
6.65031
6.38083
7.09468
6.20731
6.27542
6.6286
6.33278
6.13918
5.91232
6.70914
6.29327
6.27095
6.17267
6.17465
6.39958
6.36044
6.36711
6.52991
6.17868
6.28076
6.6286
6.05846
6.03495
6.53982
5.88367
6.22454
6.25458
6.5657
5.95967
6.62064
5.87619
6.19047
6.51011
6.95339
6.24763
5.87332
5.97386
6.24981
6.28119
6.16382
6.3413
6.32518
6.20184
6.01091
6.68599
6.58608
6.49704
5.99209
6.47298
6.51325
6.44455
5.93803
5.84127
6.15829
6.19678
6.4974
6.25994
6.27589
6.22041
7.0363
6.22161
6.16913
6.51318
6.26821
6.51969
6.39523
6.17659
6.35213
6.02425
6.1705
6.49081
6.25485
6.03542
6.25538
6.37136
6.83245
7.16373
6.14325
6.00198
6.27486
6.15544
6.01747
6.5543
6.22577
6.67113
6.42697
6.27463
5.94174
6.37876
6.37981
6.1196
6.38502
6.53854
7.59341
6.02431
5.92668
5.77803
6.12001
6.30016
6.42291
6.98565
6.26776
5.88844
6.19369
6.2359
6.46753
6.17097
6.40839
6.14023
6.25605
6.40463
6.29962
6.69451
5.97617
6.27765
6.25956
6.38862
6.20998
6.47828
5.94473
6.83123
6.71898
6.19471
6.29639
6.32414
6.02555
5.8008
6.57243
5.9236
6.02959
6.14007
6.89077
6.28681
5.8264
5.80213
5.97132
6.39478
6.98277
5.97305
6.14096
6.19424
6.48115
5.78347
6.02646
6.54249
5.96063
6.3
6.26253
6.12294
6.4353
6.60087
6.82923
6.2123
6.54117
6.22379
6.12317
6.25557
6.40319
6.89901
5.92158
6.94756
5.8875
6.29008
6.16826
6.30402
6.69324
5.77462
6.35077
6.25537
5.87483
6.20961
6.23152
6.2404
5.80464
6.23223
6.30453
6.53701
6.24081
6.22708
6.32599
5.99939
6.10126
6.13615
6.73513
6.16658
5.90082
6.31698
6.38985
5.89526
6.05141
5.87317
6.33018
6.68087
6.24867
6.61008
5.81903
5.87656
6.21068
6.20366
5.83505
6.30153
6.68682
6.15384
6.79368
6.51277
5.8285
6.59913
5.84411
6.78556
6.681
6.44406
5.95298
6.01602
6.707
6.4261
5.73825
6.73543
6.03878
6.77675
6.85279
5.92187
6.03147
6.38584
6.41436
5.95224
6.25433
5.8624
6.28848
6.04368
6.25611
6.34008
6.79242
6.41887
6.33584
6.1572
6.51877
6.08883
6.11437
6.25043
5.84534
6.02269
6.26137
6.21683
6.28215
6.74051
6.01357
6.72156
7.04931
6.5418
5.65831
6.81631
6.14624
6.28773
6.41232
5.9144
5.96407
6.23041
6.33205
6.451
6.71478
6.14134
6.73269
6.39116
6.06781
6.01392
6.56142
6.74451
6.40794
6.30778
6.56735
5.90341
6.78954
5.97334
5.9354
7.45115
6.33414
6.24858
6.20383
5.96281
6.0279
5.96088
6.39654
6.31377
5.8854
6.58487
6.44994
6.19204
6.53651
6.41817
6.65995
5.84128
5.90742
6.24374
6.25108
6.3399
6.10654
6.31274
6.21068
6.12998
6.09714
6.35406
6.29385
5.83669
6.33761
6.54512
6.73211
6.11829
6.31628
6.30142
5.97109
6.06678
6.36138
6.1239
6.33021
6.18332
6.41028
6.6794
6.5192
6.35933
7.05961
6.62735
6.09941
5.69755
5.81599
6.31237
5.90564
6.91515
6.80426
6.52783
5.9293
6.26316
6.34758
6.38748
5.98785
6.02408
5.91828
6.02309
6.46227
6.09386
6.21587
5.7863
5.85925
6.29239
6.20487
6.44728
5.67621
6.0242
6.49766
6.0753
6.20233
6.69923
6.25196
5.89119
6.48504
6.70202
6.21112
5.81399
6.50619
6.85337
6.4758
6.18394
6.01156
6.09457
6.02209
5.88217
6.41205
6.42139
6.04064
5.86795
6.28914
6.25451
6.3546
6.26512
6.76512
6.23715
6.02865
6.35419
6.3486
6.44186
6.18526
6.11127
6.13903
6.2982
5.84257
6.39792
6.30967
6.2433
5.97155
5.99153
7.17341
6.14875
5.98032
5.94984
5.9689
6.33903
6.42289
6.71787
6.45465
6.45798
6.32783
6.59257
5.8202
6.34137
6.70041
5.98967
6.16065
6.26171
6.04966
6.41837
5.98046
6.03227
5.94176
6.5454
5.77753
5.7271
5.90606
5.9757
6.386
6.72369
6.67303
6.58116
6.37941
6.52739
6.66888
6.71968
6.54249
6.21212
6.47434
5.9669
6.16327
6.60591
6.19439
5.85723
5.6483
6.52412
5.96426
6.34555
6.45205
6.21408
5.95421
5.9865
7.02184
6.47715
6.418
6.78519
5.85913
6.1235
6.35038
5.967
5.99869
7.13864
5.86806
6.40252
6.37689
5.90457
6.46118
6.6015
6.56178
6.49792
6.01505
6.30457
6.46192
5.80356
6.41521
6.25907
6.61199
6.04645
6.14998
6.17977
6.4365
6.35013
6.12748
6.19024
6.47097
6.37421
6.28938
6.13102
6.53158
6.58979
6.41726
5.67867
6.69979
5.73396
6.80171
5.96522
5.77295
6.14993
6.15186
5.77979
6.38117
5.61976
6.0918
6.541
6.15252
6.58401
6.38407
6.10253
6.39952
6.19174
5.88724
6.03025
7.25232
5.97673
6.32437
6.52434
6.36099
6.7955
5.88482
6.12464
6.24577
6.29996
6.73242
6.16872
6.24116
6.2178
6.37693
6.115
6.52262
6.44873
6.04237
5.99346
6.34831
6.4213
6.59988
5.84612
6.31504
6.41288
6.22058
6.1056
6.08045
6.14907
6.64942
5.91508
5.80033
6.38902
6.34583
6.07182
6.03969
6.53128
6.19479
6.22096
6.14785
6.10177
6.75932
5.9242
6.592
6.64662
6.78449
6.07217
6.41784
6.56592
6.25302
6.39477
6.32642
6.2847
6.30893
6.27873
6.27722
6.09173
5.82636
6.18638
6.35034
6.37397
6.5894
6.29838
6.01379
5.84169
6.83622
6.71588
5.82335
6.39311
6.1718
6.10352
6.05446
6.22489
6.51103
6.27249
6.235
6.30343
6.73204
5.99084
5.77924
6.72554
6.49783
6.15437
6.08237
6.16101
6.68226
5.99874
6.16661
6.13987
5.74431
6.47285
6.36551
6.17993
6.19713
6.3897
6.14636
5.99818
6.43868
6.36962
6.67799
6.67287
6.51528
6.06908
6.02495
5.92429
5.95317
6.08168
6.91881
5.87302
7.64249
6.40564
6.29216
6.40633
6.1169
6.18738
5.98597
6.50203
5.90409
6.44529
6.17288
6.23043
6.18422
5.93319
5.96464
6.17659
6.42014
6.13687
6.01331
6.79975
6.19003
6.29702
6.29226
6.1113
6.27686
6.79965
6.35084
6.22924
5.64093
6.14952
6.37759
6.18371
6.3916
6.82555
6.39911
6.45706
6.26247
5.93322
6.07466
6.30312
6.16506
6.67215
6.08379
5.90223
6.25788
6.36575
6.34473
6.72682
6.558
6.49676
7.03144
6.01119
6.17499
6.12479
6.25046
5.78829
5.82252
6.48495
6.20378
6.06573
6.17081
6.23285
7.05032
6.25377
6.27117
6.54613
6.261
6.21808
6.40391
6.47687
6.05165
6.6397
6.66925
6.51303
6.98195
6.40593
6.23375
5.9969
6.05136
6.04997
6.55871
5.98396
6.11609
6.46073
5.59021
6.2842
6.22401
6.47767
6.02481
6.1938
5.96487
6.09708
6.31385
6.67435
5.78418
6.04147
6.54109
7.32184
6.64934
6.25411
6.96344
5.95294
6.30617
6.57153
5.76824
6.56478
6.43466
6.1419
6.68219
6.02892
7.05894
6.28552
5.97504
6.58072
6.40092
6.5847
6.31575
6.16772
6.01059
6.41601
6.51989
6.60883
6.10945
5.92871
6.25787
6.52965
6.63078
6.64648
6.19242
6.03223
5.87698
6.17485
6.39395
6.53276
5.95089
6.48409
6.07773
6.02032
6.55034
6.03033
6.5583
6.68881
6.57104
6.01158
6.55299
6.34738
5.98181
6.18323
6.33494
6.19474
5.96922
6.04161
5.98058
5.91803
5.97857
6.71189
6.08601
5.99916
6.4044
5.79298
6.5275
6.01716
6.25465
6.53009
6.31996
6.68826
6.19299
6.55144
6.00212
5.97244
6.62131
6.65578
6.6036
6.23717
6.23999
6.43178
6.68174
5.68318
6.6121
5.8234
5.85316
6.30798
5.95477
6.4015
5.88175
7.05639
6.44678
6.25311
6.1288
6.49577
6.03412
6.57247
6.31171
6.71639
6.09272
6.49221
6.20933
6.34525
5.89198
6.40656
6.15366
5.82681
6.53197
6.53402
6.81165
5.90888
6.06271
5.77984
5.88559
6.16402
6.14816
6.27892
6.13872
6.40287
6.55386
6.76181
6.04443
5.99498
5.80524
6.02101
6.23412
6.38766
6.20228
6.20828
5.74138
6.0379
6.94264
6.34325
6.04237
5.99519
6.58215
6.17424
6.43387
6.25735
5.90746
6.11304
6.03987
7.04243
5.75255
6.26725
6.34018
6.5046
5.87726
6.44013
5.94151
6.29773
6.47356
6.95775
6.65904
6.27509
6.68464
6.44918
5.97796
6.36563
6.1894
5.81734
5.79058
6.01067
6.21234
6.0171
6.49427
6.47017
6.02809
6.19216
6.23974
6.61174
6.15854
6.32313
6.00895
5.9703
6.54264
6.4908
6.15828
6.28851
6.16961
6.2936
5.74795
6.20751
6.16028
6.23725
6.22106
6.25074
6.10652
6.16192
6.31283
6.01761
6.60403
6.14975
6.38463
6.665
6.78476
6.09027
6.03258
5.62219
6.03125
6.35644
5.89182
5.97053
6.58869
6.66132
5.84952
6.09522
6.44032
6.12919
6.22565
6.19721
6.1737
6.52677
5.87815
5.88644
6.00782
6.45593
6.02538
6.23942
6.017
6.52529
6.33926
6.30978
6.50754
6.13047
5.95861
6.70215
6.38434
6.05143
6.42154
6.10463
6.5825
6.33994
5.93068
5.96235
5.89632
6.22395
5.95458
6.13488
6.18507
6.30682
7.00992
6.48645
6.55538
6.62
6.5272
6.33855
6.37023
7.00327
6.46865
6.40219
6.11582
6.16562
6.30692
6.46157
6.10595
6.10551
6.38775
5.85854
6.37441
6.32002
6.43996
6.18143
5.66266
6.29513
6.04828
6.31458
5.80539
6.01007
5.90134
6.72511
5.74538
6.07291
5.91127
6.08117
6.18028
6.47027
7.05674
6.35772
6.1017
6.01681
6.07094
5.84266
6.006
6.29578
5.89827
6.52004
6.00006
6.43755
6.0997
5.75836
6.39037
6.43163
5.94518
6.87093
6.51267
5.98227
6.11375
5.89725
6.46899
6.84117
6.41492
6.27853
6.24192
6.43136
6.50087
6.2595
6.08951
6.37924
6.9504
6.26582
6.5398
6.79941
6.13828
6.00174
7.03496
6.15303
6.24816
6.27799
6.33762
6.08485
6.06214
5.98116
6.39612
6.99524
6.46231
6.25266
6.30333
5.88322
6.8106
6.24674
6.13904
5.76932
6.21821
6.37297
6.48405
6.20094
7.04759
6.67175
6.7964
6.17621
6.26143
5.83639
6.40463
6.49971
6.32362
6.02016
6.54393
6.50685
6.38505
6.07719
6.67172
5.9037
6.46867
6.82199
5.5548
6.08141
5.92563
6.01203
6.26616
6.17305
6.14326
6.42062
7.22353
6.21683
6.04334
6.94786
6.24399
6.277
6.25281
6.4403
6.36732
5.7871
6.35912
6.44057
6.40392
6.76152
6.41875
6.10932
6.37018
6.37765
6.21809
6.57902
5.83358
6.44512
6.42322
6.76655
6.12883
6.39369
6.28239
6.03372
6.29901
6.46084
6.21561
6.30571
6.37756
6.14664
5.86133
6.62562
6.62364
6.24718
6.34386
6.26986
6.14222
6.0988
6.30383
6.03056
6.35651
5.6663
6.06369
6.6563
5.96091
6.32546
6.13346
6.38914
6.27921
6.39498
5.92553
6.0643
6.05573
6.16923
5.82431
6.45527
6.25009
5.91986
6.49424
6.18412
6.12529
6.7894
6.61429
6.16815
6.40436
6.31502
6.13347
6.10806
6.25163
6.7128
6.6496
6.13003
6.2225
6.57342
6.21909
6.20062
6.44127
6.05583
5.85713
6.36892
6.28825
6.11299
6.27879
5.9796
6.08704
6.32397
6.10797
5.77152
6.17244
6.28106
6.37596
5.88977
6.08328
6.9393
6.21767
6.46835
6.12377
6.13894
5.65806
6.36994
7.29905
6.14714
6.58651
6.11476
5.89922
6.2266
6.01781
6.1119
6.10098
6.09918
6.43605
6.23747
6.68811
6.05896
6.29509
6.70286
6.02444
6.10948
6.45863
6.53999
6.38065
6.37029
6.81317
5.88202
6.99678
6.10479
6.1036
7.00716
6.09877
6.51985
6.06032
6.35341
6.12983
6.38317
6.23183
6.62055
6.26525
6.45886
6.24256
6.1875
6.41573
6.8129
6.30074
6.41352
6.21461
6.22591
6.24813
6.44067
5.99694
6.57574
6.36386
6.05544
6.12651
5.78317
6.36412
5.98244
6.1738
6.61003
6.38435
6.393
6.17185
5.83122
6.50629
6.49673
6.03771
6.55057
6.82071
6.45083
6.13708
6.72662
6.39635
5.7839
5.97764
6.42684
6.07019
6.48837
6.42629
5.95723
6.07615
6.16635
6.1031
6.18212
6.38552
6.56672
6.05048
6.04658
6.24969
6.33026
5.89343
6.34424
6.25032
6.00007
6.10948
6.07229
6.30372
6.3556
6.12634
6.24015
6.53384
6.20143
6.22272
6.04093
6.08606
6.40054
6.25355
6.40352
6.28542
6.33156
5.99427
5.67093
5.86171
5.91822
6.15852
6.5433
6.14689
6.25267
5.86306
6.48603
6.31336
6.36743
5.89446
6.07773
6.64776
6.85979
6.10159
5.84318
6.23353
6.49655
6.50077
6.12173
6.42926
5.69403
6.85405
5.97288
6.23244
6.40993
6.49093
6.1446
6.0647
6.498
5.86077
6.31326
5.8526
6.12944
5.85683
6.56477
6.30996
6.53963
6.54768
6.03881
6.03356
5.66901
6.31452
5.96399
6.07511
6.47218
5.81886
6.05782
6.32766
6.24354
6.23493
6.19079
6.74969
7.01824
6.34959
6.58566
6.39851
5.91586
6.09653
6.19967
6.02689
6.2257
6.33643
6.58105
6.42847
6.39936
5.97621
5.93024
6.07529
6.34453
5.72258
6.15753
6.83548
6.54976
5.7857
6.62806
6.35052
6.19739
6.82939
6.5778
5.82865
6.21213
5.87937
5.67366
6.06404
6.51971
5.98171
6.20242
6.05455
6.31829
6.51114
6.25452
6.38732
6.25903
6.13341
5.8476
7.26874
6.10715
5.8323
6.30033
6.26101
6.40406
6.14085
6.8424
5.74264
6.49132
5.57266
5.97501
6.27004
6.35375
6.15282
6.1315
6.23163
6.03996
6.39435
6.99735
6.79436
6.19191
6.49165
6.01412
6.18263
6.3347
6.15897
6.12634
6.09836
6.4702
6.06886
5.97045
5.83317
5.84967
6.09533
6.00585
6.22815
6.6271
5.8802
5.89892
6.04095
6.15215
5.92435
6.33252
6.20979
6.56804
6.27747
6.05947
6.49788
6.61924
6.38327
6.16548
6.17232
6.01113
6.19476
6.1347
6.82793
6.57039
6.68649
6.15322
6.41491
6.61829
6.29729
6.93794
6.48231
6.48141
6.19256
5.7627
6.24872
6.47809
6.09053
6.00675
6.09459
6.31384
6.39783
6.07694
6.53416
6.54884
6.36569
6.95309
6.13668
6.12154
6.22593
6.19563
6.10932
6.18682
6.27252
5.97492
6.37917
6.47784
6.46872
6.09696
6.65098
5.92066
6.08446
6.10718
5.94804
6.10073
6.25915
7.04832
6.34633
6.11555
6.33276
6.17196
6.28231
6.13358
6.49144
6.37547
6.61176
6.52363
6.50295
6.39741
6.15721
6.14021
6.24864
6.30511
5.98345
6.48684
6.22159
6.30681
6.10659
6.00594
6.21583
6.10032
6.48027
6.01725
6.26647
6.22123
6.00354
6.10117
6.20231
6.3162
6.56506
6.15278
6.11272
5.95286
6.02696
5.99315
6.29946
6.54376
6.36139
5.58317
6.30051
6.08022
5.94227
6.10185
6.64368
6.09918
6.43447
5.79964
5.73181
5.93693
6.46176
5.88356
5.77567
6.34692
6.29478
6.88425
6.20695
6.78908
6.17339
6.49178
6.16661
5.9787
6.10196
6.03837
6.12837
6.46418
6.09786
6.32862
5.96148
5.96418
6.68846
6.24845
6.29975
5.95644
6.04337
6.01981
6.05351
6.24036
7.00252
6.78679
6.23805
6.74219
6.14204
6.43663
6.48261
6.60422
6.4435
6.05323
6.15695
5.91582
6.56325
6.50305
6.1365
6.3999
6.44504
5.8173
5.91787
6.10834
6.29181
6.19863
6.85658
6.24576
5.82013
6.22448
5.76566
6.0655
6.57938
6.30354
6.38341
6.28314
6.38638
6.1597
6.17045
6.39842
6.39679
6.28316
6.52825
5.77014
6.2062
6.57576
7.23878
6.32186
6.79465
6.60258
6.3879
6.37921
6.68378
6.14294
6.99517
5.98027
6.35321
5.70566
6.24315
6.44095
6.4405
6.33107
6.88573
6.01627
5.94176
6.45433
6.69649
6.02719
6.33616
6.39624
6.46346
6.18853
6.4625
6.00069
6.12972
6.24479
6.67215
6.41398
6.46395
6.42384
6.07088
6.62019
6.39191
6.32174
6.21793
6.53361
6.20314
6.05894
5.56905
6.66969
6.52784
6.19205
6.63256
6.47361
6.2616
6.04885
6.17814
6.71379
7.03563
6.10177
6.97611
5.807
5.7388
6.56283
6.40431
6.28706
6.21765
5.85516
6.16669
5.9356
5.89994
6.4381
6.25848
6.60365
6.08816
6.10297
6.25218
6.30886
6.3836
6.19408
6.21894
6.19238
6.6166
6.74019
6.75436
5.88569
6.41786
6.40868
6.38093
6.17642
6.41658
6.21668
6.32717
6.53006
6.66164
6.41283
6.48529
6.19331
6.15892
6.31104
7.05836
6.35006
6.5648
6.55466
6.10847
6.11937
6.0588
6.28212
6.5033
6.3422
5.81819
5.9083
6.25659
6.02995
6.00231
6.80902
6.14475
6.2793
6.19513
6.18864
6.68361
6.50167
6.66062
6.11121
6.07054
6.0417
6.12399
6.9765
6.33814
6.49712
5.87857
6.14614
6.61354
6.08756
6.48425
6.15548
5.78931
6.40229
6.12915
6.27257
6.1062
5.69889
6.47251
6.11691
6.14678
6.12098
5.95644
6.17457
6.52017
6.56911
6.40738
6.20527
6.51811
6.34447
6.50653
5.94589
6.16188
6.69197
6.22961
6.27149
6.00626
6.07774
6.673
6.02251
6.00248
6.1798
6.15082
6.03023
6.08067
5.93138
6.01521
6.36092
6.13406
5.88357
6.27221
5.99883
6.05503
5.6229
6.4945
6.48744
6.16238
6.90385
6.89028
6.65306
6.28656
6.619
6.04781
6.40453
6.14079
6.44184
6.22303
6.50905
6.34269
6.98815
5.88846
6.31375
6.2555
6.09091
7.23655
5.85729
6.01802
6.60049
6.38995
6.17905
6.0777
6.48343
6.01947
6.15809
5.94283
6.54602
6.08993
6.50018
6.36373
7.0759
6.4125
6.55267
6.55705
6.30796
6.05294
6.49592
6.06489
6.3478
6.59683
5.95181
6.67152
6.48357
5.91541
6.32974
6.37695
6.50185
6.58353
6.07849
6.62506
6.26553
6.29554
6.10162
6.28832
6.57141
6.44888
6.12012
7.06327
6.22651
6.53123
6.32405
6.46298
6.0495
6.14215
5.69625
6.019
6.66979
6.14984
6.36078
5.9737
6.41025
6.2198
6.40586
6.47685
6.28052
5.86022
6.37596
6.24265
5.96015
6.46462
6.47995
7.12593
5.9963
6.11354
6.38081
6.68704
6.22579
5.88146
6.25498
6.2559
6.22441
6.13014
7.05068
5.90244
6.85646
6.14086
5.97008
6.2454
6.09928
6.1695
5.73153
6.07969
6.21689
5.87761
6.56388
6.49004
6.03369
6.65479
6.39942
6.62555
6.10165
6.37423
5.65593
6.11563
6.5698
6.3116
6.36126
6.6744
6.42331
6.31586
6.98349
6.34876
6.35536
6.05393
6.4541
5.98327
6.41132
6.14186
6.18309
6.05917
6.12278
6.11471
5.98904
5.76068
6.18062
6.67004
6.85427
6.33729
6.15025
5.8245
6.0362
5.76749
5.68282
6.11813
5.54098
6.26205
6.24188
6.10557
6.79664
6.08475
6.29215
6.20018
6.31602
6.18432
6.48776
6.44911
6.36562
6.2751
5.9968
6.28014
5.87229
6.17096
6.24195
6.07579
6.25654
6.12016
6.17466
6.17334
6.76591
6.40526
6.71668
6.79536
7.46676
6.28629
6.30542
6.00222
5.95332
6.18743
6.39402
6.17758
6.17034
6.67201
6.40628
6.23709
6.00397
6.41349
6.46546
6.01893
6.97375
6.28946
7.09314
5.87611
6.77291
5.38615
6.69053
6.7036
6.239
6.22363
6.42707
6.10492
6.33212
5.91915
5.73827
6.63708
6.30961
6.78224
6.67256
6.17739
6.22919
6.21317
6.0898
6.26558
6.43616
6.34613
6.46434
6.27513
6.12272
6.08006
6.37684
5.88625
5.99732
6.06855
6.19881
6.13513
6.98429
6.06567
6.52462
6.49287
6.54316
6.33733
6.86045
6.23302
6.41379
6.71631
6.18604
6.00436
6.04159
6.22756
6.9952
6.15499
6.38042
6.60726
6.0129
6.34131
6.1392
5.99207
6.22617
6.45805
6.44767
5.97359
6.12546
6.28652
6.11265
6.65524
6.30929
5.87787
6.26519
6.7534
6.40812
6.40413
6.12873
6.27719
6.5817
6.29032
6.78576
6.25763
6.67928
6.0233
6.18619
6.34582
6.10383
6.53421
6.40474
6.11633
6.38905
6.07272
6.55249
6.55791
6.26329
6.45438
6.1985
5.91855
6.22438
6.56045
6.29483
6.94234
6.206
6.21905
5.94246
7.11191
5.78342
6.6641
6.20925
6.52698
6.46369
6.34721
6.08793
5.93104
6.41722
6.0769
6.35289
5.98185
6.17636
6.30703
5.95455
6.72967
6.11057
5.81022
5.91408
