13.2146
13.0059
17.1318
10.6632
13.2872
11.6673
16.3732
14.3976
12.4367
14.9008
14.9221
12.6415
17.312
13.4975
8.79635
21.826
17.0954
14.2833
14.5805
10.9578
21.7239
22.6574
11.1878
15.2512
14.7432
17.1938
15.7179
11.8441
11.8682
14.8878
14.2543
12.4011
12.2957
19.6875
16.7708
9.7736
14.1444
11.9088
22.9537
11.9295
14.1695
9.43872
11.3619
12.5742
19.7024
15.9048
12.7162
12.2938
14.7791
11.0761
10.2761
22.962
8.26989
13.7593
13.4117
19.5373
9.32408
13.5321
12.9861
15.0588
10.8975
10.979
24.6326
18.7054
13.3776
11.0518
15.9545
20.6061
13.6439
11.9056
12.6078
12.2623
11.7012
13.3693
19.0323
13.3469
13.5472
23.1571
18.4506
12.6779
13.3784
9.65447
15.7759
13.748
11.1782
14.5782
14.2978
16.4118
12.8373
15.3537
14.0579
8.50561
16.9292
9.79667
17.3249
9.79142
11.4185
13.8253
12.9821
14.5174
12.449
16.821
13.2496
10.8471
12.3014
10.2738
12.0966
10.9976
11.7119
11.6973
11.2669
12.0947
10.3586
10.7947
12.1457
11.756
11.5498
30.5143
19.2831
13.8269
11.8703
8.99496
13.6969
13.3193
20.7691
17.6472
7.65989
18.0497
10.211
13.9586
16.4989
14.1572
15.0696
16.3908
10.5838
11.454
15.9991
16.7572
15.3651
13.753
15.3506
14.5482
13.5791
8.57021
20.8025
9.78337
15.6278
15.2472
11.0501
13.4211
10.5253
12.7637
11.1034
10.2936
17.2544
14.9795
16.4722
19.5973
10.5233
9.66629
13.0216
14.6081
20.1945
14.5701
11.2703
13.049
10.9129
14.9582
13.6742
9.19135
13.8877
8.526
14.2287
14.7862
14.7625
10.5055
12.9905
18.3671
14.1157
19.1346
10.5801
13.8814
13.3498
15.9979
11.9031
14.1536
21.3987
15.5233
12.998
8.74279
11.159
15.5644
18.7113
20.6197
10.0793
13.7638
12.3342
13.879
14.4516
12.213
11.5837
15.0494
14.2098
15.2085
14.8786
12.5536
11.6796
12.7897
13.2586
12.3855
17.2988
10.3325
8.93749
23.6575
11.8157
17.9778
10.1147
10.7302
12.7212
15.5419
17.8122
13.0045
16.8254
14.951
12.3323
15.0063
13.1
12.3871
9.17776
13.0391
15.1662
10.5242
13.5917
16.7722
19.1315
12.6489
20.0428
15.5013
13.0527
10.0556
12.4708
12.6656
17.7266
11.7371
10.4666
15.3839
12.8008
15.4826
15.3173
8.16727
16.0693
14.6509
11.839
15.5661
15.5312
13.8028
14.9797
12.4878
10.094
11.5765
11.311
15.5602
14.5566
13.7694
10.7012
11.7749
13.0961
16.9522
12.2717
11.4601
15.2637
15.0737
15.7856
10.1257
19.9284
21.6522
11.491
14.783
8.6785
13.5756
12.5
11.1647
15.8033
15.0506
9.74803
13.1194
14.8838
9.88223
12.9962
14.4428
15.336
16.1931
12.9623
9.59355
15.1615
13.0303
13.2432
11.261
13.2884
9.36464
8.70114
15.1064
22.6106
13.4718
13.2359
13.2856
17.7167
10.7447
18.4454
13.8978
10.3769
12.4957
14.3507
18.119
12.0206
15.1093
16.0173
10.9728
21.7927
10.2791
10.1843
15.4401
14.5141
12.2701
11.4007
9.07654
12.6582
13.7306
12.4967
12.3752
13.6457
14.977
12.0982
15.3497
13.9795
12.6763
9.70808
17.3583
19.245
9.86536
18.665
12.7296
11.4501
11.7342
13.261
10.6693
10.409
13.2241
13.3237
13.8837
9.97774
12.8066
15.0418
11.7444
12.0408
9.27307
10.6914
14.6699
13.7038
14.3984
16.6788
12.0258
12.4635
10.7958
15.0479
10.6298
12.7657
17.0113
14.6165
21.2187
20.436
11.2755
13.4176
11.8813
12.9894
12.9296
15.8121
13.5386
10.6645
11.2895
15.2095
11.2475
11.6821
11.0149
12.6576
12.6371
12.6139
12.3715
12.206
13.6173
11.7402
13.5331
12.0283
19.3043
13.3303
11.7786
14.451
9.93482
14.103
13.7472
15.1613
13.4803
11.1882
14.1739
12.4277
9.75571
14.2566
15.0103
10.3869
13.6284
13.0436
11.3168
13.4009
16.7108
13.7971
12.2888
9.80514
13.1197
17.8093
10.4721
12.9571
11.1278
16.476
18.0695
9.24754
13.7323
14.1299
15.404
14.2034
13.3219
10.9662
10.0825
12.8185
16.845
14.6573
18.7083
12.6749
16.7794
14.5418
14.4542
12.363
11.9281
14.2684
13.8476
14.8622
10.9616
18.8212
12.6294
12.5253
10.396
14.2217
14.8723
12.5144
15.1433
11.3606
9.78189
13.1465
19.0563
11.2582
12.0326
9.75094
13.9498
14.7754
10.7857
12.3465
10.3165
19.9467
12.1711
12.1738
9.05688
10.272
14.6576
16.1603
14.7924
12.3161
13.6859
14.1675
9.60331
10.9395
12.7823
11.4508
13.3393
13.7907
10.9935
17.054
14.0836
21.8563
15.1063
12.8039
14.4192
14.3795
10.984
10.5576
11.124
13.3433
9.00204
17.28
11.6662
15.7657
12.7027
15.2108
15.2834
13.1757
16.245
12.3624
15.1511
16.6691
10.1291
15.1422
16.6211
13.7364
16.9963
14.5012
14.079
14.4498
12.2329
10.3715
9.24979
16.7187
14.3663
17.2824
13.7492
12.0218
16.7744
11.5333
14.2833
11.8642
9.9775
12.8851
18.8822
14.4204
11.4154
15.8533
16.1013
23.394
21.7927
18.3989
11.8945
11.9604
14.1399
13.0851
11.5382
15.9697
17.1452
20.1479
12.7328
20.571
16.4254
9.77825
14.9103
20.0223
11.421
11.8884
12.3355
12.3089
13.496
13.3806
13.2058
11.7047
17.7814
9.63924
10.8311
12.7197
15.166
15.9292
14.1689
11.6894
14.74
17.2972
19.4542
13.7941
15.1966
15.9431
14.8466
17.7301
11.6328
11.5285
14.409
14.4363
16.4814
24.4411
15.3552
15.7981
9.18562
17.7972
14.8187
11.7505
11.7438
13.2132
11.6091
15.2746
13.6724
10.1945
19.8888
15.3863
18.5825
13.6037
12.5764
12.5586
15.3228
15.5662
12.1954
12.1388
11.5202
17.7754
19.7292
13.9398
15.5149
14.0077
11.0528
18.3572
13.2316
16.7633
9.4041
14.3811
13.8742
9.5717
8.80014
19.3243
22.7339
12.738
12.0511
15.9121
11.4805
20.593
10.9522
12.5557
10.4686
11.8619
13.1554
18.171
13.8764
18.1482
13.523
11.6
12.1879
12.8632
8.58653
15.8123
12.2878
9.80459
13.9293
15.9607
11.8026
16.9358
17.8303
10.0028
11.5439
15.4094
16.0677
10.7882
13.0079
19.8395
11.6797
18.5791
12.3716
15.9651
16.3602
14.7274
10.7971
11.6254
12.3521
12.0748
11.4245
11.5307
9.64021
16.2212
11.4969
10.1117
16.3274
14.9379
9.04038
7.89125
13.7594
11.2857
11.8649
12.4673
16.493
9.16561
13.2355
14.3671
13.4096
14.6425
14.6673
15.6335
10.2477
13.5414
13.7678
12.1787
10.2429
18.9685
10.8635
13.2322
15.3069
11.638
10.693
17.5277
12.0971
9.785
11.4267
21.069
17.0943
13.808
20.8214
11.1702
12.5108
13.8406
13.8508
12.3614
20.2548
11.8613
15.8312
14.1773
10.8274
13.4617
18.6244
14.2944
17.2776
17.2129
14.8467
15.1757
13.101
13.1644
10.3778
15.2654
16.1741
15.5051
13.018
12.9521
14.3241
12.3028
9.45441
10.4648
11.4571
11.8097
11.9964
18.7447
15.0772
17.4152
12.1171
15.6415
11.5548
8.51476
12.8802
11.7054
14.8722
17.7245
15.7738
9.5831
12.631
20.1786
14.4703
15.2402
16.0149
14.01
11.9703
10.0373
20.5672
10.755
24.1956
9.44299
11.4819
12.7503
12.8475
11.5143
10.8782
9.51845
16.7417
12.991
14.4316
11.0689
16.4001
15.4811
16.5561
11.9265
12.4246
16.0113
17.0179
13.1539
11.8641
14.8231
12.0884
10.8278
13.5852
10.3523
13.5279
12.731
10.0224
11.9354
11.3463
11.8597
14.2377
12.8277
14.0113
15.9675
8.6932
12.4076
13.1316
10.0891
14.7288
15.5644
15.0342
15.3644
19.8137
11.081
11.458
9.08077
25.0575
18.6575
12.6932
15.4292
9.68496
18.6251
21.8936
11.0481
12.9329
11.6677
13.6008
16.0484
11.8014
14.0125
10.4625
9.83244
15.9141
13.7086
9.57545
12.7309
11.5689
14.9568
12.7006
17.1719
20.0463
11.0151
8.31215
9.65824
13.3065
14.1942
10.2726
11.8388
20.0698
12.6501
21.5022
12.2614
14.0559
10.3556
9.78245
12.5273
10.1209
19.1586
10.4425
14.9667
13.5465
20.9439
13.1361
16.0481
14.4473
19.4002
10.3001
20.6347
11.7987
15.4175
14.136
15.4832
10.1343
14.8319
18.0698
11.3362
14.6939
19.116
13.7585
14.5661
11.2577
12.3983
16.8627
17.4203
14.0816
10.8447
12.3237
17.3653
16.1069
9.39518
14.3344
12.5191
10.171
16.9838
12.104
17.3175
13.3219
8.46629
11.1171
13.6401
11.8446
11.5946
16.0347
11.8892
16.7105
11.8369
13.6962
19.8035
9.78654
11.5042
11.2635
12.2466
12.2844
15.0495
12.2281
14.6312
13.8277
11.2269
9.36662
18.3233
10.3025
16.2748
15.9313
10.2112
10.6298
16.8444
15.5719
15.1815
11.3445
11.1722
9.17093
14.0787
11.8902
14.7378
12.6096
11.0149
10.4426
11.6606
19.4302
26.0784
15.4882
13.689
14.1782
10.7615
17.3794
9.46765
11.3014
15.5771
18.8083
13.0675
14.5359
22.776
13.2991
12.9048
12.1568
10.5741
20.8598
14.0857
13.5655
14.6884
15.4546
13.9133
10.2735
10.9106
16.7201
11.9058
11.3293
16.0848
15.0773
10.9365
15.4453
13.0928
12.5861
12.1203
9.96674
14.6334
13.5226
13.0225
13.3449
12.4905
17.2807
13.6184
11.8367
15.4208
17.2018
14.1316
14.9266
14.5418
10.8834
12.8382
18.3257
16.1809
15.2489
11.0287
10.7067
13.8564
17.0057
18.7733
12.8108
10.5098
11.9564
11.5838
16.0337
10.7098
12.68
12.6892
14.4835
11.4237
13.7214
11.6253
11.1165
16.3222
14.2487
11.1154
14.713
14.5432
7.59184
11.1309
14.7807
20.2629
16.5413
11.2819
11.5973
13.8499
14.0142
14.7732
12.6573
11.7075
21.7881
12.0386
17.8914
9.86368
11.0175
12.6729
16.0342
10.1952
10.1664
10.3886
14.8306
12.5781
17.0726
13.2963
10.0438
15.8783
11.8857
13.3751
10.5443
10.576
13.9261
15.2237
10.5568
18.1118
9.57829
13.7999
12.9965
15.2153
12.3558
9.11267
16.0375
10.0056
19.5042
10.837
12.4088
13.9893
10.8122
15.7139
14.1562
14.3861
13.4025
21.248
19.5736
10.0731
11.1447
17.7872
13.8491
16.8771
16.429
13.3363
12.5948
13.0187
14.2695
16.1962
11.2158
10.1223
13.6177
16.3921
8.71076
26.5918
9.9119
11.7092
14.4769
13.4192
16.7017
17.0209
14.8833
14.9706
11.3696
13.7722
11.5069
16.7092
9.52285
14.0476
22.7509
9.8952
15.5597
11.5778
10.7837
20.3061
16.9024
12.1472
13.3474
13.4337
11.2236
8.29194
8.94162
16.4899
19.7361
14.14
19.6809
9.97363
17.5333
10.8959
9.49938
13.8391
14.896
12.8798
12.5557
18.7333
16.2911
18.7501
12.1156
21.0776
15.6591
13.7825
17.9354
18.7955
16.8532
14.3938
9.32514
11.2103
14.376
10.7461
9.78537
20.507
12.2474
11.1956
15.3961
10.2738
14.1791
14.3415
11.9127
10.1145
11.2234
16.7951
15.6644
16.7264
9.82105
10.7664
15.0203
11.744
12.8581
10.2754
11.8865
18
16.1916
9.67993
21.9088
10.4583
17.2116
10.4785
12.8645
13.6877
11.4704
13.0217
13.4016
18.3131
12.8274
21.1172
10.9505
13.8282
20.9715
11.1045
15.2539
14.0464
16.2604
15.5478
14.7248
11.7029
16.5616
16.4498
14.6658
10.5025
21.0296
10.6301
10.8736
12.4383
12.7056
14.0793
10.3725
11.3063
11.2089
18.9724
14.0264
17.1445
15.6384
11.432
13.9678
11.1054
9.85325
14.1715
14.7716
14.7466
21.0893
13.2079
9.83799
14.4914
14.1942
23.5156
9.24318
10.3562
14.6793
21.2153
14.2696
13.4487
16.6709
22.9552
14.2387
11.3573
14.9939
16.1416
9.28762
13.349
14.3766
12.3284
13.6132
20.4208
10.2861
11.8407
15.5262
22.5144
8.23697
10.9541
14.2301
10.4631
13.7814
13.7346
11.2629
13.8223
9.20385
15.4564
10.1876
20.9673
10.0456
9.95115
16.4927
16.3544
13.1993
16.6505
16.0941
9.18849
10.0265
14.459
15.2379
13.9261
16.9277
9.73401
11.4616
19.7981
12.8583
14.911
9.89244
14.5047
10.5424
12.342
13.2035
13.9567
12.8605
9.86738
9.61155
13.3945
11.667
12.104
17.5182
15.8358
10.9675
12.7829
15.4414
12.8326
11.331
13.7265
13.1666
19.8715
16.313
16.6082
22.6019
20.8876
9.48357
13.9524
12.8864
16.5665
12.3813
14.8105
13.0172
15.8625
10.4119
18.3926
15.6595
13.7136
11.0768
16.7925
14.6725
10.4376
9.86829
17.1246
11.0655
17.219
11.8326
14.7296
15.446
14.0835
16.062
12.0143
11.4241
22.3962
10.3661
13.0536
12.2179
15.467
9.61854
10.9926
17.6155
11.7074
8.32264
13.3355
24.8137
11.5111
13.9768
22.034
15.2271
13.1706
18.1105
14.2343
12.9641
13.0061
8.05302
11.997
17.7885
13.8139
10.6545
13.0274
16.4951
12.2331
15.4167
14.557
14.7739
13.8009
17.4423
12.0568
12.8032
14.1919
11.1014
19.0244
20.638
14.3536
14.6825
11.6758
18.1643
17.6535
12.7173
14.7739
10.5886
11.7742
10.6146
14.5739
14.876
15.7275
12.8784
13.8364
13.2161
19.7635
14.9916
11.8312
21.1067
10.0776
12.3063
17.1596
12.3271
10.704
10.9342
12.7955
15.5934
11.8565
15.0318
34.4696
8.31469
13.4598
11.5823
10.0036
17.6011
14.5828
12.3538
16.3941
11.4289
13.4445
14.3589
11.5432
25.9168
14.7331
10.1942
17.6524
8.15805
9.84097
13.474
21.0576
14.0365
11.9497
14.4626
17.6681
14.3526
13.6743
12.6204
18.1863
10.6668
17.5919
12.478
11.4388
15.2243
14.3726
15.7409
14.0936
18.2973
10.9467
16.2333
16.6524
11.5873
14.9673
11.372
11.4638
9.84523
19.6891
13.2726
14.0361
14.754
14.4233
14.9483
14.001
10.7875
15.9285
11.0681
11.987
16.8438
12.1133
14.1909
11.9093
14.2279
16.7896
13.465
13.5856
17.9577
17.5337
13.7612
9.37323
10.4609
16.0676
15.8671
12.0588
12.1593
12.2469
13.1414
12.404
10.6601
16.1788
10.7269
23.9231
12.158
11.6841
13.0612
15.1916
7.18336
14.9155
15.0751
10.3861
12.3282
11.3227
13.7471
13.9003
20.7974
11.5192
13.6757
16.1407
15.4001
12.4846
10.9249
22.9816
13.0772
10.9175
14.1634
17.7945
16.454
12.3593
12.1778
12.2286
11.4805
14.6211
9.81196
15.5014
10.1243
15.5875
19.8178
14.6869
11.9563
13.1977
14.462
8.87018
9.92892
12.5324
12.5035
18.134
11.7603
14.1774
10.7708
13.591
11.8183
10.6059
15.4363
13.4008
12.5318
14.378
11.9429
12.9182
11.4506
11.1738
20.626
10.9307
18.9268
14.2272
12.7049
14.2897
12.0167
12.5439
10.5664
11.2321
26.4
9.27258
11.4258
27.6553
15.3751
11.7201
10.3293
10.3048
14.0052
15.6563
14.3254
11.6362
15.0045
11.7208
13.2878
14.7792
15.1422
13.0179
9.35712
9.02961
15.0471
20.2434
19.8648
12.5313
10.7276
12.0722
14.4016
20.6089
11.7955
10.837
14.0035
10.9486
12.1906
19.0504
8.67387
14.5485
12.9994
21.0678
17.2178
10.6316
18.4149
12.4928
13.3448
20.3727
9.58192
16.9266
11.2903
13.8042
13.5916
11.1175
23.1666
22.931
10.4486
9.95069
17.4868
15.3146
13.1785
13.1246
13.832
12.0275
15.3751
16.6332
15.3408
12.3581
16.0761
17.6285
13.697
11.71
12.5303
13.989
11.3045
11.4459
13.9465
16.0238
16.2173
12.3631
10.4895
11.5408
15.2075
21.7439
14.0488
11.9727
13.7954
18.9814
12.6771
15.0877
14.6055
24.8147
21.4458
12.6612
18.9739
11.2343
10.089
17.2327
14.332
22.8943
13.8802
19.0123
11.5206
12.4343
8.64684
14.8155
16.2266
10.5044
12.2987
10.4975
12.5522
11.8009
15.7304
19.7273
16.2768
17.7957
18.9101
11.4667
11.9741
13.0367
18.021
17.8947
16.0597
15.4799
13.4735
12.8256
14.1221
16.3653
10.4751
12.4954
10.1414
13.5623
15.3196
15.1218
14.8029
12.2821
31.6001
12.9682
14.33
12.2924
11.9618
12.1112
19.7656
17.3657
15.8314
15.8032
12.3637
11.4908
9.2526
23.6072
16.2629
11.3232
15.1354
10.0429
13.4839
15.9571
11.5181
13.7952
13.6937
18.2974
19.8758
12.2082
13.2006
15.2057
11.0043
10.1261
14.7408
14.9912
12.4964
14.3438
14.12
9.1511
8.39134
22.9897
17.6885
11.2964
17.4463
11.5824
13.7984
12.2785
9.9678
14.0892
13.899
9.18825
18.2293
13.651
11.2639
16.0496
17.651
11.2347
14.0765
9.98387
11.3247
17.5118
11.3236
11.9702
23.2855
12.8952
13.6036
16.316
15.5372
11.1655
12.4351
20.6565
11.1928
17.1417
10.7065
18.0871
20.0544
19.6472
15.1021
14.5421
14.0276
15.221
13.4382
11.7508
11.006
13.8595
13.8244
12.3007
9.96261
10.4509
22.7173
12.2627
12.0807
22.7304
15.4308
15.659
12.304
15.0947
9.70347
13.1897
15.3378
9.3991
20.0467
18.8222
11.8618
12.166
17.9884
10.9183
17.655
10.7993
11.7668
14.0339
15.5185
14.3519
11.953
9.61252
13.752
11.1268
11.5549
11.6623
13.284
17.966
19.2031
14.1431
15.4941
15.5662
16.2848
19.5604
13.8296
12.9078
12.2564
10.3096
14.4393
12.802
13.7364
10.9163
12.3142
19.4117
10.5222
14.9474
13.1508
14.1358
15.7946
13.9973
15.9295
13.2827
15.6769
14.2688
12.5204
12.1953
10.9922
11.1385
12.9234
15.6618
17.2645
15.214
12.7598
13.2657
11.0694
13.1145
15.0117
13.8766
11.4917
13.8232
15.392
12.8848
12.1283
12.8787
14.6147
15.1198
10.0797
14.7575
11.6912
15.5926
14.3464
12.8174
13.6013
16.5878
11.9956
15.9611
13.4959
12.047
10.4959
18.5741
10.3157
11.9153
11.2554
14.2955
12.0197
14.1321
15.7307
18.226
13.6089
10.1694
15.5125
15.7958
21.1854
17.2579
13.9008
7.75722
14.8612
8.87401
15.7425
11.902
13.244
15.4583
14.5753
10.282
13.6545
10.4836
14.7363
13.4231
11.5442
14.4098
14.056
11.7341
13.3671
18.8381
11.1809
12.2251
15.0993
9.43157
17.7887
15.1347
23.9076
18.2207
14.0254
10.9763
11.6821
12.7688
12.6085
12.348
17.6393
17.4417
12.4406
9.67156
15.0312
22.1829
14.1234
12.0636
12.261
20.4169
13.2945
11.2816
9.76125
14.6583
15.3546
12.2581
12.6387
12.3524
15.9299
13.1712
11.4282
12.9668
10.8576
17.0322
17.1412
10.6861
12.677
11.1536
14.6761
11.9646
12.157
13.9736
14.1022
12.5104
14.022
10.2671
10.1059
19.7248
21.3141
11.059
12.4126
13.0257
23.9122
11.5682
10.6567
13.4373
11.5457
23.0212
15.2667
16.0288
11.3739
15.7063
12.5237
16.7477
15.8972
10.3196
13.2207
17.5294
15.9934
15.1925
15.9584
13.4731
15.773
12.3502
15.0881
11.8478
14.6612
12.239
14.8671
17.2279
15.0128
12.0005
16.1813
11.1736
15.5878
14.9884
20.8279
15.8335
17.8338
15.887
13.7306
11.0254
16.9803
13.7916
12.9349
15.0968
14.7634
11.9202
12.0825
11.7723
20.4098
10.1842
18.1645
22.0466
10.9938
14.86
12.8178
12.0743
13.0941
13.0185
16.3427
19.267
10.3565
16.8145
12.0994
16.3396
9.24145
11.6809
15.8761
13.3365
14.5287
17.2204
8.5735
16.5311
9.26483
9.02445
15.6166
10.3665
21.4331
12.3974
12.1236
16.6125
11.2398
17.1168
18.4758
14.6928
14.8968
13.2668
12.1969
22.7675
9.60045
15.0749
15.3759
10.1791
11.9844
15.0582
19.5491
16.3528
18.6298
11.7507
13.7954
15.2891
10.7961
12.2966
11.4259
12.9986
16.6887
12.7737
20.902
12.9406
15.2477
13.7353
11.7699
14.1308
11.7885
13.57
15.9335
15.131
14.0439
16.8926
19.1037
13.2666
17.6354
10.8903
11.7835
19.3097
12.848
18.5225
19.2432
13.7774
14.5129
11.9731
8.96972
18.9959
11.89
14.8072
14.099
15.9726
18.2252
12.2066
10.8321
10.5894
16.59
12.4081
18.4574
8.74941
19.218
9.84163
10.6727
11.4323
8.68705
9.61398
11.8411
16.0331
12.5031
11.3623
15.0408
16.1056
18.3037
15.6652
10.1426
9.05787
14.7717
9.21283
11.9864
9.53106
15.0077
8.34085
11.8249
14.4945
12.8764
13.5949
12.8736
17.2537
17.2828
15.1481
13.6663
13.671
10.7549
12.6451
15.4548
12.4741
14.2017
11.2756
17.8292
12.3229
17.1264
13.8175
12.3629
14.3684
12.4319
13.2164
15.698
10.1905
14.6977
10.7433
22.8931
11.8733
12.4632
13.8447
16.0504
16.8705
10.7286
12.7394
12.6988
13.1445
11.8531
11.821
15.0589
14.3573
9.57388
22.5882
15.1113
22.2507
11.1689
18.4472
13.5192
10.505
14.208
15.3336
15.4879
12.2067
15.0651
17.646
18.7522
8.8032
9.55777
14.0637
12.6235
17.4631
10.7606
14.1084
18.8477
13.2639
18.3702
9.87209
18.0337
18.7975
17.6078
17.6604
9.96343
13.1755
7.92985
9.75829
13.6827
15.9345
11.9563
13.8416
28.1005
13.9559
11.1897
10.0738
14.0408
11.8632
12.9243
17.0862
10.1222
12.2805
11.8393
11.5785
19.7253
12.9756
18.8649
14.4888
12.0795
12.2145
14.623
10.9443
13.5349
12.7853
13.5516
12.7078
14.2931
13.8426
9.97045
17.2504
17.4324
12.5994
12.1668
12.3727
14.0836
12.903
9.68294
11.167
13.3159
11.8747
13.7035
13.1924
12.9361
15.8773
14.171
11.9315
14.1322
14.3487
15.8274
20.3108
17.6788
10.6043
12.516
9.65631
15.09
11.2091
16.3924
14.5011
10.1361
12.6662
15.7125
18.0323
14.5168
15.7021
13.4099
20.1592
12.8688
13.9101
18.6547
8.92208
18.6418
18.5418
15.4172
11.9615
11.9839
11.7414
15.5925
14.8024
12.797
14.1485
17.6685
16.011
11.946
11.8845
18.5974
13.8656
11.8472
9.06266
14.6527
13.0306
21.2877
16.1845
12.5081
15.3283
15.7135
10.6323
15.4775
9.11407
16.3692
11.55
12.1599
13.0162
14.042
17.2491
11.8056
9.66401
11.4809
12.1043
9.73989
20.2101
15.0582
12.7825
12.2361
9.56489
9.53523
18.0351
15.224
11.7568
10.8792
12.2918
11.3678
11.1056
14.8815
11.3572
12.1115
23.4965
16.8173
11.0572
13.9499
13.7687
16.6244
21.9252
15.2593
10.232
14.6356
14.6057
15.5308
14.2265
14.3502
14.1968
9.24177
11.3209
9.56179
12.7175
17.82
13.4716
10.1657
11.8732
10.5197
13.3993
14.2287
11.1157
18.2101
19.9724
10.925
14.5974
10.3201
10.8482
12.323
17.4884
8.47931
8.89097
14.2248
10.0531
12.9854
26.5207
12.9061
15.7486
11.9542
11.2357
16.2738
14.3816
19.8872
13.6609
13.7
12.1726
10.4508
13.4029
13.6252
13.3902
26.8962
10.4386
18.7105
14.8252
13.7761
13.2257
11.222
13.9198
23.2815
18.4557
13.9621
14.011
13.2014
11.4317
11.1508
9.00764
15.357
14.5277
17.2341
12.0833
13.4282
11.5712
16.5628
13.5229
15.2253
12.5441
20.3952
14.307
12.9629
13.1557
19.8939
13.7231
8.5992
17.3431
13.6731
10.9384
17.8216
15.4615
9.17172
12.7434
11.1879
8.30605
12.7837
14.4406
12.2103
16.7232
9.08727
15.3743
11.5837
13.8099
21.3146
12.7062
25.3674
16.7624
11.8853
14.3767
12.6712
12.1666
14.1224
15.8085
12.6512
13.5472
20.9439
22.7051
10.6534
12.2216
11.4017
14.1168
14.5881
11.1886
12.188
12.2875
15.8684
10.104
12.9735
13.4938
12.2828
9.71844
8.27421
17.7568
12.2287
11.9446
14.9307
10.0079
14.0286
11.1657
20.8613
10.9161
9.0982
11.6278
11.4317
13.0399
13.826
15.2157
18.2821
13.8176
14.7931
14.5495
13.3569
16.7382
11.3247
15.977
11.9741
10.3968
11.371
13.1829
12.7957
9.80555
14.4445
12.0261
14.778
8.60249
14.2664
10.1368
15.0519
10.1535
12.3867
11.4964
13.1537
15.1547
12.066
12.51
13.5022
18.0719
9.59956
15.4011
9.31923
12.0395
12.9068
16.1753
10.595
27.1608
11.3368
16.834
14.3149
19.6961
11.6601
23.1727
12.4353
15.8218
20.0775
12.8529
8.83488
12.3264
14.9977
16.0153
13.2027
14.9607
13.6309
12.5841
12.1861
10.3345
13.2963
14.4667
15.7206
19.0151
9.43928
10.1302
16.5298
9.96897
13.5035
15.3313
17.5678
13.9249
13.9004
15.6707
13.4173
14.0226
11.9385
17.8181
12.3853
11.9647
13.3945
13.5985
15.0351
20.6327
11.6168
12.3066
14.1585
13.428
11.6038
13.0671
12.5243
16.3296
11.7545
18.6715
12.2626
9.41034
14.8629
9.33442
11.3742
13.4466
17.4806
14.3398
9.64965
11.0199
15.656
12.1243
15.4952
15.844
9.94105
10.8336
15.7902
13.1648
17.1665
12.911
15.5434
14.3273
12.5642
12.6385
16.5665
13.0177
13.5905
15.7402
12.7941
13.341
19.5652
12.2538
11.7683
14.6998
17.3384
11.1857
11.7318
20.2676
14.3085
14.4201
17.5247
12.033
26.678
23.8597
12.0787
9.56049
11.1977
23.0907
12.3339
10.4915
10.4863
12.3705
10.5787
15.4717
14.6451
10.686
8.99733
12.3634
16.6078
12.3969
12.1702
9.90539
20.9849
14.2896
12.2636
10.467
12.2384
11.6831
10.8109
16.421
14.5203
19.0623
14.8773
16.3722
16.9071
10.2578
15.0359
15.7619
11.7709
17.5831
15.4496
24.1565
14.4258
12.7941
14.5338
11.5393
16.1648
11.3712
12.8039
11.7486
17.9782
15.32
9.12301
12.9031
18.2885
18.448
12.943
11.7589
14.868
10.2496
15.486
15.2722
12.2868
9.09415
10.5261
10.7401
16.7948
24.8276
11.8714
10.4027
11.7287
15.0964
15.0601
15.1688
9.15857
12.6546
11.9507
10.9438
16.133
14.3469
11.8622
11.6255
10.5649
16.4019
18.1144
12.4601
9.22118
8.74612
13.7185
16.3629
10.13
12.7309
10.9592
15.2595
17.006
11.0414
14.8827
11.3809
11.9908
14.8791
13.4269
10.373
20.1035
11.7376
14.4537
13.3758
11.19
14.5855
20.148
10.0075
12.2414
13.4577
10.5812
12.9157
17.9444
8.72624
14.5306
12.3757
19.0443
11.9302
18.7966
13.6763
20.7952
15.0009
15.4284
9.73425
8.4508
12.0844
12.4892
17.3869
15.3957
13.4936
22.8759
12.4487
12.6702
18.3211
14.0619
14.1948
11.2837
15.4938
15.5784
13.6116
11.6989
20.3989
9.98013
10.5797
13.2015
16.5651
13.0789
22.7352
11.0081
15.5029
11.5631
17.2178
19.6737
14.4974
20.9467
11.957
14.5929
16.7393
15.5764
13.7321
14.7812
16.329
17.4064
10.5284
12.9898
9.68008
12.5979
12.9034
11.1977
12.7683
17.4061
12.5868
19.5858
20.1327
10.1339
13.8347
10.7011
12.8304
8.74042
16.224
13.5564
13.4077
12.7359
11.1043
9.75992
13.7799
18.3059
16.7495
18.0051
20.7827
12.494
12.9664
15.8671
14.0286
10.8946
16.5941
16.9713
18.4806
13.0935
13.0503
13.1165
7.08482
9.41526
13.4831
14.6103
13.4293
10.0913
11.4823
11.2178
14.3368
12.3684
10.9455
18.1854
11.9703
14.7985
18.216
14.5567
14.7526
12.6961
13.1317
18.5108
9.23801
26.3684
21.6815
15.1414
20.4765
10.0852
13.7591
18.8233
14.5287
14.4027
9.59776
14.1623
11.7082
14.6685
16.2822
9.2845
14.8363
14.6309
8.99361
20.8976
11.4596
17.3263
12.3184
13.455
18.9077
14.3485
15.1518
14.2764
9.41845
16.7933
12.2486
18.8763
11.2981
15.4279
12.3271
12.4448
17.394
12.72
11.7831
10.8114
10.4565
17.2898
10.4261
14.6017
14.1458
16.5941
14.3516
11.9981
12.803
12.5597
10.2749
15.528
17.5578
13.2155
12.9384
19.4221
9.6245
13.3024
15.1964
11.4101
11.6533
21.3353
11.9879
14.4964
12.0657
16.2797
19.423
10.1343
18.1727
16.2855
15.539
12.9771
13.527
8.3343
10.9349
29.4697
11.0503
15.1108
12.0012
11.175
15.9881
11.1755
14.6021
10.9281
10.4475
10.3295
12.5841
13.6969
17.1878
9.38073
13.1446
11.5335
17.122
11.9305
11.3679
11.3728
8.93608
15.1807
9.09642
14.8169
12.746
15.2855
13.9353
11.5479
23.5821
10.1218
12.4719
21.1775
11.8401
12.4236
10.7102
12.4192
11.8962
14.1855
10.9302
11.5814
12.1019
17.8266
13.0549
17.6936
14.2462
16.5776
12.6054
10.6976
13.871
11.6229
10.5138
13.8839
9.53397
13.7703
14.7365
13.832
16.9251
15.1001
19.2962
16.3189
13.1737
12.2516
13.5864
13.9412
12.0976
14.0949
15.3142
12.576
9.78923
19.476
16.042
14.1566
14.5143
10.945
9.19813
12.7898
14.7357
17.429
11.0341
19.1364
10.4729
11.6225
13.6023
13.3841
9.96428
14.7507
17.1958
11.1174
8.62048
9.87529
11.296
16.8435
14.5986
12.6049
17.9304
12.2201
10.2213
16.8662
9.2072
17.4559
11.5526
23.8071
15.3008
8.50411
11.6384
16.0392
15.0027
16.0612
17.8063
14.1626
12.3993
10.7365
12.9415
9.87395
20.5268
13.489
11.1253
12.8877
12.9746
23.7021
13.0364
13.3264
11.8415
10.7163
13.1364
15.9588
9.92525
13.219
19.5507
12.8584
9.80065
12.9027
12.9774
9.88464
8.76424
11.4342
25.4157
9.97632
14.135
13.9448
16.0637
17.4715
11.3735
12.0137
20.0855
16.7874
11.8624
15.7711
12.8647
14.8065
13.6522
16.4201
10.9746
11.2727
11.2091
13.7506
14.4103
13.8856
11.7585
13.9338
15.7229
16.6817
11.43
11.8015
10.581
13.8447
13.4772
18.4545
16.7473
12.4004
13.995
13.8542
15.075
12.2336
10.84
10.0296
17.8069
10.021
12.7144
10.411
12.6929
14.2139
9.25001
15.7112
16.3865
11.1121
11.3121
13.1057
15.7818
18.3067
18.5691
22.2642
23.57
14.2702
9.41922
12.4469
23.3211
11.5865
11.8504
11.788
18.7621
18.0696
13.9124
11.0806
16.0458
10.4207
13.0378
11.7797
13.4308
17.4642
9.51584
11.4755
13.9162
16.7043
13.0833
18.4142
13.0066
16.4225
13.3347
14.8283
11.504
13.5181
12.7417
16.9059
20.6063
18.877
9.87038
11.0191
8.80646
13.6204
10.3303
12.1369
16.6024
12.1628
16.088
13.3543
15.9757
15.1603
15.4972
10.1237
8.07816
10.8425
10.5335
10.9549
13.595
14.4293
12.4818
13.3766
12.5326
12.0192
19.0146
11.1645
11.6513
13.4964
11.4297
13.0089
8.52661
23.2753
16.0973
18.733
9.06163
10.2675
12.3829
13.7037
10.1787
11.1805
11.3364
14.188
10.7867
13.92
14.5932
12.6969
12.3824
14.2288
19.1296
11.1562
15.9364
11.7802
12.8224
15.1499
10.1706
19.4302
10.3551
14.9166
9.07393
18.0562
13.7927
15.932
17.1884
18.835
15.221
10.4762
15.4353
16.0302
11.2807
17.2984
13.3923
10.2439
14.3604
12.1845
16.9976
13.8211
12.3416
10.8201
14.6642
13.2063
10.3988
12.2633
10.3862
15.5544
11.981
14.3799
9.87482
14.7582
16.4975
14.5608
12.6249
13.0683
9.24482
12.3173
11.0862
9.03046
11.5327
10.499
13.6755
11.4625
12.9331
11.2049
12.6961
9.58102
10.8098
15.9238
21.421
11.2627
14.9369
17.7627
11.6243
11.2432
11.5242
13.839
19.4948
13.8021
15.173
8.57549
13.7408
20.3782
15.9532
15.3595
11.4407
13.7563
8.63488
13.8493
14.3894
17.6041
16.5343
15.2347
13.3495
14.8063
12.7873
9.2812
11.9925
17.1796
8.71067
16.1751
12.8463
12.1781
11.8535
13.8607
21.6681
18.4465
21.7755
15.2894
13.1533
17.1294
17.6524
17.3652
15.1853
15.8921
13.3181
15.446
10.5103
13.1393
14.248
14.4104
12.6669
10.872
15.5397
15.3556
14.7741
18.4012
15.1678
9.80194
14.8258
18.8338
11.8419
15.2774
13.1864
13.8418
15.4311
10.343
13.4472
10.3145
16.4341
12.7749
22.4377
16.2027
15.8315
10.725
15.1868
10.8611
10.4532
10.4289
14.972
13.9595
19.6496
12.5387
24.8062
18.3555
17.1155
12.9896
16.5875
17.4183
13.3525
12.5257
11.9281
19.1357
14.9557
14.7182
16.9431
13.8767
15.0102
12.2358
16.0722
16.7316
13.0332
12.4186
10.9152
14.8908
15.3907
14.0524
14.5534
26.451
11.3569
16.355
15.2023
11.867
14.2834
12.5667
11.8368
14.0052
12.971
17.3991
12.0369
8.59032
12.6957
22.0623
20.2952
17.3324
14.3761
11.0344
16.5658
11.0269
11.494
8.96174
16.3166
14.1145
16.9762
11.6104
13.8941
12.308
9.58834
12.7134
13.7912
9.56937
15.2567
13.3794
10.0711
11.3591
14.7337
11.7773
11.3879
9.6652
11.4844
15.5279
14.2843
10.9655
14.7034
15.6348
22.6632
13.7707
12.8483
13.818
11.6952
13.7151
11.51
10.4988
12.2989
15.7932
14.3629
13.1897
23.016
17.4669
12.3358
19.8753
17.5145
11.4038
9.38953
17.4599
14.8344
14.2632
15.5788
18.8989
17.03
13.5438
10.2013
15.2964
23.3417
17.6775
20.2442
16.1206
19.6601
11.5728
10.7589
12.0251
13.0167
12.5478
11.7887
11.5073
14.0702
11.3689
12.0422
13.4024
18.1625
11.3117
10.9858
17.3312
11.2441
10.6777
14.8833
14.2815
11.695
24.8584
15.0681
15.9503
15.0248
18.208
14.9805
14.9164
21.683
13.3051
13.1798
10.4333
10.26
11.9753
14.5157
14.8823
13.5624
16.8242
13.2337
8.60268
16.9713
17.7358
8.94296
12.5201
12.1722
14.2112
19.7181
12.5678
14.5633
24.389
15.255
11.2164
13.7091
11.8005
15.0354
10.9616
15.5309
12.8818
14.352
13.6664
14.3769
14.1482
15.7469
16.0997
10.4858
14.0622
19.7181
14.1297
20.456
9.89706
17.499
13.5194
20.3019
20.4958
11.0876
10.7702
15.334
13.3098
8.13986
18.3911
13.6656
11.1658
9.89347
18.8184
16.0703
11.8904
15.6514
14.0643
20.3794
15.7355
16.0897
11.9133
10.4038
18.7823
17.6423
14.8249
12.9532
11.8159
20.5491
11.9161
13.1176
11.6919
17.6159
14.0488
10.1298
9.27712
13.9592
17.0626
10.8631
17.1699
22.516
17.0066
17.179
21.0504
12.9809
9.4396
15.23
16.6121
14.2104
12.1851
14.1031
14.1364
14.3405
9.72736
29.6874
12.1783
13.218
20.2878
12.3287
13.1714
18.7353
18.4439
18.5932
16.2082
8.31514
15.8796
12.5511
11.5371
9.63856
15.3614
14.0386
16.2553
17.8995
14.2957
15.913
10.9124
14.5919
13.3933
33.7361
16.4828
20.3195
13.0575
13.9919
13.3857
22.8201
17.5422
12.2358
10.7074
8.80607
16.0715
15.0081
9.80398
18.9859
11.9828
17.6041
11.4224
13.2475
13.2632
15.7024
11.6212
9.47594
10.2683
10.6801
14.0184
11.5713
13.4117
9.89233
18.2522
16.9536
11.2146
13.1456
15.1353
14.2902
16.2133
18.751
9.19042
8.49382
15.544
12.9677
24.5945
11.8385
11.8494
9.63933
9.69707
15.2877
15.7518
13.1809
18.892
14.9219
15.5921
12.2337
11.4516
15.8125
11.0352
15.0041
15.2513
14.4593
13.5622
11.137
10.3974
16.9608
12.2096
16.4486
16.405
23.4905
23.5603
12.6543
12.0977
12.6314
9.48813
8.5107
11.8546
11.7302
14.5232
13.7748
13.1806
13.2273
16.0044
13.2474
11.1478
15.1814
13.1454
11.4959
13.819
11.4909
17.4555
18.098
12.6391
8.38409
16.865
11.1732
9.51397
15.0361
16.2351
15.785
15.0854
10.5333
14.3803
13.7255
10.9199
20.3372
11.5277
15.4291
21.3574
19.9175
12.4264
18.9052
17.0552
12.4394
15.0484
11.6098
11.1312
19.5936
11.2209
12.5197
19.7003
17.8321
21.4826
12.7782
12.5604
12.8805
11.7242
15.4571
14.3497
9.01747
16.0657
13.3672
12.9789
18.2827
13.2964
10.1189
18.1054
14.8312
13.6523
11.9913
10.8112
18.6073
7.45243
17.1699
19.4559
10.4731
13.9148
11.3827
12.9053
16.9552
20.1105
11.3649
13.4901
14.3209
8.01227
14.0029
15.145
10.6525
10.4339
15.637
15.2237
13.5117
16.4819
20.5748
11.3088
11.0343
11.7745
11.7142
13.03
13.9757
12.0682
22.5936
14.2623
13.9824
12.7985
14.2885
17.9793
14.3827
14.9986
11.6339
8.08689
14.9807
12.7581
15.1215
15.9605
10.5209
14.8714
13.0873
12.1174
18.0619
16.9435
14.9827
13.3318
9.16623
12.8205
12.8441
17.3091
11.8795
16.2473
12.8764
9.78596
16.0478
14.5029
12.656
10.6827
12.0377
11.3483
13.7448
12.9939
16.1225
13.5962
13.5333
23.2306
9.74662
16.8831
13.8297
12.0897
12.0865
16.7783
8.34083
9.75723
9.89929
12.3224
16.7331
13.7104
16.0904
11.5875
10.4238
10.4626
13.4911
14.7473
13.307
10.7713
13.6189
13.3578
13.1892
16.0888
10.1647
10.8482
9.25923
20.8379
16.2039
13.6994
9.4755
19.0441
13.027
12.6007
11.0186
13.644
10.8046
10.944
13.9052
11.9863
15.9187
10.1518
10.8962
13.9052
10.9436
10.7763
12.3418
14.711
9.64516
13.1756
18.0417
14.3098
9.73279
10.2346
15.2127
12.3904
14.534
13.2258
13.784
12.1528
20.635
12.9322
11.2606
13.5536
17.0886
12.0622
14.2936
18.6212
10.5919
15.0126
14.2147
15.8164
11.8565
13.2295
14.285
11.2281
23.0692
22.1769
10.0239
13.7984
12.1045
11.3424
12.1881
16.6868
14.0813
15.2439
11.3769
17.2694
15.9259
19.0875
11.6082
15.8238
14.86
21.0609
12.0024
14.4485
10.7778
17.261
15.4941
11.1016
17.978
9.04358
15.3602
13.4534
16.0358
13.0995
15.9283
8.93222
12.1697
12.3838
13.965
14.9175
10.7448
13.7632
13.6234
15.998
14.8437
14.1424
10.0657
20.231
17.1384
12.0229
13.4721
20.9503
11.6925
11.8806
17.9028
13.2117
19.6344
11.3131
14.5212
26.2593
16.3965
12.8794
10.1596
21.3459
14.5991
23.0769
14.1083
19.9942
14.6032
11.4496
16.1713
14.3365
12.2513
16.2341
9.69919
19.6043
10.7755
16.6384
19.7029
14.5787
9.76381
10.6142
19.0397
12.7431
17.1067
15.6801
11.4903
20.6186
10.7682
11.2713
13.7114
10.2606
11.7304
9.37465
17.0991
21.2417
16.4923
10.9836
13.1503
13.7763
10.8048
13.843
12.5829
15.5126
14.741
7.72302
15.7579
11.7138
13.4343
11.6493
13.3119
10.3433
23.125
11.7307
10.3648
16.1171
16.4445
20.3651
10.4383
15.247
18.6405
13.6691
15.8887
12.9448
12.6871
15.8152
10.7707
14.2621
17.4275
11.6158
12.96
12.1239
23.831
10.9983
18.8469
10.4754
16.9254
10.2865
13.3358
10.9928
9.44778
14.5614
15.3374
13.5172
8.43885
16.119
14.6911
12.6577
10.622
20.02
17.4233
16.9098
16.6646
19.3253
10.5634
11.4594
17.1784
11.8235
10.5164
13.0707
11.203
18.7903
10.6262
13.6942
17.9021
11.5035
11.4953
12.4909
9.25765
14.2133
10.4538
16.1209
13.2061
18.3131
12.9288
17.5466
18.19
19.5796
12.1986
11.363
17.3835
15.3171
9.25382
9.37948
10.6696
16.4785
17.0267
13.0762
17.0178
12.3565
17.4905
10.1585
19.6543
18.4925
14.18
11.842
14.3117
11.992
12.8206
20.0004
17.9023
17.9485
10.8109
14.7674
20.1217
13.615
14.6396
12.0641
18.0317
11.2926
10.5825
11.7035
13.1478
15.409
13.8442
12.5011
13.4961
9.1814
12.1295
16.5505
9.35744
12.6697
16.4773
15.5891
13.6368
18.5562
10.1114
10.6614
12.0496
16.5235
13.6852
8.33348
13.6618
14.523
9.08662
13.6229
12.6214
9.68331
14.6906
13.3648
17.3806
10.1188
10.4554
13.7178
14.824
15.5542
11.6563
13.5911
15.908
13.3491
11.3596
13.8886
8.77519
13.2333
18.3971
10.7225
13.8314
17.0326
14.6544
14.0138
12.0287
12.4449
10.7637
11.0613
9.45473
13.9847
12.5042
17.4504
22.5169
12.4107
16.6647
13.9248
17.0318
21.1483
11.3633
10.9738
13.7769
14.8664
16.9283
15.193
11.8134
13.7952
10.9241
12.537
14.5562
16.1167
11.8717
15.0035
21.1101
14.7506
13.0427
11.9282
11.3426
25.7319
10.5484
13.188
13.5983
15.1163
16.6912
14.4878
12.9058
10.78
18.1061
16.8037
13.1913
12.1449
15.5819
8.80993
17.9249
18.9445
15.3291
7.98822
13.363
8.00792
13.0892
14.5521
12.7282
12.1861
12.1376
15.4089
15.3567
13.5864
12.6314
8.87328
12.0237
19.3488
17.7943
20.1139
12.6951
11.119
9.95938
10.486
15.5628
14.1175
12.5667
12.5264
11.1432
16.1364
21.8214
12.9807
12.1251
25.6796
13.9942
11.4899
15.5838
11.3057
15.9342
12.8071
15.8579
14.2549
14.2611
9.80863
12.4271
13.0599
10.9301
17.7749
15.7994
22.756
12.0168
16.2622
10.4062
14.8514
8.95367
12.7912
9.22395
11.5817
12.766
12.2284
14.5583
19.4008
10.4477
12.8263
14.1349
12.1727
12.2892
21.1397
12.1978
15.2803
11.2472
18.4133
11.165
12.8834
10.494
9.68794
18.1125
9.82004
15.6467
13.9407
16.3686
13.7842
11.0767
12.408
13.5316
11.1939
15.3578
19.6296
17.8624
21.7528
11.536
14.8759
15.3113
9.55524
11.1872
15.4832
13.266
15.3185
15.0602
13.6702
15.4671
11.5541
14.7907
13.4674
12.3979
11.1545
11.4165
12.5961
18.765
12.3417
13.6929
10.5161
13.4459
12.9402
9.3576
18.3884
9.85495
21.2146
27.5699
12.9304
15.2101
16.7757
10.5308
11.6493
16.0308
18.4774
14.9189
13.8286
13.2312
10.0579
12.8407
10.8084
8.27167
14.8764
13.1075
13.3002
11.4154
11.5658
9.95351
12.4605
10.1941
13.5172
9.43225
14.128
13.0863
12.4631
11.8113
14.8038
9.70849
9.71751
15.5302
15.3546
12.915
13.6768
13.0102
12.9996
14.9024
15.4804
27.6641
11.3337
16.1939
13.9325
12.2307
13.448
14.1314
14.3755
12.348
13.6303
13.7035
16.5346
12.9074
14.1218
10.1392
12.962
11.3495
10.1244
13.8759
13.495
13.3381
11.1557
11.6343
10.3353
20.4581
9.94705
12.4247
17.2513
13.2297
17.8086
11.8444
14.8005
17.5343
10.2662
13.2188
15.415
13.1175
22.0685
13.1101
9.62009
12.7822
13.532
15.9602
11.865
12.91
10.8281
17.068
13.7829
15.6933
19.0055
11.8486
18.9551
11.9963
13.0181
12.4598
11.7939
16.1145
18.6085
12.3825
10.1181
14.6645
9.82483
11.1917
14.9259
12.2162
15.0831
15.4787
11.1211
14.839
14.9833
15.5959
11.1047
15.3757
12.9183
11.4778
10.5855
14.7788
9.68284
10.9361
14.1876
14.8982
13.4012
10.961
12.4963
14.525
15.2075
16.5814
16.4937
12.3066
17.4973
18.4922
11.9259
20.2088
10.9169
11.5831
14.4373
13.3266
13.5366
10.4481
11.9473
14.4119
11.8914
16.1606
12.3501
20.0913
21.5777
15.7162
14.3236
11.2246
13.3966
14.5965
13.8126
12.7091
11.8443
8.93616
12.7256
11.489
9.22592
21.3732
13.1085
14.5326
19.2959
9.65068
11.0571
11.7247
14.2368
14.0645
10.524
14.7898
15.2087
12.3651
11.4591
10.6406
10.7223
18.0488
14.1645
13.1387
12.6893
13.186
14.5254
10.0961
15.1315
14.8721
12.2031
23.5414
16.1148
13.5141
17.8761
15.1363
10.2632
14.7316
11.06
12.7538
17.3296
22.7722
13.9013
13.7217
18.16
9.51441
9.53947
14.4973
11.7458
14.9076
9.8271
15.7917
9.69981
12.2868
12.4512
18.2858
13.9775
19.8958
20.3283
18.336
19.7911
17.5615
18.0862
13.6328
10.7026
17.4579
10.8856
12.8791
14.1073
15.2746
11.4832
13.3517
12.8241
10.9725
8.47988
15.2407
17.6025
11.3362
13.3502
12.6448
10.9445
33.2589
13.2191
13.6631
12.5318
12.1794
15.6424
13.1191
9.14597
10.4846
16.2931
9.70048
20.0558
17.2515
12.931
15.2096
10.4738
9.63638
13.1976
12.521
12.9171
15.2893
11.44
14.8584
10.7819
18.82
11.5305
18.1174
11.0672
10.4598
15.127
21.4736
13.9387
11.1588
11.7699
13.5669
14.2571
13.9787
17.2273
14.6212
10.7672
14.9809
14.6939
13.9701
15.4814
15.282
19.9278
16.8543
17.1828
12.5459
14.7488
19.2467
16.7507
17.8175
14.1915
16.4185
10.3608
14.7419
11.5895
13.9605
25.4345
11.6962
10.0502
12.6796
12.8861
11.9889
12.7987
14.3455
12.0697
18.8672
11.5968
12.2459
26.1066
17.2748
13.0738
21.3202
13.6007
11.705
11.3739
12.8263
9.49619
13.5528
13.3492
9.70995
22.1895
12.0458
14.5543
13.9681
10.8226
18.6241
14.8716
12.3887
18.1139
11.0173
9.98963
18.9622
15.1576
18.2913
10.9287
12.7168
13.583
11.9862
14.8316
20.3772
10.7532
17.0584
17.5015
16.9864
7.8878
20.1633
9.92755
12.0363
14.3535
12.7523
19.1853
12.0226
21.1939
11.4432
12.9655
13.495
12.0922
8.51822
9.45455
14.6467
14.147
13.3051
13.5443
11.9169
11.8411
14.6821
14.0723
18.3098
20.1475
15.6326
15.0541
11.5977
11.9178
17.2564
16.3157
14.5932
11.8004
13.6378
10.5508
11.1514
15.3084
11.3863
14.0419
14.9833
11.07
15.8364
13.615
11.8949
14.3798
16.2483
12.9491
16.545
15.1901
10.0301
9.82485
11.1294
12.2053
11.0126
11.691
11.7003
14.3878
13.4948
14.2155
14.2794
11.9721
11.5003
16.8641
23.7613
16.1215
12.0356
9.73531
10.9581
9.55751
13.594
11.0455
17.2541
10.7742
16.5616
16.0842
15.9132
11.3151
13.9774
13.3496
9.81649
12.3275
14.1676
12.9198
18.0259
11.5228
11.3608
14.931
14.2151
16.2799
20.2715
11.3599
11.5015
13.0494
11.2501
13.562
11.1566
13.6054
12.5181
13.5862
16.2567
14.954
14.2058
9.49579
13.7464
11.4436
12.7213
11.3834
14.0851
19.8211
13.7978
12.4702
23.0239
15.7845
16.4931
13.7162
17.02
27.1194
16.4168
12.9163
13.5263
12.4312
13.439
9.84732
12.0744
12.6088
19.1239
12.4719
18.4014
12.8196
10.8586
12.7021
10.8938
14.3079
19.5353
8.7091
18.7986
14.8749
12.3625
10.1991
14.3513
11.0907
12.4509
17.1552
12.8612
12.3988
14.7885
17.7391
12.3754
13.6311
10.4721
15.9113
14.1102
16.7687
18.0239
9.11738
17.6077
11.305
13.0357
13.4165
13.5408
19.8947
10.3422
10.256
14.3391
18.2778
23.4083
13.6371
8.46148
11.3689
15.6638
14.4675
18.5539
14.6299
15.2124
19.6139
11.2265
11.5718
12.9485
13.9099
13.7907
12.3625
22.7401
14.2604
11.6671
14.3372
12.0318
13.3184
13.1341
13.3923
12.6151
12.1249
11.8919
12.3889
16.196
14.4419
12.8798
14.2974
11.7317
9.50811
16.5212
15.7206
12.0123
14.3
21.5584
20.1506
7.82379
9.74179
13.7811
11.6309
13.3298
15.2024
17.002
27.4576
15.5311
10.3842
15.5945
12.0418
12.0366
18.2486
13.1282
17.3042
9.40808
8.79654
13.1555
11.6397
15.1255
12.9301
12.627
15.8237
14.6054
13.0092
13.2674
10.6538
12.1156
13.5655
11.7882
19.1482
12.3708
28.5066
14.6845
17.328
13.9111
10.5266
12.4542
10.8554
16.0593
11.7805
13.3799
13.638
14.5964
13.7328
15.2683
10.1343
10.968
13.9904
12.3917
15.72
12.2415
10.8776
13.4677
11.9504
10.3804
15.0814
12.339
10.8341
14.1908
17.2921
13.0237
16.247
11.5336
23.7812
12.0828
16.7454
14.3843
12.9559
14.239
8.09181
13.1977
10.105
10.4281
10.9345
11.1971
17.6453
10.7959
14.5208
9.8053
9.87589
11.7774
12.9249
11.1006
18.7918
10.0884
9.70747
15.1279
16.8549
14.1192
12.2636
15.6276
16.3443
29.7147
18.9853
12.6219
13.6084
8.74694
14.3586
13.0132
11.2078
13.8025
12.2857
8.39205
15.0879
12.5492
13.537
27.1037
11.0358
11.5683
12.3139
17.9205
14.9173
13.1959
11.4874
9.27145
12.9324
10.3639
16.0579
15.3999
17.3684
12.984
12.1283
16.9644
12.946
11.2784
11.8421
11.1858
12.9272
12.8247
10.3216
8.62076
10.1589
15.8767
16.2199
22.2811
12.3522
14.6102
16.672
14.6471
8.39879
10.4968
14.2484
12.6134
16.7137
16.962
13.7282
9.38733
14.7216
13.7092
17.3213
19.1055
28.6806
20.5361
12.2149
21.6647
12.6857
12.3258
16.9188
11.174
16.6593
10.3983
16.0397
11.4827
16.5378
13.4232
14.5633
9.94147
13.7173
15.6542
14.5911
22.2132
21.9435
14.588
11.0799
14.6096
18.3228
10.7871
10.8889
14.1325
12.826
11.829
14.6706
13.2939
14.6533
10.9957
19.2657
12.8335
9.8127
12.4007
21.4436
16.2904
15.5432
16.1726
7.49397
9.82376
21.9387
13.0756
20.9805
16.3348
18.102
11.1338
13.1297
17.2035
13.1624
16.615
12.7727
11.2854
13.8914
13.8668
11.4209
17.6301
17.4433
11.1809
13.1173
10.1989
12.0636
10.5137
10.3303
19.7452
15.8136
15.5928
14.1403
16.1087
12.3473
9.84204
15.68
12.472
11.3179
8.79547
18.8186
10.6844
19.2512
12.7511
13.9394
11.5705
12.138
13.0531
14.2296
15.275
17.3709
11.687
13.3741
16.1432
12.9173
12.2126
16.4621
20.7511
10.1705
20.0167
10.3659
18.3169
13.263
20.0974
14.048
10.1343
11.4733
12.0703
8.8613
15.8739
18.7565
17.3741
15.2231
14.0721
15.6513
17.0546
15.6098
11.7079
10.3488
17.2578
22.6039
20.5964
14.6434
11.7699
11.6571
13.215
16.9188
23.4727
12.5345
16.3105
11.6201
20.7331
9.66535
12.7248
18.4095
11.5273
10.5403
9.83667
17.8191
19.5148
12.8107
11.0518
14.2911
22.6269
12.5871
14.792
11.5296
18.9542
13.034
13.0637
14.8238
13.1683
10.3206
18.1388
9.73163
14.1977
15.0667
11.879
14.438
10.1204
19.3957
12.5013
11.1967
11.2772
17.0293
16.7817
17.6078
13.2003
13.3616
17.2022
16.9768
17.2005
11.7561
10.528
9.72299
12.2005
10.9499
11.6361
14.7706
14.1453
8.71005
9.1831
12.6363
15.2042
19.3262
18.2659
13.8581
10.2091
15.9483
15.6762
27.9622
17.7847
10.2334
17.5564
16.6742
10.8504
13.6981
13.5647
19.2394
10.4446
15.1456
19.1221
11.9153
12.5847
14.2399
15.2044
12.3558
14.2039
22.9089
17.2463
12.7791
20.7604
8.74682
15.5714
11.3232
8.79638
14.72
11.8815
17.9557
16.6111
16.6115
16.9932
13.6441
11.3331
14.4515
13.3035
14.832
16.0269
14.6481
12.9898
10.5196
16.7878
11.0769
11.1659
9.38214
14.4491
13.3803
12.5711
23.2409
15.8298
10.5429
11.0917
15.1559
11.7547
14.7243
13.3509
12.7485
10.8217
14.6675
11.5577
11.0985
11.4188
17.0439
13.6201
8.77654
10.7463
14.4185
17.7253
11.4369
11.3825
17.7258
17.7201
18.1385
15.2006
14.5168
10.2976
10.084
15.7748
13.6785
9.05088
12.8847
11.4403
10.4455
15.4618
12.9074
14.1737
14.3785
10.1834
16.6034
12.1286
13.316
21.0299
13.134
10.9472
11.6322
11.8331
9.79001
12.7606
13.6699
13.1991
18.3222
13.8544
11.3753
12.2146
9.90365
13.0089
14.4388
11.2912
11.6803
15.3703
11.6309
15.5847
11.1562
16.9074
16.887
20.6624
12.5974
13.1892
11.0201
10.9824
15.7206
13.4201
17.5192
15.2905
16.9571
14.4105
13.0871
11.8172
13.0239
17.4907
7.3938
12.5564
9.77322
11.4272
17.5398
11.9146
13.4067
10.9498
10.5849
10.1997
12.5579
13.6398
14.1465
23.8035
13.7175
13.3534
10.5415
10.8702
15.3052
10.2436
16.2507
14.0721
16.1867
11.3885
11.6653
9.73118
14.3481
17.2493
12.6284
12.8305
10.6275
12.1819
14.5374
10.9348
16.5829
13.4757
11.9819
13.3392
11.5626
17.1883
9.84016
12.0211
14.3938
20.3721
13.8726
14.8365
13.5681
15.0178
14.2635
14.0321
14.979
9.83144
11.0391
11.9201
11.4873
20.6996
11.0104
8.97376
11.2452
13.6989
21.8584
17.3288
13.1222
16.0851
14.5178
13.4093
17.5444
15.4773
12.3442
8.01597
11.0005
10.6975
10.3307
18.5545
14.7715
17.1388
9.27401
11.0316
14.0018
11.6542
19.8813
14.1534
9.58486
13.2512
18.1872
18.3195
14.0745
18.6243
14.76
15.1112
11.1539
16.0811
11.0248
17.9213
15.7458
10.1193
18.9966
13.6363
11.2131
13.4387
16.1733
14.6098
13.0378
12.001
17.2161
13.1287
16.5742
15.2436
11.3274
14.6067
22.2421
11.9537
15.7887
18.3515
10.3032
18.0123
8.50236
15.4156
12.2072
13.4004
12.2059
14.687
8.68514
11.6519
11.2625
23.8713
12.697
27.1862
11.2385
13.8677
15.6716
10.9511
12.3622
9.47217
13.2937
11.3727
16.678
10.6935
10.3282
16.7896
9.68319
16.64
12.5862
13.3857
12.367
12.8704
12.0171
14.5357
14.2999
15.0408
12.2722
15.2516
16.6498
21.7084
13.5405
10.7553
14.3814
12.4288
13.8282
14.6631
12.6104
13.1238
17.7215
10.3593
12.4359
10.96
10.9378
11.5039
15.2263
10.914
14.1042
16.5427
10.106
14.9327
13.3636
15.4394
11.2747
9.03692
18.0121
16.4309
12.5696
13.7538
9.47523
14.708
17.6204
16.6125
13.0835
13.6984
16.7589
14.3745
11.7561
15.8245
12.4699
11.1519
14.4207
12.165
16.0118
13.13
14.6813
14.2081
14.6723
12.7005
21.3095
13.5893
19.0446
11.3342
9.46795
10.2843
16.5604
10.2421
12.3874
17.1181
12.0975
10.3041
14.4799
11.3808
10.0157
15.6106
18.0083
17.5489
15.7093
10.3378
19.2746
21.6569
13.1577
14.1115
20.14
16.0709
12.2162
13.4687
27.8843
12.3818
17.6039
11.9611
15.877
10.2081
11.0263
21.8532
14.8337
19.0766
12.4051
13.1599
10.9096
19.687
16.0247
13.6235
10.1884
16.3376
9.95733
11.6578
14.3334
23.1232
14.9186
9.90561
15.1804
14.8391
15.1642
12.7384
8.95502
15.4883
13.4042
15.7243
13.7597
10.8428
14.252
11.101
14.7506
12.4349
12.1087
21.9652
12.3205
16.3112
10.8357
13.2657
9.05879
11.7607
9.55885
18.7639
15.2278
12.5982
10.0599
23.0651
14.1701
9.11028
17.5735
23.6166
14.0195
14.8517
19.0842
19.1048
9.4898
11.8751
14.9615
22.396
10.0506
22.5106
15.516
12.8408
10.885
20.204
15.0723
9.81327
14.3996
14.0396
14.2016
11.7397
8.80905
12.9553
17.7524
17.9906
17.5312
14.7979
13.2508
13.5045
11.5079
13.68
15.0965
10.4456
16.9301
11.619
17.8253
12.3385
10.7062
8.81188
10.504
7.83426
20.7773
12.0431
13.6438
13.3416
11.7379
18.1569
15.8711
12.2467
16.6519
10.0134
17.3067
10.5791
11.4912
11.7151
13.3864
11.1183
12.1666
14.318
14.9593
13.0911
9.46847
16.9287
13.4698
13.6662
12.341
14.8794
10.7729
12.1244
15.6259
13.7947
15.5707
17.1963
11.7016
10.6455
17.4571
18.4372
9.76347
9.5558
11.8639
12.0258
10.4626
9.68777
15.1101
15.0162
13.7919
17.4726
17.449
13.1259
10.3514
13.415
15.3306
24.512
12.0164
12.6569
11.9799
13.7844
14.7447
12.7107
14.4618
14.0007
19.3956
13.3426
12.8596
11.8214
11.0894
9.05904
16.7936
10.5724
21.5744
12.5248
9.09372
14.3635
14.5625
16.9073
19.2646
11.7087
11.4493
12.3138
14.8206
17.7255
15.3962
13.857
13.6698
9.86325
13.4659
11.7787
12.6191
11.2477
11.9281
11.685
15.2679
15.037
17.1204
10.2521
13.7701
16.6168
12.5624
14.4485
18.4702
17.8484
15.5343
19.1862
11.4805
13.3562
12.3203
20.5616
15.7097
12.9895
11.875
13.8079
26.5492
14.0493
8.18817
10.0454
13.3997
14.4865
10.1344
15.5622
13.8093
10.1287
14.7372
11.1819
13.1388
15.3232
17.3747
11.4219
16.8904
9.7823
12.2838
15.9302
9.73411
17.1204
12.2318
14.0304
12.6786
16.3038
13.6989
10.7081
10.7849
11.8769
16.3903
16.1131
13.8585
10.255
10.6733
18.4818
12.2632
12.0319
13.0523
11.6932
11.7214
10.1338
12.4857
12.5007
13.5786
12.1205
13.6119
22.2676
14.0681
9.60149
13.4018
14.7517
15.0033
15.4136
14.4005
12.9792
14.3405
12.1308
12.506
20.4229
14.2004
14.2635
9.86918
11.9162
12.661
15.6498
12.2181
13.8526
17.145
18.552
8.25714
18.869
13.9022
16.9556
9.18288
10.0498
10.7732
9.53663
16.6294
20.1604
13.3569
19.4406
11.9868
13.4459
12.9177
13.479
23.474
20.2303
13.2302
19.1084
8.26195
16.443
14.7686
17.3652
18.227
10.7143
13.4597
20.1267
14.542
21.1039
10.6578
11.535
10.7647
14.1257
17.3267
12.7182
15.693
11.4451
23.4871
11.1672
24.8751
15.0413
22.6734
17.6878
13.6962
13.2451
14.3731
12.6587
17.3111
16.158
13.6941
11.4983
13.3472
16.7036
15.8971
11.2357
12.0566
14.7368
10.9947
14.2987
10.3784
11.3764
11.2517
15.5915
14.1441
15.9432
13.2425
13.5842
13.6131
11.5186
13.1295
17.0461
15.2688
17.7925
17.2459
16.511
16.9628
16.1133
14.965
19.975
16.3769
12.3891
13.7964
16.9718
12.2098
13.8218
12.0273
10.3451
17.7873
8.93831
14.2914
13.4589
13.7242
14.0522
11.7074
12.4179
10.6887
15.4389
8.82811
15.9337
10.7543
11.6428
16.8403
11.7863
9.03149
16.4207
8.14676
10.447
17.1147
14.6909
11.2725
10.3692
14.1279
12.141
10.9284
16.7237
9.70148
20.6321
15.8207
12.9374
12.9147
22.9806
14.8404
14.9421
10.976
11.8856
13.3377
19.1317
12.5132
13.3273
11.6611
15.7525
13.0152
13.3549
12.5746
10.2428
9.96168
7.6321
11.2088
16.0962
12.763
13.0966
14.2821
16.3055
13.7785
14.882
12.4597
8.83162
10.8907
8.05495
12.9387
14.8038
14.1995
12.0653
14.709
11.8056
13.8498
21.2212
13.1708
11.1962
16.3072
10.2868
11.7463
11.9043
12.2068
10.8315
17.2276
16.9632
15.0926
12.2728
11.3436
13.6472
18.3097
16.6001
12.7426
13.4357
13.8322
13.655
11.6244
10.5484
17.5404
11.9853
9.86492
12.2566
16.0781
10.9938
13.531
15.8148
17.015
12.5901
11.3594
14.2074
18.3797
17.3665
12.7804
23.2558
13.6555
12.2419
12.7307
11.747
15.2103
9.72632
14.6673
15.0012
14.5571
16.9836
11.3477
14.6803
11.6949
9.72966
9.16571
18.4848
15.3879
22.8075
8.56498
18.4984
10.3897
15.1522
15.0864
12.4924
16.3951
13.2523
15.9267
11.2508
18.6999
14.8339
15.822
16.9276
12.1424
16.5079
16.0643
9.63306
16.8459
12.7099
13.58
15.5095
10.276
17.3482
12.1213
11.2625
16.1365
13.6369
18.2146
15.2139
13.3936
12.6552
10.6922
13.5007
13.5487
14.0037
12.7523
20.374
13.2226
10.5919
12.7634
11.0232
12.6396
16.1172
17.9381
14.3426
8.85234
15.8817
10.4869
8.11592
19.2423
16.4992
13.5817
19.5058
14.2277
16.444
18.8791
12.3314
11.3781
14.3281
15.6828
14.2819
13.7546
16.7409
13.6241
11.389
13.4438
11.7578
14.3974
12.8186
10.1935
12.4264
14.7792
13.0255
11.6087
12.9567
13.6661
11.0344
10.945
13.2182
7.7371
17.3568
10.7494
9.17202
10.6173
18.0001
11.1724
15.5221
15.4292
7.29515
12.4281
18.6732
14.3298
15.7576
12.3757
15.4949
15.6387
13.0645
17.205
11.9844
17.4906
12.1076
12.6269
14.8517
15.897
14.2897
12.0389
15.0509
14.928
13.5296
14.5479
11.6882
15.2845
8.89963
10.4151
20.4228
13.7394
8.03324
13.0189
12.3356
10.9054
17.5604
22.1953
11.9876
15.1259
12.6931
10.3276
12.6988
14.8387
10.4868
18.1884
13.239
14.8457
13.8774
15.3057
12.11
11.2076
11.5461
8.33555
16.3393
13.2463
12.029
18.4276
9.77983
17.7194
9.67629
12.7181
20.5475
19.9743
9.85296
13.7229
22.2884
11.8814
11.3563
13.5647
11.643
12.9756
15.2983
9.80771
11.5399
10.7093
16.5217
13.6793
12.5764
10.9441
17.876
12.3478
17.6573
13.141
9.69637
19.8381
10.1696
9.67148
9.7951
11.0787
11.347
11.5885
15.0214
14.6107
13.6858
16.7696
17.6393
15.4875
13.6496
15.5825
13.949
17.5185
13.6084
14.0397
17.0647
12.8133
17.2714
16.7513
12.0331
10.0045
10.7852
9.96351
15.0724
12.3152
10.3064
8.70285
12.2333
12.2977
13.1968
13.7313
18.6388
10.8986
13.7429
16.1311
12.2672
12.5305
11.5672
9.89667
15.9449
12.2262
12.5913
12.6718
16.6758
17.5443
15.0268
13.1688
14.6006
13.1964
25.9525
20.9436
13.8833
14.3373
15.6188
14.7701
10.5701
11.1077
13.3239
12.3499
9.39301
15.1314
17.4959
11.6835
13.6809
11.1324
12.1567
16.169
11.559
14.3311
11.3651
17.8318
13.4882
11.6142
15.2294
16.3147
13.1817
14.7182
11.6204
18.3398
16.0769
11.7417
15.9988
20.8534
16.8594
19.4083
13.0844
14.4189
12.5112
10.8376
13.0815
9.72064
15.7486
10.6691
12.868
14.3259
14.605
13.1671
11.9676
14.8018
14.2469
10.7837
16.1939
15.5447
15.0167
14.6872
11.2349
10.8912
12.1634
11.7602
14.3823
10.9003
14.7243
13.7569
10.031
11.0719
14.4426
11.815
14.9112
8.878
15.3591
11.6171
19.4973
10.8109
10.3398
13.5857
10.5676
18.4672
10.1811
14.3953
12.3138
10.8328
14.265
15.5364
14.7168
13.2285
12.6681
11.496
16.7668
8.87716
13.9458
13.0296
10.9931
9.93347
23.2933
10.7113
9.28931
9.66895
17.188
12.6645
16.636
21.9881
15.833
27.5307
11.0924
12.5335
11.5976
15.8565
23.7117
13.303
20.3369
14.175
12.3612
11.2203
11.9799
19.614
8.45628
17.2749
24.7068
12.1937
12.2539
9.72374
15.8502
10.2681
17.6128
10.5294
11.8245
15.6208
21.4906
15.5055
10.5586
10.0165
15.5628
9.25197
13.9096
13.9242
14.8497
15.532
14.1235
10.9938
11.5201
8.43519
11.9763
13.4352
15.2983
10.9813
10.8359
15.4708
11.984
16.1005
9.57725
11.1498
19.0491
12.5374
11.9336
11.3598
9.56334
22.1735
13.8355
11.4587
13.8224
14.7431
24.9772
14.443
13.9778
15.6728
13.0137
10.6306
13.5392
15.1265
10.3328
10.9334
11.8361
11.1373
12.6138
15.712
12.595
11.216
14.066
14.5598
11.1946
13.8381
12.5096
15.0825
11.1557
18.3881
10.7977
15.182
10.3604
9.21295
22.6844
8.99361
18.0165
20.7857
11.5248
16.5894
17.0629
13.6265
11.9254
13.3065
12.2522
12.83
20.4055
18.6349
17.1005
12.296
10.8247
11.5423
11.5067
19.1421
13.4851
9.94279
16.8572
11.9292
13.4614
15.2171
13.3241
18.2248
10.7175
14.7723
11.7346
10.8426
12.0268
10.6112
12.7253
12.0967
12.5874
10.2783
13.0657
19.5591
11.8704
16.8565
14.9032
14.4457
17.2638
13.4275
18.0236
11.0872
8.35716
12.4434
10.5013
14.1161
11.4734
12.0714
18.129
11.1894
9.8709
9.58215
18.1422
12.2376
10.1415
11.4846
11.2848
10.742
11.2936
9.44921
9.59766
15.9746
13.4611
11.4358
20.0984
9.21849
14.4261
18.3893
14.6706
11.7502
19.7929
11.1245
22.0128
15.9247
14.3233
14.2442
10.9608
16.9583
14.824
11.8831
13.0117
17.8647
14.3072
9.73851
14.5393
11.7197
13.9029
11.1595
16.5326
18.1106
12.9418
10.5288
11.7698
17.8996
11.7085
8.91465
11.4132
11.7877
10.8518
15.8749
16.061
13.2739
12.7528
10.5852
13.0861
15.1142
9.31198
14.6357
17.3322
14.0321
12.9865
17.0021
12.6718
12.7125
10.1852
11.4885
13.3874
10.419
20.0043
12.1797
27.3723
14.7205
14.114
11.8156
9.91954
9.23309
12.1885
18.9707
12.3785
9.99582
9.45702
16.673
15.6088
12.3501
12.1156
12.9504
11.3761
10.2386
17.9902
15.0149
20.681
13.4523
11.4641
19.7417
11.747
13.0542
10.3528
8.5933
9.37049
11.5956
13.6886
12.5454
14.8907
17.8696
22.6998
11.1271
19.9654
11.38
19.1457
14.6552
11.6865
12.9003
16.7406
11.6237
11.8535
13.1981
14.5682
15.0452
13.9206
10.3959
11.9247
15.8831
11.0217
23.9189
14.9576
15.5107
14.5221
12.5611
17.4315
14.9295
12.1035
11.1756
12.7384
15.0223
15.7985
10.1217
12.6962
11.3268
15.6417
10.8729
11.0971
17.9284
15.0423
14.2994
14.7265
17.4579
10.9769
16.6278
12.4933
11.2176
14.6249
11.5016
13.1893
14.2255
10.98
13.5756
12.6871
9.52485
13.0345
11.973
12.6239
13.9219
12.6868
16.3288
12.2005
17.0984
12.7949
10.6283
21.9366
11.8361
12.9762
11.5356
11.0524
16.1381
13.033
11.5773
16.5117
9.37347
11.9309
11.7021
12.2075
9.44075
15.5821
16.6143
13.8948
9.47519
17.0623
10.8032
14.5156
25.3709
13.4838
13.4144
16.9552
12.0219
15.4839
18.2804
11.9673
18.4352
14.3024
14.2124
10.3407
18.1214
17.7021
14.5038
12.706
11.4744
18.7036
12.5408
16.4179
16.9004
16.9851
12.5802
16.4579
11.2804
12.562
12.534
8.7666
15.9498
20.345
27.8624
12.0778
9.37718
9.58791
13.6587
23.9455
17.021
16.8883
17.9205
9.3035
13.2209
11.7445
12.4663
13.8257
13.8402
14.993
19.144
10.6705
18.2683
15.1732
9.4819
13.7343
13.3104
14.9638
19.0781
13.4692
17.2639
12.3109
9.27588
14.6153
9.8878
13.2757
19.3299
13.3075
9.09158
12.7283
10.725
13.0705
20.1342
13.6739
13.0462
18.4326
10.851
24.4492
23.7353
13.5924
18.6122
14.964
11.4707
15.1075
11.9661
11.7661
20.198
16.0807
9.07905
13.3308
13.0979
8.25329
10.3976
20.7143
16.7469
13.937
16.8007
12.0572
16.0309
24.7354
12.2521
16.6251
11.0532
9.89092
10.637
12.4286
13.4694
19.8038
15.1477
10.6881
14.0775
17.5738
15.7714
12.4181
15.2887
11.354
13.9326
12.5056
10.1936
18.7568
9.83693
17.1616
12.757
9.49447
11.8444
14.2585
14.0034
12.1942
24.8444
14.1725
11.9786
8.40151
10.0088
12.2013
15.5274
12.5994
12.791
20.2848
11.0626
17.0131
14.7394
13.3049
13.0646
12.7183
17.2999
9.58038
13.4444
15.149
12.3225
8.96397
13.11
17.3874
11.4649
12.4824
20.4229
10.8526
8.15314
10.7247
13.9635
14.1721
13.2108
13.8236
10.0336
15.6174
12.1948
17.015
15.3901
10.9405
10.4275
11.9148
12.0008
9.83666
17.2317
13.5278
12.8975
16.3692
18.3363
12.2017
15.012
11.9154
10.2997
11.1356
12.9673
24.9249
11.6827
11.6848
20.9444
12.9211
8.5659
21.7903
13.1958
12.7644
14.7272
23.7788
16.5162
16.0888
13.7753
11.3745
11.1976
12.1921
13.0033
10.6876
25.09
10.0957
17.723
10.4153
13.4067
9.92111
18.3687
15.7281
15.0766
12.8356
14.2268
10.267
20.3313
15.7878
16.5518
10.8499
11.367
17.0495
13.5515
12.0674
11.6966
14.62
13.078
15.9701
11.2824
12.781
18.8103
16.3858
14.9169
17.6102
12.8676
11.1602
16.6157
11.5874
17.836
16.3409
12.932
15.731
11.5992
15.7077
11.3981
13.5254
15.4719
16.2861
15.194
12.8568
17.0158
13.0816
13.46
15.3846
15.0467
11.4616
11.967
11.785
15.6892
13.2076
15.8951
15.4395
12.3581
11.137
13.9236
11.2299
18.5551
18.1546
16.4991
18.6693
14.498
16.2311
18.2362
11.2839
16.4374
16.0932
10.7618
12.171
11.2504
9.426
19.0131
15.8782
14.664
10.0899
14.2568
14.1427
16.8893
17.2943
16.657
15.7637
11.0454
15.0052
13.9702
10.7847
17.4114
14.5949
14.8729
15.6224
12.0462
26.1927
14.1434
11.9673
18.5294
18.1524
13.639
12.8908
13.4598
11.7245
14.7482
12.158
22.1844
12.7379
11.44
13.8229
13.3466
15.4777
8.99282
12.3597
20.9087
13.0818
12.5462
17.4894
12.774
14.5208
15.2718
15.4602
11.6638
20.9424
16.199
12.353
14.7202
10.9841
11.1902
12.2168
14.6777
10.3719
13.4956
25.2577
10.1869
13.963
14.7513
10.8434
11.2363
16.9277
12.4699
13.268
19.3716
15.7565
12.3641
16.3747
14.9369
13.3736
12.5986
10.1303
19.6426
13.0159
13.6148
15.04
12.4924
11.4305
13.0915
12.1114
12.6708
19.3681
20.2921
10.9192
9.25059
14.3293
10.7524
12.1276
15.8314
13.3447
14.7796
22.6964
11.3547
13.2784
16.0207
11.8252
16.0036
14.8014
13.0465
12.0972
9.54444
17.0178
14.1512
15.1812
14.4757
11.7377
16.0009
14.5974
23.469
12.9206
16.4086
13.6874
11.6601
14.9822
14.5473
12.6999
14.1933
14.0789
15.8153
9.67701
10.0725
11.4536
10.6042
18.083
10.8785
10.6078
13.3335
12.3236
12.0144
15.0996
17.9061
10.7564
13.5359
15.7682
10.2616
14.8615
11.6868
14.3898
11.8396
14.1633
13.8092
13.7201
11.4698
12.2512
13.0311
11.9176
15.838
11.405
14.2606
11.7893
17.4249
9.62401
11.2443
11.4806
13.9821
15.854
9.56287
12.1576
14.0536
11.7853
14.2308
17.0407
17.0935
7.02521
16.0192
13.4954
18.6183
15.3767
13.2069
12.69
13.9853
18.058
10.9501
29.4235
10.936
14.0757
11.8732
11.1292
15.1441
16.1555
13.6187
19.8815
21.0408
17.5059
14.6172
16.5615
11.5067
13.5179
12.1678
10.5027
16.2161
15.7775
14.88
23.002
15.0074
12.8567
24.2926
14.3417
14.9293
11.8355
18.5319
9.88277
12.4073
12.4192
13.0915
13.8889
11.0955
11.8495
15.1601
11.0538
14.4537
19.1651
14.001
12.0313
13.4827
15.2051
10.7185
12.9803
21.9017
13.9187
9.71533
10.2238
14.0376
20.2091
10.7189
16.7846
9.67944
15.961
12.9712
12.5113
13.1934
11.7049
14.5989
23.6028
9.33085
15.4781
14.8389
15.3651
17.2657
12.8051
12.2774
24.3554
15.3694
9.41798
12.5932
11.9156
18.4135
16.1258
13.6655
15.5604
10.0552
14.3406
16.5456
13.486
12.9257
15.034
20.6565
9.8385
13.1874
12.2926
12.2931
12.4218
11.7477
18.6997
14.245
12.4773
10.3408
17.6128
12.3508
18.3357
10.388
10.7966
11.9432
10.7322
8.41112
14.9708
9.01
11.159
11.6496
11.9092
11.0492
15.9745
17.8189
18.6171
11.3121
12.0346
15.3747
8.66034
17.4698
12.6339
12.8045
15.3338
13.8425
15.7589
19.8628
13.9365
11.107
17.3637
8.07261
17.3547
14.2257
11.7541
13.4489
10.0539
12.5389
13.2629
13.0405
13.4245
15.1821
16.2975
14.5196
13.2225
21.0117
22.7692
14.2866
18.8391
18.9071
13.382
10.2842
13.4251
9.87457
15.9629
12.6221
13.2364
11.2692
9.87522
9.42529
18.3251
16.7611
15.5295
21.4317
13.4632
18.9295
15.3447
17.1974
11.836
10.241
10.8515
12.6637
17.9433
13.3772
15.3395
16.5278
17.7094
13.4367
9.53598
12.9656
11.3094
12.2948
10.9568
10.9486
11.431
9.48786
11.6953
18.302
12.8318
14.6901
18.7839
10.0433
15.6406
21.5725
18.2756
16.2208
16.2455
20.5386
12.9375
9.23443
18.1106
12.7145
11.5886
15.3357
15.2669
14.3419
15.2519
13.6026
11.7153
14.5169
17.998
11.7454
15.1332
19.3001
16.4765
11.6532
21.8334
16.091
12.9862
12.2042
10.3459
15.8452
14.3938
11.5002
14.5405
12.331
9.5706
16.6116
16.032
12.9124
14.2533
13.7875
13.2992
19.507
11.5825
16.8862
15.1773
13.2132
11.4257
14.4097
13.7971
12.4474
12.7535
16.665
10.8072
14.0853
10.9896
22.6735
9.08786
14.5693
10.0769
12.2943
13.4151
13.3751
13.6937
12.0112
12.8248
17.9722
11.7297
10.8855
18.7223
13.4702
14.7681
9.5357
9.11675
13.3876
14.8683
10.887
11.2048
15.6802
15.4335
16.1283
13.1913
13.7779
26.4234
8.43541
16.3942
17.903
10.2191
11.8828
11.2561
13.6831
13.3624
13.8432
10.3261
8.4703
9.78085
11.5247
9.9098
12.6066
14.5875
15.8687
11.6654
11.2565
10.1517
13.0207
10.2078
15.6436
10.3312
20.409
10.7778
13.8891
13.7558
12.7725
14.8251
17.982
13.6927
13.5197
16.5288
16.0513
13.7063
14.4829
11.3668
16.1309
11.8814
27.5483
19.1369
21.5207
15.9901
11.5682
11.0037
11.3228
12.5806
10.7617
12.0397
11.1352
12.6836
10.3528
12.0294
16.7641
13.5675
10.2769
13.2103
10.5715
12.645
10.7291
13.7901
18.1272
8.80553
15.9556
14.8117
13.0615
10.0559
25.7352
12.8783
10.5209
16.2262
13.3064
11.4793
13.0223
11.7703
12.6494
10.2291
17.2366
17.6472
16.2671
14.6555
10.9374
12.5857
15.4227
15.0595
19.0519
9.20227
13.541
13.4681
12.9103
12.1103
13.4777
16.7602
20.1262
9.45127
11.3759
10.0948
12.7228
14.3477
12.2972
14.487
21.8618
14.6164
10.9868
14.9547
9.32315
10.9014
12.5152
18.9987
21.6906
13.5219
8.27251
11.04
14.0832
12.4719
12.8162
12.9941
12.1171
14.4364
18.4788
13.4027
20.8493
11.5043
10.4351
15.1575
11.669
11.5608
12.7355
18.0177
10.5779
15.9425
13.9269
11.5485
15.0536
13.4184
14.8579
11.0543
13.6049
13.772
11.3935
16.3231
18.1421
17.4243
17.9709
18.9476
17.2981
12.28
13.6053
14.1222
20.2597
12.3572
9.45853
10.8362
10.0995
12.8197
11.1023
14.6786
21.1779
15.32
14.7103
9.95372
14.5415
15.79
12.7296
11.3416
12.8649
10.5043
12.8534
11.5685
19.0292
14.7631
9.87279
13.8905
13.6338
27.8012
12.9213
12.5533
11.2584
15.3557
11.5636
13.1587
12.7739
15.6705
9.18283
19.3327
17.1743
15.3161
14.4057
19.3993
11.8495
17.3309
27.5631
14.0228
11.1584
9.11036
13.1402
9.95969
10.9822
10.6763
18.5696
12.7983
14.8047
15.6737
11.7731
10.0634
15.0354
12.9557
10.7845
13.6459
11.4524
17.6486
11.4365
16.1965
12.1635
9.79583
10.4723
18.4996
9.30965
11.885
11.1026
13.3042
20.2813
17.339
12.8268
13.5713
23.122
19.2229
17.7596
20.7353
8.91624
14.0763
17.7044
12.6657
15.6588
12.5611
13.1527
11.5427
18.9872
8.20699
16.0616
15.3702
13.8767
15.4364
13.0761
14.775
16.5248
9.64112
12.3007
10.9112
15.3398
15.5324
17.377
17.1624
11.7291
11.5343
10.7937
11.6368
12.7864
14.7164
11.9709
21.3321
10.4979
14.3856
12.5581
12.0326
9.33398
12.2446
17.4376
14.1745
15.8032
13.7921
14.1376
15.3659
17.3361
14.8569
10.3219
15.0702
17.8239
12.5468
11.105
10.8684
13.3819
16.6099
15.5612
11.9969
13.6827
11.8863
13.3538
14.3
12.0997
9.66676
19.8011
12.2873
20.4273
15.4132
13.7249
21.0783
10.7596
13.2353
13.1409
12.5638
15.841
21.4022
20.5948
13.4512
18.3721
13.9081
10.629
12.3632
11.2024
15.4204
10.9078
10.7969
8.38116
11.0652
14.8139
9.05834
11.3789
13.9157
10.7025
8.791
13.9484
16.9172
15.4751
19.2225
12.8546
16.661
14.8439
12.9336
10.6947
13.6788
16.0554
20.172
12.3423
10.081
16.801
10.8981
8.82948
11.4214
9.6233
18.6997
17.2522
11.6641
14.0364
12.1444
14.6197
13.4145
14.6261
14.3282
12.0852
16.1071
14.2454
16.1401
13.1699
9.32027
9.38394
14.097
19.4042
12.7471
23.0602
16.6997
15.8044
11.0966
14.0626
13.8635
12.1158
12.0031
14.9424
16.8233
16.483
18.9383
11.9667
16.3734
8.4548
14.432
14.7523
12.7844
12.859
10.3304
14.6843
9.47175
11.6669
10.2793
12.2421
14.6533
22.1041
11.2358
15.4278
16.0713
13.5297
8.21701
17.6384
15.8305
11.2271
18.7203
11.9938
14.8406
10.7247
9.32958
16.0136
16.3769
11.7835
16.869
11.2214
12.7359
11.7097
23.1017
9.4077
15.2134
25.7998
11.3015
13.7292
8.12234
20.3219
12.3596
10.163
9.33301
15.287
8.9158
15.2533
11.8095
24.0249
13.6709
12.2918
13.8535
15.054
12.2945
15.1495
13.4028
9.6366
14.1296
22.181
12.7792
13.8263
17.6001
12.4187
13.9275
14.3017
8.01022
16.8945
9.69547
13.2223
17.7698
16.0605
14.785
16.365
11.4455
13.3543
17.8048
9.37629
12.1592
15.496
10.8003
18.1086
19.0226
8.05456
10.6363
10.5263
12.5312
12.4205
13.1297
18.4106
11.2908
10.4047
11.0338
12.1549
13.4006
12.7227
9.76257
13.9605
11.17
14.177
13.2905
12.2699
13.635
11.3978
15.7347
21.1951
18.217
10.4586
15.3793
14.8581
9.51077
24.7568
10.4542
14.5369
11.8397
12.085
14.9038
16.2796
13.1368
12.2965
7.86528
22.1013
17.3572
16.0981
15.8264
13.2295
15.026
11.097
16.4281
10.7913
17.009
11.3549
13.2013
21.3838
12.3094
12.3588
11.0869
16.7532
11.7365
9.05078
17.4807
15.523
10.5662
14.5696
12.3024
13.589
13.2729
20.6968
18.4426
15.128
10.1676
11.8954
12.1562
10.8876
18.7181
14.4706
18.9069
10.7538
12.7623
16.9975
18.9238
15.4394
12.7502
14.7078
12.0028
12.4647
13.2283
8.76259
16.4174
15.3905
14.4886
13.5968
9.44774
13.8883
11.6339
10.1062
16.944
16.7927
15.0945
12.6095
13.9161
11.5334
11.7353
11.7794
19.0569
11.4397
12.2996
12.8438
16.7789
11.786
11.6634
28.6422
13.3654
12.1374
12.582
15.2928
20.6904
11.0971
11.6553
8.66422
9.22285
10.1492
13.687
13.546
14.3352
15.5128
19.2787
18.7525
18.0558
13.357
9.44589
10.1074
12.2943
9.48477
16.1564
9.78087
10.1879
11.8608
14.9137
11.3225
14.5157
19.3817
15.0632
11.2411
8.82483
10.7293
14.5499
25.7688
9.94644
10.728
14.2968
11.0844
13.2588
27.2908
13.141
12.4337
13.686
9.83765
18.1498
11.1187
12.5195
9.67107
12.1075
13.0433
11.118
14.6965
20.6337
11.8665
10.7776
10.2839
9.16214
9.87999
16.7087
12.7235
12.0807
12.8204
15.4374
12.747
14.276
12.9902
14.6247
8.95641
10.4807
11.3096
11.3811
13.5294
12.1764
14.9569
16.907
12.1769
18.5203
11.7056
16.2159
9.34513
10.7146
11.0218
14.2433
18.5656
11.4568
11.7967
11.7559
15.5416
14.5647
9.97147
13.5902
10.0863
11.7879
15.9804
15.012
14.4383
13.5151
18.1311
18.8312
16.6307
13.1956
15.7944
13.0484
12.5122
12.2942
14.3469
11.9934
12.147
16.5953
12.1939
17.0729
17.8488
12.8532
11.0976
15.8761
15.4775
12.6475
10.8295
16.9915
15.0895
18.213
11.1915
11.4903
20.7216
16.4296
14.3309
11.9947
12.6687
15.4385
8.77018
13.0289
11.4441
12.1635
14.7884
19.5631
21.5333
18.0768
10.9022
11.0119
17.7228
13.641
15.5864
9.95458
14.1279
17.9015
11.9927
12.0651
12.4581
13.3413
10.9041
10.4912
10.5361
12.3319
12.3973
10.0347
14.4557
13.4716
13.429
10.9938
18.3891
15.8782
8.38594
12.7632
13.7936
15.0278
11.3251
17.6673
11.044
16.9714
17.6309
12.1788
9.2383
14.7494
16.8372
10.7288
14.2275
12.1495
14.2514
22.6382
11.1372
12.0729
28.1156
15.1365
16.7855
14.2975
10.9885
14.3786
15.4383
9.52842
10.9924
12.6189
17.1201
23.6371
9.94815
13.5615
9.30803
13.9843
16.0399
14.8042
8.54529
15.4753
13.7573
12.7328
11.9003
14.6821
13.3858
7.52129
17.9929
12.8685
15.7278
11.1677
14.0407
11.5276
27.7014
18.1479
15.6301
14.0182
12.3819
17.0445
12.3018
12.8393
16.301
19.7602
14.2554
14.4216
16.1846
12.6387
15.6885
11.4635
16.8553
10.7182
14.9767
13.3243
10.2286
17.3393
13.8569
11.6624
17.8832
11.5451
13.717
19.6497
9.97185
18.545
11.5346
15.2786
11.7846
13.7772
14.0768
10.2831
11.2903
13.1401
9.0076
12.8186
13.5099
18.3257
11.2603
11.3518
13.3161
16.163
17.9667
16.0439
11.05
12.1674
14.6053
14.3062
11.7423
12.863
13.1374
14.0017
12.2097
18.9599
8.93659
13.4275
13.7281
14.9866
11.0345
13.0959
14.0567
20.5178
21.8864
11.2424
16.0356
11.1573
17.6795
14.3363
14.247
15.095
13.6817
15.9944
12.4778
13.9022
12.8793
15.8664
14.051
13.8426
13.7477
16.2684
9.54635
16.1036
17.566
8.30089
12.5171
20.6504
13.1508
12.4735
12.9295
9.88212
9.8004
13.8406
15.9368
14.1686
16.3529
11.9946
13.426
14.4572
14.5354
12.5265
12.8916
15.3638
15.0639
11.7109
16.1597
12.5247
14.2949
14.1721
12.5153
13.0395
17.4059
13.9499
14.1286
10.9235
12.4662
15.3541
12.774
10.1633
11.3368
11.7082
11.3143
11.1727
11.9752
10.615
16.354
14.4916
9.6034
14.9487
12.3062
18.5197
11.0402
10.266
11.8198
17.6697
10.7733
11.3904
10.9623
10.2813
15.4451
9.64131
19.2335
16.3672
14.7632
21.0825
13.1279
12.6642
7.12496
12.66
13.8772
12.9612
12.6993
12.3718
12.9863
12.4625
9.33552
14.1599
14.2183
11.0116
10.1545
15.6728
13.6374
17.6916
11.1132
14.7667
16.4101
11.2588
18.4331
16.6246
17.9107
16.0687
18.0359
12.9924
12.7696
14.8594
17.9246
15.1546
12.8033
20.2874
16.3547
20.0054
14.6427
12.9599
10.9361
19.1565
14.8531
15.8843
17.864
15.9851
12.2203
9.78555
13.8046
10.4209
12.8677
19.3426
13.2591
12.2906
11.3235
10.6029
14.091
14.7032
17.429
18.285
15.2782
19.4648
18.4234
18.8127
9.02064
14.4456
14.1915
13.5405
11.5438
12.5938
11.9071
9.75823
15.3506
12.1398
11.5097
12.9981
15.6676
9.90469
19.5893
12.8414
12.319
13.1783
10.982
11.4816
11.482
10.2126
13.3809
17.1784
18.1887
15.0069
9.47823
12.595
14.5827
12.1503
12.858
10.4339
11.5504
12.6259
10.0918
14.8223
18.6026
16.6037
14.6503
11.0589
12.9302
20.3571
11.9489
12.0194
13.3696
12.0674
12.3056
12.7181
18.7553
11.8736
13.7684
12.1739
19.6452
14.6641
12.1635
12.0978
16.4593
10.7456
13.8447
13.5159
23.4044
11.757
14.0092
16.4559
11.527
21.6056
13.0128
13.8947
11.2732
12.8999
11.8365
11.5434
13.685
20.2526
15.8393
14.2944
15.09
10.4497
11.466
15.4698
21.0722
13.5579
11.7523
13.0987
11.7232
12.2312
10.6067
9.86923
13.1555
14.4627
10.0829
14.0943
11.8155
14.182
14.1597
13.1988
14.6547
11.0576
9.9782
19.4797
15.6304
15.2533
15.4942
14.807
7.72961
15.8042
16.2204
13.6614
18.2014
10.5631
10.6634
10.0299
16.34
8.42279
21.7926
12.2426
18.455
10.7584
17.392
11.8955
15.2812
11.0035
11.1206
17.0874
12.2164
9.71797
15.3041
12.7843
9.52075
12.8096
10.5028
10.588
10.4534
13.901
16.141
14.8337
29.2691
18.3354
15.9916
11.3144
20.8345
12.6403
17.5632
14.8617
14.1781
11.382
11.3197
19.9766
14.1283
25.606
17.3257
11.2791
12.2392
10.6234
10.7078
13.0216
9.79138
11.1361
19.496
10.6608
11.2913
16.4013
12.1932
13.9516
16.6728
12.6872
12.2296
12.1856
11.5662
13.0698
16.8982
10.62
10.5698
13.1935
15.9142
11.832
12.4585
13.4867
20.462
17.0222
15.9748
11.022
12.6313
10.0189
9.38068
11.3367
12.1768
11.5151
22.1436
11.5335
10.4344
20.1465
13.0862
15.2909
11.3052
13.9996
16.1421
12.5172
17.3302
22.0869
12.1159
14.2559
16.2727
12.1592
11.1375
14.2863
11.0132
17.8611
10.2629
23.9096
12.6724
10.6726
9.93149
21.9747
12.3764
13.6122
24.6593
13.5825
13.3813
20.8128
15.3305
15.65
18.2558
12.2051
14.0813
14.9565
13.0835
15.7989
12.1504
9.11261
14.1869
15.1835
15.7411
10.4552
22.6241
14.4743
9.83532
11.5388
14.5074
13.2574
12.0419
13.8094
13.5452
15.1259
17.3352
11.1758
10.7052
10.0411
13.6528
11.9735
11.4696
14.7868
13.2286
15.5483
10.6629
10.5708
13.4911
13.0235
9.41912
15.0784
18.7456
13.0628
17.2757
18.8944
15.4159
12.3646
11.4514
13.9183
14.082
13.4193
10.3019
17.3608
12.4408
11.7541
9.66596
14.0983
19.6587
14.838
11.943
18.8724
12.5519
14.7585
17.743
12.0761
17.5406
14.1722
21.1827
11.7171
14.5724
12.1098
13.6194
9.83134
22.4536
10.213
13.2345
13.5701
14.3224
14.8897
12.9319
13.5233
25.1724
14.3807
14.0975
11.3081
17.6008
14.7986
11.3968
14.9437
10.2362
10.4906
16.2461
21.7167
16.1809
12.3284
15.6898
12.527
12.3516
13.932
11.0102
24.4669
12.7308
12.8727
14.6434
14.0127
14.5812
17.4841
9.7287
14.033
12.914
11.8116
11.4001
13.6056
13.0059
18.6251
11.4828
15.1328
17.2761
18.8001
12.3915
16.5053
12.2167
12.9177
11.9197
10.9418
9.69671
11.3879
12.9114
13.8535
9.46865
19.2492
14.3394
9.32859
16.2041
15.6172
12.3414
10.2032
9.48077
11.2246
11.5946
15.6644
14.2668
13.9641
15.5343
12.5895
12.4291
14.691
16.7062
14.2466
9.3282
9.41177
14.5384
18.2163
11.7329
11.7688
17.1263
14.924
10.1044
13.115
16.4589
14.0713
21.2513
12.1962
14.0834
14.7077
10.824
14.1084
18.4633
10.7099
12.1148
12.0785
9.66709
20.1515
13.8675
14.2374
12.8882
11.2631
13.4241
10.7881
21.1738
11.3064
18.0528
16.6288
14.6039
14.5545
13.4141
9.45095
11.1861
12.3944
15.3105
13.2069
11.7849
17.6636
13.6671
17.8173
14.8162
16.2554
17.6308
27.6602
11.6277
8.0354
17.5844
18.7446
13.6689
11.9105
14.9639
9.98919
13.0311
15.3965
18.5883
16.2521
11.5893
17.0391
11.0344
18.4173
10.3612
10.312
18.3228
12.777
12.7886
17.3145
14.3945
13.2703
13.4563
11.7009
13.112
11.735
11.7027
13.1728
13.33
16.8323
14.4492
14.3913
12.7277
10.97
9.02225
18.9728
19.3885
15.0018
22.671
14.6386
14.6065
14.3873
17.473
10.8424
19.3757
10.5942
11.7084
12.5176
8.93902
10.6578
15.0836
10.5096
14.7659
15.2121
13.84
10.8966
16.6295
15.5208
11.3525
9.46022
12.4181
14.0126
11.8628
15.1819
10.1472
11.6035
14.4422
10.1138
10.9726
12.6877
13.5781
15.9827
13.7138
14.0278
11.2515
12.9845
9.32768
18.4387
13.0833
14.428
19.004
13.0786
15.7289
16.2014
12.1462
12.8535
14.2827
20.3153
14.1703
11.5779
10.9667
16.0166
12.7232
15.204
16.3493
8.88704
12.51
10.2225
9.03923
15.6941
13.5126
12.6097
15.2759
15.2322
12.2913
19.0748
13.082
16.9361
11.6246
14.6017
14.8821
22.5927
9.94914
11.6664
11.5325
15.1964
11.3432
16.5304
21.0573
14.7582
11.0956
10.1325
12.3638
13.2647
20.4957
13.3534
11.0074
10.3661
15.6662
12.0328
15.9224
15.9567
10.9293
19.076
17.7001
14.5862
14.2023
11.4066
9.84164
26.9934
15.8672
12.5804
9.23768
15.628
18.9667
16.8618
20.2404
11.1908
18.5965
12.3768
15.4292
12.8116
13.4065
14.6793
16.3919
18.0295
12.0856
15.4338
12.391
12.4225
13.5626
11.8068
8.7865
15.7151
14.0578
12.8169
16.9587
13.2911
13.4508
13.6154
11.124
11.483
18.5137
22.6377
11.4676
17.458
9.84351
18.4149
12.5534
10.8165
11.1147
18.1301
13.3008
16.9995
14.8667
17.3756
8.5941
9.19727
10.6451
12.2375
10.9426
11.1481
13.1359
11.134
17.6875
15.9061
11.2707
10.1777
14.7311
13.6754
17.3812
14.8535
15.4638
10.4723
18.0589
13.838
12.62
11.642
11.265
18.5756
10.1375
12.2389
13.3585
15.005
22.1488
9.41729
14.3576
17.1126
11.0233
12.2609
19.75
12.172
9.19049
13.0801
10.8716
10.6357
13.1705
21.6497
17.1079
14.7331
15.916
14.1867
12.7887
15.6881
8.40672
14.4508
17.11
15.7894
14.1119
17.3163
9.62679
12.4595
15.5097
11.1297
16.5517
10.0754
13.7155
11.3295
18.7518
8.59496
13.7539
10.6283
13.135
9.53004
14.9922
15.3873
12.9844
12.7253
9.54557
12.9407
10.9461
15.2154
17.8225
16.2528
19.4497
13.9752
15.8665
15.1773
12.2145
14.4275
12.1258
10.8721
22.3128
15.3698
11.2315
11.3298
8.71899
10.1698
14.3433
13.8282
11.132
12.4747
10.0847
11.5599
10.9251
15.4749
14.5007
12.6161
17.8107
16.3373
22.5814
12.3719
15.9258
13.2954
14.0104
15.1509
12.1198
17.3221
19.5795
13.7103
18.1499
11.2378
16.7058
18.8348
19.0415
11.5775
11.1722
10.7963
13.9962
15.3468
13.65
16.7934
10.9094
11.5065
11.3161
20.0639
12.0337
17.2615
11.5751
15.7973
16.9526
12.7945
14.6243
11.2076
10.3358
10.2072
15.5052
13.2116
13.8846
19.57
15.0956
13.3333
12.2275
10.3307
14.9176
7.70932
14.3587
13.4923
13.4766
9.58324
10.4688
15.0406
17.4579
10.3442
14.9212
12.8451
15.0231
14.5204
11.3231
21.1949
12.9402
12.0033
12.2316
11.7351
13.6455
9.95427
11.0178
11.7108
10.5754
17.2915
16.5959
14.4092
19.6255
13.73
18.1577
13.8486
18.2663
12.6417
14.9648
10.6458
14.0904
12.4547
12.4805
16.3291
13.0791
11.3072
12.8839
13.9875
13.9607
26.1624
20.1153
12.3176
13.1342
10.7466
11.6182
10.7157
15.6053
11.6471
10.5459
9.23317
14.3098
24.5029
10.7872
12.7127
15.4238
16.1835
10.1628
15.1722
15.8066
14.0939
9.63184
20.7424
10.41
11.6014
10.0146
9.19466
16.4401
13.0764
14.6386
10.885
11.7701
9.545
14.6948
14.1917
9.56928
10.0152
10.3568
12.3794
14.5311
18.1601
11.7023
18.85
16.6449
17.6149
13.165
9.98489
16.8248
11.5392
14.8117
20.1654
19.0367
15.0588
11.0608
17.5541
8.89601
14.9831
10.1058
10.7944
16.1126
11.5794
18.557
13.7069
14.1516
11.5618
13.0856
11.9882
9.04938
15.6602
17.0684
12.1947
15.2738
16.7571
27.1462
14.3154
17.9222
23.0055
11.5949
16.0549
8.3177
12.9738
14.6464
17.229
13.5006
11.9481
11.726
12.0697
17.2585
16.6791
9.09745
9.85675
13.6371
10.2236
22.3738
11.9115
8.60376
7.55042
16.5885
13.7969
14.9662
18.4005
12.1754
10.941
16.1054
17.0476
13.6562
12.4029
22.5742
12.3258
10.5655
13.4369
15.8461
22.4096
14.2763
11.9337
9.48761
14.4362
12.7913
9.18212
9.67386
20.4032
15.2324
12.6913
14.1192
15.2145
13.6864
20.5955
11.9912
12.9091
15.8273
15.1832
12.7955
13.1218
12.616
13.8167
13.4403
10.5629
13.8911
11.2437
11.6222
11.8296
18.6275
16.0683
11.6208
16.1954
13.0773
14.3183
14.4991
16.0225
20.7361
13.9422
12.0748
12.8732
9.53055
19.5571
14.8123
13.676
9.19223
15.4758
14.8143
17.1498
19.8478
12.3125
10.8156
10.6921
16.7899
16.4297
20.3741
13.8584
21.1443
13.4215
18.2092
13.1895
11.3321
14.4211
11.9255
9.6767
14.027
22.2553
14.8816
14.6742
11.6452
10.6901
13.1545
12.8524
10.5022
14.4154
15.7288
19.0357
13.2887
22.2923
14.862
15.5067
11.8369
12.9526
15.4006
10.8316
12.2911
14.3825
12.2296
12.4851
13.3805
11.7998
18.9181
12.6009
13.7309
11.182
14.3496
10.8701
19.4293
24.8686
10.842
12.2425
11.7598
12.5806
9.59298
14.6391
9.88546
12.6724
13.0922
10.3544
13.6929
11.7024
14.5254
14.2668
20.3441
20.2111
18.5222
16.8868
13.4496
16.3183
12.7475
20.3685
16.5217
14.9015
9.42535
10.7278
15.2539
12.1364
13.8451
11.1565
10.9951
14.1154
9.83131
14.8008
14.5977
13.5286
14.3002
12.0241
11.3098
15.0388
13.3879
13.5602
14.977
17.0328
13.6548
11.1239
7.9322
18.7647
11.787
14.9866
10.682
17.3547
10.3822
13.5257
13.9332
10.9688
13.9125
18.9012
15.3936
10.784
12.2563
9.68723
13.7993
20.4358
10.2838
12.2945
11.6481
12.4762
12.9938
10.2696
13.6545
17.8737
8.92741
9.41659
13.0602
13.0512
13.6469
14.1326
25.1325
13.2184
17.6721
19.4225
15.2853
11.7069
17.976
16.9881
20.0056
13.9259
14.87
19.34
10.4178
13.9285
11.2592
17.0763
12.6213
14.8944
14.8081
13.2444
13.9675
14.2598
14.5958
17.68
17.9213
10.3711
11.5369
13.7223
14.5689
12.2853
17.2363
13.1551
10.0052
12.0546
14.3329
9.26059
11.6244
10.5537
12.2875
15.0496
13.1936
17.0277
18.4969
11.9117
13.5551
13.1772
14.2798
12.502
13.1641
18.2908
17.4143
11.3602
19.6117
14.0987
12.3099
22.1806
15.398
14.2976
9.75257
14.3838
9.79136
16.366
12.8001
11.6783
11.3811
20.0205
23.7445
11.4908
11.6041
16.7866
11.2976
11.7988
13.6581
10.2309
10.7667
9.96265
14.5498
13.2148
8.16978
14.0912
10.9362
16.6301
10.8248
16.5848
11.5417
10.968
15.9033
15.788
12.3444
10.9033
18.8656
10.2255
9.87664
13.3717
14.1102
13.1069
14.349
19.7614
16.8121
10.1721
19.7432
10.6108
14.9079
11.8531
11.5112
17.9674
16.0577
11.3509
12.1714
20.358
14.3272
14.9983
10.3526
15.6291
11.5357
11.0611
13.2846
16.5681
14.743
18.5826
11.6455
16.8678
10.274
11.0418
12.4253
18.2803
10.8971
12.0722
13.4266
11.4795
8.59467
12.6413
8.28049
14.6099
18.4421
12.4234
12.5056
18.4964
15.1664
12.9513
14.7117
11.9901
11.5071
13.2881
18.9626
17.9742
15.9081
19.6847
12.5754
14.8323
17.8783
15.012
12.2276
10.2693
13.5668
10.5712
15.1159
18.2834
10.7325
14.4129
19.9623
12.4149
16.8531
11.1792
15.7189
12.7306
18.1585
12.5157
14.9502
18.3058
11.0222
13.2801
16.5384
9.79505
18.2208
12.3348
12.9036
13.9456
11.2368
14.7503
12.1607
11.1913
11.2455
14.7299
14.0959
11.6265
9.80548
16.592
15.5622
15.2425
19.1712
17.4874
14.1099
16.2475
19.9591
13.3741
12.2602
9.80133
13.8307
13.4057
12.3596
9.15499
9.86009
17.3942
14.4148
12.5751
15.3172
19.9916
11.9567
11.6243
11.1389
15.8558
9.88977
20.0188
12.006
11.9624
13.3988
12.5766
9.98713
19.1963
9.00873
11.0344
15.4897
8.98265
12.4057
11.3089
11.0687
14.4181
14.444
12.9716
12.3405
12.8923
21.8863
14
12.3674
16.6691
12.9175
10.0002
10.1073
14.5328
12.0429
12.7718
8.87194
17.601
14.0951
21.8758
12.4714
14.6466
17.4183
18.5364
10.4813
14.701
9.44658
11.2564
12.9881
9.79053
14.1313
11.0492
11.1033
12.2349
14.2413
10.9221
15.7186
15.9402
15.9316
13.2065
10.1412
11.7533
11.2951
11.8722
18.9082
13.1426
12.5621
12.8284
15.1456
12.9234
19.1139
22.3888
15.1848
13.4331
8.61003
16.5928
16.3022
12.3196
12.3073
15.1396
13.8771
11.6629
10.2337
12.408
19.2915
9.8068
10.7881
12.6083
10.2062
19.0915
11.1524
11.3981
27.2633
14.6657
12.5119
26.0044
19.2058
12.5532
14.495
11.9584
11.2796
11.8001
16.8302
11.5584
15.2413
12.3511
12.1371
13.3193
12.8643
16.0721
14.4031
15.3331
12.1769
17.0432
14.1005
12.8747
15.6401
19.8286
13.3086
10.7264
15.8875
12.291
13.1236
13.8757
11.5928
14.3158
14.9126
11.5375
13.4233
10.9765
13.4394
15.0424
9.66044
8.22458
14.1985
10.9264
17.3428
10.5874
13.1166
12.2879
17.0061
13.7716
15.457
9.77887
15.5656
12.9522
14.0717
14.3971
9.63468
10.2857
10.2352
23.9571
15.4789
18.5676
11.6289
18.1424
17.5444
13.9278
14.7964
15.8318
11.2207
14.816
7.58767
15.7915
15.493
11.6624
13.7511
13.9072
12.3829
12.6102
9.66242
17.3834
10.8816
11.9707
10.8281
16.5609
11.3017
13.4339
15.4654
12.8141
15.0146
11.7593
14.6292
15.1941
13.2479
17.2513
9.89889
15.6211
15.6346
11.3758
14.3198
14.6302
15.3621
14.3871
12.7883
12.9354
18.7621
12.797
10.0698
12.2055
13.2714
15.3033
14.608
13.8831
9.19454
13.5418
14.6788
15.2539
10.7665
11.2929
15.6962
10.7502
11.1613
12.3128
15.6298
20.9898
8.03706
30.8694
10.9096
11.1402
14.812
12.2248
10.4373
13.8199
12.1038
13.4651
13.9758
14.4
14.8126
18.1339
10.6334
14.8591
12.1447
10.2116
14.7728
15.4268
10.519
14.7463
23.5959
10.3379
16.1119
14.6265
18.3726
14.0995
9.90057
13.7318
13.2145
18.2854
12.5708
20.2436
14.9434
11.0455
13.95
11.5585
11.8616
9.15646
20.7775
10.7739
11.901
16.4907
13.7942
15.7764
12.6529
13.5483
15.9681
10.0744
14.5501
15.1237
15.4642
11.1611
16.8033
9.7062
12.8149
12.9545
12.7912
10.2277
10.0265
12.1246
15.8275
14.9037
14.2088
12.3287
16.5032
25.31
12.3138
11.9332
14.4502
13.5919
12.2296
14.4155
14.2125
28.9984
10.1458
9.83025
12.6196
12.0377
17.5147
9.95505
12.8702
9.32434
10.6264
15.2981
17.549
15.6926
11.2846
11.8867
14.5427
14.0193
11.9006
14.8708
12.4253
18.8258
10.0448
14.4327
9.937
12.3851
13.8459
13.5957
14.341
14.4112
17.6034
13.6555
13.7588
11.701
20.0986
22.0605
15.7821
15.7964
11.7356
17.63
14.6192
8.80536
11.355
11.3961
13.1786
11.8049
16.1049
11.2902
10.0466
9.21146
14.7132
15.5337
13.1442
