45.1023
56.9527
73.2775
53.5178
56.1748
41.9069
50.9869
54.1644
85.0299
47.7656
58.0597
40.8508
37.366
56.8275
49.0517
64.8233
59.9075
52.3164
77.9348
69.7253
44.6735
42.2252
56.7027
53.7124
40.279
57.1918
54.7275
39.6072
61.7117
45.6756
39.1066
50.4665
49.0438
61.3081
55.1357
53.097
57.4511
75.629
57.5634
60.0261
50.6529
74.8893
51.0061
45.0783
58.0891
61.9874
44.9515
40.6159
60.8515
48.8261
38.9767
47.039
47.2351
37.5315
48.3462
48.2317
71.4572
52.0156
51.94
42.7901
44.8535
58.5988
67.6275
46.1868
36.0535
54.8217
79.7556
48.7746
39.4638
51.4556
52.6884
39.5973
77.8667
71.6343
54.3478
46.9517
39.4469
56.2583
52.8022
49.1344
43.7552
62.7867
59.0723
47.6053
41.2443
45.1465
61.4072
74.7988
38.7569
58.3335
50.2513
50.6158
44.8356
49.0064
48.3332
47.0451
51.9392
84.2705
43.6742
54.8642
41.4888
48.8963
54.9747
44.0616
68.5458
57.6018
58.0457
37.2589
46.8778
48.3548
53.4201
54.9677
45.2991
36.2097
56.6478
50.9901
76.0745
63.7789
41.8285
66.5795
51.5406
55.7054
40.8263
35.5415
39.6049
43.5156
64.9723
46.6737
68.8874
64.3109
70.2952
60.9256
47.4919
38.5058
42.4698
63.2318
51.3151
33.8354
36.3002
44.1914
57.9072
52.1226
51.7372
66.2972
63.7978
61.5197
69.8114
48.5155
43.4483
63.1074
55.5811
38.9865
43.0448
42.7287
64.3239
59.2919
59.8846
62.3496
56.5727
66.8795
44.7233
58.4421
47.6317
60.357
52.9287
74.5465
45.5498
43.7835
61.5141
46.8423
77.1081
53.1609
72.9088
57.5638
41.5696
38.524
44.7964
69.3758
33.7582
53.2155
36.1884
89.4175
47.6499
44.8717
42.5976
105.441
47.7224
59.0705
61.992
52.1634
61.7403
40.2528
40.0906
44.5768
60.7554
46.0663
56.0237
45.3395
42.0104
48.6778
57.0215
45.9096
71.4763
42.7309
46.8905
43.979
38.4656
44.4435
42.2289
41.9025
60.6227
55.6316
34.1556
53.9982
41.8959
45.513
88.8402
50.4002
61.6275
52.0175
49.0028
58.3584
41.8276
45.066
44.3405
51.6856
60.1935
38.2976
49.9919
75.9727
74.1108
51.0174
61.1108
58.0018
50.9456
59.5594
43.5116
49.9171
48.8953
45.812
53.8306
52.8561
66.1558
43.3834
65.8385
43.418
60.7215
43.5323
46.5156
61.2351
55.3553
72.1177
59.7232
62.4574
49.5497
45.9116
70.1567
37.6145
46.3905
37.3675
40.1287
48.3131
43.0673
42.0774
64.2725
64.8505
41.0747
52.7654
39.7406
44.6953
69.7499
52.0266
54.5398
41.1275
36.936
49.6465
38.6146
46.0525
93.7353
58.768
60.4396
50.7546
70.3436
49.5123
44.7546
48.8541
74.9212
52.5307
95.5554
41.384
52.5984
54.6098
59.4477
37.455
56.2618
41.6945
62.4733
48.7417
41.5787
47.2921
90.5152
53.2587
46.592
48.9279
51.4953
51.2639
66.4506
54.6776
42.0018
57.0188
50.7101
64.43
50.5666
41.562
50.9446
42.6463
59.7202
62.2325
59.7788
55.3343
52.537
47.8427
64.9273
43.6512
50.6567
38.3831
51.3717
41.9898
54.5588
51.9153
53.83
51.9689
64.7754
32.4752
46.9154
49.5666
58.802
42.3266
46.1984
53.0292
61.2596
54.6595
36.7478
48.1219
52.2818
55.8269
63.6343
63.9292
65.5204
65.6087
42.953
53.6868
54.7631
52.6111
60.9666
59.4786
38.2712
50.8311
44.4505
43.5529
51.6054
56.226
47.9972
58.7388
44.677
51.6316
48.6893
58.9441
66.0767
51.6105
57.2671
39.1243
53.1014
58.8509
47.0897
56.3293
56.8077
58.135
49.17
67.6624
48.1579
56.6556
45.8779
50.3908
48.9879
73.0312
60.2657
52.9179
47.1986
54.1266
42.9652
70.2738
47.2963
62.0803
60.0678
61.2497
62.6611
56.652
46.5272
56.554
44.8944
63.3435
51.2752
51.0418
60.9885
69.4072
51.5451
81.163
51.2224
49.7145
45.2989
56.7241
48.0429
39.4174
51.0857
40.4897
41.3812
51.7185
41.0427
43.3109
46.1983
47.6848
49.4656
48.1803
46.2386
70.7709
47.058
42.6561
45.0001
45.4372
73.8741
53.0801
46.0591
73.8707
49.4872
65.6455
40.4285
45.1828
47.5604
46.8326
47.1809
66.8917
61.9394
40.4637
90.3023
41.4967
55.095
68.2925
32.9491
53.1236
57.6017
113.421
63.9602
40.5611
46.4463
43.9222
38.4933
36.9392
45.8569
81.8843
39.8775
47.7424
42.5249
52.93
43.605
55.3905
53.2517
54.5827
93.4489
59.7718
39.8681
53.1006
51.0973
42.4491
45.2905
48.223
70.6411
72.2438
57.7129
48.7566
34.2379
48.8481
44.385
54.0415
53.0546
58.882
98.9264
62.9667
73.2757
48.9886
38.1286
52.8957
40.8669
52.0982
49.1023
30.702
63.2434
57.1752
61.0403
69.3539
42.636
55.8232
76.8468
43.9332
45.4498
46.083
74.6893
68.3455
52.7043
45.1289
48.3755
49.6828
41.6221
40.7857
46.6225
64.0083
45.3208
53.2734
41.4549
75.9831
50.6496
51.0846
63.5527
41.3472
45.1464
52.3609
47.3359
44.9573
43.8017
39.3053
55.5446
41.3485
36.0915
46.4546
86.1589
43.2921
45.5374
35.5339
46.6814
47.4444
59.8217
42.9524
60.304
42.2303
48.5481
46.8423
61.2402
65.3875
59.5111
51.5806
65.4612
54.0018
59.3518
41.778
52.1172
57.1069
49.0211
44.8273
51.6744
42.3148
72.4659
49.0868
46.4256
32.2401
47.8642
60.7526
60.1803
41.0347
50.0799
37.2578
57.0499
69.8617
55.1079
43.5532
54.8598
49.1505
52.3022
44.1387
50.5529
50.0709
46.6578
54.8802
52.6236
72.1959
59.7087
46.7931
71.126
53.5501
64.7861
52.1524
41.6346
50.6701
52.423
41.1062
54.286
43.5998
48.6641
55.9177
54.8834
40.111
50.6515
45.4511
59.8794
62.9837
46.5722
50.1585
48.4926
44.9349
47.3566
47.2805
38.5578
50.5339
45.5021
58.4326
41.0581
51.7873
51.0521
49.0734
54.5181
67.3436
49.1577
40.5036
41.9534
55.4571
43.426
60.3971
49.6787
48.5252
56.9333
66.6049
45.9057
40.6401
64.543
60.3035
58.9898
59.3033
60.156
51.8752
56.1889
65.012
37.0928
49.4994
47.0548
54.0257
50.5579
45.0264
47.6367
46.8059
56.5816
57.672
48.8503
53.7389
45.614
55.6369
53.7028
55.204
53.9406
35.7737
62.2745
56.4057
66.313
44.3466
42.6605
44.9065
70.6886
47.1605
50.0282
54.5045
52.3349
45.6622
65.1744
51.0203
45.9555
56.8709
41.5615
41.3035
56.5532
51.1845
78.9502
39.605
55.5139
96.7205
88.3855
36.97
58.2226
40.7721
58.4033
53.8572
44.062
44.2172
60.7251
47.4154
89.6754
49.0553
49.4397
50.2226
44.1733
36.3505
56.3553
43.5006
75.3474
34.2549
54.9071
72.7214
44.0047
65.1857
42.5211
47.8272
39.1639
71.3609
46.3108
51.904
55.5758
58.3875
37.387
52.1871
65.7079
39.5155
41.2845
48.2043
51.6774
68.9677
32.7647
36.456
58.8521
36.9381
49.6549
41.6886
88.6749
46.3927
41.9661
48.7178
55.0384
48.2693
59.3661
52.9471
44.9901
57.5001
41.7875
38.827
44.8366
52.1031
60.1381
40.5448
40.8464
52.0556
46.007
38.3702
39.7482
61.6175
48.4704
61.1577
62.3074
44.9903
54.8945
54.91
55.4809
42.5602
43.4437
42.1457
53.1429
77.3383
66.0209
44.5101
51.2126
57.2906
68.3076
64.8114
40.2541
43.9208
103.675
55.8805
46.5072
54.5682
49.1847
50.2964
50.0726
68.6859
50.5577
67.9902
43.3881
63.1984
58.9621
68.0212
47.2793
53.7787
66.8153
66.3283
67.1242
49.0238
54.479
53.4103
37.7864
47.6651
41.3469
63.8497
56.1021
60.3022
38.747
53.4583
52.0429
62.3588
44.0505
69.4935
41.7567
52.9262
50.4036
53.0818
46.2926
38.1894
44.0534
51.6163
44.4548
39.7087
44.9488
42.3786
66.522
56.6102
56.6724
52.2775
43.8915
46.3299
50.1084
61.0251
45.0159
54.8399
41.1236
48.2602
77.0256
48.6544
49.2267
52.8316
70.1982
47.7462
75.4936
46.8924
43.5888
52.5632
42.7627
57.7834
58.4439
45.3973
49.9598
78.4896
55.592
62.8383
52.5692
42.9606
48.4265
52.5842
70.6052
49.9062
42.3969
61.3324
66.7814
36.9351
39.4305
54.7961
52.6778
57.2498
62.6969
57.3658
71.6116
46.466
42.3041
57.4023
57.6039
51.5213
37.862
46.0751
59.3126
46.4722
56.9372
34.6352
49.4899
81.8333
51.5937
67.3056
45.1887
34.8738
66.2783
59.7991
45.8477
44.9838
47.0235
44.8502
41.8744
57.7459
61.5363
49.2595
53.0846
49.1849
43.8804
62.6195
57.9219
40.6679
58.1595
38.706
39.4034
50.4054
55.7597
55.3581
75.7804
59.5931
56.7845
78.2193
55.6755
85.581
44.114
40.0214
40.8226
49.5615
58.3437
44.8164
47.1138
66.346
49.7587
42.673
47.3768
54.1157
73.6714
48.848
44.7394
48.2622
39.9789
40.5248
64.1389
50.8069
49.1938
65.2886
53.3426
40.9066
49.4578
44.2744
54.528
50.8254
43.7672
48.6037
48.6623
37.8377
51.8728
60.0949
64.841
75.9519
45.3542
37.2477
57.6313
51.9328
77.9691
42.1718
47.6237
50.0785
58.8743
44.1687
55.9894
43.6018
50.3575
75.166
42.685
37.291
59.7629
40.8836
42.4192
49.6762
69.8858
63.4956
89.2862
47.2491
57.2492
40.9467
51.7436
45.3924
51.0859
47.2483
48.4452
58.1946
70.8266
52.7658
46.5987
35.156
47.3702
46.7688
42.7371
51.0463
71.6393
49.758
72.7622
43.9699
47.8248
59.1789
46.1737
60.1718
59.5735
57.5523
52.0474
56.5927
51.6143
48.1736
57.4309
51.1008
41.9369
42.1959
55.8163
47.5532
78.4034
40.9957
61.0298
76.4362
54.0501
42.7415
42.1405
49.714
55.9424
48.055
78.2204
36.0664
39.2006
42.5377
68.8317
41.1417
63.1394
49.6162
70.6478
51.3089
58.5245
55.7569
48.2089
43.6567
116.85
55.4375
62.9931
52.9724
36.2248
53.2794
43.2977
38.0473
68.933
73.8845
54.3918
50.5793
58.0173
57.0486
35.5755
57.5856
46.9466
37.7975
57.4586
63.5579
49.6905
62.2628
45.0596
65.3326
41.5809
62.0258
38.5694
67.9681
59.0213
41.7422
103.234
58.0751
65.117
47.6075
63.5625
46.085
44.6857
38.7404
52.7098
60.848
43.1246
61.62
84.2617
61.4273
39.9769
63.1076
36.5859
61.3547
47.1113
51.4814
71.9792
47.4579
86.1225
40.8244
44.0596
65.4618
57.945
36.4364
59.2854
61.3946
47.4841
37.7002
77.5357
49.7487
57.6285
70.3232
44.6048
44.3802
79.7335
56.2392
51.9547
40.9127
60.6085
47.5859
38.2284
55.7439
50.5949
47.8812
51.016
63.5142
49.8003
46.8377
63.3448
70.9222
71.7968
36.4138
39.0775
59.1474
60.2351
73.4302
37.0192
47.3857
52.3858
43.8039
53.5564
50.7071
61.4245
44.2243
49.2422
42.649
56.341
34.7223
44.6135
45.3642
41.1953
59.207
47.7886
46.9592
77.601
34.7241
51.7058
71.3704
48.5285
51.5911
68.2888
52.8319
47.6013
60.231
37.1383
58.1938
33.8603
46.2217
71.3865
54.1206
55.046
38.4741
51.9637
37.3071
79.4882
37.5094
35.4904
99.3934
73.5235
50.435
49.94
74.6314
44.7964
43.3512
33.9306
44.7991
82.2555
41.8007
48.8115
45.9007
46.4208
52.0223
41.2308
44.482
43.4798
73.0237
108.781
58.9986
57.6141
38.7483
82.7581
48.8986
60.264
61.7194
53.331
68.1956
38.3477
62.5741
59.1355
52.432
42.9322
61.1601
68.9948
49.0816
33.7547
33.6541
43.0123
57.4601
41.8339
61.9875
40.0669
52.6166
47.1804
48.3309
48.2471
48.4414
51.4147
62.3072
54.0509
58.5356
52.9752
48.4887
34.3231
55.3621
59.1011
43.7543
79.0931
63.7075
41.0569
47.4855
65.1356
40.3829
46.8033
47.1202
52.3442
49.5909
53.3548
41.7006
44.3283
43.6455
52.1267
36.3114
58.5196
58.4817
59.3359
41.106
50.1443
51.0075
66.3667
46.4609
52.3737
50.6066
51.5667
50.6828
60.7669
43.9671
41.1464
47.436
47.9145
76.1049
53.1376
83.0981
44.0248
67.2361
43.6509
43.8964
51.5196
53.0563
43.242
35.9519
42.1861
54.4195
74.6484
42.3827
48.4032
60.4601
56.6946
53.5939
43.3658
48.3691
42.5837
44.6705
69.6824
44.4708
49.2272
43.8399
97.0377
50.6221
60.9974
56.4001
49.9851
56.1584
48.5345
52.1604
45.9665
46.669
40.6498
40.1207
61.6926
57.4335
62.0215
70.2988
49.8229
68.3248
64.9856
52.0064
35.4444
55.8597
49.7356
44.5674
55.3544
49.9433
61.7016
50.6275
53.178
52.1311
52.1231
42.4393
38.421
47.646
43.5912
67.6684
61.3209
47.6798
65.6439
47.7931
51.8667
43.7735
50.9238
48.6268
45.9138
44.947
59.2691
91.8554
59.9907
52.9154
81.0057
53.8292
45.5621
52.1372
80.5577
55.08
56.9332
36.16
57.5068
46.7115
54.2132
53.8465
55.2119
66.7999
49.1763
46.4271
27.054
58.0173
47.5476
61.7519
44.5003
58.2068
41.2242
45.7123
39.3001
74.498
50.9113
35.8761
40.3023
47.599
51.5183
69.2853
51.4035
43.6147
54.1325
45.9643
57.9134
74.7944
69.6794
48.8339
41.7886
40.5499
50.5533
52.1186
54.9132
50.7256
51.1945
36.6287
55.3472
52.2522
60.0537
48.2631
56.4368
54.4795
72.6052
43.5967
53.8812
50.3302
36.9584
51.7931
56.7829
32.35
47.6981
50.513
59.536
35.6785
55.6376
42.6539
57.7621
46.109
48.4973
33.2971
52.6085
49.6261
39.9932
45.3053
45.4657
64.6374
41.7576
69.0074
37.4387
59.0775
44.3883
54.0375
68.7779
44.2454
79.5409
37.2578
51.9874
55.3265
46.2745
56.9848
77.6456
53.4751
45.2402
54.8785
59.2444
52.0174
41.2253
42.7086
45.3943
75.9486
46.8475
53.3826
39.4141
37.2946
46.7106
49.9119
60.7132
38.8226
38.9997
47.1222
47.3174
54.5908
79.5458
43.3711
60.6348
63.4905
35.9122
54.6935
50.4089
38.0576
41.8898
57.1632
55.2441
41.1911
57.2083
43.3812
55.5453
55.5397
36.9445
45.3456
60.9346
39.2798
49.9296
47.9312
56.2683
42.3779
75.3049
48.6418
62.8744
44.3421
51.8733
55.7891
48.2332
42.6103
52.3091
62.7542
71.9033
48.2084
40.7776
74.0603
37.7626
60.6562
52.0088
73.7741
64.9531
45.3066
49.496
66.5166
45.9404
51.8729
52.7012
71.6145
60.222
48.3202
39.7944
55.1614
55.1864
50.907
42.2464
43.197
57.3191
47.3667
48.8177
49.522
47.5502
61.3313
89.7135
50.8088
50.6102
50.2997
41.8302
59.3129
45.4736
52.2472
52.2423
38.6129
47.1828
50.258
39.7035
41.6366
43.8867
44.5711
40.7609
72.0076
60.7578
49.1289
53.754
69.686
42.1639
43.6092
53.2136
54.1895
71.4997
47.0136
43.6801
57.3478
58.8762
48.9462
42.5241
65.6691
48.4784
44.8377
44.0474
40.0119
45.1591
45.5576
66.7538
43.9302
68.8773
42.7436
47.479
48.0966
53.2618
50.4076
40.2974
54.0683
55.8946
48.1086
46.6668
60.0512
46.172
46.405
52.7906
68.9152
54.5858
51.7661
44.363
39.1576
59.7094
56.3199
44.7011
61.8811
60.8296
51.0337
48.2072
44.6324
35.3283
47.1449
46.7955
55.7834
42.9956
48.0503
53.2252
57.8655
52.8055
87.6675
58.1255
77.7291
60.6579
36.1749
53.1647
52.8387
49.1639
44.4506
38.2234
55.1189
44.2579
49.8534
56.975
66.2876
52.8583
58.4412
57.6564
49.793
45.3658
47.9952
49.2312
57.1431
50.3772
65.7511
49.4761
58.7938
74.3216
66.9233
52.505
49.6754
67.643
52.4043
71.184
38.1843
79.6425
66.775
50.0058
46.1698
47.6813
53.1573
45.8772
53.5129
41.7047
52.8695
59.2637
58.4994
48.7559
40.1553
60.9803
49.3118
60.9458
48.5498
64.4364
50.2312
44.6446
63.7434
52.9581
42.4646
60.6092
54.3983
75.2571
48.5827
48.5367
62.1656
45.9327
92.348
42.5668
43.7643
66.3618
36.1013
45.6705
39.3598
49.9147
37.3437
43.6099
54.1996
64.5775
65.334
48.0254
47.9567
66.1953
52.7131
59.3707
51.8682
45.2874
41.7834
52.9384
36.3616
43.9181
75.0895
52.0809
41.6675
46.0099
57.0603
45.5343
45.4667
59.4373
40.5516
56.6634
45.1633
63.8414
54.9386
51.6863
56.8439
47.2101
51.0919
69.7735
44.8103
56.8857
43.4823
46.0681
44.1979
41.4071
48.1881
56.249
56.8918
42.8546
44.4115
51.7734
82.556
54.3713
39.4835
43.7977
49.4949
54.1742
80.7474
63.2009
59.4596
46.497
79.0592
52.0168
54.1264
49.0424
55.7232
67.78
43.6472
78.2741
57.1888
39.0216
62.5395
46.7397
52.8148
50.0584
59.7188
48.0139
66.3843
46.2259
35.1317
47.1377
46.6634
47.6491
41.1033
84.6419
62.3271
47.8827
46.9314
40.9984
40.0645
68.2962
46.0663
51.728
83.6833
40.2899
57.6824
39.0026
34.4318
76.4199
56.6808
52.1854
53.4672
62.6793
62.788
42.6809
40.5307
54.4749
58.5038
42.3895
48.8978
51.5707
43.8493
39.0051
51.4426
58.8461
40.4938
51.2997
49.6026
64.687
56.9152
46.89
48.8798
52.7168
50.9735
64.7985
67.8432
51.3504
53.3461
42.8214
47.7246
38.3864
50.52
58.3727
50.6576
41.0199
65.1544
72.9121
55.3269
45.0407
40.3065
48.9068
41.894
48.7712
47.6194
42.842
45.5096
48.5904
50.2714
61.394
48.7912
43.2617
46.4267
42.3702
49.058
34.7678
57.135
45.9332
82.6952
52.1932
52.7861
60.1484
57.0182
37.9056
45.2613
40.4583
53.6086
47.5118
50.7233
52.7599
40.9037
53.3709
66.2594
49.681
53.393
41.636
47.5961
52.7715
43.7366
38.7407
53.4017
48.2757
64.9572
71.2195
39.8465
73.2589
46.2397
48.5299
52.2464
51.1076
35.3877
56.243
52.881
44.5457
48.7416
59.1453
73.878
54.7629
55.0954
61.452
49.7552
41.1801
45.1493
63.5631
40.3765
65.4413
43.8322
64.0361
38.0287
57.7839
42.8864
43.4142
57.3759
50.2873
58.7077
51.5498
46.9347
42.5336
56.661
49.6551
74.1549
50.1159
52.8573
61.9556
53.9758
44.1481
61.4879
43.2532
34.6466
48.7755
56.4731
63.2523
47.4866
51.0143
38.3958
42.5852
47.8795
45.0953
53.9139
46.9704
58.2978
64.2353
53.8672
56.84
47.132
62.7482
67.5066
32.5835
60.1591
58.3971
56.403
46.8762
60.1288
38.2674
41.001
75.518
39.6087
40.6506
57.5598
56.8273
58.0666
63.7658
50.3159
38.1394
80.7022
57.5314
45.4844
37.5816
67.3718
42.3047
51.121
31.5165
47.2741
51.0299
51.7337
49.1559
54.8688
46.0203
41.2803
43.251
39.0149
63.1195
43.7961
54.1371
60.616
51.4432
44.3766
50.0976
53.476
70.6281
68.0319
37.7284
58.6691
38.997
81.0222
63.09
41.7376
41.2898
81.2622
46.3752
42.9396
50.2989
52.3383
41.3856
71.4764
51.6216
44.7682
39.2691
46.2421
46.6339
47.0792
55.8147
51.1905
49.1785
39.1576
43.585
82.6558
31.9499
49.4975
57.6707
62.2883
82.617
36.7508
41.4109
47.5527
38.9959
45.1527
62.8187
54.5791
66.985
86.3794
59.3149
47.4534
41.4694
52.7016
51.7867
48.9114
88.2519
37.3919
57.8957
66.7876
51.9766
54.6059
68.6442
51.6332
57.0335
52.3101
40.1161
48.1567
48.7774
42.2176
39.7643
54.9047
60.7105
44.1661
44.1837
81.433
57.2443
53.6316
86.9743
35.6037
61.549
51.5798
56.4027
63.7355
48.1227
61.3358
73.3087
42.3291
30.3413
37.8452
47.8293
38.4588
51.1439
39.3644
46.9461
41.206
39.9169
50.8786
46.1241
63.0937
44.9538
43.6279
57.1073
44.5836
36.9527
49.7645
41.7927
51.1446
40.1603
41.8131
50.9432
70.199
41.2032
55.0779
50.3874
51.4274
45.9453
59.1472
59.6799
45.7545
61.4392
53.3007
42.0543
41.4123
46.9854
59.9248
35.5429
57.2756
42.1072
39.0871
47.2657
46.2053
64.1407
41.3864
60.4047
50.7317
36.766
52.2018
59.8916
50.4508
42.706
46.6152
45.6961
53.7871
59.0176
56.0436
47.195
49.3704
41.1617
51.5318
43.939
40.6422
47.6733
57.5687
69.2567
53.5269
59.051
53.7284
51.9411
69.7081
49.9223
44.6491
52.4852
51.6738
42.6147
46.5639
51.4483
44.1414
53.899
45.683
73.4962
55.0725
48.2985
39.3347
52.7692
45.3938
55.702
51.2222
43.4862
74.0561
46.7421
80.1931
54.4279
38.982
80.8887
60.2791
31.6889
57.2161
46.9665
47.9773
43.3172
46.7613
77.9206
52.4968
56.9254
49.9299
97.0223
50.5191
42.7311
59.6994
45.1984
44.5201
51.5575
67.6244
40.2912
53.5774
47.1849
52.1012
39.7242
31.7148
46.0942
86.0049
49.0506
44.4311
60.9509
50.595
56.7384
60.2627
48.5274
52.5917
47.9787
51.4097
52.634
42.0667
53.6409
51.4608
47.526
35.8769
59.9312
52.5898
58.919
51.5147
51.7203
47.3005
62.2805
40.1456
49.2716
45.1232
57.8502
57.9909
49.6722
73.4333
53.879
60.2948
44.1292
54.4841
58.392
67.8885
53.0154
55.3772
52.2507
85.6159
40.9876
67.5024
36.7898
55.7193
48.4592
71.2696
41.8669
41.8805
76.2533
58.6114
45.8561
53.5461
55.8994
60.4952
57.2851
55.41
82.7549
54.1034
42.2954
53.4299
54.7982
77.8772
101.653
31.8619
57.7105
87.4422
46.5459
49.6397
44.3018
46.5416
41.6992
46.8865
53.4507
53.3453
64.3896
57.5084
41.1937
77.8009
56.756
41.5661
44.5733
49.6187
69.3527
55.0267
59.2081
46.8001
44.2223
51.7371
48.284
43.781
69.0135
44.3749
49.5779
59.5081
45.7376
64.0646
61.889
45.8356
59.4089
47.3591
35.2145
68.817
39.2494
43.602
64.3402
49.6005
50.3659
83.391
70.0984
46.3307
42.0816
40.4495
74.0698
41.3735
64.7143
66.9253
44.5839
51.2455
46.9748
63.073
36.6599
51.6442
54.864
49.7784
35.9936
32.8304
57.1701
45.5173
51.3551
74.2794
56.239
38.063
52.1733
67.4056
50.2591
48.5349
60.6831
49.4774
60.9765
44.0544
38.0931
65.1597
44.2868
60.6116
68.9652
58.9711
66.6511
59.3706
43.6855
39.6027
57.9547
47.9936
34.5755
57.8531
36.5683
44.8248
48.3701
48.627
63.0692
62.0752
52.6968
54.366
77.3323
74.8856
49.3591
63.0168
56.4499
51.4655
50.7032
37.5778
66.2215
36.2714
53.6816
40.1113
43.714
49.9755
39.5114
42.5176
58.2053
82.9048
72.2293
55.6839
50.0421
46.0741
54.1069
61.2168
48.1808
44.9934
45.7664
46.1401
43.8033
49.7446
51.1172
45.6614
52.5813
44.5728
48.684
39.5123
67.0461
59.8942
43
61.8103
98.4706
64.5163
46.2252
61.4939
50.0513
63.0908
55.0065
52.8466
36.9332
49.8274
38.0078
42.0551
57.8459
55.6091
56.9105
48.2074
50.5887
52.4882
54.0842
62.7582
42.2735
58.0986
52.8532
43.5197
46.4466
32.2122
49.0243
39.0002
57.2466
73.0132
56.523
40.0423
75.6536
39.5468
40.2315
45.3949
50.8079
48.0885
67.7189
62.3211
60.2599
55.6643
56.2017
60.5011
41.8653
44.6075
44.884
43.861
46.8832
61.231
37.6603
50.2268
48.0036
44.4271
58.4466
67.6071
53.5539
51.4699
45.9185
45.3558
50.2375
47.1039
73.7875
42.7535
67.19
43.6367
47.5412
60.8133
32.0724
51.7171
68.821
36.1076
58.7713
52.9208
51.7818
74.6014
77.4378
68.0052
60.1601
47.7021
45.4275
43.2906
57.9997
46.6252
46.0228
65.5156
45.5135
48.7059
58.5571
77.1661
55.1824
54.0181
52.1412
64.8556
46.5697
56.4865
43.7013
56.5171
51.8904
48.9334
51.3095
44.7468
58.5297
47.7616
69.9103
37.8402
48.2423
52.4708
45.592
54.1714
48.2815
54.789
58.065
46.2777
57.623
52.5969
49.7755
58.463
58.2771
58.7239
45.2501
52.8595
36.7266
52.5046
42.3577
48.3525
68.1963
55.0065
40.6505
40.7636
36.7505
46.4916
47.7271
54.348
44.1174
49.6856
53.179
54.5356
44.0419
69.7431
55.174
42.0453
44.832
56.9039
54.788
45.6049
52.7978
38.8294
54.2143
42.2794
40.1117
36.0493
43.1488
63.3825
38.4833
49.6465
43.8419
59.2612
58.3488
39.8365
49.4112
37.8069
65.6594
47.9552
38.8491
46.6588
76.7231
43.4149
61.6399
66.7014
57.9012
47.4033
44.0717
35.43
48.4697
45.3309
40.52
72.5371
51.3295
61.5121
49.7533
47.7465
45.5454
45.1396
53.8286
50.0135
47.8267
49.5403
79.7374
52.7946
47.1331
42.9795
68.1842
54.6754
48.741
43.0401
61.2633
38.0269
43.1134
48.1333
50.3993
46.9564
33.7313
34.3297
36.054
40.0025
57.9852
48.0783
46.5505
49.2174
58.215
71.4531
51.5858
49.5208
58.1058
47.6838
54.4681
54.0547
46.1964
48.335
46.0067
42.2748
95.4004
49.2852
33.4875
50.4715
73.6619
47.296
45.6303
84.2101
53.0521
61.3015
36.6468
52.6231
51.9986
49.0395
54.502
55.9051
46.7047
72.911
83.8694
46.9668
54.4906
67.5482
59.3951
63.0809
35.3568
56.6002
43.784
60.2554
67.1094
52.8691
39.9359
52.9193
47.9715
58.8829
62.1718
55.3084
65.3373
53.0864
46.0197
44.0132
65.3831
58.9756
45.9995
44.0283
54.5393
54.2454
55.0754
39.8231
55.1083
58.5619
45.9806
61.0818
68.9887
50.981
38.017
54.2947
66.7879
48.5536
44.9919
52.4453
46.8368
31.2901
54.6683
46.2569
38.4248
51.5725
61.5605
41.9947
49.8249
46.883
48.1397
64.4055
68.9125
51.0166
48.4603
50.9911
55.1736
97.5143
61.6321
42.3557
54.8776
49.6721
50.9682
57.7121
51.4959
49.48
51.2352
38.5478
51.6261
38.7773
59.0971
45.9033
56.1961
49.8352
39.1669
38.0489
40.2417
49.4571
43.0366
42.544
100.483
56.1966
31.9314
41.1543
39.6752
49.0447
37.9613
53.58
35.6672
45.8945
50.2137
60.8173
47.6371
50.294
45.1866
35.0234
53.6865
56.3764
52.9286
47.4145
54.6282
48.4784
39.0601
58.3102
51.5821
47.9941
53.6561
52.6651
59.0387
58.3448
50.0018
46.9107
42.9673
39.3353
42.584
44.0882
59.4311
40.6364
56.6654
35.0565
53.9271
48.1761
54.507
68.8775
52.6409
81.8577
39.5928
66.8518
41.6119
59.054
51.2849
59.0256
49.4397
56.8199
74.7418
40.1763
34.3161
46.6623
58.7675
38.6462
52.1767
48.3725
48.1137
50.794
54.2851
53.8397
38.088
69.0183
66.9193
50.2755
65.6049
52.9893
57.067
114.839
51.7467
60.4662
38.6473
44.7475
37.8315
45.1761
55.5807
56.0001
57.8678
48.5622
50.6205
42.6275
84.1074
44.8704
56.7519
59.0742
66.8787
65.7939
44.6413
47.5926
61.7243
44.846
54.3342
69.8654
57.1813
45.6628
53.8809
54.6183
74.601
50.7828
47.5999
75.7292
58.2499
63.2628
68.2314
41.8126
45.2945
67.6071
44.6658
53.9039
57.9603
41.1737
46.1093
57.0073
57.2802
39.7581
44.6772
56.7522
40.8607
54.0112
68.54
58.1273
65.7056
42.4158
49.6569
49.9033
59.0948
38.4461
59.2477
75.492
61.2256
43.4414
49.7125
37.3763
50.8639
37.4635
39.6591
43.82
41.0476
74.0338
58.8832
40.9514
59.3485
53.0851
39.2899
51.8123
46.7589
51.0883
54.2151
59.3634
42.4153
91.5714
54.2251
89.8606
39.7686
64.3459
40.6232
45.3529
60.8665
89.1288
62.2031
56.8526
58.3776
42.3606
43.0148
47.2444
45.9789
50.4615
57.4503
46.1331
45.8645
58.0391
37.9105
43.5057
32.9209
42.5905
46.504
49.4106
44.2614
79.2502
39.4455
38.0093
52.3617
49.6253
63.1932
34.969
52.1994
55.5126
42.003
40.9284
55.5559
42.682
60.404
49.2965
40.941
51.1406
41.8882
39.178
62.2682
35.5389
64.9076
55.7143
46.0319
58.9219
64.9827
42.8842
68.6458
62.6975
37.3189
43.5543
44.0495
71.9261
61.7618
81.5991
74.849
72.7222
45.6264
41.4969
34.9196
48.1719
47.5263
44.9243
84.3289
38.3094
50.6284
73.3571
48.7568
46.4127
41.22
38.9898
39.0141
74.7074
56.7732
37.7892
73.8738
46.5782
48.4128
51.3684
63.4059
41.6531
79.1972
56.2106
63.6434
45.9681
43.1742
51.6719
57.2503
72.1457
31.3051
62.9134
37.4415
46.4497
71.7519
57.6746
31.6685
59.2452
42.5073
49.3307
46.0769
46.8697
46.9686
71.9683
48.3778
56.1449
41.2348
94.6821
47.309
36.6809
49.0423
41.0393
40.7902
51.8334
50.7769
67.1486
41.179
37.606
48.6993
46.8993
37.5534
66.2157
70.6905
62.2151
64.1229
68.2803
43.617
49.4089
55.237
47.9215
60.8442
38.7099
72.2199
62.0135
58.0471
70.5986
52.4466
78.8357
51.9516
48.2184
50.1245
41.3104
39.5513
51.1026
62.9819
49.0522
52.7443
56.1295
57.573
39.2724
59.1072
47.4993
45.2714
83.7031
46.2754
55.0819
48.2287
45.748
51.8389
56.0151
84.8989
61.3083
74.6425
67.0175
55.0128
51.468
54.8997
51.9612
55.979
58.439
36.3373
40.7457
42.5874
38.241
60.8363
47.6309
57.441
34.013
48.6432
38.6067
68.0977
43.5837
53.4066
44.3988
66.8702
54.7692
43.8116
45.4189
53.8015
43.311
68.2176
56.9716
65.1701
54.8395
36.6694
77.8449
70.2618
47.4242
46.6416
70.3091
57.6936
78.4884
37.6164
84.5776
50.5717
56.3804
60.6736
53.0924
58.3036
64.2748
55.2277
64.208
82.5512
46.0681
60.4725
46.3026
48.5543
50.4182
41.363
51.8275
73.0191
67.2153
40.6722
58.008
64.5771
64.5394
47.2654
46.8521
47.6328
43.1131
42.6893
59.0892
58.6603
65.137
50.5318
48.4317
41.3743
47.9579
34.4403
88.2907
59.6588
65.7898
47.4307
53.2556
78.1988
89.601
47.0156
69.6781
64.021
66.2804
55.5112
62.8671
43.3299
50.0588
42.9056
59.0087
39.0274
51.3989
56.9563
64.6731
53.741
74.1138
47.2206
46.8476
48.7174
39.1855
38.2859
42.5036
44.0527
41.6593
53.5223
55.3234
50.0686
54.25
38.3781
57.5019
41.0941
67.4685
47.2478
64.5174
45.6556
46.5026
91.2993
52.5045
44.0244
47.0294
43.6379
45.4369
56.0403
42.1303
52.4804
38.9173
40.2427
46.1864
55.555
42.9485
80.826
84.7464
62.8694
42.4592
50.9562
45.7046
41.3321
49.142
40.3462
52.9122
49.1276
55.3248
62.3092
81.5846
63.2917
44.1869
50.4136
46.7243
34.7664
48.9389
89.7274
40.1629
55.4987
62.5357
53.935
61.4648
58.7795
70.4378
51.62
54.1586
54.9228
52.3201
53.5728
54.094
71.8095
57.3853
53.973
44.1642
56.2497
45.5906
47.3318
55.5498
74.8618
41.2576
48.6098
54.7228
53.704
70.3286
44.356
59.5986
43.2564
41.2938
60.7523
75.4805
67.1569
56.7987
39.863
80.7188
37.9367
56.6209
46.5333
46.9652
47.1017
46.7962
36.7458
39.025
66.6022
50.1132
78.6126
49.1189
49.907
41.0555
48.7446
45.9756
42.85
45.0023
36.4277
60.7689
39.8697
62.5199
43.6473
65.9615
53.2851
40.08
49.1326
54.4998
73.531
45.1405
58.7136
55.4867
42.1151
44.7673
69.779
67.2484
39.8847
38.7546
50.8997
42.1422
46.9771
81.955
34.7012
44.5192
53.0987
42.3336
33.4857
35.86
86.3708
47.9667
42.1926
38.5361
55.5582
43.0691
43.7896
52.3093
38.2807
45.2397
53.0286
69.6307
70.1756
45.7568
65.4557
43.6135
54.322
55.9378
54.8027
48.6767
46.2965
51.5274
59.0052
61.9943
58.8927
54.7847
75.1175
52.2141
37.2902
56.9271
39.8948
56.2647
49.3539
36.9404
65.9326
60.1248
38.5669
46.3814
73.6642
55.2263
47.3046
41.5664
86.0547
40.246
65.0472
50.7042
56.5791
52.3906
45.7114
79.7365
37.5739
48.8569
65.5246
55.9254
82.0297
46.4453
52.0817
46.1055
47.8368
50.0689
51.1707
47.7664
36.8247
37.2877
46.7484
43.3942
39.1149
67.6729
51.9199
34.6726
38.7414
53.5361
62.1594
54.7226
57.0175
50.7664
55.4036
67.635
50.568
52.6729
35.4351
46.2281
43.1028
40.9689
41.2421
53.9268
57.4394
57.8195
63.148
40.7596
44.1279
51.9865
51.0401
51.9655
54.3957
51.438
48.7899
49.7826
51.5948
53.183
40.5053
49.057
50.6457
54.6788
53.7092
53.0746
37.1248
56.4436
55.1609
54.6265
54.3469
57.6557
46.9469
44.4577
44.9282
67.2983
45.1023
39.4368
50.7687
56.9356
55.1546
53.9692
40.9599
42.8669
47.8148
50.6724
53.1978
38.4113
44.1987
114.536
58.5211
74.0211
49.3472
48.7625
41.7626
57.5484
68.2062
56.1708
49.0336
41.083
41.2861
68.5083
69.5273
53.0739
54.7199
40.3407
45.6186
56.5532
67.9201
53.9663
44.6428
60.892
47.792
52.1573
38.3971
59.1461
51.8214
51.1081
44.71
66.4733
39.2747
78.1351
42.4258
48.8211
52.6172
35.7607
43.6594
52.9245
57.6079
39.5671
59.2446
83.363
49.504
54.9645
70.9843
53.1811
35.268
59.2686
53.2486
59.0719
51.5377
52.54
44.2921
68.821
39.1517
54.2951
43.6654
62.8413
42.6149
51.7839
43.4818
43.7938
68.0544
58.9072
52.6616
36.4273
56.5655
46.9367
50.6107
39.2717
47.2232
44.8237
57.6121
65.4077
41.2891
51.8791
64.1493
54.1905
79.0381
57.0825
38.2311
49.9078
41.4616
48.0966
56.8682
48.3587
48.301
47.6048
51.6128
44.8366
48.3997
53.5399
67.1177
57.326
47.8583
42.4294
45.2663
48.4909
50.8823
51.2117
52.4638
58.1944
49.4506
45.2853
47.5861
58.096
58.584
73.1591
66.4219
48.7031
50.066
42.9702
53.4107
52.604
50.5391
40.2589
64.9199
45.5446
43.1865
73.5138
54.3189
65.5663
56.0382
60.8851
45.4846
50.6271
69.9372
61.9409
91.932
59.126
51.7725
43.2228
48.3539
51.7775
62.8335
48.7955
49.6606
56.0547
69.2592
52.8563
55.6066
71.7622
45.2193
55.4851
41.4108
63.5585
50.3076
42.0603
40.9443
47.3391
51.3994
45.7157
42.8082
60.7637
58.5838
48.1273
44.5773
46.9595
55.7582
42.5833
47.6555
51.9981
55.9125
45.4785
48.8621
32.7699
44.4125
59.2037
59.1144
50.2885
62.6252
55.0324
81.0039
71.0616
55.2931
53.586
35.3138
54.2339
42.6881
66.2153
44.2875
65.1067
51.0804
35.9926
48.7664
52.111
52.7363
53.4053
44.3784
47.0322
38.0449
73.8667
52.8535
53.4408
49.3708
45.8658
40.6104
56.7666
40.4047
61.0345
38.1181
61.2886
63.947
50.0141
45.0984
63.1841
48.3789
46.9072
59.2477
42.1266
47.2647
45.5506
73.7821
66.6453
47.9918
44.5558
43.2838
40.635
67.7777
46.3337
39.7238
50.409
42.9227
72.5347
54.925
43.2781
59.0962
68.9172
69.8171
55.6343
39.0894
56.668
48.453
58.0805
79.4592
45.9884
70.294
55.107
58.0988
43.7512
59.9841
43.9483
49.3476
50.4004
40.5248
46.0377
60.8679
68.8765
68.4721
40.0645
33.7016
62.9652
55.6362
41.9171
38.1748
48.111
69.2449
67.0626
73.2936
56.8492
66.9841
45.6175
35.9637
42.2211
48.9944
41.164
44.919
67.2948
41.3707
53.4516
44.5486
37.4743
71.2794
44.2976
41.6402
39.0868
69.3096
48.9206
54.7103
43.1822
45.5253
65.2994
46.3624
48.1579
46.6798
54.814
54.763
37.5532
46.9741
40.1848
40.1882
38.9351
54.281
60.4352
41.4006
43.6021
48.665
42.5876
42.8613
58.3503
61.8646
63.3198
47.4157
64.764
62.1558
50.6542
58.4045
47.7907
59.6769
58.8782
51.6464
46.1953
42.4743
56.4869
41.4296
45.2698
47.9822
45.7193
61.4212
71.9536
51.529
37.5988
48.729
35.2549
43.7504
49.926
55.8442
38.3969
60.1315
36.8369
43.4669
40.378
61.4356
47.5228
49.4019
72.1035
64.8665
47.6496
62.291
53.4805
53.1651
50.3328
49.9687
44.6951
50.5204
49.1865
54.3497
47.7622
42.2321
78.465
64.3162
42.9683
54.052
47.4987
50.9307
52.8157
45.3042
44.3966
42.4691
43.1182
64.7352
52.9366
47.9544
50.4083
49.007
36.2313
48.7691
52.5398
52.0009
46.0309
37.7462
42.1292
66.7112
79.6358
67.689
35.598
48.3002
50.937
75.7517
56.8199
49.3205
38.9522
77.1502
59.0173
55.8796
35.6627
51.4139
68.4595
52.4323
45.8295
58.476
39.6695
46.1286
54.8214
40.7853
38.9277
42.923
50.7453
46.7502
36.2806
59.7798
46.549
37.9833
52.8557
48.5034
49.2344
51.4176
67.7502
54.4703
42.4792
45.4874
43.8592
42.434
54.4017
58.8822
48.3761
64.9496
62.2512
50.7116
43.6349
61.7349
79.4406
58.588
44.4708
76.6567
49.6414
39.8697
45.0455
78.8655
42.3742
55.3884
44.0134
43.4508
55.8333
55.0117
43.1907
43.9089
40.8211
38.4282
49.6253
53.6231
43.2372
53.6117
42.0695
72.4808
63.1017
52.021
46.9125
78.8242
34.8515
60.69
78.6693
42.2925
62.8516
37.8472
54.7545
48.1449
63.0672
45.6564
68.5622
72.9042
51.8692
67.3007
40.8716
34.519
46.0644
54.9277
60.7492
54.8947
71.9986
49.7407
56.9058
65.8369
56.2377
46.7791
41.6694
62.7026
79.2019
52.3153
58.1053
47.1794
43.434
46.8828
53.0378
63.4191
61.4353
44.2051
70.5469
41.8573
40.9452
62.3041
40.9046
53.7733
46.4127
61.5304
42.6897
71.1882
46.3206
50.0556
71.3052
52.6521
49.0183
54.4042
39.2599
40.9436
60.5455
44.2406
61.8435
63.7344
50.8616
59.2808
54.2798
50.9976
46.8917
47.7843
50.7296
30.6097
69.6702
45.0585
43.5687
35.8533
49.3398
87.2906
38.1445
58.8304
94.3912
70.1285
54.1748
59.3656
55.6497
67.2163
41.532
46.3381
53.7671
54.2288
57.1397
50.3293
49.3865
60.1902
61.2299
78.1598
61.0925
63.3231
46.3166
45.5884
55.1773
42.6765
49.9983
64.7598
44.2861
44.932
51.6971
51.4862
57.8044
54.5828
57.2853
41.0329
52.695
58.1973
65.1898
53.1718
52.5288
61.5745
57.5078
46.7965
55.7819
51.6958
51.2239
46.0223
46.6419
46.3489
52.3086
40.8839
76.6536
69.8868
49.5346
64.0764
38.5274
57.5494
72.2405
47.8238
38.9057
91.7498
65.286
63.9647
43.9824
68.192
34.3737
55.0522
47.8535
76.9852
48.65
71.5465
64.1877
48.637
68.5691
39.0601
59.982
59.9941
67.9752
51.1509
44.5474
62.8789
62.5146
40.6146
51.4382
71.4481
57.4122
67.1561
53.6582
45.16
54.3035
79.2394
63.3033
34.6563
62.3987
47.8079
43.5098
43.8301
51.8913
55.9648
47.4565
36.0594
66.5485
66.1045
41.4494
61.235
53.7539
59.7294
41.1066
45.3892
56.4791
41.3842
51.5164
46.1747
54.7132
47.7912
52.7511
57.9159
63.9755
34.2036
53.1792
46.0617
89.8252
71.174
56.4031
45.2883
47.6508
52.9553
47.1573
61.955
44.9229
60.9908
50.2134
44.8862
45.4202
55.7805
45.1974
93.5804
65.9381
45.8887
58.3526
49.3467
59.4452
57.2404
72.8634
43.3063
59.4007
55.1652
70.3197
42.6882
52.1155
82.141
48.3629
53.3527
56.7828
39.1185
53.8903
36.4881
67.8882
49.8325
42.5903
84.3518
48.3972
57.7052
55.5054
77.5643
58.2481
41.738
63.2005
52.6772
59.458
51.3195
52.3644
43.7628
59.8552
38.4506
46.3177
32.7315
46.4049
49.2399
62.656
49.2782
52.8962
76.225
49.5159
58.2795
50.0711
58.2942
60.2806
51.3135
47.8205
72.4257
44.7826
56.6057
61.7281
50.8562
51.8366
49.1762
50.9314
56.4661
32.8134
44.1831
53.442
49.7885
71.6287
30.7419
49.1713
50.7012
52.1094
70.8364
38.3277
57.4731
55.2348
52.1657
45.9874
54.3012
44.5172
78.3522
43.9944
50.136
47.8042
43.1772
68.2952
64.8754
46.9101
42.5635
67.0533
54.1894
57.6594
35.5652
67.297
46.0209
43.5171
55.3461
38.0085
44.5488
88.7691
46.6542
64.603
40.0113
54.4629
47.7392
57.2423
48.4611
47.9287
51.8106
62.6885
82.4394
55.0618
45.2091
40.0424
62.1869
42.3992
54.2506
56.7018
42.6309
43.9688
40.9439
47.3501
42.1568
43.2549
74.1763
52.0866
55.5748
45.2872
57.3845
49.7993
54.8979
57.3742
41.1755
62.7097
61.7344
84.8636
55.7364
45.7822
83.5446
53.3586
80.5361
64.8353
56.9295
42.6734
45.3971
39.6523
43.8625
57.6024
74.936
61.0032
59.5558
55.6979
61.4115
54.8219
51.2808
50.8018
50.3276
45.2459
48.1515
53.4309
45.7468
44.1765
58.6114
69.8847
46.1512
49.9214
62.2138
43.2228
63.5787
46.6759
70.9597
48.6036
37.4962
44.435
49.1368
69.287
40.7015
40.0137
58.8724
51.2254
76.8529
71.1348
36.6549
46.1017
35.7581
71.7079
78.0253
43.3768
59.0973
46.0417
53.1037
68.5101
41.6358
67.8736
64.7146
68.3195
59.2905
52.8255
59.7392
71.7566
53.9042
40.7241
43.9506
43.2431
52.6539
96.5801
38.9303
49.1546
50.1871
67.659
72.5089
40.4464
53.0968
48.7219
46.6473
35.8941
50.9611
46.6777
65.4238
42.4431
45.4352
47.2124
42.8131
53.6786
54.8394
37.4839
51.2773
64.1073
80.2875
64.1683
52.0201
67.1171
71.9719
45.9934
54.0048
69.5729
44.4227
44.9439
56.1431
53.6282
43.6909
41.0812
61.089
72.6523
43.5057
42.711
59.8754
49.7958
39.1101
54.8677
51.5939
44.1334
54.7123
45.4514
57.4815
62.5677
46.8095
46.9546
41.3955
45.8949
43.0301
45.2787
52.4135
64.993
97.2396
74.0085
42.8007
46.4057
44.6528
37.9601
41.6628
35.7721
77.3026
42.6955
48.3186
38.3218
48.4618
37.621
38.6214
67.295
53.7024
41.2882
73.2139
57.716
61.5887
46.4324
51.9341
45.7595
38.673
80.7891
52.0736
61.2629
30.436
47.7738
51.4527
58.9696
45.2275
45.2081
44.4979
44.1227
43.4404
73.7352
41.2476
44.0621
54.6856
41.0815
53.6088
41.9687
38.714
45.0595
47.9204
55.5003
50.6103
81.814
52.7822
69.8546
34.5036
63.0544
54.4889
49.6521
53.2379
45.1124
50.5237
55.64
51.5777
33.3319
46.3958
46.399
57.9091
52.9205
39.6765
48.8404
67.0505
54.7533
49.2602
49.3564
50.0535
75.1889
43.1111
63.8087
40.5817
36.0307
46.121
62.3189
52.7434
34.7496
43.6074
40.9128
45.1332
67.2925
47.3327
44.4623
46.5563
57.5727
37.4409
37.4198
65.4731
75.9841
54.4572
54.4253
59.1266
47.1665
42.2833
55.3073
40.774
74.8144
52.3752
60.761
40.2932
37.1548
52.6602
48.2492
34.2837
54.0901
45.3669
59.2177
61.4569
56.3905
50.5002
47.7312
36.3931
46.7894
50.5893
41.3521
55.6132
40.2333
45.0654
62.7924
46.1071
42.9025
52.3355
56.2676
35.1826
35.4684
42.2285
44.1265
59.1218
50.2409
46.3813
43.1699
53.4986
49.8501
69.9047
47.5973
53.4727
38.2229
49.0286
42.0967
49.9663
47.4943
48.9884
61.8649
39.8321
51.4908
111.513
74.5591
74.4262
68.2022
49.4061
52.0066
74.5245
50.415
51.4694
58.813
45.6218
53.3792
54.8517
56.065
60.9532
45.7868
33.7248
44.2984
73.6686
54.8643
38.0369
41.9821
77.3346
46.6178
61.3103
41.5382
46.3257
70.821
42.6637
75.1744
58.9172
47.6604
38.3479
68.2292
54.7581
68.0512
59.3856
58.2773
56.7294
41.4918
60.9377
36.0739
51.6859
49.4258
73.459
60.4949
52.91
70.1859
53.6062
39.3512
65.1539
49.4833
51.9164
48.6334
54.9657
51.191
64.8632
55.6969
70.0302
42.2561
38.1403
66.3022
57.1499
57.6591
68.3054
44.5199
44.5594
52.3236
63.1552
74.8806
45.3094
66.5691
54.8132
47.7738
44.0306
39.532
62.0831
47.7964
41.602
45.7078
51.6203
50.0953
42.5084
44.4717
48.8925
38.2557
48.7047
86.8712
56.4797
65.9465
51.0091
44.7589
40.4833
46.3484
39.8612
64.0356
37.8196
48.5844
49.8477
39.6435
58.7332
43.1124
71.1602
57.8561
37.0529
50.4055
51.3726
56.9418
43.9006
41.6579
41.6999
50.9461
61.8317
42.675
58.0741
44.6562
76.7158
45.4101
56.504
51.7927
44.7327
46.0223
41.6954
46.9581
62.9532
58.2779
46.7143
84.3798
71.2727
55.0183
41.5424
49.2893
43.1208
43.3932
62.6984
46.3642
54.1333
51.5556
53.4317
76.1262
61.3796
52.4753
55.316
69.7194
83.192
42.8298
41.2589
53.8161
41.9326
52.565
61.9066
52.4071
53.8076
39.7217
75.7802
73.6478
55.7679
46.9671
47.9747
72.6521
42.3054
58.043
43.442
45.5179
43.0212
60.0125
43.0525
58.34
41.983
49.3773
43.2243
46.0313
55.0414
46.7062
41.5697
57.6565
51.5018
67.3939
48.9646
91.9389
50.934
55.3089
53.0249
39.0492
38.1851
50.7024
37.872
46.3207
56.3256
51.7967
51.6923
40.9458
52.5227
54.6422
47.621
38.8259
42.9051
49.8636
47.648
48.6553
67.173
67.5113
73.8853
55.8485
96.5045
73.1043
75.7843
44.7075
47.0243
47.6717
42.4391
54.4039
50.3015
41.0034
45.7408
48.852
44.1971
62.4762
84.7534
50.3889
58.8522
48.4811
52.8158
46.204
42.3918
39.4657
57.8079
57.8192
55.2455
51.951
38.9203
55.4622
42.5866
50.5271
46.8449
68.6922
45.9858
60.8633
45.7884
54.8154
62.8001
53.1498
42.6519
53.0167
51.3938
42.0163
40.5829
65.9167
61.1185
56.2202
61.0828
50.7817
41.1907
52.3038
51.0355
47.2394
47.4726
68.3643
49.1174
55.5178
48.8235
75.5384
52.895
46.2843
72.3826
55.7969
46.2812
69.3893
41.3444
45.5627
43.7401
38.2033
58.9304
45.3281
50.2254
53.4654
52.2226
42.9141
55.9341
81.9601
46.1374
62.4372
49.8332
78.5877
44.4513
73.9075
57.7773
33.4351
81.4912
56.9565
47.7116
60.3128
59.0899
56.7743
50.5631
71.4384
48.1798
74.6802
45.0188
53.1308
35.4784
47.9457
67.4939
45.9451
50.9022
51.9008
66.064
65.6762
38.7626
51.3091
40.3572
40.2308
44.2924
50.2156
48.0041
63.6297
36.504
68.3418
57.3886
52.1991
46.2455
52.7424
52.5676
67.9087
65.2667
80.8234
86.0312
60.7097
73.5697
55.8143
42.4402
40.255
47.6904
68.4629
55.6793
43.995
61.1349
35.2683
42.5394
46.5921
45.693
49.5362
74.7241
45.4821
51.2605
53.0361
43.2053
47.9806
57.8228
35.9447
51.7475
48.2197
53.5065
60.3867
68.609
48.4717
52.4698
44.5699
77.6119
67.8819
37.263
43.3831
56.068
44.4808
53.7904
36.8153
55.9326
70.7814
52.5416
43.244
54.1529
63.6321
122.545
48.0334
62.491
42.9361
43.0743
56.2861
65.8404
45.5003
55.551
55.0753
47.1148
43.044
48.9165
43.2753
54.0278
53.2817
42.2787
42.8792
72.2555
52.1398
55.7895
47.8401
41.5413
47.3293
51.4485
44.3623
54.3437
46.4117
80.6052
50.7587
64.9974
51.4503
50.9089
44.1698
56.177
42.1454
49.6004
36.5795
43.9533
55.4556
48.6907
45.6794
59.6112
38.2538
49.6875
53.5624
41.7746
50.1711
60.6606
53.0972
77.2883
43.6124
45.8134
64.4136
61.8466
58.4014
84.087
68.0883
42.7062
58.8292
48.7781
63.5213
54.3723
50.89
55.8686
41.476
67.0367
59.6091
54.3407
55.3419
62.923
48.3914
59.4024
44.3874
53.1715
49.7162
42.8557
49.8739
87.7545
51.3185
50.2737
52.0128
36.5098
56.2145
66.5436
46.1755
38.5992
41.7905
46.5847
60.1424
55.5731
45.1467
42.4347
51.1663
57.6218
38.0151
55.5245
63.3345
56.7613
57.9492
54.7279
46.7527
56.8591
43.5902
41.5059
42.808
44.9975
80.7476
39.2313
52.5036
43.4008
46.2786
50.5078
57.1573
43.3317
46.339
42.4483
44.6451
53.8446
42.9784
57.0359
59.8421
51.4622
63.3637
77.5528
50.8204
46.8513
40.7256
42.4319
34.4554
60.3812
49.2888
59.2045
54.9562
37.2676
59.4785
79.2891
44.2559
43.7843
40.8829
46.7368
52.2428
52.3794
50.1483
41.9917
53.7057
48.2333
59.4781
37.8534
43.0864
62.7839
49.6802
48.4291
65.0001
52.6065
67.2108
48.6893
59.0019
45.8171
45.2152
58.886
53.6306
56.0619
58.1189
47.4783
68.1701
50.7953
53.2708
49.6497
76.623
49.465
78.5693
35.8599
48.6977
43.3717
51.4725
49.6623
48.5201
69.6972
33.3327
59.8103
42.8639
56.7075
31.8582
47.9389
54.6644
35.2947
52.0241
58.1224
46.24
39.6545
78.7034
48.705
48.7759
56.6494
57.0481
38.7494
109.877
54.3318
76.2169
60.0624
49.9765
61.038
36.9053
47.0585
78.5691
48.8184
43.0207
50.9851
46.8621
42.0512
48.1881
47.2925
50.7113
50.8189
76.8656
59.3969
58.1261
50.2798
72.5007
68.6216
44.1
45.9671
41.5482
41.3052
52.1637
57.8199
52.1789
41.5401
85.0109
44.3801
39.14
53.8503
52.7018
50.945
63.1133
41.7749
46.3228
40.5988
44.0324
50.1223
61.8146
46.5796
35.2573
51.3331
43.4753
65.0927
39.6833
54.2496
49.5973
58.8704
54.1774
60.9329
47.1958
58.7233
44.958
60.9955
51.8019
43.3964
43.1756
41.572
48.118
47.3054
43.9087
49.3099
52.7079
53.011
43.1507
47.8759
54.7853
37.0224
53.9299
45.3732
44.1807
63.9682
45.9469
57.1973
58.9185
53.833
37.7525
70.6909
66.2168
40.3655
52.2645
72.0039
45.8255
59.1081
48.5983
75.5592
47.384
59.5595
68.7315
50.2788
49.3178
74.7958
63.3213
75.3633
37.5659
51.5048
52.617
54.9055
59.512
43.6512
49.2763
71.8302
47.8764
58.6227
44.668
41.9507
40.2617
64.5671
47.1634
52.7257
64.0729
61.7535
59.7493
42.5727
56.4624
47.8532
46.9321
53.4684
45.8358
32.2205
57.0005
54.4236
69.1329
40.0727
50.7181
40.081
47.7984
44.8574
40.4762
39.3865
44.8906
53.5606
44.1165
51.008
40.1381
66.3564
38.1618
50.2836
40.0338
42.8778
45.2235
80.9307
75.083
53.2748
30.3761
47.8448
43.1736
50.1462
63.028
65.9286
43.9396
54.3476
43.2776
53.9832
66.5221
51.3462
61.9573
45.8543
54.9831
64.0596
51.7244
54.8193
53.7928
39.3492
61.455
57.2859
57.909
62.4748
59.6927
50.6093
41.812
56.6099
45.9468
36.0181
44.6439
45.732
50.8406
39.361
47.5165
59.7763
43.1588
35.8072
53.9922
47.6436
37.1829
77.2779
49.411
58.4622
35.6874
40.0236
44.7044
48.7036
49.4594
58.4794
50.8167
56.4849
46.0611
44.4906
52.8938
41.0911
58.3855
51.9475
50.5258
58.2141
56.6769
59.5349
50.7579
51.0206
53.9358
47.9616
52.6481
47.673
51.5279
62.5316
46.0529
60.73
80.4698
61.1331
75.7146
57.8602
46.3969
40.8814
66.016
41.4733
59.1406
45.5944
41.1864
54.9378
50.9933
46.6737
37.0348
59.012
50.3544
79.5412
69.8636
49.7479
39.7262
48.2736
42.5726
34.5658
62.2693
44.6697
44.5448
80.8069
57.1955
94.3057
82.3562
48.8441
54.2911
34.4168
49.2082
44.0924
65.2247
65.2738
51.0869
54.2789
56.9699
51.1804
71.779
40.0569
60.2082
45.6005
47.0622
39.4227
46.834
44.745
62.8113
56.2687
81.8321
54.7144
41.2076
93.1854
43.6416
58.9066
47.356
45.9333
63.08
50.3075
47.4482
37.2208
54.7116
56.1972
43.2449
59.8252
48.7987
38.3095
52.6378
85.2217
43.062
58.029
39.7135
50.7733
38.9892
58.635
65.7577
86.7662
42.2908
46.6987
65.0202
49.5745
40.5125
49.2919
49.4253
43.1226
61.6018
59.3534
70.2558
42.8808
50.7877
40.8648
45.6485
62.2691
60.9264
46.3145
101.873
56.5447
48.7763
48.1333
56.2852
70.8281
47.0302
44.611
63.0781
72.6131
45.4811
49.5121
106.265
35.7487
45.2194
49.9949
46.9555
50.6404
55.9181
47.6451
47.7832
60.223
43.966
60.5125
42.5167
44.7318
60.4579
41.7517
100.684
62.5637
44.0134
47.56
53.3653
44.2231
59.4599
45.0607
58.0731
45.9441
81.5475
60.6502
55.0365
44.4432
69.7641
60.3877
60.0826
68.7512
55.7816
46.4564
54.9315
42.0683
43.8233
51.8059
71.097
49.2426
51.4332
55.145
47.3983
48.0292
33.4776
50.7473
50.6948
83.1594
94.1293
69.8349
56.5917
61.5068
54.7848
55.8956
61.973
41.0321
58.0331
62.971
51.6609
52.3654
43.0406
85.1623
51.6143
70.2761
48.6461
44.5008
46.9318
48.0043
41.6453
74.3007
45.184
59.6247
115.285
60.9765
45.9525
65.0471
53.7337
43.0602
44.6351
41.1102
43.1707
51.5627
58.3772
47.0619
58.878
59.5638
43.2729
50.1217
35.8857
65.7257
59.9655
72.2918
45.8649
41.2624
64.6112
67.5596
71.6101
46.4831
50.7837
44.717
37.3874
57.7913
46.6536
61.0109
41.4313
47.6834
64.2333
53.3792
49.9797
52.7719
44.4154
37.1634
54.7138
55.8388
52.5783
54.4353
49.4602
96.7989
49.1139
67.7808
76.6742
39.2706
57.2969
47.2019
73.6239
35.0503
41.7668
41.4581
48.8037
43.13
60.2159
45.5571
61.6423
47.8347
48.4182
64.8814
40.5781
56.3056
44.0925
45.1272
41.5243
41.0126
40.8342
44.7782
57.6965
35.0404
52.9269
69.8864
44.1817
88.0176
52.1549
57.8226
45.6718
55.2985
46.2319
39.3017
45.0676
84.7756
45.9287
52.3649
43.0279
60.493
38.2774
89.7957
61.022
46.1596
60.9267
56.0507
76.9345
45.9091
40.5994
54.6827
58.1753
51.2783
63.3572
47.4037
38.7057
62.573
84.2934
61.3433
68.1412
46.5308
43.7929
75.4943
36.7172
69.7072
51.961
41.7564
43.2817
43.1639
74.8671
50.799
57.1106
45.0695
38.1516
50.1407
50.3329
53.8588
38.5865
35.4091
46.3776
61.0967
67.0217
48.0882
50.274
43.0327
41.0729
41.781
46.2184
50.3418
55.4718
58.5815
39.3335
62.5077
32.6434
47.2332
40.7216
38.6029
54.1145
45.2927
38.8452
51.951
47.9252
59.5771
57.1256
60.4058
52.5324
39.0147
47.6814
44.6121
59.9621
39.3555
38.9902
46.2655
45.0254
38.7824
53.7073
85.2549
40.251
54.07
62.81
61.3908
51.6206
50.5093
51.5147
56.8186
49.9044
50.4708
66.2373
63.0224
57.7529
43.5651
40.4962
66.817
37.0971
49.6483
46.8843
54.1547
63.2192
42.1917
52.0758
69.8896
32.5101
89.2319
64.9274
54.8405
44.3995
53.4439
69.7512
50.2312
46.264
53.1184
56.6332
62.6302
38.695
48.1172
55.9658
53.3386
49.7949
52.0578
45.1182
33.6653
48.9581
38.8678
44.9024
59.1035
74.0452
41.1796
45.7505
64.1845
57.8869
57.9123
50.8286
76.8906
87.505
47.1006
47.3446
52.9809
53.6918
50.0734
58.682
52.6253
46.1494
53.5294
63.9152
45.854
57.4073
63.8797
52.745
45.9434
42.3971
88.8339
43.3095
41.7531
65.4333
50.6386
47.0219
56.5114
49.8387
52.698
67.9507
53.6339
73.548
57.0781
43.5591
39.2743
57.6191
50.8981
40.2102
36.0225
46.8949
42.5303
81.367
65.6681
44.0393
42.5866
62.0649
47.639
40.5376
41.905
71.9917
43.0517
44.1616
61.7267
87.7432
38.7881
39.9846
70.3737
31.7684
63.2093
53.0471
39.1399
37.4679
44.0543
41.575
49.5987
55.3258
51.3613
52.5471
58.2162
49.0182
58.0227
67.054
42.7888
48.7973
52.4693
45.7199
66.4424
64.7329
42.7431
38.8835
36.1351
48.7323
49.1693
48.604
59.0111
42.555
69.9574
60.6399
42.2855
55.516
35.9014
68.1661
49.5891
64.7379
46.2965
59.0144
38.6789
47.0686
50.5531
42.1129
43.9733
40.7726
39.2193
42.8686
47.3078
47.6164
56.6538
46.776
49.3685
36.5859
45.3644
57.2001
67.4995
85.3458
52.8485
55.1569
47.919
93.7156
47.3709
58.2425
57.2874
40.9213
41.5373
43.276
61.2307
37.8531
38.9981
41.0935
58.762
45.7409
51.2261
47.6851
50.2544
53.8944
37.4727
42.1486
41.2872
56.2461
42.0541
54.4328
63.3107
33.0866
47.9554
36.7335
43.7635
62.321
61.3043
43.5205
53.3391
50.9031
48.777
89.0513
61.1774
33.7297
55.3526
70.067
56.4837
34.8798
64.9725
55.5669
60.9654
55.0824
56.9016
61.9883
48.5642
57.9721
59.9254
69.3305
62.8314
73.5012
64.3241
46.6094
49.6536
62.4458
51.7746
44.0447
43.757
63.8695
58.9862
71.4656
60.799
63.3926
80.7376
50.9969
68.1108
53.683
44.9888
49.7744
53.8658
33.1516
47.0441
38.2659
44.9662
53.9997
41.9303
85.7133
58.4568
48.1525
57.5328
53.8797
66.6065
47.4213
50.717
76.2736
65.8559
58.6031
44.441
38.9297
46.0766
61.033
39.7898
49.325
54.8382
43.8128
60.7057
66.197
45.1373
44.1788
52.5111
40.9463
41.8567
54.3568
50.7854
55.4503
49.4287
58.2996
49.414
74.4811
48.3292
63.6225
50.5259
41.0945
36.4097
53.4369
34.6015
47.9967
62.2506
64.5044
45.175
82.9802
77.075
37.5159
54.5036
40.8589
64.5422
51.859
34.8715
54.4525
49.4326
48.2485
44.4537
44.4907
57.4248
50.8574
52.8019
83.7691
58.1579
43.1654
84.4955
99.426
43.0614
54.2591
38.3945
51.7483
48.2654
47.7869
38.4198
79.5947
38.4335
57.9067
45.7416
47.4879
39.2596
52.2718
51.6996
54.0449
47.2976
37.6927
59.1752
66.8691
46.9782
60.6842
63.3979
32.9563
63.0162
78.1196
51.7424
38.4832
74.9811
41.3522
47.9144
44.7479
47.3783
58.6752
60.1533
40.9565
64.9806
63.3459
53.0983
39.976
49.839
61.473
33.5346
57.7435
40.3781
90.9756
78.5338
55.0439
52.151
46.6574
79.2627
52.537
44.8907
51.1171
51.9503
70.2443
62.3658
37.9577
44.841
52.5022
51.3342
56.074
57.7439
56.7497
35.9661
69.8169
39.109
61.7813
43.7271
38.7778
68.9109
54.1142
35.6883
72.3031
52.0808
57.114
79.414
62.6028
38.6818
41.0344
51.9678
58.5502
58.4656
54.7215
51.8836
47.4062
56.1709
72.8491
43.6947
48.6293
36.1523
51.0776
51.7726
55.5169
49.1266
41.3085
57.1683
53.3542
40.1264
46.7972
45.4112
41.9212
56.5309
33.7046
58.2382
46.0031
57.155
42.2895
47.3925
52.0049
60.5571
64.1872
48.873
47.3168
71.0822
60.3763
56.5772
65.578
42.8199
35.8028
44.7984
54.8483
46.7213
78.9996
50.6169
48.712
49.978
43.1036
47.9901
41.2241
48.6448
44.6624
50.34
50.5125
45.5451
55.5911
47.1194
47.9895
75.6317
49.249
63.85
43.3239
33.2543
51.4328
63.1633
60.3755
61.5698
37.2751
53.5683
48.5919
40.7391
46.9958
51.5657
43.0222
65.2326
48.526
41.4099
58.2423
45.7613
60.9341
50.8516
44.3033
74.1671
50.0375
69.9881
81.3382
58.4631
50.9343
38.1034
44.0069
43.5827
43.1109
60.5127
38.8186
53.1931
50.6788
46.9504
49.8368
45.1093
56.0251
69.1216
43.8796
46.5611
46.5107
52.7736
41.1002
62.0144
68.4033
48.0736
51.1254
50.3363
50.482
45.2505
56.317
68.3504
63.5284
41.1323
74.8421
56.6284
45.6613
52.3294
37.1282
48.9266
51.8013
46.1696
43.5384
37.0444
66.9323
44.6173
43.8361
43.8596
50.579
50.6653
53.9602
64.4244
47.398
39.8928
45.082
48.5137
73.9411
67.5764
43.5883
42.829
48.972
78.204
43.6955
52.1931
49.295
59.9621
45.7086
53.0756
56.0159
56.9001
68.7625
42.6175
48.3657
57.0599
49.1854
42.9259
47.6604
49.9945
52.4146
47.4258
45.0176
63.7195
53.9943
51.3012
48.9376
46.8769
39.052
54.7858
37.9832
52.6838
35.7915
39.6081
49.3918
78.1942
39.7782
63.1978
70.5212
36.6728
67.5077
40.4774
37.741
83.2568
56.4793
45.0615
43.896
43.6444
65.7915
66.5524
65.0501
48.9705
46.5735
65.8789
49.2441
69.8607
40.572
42.9532
51.7936
63.754
44.7047
67.1396
48.7006
34.4802
53.3673
74.5293
36.7363
64.8312
54.4477
39.2012
50.6339
42.1887
49.3619
51.4253
45.3819
57.8797
46.2327
62.8971
78.6073
34.3447
78.4403
48.4729
45.2422
63.0352
68.9879
64.2095
65.4659
61.4207
44.0483
56.4329
43.9074
55.3445
66.5126
71.9501
87.1466
73.5237
48.5052
35.554
53.5301
46.9142
47.9024
38.5955
43.2643
61.8158
67.8982
57.7437
58.0031
66.5706
48.1901
56.5612
50.4393
48.1426
41.6441
65.7143
55.3742
39.7895
48.8026
53.5489
64.6814
48.4266
62.9758
49.2792
56.0954
61.1388
50.4859
51.319
50.7611
58.4049
38.7269
50.4994
44.6501
42.377
43.2998
62.3851
55.9525
43.2754
49.4135
48.4475
49.2755
57.4062
49.6492
59.9257
59.3758
37.4098
36.1433
43.3224
42.6969
51.9265
79.1152
60.2481
54.5533
43.1042
63.1584
46.6103
58.0282
68.3011
60.7915
46.1173
59.1916
61.5023
42.887
31.5055
44.2146
44.7557
50.8143
39.3359
66.3172
59.6405
50.8954
68.9005
39.0949
48.7467
44.4279
42.7327
44.1777
63.9518
60.492
35.8539
45.447
42.1851
57.3278
43.5532
63.9445
37.6902
54.4605
42.6107
92.3388
59.0268
78.181
36.6508
72.7171
54.1857
35.3625
50.7867
48.4095
52.6195
74.2686
66.4826
83.6648
40.5911
56.0881
80.1503
62.547
57.5582
50.8654
42.0682
44.8216
66.1156
47.5926
45.3488
67.843
44.5782
53.3076
51.5962
56.7453
45.0178
48.8678
47.8039
46.8119
43.8187
45.1018
66.2183
61.1311
41.7169
40.2177
56.1545
63.1922
35.0143
49.9444
39.77
73.9511
68.879
48.5741
46.4883
69.9154
64.1997
53.6053
40.0396
40.5864
75.7956
51.2582
45.1979
45.3804
53.9559
49.8062
53.7294
44.4548
66.1445
49.5632
66.1408
62.7142
42.4037
66.9547
53.0522
60.8902
58.9349
65.9772
34.1269
43.6057
60.7702
44.3856
48.9283
41.1606
45.5098
45.6259
45.3817
47.0462
50.7088
46.1072
46.3361
71.7794
49.0677
58.1103
41.7584
77.4327
47.0744
60.2807
44.5992
40.8424
76.5698
78.2414
45.9488
57.9758
50.6428
49.9817
43.6592
49.4626
62.0368
43.9048
44.8434
46.2325
52.767
78.5543
50.6915
64.3409
50.6101
46.216
50.1606
78.461
52.0227
58.029
73.2053
71.1197
59.3011
57.9005
45.2979
42.7114
55.3818
74.0339
67.2109
53.7981
60.0964
50.5973
40.0379
53.4351
51.8467
39.5311
33.0566
39.2099
60.7315
54.1464
75.7795
87.9217
52.6407
55.2472
49.6588
88.4316
45.8846
55.9229
33.376
45.0923
49.303
49.3788
63.1313
72.6889
59.2395
43.8856
49.9322
52.1958
41.1067
59.9176
46.5152
60.4719
40.3467
74.0181
53.0953
57.3106
54.4235
62.3348
45.4092
41.0501
41.0157
45.171
72.4333
52.0367
57.1461
33.6236
45.4115
86.638
41.9279
56.8018
75.2943
58.3437
53.9855
48.5012
69.7375
54.3308
36.7499
51.6056
50.6457
73.5389
54.9629
43.583
54.1503
85.7679
50.283
50.9945
77.5051
51.0567
61.8009
40.1181
40.4947
40.2202
58.7487
70.4724
48.3414
42.2226
64.8891
33.1361
62.5469
45.4498
58.2934
39.3654
47.1629
72.9859
47.2962
55.303
49.0799
48.4444
50.6928
50.0146
68.6264
55.6093
62.069
60.8663
57.9044
45.2776
59.9293
82.0347
75.9303
69.9741
66.3819
82.1721
53.0349
53.1939
46.5044
39.6055
43.6701
38.7444
100.612
54.8338
76.152
73.4333
64.5721
37.1152
49.8281
62.0742
60.961
54.1046
39.3899
41.2178
47.6861
48.3005
67.3593
68.2597
63.2874
51.9516
40.446
50.715
57.2135
40.6524
44.1001
70.666
62.5126
67.3232
57.3227
54.2757
67.6549
55.7951
41.6315
43.2387
74.4227
56.6836
48.9544
41.9072
37.559
55.8226
53.4949
53.9212
49.1238
46.4462
47.443
49.9322
57.6726
49.2902
57.2221
50.5212
41.5537
43.8514
56.9322
44.8082
47.1924
96.1067
53.0755
38.0425
42.5876
52.5593
50.6368
47.0117
51.6269
51.1211
60.2021
36.9342
50.6139
45.7172
51.811
82.402
56.4199
43.7542
52.7693
48.2067
51.0197
66.9219
56.7653
65.3868
65.1454
44.5424
52.0261
77.2806
36.2431
70.5178
38.4785
52.2621
47.7139
40.7577
73.341
50.0424
57.5357
61.172
48.0938
37.0009
47.2911
40.0421
59.6433
83.8139
46.5025
58.9739
62.4875
60.0133
54.0068
41.321
43.7531
45.8005
43.3083
42.6113
41.2025
55.0068
41.5314
48.7721
55.5177
44.2925
48.5867
35.9288
42.7986
61.0325
52.8648
45.1611
61.6155
44.1282
80.4663
47.1832
46.3861
52.6616
51.7284
40.5546
43.712
51.9636
43.1646
45.9438
56.7892
51.5688
48.5336
41.7625
71.2957
45.2884
62.8326
46.2134
49.2786
64.3382
34.6476
49.6011
55.4806
70.1445
45.0978
55.8689
64.8363
37.5735
43.1136
48.9686
49.0685
49.7865
80.9052
49.6876
48.7587
52.4071
59.9238
49.1538
56.7585
40.579
47.0466
58.141
57.6939
60.985
43.2894
47.5437
36.5719
45.9499
67.2777
72.9267
59.2416
39.8763
71.7798
62.0757
49.9957
51.262
57.3945
44.9805
48.7738
77.0778
46.3835
69.4449
41.6881
48.7201
56.6256
63.6159
50.4171
79.6107
65.4782
46.4756
77.1515
42.3222
75.4845
71.1787
39.568
53.9078
36.6025
56.435
48.7951
40.8348
51.5074
82.6024
66.2928
41.6992
52.5108
57.0605
51.948
55.2194
53.4663
62.8991
48.5227
50.2593
68.6156
56.4081
46.3831
70.4509
41.0785
39.5846
44.5892
49.9923
45.8722
39.0711
42.7366
45.0815
72.7795
59.932
65.8508
45.9194
43.5535
50.3211
56.7718
62.706
81.5231
70.8419
75.4458
52.4273
58.457
38.0011
64.5716
57.4707
75.5662
39.6648
54.0422
64.9219
49.598
76.5352
45.7521
45.0992
50.0731
38.6771
43.1804
63.6193
46.1118
41.1365
70.0727
56.3735
54.7991
60.2612
49.2081
46.6272
56.206
63.0295
56.0503
74.4464
42.5186
43.9699
44.0508
38.6997
84.8525
76.1392
52.4706
38.3737
46.8282
65.5741
39.697
64.1151
46.9565
38.3764
47.4646
88.851
56.5725
50.7815
41.4909
44.1317
44.7306
35.8711
44.9321
48.6121
49.955
56.4454
64.8954
53.775
82.7136
40.6948
36.9105
39.3369
37.799
53.2282
43.4209
45.0928
37.1209
46.2946
36.8889
59.2043
50.6612
55.4553
41.9813
43.779
43.5924
49.7523
52.8498
38.6175
63.3142
45.208
63.1698
69.8724
46.7243
50.624
58.6601
55.4227
48.7348
46.9091
59.9513
61.3872
70.6815
76.1205
82.1654
54.4165
58.4519
59.0297
44.7515
40.726
44.0917
35.9644
40.2245
64.966
47.2624
43.6657
37.0758
56.9848
50.6847
44.3805
50.603
64.4127
56.461
38.0654
40.002
33.8149
40.8843
56.2372
39.3305
38.1078
64.8165
56.3013
53.2282
49.1846
43.7686
45.1682
50.7358
55.847
48.7237
50.0829
50.2744
49.3789
56.8649
46.3858
43.5666
63.7176
53.1706
68.9069
62.8088
44.3927
47.422
44.5491
57.4275
86.5074
58.2518
47.8702
44.2684
59.8145
50.5313
63.1902
41.4611
45.8144
36.9466
47.3218
53.424
85.9134
61.7988
63.4094
41.7396
54.095
51.1711
68.2291
47.3506
58.6769
37.2175
45.3212
48.7286
41.7983
60.2337
47.9095
42.4231
49.6721
59.2458
52.6243
58.9827
56.966
61.81
57.5857
38.6766
46.8352
40.4007
65.5606
74.6915
82.7517
43.3627
55.7883
49.3093
59.3303
44.771
43.6919
42.6743
55.7495
49.9466
35.7801
43.4082
88.7485
42.5419
55.6259
47.3908
79.943
51.3951
52.7707
90.6001
78.2821
72.7955
56.7418
55.4074
56.1796
35.7243
48.9352
66.4417
49.2284
45.0191
48.5387
39.1288
42.0029
43.8983
48.5443
57.4992
71.0385
51.5587
72.3577
56.8128
57.8271
62.3778
60.5036
41.6036
52.8323
44.0363
47.7768
61.2325
57.5343
71.2852
47.7188
45.9375
48.6978
44.6718
38.3188
40.6142
58.8119
41.3789
52.9605
56.8177
51.4577
47.6335
57.6336
62.5053
41.7646
49.0269
36.943
55.7806
40.0391
52.9863
51.1542
54.6335
42.5265
43.9163
48.542
44.4048
75.8244
37.3148
53.0531
58.3522
55.4394
45.6803
76.6788
46.9785
55.7365
51.2759
51.8221
47.6175
63.2623
56.1955
46.8793
52.6543
52.713
60.8113
41.5084
54.4229
53.7587
56.982
46.0257
60.9099
73.3053
46.0527
80.7329
61.5815
59.352
47.2028
83.2283
81.4862
48.5806
54.391
40.724
63.0491
45.6613
42.6382
39.7357
47.3968
42.8088
42.3118
60.3157
53.072
59.7684
57.8071
51.8565
63.5217
56.3435
49.1271
39.2166
60.0801
48.5963
44.3602
63.3224
52.5352
62.1713
58.9096
50.0331
83.3696
36.627
41.1476
45.579
59.6597
55.0922
40.2633
52.8972
41.2042
50.3572
59.5644
72.757
79.4343
66.2722
80.2999
53.1367
47.427
47.1322
49.3603
39.3435
42.9961
118.356
49.3424
53.3416
61.0901
38.6021
40.4649
52.6302
35.4969
44.3881
41.1049
62.3335
53.8051
54.0889
51.2667
57.4987
75.4953
80.6308
55.6729
57.2251
44.1926
52.5917
92.5326
51.2924
73.6794
38.8567
53.9654
56.0489
58.7902
42.4812
43.6847
38.3063
56.2025
47.5503
57.9364
52.057
80.25
51.1382
43.1242
39.4498
46.7998
60.5451
50.1043
57.9538
60.3243
68.1281
38.4141
43.9232
51.2547
66.0563
52.1402
44.544
122.027
47.9065
49.7237
48.0047
48.4609
57.7626
42.5944
45.613
49.4403
44.8907
47.8511
48.9757
52.7335
38.8982
52.709
58.9011
41.2808
74.6761
60.6334
56.0878
56.5404
74.4433
40.2448
58.2835
39.0931
53.0514
77.7767
40.5454
65.4705
54.2877
40.9626
54.1645
43.0949
35.8641
52.6076
52.5578
54.0511
71.7972
47.5392
43.4489
56.2911
45.4709
54.3943
33.3235
42.053
51.4709
70.2919
45.1603
42.9208
38.7291
55.5288
50.2228
68.2365
45.8924
54.2606
37.0837
73.1597
32.3104
46.8825
51.7054
41.4574
49.5815
52.6896
47.2879
55.4909
49.9818
44.7809
43.5367
58.7578
50.5013
47.5909
39.1176
51.9726
74.9303
55.2313
43.4746
47.0989
57.6353
62.3936
42.2791
78.9372
45.9622
41.5655
40.9346
60.5501
50.0245
77.8873
62.1175
51.858
54.0762
47.2987
47.3869
37.7148
55.1902
88.2869
53.5609
66.7745
44.1007
39.6754
62.3108
53.7986
52.5635
66.5577
36.8282
49.8406
46.6378
56.6694
49.2784
55.9084
75.2352
51.3338
51.9744
45.2339
53.1539
38.5248
67.6521
48.0157
64.0652
54.6603
62.8273
41.8949
43.3167
51.0992
62.1312
59.7682
58.1146
38.6325
40.1276
52.2035
40.408
53.4518
57.4988
52.682
50.9261
44.8168
44.4776
46.4097
36.7236
62.6706
55.7105
56.0745
40.9359
49.1713
43.8298
46.0089
37.9922
86.2938
71.2434
59.6593
46.6621
52.3578
64.2849
55.6383
45.6725
60.2877
58.3232
57.0755
75.3316
40.0009
88.527
39.3898
56.739
30.5722
59.5099
39.6622
48.4194
43.7606
55.3426
35.2102
62.1896
51.132
61.1229
56.8701
43.0225
53.0247
53.7009
46.8232
52.3288
72.599
61.945
39.6534
43.0636
71.9333
67.1279
60.1363
45.106
48.0284
34.3883
41.7866
60.1867
50.3468
67.6249
41.2459
73.2319
67.8077
45.0964
46.6721
46.9135
52.3884
58.6649
68.9872
47.1064
58.3658
47.5482
57.3326
37.6108
52.5774
56.3999
50.8353
47.6977
62.7117
56.5841
41.6996
47.3342
50.327
49.833
57.9414
77.4214
49.3792
36.6281
52.5093
55.8235
43.3106
45.2263
51.9343
48.3466
44.5085
85.3733
51.5915
48.07
37.8181
54.6476
66.921
51.5573
54.2807
76.1498
46.6893
56.0572
48.7328
64.2508
52.3784
46.262
43.2089
45.7123
64.5254
70.9943
46.5452
37.1488
53.2208
42.4316
39.087
48.6838
51.4589
53.6029
38.9957
68.1708
35.3036
50.0917
66.6685
76.0265
44.9097
53.5107
55.8875
62.5457
53.0125
52.7646
83.7586
51.9511
37.7597
46.466
51.1266
46.6663
39.1349
48.3169
70.5777
46.7642
64.5082
53.0093
41.7642
55.3693
100.099
50.8591
46.3631
44.8458
40.1642
43.5954
57.4396
60.7026
68.6295
57.9175
51.9056
40.7939
44.7551
44.8683
60.1827
65.9913
32.0675
52.6085
58.4944
46.4792
52.1464
47.6223
36.0017
84.9542
60.476
64.8331
38.756
65.2447
45.3563
52.1332
42.1071
38.1
49.6123
45.5604
76.8144
40.774
57.543
44.5875
47.205
44.1055
41.1246
56.6511
53.328
52.6818
56.2783
36.7958
48.6017
39.0138
44.8583
53.184
52.4961
65.0104
63.7127
63.7183
50.931
45.6898
65.6495
47.6238
42.2291
46.5481
35.7942
70.7931
62.3551
32.8554
49.4448
47.5459
41.602
56.166
52.423
60.5146
62.0265
73.4858
46.4336
45.4476
50.2562
37.0333
60.726
56.5762
66.8833
57.2173
63.8598
56.1357
65.0181
48.9807
48.2691
49.834
48.1281
54.2492
51.3248
60.386
42.3304
77.0713
52.0852
59.8628
55.2147
53.1388
43.828
59.6108
54.6168
49.6864
34.715
41.7919
50.1096
48.6716
57.689
45.0946
59.573
70.7973
67.6608
85.1422
53.9887
36.3955
49.1477
58.5507
55.2618
30.8241
50.7558
74.0499
53.9264
58.6104
46.0173
37.2228
54.0388
70.6016
45.6894
65.4965
54.0244
63.224
55.9852
49.9963
41.9206
58.2428
38.1216
59.3795
41.5694
43.6729
55.588
66.0313
52.6854
39.8339
79.4283
46.1067
45.3518
70.4752
40.5803
47.1238
50.5732
38.6159
55.9468
53.2589
54.996
39.6225
41.353
86.2682
62.3199
54.2358
66.4719
47.6251
52.8092
48.2011
54.0009
40.171
62.7598
51.1097
65.0142
60.1571
39.8935
67.2098
45.6449
38.8538
57.7752
66.9664
51.1619
58.4705
55.0053
50.9127
52.1299
41.4642
50.1408
51.678
66.7498
72.4889
47.3053
62.6424
54.0037
45.5448
86.255
56.9257
54.1043
48.9716
34.9414
57.803
62.1329
45.7841
39.8588
57.7969
44.8143
51.9599
51.0722
48.2193
64.8094
55.4436
78.0237
48.3141
65.8475
44.0206
40.0619
48.807
40.6209
50.6125
71.5088
43.9661
45.3003
54.6326
48.2488
59.9198
85.1819
45.7543
34.9353
54.0174
39.1498
66.4114
47.6696
36.5002
61.5366
38.0006
76.3316
59.4162
47.8772
67.1756
71.1857
47.7848
56.5714
46.8759
54.4405
62.6425
62.1175
43.5543
34.435
47.9427
57.3109
72.0498
43.8514
45.1507
61.9044
40.9106
58.9633
54.132
91.9045
60.9595
60.2383
36.278
45.5421
56.3542
58.7521
58.5026
76.4582
44.1155
62.9943
37.7682
75.0784
43.2972
44.97
64.5103
44.2233
61.8536
51.8454
38.5831
56.2022
56.1288
61.4881
101.022
35.5797
56.0546
64.0221
37.6178
34.8735
50.5232
33.7483
56.6063
76.7758
47.5345
62.9569
42.6234
35.4451
70.7352
45.6964
53.5982
107.645
52.5119
75.3117
48.1048
51.8428
48.3893
56.8185
43.2057
43.4267
59.5598
53.4695
55.7329
46.5324
39.3521
45.2102
40.4022
48.1113
32.1412
69.421
65.1872
47.2637
52.3227
65.4648
44.7608
65.4032
55.3882
65.4701
40.4946
42.7978
56.7728
49.9176
42.9573
42.569
50.46
42.6551
48.3151
45.4699
50.8911
64.2519
55.4284
45.3062
44.7953
38.7582
38.6756
50.3512
49.5935
52.2893
59.1993
53.0724
61.286
35.1256
51.69
44.9508
54.4563
48.6191
40.5574
61.6449
58.3693
46.3953
52.1021
46.2229
53.4392
51.6165
79.4391
46.0792
51.243
44.7698
44.8306
72.7628
49.7663
56.8353
49.3901
53.9126
43.5534
65.4887
43.9443
38.1073
77.606
37.215
64.9592
72.7461
39.0571
44.4364
47.8288
69.3814
44.3871
55.6404
41.4362
61.9433
49.3567
50.4834
54.7609
48.4333
47.9351
51.267
47.667
65.7682
40.6904
59.6495
43.3229
48.4533
58.2074
41.6352
51.8945
49.6603
36.0932
51.8352
50.3303
79.8512
52.0147
56.1406
97.8057
46.0032
71.7954
55.3005
36.1098
34.8629
54.781
62.9667
53.9279
51.7143
50.339
47.6921
41.8667
37.4711
43.3154
51.3996
43.0652
51.512
51.4229
58.993
45.6283
60.6413
60.3474
39.5876
48.6271
55.0709
42.2999
58.2066
46.2088
51.7085
48.2395
90.4734
60.6731
55.9228
49.5728
43.3035
47.6331
36.286
57.6647
32.9497
44.8408
34.1954
48.7606
46.9447
60.7674
59.8534
48.3276
60.2957
45.1106
59.8399
67.4521
50.0672
41.8831
49.2896
42.9161
43.2334
61.4606
50.8001
57.2714
57.6189
41.325
77.389
51.108
69.64
43.9597
48.9554
51.4533
53.6492
54.3283
61.1078
56.2606
75.922
45.652
42.4783
65.2918
42.2456
45.6536
43.0908
51.592
56.9374
38.6973
73.1835
51.5616
47.04
49.5969
51.2967
100.806
49.6979
64.9017
43.9922
50.3013
62.9956
54.7502
44.1848
36.6101
62.2791
59.092
61.8317
45.3984
42.3325
44.3369
52.7402
92.6339
62.3288
60.1003
46.9685
56.0804
49.6462
48.6379
49.1933
37.1143
39.7697
48.9939
44.3203
78.4527
40.2786
45.9527
69.5407
50.9257
55.8738
55.5022
42.612
79.1311
63.8251
58.1078
36.3109
42.5839
45.4038
46.8743
69.8701
71.088
48.9299
52.3045
60.2024
74.673
35.8158
54.6206
42.6013
39.6468
38.0059
48.847
53.8542
36.8768
46.1983
52.9104
51.9054
40.0838
75.8203
57.762
69.4612
71.4374
49.8275
39.9597
46.4197
56.1788
58.5275
42.4594
47.8399
78.0797
53.2188
33.774
55.7749
41.9864
50.6099
60.3184
41.7672
43.7811
55.4588
39.5926
44.7047
52.9341
46.1722
53.4446
44.3502
44.6299
41.4281
50.0176
46.1305
48.4638
42.1353
47.0863
51.9591
68.1641
64.9175
57.0445
42.5672
67.6229
43.3469
52.5015
52.156
65.6172
40.9691
55.3529
47.0098
42.3287
41.7129
50.7135
47.2685
57.5435
58.7965
58.3243
55.9953
73.2525
47.0877
45.8959
59.2566
53.0035
63.9656
51.4081
51.2825
50.3442
31.4801
41.9777
43.3485
47.891
38.6266
52.1878
75.2819
67.5753
43.3998
44.8991
42.7505
69.8715
79.8925
53.9232
64.8135
54.765
45.6593
43.6166
54.5257
36.8744
57.4789
62.3746
46.9609
76.161
42.2694
50.404
43.9281
47.4497
51.2934
52.7375
72.3051
48.0455
46.6171
43.6993
56.3877
55.9093
68.1799
50.6699
51.921
80.3789
60.8211
39.2349
61.6571
64.8873
54.9878
73.8458
59.1238
65.0427
59.0734
47.8156
55.4639
60.0122
76.2927
57.2904
77.8626
57.3268
55.765
55.8277
36.5013
62.3003
78.6612
54.6784
66.8169
45.248
35.8303
46.9025
81.9711
33.3122
60.3891
47.8072
44.5841
51.5088
46.4305
50.8327
69.2233
63.8131
48.6055
72.8359
54.968
59.8549
41.6826
50.6628
55.8294
32.189
43.3132
38.5364
63.3036
69.677
51.2712
39.6397
41.2257
47.6362
66.894
46.7927
61.8315
64.1027
60.7125
55.0422
39.9721
50.7064
42.1108
53.5254
43.2043
55.3103
36.7185
44.8844
50.2625
40.8864
53.3392
60.156
87.3239
58.7975
78.7208
44.8041
45.2268
48.879
59.541
54.1595
38.2943
34.466
42.2873
54.0848
41.739
55.0012
39.7495
76.401
44.2791
53.6999
45.0048
73.2296
54.715
31.28
70.5112
45.6047
63.3634
60.3383
41.2973
42.781
63.4603
37.5362
59.9295
40.2381
65.8738
43.8777
63.201
49.8047
40.8106
43.7022
31.3793
36.677
48.0617
63.3429
46.4735
54.0715
58.8933
43.9093
40.0754
40.2248
81.026
58.4748
83.6977
44.4976
41.9334
43.9099
49.9398
42.2909
46.6666
43.68
61.9481
66.0842
70.755
51.1281
59.6538
51.796
44.3827
57.8679
45.9527
42.9094
60.4495
57.8936
46.1984
57.6719
58.483
40.2575
45.5272
51.89
61.3532
49.829
51.8334
59.2892
45.2114
65.6344
49.2894
38.5386
51.7534
63.0368
52.345
72.0149
68.8784
61.3429
70.2488
48.251
51.0083
49.6088
43.3435
59.1607
50.2202
39.3459
49.7334
54.1298
63.9978
43.6072
38.9494
61.8416
53.9281
46.0073
54.7787
53.0747
38.1175
43.3295
63.2218
48.2475
44.0056
53.5606
50.6675
70.1357
67.5734
42.1409
53.6551
50.6029
69.871
49.0582
58.3927
43.6599
48.5972
40.7223
56.2386
62.7947
44.8425
43.6344
44.4203
38.4399
41.0517
46.0996
59.5171
51.9567
58.6554
65.9983
50.966
54.8119
68.4577
49.1266
76.7312
40.8751
43.3421
41.7464
43.0995
49.9301
51.4646
51.7734
49.4164
42.4053
35.5933
47.2383
57.3703
85.9893
42.0091
43.6315
53.259
46.6231
70.7857
53.9179
38.5659
45.0878
59.0337
54.5981
42.5764
53.132
43.8765
60.6057
44.9204
59.078
54.0273
38.1653
39.4765
39.2135
38.2282
49.7776
70.6704
76.6194
52.5317
50.6027
61.7359
44.9156
51.3233
50.5583
35.251
63.2049
55.3575
44.7219
41.0929
34.0393
54.623
50.1817
41.415
57.4219
64.4452
41.8364
65.0706
55.4796
40.2561
55.8811
42.4161
50.2556
46.7592
43.8817
41.9408
50.8131
49.384
57.2354
46.3798
47.0541
68.0283
59.6112
69.1435
54.4224
62.1616
70.7725
47.4932
57.1014
46.5399
55.2575
35.3773
49.8897
52.4775
49.0085
50.2854
51.0644
65.2337
44.145
67.5529
58.3129
38.3002
42.0259
57.5601
63.5366
48.0236
79.6491
43.4238
48.263
44.8174
51.5792
56.9022
46.8695
36.5021
50.1904
41.566
42.3882
51.7684
67.9298
41.3921
61.5683
49.8359
50.1076
62.5803
54.4839
66.4838
41.1875
56.6912
42.4579
81.1082
33.7478
41.6676
46.6633
45.864
46.9924
53.22
56.8864
54.7503
41.7779
47.6494
42.9717
71.7061
57.3782
38.4801
42.393
47.6045
43.0927
34.0568
58.9667
61.3168
53.0632
49.6112
39.409
37.0655
60.9515
54.2067
36.8205
63.1621
52.3876
45.0848
39.4427
45.5251
38.182
41.4687
47.7826
54.9603
36.6042
48.973
51.1761
54.53
61.7628
37.0747
59.8925
50.0683
47.5355
65.1527
41.3729
54.4354
51.3252
52.0073
51.9512
34.1934
30.9303
54.8959
45.1024
49.8374
50.9879
45.4632
42.4884
51.7791
47.7268
50.1665
75.8903
61.128
47.4316
58.5029
44.9769
58.1865
40.1746
44.5779
42.1087
41.9766
57.1226
48.6898
54.1652
71.0873
44.9083
35.7151
40.0832
47.1646
53.4833
68.7406
47.5144
35.2247
46.7331
63.1623
67.1779
40.3384
63.8592
54.2815
49.1959
43.7742
57.2236
48.1836
48.6489
46.9892
66.528
54.017
48.8929
50.3563
41.9415
51.7842
70.0789
48.3427
60.1988
46.3567
52.69
56.9244
47.8641
44.8152
38.0974
42.2408
44.5809
46.0873
62.8191
56.3743
48.4408
66.25
73.7463
81.0176
64.2295
54.9121
55.6045
76.4912
50.5954
53.7023
42.3779
60.4507
48.5184
46.209
47.2945
44.0006
44.9133
90.8514
54.462
47.6535
50.898
45.2123
44.0963
40.9259
43.9584
73.3761
50.337
50.2606
47.7722
70.2772
53.584
51.2661
45.2715
62.4548
52.3229
29.8648
37.7676
44.6111
52.2035
47.6007
58.5379
42.2699
63.588
53.556
59.0118
43.3213
79.6717
55.3663
60.6562
47.1497
37.7817
62.537
49.3919
57.5195
33.1858
47.2524
48.6186
51.1004
43.5005
46.1086
40.6475
61.3146
68.3953
40.0259
48.3554
61.7108
46.2257
40.6312
61.1797
41.0288
56.7791
102.561
36.9733
59.6095
44.615
57.9053
33.3733
45.8047
35.7507
44.374
58.0696
41.0062
43.5765
44.3388
67.9675
45.6817
41.9031
87.0617
53.5033
60.0857
37.7855
56.3252
44.6496
39.1309
37.3275
51.9617
78.4948
43.9401
41.5894
38.2372
60.5625
40.6158
57.0753
48.8735
47.3823
45.8001
52.3128
39.5758
58.1464
48.3559
41.5397
76.0079
44.8206
49.5798
54.775
50.3785
53.3536
44.8623
39.7646
46.5291
51.4743
51.2171
41.3791
39.7529
47.0237
41.5504
73.2596
54.447
49.0942
53.8565
44.0852
45.2857
73.6186
74.4498
44.6856
38.3524
42.4913
44.4346
72.5929
43.1849
51.5678
44.7479
37.2948
69.8138
51.0657
91.2671
46.9171
41.068
58.5961
71.3781
53.7619
47.8266
50.2869
38.81
44.9946
53.6101
44.4045
39.1298
67.2805
41.9778
40.35
46.9719
81.0602
51.1229
57.5039
52.3097
48.3358
62.0311
36.9536
53.9301
50.6204
52.7934
37.6637
83.6334
50.8735
57.0235
51.5808
43.6998
42.6041
73.9179
42.0538
47.6
40.9517
38.8052
52.7462
44.691
65.7023
53.9029
50.9165
43.6959
76.1604
43.8432
55.326
51.4098
60.6662
41.0403
58.8187
45.0464
55.2839
54.564
52.9823
70.8459
55.9013
72.7324
78.7778
37.9596
48.7646
56.7925
58.0972
42.7851
38.9021
44.5601
55.0961
54.4691
64.5235
40.1055
44.1943
37.2234
49.0291
44.3482
47.1141
60.6528
50.1568
55.6229
48.2241
65.0006
51.1643
40.4544
74.1602
39.3674
47.2348
43.4221
50.9302
91.6771
91.4663
43.1848
42.055
55.1835
92.2696
38.1423
45.3161
78.5227
54.045
57.1907
55.0617
50.7565
51.2545
52.6626
61.8915
49.64
43.2033
49.1221
58.8587
49.5521
57.6153
38.964
64.4567
58.5414
43.6712
48.6766
36.4847
48.2515
47.9313
48.4112
65.0937
60.9749
39.1832
52.1372
55.0231
50.1141
47.1923
49.9417
63.3069
46.9098
38.743
36.436
89.3478
46.6248
55.0918
37.4304
52.7259
57.3574
43.9583
48.3867
62.2676
44.2615
57.2879
65.9953
36.5084
52.5588
54.5229
52.9056
47.1645
71.5457
38.8941
55.3571
65.2009
87.3879
50
62.919
72.1324
35.594
42.8838
46.7495
40.1432
45.5596
43.8676
49.7734
46.368
63.2588
42.7941
46.9864
47.9356
63.007
49.6247
60.6494
43.2639
52.3955
57.5884
79.2147
48.3017
48.0081
65.0155
46.3258
60.6649
76.567
57.1703
47.0835
44.8165
44.8169
53.2767
47.266
44.895
50.7949
49.0295
70.5414
59.7871
89.1469
60.6946
48.1986
39.3214
36.7142
53.8624
50.9196
49.7282
44.9799
38.4766
44.8651
57.864
39.7028
42.8159
50.1674
53.497
55.1331
43.5519
49.561
59.2044
59.1374
56.0185
50.2734
54.1606
54.5964
50.8313
87.8347
51.3927
44.7276
46.388
48.9526
55.5653
39.3685
48.4945
49.3027
46.4952
44.4627
54.6941
66.7597
52.306
44.8482
38.0056
68.5214
39.9578
41.9024
60.1403
45.0159
48.4223
53.7375
50.4307
51.9391
45.0226
51.2149
35.7606
63.4902
73.557
66.4139
46.5293
60.0343
56.5002
43.3363
50.4118
79.3034
58.9581
54.0704
54.3121
59.0347
59.7949
48.1092
52.9511
65.6294
44.0086
45.6804
41.309
51.0327
52.0801
35.4787
46.3534
58.5829
53.7819
44.8203
38.8367
63.7489
45.3038
41.2621
57.9046
55.2376
44.334
46.4309
49.2228
40.5722
54.1532
52.2201
55.077
48.7129
45.6802
59.212
64.2544
46.8041
40.8799
62.7852
63.6937
51.119
58.8096
43.7436
68.8247
37.9071
69.5956
44.3058
44.6963
38.9494
46.5514
82.6733
56.6331
60.2413
66.5695
54.4157
45.383
67.9702
44.1298
50.3831
72.9234
42.5818
45.1417
51.8763
64.296
61.3888
51.45
49.9421
42.9203
66.3492
49.9814
48.1482
46.4761
66.6544
40.6511
51.6309
43.3161
43.0766
46.1892
49.592
45.983
61.7699
57.8648
51.8076
61.0661
50.1407
86.1647
87.9124
55.8833
70.4703
54.7607
44.3297
52.0983
57.6608
39.7265
51.7936
93.4011
55.4458
51.8881
37.9696
82.3965
42.3042
56.3695
57.8206
50.9759
43.3492
38.0814
50.8011
90.2232
57.6038
53.0358
69.147
53.8808
49.4615
41.3067
57.5839
75.0131
51.4773
58.0915
50.3243
48.9874
47.6553
74.1719
58.5514
60.2419
66.6014
76.9791
54.8198
40.029
43.7068
58.2263
64.3051
38.6305
36.9635
51.3018
82.5778
45.4998
46.3209
55.1517
39.0105
43.9778
53.5885
46.9061
48.6621
53.0302
49.6526
50.4334
54.3165
52.6908
53.9541
41.4802
42.3073
59.0439
53.3737
45.2081
50.7401
100.694
54.9395
51.5152
48.1665
80.5286
49.96
48.6162
64.0241
47.872
42.7176
44.0224
40.9812
81.9848
44.3602
58.9119
39.886
44.9547
39.1361
34.805
82.9878
45.3888
49.2272
52.7493
54.1726
52.7751
39.9477
78.5173
65.3105
41.1126
57.7647
38.5837
51.8638
68.7532
70.7789
43.5805
44.4763
73.514
44.7079
41.1834
44.5371
31.6266
58.4262
69.9179
91.9397
49.5697
53.2191
48.2283
62.5754
41.5366
46.4808
65.5394
47.7421
48.6625
52.886
50.9869
44.2607
53.6603
66.3929
57.0942
54.9306
44.8852
46.4465
58.8239
46.4913
48.152
56.348
53.5974
78.3377
60.35
41.8929
61.7827
51.2951
38.5229
33.4859
52.1811
38.5691
55.865
43.9455
52.1091
49.9292
59.0615
38.9184
56.5519
53.6163
80.6349
50.2197
70.8038
67.6928
41.4194
55.2751
40.2251
49.3358
49.2275
57.1386
82.3837
48.6047
57.0387
59.9114
44.696
49.8765
51.6819
49.1871
74.3567
54.9006
37.7343
50.1623
39.4729
46.5387
82.8658
52.0088
71.4185
47.5446
49.6696
53.7873
46.2578
45.2988
60.6511
58.3595
65.1749
44.2207
55.1521
60.5779
67.187
56.428
97.1784
68.5014
45.0521
43.0635
50.6479
46.9511
51.2414
68.4151
40.9975
71.8728
47.6031
44.1148
83.2411
65.8415
41.8704
42.7289
42.0371
60.284
73.0044
47.5854
42.3132
44.3709
59.0473
60.6235
69.093
52.7396
51.347
38.9941
61.8478
50.1369
45.5753
55.9841
59.4942
44.9297
71.9785
45.4116
44.4566
44.5539
61.9874
58.5764
47.1441
60.727
44.8979
48.442
58.5994
46.1764
65.6968
52.9295
43.0677
57.545
82.4843
48.4721
60.2096
46.9247
41.6276
51.9509
44.6234
43.9464
37.6152
52.838
57.043
56.931
52.0307
53.9648
45.1058
54.8191
44.9874
45.471
45.3079
43.2493
67.8067
58.347
40.435
63.2132
59.4176
54.0528
53.6344
70.554
52.223
54.407
48.8021
42.5762
81.5738
44.0082
39.2727
44.4793
45.0324
70.616
67.8691
47.7111
41.3112
52.6397
48.2344
62.4704
46.2974
39.4167
41.3568
58.2046
63.8495
62.9223
39.9545
53.0083
43.6651
46.8633
71.5509
62.6573
45.3626
53.551
35.1646
68.3503
55.2913
57.6733
48.4229
50.5114
43.7725
58.5444
65.4663
52.6578
52.5943
47.7496
52.9364
41.8499
51.1465
66.7985
63.3864
37.6389
52.7267
34.9823
51.7296
40.5877
46.8305
65.0929
39.9473
57.0683
65.124
49.0653
58.1584
41.4472
48.969
52.645
50.2187
53.2496
47.7959
38.2687
54.1043
51.6995
60.8679
54.3944
48.1648
58.1625
38.6262
60.6003
40.3959
61.7422
43.8981
52.6404
39.9404
61.7226
38.5202
47.4112
65.9669
57.1565
76.0306
52.6527
40.8411
74.6864
53.6196
56.0728
42.8266
46.1043
50.1291
77.6416
68.9346
46.3211
49.2694
57.9683
67.1322
47.7137
49.8519
41.253
47.8732
61.716
40.276
46.9739
59.3188
52.9611
55.1569
64.355
52.0418
42.8915
37.5724
34.8793
49.6441
59.7591
75.0376
56.9512
53.8243
49.0948
57.3738
59.7292
61.6492
84.8714
44.1465
76.2047
67.9033
64.049
30.769
45.451
44.2603
51.9113
51.1137
33.3541
64.8336
39.0963
42.9895
56.9769
58.7826
46.6708
42.0235
51.3019
60.1834
56.5793
55.9086
38.827
47.1068
49.7233
49.7103
78.2519
53.273
50.3929
61.2189
55.4434
38.9791
49.188
51.8891
42.0993
74.5838
46.1291
53.0956
40.9029
42.5363
38.1645
77.6458
65.8855
54.7209
40.3964
59.8369
39.3565
52.5255
69.101
36.069
48.0759
51.9093
49.2893
46.9539
58.0854
52.4317
60.5499
64.7557
44.7882
55.904
37.3017
47.0251
38.3824
57.618
50.3453
42.8508
67.0091
47.8574
60.8455
49.2194
52.0703
44.1819
80.9691
50.0691
51.2397
48.1473
70.0413
46.6994
44.7605
82.7011
61.8137
65.4392
61.9132
41.5083
65.0232
56.3407
57.1398
69.4101
52.3276
62.2182
45.4873
44.0334
48.0194
75.5435
45.0264
55.911
56.132
54.5923
63.5351
76.4382
47.0205
47.3826
64.3625
44.4169
71.92
33.2417
58.6308
58.0213
46.4467
48.1261
41.0749
44.3927
43.0543
48.7804
53.1713
66.6768
52.5807
43.871
43.6998
46.1752
41.5445
39.5478
50.4793
56.2287
61.9562
40.5243
38.5578
53.9801
35.698
44.505
75.4985
48.9614
56.2492
49.6067
60.0621
49.3688
67.3527
48.6351
45.0935
64.5754
62.2944
50.977
59.9679
64.5656
69.2148
56.6843
45.3252
49.0403
58.7841
59.4931
45.359
47.7243
47.9863
52.5378
50.1175
57.3648
44.361
44.7062
66.5983
46.3977
56.4711
38.8478
45.6012
47.1611
42.8761
76.8958
38.8503
56.4687
44.7135
59.8155
51.7707
52.3852
48.2645
77.2892
57.4616
53.2269
36.9011
81.2711
37.3608
67.9475
47.644
42.2522
38.4841
45.186
50.5322
53.2515
46.0808
39.4195
42.1111
44.9832
48.1219
48.8214
49.0991
31.4285
38.6122
54.5328
42.0175
48.8355
54.6013
83.3137
49.6038
72.1193
41.4905
63.5595
40.6125
60.8224
44.7008
47.8179
53.6884
55.0483
69.9357
46.7372
41.745
72.6158
33.4056
60.076
37.889
50.2126
50.6769
92.711
75.8907
38.7967
60.5674
32.1837
43.5254
44.7777
39.8141
58.4718
40.0633
66.7767
46.5621
40.8771
37.6235
52.5036
52.8122
66.0192
39.3443
47.602
44.8308
46.3463
64.1415
59.4131
45.9886
66.5594
45.0538
38.0887
69.0461
36.6155
60.8023
61.88
68.2884
43.6252
56.2508
52.9734
47.4585
54.1714
53.9343
63.7775
60.1825
51.501
68.4074
47.2971
42.9473
66.1317
66.0813
57.144
55.0082
59.4886
52.613
59.8378
56.3353
52.2557
46.7364
72.2081
56.4513
51.6003
45.5346
74.6669
53.5766
75.3351
80.4077
47.6119
35.6956
49.7985
49.4057
92.3393
68.8692
47.4803
52.1832
57.1607
67.5668
53.0249
54.7484
63.607
60.271
58.5341
37.0329
45.4889
47.8924
71.0257
40.7167
50.8179
37.6119
51.2613
51.7233
46.3518
53.7673
56.4709
50.4567
48.3765
59.8127
80.3179
49.4875
51.2075
89.1088
41.7675
53.0609
78.4152
44.1711
40.6017
49.1702
36.26
45.9692
79.7617
60.7184
68.1854
43.7555
43.8113
37.6852
53.619
63.6867
55.771
46.0372
52.773
49.6103
71.5766
57.8736
59.2571
42.7596
36.0598
49.164
37.7767
68.2821
49.3979
59.1678
67.7996
47.3269
41.7783
47.8844
42.9917
54.8443
45.1082
33.2515
37.5046
75.5782
66.4581
60.2264
69.2367
49.489
70.8702
78.1416
43.2921
39.1453
68.2627
40.9309
57.4503
72.2628
40.5701
46.0839
57.0082
58.7631
55.5211
46.2225
65.0162
53.2946
84.6963
46.9382
60.2022
72.6755
58.5189
62.2905
51.0247
51.2344
42.9871
52.7962
47.4377
48.8934
57.9575
44.6283
41.3977
65.7031
47.2076
68.075
52.5102
56.1563
43.1863
41.6279
46.4835
41.6419
51.655
62.1887
39.6973
74.0993
47.8256
62.4673
61.3599
46.1122
50.5147
55.0566
46.3965
53.1545
43.7086
66.4653
42.4552
64.1849
45.6002
43.9388
54.6196
68.193
51.5977
46.6437
44.0616
94.5315
61.0682
53.9195
75.3715
48.3097
48.2179
51.2185
35.0735
51.6577
62.2448
54.3159
42.775
43.0913
54.0371
42.2724
44.0022
43.5701
63.1686
43.1793
47.566
50.0039
58.6256
45.0762
53.6083
67.5881
47.3416
52.3804
46.1504
48.9206
44.5258
65.0911
38.9865
38.863
45.5968
36.2975
37.5265
43.5728
48.776
41.2642
39.4525
47.5156
52.859
39.7138
38.003
53.8363
33.5238
42.3194
44.9352
40.2273
39.9474
59.6768
45.7553
51.0338
36.6873
67.8542
48.1447
53.0292
47.1473
42.5604
39.8321
39.8333
89.8487
46.7702
43.0914
52.8203
61.181
44.6706
51.1012
60.9472
62.1698
50.6096
48.0308
64.549
37.7185
51.0463
42.3908
45.2138
46.1752
52.8481
69.6257
47.5558
50.9994
56.0265
76.4735
57.3242
44.9541
57.7585
54.0815
72.42
41.4875
39.1041
58.017
54.4696
58.9193
86.0783
45.4253
56.6628
55.944
34.4353
48.9688
47.5277
95.8049
55.7982
83.3379
53.7063
43.0243
51.9601
65.555
44.6342
65.4144
46.2862
64.8602
75.4853
42.7131
53.3998
44.4416
45.5949
47.9445
41.4639
42.8811
58.8843
45.1875
110.905
49.8804
54.9762
43.0759
55.2078
54.1011
52.3409
65.8586
47.0717
48.2156
46.4787
62.7574
39.4343
51.6456
44.0747
41.2779
50.9976
56.083
49.9279
43.4327
37.2794
50.2131
45.4846
39.8005
45.1491
56.2377
82.2494
49.0423
36.8449
43.9003
40.0148
66.7191
43.504
42.9756
54.5793
38.7373
57.0967
59.6386
43.2884
50.6518
55.8171
48.1054
47.5891
69.7994
47.8616
29.1776
37.4534
67.2862
