4.83428
5.99109
4.65093
9.47316
7.04052
5.35272
4.46633
6.07037
8.47877
4.44001
4.58482
4.91877
4.76598
6.55281
4.87102
4.53243
5.53909
6.60199
7.80681
4.98281
4.56578
7.23614
5.11236
5.36848
4.55162
5.74632
5.49293
7.24266
4.98068
8.1442
7.03094
5.8126
5.24321
7.60482
5.2292
6.22075
5.14734
5.83593
8.27652
4.47458
6.05317
3.79161
6.64604
5.73142
9.63393
4.50913
7.87619
5.51032
5.0562
8.42264
5.00207
6.26428
4.53617
5.34244
5.85307
5.68994
5.96179
3.77346
4.47221
4.93566
7.08126
4.66996
8.60456
4.56071
5.02468
6.61701
7.68815
5.12962
9.12578
5.37413
6.04388
7.69573
5.10882
4.40952
7.17056
5.09559
4.75021
4.39777
4.77081
6.2994
4.11482
11.0392
5.73495
5.12048
5.80384
6.60055
4.86325
5.43143
5.43482
4.56661
6.29086
7.29603
5.29329
4.97816
5.12183
4.63812
7.45935
6.51777
6.87984
5.53365
5.89608
6.27083
6.23172
4.26238
5.36879
5.70024
6.32324
5.14205
8.18981
6.6158
5.70113
4.7645
7.62643
4.8814
6.05073
3.75143
4.53256
11.4737
4.9686
4.83422
5.77556
5.43528
4.66387
5.47533
6.93434
4.51074
5.75521
5.37757
4.50733
6.91307
3.93709
5.33035
4.77147
4.74249
4.65776
5.17809
5.11708
6.9626
8.75183
7.61274
5.32642
5.27556
6.08741
4.3287
7.15211
6.77263
6.58567
4.81943
6.20225
5.14232
6.74906
5.69779
7.32791
4.99809
5.91693
6.48163
5.02098
4.631
6.80849
7.15585
6.33662
6.966
4.39669
4.70485
5.3298
9.14333
7.37774
5.96956
5.37135
4.96645
5.35299
6.37533
5.8403
5.64105
5.29338
5.0588
4.12969
7.30839
4.83883
5.45554
4.77867
4.95995
4.5733
5.27957
4.80779
5.17578
5.878
6.3207
4.38555
5.59455
5.11133
6.93482
7.11627
4.68526
6.75493
6.33443
5.31724
3.51294
6.12788
6.2314
7.80913
7.13916
5.78996
6.31849
7.28888
5.20274
6.16687
4.98672
5.95694
6.40132
6.69657
6.1318
4.87248
5.76558
5.18875
5.31785
6.6054
7.07368
4.66545
5.20901
4.99678
6.44109
4.74579
5.14895
6.20545
6.21608
4.92101
4.74042
6.99812
4.9308
5.95574
5.68604
4.61749
7.62891
6.73565
6.2828
5.23394
7.02886
8.04186
6.15981
4.46052
10.6011
5.68781
4.45011
6.62889
6.07874
7.77603
5.20791
4.24555
5.09155
5.44541
6.20068
6.23289
4.37113
5.79847
5.56822
5.98088
9.67028
8.50686
6.24369
6.48289
10.2868
6.69354
3.91395
6.88086
6.74826
5.74231
3.90626
5.84684
5.6293
4.25191
4.8256
7.01293
5.41381
6.0196
5.01138
4.64607
6.985
4.10861
5.35271
7.15491
6.72429
7.80625
6.01785
7.62676
6.34779
5.02727
4.96485
5.3196
5.26115
6.58058
5.2047
6.72271
6.25863
4.8425
5.97184
5.76052
5.24178
4.37342
5.4869
7.22155
5.87042
5.33266
4.55431
7.13747
4.54457
5.5714
9.34531
4.83435
7.10188
5.39194
6.52545
7.35421
5.59458
4.65174
7.67611
4.958
7.49832
4.78537
4.33621
5.73038
6.55804
6.35413
4.83158
4.34227
6.00362
4.65852
4.37671
6.17227
5.73915
7.24632
4.1334
6.23003
5.20169
5.52928
6.92302
5.78893
6.92298
6.42909
4.38339
5.29575
5.86445
6.54142
6.23502
4.37973
4.20331
6.89015
5.10085
8.6241
5.35847
4.15733
8.92903
6.16507
4.84014
5.6303
6.79947
4.7157
7.60563
7.33828
5.38278
6.88144
3.94884
8.18126
5.80647
3.93551
4.41693
5.23627
4.35698
5.75901
4.7782
5.21521
3.91904
3.92442
5.42281
5.8939
4.69165
6.58216
5.62391
3.78086
5.90726
6.00233
8.22976
5.78998
6.2999
6.24718
7.0582
7.7886
4.31957
4.29109
5.60286
6.67026
6.36425
4.34998
5.30741
7.39176
5.75841
6.28473
5.15642
4.09925
5.27216
7.2271
6.29207
5.49341
5.19141
5.32085
6.73334
5.66412
5.31417
5.54351
3.76941
5.52808
6.48957
4.86374
4.23817
5.39458
4.96578
7.18692
5.37112
6.26653
6.51221
6.31658
6.58872
7.24378
4.71476
5.7
4.98463
5.37673
6.70219
5.91491
3.88536
4.9652
5.75935
7.03917
10.2404
6.53861
5.617
6.32925
6.32355
4.37845
6.23509
5.3698
5.49669
7.25265
5.1242
7.51941
5.60255
6.76799
4.52936
7.18088
4.46526
5.93951
5.12439
3.74833
6.7581
6.43711
5.70171
6.43887
4.76625
5.27186
8.23362
4.20923
9.93366
6.07
5.12933
6.63204
5.57358
7.39551
7.40325
4.46274
5.53938
5.62803
5.78571
4.85136
4.21196
4.61899
6.01978
5.5932
4.54471
4.17724
5.35988
3.72632
4.52976
5.4093
6.87736
4.416
5.39072
4.95651
6.01476
7.23331
4.37987
5.40178
6.0418
6.87267
6.16054
6.42494
5.21607
5.03662
4.81469
6.92956
6.15322
5.41991
4.5366
3.8439
6.27244
4.59595
8.37097
4.77126
7.91079
5.77664
5.15445
5.8109
4.93484
4.69357
5.65194
4.20427
4.52274
4.63365
8.32182
6.21683
6.31907
6.94756
5.99175
6.40352
5.1528
7.0407
5.85163
7.12842
7.14596
4.05964
4.17159
5.57419
5.34146
4.16828
5.08007
4.98823
4.43439
4.39822
6.6707
6.55489
4.89325
5.53945
6.03952
6.22063
6.96221
5.01422
5.16746
5.90826
6.1835
4.88688
4.7286
5.09289
5.07561
5.32594
5.47125
6.21954
5.59586
4.51064
6.98052
4.73411
5.73094
5.79379
5.16102
5.7803
8.38335
4.81458
5.90352
6.39557
4.92378
5.51674
7.69682
7.2543
4.77785
7.27696
5.72539
8.06771
4.65647
5.30239
4.73678
5.52152
4.58409
7.53856
5.56744
7.84546
7.77266
4.45564
6.44403
4.17893
5.48842
5.84293
5.17366
5.26886
5.65645
3.85498
4.36735
4.16887
5.32996
6.04505
5.22424
5.05769
5.722
4.27993
3.85351
8.15423
4.12014
6.2737
5.04791
5.33033
4.47964
5.29718
4.10894
4.51432
4.0294
5.8514
4.49283
5.23073
5.07805
6.2639
7.7973
8.72228
5.2062
5.45372
6.47518
7.39143
8.37262
5.82048
5.91998
4.87846
5.66032
7.33412
4.67454
6.03635
5.15788
4.79592
7.08281
7.13396
5.56528
5.79046
4.81716
7.532
5.03992
5.6295
6.69567
8.37605
6.6867
4.32762
5.38787
9.43253
4.72174
4.04634
4.6474
6.22863
5.33533
5.18302
5.71343
5.19139
4.19026
7.05287
5.40514
6.76821
4.45345
5.86154
6.5401
6.43178
5.45464
5.91328
6.26651
5.47214
5.62049
6.12323
6.39731
6.74607
5.09195
4.3765
4.77259
6.32094
6.93077
5.08838
4.20337
6.14586
3.92627
5.43551
5.15929
6.6085
5.44169
5.76494
4.4663
5.57556
4.91258
5.12069
6.42784
5.57869
5.67255
6.95409
4.14798
4.02117
5.01179
8.37772
5.45083
7.89834
5.37991
7.79129
5.74775
6.71505
8.7667
7.18521
6.39988
4.13053
6.19637
8.21503
5.79809
5.6761
4.76848
6.05405
5.17827
4.73055
5.19222
4.76003
4.72876
5.41743
5.68459
5.33786
5.84388
10.6327
4.08282
7.09454
7.81627
3.92868
5.47689
3.9193
5.13794
6.65641
8.86598
9.29878
6.41427
7.35547
4.55465
4.44784
4.7029
5.66594
4.86732
10.4229
6.975
6.74179
3.96468
5.45626
5.71054
7.21345
6.16186
4.43764
4.29178
7.17091
5.90846
5.28048
6.58909
4.79253
7.6357
6.56748
5.66602
5.00928
5.63884
6.43529
4.53426
5.77494
6.44815
6.76494
3.77364
4.68237
5.0819
8.18172
4.74365
4.67472
5.92027
5.07047
4.51977
6.23843
7.3997
5.89126
4.82187
4.12731
6.0748
3.32454
6.89379
5.39136
6.24579
4.84472
4.7058
6.6429
7.82077
5.3503
5.66272
5.73117
6.77309
7.09057
6.92819
5.552
5.0218
4.29003
4.30662
4.28383
6.46443
5.26116
4.80759
5.07614
4.80629
3.78565
5.09375
5.80337
5.50316
6.9315
5.42581
4.80987
7.12579
4.696
5.13154
4.75557
6.27012
4.88848
6.66088
6.91726
5.50494
8.42431
4.95935
4.54121
5.37354
5.94044
4.509
6.11775
6.06976
4.88
5.94671
12.3279
5.22206
6.3964
5.62653
5.9359
6.65368
6.82997
7.70255
4.5735
5.68279
6.41859
10.2855
5.21592
6.72857
7.2246
8.95745
6.61487
5.40615
4.72824
6.32165
5.00611
6.20955
5.29154
5.69757
6.44947
6.3844
4.62017
4.46958
6.69015
6.20362
5.89981
4.9706
7.38714
4.96141
5.01019
6.47951
6.06007
3.81625
7.73473
6.86611
6.11628
5.31036
6.67234
4.47642
8.82895
7.48594
5.83121
5.66895
6.40593
6.7928
11.1179
5.54063
6.92198
8.45715
5.84682
6.30255
5.08095
5.84619
3.97493
5.42806
4.62377
4.23699
5.76405
5.22331
3.81203
5.25031
5.14806
5.17532
6.63478
4.83854
6.38157
6.5265
6.09456
5.17396
5.17501
5.91607
5.17574
6.75883
4.58644
7.31084
5.94486
4.35994
4.56399
5.58022
5.79988
5.86176
5.53417
5.00904
4.65185
5.60714
7.1326
6.02214
6.79959
6.72441
6.23045
5.50829
6.56395
4.1572
6.20803
7.23106
6.09402
4.70954
8.85342
3.99238
7.31
5.94521
7.33675
5.50658
4.49841
6.57183
4.99149
4.05263
5.8707
5.32697
5.72306
5.9514
4.43573
5.04276
5.02163
8.46345
6.6457
4.69888
5.6478
5.60145
5.19615
4.62874
4.00481
5.4894
3.18121
5.21797
6.76812
7.06173
5.50182
7.17886
4.79139
4.89293
6.86344
4.77351
6.10384
5.84705
7.97856
4.93651
4.87101
5.57751
7.93484
7.97346
6.70533
5.7737
6.3707
4.34703
7.50464
6.27465
3.73458
5.49014
6.78329
6.16655
6.08673
4.53484
6.4105
5.03138
5.44729
8.55382
6.65875
4.94174
6.75238
5.74069
4.38981
5.55565
6.13598
5.85328
8.73937
5.23243
5.83643
6.77083
5.229
4.50784
8.1859
4.86349
8.72806
3.744
3.90903
5.3206
6.02695
6.17985
4.74744
5.91598
6.10456
7.06861
7.66376
6.1229
7.26607
7.83583
8.61719
11.2391
4.3866
4.54224
9.79013
5.56223
5.70235
5.44415
4.45627
4.57198
5.27803
5.2195
8.7289
5.55105
5.80068
6.89217
4.89226
5.71886
6.07302
5.52378
8.25529
5.8232
10.1202
7.15053
8.62292
6.1279
4.68138
5.68577
5.95398
6.24548
4.65314
5.26601
5.18546
4.90564
5.53644
6.84974
7.61217
4.30681
5.95333
7.40421
6.43846
7.5041
4.86797
6.92271
5.20001
4.30979
5.48226
5.49612
6.40748
9.67822
6.84042
4.76199
4.7907
6.1081
6.18487
5.10061
4.39596
3.87298
4.18044
6.82197
5.34976
6.19362
5.62996
5.6511
5.37137
6.59152
5.53245
5.43014
5.13348
4.8578
5.50278
4.94512
3.88937
5.55227
7.19523
8.40488
5.76347
6.2243
6.03237
4.79061
4.51609
5.55396
5.08466
5.327
5.47798
6.34898
6.17554
4.92489
5.3657
5.37703
6.67279
3.77504
5.31158
4.29437
4.55861
10.5849
3.55619
6.09933
7.66452
5.22855
5.35206
4.54375
8.24324
6.81302
4.82157
7.21297
4.48516
4.94094
4.8786
6.02317
7.15781
5.05496
7.92438
7.16343
4.06601
6.1109
4.57753
4.02304
5.73821
4.60298
7.43836
5.14089
5.86132
6.15446
5.51837
4.52423
5.33051
6.05326
5.14321
4.48098
6.40753
8.64491
4.97715
7.79603
5.46579
4.85782
5.10996
7.52766
9.73004
5.32935
7.0851
5.52799
3.63946
6.0401
6.16892
4.86103
8.0197
10.6401
6.0396
4.64102
4.6006
5.44671
5.02712
6.95142
5.14354
7.07059
5.51553
6.57059
7.72499
9.76831
7.33611
4.77179
4.31686
5.41291
8.44089
5.002
7.25717
5.96313
5.00299
5.34253
4.71019
5.19675
4.2678
7.25756
7.33639
6.00212
5.38333
4.11075
6.46475
7.17793
4.5114
6.0187
4.11473
6.06665
4.04568
5.72253
4.76248
7.65405
5.49123
6.02535
6.63978
4.81627
7.42275
8.68752
6.98385
7.81942
5.60402
5.63333
5.44561
6.21703
5.92486
6.07006
5.28681
5.65158
5.17518
5.76445
6.92286
4.24636
4.30267
4.37348
6.42174
4.95337
5.01322
6.7796
5.20778
5.58646
6.33414
10.1969
5.18835
6.25551
6.85251
6.17862
6.70199
4.62907
4.89824
4.5411
4.10762
4.06356
5.48834
5.59328
6.78905
6.60608
4.77471
6.88962
4.2575
4.51106
6.11987
7.91491
4.56526
5.1566
5.22529
5.37804
4.47876
5.50077
9.10888
5.7576
5.34641
5.07809
3.82751
8.80977
6.30511
6.77327
5.02978
3.80496
7.13869
5.0364
7.57653
3.76908
5.56838
6.63715
4.77994
5.98949
5.5904
5.40141
7.42192
5.53502
5.52539
7.13926
6.86969
6.00881
5.47873
5.17717
5.04166
8.03025
5.91086
4.72491
5.07171
6.03548
6.16847
4.7152
6.55632
5.26162
8.63178
3.6122
7.54207
5.98945
6.53274
7.98335
4.604
6.26819
4.43359
6.044
8.79255
5.14893
4.96736
6.20113
6.00481
6.9138
6.14206
5.97823
6.28512
5.00587
5.50285
4.84306
5.04026
5.78646
5.16423
4.88939
7.35472
9.64452
5.16439
5.63152
5.36957
4.21097
5.23188
5.77404
4.0459
5.34365
5.47874
6.54395
5.9046
4.8304
4.78736
6.67654
6.02409
7.43996
7.37192
4.82906
7.34169
5.01889
5.42404
7.0495
5.545
4.68173
4.52968
5.48262
5.44033
4.87963
6.26332
6.32821
5.44698
5.18831
5.33196
4.88548
5.82058
5.31999
6.34167
6.27386
5.80799
5.37334
4.73001
5.55172
5.36384
5.49407
4.81898
5.75416
5.8535
5.55169
4.86173
5.23705
5.19689
4.25669
5.7968
7.3669
4.54557
4.87049
6.13748
5.63298
6.24159
5.48065
5.60375
4.48321
4.79748
5.46183
3.75933
8.02275
6.11218
6.62586
5.72081
6.46353
5.60786
6.70753
6.89959
7.58534
6.21417
6.81492
7.59489
8.03835
4.24824
6.03069
4.08163
5.35905
7.14714
5.85346
5.13019
9.46081
5.90079
5.69649
4.90719
5.87419
5.0699
5.71144
7.40167
5.28055
6.25
4.89559
5.35832
7.03316
5.3213
3.47393
5.67126
5.27078
4.9367
5.80639
5.42294
7.22305
4.44774
5.11967
7.75602
6.67165
7.07454
5.76647
7.11811
5.73927
8.85953
6.20763
4.23564
5.62504
4.82055
5.56232
6.08886
3.77573
5.42147
4.45996
7.81076
6.02504
9.11158
5.91051
6.08429
4.4457
7.23356
7.23779
4.28093
5.49224
9.02271
6.30324
8.5128
5.28086
5.95147
6.67399
6.86104
4.73748
5.64467
5.27764
5.7481
7.02781
4.8692
5.03691
4.0277
5.07163
5.09179
6.40517
6.08083
6.78201
4.83196
5.367
6.79086
5.3274
6.32138
7.63237
6.35231
6.83194
5.35228
5.00471
5.14159
5.65969
7.6237
5.31763
6.5881
6.09981
6.00174
5.04695
5.85127
5.55072
5.3614
6.46481
4.95609
4.56089
5.29446
4.23231
4.60057
4.51152
5.87501
6.52184
5.48265
5.27195
5.80771
6.91815
4.80539
6.05004
7.11899
4.92522
6.49942
7.47479
7.27868
4.75575
6.37603
4.47178
6.01249
4.79992
6.58825
4.16675
4.54992
4.50869
7.70027
5.89045
4.94521
7.74144
4.5332
4.79984
5.19412
5.42391
7.17689
6.41062
5.88579
6.1691
7.71228
3.49496
5.59633
6.02851
4.03607
6.75002
5.26547
7.41706
9.52447
8.8271
4.79579
4.96847
6.30369
6.29103
6.53641
5.34738
4.43186
5.91008
6.09938
6.96482
8.39699
7.14228
6.1336
4.88923
5.92582
6.9856
6.96564
5.15589
4.64398
7.55956
5.80119
5.23069
4.11122
5.05761
5.55075
6.92503
3.87857
5.0558
5.33962
4.87698
6.77113
4.45803
4.70323
6.71674
5.82262
5.33629
6.90506
6.07907
6.98246
5.19929
5.63445
9.58278
7.87398
5.14076
5.06323
5.20335
5.01662
3.98946
5.43514
5.38485
4.41683
4.96756
4.75691
6.56191
6.69892
5.75058
6.78441
11.7009
6.18696
7.32094
6.91397
4.91922
5.80923
9.56315
5.70025
7.25274
6.61962
7.27277
6.52719
5.09278
6.45236
5.61959
5.9668
6.31597
7.42871
7.31517
7.70467
4.27961
9.37232
5.55727
6.3374
7.56574
5.82011
3.895
5.63904
4.8095
5.67766
5.25784
4.17107
9.65816
6.56019
5.2643
6.7107
4.96744
5.86327
4.8149
5.07177
8.03646
5.40924
4.40926
5.77327
7.16684
7.44429
8.09837
4.80136
4.46609
3.77998
6.03708
5.13851
5.22297
6.11587
8.24973
6.64033
6.14509
10.3289
5.79732
5.70674
5.06409
7.12015
4.47022
3.75283
5.4728
8.32081
8.44237
6.64749
5.61942
5.1979
4.69676
5.9939
8.39123
4.21613
4.61453
8.64326
5.97597
7.51472
4.56385
6.3295
5.28283
6.46898
6.4135
5.77371
6.48408
5.06543
5.61197
4.46533
4.79895
8.07516
6.70995
7.6114
4.94273
6.99374
5.95423
4.39775
6.51684
6.75066
4.74071
5.82746
4.49669
5.77288
5.58745
5.6171
9.74031
6.63935
6.94564
5.14327
4.78673
4.09891
4.70111
6.94794
6.58014
5.40984
6.07099
7.10843
5.22815
6.06247
6.08549
4.91953
7.02026
6.53797
4.62975
6.02656
5.23805
4.57852
4.58696
5.2428
6.40993
4.79611
6.88734
5.46601
4.45732
4.3158
7.57273
7.21042
4.53633
3.98587
5.15708
3.90082
7.46783
4.24902
9.31781
4.2537
5.78406
5.5847
7.04094
6.03371
5.36081
6.33568
7.57098
5.75621
6.72704
4.56617
5.00238
6.12816
6.20818
4.74502
3.9082
5.73871
6.24501
5.7374
8.11735
4.64108
3.87559
4.78703
5.77009
6.34864
6.40989
7.0744
6.78454
4.26729
6.51779
4.86358
4.18497
6.46616
7.88656
4.99716
5.88111
5.36869
4.65133
5.45301
6.797
5.01311
5.59953
3.95987
4.11004
5.091
5.67232
6.21892
4.53913
6.08055
5.97426
6.31374
6.99053
8.99065
4.94304
6.66798
5.51702
3.66201
4.79467
5.93568
5.18041
4.59192
7.31527
5.99161
4.11834
5.13822
5.10699
6.08079
7.11352
6.85439
4.67438
3.82469
6.04918
4.95511
6.23469
6.77593
5.99986
4.14621
8.94111
7.14026
7.42638
6.3852
5.36036
5.43041
7.79859
7.6992
4.63976
4.78493
3.84267
5.90618
8.38886
5.56967
6.40429
4.96621
4.79687
7.53049
9.86777
6.33883
6.80925
5.22688
7.26645
4.92456
3.62076
6.64588
6.08899
5.16693
4.54405
6.70264
6.00313
4.89285
6.03486
7.71588
5.88787
8.5248
6.66205
4.42525
5.05907
6.39486
3.76021
5.51108
5.61869
8.77569
5.8866
5.32034
5.82025
6.64217
4.58972
5.67616
3.42865
5.18815
6.27867
5.42124
4.59836
5.60713
5.07266
5.56823
5.00471
5.75101
4.295
3.80519
10.0296
4.60936
6.21913
3.79902
6.95223
4.90154
6.78892
5.83192
6.7508
5.89488
6.24158
3.45606
6.88114
6.25523
3.54307
12.1649
4.6248
6.33236
6.09591
5.52715
4.91971
4.78624
6.41464
7.15286
5.61392
4.93087
6.99754
5.73255
5.65019
6.73161
5.87563
6.36206
7.0664
4.58537
6.8785
4.7672
5.1676
4.55615
6.32534
5.0729
5.08222
5.39734
7.89799
5.8492
9.57515
4.85183
5.38159
5.35328
5.12119
4.96216
4.98802
6.7879
5.73188
4.49615
6.89037
4.12511
9.93956
4.21261
6.17077
4.41618
3.26158
6.17626
5.70219
5.49994
4.697
5.34401
4.98242
5.48519
5.18202
4.42457
5.72192
9.48381
4.58862
5.77124
4.82856
4.00871
4.57495
4.37922
5.07715
4.64418
6.6123
5.64063
6.78738
4.19196
6.46576
4.51528
4.93553
5.51568
8.9245
4.7095
8.29022
5.41099
4.45086
4.27502
7.45807
5.88085
8.10858
5.7043
4.51738
6.50392
6.02204
5.15841
5.35058
7.1145
5.12064
5.17707
4.7039
6.77801
5.66666
6.75993
5.90742
6.15326
7.35047
6.89071
5.50707
6.25599
6.33841
6.67287
5.28136
8.26172
5.72013
5.64435
5.09828
6.19781
8.77224
4.77582
6.24613
4.35353
5.01567
6.4657
5.52557
4.89191
4.81895
6.00114
11.9912
6.39949
5.44462
5.50332
4.89664
5.21536
9.86215
5.7621
6.21247
6.64623
3.94195
4.08561
4.664
6.01967
4.97069
9.72189
6.18089
5.12119
6.30293
6.35936
7.32422
6.90714
3.81238
5.03491
6.02024
6.14465
4.7172
4.96483
7.14602
4.50683
6.04555
3.81506
5.31253
4.69963
4.93494
6.48972
4.1952
6.9664
4.53748
4.25517
4.95021
4.81474
5.49956
6.12955
5.76482
7.90467
4.84438
6.3449
5.10177
4.49679
9.11875
7.58379
4.18031
7.56046
6.27265
5.62694
4.28504
5.07925
4.81968
5.50152
4.86078
4.90003
5.66784
6.29995
5.77654
4.51414
5.89563
6.41664
4.20443
4.50791
5.85746
9.14867
5.39333
5.83906
5.3618
4.68104
3.75617
5.44351
10.7498
5.15553
5.43611
7.96585
5.91317
4.57851
5.26408
5.99365
5.73577
8.15816
5.0279
5.95246
5.33089
4.9113
4.2463
5.19814
5.13335
4.50499
6.13973
8.42083
6.99338
4.66473
7.46692
7.32404
5.40263
4.58066
4.99905
5.30997
5.67988
6.89495
5.75182
7.04593
4.99426
4.81129
8.10851
6.13772
5.88141
4.57479
6.15548
8.31649
8.41809
4.53581
4.56655
4.43383
7.43318
4.76902
7.45463
4.05622
5.25673
6.6219
8.96136
3.91817
5.06861
5.97726
7.00184
5.51122
6.1342
5.65075
4.97027
3.90846
4.85822
5.58154
6.47962
5.46076
4.65563
5.74183
6.68793
5.62896
4.61526
3.91554
8.15929
4.73856
5.53366
4.47774
3.92916
5.6182
6.06367
5.43348
5.06232
6.88641
4.43565
4.76067
4.59363
6.62464
5.52433
5.00315
4.6575
5.20242
5.59602
6.0855
5.71986
5.47898
4.23198
4.30247
6.50557
6.57624
6.16671
4.9888
5.95834
8.33469
5.08457
4.63742
7.7714
6.90786
3.94349
3.55498
4.3956
4.75576
5.11233
8.16586
5.50129
4.65928
4.05454
6.1365
7.97076
6.22522
4.14445
6.01372
4.68309
5.08459
5.97166
5.41877
6.87494
7.28293
6.0843
4.57284
4.66494
4.41671
6.61312
6.0714
5.57028
5.47396
5.62134
4.78132
5.45511
6.84426
6.04258
5.14375
5.65776
6.82309
8.88527
4.91302
5.11972
7.18281
10.1845
5.30569
5.64129
5.66147
5.93523
6.1917
4.33683
6.22201
5.35867
5.19377
7.65463
5.59364
5.39462
5.11282
6.10013
5.06815
10.5646
4.94121
8.37438
5.59632
5.3718
5.7341
4.90872
7.28773
6.04234
5.35134
7.04894
9.60559
7.14451
8.57724
8.38696
5.81755
6.2257
9.14707
7.82109
8.1032
6.73649
4.56587
5.60957
5.15573
5.61427
7.90891
7.1431
9.25907
6.88503
5.60975
5.11195
6.12253
7.01853
6.01831
3.97249
6.59121
5.17459
6.03954
4.48348
5.3656
5.27039
4.97903
8.11982
4.41158
7.43293
6.17745
6.67164
4.34553
6.96584
5.50022
5.86788
4.69948
3.96102
4.913
9.80131
4.54764
5.06229
5.01387
6.83549
4.8132
5.68089
5.7189
5.35524
4.29447
5.34279
10.5196
5.33167
7.59145
6.53876
6.25111
5.43525
4.69956
5.82739
3.58183
5.26604
5.85401
5.01835
4.69244
5.85966
6.63782
7.04371
5.65856
7.49821
5.16625
8.15103
5.53035
6.64205
3.76154
5.74706
6.36467
5.78115
4.50779
4.72611
4.41928
8.62891
5.68968
6.25493
7.22615
5.69647
6.81076
6.5534
7.98159
7.40567
6.37364
5.84106
5.59389
5.86266
9.36029
5.6061
7.3317
8.36308
5.08567
4.40573
4.87422
5.47715
4.93057
3.87325
9.50667
5.30862
5.54349
4.96801
5.1729
5.65944
5.95856
5.98946
4.72458
5.16693
7.16116
5.13333
6.00394
6.46291
6.2085
4.42181
5.18205
5.30221
6.30201
5.90905
4.17683
8.43767
4.58123
5.02576
7.20398
5.40262
5.06641
5.20912
6.71194
5.89169
6.67257
6.97005
5.29361
4.48654
4.50097
5.65392
9.14488
4.82881
4.87627
4.42207
4.07002
5.43852
4.10704
9.87184
5.54631
6.09501
4.69271
7.19207
4.40956
4.69806
6.3956
4.9204
5.46922
4.19729
4.52306
4.85226
4.69737
8.09248
5.18486
5.38665
4.8237
4.92958
5.42421
6.0527
6.40688
4.841
9.68976
4.50412
8.07566
7.65164
4.88248
6.01444
4.14587
5.81745
5.62
6.49684
3.21251
5.20582
6.40571
4.57996
6.33009
5.24062
6.26391
6.21316
5.8246
5.06858
5.9051
5.88943
5.09183
6.10037
6.72155
5.68059
5.37147
7.80754
6.49773
7.37926
9.85933
8.49742
5.34935
5.09679
6.33271
7.61087
6.9527
5.11509
6.50889
5.79035
4.81672
4.96868
4.32308
5.2794
5.65065
5.40418
4.97661
6.42721
8.44612
7.1428
3.61485
4.73417
5.74327
4.52081
5.01094
5.02816
5.18951
5.19798
4.6962
4.34665
5.72962
4.3497
4.17366
7.09241
6.60042
5.28836
5.60512
5.50818
5.05903
6.26874
5.33209
8.09049
6.30612
8.88208
4.40881
5.10955
5.49311
7.06887
4.61265
4.59121
4.57724
10.2501
4.8865
5.09173
5.72052
6.94349
5.03216
5.13771
5.49688
3.79982
4.36539
11.8754
6.62074
4.91482
5.70333
5.70083
8.30918
3.61689
5.16247
7.85811
5.71655
6.13725
7.81481
5.05512
5.72076
4.82612
4.60218
4.81755
6.32
4.74146
6.35259
3.80735
5.88395
5.72032
5.83101
4.51762
5.64623
3.87909
6.00339
5.79816
5.89042
8.63621
6.27968
5.30603
6.41586
5.35743
5.60527
4.91792
5.59969
5.57162
5.54421
7.41194
4.26028
4.32218
5.35537
8.27932
4.28004
4.83617
4.3442
4.34975
5.72779
5.88545
6.38264
6.94543
5.63973
4.74909
7.38418
6.41208
7.03875
7.79508
6.88044
5.49056
6.8693
4.94915
6.48648
5.71732
5.91295
5.12943
6.77581
6.02231
3.84544
8.01639
6.74097
6.18933
5.96021
5.50093
5.97553
5.79679
7.19236
6.76229
6.43582
4.42629
6.25275
4.69042
6.57647
5.612
7.22442
6.77186
4.82708
5.22723
5.27673
4.68839
7.20189
9.56728
9.52151
5.21838
5.78754
7.33031
5.73153
10.042
9.4291
6.00955
4.90268
6.00209
8.21156
6.71301
5.14844
5.28701
4.52738
5.31588
10.1643
5.155
5.92257
5.11519
5.84429
5.50899
4.5917
7.98683
6.25392
5.96497
6.46799
8.2629
6.74887
5.23886
6.45388
5.14286
5.5105
4.48898
6.49108
7.36208
4.83637
6.22409
6.819
4.46918
6.48357
5.91167
5.93342
5.08095
5.76004
6.56126
5.04567
5.07218
6.11691
6.37872
7.01225
6.30862
4.45866
5.31759
5.79532
5.69805
5.22592
4.68872
5.54001
7.3425
4.88503
3.93839
6.4972
4.1779
5.90227
5.84739
5.49036
6.34503
6.28143
5.31775
4.61638
5.5685
5.41357
6.65736
3.96853
4.66094
7.69315
6.67661
9.09858
5.76398
5.42201
4.24128
7.00624
5.24087
4.49314
7.10824
5.58215
6.57945
4.89021
5.75809
6.15246
4.67841
5.62484
5.78834
5.37227
5.37287
4.46474
6.89894
5.24488
5.80357
5.25709
5.53786
5.16489
4.69719
5.15987
4.43839
5.58967
5.02606
4.17658
5.2907
5.71117
8.05075
8.30968
4.8725
5.33323
5.87964
5.63159
5.82931
6.44905
5.64789
4.05975
5.55723
7.10089
7.20875
6.25609
5.26859
5.19837
6.1262
4.89734
5.86368
3.32906
4.92195
5.2014
6.67549
7.0357
5.88759
4.55477
5.06625
5.22826
5.31251
6.0378
4.53076
4.9426
6.26347
5.90978
6.27581
5.48451
5.1042
6.0687
6.4881
4.87621
5.68316
8.08738
7.21769
4.8089
6.17614
7.87006
7.38061
10.0491
9.14872
10.0363
5.27985
4.54839
5.49237
5.79696
4.71608
4.84008
5.42522
5.53583
4.50843
4.91066
5.70752
6.43215
5.23044
3.91326
5.28666
4.56744
5.88948
4.97314
5.89809
6.09285
4.29418
4.8607
5.16499
6.16818
7.7389
3.78102
5.10921
6.92142
5.46799
4.48277
4.62508
3.7499
6.78723
4.09291
5.1044
6.77239
6.90816
5.65156
8.0648
10.4257
4.26004
6.15941
8.67612
4.55728
3.82513
5.73321
4.37404
5.20064
5.41137
5.27466
6.5376
4.77293
4.38921
6.41826
4.64486
6.35342
4.02031
5.0957
5.4514
5.52983
6.97922
5.08374
7.45086
3.73827
5.84804
6.1312
4.61978
4.65763
6.06108
4.35582
5.04553
5.03655
6.72687
4.88797
9.55505
5.48366
5.30425
4.08621
7.64836
4.49484
6.30739
5.26272
6.12118
4.41642
6.25021
5.99165
4.3534
7.05238
5.45606
7.32391
3.36826
7.62368
7.50312
4.78193
5.44448
4.99333
6.55839
7.67876
5.74984
4.82589
6.47502
6.03253
5.21017
6.02119
4.83313
4.60605
6.34976
5.92578
6.1355
4.70897
5.16762
5.08881
6.09958
5.55641
5.68581
6.29597
5.335
5.09352
6.36016
8.39473
5.58717
5.64731
7.02338
6.41068
6.06143
7.47913
3.8376
5.41751
5.53865
7.56256
6.46382
4.62203
4.64531
4.58831
5.31359
5.81421
5.4917
4.41985
4.59194
6.05968
5.65414
4.52888
5.09629
5.05153
4.86157
4.52829
5.90344
9.33057
6.03372
6.30235
6.72088
8.22536
5.59599
4.89013
6.15113
4.73785
5.73004
6.01622
6.90041
4.65927
5.13872
6.70628
6.19907
5.7642
11.1477
5.32599
5.87528
8.93011
4.69933
5.11826
5.60676
6.21041
7.91142
6.28288
4.33468
5.2006
4.59295
6.4227
6.37993
5.6645
5.05029
5.85007
5.12495
5.87393
6.24235
4.97777
7.7647
4.35785
5.21544
5.80746
6.12702
6.68877
5.56295
4.01231
10.1473
3.42413
4.56129
6.08592
4.9612
5.36974
5.29454
4.95439
4.99476
5.23489
5.15781
4.78932
7.54946
7.29701
6.80525
3.97639
6.74006
4.34161
4.83499
5.54786
6.68882
6.28212
10.0601
5.61474
5.72237
4.61439
5.60185
4.4615
5.63374
6.49745
5.42562
6.04067
4.92877
6.54585
5.01991
6.32012
6.62154
5.65246
5.81766
5.85076
5.41149
5.26683
4.07467
8.25613
6.84007
5.01707
4.74621
6.75964
5.36064
8.13419
4.75268
6.02123
4.92876
5.68749
6.42911
6.21197
6.39361
5.21979
8.80678
5.74136
5.0327
6.5934
6.81205
6.56563
5.31566
6.43482
6.51
5.51847
6.74693
5.24795
7.14843
4.90211
9.50503
5.44923
6.8599
6.52889
4.50433
4.68551
6.8239
7.65606
9.09085
6.74557
5.82185
5.06535
7.89115
6.04601
6.11418
5.48448
5.57654
6.83917
6.33995
5.07761
5.48763
5.18202
4.56918
6.08776
4.68086
4.78238
3.68815
4.99776
9.02268
5.88044
6.73065
6.14775
5.55736
3.72721
4.63326
6.89296
5.69208
7.21018
8.43117
9.08942
5.40765
5.95378
9.38582
4.87543
4.7154
4.7924
4.80805
5.5097
4.65928
6.92462
6.18619
6.49238
5.83556
6.10193
5.97916
3.8921
6.59234
6.66937
6.33135
4.19839
6.35253
3.24562
5.37128
5.68231
5.56247
5.58728
6.89849
4.16724
7.4863
4.53008
5.25394
6.86893
4.99858
9.28691
5.81412
6.34624
5.7952
4.53294
5.29509
6.47405
6.64631
4.69005
4.88865
4.6934
6.60118
5.75721
5.48569
5.48964
4.70279
7.89156
6.60587
6.52429
6.18132
5.44113
5.00606
10.0825
6.89089
5.97386
5.61895
5.53911
5.74215
5.0231
5.10603
5.77201
7.71792
5.1405
5.73638
5.15012
4.70438
4.7039
7.84323
5.90862
4.55881
5.87675
4.67133
5.95794
7.34954
4.98261
5.06986
10.5368
5.25979
6.58201
7.23007
4.70568
5.77297
4.24321
5.89243
5.48342
6.51447
7.57997
7.99149
5.59417
7.11681
5.45134
5.18816
5.10974
3.9125
6.47718
4.27732
4.87939
5.12657
6.59284
4.86195
6.35332
4.10783
7.1094
7.52211
7.18256
5.1225
5.37685
5.47841
4.58483
4.42296
6.1185
5.65135
6.38754
5.92497
6.13759
5.23427
6.70224
5.6217
9.32588
6.91542
6.07977
5.21325
4.89212
7.23112
6.37969
5.3066
4.98597
5.33506
5.14235
5.75129
4.6176
6.96032
6.68201
6.39741
4.77778
4.80234
5.42306
4.91431
5.45691
6.4781
6.01043
7.18488
6.11908
4.25045
7.22948
4.55996
4.60556
5.01916
4.94597
5.14282
5.00608
5.03484
7.53058
8.42998
10.139
10.8051
6.89725
8.30038
6.79323
6.3295
6.10829
3.96967
5.51827
6.85186
4.8359
3.97347
4.61699
5.26994
8.57944
6.01603
10.1602
6.09518
5.88199
4.61422
4.87935
5.30168
6.09023
10.0139
4.33259
9.05681
3.99564
4.57736
8.73354
6.21725
4.56845
5.64702
4.56869
6.31967
6.63391
5.87403
5.9404
4.34882
5.73809
5.89649
5.21957
6.12993
7.35961
5.34311
4.29658
5.13516
7.7907
4.99167
6.26931
5.6444
5.27476
9.41156
4.88124
5.57373
4.96016
6.83869
6.37967
4.45456
5.31459
5.86516
12.0284
5.22265
4.59338
4.54153
5.85803
6.32405
6.00779
5.39789
6.45083
12.2493
4.94216
3.71886
6.3165
5.49099
5.34866
4.02746
4.59991
4.60299
5.59252
6.96969
5.00583
5.10323
5.16923
12.6154
6.49469
5.23565
6.73739
5.04812
4.11599
5.75478
6.6611
6.04323
4.71942
5.21304
6.41622
4.5729
5.4168
9.37589
6.00789
8.1037
4.64596
6.33541
4.67697
4.21795
4.49798
3.77627
6.54131
5.8024
4.01858
8.48074
5.86967
4.34133
3.97134
4.65988
6.39006
5.29702
4.20029
5.44589
4.51198
4.88887
6.12318
4.66077
4.37978
5.52702
5.42961
7.26192
9.63687
5.77887
4.59898
7.26599
3.95151
6.64699
5.77563
4.07168
4.82367
4.77333
6.44321
5.73688
4.83428
4.32416
4.70788
4.93647
4.37592
6.482
5.60894
5.69944
6.92921
4.70903
4.5538
8.74325
6.03798
5.10327
5.94816
6.60521
6.82512
4.83196
6.20982
4.53784
4.6145
5.08303
6.28847
4.34194
5.15725
8.1501
5.02605
5.27835
6.08976
6.38367
5.84659
4.33626
6.82881
5.0396
5.25291
5.7177
5.54464
4.85886
6.849
4.86615
3.71773
5.77941
7.02362
5.11602
6.383
4.44469
5.43981
4.92954
6.02101
7.60902
6.56228
6.234
4.62918
4.96836
5.99013
6.23284
6.92431
6.96593
6.69575
5.44234
6.36151
4.58023
5.37277
5.69282
5.87311
5.73635
6.08935
5.15356
6.37373
5.50819
4.21753
5.71995
5.75255
5.29621
6.37408
4.59171
6.47212
6.91397
6.6901
8.31129
4.20038
4.15712
4.28556
4.93466
4.83539
8.44431
4.89958
4.38772
4.24377
5.01193
4.71197
7.78023
7.92238
5.7283
5.58971
5.14759
4.22985
4.96473
4.91382
6.30129
4.86902
4.10491
4.34333
5.25231
5.12868
5.85846
7.91954
4.4977
10.6436
5.05465
4.60563
5.47691
6.96412
6.92539
6.4202
5.45932
5.83102
4.45512
6.03233
6.59142
3.64116
6.97482
4.18506
5.88556
3.53927
6.18464
5.04439
6.91838
4.60366
7.17923
4.79381
5.30464
6.43253
7.43053
4.2144
5.83351
5.10029
5.24563
7.00498
4.11765
8.71719
4.60032
5.79749
5.11855
5.57686
5.56704
8.71056
6.69067
5.85319
5.44385
5.75545
5.86216
5.71326
4.40959
5.2426
5.49111
7.1409
3.86517
5.32127
5.55578
7.15612
8.50447
4.94951
5.89287
5.09692
7.04385
9.4365
6.98257
5.00747
5.9763
5.91618
4.86746
4.81988
4.39135
6.8046
5.92318
9.30919
5.45685
7.6824
8.11443
7.14567
6.48422
5.77197
4.33431
5.39174
5.61056
4.07234
5.73184
8.90255
8.3649
8.54366
8.80058
6.73345
4.31597
5.03871
5.37766
5.16726
5.57023
9.80934
6.57786
3.97478
5.25943
5.80592
5.72204
3.64172
3.77341
5.18164
4.4509
4.86346
7.87558
7.8888
5.81827
4.15349
5.16332
4.27585
5.83838
4.20756
5.73393
5.30901
6.14032
6.25056
8.79226
7.757
4.45777
6.08828
5.04431
4.67735
6.49371
5.14765
5.79964
8.25477
5.25051
5.48944
4.77196
4.93876
6.24695
5.01076
4.25787
6.51876
7.00704
5.03697
5.7238
7.30927
5.42598
3.5629
7.0566
6.87535
5.28916
4.34246
7.25581
4.07459
6.41681
5.12521
5.39283
5.11726
6.78041
7.27818
4.66329
5.88838
3.92632
5.23508
5.64887
6.84732
6.35146
5.566
4.95897
4.6536
7.40557
6.99531
8.08245
6.29474
6.14998
6.01866
4.72875
4.41706
6.39481
4.17984
6.24489
5.73404
5.59788
6.5366
4.39624
5.8256
4.75048
5.73364
4.01446
4.98815
5.07957
5.70984
5.10835
5.33206
5.7369
5.39432
5.09892
8.98466
10.0728
3.97163
7.37189
6.60947
5.60753
5.76959
8.41933
4.0306
4.74753
5.59987
5.05636
5.31784
7.21955
4.4715
5.32084
8.92788
5.41533
4.74262
4.99427
5.99667
8.23912
8.96356
5.81981
4.51833
4.81947
6.17368
5.96842
5.73829
7.69333
6.27924
6.52163
4.67308
7.29147
5.07701
6.44221
6.99986
5.05476
5.89431
4.80859
5.72548
5.98892
5.52796
5.72625
4.76191
6.86355
6.28046
4.476
9.47659
5.55185
6.38411
4.68303
5.3938
5.16733
7.66923
5.70629
5.70099
4.86506
4.62769
6.74495
6.01267
5.78514
3.65941
4.70674
6.76576
4.83853
6.85056
5.8827
5.44361
7.85453
4.83656
6.88553
6.01779
9.60774
5.78979
4.48659
4.85091
5.83562
4.479
5.88093
4.98347
5.13696
7.13611
8.01917
4.52374
4.88535
5.87442
4.50027
7.16627
6.78963
4.26452
5.34327
5.15945
5.12583
5.32862
5.96466
5.62011
6.30647
5.44428
7.50827
7.0115
12.5657
5.16171
4.92173
6.50513
5.0418
7.88452
5.9142
6.54033
7.08363
4.97108
5.353
5.5316
5.66361
4.80779
5.07518
4.93362
6.48379
5.2644
4.75308
5.24224
5.82521
6.24229
5.90268
5.17481
3.90011
4.72333
6.26119
4.28357
4.94013
4.44232
4.58008
4.82784
4.88842
5.40487
5.34233
5.18864
7.09081
10.1216
6.00839
8.07251
7.7116
4.52006
4.78923
5.85972
4.72341
4.59941
5.18742
5.87722
5.56333
5.49541
6.53401
8.04878
5.68569
5.87891
4.41986
5.90584
4.10612
5.57299
3.98271
5.44093
5.78696
6.4863
5.30305
4.27321
5.74114
5.10753
6.76065
4.59469
6.25213
4.60373
6.80797
4.91962
4.14093
5.25451
4.85299
6.97457
4.29598
6.77409
6.10916
8.75309
5.3024
6.34942
4.79904
5.41439
5.13371
6.71115
5.49625
5.98307
4.78998
5.06767
5.47543
6.135
6.06478
6.83523
5.15613
6.4944
7.15589
4.55758
7.92264
7.35203
7.09125
5.25416
5.37558
6.17779
7.40922
7.89758
3.62317
5.69102
4.53402
5.07051
7.22946
4.56775
6.52543
6.84801
7.33063
5.86529
5.31564
4.16106
5.28019
7.8326
7.3806
6.18236
4.43086
4.04069
10.0929
4.69546
5.86534
4.47647
5.73619
5.40918
4.62188
6.01684
6.09102
5.27851
6.77417
7.04072
4.55113
7.57234
6.00692
5.04163
6.6643
6.38993
7.07529
5.07979
5.81554
6.27584
4.69073
5.20809
5.59079
5.20075
4.74898
6.23378
4.8673
5.21152
5.91163
5.20816
9.54724
4.78849
5.93798
4.03302
8.48405
6.90896
5.94975
5.21298
5.85371
4.88818
5.12431
7.28466
6.30846
4.93711
5.95462
5.23369
6.62953
4.22464
4.61763
5.37823
5.75151
4.60775
4.27487
5.19292
4.01679
4.73164
4.50431
6.8035
4.90486
4.76305
6.19646
4.98265
5.47608
5.50169
7.98398
8.00191
4.85021
5.54754
5.03703
5.73536
6.97443
4.01099
6.07993
10.7017
4.86264
5.29161
4.84427
5.06379
5.38873
6.12723
4.40472
6.51649
4.57479
5.87342
6.41133
12.9739
6.5936
4.27917
5.17683
5.27399
5.52111
4.8661
7.25823
4.83356
5.1482
5.88194
9.04041
4.92149
5.52355
4.20665
4.84332
5.18178
6.91853
5.33455
5.92607
5.16082
4.45322
4.06408
6.18471
4.79768
5.07002
5.90871
6.41227
7.1576
5.47634
6.32199
5.44056
4.87521
5.35149
4.17955
6.96051
6.36174
5.94106
5.48943
5.38584
6.05774
3.90051
5.72734
6.97617
5.43838
5.89846
4.63481
6.07155
6.69424
4.97581
8.27974
6.54796
8.64575
4.33131
6.36295
3.54249
6.49267
5.82112
4.42074
5.85795
7.54063
4.67993
7.4029
7.27968
6.19513
4.39844
6.45142
5.75971
5.29072
5.07773
5.94702
7.14775
5.06186
5.98086
5.37047
5.7357
5.35991
5.05945
8.69841
4.46674
6.93749
6.09814
8.67016
4.78121
6.85536
5.52728
6.50075
6.64858
5.20404
4.81849
6.14043
4.58931
5.584
4.81519
9.86656
4.30974
5.00256
4.26088
5.83263
4.971
4.75983
5.46885
6.96329
6.32292
4.35803
6.34776
4.8497
5.69738
3.92436
4.39681
6.52037
4.78824
5.44227
5.16102
5.24752
6.00633
4.55278
5.23903
5.03508
5.403
7.94104
7.1875
5.56904
6.2529
5.71838
5.74673
6.07356
6.07087
6.87729
4.67511
4.71044
4.92948
5.87114
8.3265
4.6824
8.04187
5.28512
4.35817
5.29855
6.64769
5.50378
5.67618
5.34489
6.069
5.52329
6.23889
7.03933
7.38269
4.11326
4.20478
4.7612
6.14187
4.63136
10.6488
5.61855
8.27194
4.37615
5.43567
4.36753
6.78745
4.13284
6.20735
4.80415
4.84395
6.20539
8.21367
5.35389
6.21993
4.73552
8.52651
5.91085
5.83193
4.19985
4.43635
4.71625
6.07354
5.2063
5.75394
6.16719
6.73687
7.32756
8.20711
9.28347
6.52778
8.50112
5.52725
4.01778
8.01834
6.16605
6.88946
4.63428
5.4341
6.24375
4.66563
5.9332
7.9331
5.33898
5.88338
5.36913
5.56353
7.22955
8.29031
7.21547
4.82291
6.10875
5.37092
5.68887
9.57604
8.71905
4.61298
7.1266
4.89525
6.97658
4.55596
4.24467
5.16439
5.27418
4.99534
5.6326
6.25519
5.43474
6.09301
5.54252
9.06625
5.69732
5.32343
6.41924
6.29597
5.05964
6.08194
5.61917
5.81227
6.4987
4.60877
5.59391
3.74556
5.19472
6.80335
3.57043
5.38735
10.6902
6.27216
6.45878
6.03354
4.91415
5.96322
5.33304
8.38316
5.09608
8.25431
4.91297
6.92782
6.89906
7.30227
7.23149
6.54081
5.26894
5.40487
5.41309
6.71433
5.65069
6.28623
5.451
4.79066
6.19013
5.94964
5.90737
6.7299
8.63155
6.75394
6.00554
5.61439
7.48193
5.12165
4.64232
4.91888
4.61434
6.19102
8.41441
6.02851
3.84932
5.49721
4.23303
6.82233
4.54193
6.24055
4.81557
7.79961
6.71126
7.44158
9.55131
5.44438
5.21146
6.30605
5.15292
6.50186
4.85441
5.62288
6.26187
4.28698
6.21072
5.07549
8.08271
7.80134
10.5926
5.06214
6.35056
6.30568
6.9237
6.27872
6.22583
3.92971
6.22319
5.9782
6.01421
7.43076
5.13239
4.40375
6.78916
5.03658
5.12296
5.68183
5.00916
5.79742
3.95464
7.36385
4.70562
5.85181
5.99269
8.36638
5.01631
6.61849
8.89414
5.2539
4.92411
5.50894
5.8437
4.86394
7.38604
5.63951
5.37301
6.00551
4.16686
5.93135
4.20755
4.9547
5.74234
4.76887
4.78193
5.95461
5.18147
5.54772
5.46191
4.84675
5.92692
5.40746
5.56393
4.67662
5.75632
9.89991
7.20368
8.50912
7.61886
6.83951
4.9729
8.51887
5.01366
6.69517
4.34922
5.76062
4.87916
6.35432
5.16462
5.37682
7.40833
6.23184
5.11123
4.9169
5.75899
4.13006
7.07722
6.27533
5.84225
10.9763
3.85549
6.35577
7.64325
5.60782
6.89333
4.20072
4.56819
4.66146
4.25227
5.4817
7.18443
5.75461
5.67458
4.95373
4.94244
6.05641
6.33021
7.32647
7.32821
5.69998
5.54529
6.54658
5.63346
5.51256
5.9921
7.22893
7.46142
5.1885
5.12939
5.56596
5.26947
3.79569
5.4063
5.96077
5.72509
6.59364
4.94511
6.31104
10.7461
6.31698
4.34219
5.65864
7.02761
7.77285
4.70884
6.09109
7.05325
6.7324
3.72258
4.00616
5.44376
6.05692
4.66192
4.0555
4.37794
6.00303
4.77432
8.90453
6.8875
5.68759
7.6279
7.06506
4.2559
5.88858
6.79362
8.44568
5.80354
7.72996
6.74964
6.36694
6.79814
4.92834
7.533
6.49186
6.00228
4.25671
8.35539
5.0959
4.8367
5.37205
5.84281
4.68929
6.27357
4.85376
5.84312
5.87978
5.04366
5.64836
5.51428
5.93196
5.13691
4.72672
4.02374
5.30097
6.68993
6.85798
7.97179
5.90965
4.48708
6.09134
6.07161
5.71572
4.52761
6.98448
7.28496
6.01684
6.07584
4.20858
5.55854
5.28624
3.35622
5.17039
5.67761
6.09998
4.5207
5.29254
4.91842
4.69316
6.79074
4.4761
4.13172
7.32065
4.4341
4.96542
5.97837
7.09319
4.29001
6.30732
5.11193
9.494
4.92407
6.91059
4.77348
6.8149
6.15406
5.76316
4.34483
6.00936
6.30908
4.77586
6.81065
6.2491
6.54037
5.64508
5.12957
5.27752
4.36365
5.91338
5.29547
7.20134
5.97732
5.5986
7.07981
8.44107
6.67555
3.46721
5.35957
5.27755
6.12766
6.28179
5.30578
5.86551
5.53755
4.99876
7.58032
8.41696
5.90145
8.38111
4.00455
6.23757
6.12683
4.83642
4.49441
5.82267
4.10689
4.32955
5.96963
6.95181
5.89548
6.7357
5.15388
6.76763
5.93256
4.66032
5.29331
5.57573
4.38058
4.55682
5.49642
6.00629
5.86824
4.40077
4.15251
4.34022
4.24675
4.98598
5.7559
6.53346
8.295
5.1172
5.66451
3.80611
5.33314
5.2925
3.6641
6.89202
5.41839
5.32199
5.1851
7.49595
6.88435
6.66418
3.93972
5.06103
6.39388
5.58659
4.52375
4.82959
5.82277
4.67874
6.48147
5.69832
4.67336
5.31072
4.44968
7.58069
4.53851
4.25128
6.50341
7.365
6.55209
5.1972
5.31705
8.36695
5.40645
5.20973
7.2329
4.6
5.81953
6.73426
4.46942
5.41462
4.95725
4.9027
5.30297
4.0802
7.18627
9.45955
4.48349
4.25189
4.64276
8.45507
5.21266
6.67046
5.52067
5.38917
5.71871
6.57615
5.81298
5.45837
4.2585
7.14634
5.76922
7.88206
6.51033
6.06558
4.2189
6.49527
5.12468
4.66907
6.47065
6.46164
5.34396
5.66761
7.06145
5.24075
8.94185
6.40617
6.95542
6.3021
5.58851
6.85717
7.01924
6.17762
6.4012
5.26276
7.45816
4.33196
8.17643
8.16255
6.01235
6.72141
6.0152
6.83424
5.53984
5.26872
6.05276
7.90644
8.3299
5.42973
7.69816
5.46046
6.60891
5.26985
4.72868
5.38649
5.33438
6.47951
6.5268
4.30141
7.0424
4.68531
3.60923
5.66066
5.16791
5.83255
4.89297
4.79107
5.17643
4.70877
5.73652
6.1997
4.75592
5.24651
5.47397
4.09996
4.85731
5.95774
6.3844
5.03871
6.94155
5.46068
5.04634
5.31641
3.87455
5.80965
5.34743
6.77385
5.23868
10.1221
5.09202
6.80024
10.2479
5.24218
7.01413
6.00943
10.0643
5.88366
9.40566
5.56322
5.85562
5.10429
5.6607
8.25055
8.07471
5.12825
6.74255
6.03672
5.79763
6.96455
4.73263
4.9615
5.74225
4.51926
5.19837
7.09992
5.6085
5.05654
6.00215
5.06017
5.33846
5.23866
4.76948
6.23875
6.46198
4.97177
4.65994
6.15937
5.24382
4.80811
4.68271
6.07669
6.4384
6.86407
5.63392
4.31629
7.31928
4.62024
5.60543
4.92101
6.2592
5.40635
6.67008
7.58735
5.93782
6.45479
5.8088
7.64314
4.98542
5.4456
4.23263
6.89479
7.83047
6.70633
5.581
8.25566
6.38035
6.04048
5.87138
4.98992
4.33883
4.74844
6.04745
5.6954
5.17799
5.74684
6.17286
7.35617
4.31828
4.68572
5.87926
5.41286
4.06448
4.33106
6.11319
5.33626
4.87845
5.13155
6.44407
5.34578
5.44654
4.98264
5.46474
5.34338
8.3712
5.71072
4.19632
7.62583
4.17612
5.96455
6.37762
7.93205
4.10373
5.24771
5.32022
4.87965
7.05877
4.87408
5.35082
9.37703
5.40789
4.52483
6.82751
5.85727
8.77598
6.09136
4.90954
6.11675
6.53842
6.21756
5.42683
4.24121
4.99133
5.53912
6.28289
7.14233
5.13064
7.88635
6.12185
4.57132
7.69306
5.18081
7.51629
4.62637
4.79214
6.30692
8.53353
7.2822
4.10705
5.9984
4.92046
8.96788
5.90096
5.65265
7.63163
5.0497
6.97719
6.58074
4.74197
6.34051
7.20149
5.16268
4.74041
7.68705
5.30129
6.98626
4.53703
6.78986
5.59984
7.63788
5.50451
5.83666
5.4963
5.33186
5.4653
5.31479
6.652
4.38795
5.42523
4.75772
6.63057
5.38101
4.93602
6.78371
6.71043
5.79754
8.08498
6.66606
6.63767
6.24663
3.87917
4.43935
8.74043
5.59953
8.32282
5.47392
5.0005
6.26708
8.00501
7.63959
6.64318
6.65735
7.08483
4.5529
5.31141
5.1245
6.39963
6.12315
5.8045
5.08745
4.84418
6.42327
3.9842
5.84974
5.34279
6.03321
4.80937
9.41524
4.19471
4.3714
7.7928
4.31603
4.17198
6.15279
4.83885
4.98968
6.10392
5.19044
4.69835
5.18357
4.7297
7.64365
7.8681
5.02945
7.64001
4.91275
4.47086
4.49357
4.86964
5.08732
5.15678
11.5365
4.76605
5.62056
5.8545
5.2235
6.2678
5.78104
5.46787
8.8562
4.77909
6.6539
5.34053
8.04928
6.66017
5.31153
5.44914
6.07579
5.76003
5.05776
6.92517
5.88957
7.4272
8.23559
7.77666
4.77548
6.14653
4.57906
4.80218
4.78941
6.27921
6.69912
4.89447
5.34295
4.94709
5.44933
6.9979
5.46172
5.44872
6.71165
4.8346
4.51749
6.9217
7.77688
8.94182
4.23273
4.45577
6.92472
7.36756
5.14899
5.73199
5.95699
5.9871
5.22107
5.18647
10.538
5.20514
6.61143
7.04403
5.03591
5.82685
6.22958
5.73053
5.57642
5.4656
3.72635
4.85172
5.25126
4.04812
5.86022
6.64036
5.16863
7.22355
6.26932
6.70198
6.46097
4.03823
4.28743
5.05689
6.34255
7.52153
4.5337
4.63729
7.47997
10.2902
3.86207
5.51116
5.03637
5.68528
5.25642
7.16988
5.31927
5.69231
8.58155
6.33225
4.59397
5.69747
7.4756
5.31982
4.12545
7.27763
5.1478
6.34764
6.96399
5.83673
9.95023
5.37962
4.16298
5.76319
6.74939
8.03081
4.19072
5.03657
5.49172
4.64879
7.47247
4.33576
6.58156
7.14395
6.53972
6.36599
4.68922
6.05762
4.71397
5.83538
9.30829
3.87321
5.80319
4.83598
6.01829
5.82884
7.03299
6.59073
7.87285
6.04426
5.27841
6.32623
4.50613
4.27876
7.05328
5.41078
6.39275
4.3665
5.52603
7.88915
4.64002
5.63787
4.9831
6.21138
5.14965
4.40638
3.99255
5.96026
5.69822
6.41665
6.90745
5.84765
7.20424
6.11813
5.70684
6.19723
9.14266
6.70222
5.39399
5.08236
4.06681
7.49416
6.57497
6.99162
5.88452
4.06187
11.3333
4.46707
5.99703
5.6586
6.91808
3.49342
6.4081
6.10727
5.10015
5.32201
6.64136
5.37877
5.20216
5.2663
4.7248
5.8111
7.40735
6.13221
4.60197
7.78358
6.95835
10.8425
3.68677
6.79089
5.11028
7.51649
7.16569
4.72199
3.75999
5.20071
4.38903
5.94715
4.54597
5.94817
3.68328
4.10609
7.91178
5.56351
6.55399
5.32946
10.076
3.83707
5.40986
6.4328
4.04641
7.3233
4.65733
6.45982
5.16218
6.22354
7.51561
5.78956
5.12769
4.88591
4.61313
6.62633
4.05895
4.82116
6.05639
4.09309
6.28858
5.38701
5.83109
8.6896
5.89734
5.74515
4.72885
4.34315
5.05133
5.70416
4.88564
7.58821
8.31985
6.40938
6.05098
6.59915
4.94358
4.215
5.48394
6.40514
5.32345
4.9011
3.68632
6.78112
5.86694
4.35814
4.41118
8.03044
6.2377
6.29526
3.46517
5.75723
5.06748
4.30343
5.96184
5.92183
4.90774
4.46099
5.75561
6.56358
4.47699
6.21608
5.71768
7.14455
4.76366
4.93727
4.94784
6.35234
6.79809
6.06918
5.94764
5.19997
4.82572
5.18098
7.70934
6.59258
6.16056
7.41567
6.17468
6.81691
6.58441
6.8732
5.51328
7.40623
4.98632
5.8028
5.14196
7.38249
6.16752
6.2971
4.54193
8.65316
5.64498
4.49304
6.37096
6.32609
5.55585
5.42216
11.2184
6.34004
9.16456
5.34292
3.05064
5.58475
8.91058
5.43843
5.23139
5.94005
5.51419
4.83338
5.93733
3.71575
5.47677
5.24294
5.43982
6.35553
6.52043
6.60021
6.10934
6.76939
5.97566
6.27073
6.52522
10.5701
4.98343
5.54484
6.04933
4.67448
5.21267
6.26133
4.19442
6.32845
6.3538
5.08602
6.9499
7.68434
4.754
7.59132
6.45961
6.99025
5.61507
6.31696
6.16035
4.71782
5.36295
4.86142
5.58769
5.41306
6.18433
5.1973
6.64537
5.59584
5.4278
5.32184
6.01019
5.47954
4.19054
4.922
4.51051
4.72441
6.90006
4.51967
4.41072
6.10866
4.57328
3.62362
5.07673
5.06689
5.90923
4.11254
6.8566
6.54209
7.15289
4.98272
6.28053
5.64688
8.88051
4.39168
4.68204
5.29246
4.88019
4.63245
6.6847
5.06792
5.20129
4.35794
8.6556
9.8502
5.90216
6.71221
4.58916
5.5844
4.51993
6.67483
11.2729
5.75614
5.35963
5.96805
6.46643
5.33838
7.2279
5.234
4.1253
7.24183
5.76257
4.5379
6.38917
5.39145
6.24074
5.95019
4.45436
9.63513
7.01703
4.47577
5.05188
7.49152
9.45033
4.28547
4.45877
6.83588
4.88914
4.49229
7.03571
5.32963
6.19534
5.98475
8.18588
3.61981
5.44553
3.84466
4.34067
4.47003
5.50573
5.56475
15.1862
10.5255
5.25986
4.09441
5.09592
5.20188
6.23745
6.16704
5.04189
5.74199
5.97251
5.92056
5.41724
6.95611
4.92675
4.94908
6.60957
5.62018
4.57484
7.29364
5.30486
8.24507
5.87023
4.42584
4.78391
4.62113
7.08388
5.14256
4.717
6.20343
5.34706
4.20588
6.44392
5.0546
5.51392
8.87621
4.73335
6.48552
5.69274
4.53805
4.15404
4.79519
6.57139
10.4389
8.00442
4.81538
5.1853
6.8526
4.98888
4.82978
6.15534
4.78996
4.72764
6.64333
5.32307
6.96119
4.9122
5.08092
7.91118
7.26064
5.18776
6.8463
6.73678
5.27756
4.74436
6.91592
7.01353
5.83335
5.00625
6.14193
6.31795
7.78709
5.13455
6.45269
5.27776
5.65543
4.72486
3.85961
5.83512
5.07626
7.5198
8.07148
5.38137
8.43123
5.79758
4.71422
5.17449
4.24784
9.10051
4.89253
4.77707
9.3811
6.08743
6.88938
8.62097
5.11214
7.65898
5.23558
5.09608
5.97132
4.74858
4.03989
4.84433
6.17738
7.55518
5.18631
7.40732
5.38973
4.5344
4.0221
4.67346
5.33869
6.36235
8.14285
5.44064
5.71486
6.04809
4.43314
5.85704
3.69567
5.00527
5.71559
6.5093
4.10796
3.48237
5.71504
4.7124
6.23436
4.82493
6.14288
6.14491
6.23053
6.75966
6.09216
5.10458
5.27818
5.67201
4.39766
5.25865
4.92407
4.52965
4.13971
4.4402
8.33293
6.91202
3.83106
4.69784
5.61892
5.06126
4.70435
5.3195
5.67725
5.28276
8.18119
4.7821
4.62327
4.63046
7.08738
6.71651
5.61947
5.50912
8.24977
7.3027
4.58344
6.41402
4.05387
5.07666
6.80578
5.07573
6.35606
5.60491
5.06295
4.74187
4.82969
4.24053
5.50926
5.90737
8.26224
9.32925
7.85405
6.51712
4.53931
4.71923
4.47617
5.12893
6.94228
4.6604
7.27816
5.32344
8.42582
5.04798
3.9567
7.57508
5.58681
9.48553
8.13815
5.85721
5.02146
7.50475
5.38013
5.37338
4.01859
5.48013
4.7479
6.75435
5.84614
7.22577
7.66628
5.18578
5.86529
5.31494
6.61373
4.03812
6.40294
4.79399
5.3591
5.52452
5.19344
4.71401
8.62928
5.74444
4.96488
5.25816
4.7923
6.01584
6.35132
5.24633
7.3142
5.30241
4.48817
5.80668
5.90574
4.90497
5.07462
4.2894
4.16516
5.90381
6.15206
8.22967
5.82755
5.9398
7.3248
6.13125
6.15036
5.68215
8.58248
4.4595
4.59941
5.37889
4.45158
5.24798
6.52885
6.97077
6.14782
7.08179
6.52907
6.2511
5.51803
7.6687
5.56175
6.58852
4.62742
6.31771
8.71648
7.11497
6.81495
7.39771
8.67878
6.60812
4.9974
4.63601
4.92293
5.59328
4.99093
4.35624
7.31981
6.06277
8.153
5.6006
5.12949
4.60968
4.07013
4.92867
4.93527
6.51612
4.81356
5.08684
4.19845
5.41731
3.94925
4.12002
6.63057
5.79022
7.73552
5.05548
3.67655
6.59845
4.22554
6.7261
10.1217
6.56304
7.71246
7.2892
5.39215
6.35352
8.87562
4.70005
5.68609
6.48565
6.84917
6.12672
5.69432
5.49127
4.32786
4.72355
7.35996
5.3836
6.44583
8.48085
5.1185
3.50068
5.3335
5.89745
7.15156
4.26087
6.74082
6.82035
7.80474
5.87141
5.67597
5.2585
6.56449
5.75652
5.35989
4.97268
5.10318
4.53206
6.26716
7.31012
5.57064
6.43436
6.80162
8.46849
4.4328
6.0295
6.28004
6.36931
6.9852
5.03412
5.82513
5.85078
6.87499
3.75489
5.51797
8.19738
4.78298
6.70515
5.40008
4.60031
5.56981
5.84725
4.64632
9.20902
5.14817
6.04479
5.85757
5.22086
6.15637
5.11086
5.42231
6.42525
5.40475
6.27133
6.58566
5.65036
4.07066
5.84749
5.00994
5.30493
5.27948
6.98599
3.75808
5.01272
6.93562
6.77526
4.2396
6.19619
5.46257
8.74278
7.03623
5.98491
5.27184
4.72909
6.70536
4.55568
4.13943
7.35413
7.52843
4.34886
6.02819
6.52512
5.73382
5.59403
5.55291
4.88695
4.86794
3.99158
4.56188
5.35258
6.93832
4.96475
5.96089
4.27771
4.24036
7.92887
6.42905
7.60691
9.68123
7.26937
4.15242
4.645
4.90625
5.18593
7.94359
6.94028
5.53297
6.14341
4.98951
6.11474
7.60007
5.27021
6.31421
5.67872
4.91825
5.17536
4.78444
4.53126
6.03064
5.11668
6.71294
4.35826
6.66107
5.6885
5.31949
5.48593
5.21895
6.79473
7.42642
5.15085
4.21681
4.6265
7.44384
11.0488
5.8771
6.73196
5.37716
4.02305
4.6987
4.88016
4.74459
4.97875
5.73441
7.76378
7.28733
5.93148
5.95622
5.86021
4.6561
5.99506
4.38754
5.44551
5.8474
4.63472
8.77716
4.50268
6.88117
8.38592
3.74857
4.88796
8.85364
4.1112
6.01874
5.10622
3.78367
4.54209
5.3505
5.34915
6.3273
4.34513
6.06184
7.0744
5.80651
4.66586
7.46799
5.9348
4.95826
5.38893
5.74808
6.45323
7.24848
7.14906
4.73468
5.9419
5.18943
4.61101
6.62694
4.81721
4.3791
7.09157
4.80181
6.63637
5.67458
4.07237
5.62565
4.73845
5.72623
5.39205
4.98712
6.39325
5.96817
6.09145
4.28822
5.68127
4.36689
4.69143
4.90966
5.80349
4.10265
5.95714
6.54207
4.30302
4.80937
7.47372
6.36412
5.11156
6.22947
4.38899
6.52507
4.96534
5.96243
6.00534
7.74085
5.38522
5.64515
4.55421
6.24254
6.57758
9.47749
5.8633
7.28944
6.05301
4.92064
5.31168
5.21356
7.06733
5.98532
6.73765
4.86801
3.92005
6.0152
5.45455
5.37751
4.72004
5.19969
3.88513
4.87545
5.55551
7.1777
5.68188
6.34108
5.15132
5.66422
5.14674
4.63161
7.41745
5.6852
3.80401
6.49993
5.80491
6.9795
5.76188
7.75729
5.00799
4.29395
5.52112
4.80792
6.38943
5.58244
5.16585
5.05677
4.32472
5.20222
4.85526
4.84563
7.82308
5.69427
3.83599
6.93378
5.46143
6.84981
6.34858
6.04252
5.84986
4.16261
6.84814
7.12133
4.13224
5.68381
6.22963
6.08084
5.97473
5.29228
6.35566
5.14632
4.97749
3.79039
5.19144
4.99591
4.63307
5.12932
6.15077
6.09264
5.42028
5.85688
6.74271
6.01763
5.16119
5.87848
4.16745
3.50455
6.3194
6.96338
6.3299
9.08095
5.79494
5.60083
6.19168
4.4011
5.69301
6.48792
7.57149
8.73397
3.38491
5.55088
6.46322
5.19201
5.79274
8.08093
5.39989
6.93827
5.78597
6.18656
6.57322
5.33977
5.61555
7.21899
5.49531
8.58916
5.3284
4.37682
3.66542
6.36088
7.3659
5.15812
4.73555
5.53277
5.24136
4.78584
4.28571
5.80035
5.32603
4.36545
4.78021
5.4119
4.55046
4.75525
6.40609
4.78573
6.55896
9.81998
5.28593
4.94464
3.2006
7.27516
5.86371
5.8505
4.79456
4.28094
4.32412
4.6194
4.60388
5.14503
6.49773
4.56242
8.15851
5.07878
4.18901
4.3296
6.39569
5.35215
4.76427
6.99156
5.79454
5.26772
4.66961
4.65757
4.88546
5.07037
5.88068
6.5287
5.07918
6.26349
3.66937
4.5482
6.63656
4.63799
4.21397
5.26662
3.67622
5.64898
4.31168
5.05577
5.96902
4.99921
4.19963
5.40586
6.18697
6.46188
4.44302
5.37136
4.04771
5.12364
5.31763
6.04217
5.82632
6.33157
6.52605
6.63595
5.87157
5.52057
4.86553
6.26715
5.18249
5.98903
3.89522
4.38215
7.05743
5.49622
4.60338
4.95853
6.08318
5.02463
4.8567
6.3889
6.6505
8.21777
5.76332
6.27073
6.50086
9.21778
11.2743
4.76837
3.8285
6.54669
6.48483
4.20356
6.31125
5.36685
5.32632
6.60751
4.62316
5.3501
4.69719
5.38692
4.6452
6.03878
5.24449
7.59611
5.28025
5.84372
9.8814
5.25439
7.95014
6.31152
6.6259
4.46759
5.69579
5.67569
4.90925
6.07831
5.36223
5.45216
6.28702
7.76654
4.68922
7.29827
5.07182
4.94989
5.82386
5.30528
7.40115
5.56179
7.56705
7.03516
5.17598
7.51417
5.34012
6.08104
6.59012
7.90991
4.14122
5.55241
5.77599
5.28471
4.13112
4.99688
7.14584
5.37841
5.01149
4.34332
5.52892
4.27661
7.59846
5.0021
8.28435
6.00932
5.71425
6.92419
4.50574
5.80761
5.78024
4.53792
5.55378
9.83948
5.15199
5.48134
8.26332
5.32265
6.23291
6.00064
6.01377
5.19934
7.72472
7.1785
4.19797
4.60797
4.79253
3.19788
4.88092
6.65273
4.9767
5.00766
7.24985
7.46137
5.14291
6.72881
6.34181
8.16894
5.38212
5.73216
5.23013
5.38415
4.4242
5.84419
5.39209
6.59893
8.10264
5.93719
7.2678
4.07232
7.40195
5.38357
6.83068
4.56213
6.56365
5.66466
5.24164
6.06641
8.8038
4.81812
5.87617
3.75198
6.60677
5.3546
5.20204
4.71563
5.11926
6.35779
7.10401
6.22208
5.36762
5.37742
4.65085
5.48044
4.47399
4.92478
4.91034
5.61484
6.34977
5.26717
5.45987
4.99614
5.16781
4.2668
5.07975
4.54809
4.06442
8.94613
5.41578
3.64675
5.16533
4.19313
6.88239
6.73177
4.67964
5.26993
7.67172
6.3776
5.07157
5.21951
5.25891
5.14391
8.1022
6.30168
7.28711
4.55001
6.29903
4.46773
5.6228
4.11133
5.74136
6.73739
3.6437
5.75118
6.73311
4.75339
7.312
7.46331
5.73595
6.13274
4.86817
4.94665
5.80222
6.93724
3.52999
6.37516
7.64487
4.22593
4.44392
6.46256
4.6777
6.92182
4.56383
6.3644
5.85832
12.286
5.3852
6.86867
5.22448
5.57753
5.19183
3.99222
4.41462
6.54567
4.996
7.9779
3.95341
8.47058
4.65912
5.64366
3.91455
4.67116
6.37513
4.56668
8.26393
6.27124
4.80118
7.89451
5.65308
8.2292
6.18766
5.21929
5.54873
5.14325
5.24196
5.16721
6.95744
5.38641
6.36502
5.69221
5.5736
4.09386
7.17263
6.18908
7.25118
5.91281
8.25357
6.38642
6.51243
5.63748
4.10997
4.2253
7.0807
11.5036
5.63479
6.49085
5.67884
9.02175
4.13351
8.25421
5.3987
3.79347
7.02585
6.75935
6.15754
3.8857
4.79277
4.83298
4.7723
7.40061
6.74012
6.2407
5.56892
5.16917
6.8332
5.52837
6.94689
6.79242
5.97701
6.94512
7.8194
5.40065
8.05038
5.09794
5.20092
4.02653
4.29913
6.89318
5.79005
5.47608
5.84057
4.1776
8.95335
5.65311
4.01138
6.76544
5.67095
4.39552
6.48715
5.2059
4.85449
5.35921
5.46444
7.56628
5.77436
5.15186
7.90947
4.82158
4.61556
7.04095
5.25036
5.03127
4.82512
7.91159
4.50835
6.20796
4.68939
5.03926
4.81411
5.91013
3.88531
5.77665
6.85713
8.15868
6.19719
5.18667
5.40137
3.89759
6.29821
6.02004
5.84279
6.07027
4.34231
4.29738
5.73407
6.13085
4.58836
4.46305
5.21667
5.17566
5.50622
5.63118
4.62696
6.52558
5.70598
5.8076
4.57215
6.87613
8.7568
6.21734
5.36693
5.08888
3.47836
4.58456
4.93228
9.19044
5.41215
6.53246
5.10575
5.21727
7.62242
7.0762
6.41591
7.78163
7.4237
4.57272
3.61516
6.67254
8.25307
7.11674
4.26627
4.72801
6.29798
5.38486
5.42407
5.04663
7.65841
5.46585
5.26419
9.58452
4.09798
6.87972
5.7417
4.7138
3.99772
3.89686
7.71898
6.35507
6.40847
3.86122
7.18754
7.87665
7.6535
7.12283
6.54825
4.8193
4.66051
4.45136
6.06874
6.26197
5.07144
5.74909
6.07268
5.09561
4.74918
6.06801
4.67608
5.75369
6.00937
6.12631
4.04033
6.20978
6.39527
5.8368
5.56269
6.6674
6.8165
5.14114
8.52966
3.99928
4.45023
7.49789
7.61956
3.9475
6.14282
6.00018
8.08069
4.31173
5.22135
7.09555
5.29973
6.12034
5.08704
5.94478
5.98539
4.32226
5.08537
6.07222
3.98869
6.98934
7.99346
7.21789
8.71313
3.63901
6.19172
10.9718
8.00439
4.40261
4.61756
5.6476
6.54177
5.3581
6.09264
5.19217
5.5904
4.2355
4.91578
4.37225
6.5768
6.50858
4.25399
9.20686
8.65115
6.12304
5.57572
7.50539
6.16307
8.29222
8.26742
6.79718
8.00415
4.57445
5.28274
3.88715
6.90034
6.10674
6.02024
5.26642
4.55962
6.52629
6.43672
5.99689
7.22455
5.88166
7.31297
5.0179
4.78062
6.29682
5.54544
3.87234
7.07258
7.35544
5.88575
5.23855
5.85197
3.88363
6.34945
8.64972
7.92903
5.47831
4.43194
5.70415
5.71282
5.01197
5.72542
5.08147
7.64105
5.21629
5.27778
3.72176
6.38124
5.84609
6.00218
7.2805
4.80541
4.23018
5.8694
5.07631
6.18092
6.70806
6.12741
6.47605
4.56736
6.3725
11.2253
5.4067
7.25073
5.50739
3.98957
6.27415
8.21871
7.18077
4.92038
6.70805
5.27017
7.22717
5.56375
5.74494
5.2533
4.47658
6.57683
5.80516
10.1975
5.79654
6.01615
6.27801
7.60468
5.22289
4.78948
7.00724
3.34453
7.30929
4.593
5.14015
5.43212
4.7481
5.37597
8.77792
4.70612
7.74499
6.42422
5.00741
4.96669
4.81685
5.72235
5.60061
5.86312
7.28718
4.51319
7.09434
4.30814
5.84322
3.35719
5.81832
5.44565
5.15904
8.3849
5.06172
8.32281
4.5353
4.1247
7.34662
7.52303
7.12838
4.68663
4.96568
6.9683
5.12168
5.93031
4.39869
4.67159
4.97139
5.8755
6.9845
4.0201
5.29339
5.34853
5.05809
5.87157
7.73538
9.94021
6.25432
5.48292
5.94299
5.30453
5.24922
5.87906
7.0846
4.78261
5.58594
3.82224
4.29434
6.6021
6.12946
5.04032
7.31988
5.03907
5.74118
4.37945
5.43723
4.88061
5.19031
4.92805
8.35311
5.48828
4.74426
6.02086
6.44725
7.61307
4.91123
8.38751
6.30524
5.80128
4.94139
4.59073
5.80568
6.47309
7.01257
3.44867
6.15344
6.3487
6.12411
4.78
5.18969
4.43
6.27493
6.46967
6.47893
3.94397
5.04383
5.66787
6.80674
4.27971
6.31194
4.89779
5.32805
6.15014
6.38964
6.5576
5.12132
7.08983
5.89084
4.56537
5.12256
5.25476
7.06032
5.47312
4.58287
8.23104
4.67947
5.36334
5.86896
5.71156
6.21328
5.23152
5.10254
5.89168
6.83584
4.93843
5.82866
5.31914
4.87194
6.31412
8.33437
5.73436
5.61576
5.57934
5.89656
4.70004
4.76357
3.99133
5.17587
4.98903
6.70237
4.96908
6.36301
8.0472
12.1421
5.33576
4.54713
4.5159
5.15153
6.69848
3.78161
5.99284
8.29818
6.17217
3.20482
4.46971
5.77645
4.28828
5.73064
6.29418
7.6474
12.5078
6.14405
4.40579
4.46629
5.26023
5.23431
6.26585
4.38715
5.23763
5.97269
5.9001
6.63009
4.71085
6.28469
6.50564
5.86123
4.39043
4.28833
8.49186
5.12095
8.61357
6.98717
6.18299
7.08324
6.70016
7.22096
5.70248
6.03518
5.47594
6.27067
7.45773
8.06622
5.74558
4.10644
7.35253
10.5353
4.1772
5.28534
5.27634
5.66664
6.51728
5.29191
6.90086
4.56867
5.9304
6.1298
5.19937
5.035
5.6021
6.5664
3.79479
5.53478
6.30744
4.49736
8.17186
3.83504
7.05042
6.2558
5.564
4.66756
7.76737
4.71586
6.70336
7.34436
4.39261
5.044
7.09703
6.77927
5.78935
6.08839
7.44074
5.95103
6.91427
5.53635
4.80202
6.35117
5.97719
5.9128
6.29775
6.01525
7.7498
5.76252
4.13058
5.02505
13.1194
5.98044
4.85555
6.12202
10.7655
5.92494
7.37896
5.70959
6.27332
6.99864
4.79642
4.80078
6.1178
5.9948
4.64855
5.91347
5.46297
5.52027
4.31047
5.44835
5.96087
4.68878
6.07167
7.2063
4.29581
4.08156
5.77233
9.77995
6.72847
8.04477
8.34667
9.5424
4.85512
7.55314
5.60205
6.58135
4.13565
4.74766
6.45511
5.70521
7.62902
5.58075
6.14452
5.52059
7.23395
5.20472
6.01357
4.43507
4.35971
3.8642
7.34124
5.2876
5.73573
4.56351
6.01357
5.85586
6.22
9.13687
4.76504
7.08179
5.6511
6.30449
5.18625
5.97103
6.33044
5.69496
5.21682
7.66787
6.45277
6.88528
4.61454
7.06297
4.9159
5.31613
5.00985
6.02051
6.7812
5.43476
5.34874
6.48558
4.92009
7.34521
5.2893
5.59582
3.84409
6.91184
6.12428
5.97351
4.64036
4.52183
4.98704
5.33607
5.0222
6.6099
5.91607
4.83206
4.95672
4.70345
6.141
4.20469
5.54436
6.81764
5.16354
3.99071
5.12859
8.61023
8.00309
6.80384
4.77758
8.81901
6.46568
4.6584
8.43392
5.41963
5.97064
6.04527
3.63082
5.90158
5.98463
4.33686
4.7291
5.33949
4.47938
5.60738
4.24801
5.38778
7.2305
5.08668
4.45257
4.30522
5.1633
5.2061
5.18341
7.17332
6.71612
5.93081
5.21792
4.32067
4.76771
3.86693
8.95998
5.51488
5.11712
7.72589
7.09244
5.68573
5.77637
5.86263
7.33455
4.49377
4.81773
4.46376
4.82805
4.97883
4.48996
5.22825
7.39515
7.42001
5.00364
10.5107
11.2128
9.47418
3.87251
7.91404
6.27997
6.08038
4.79999
5.6004
7.66196
7.53466
10.4423
4.85943
3.74092
6.89103
7.5203
4.73226
6.10291
8.49319
5.94779
4.93972
6.937
5.13268
7.08197
6.45236
4.85829
5.24337
6.2068
4.80575
5.30098
5.42239
6.73393
6.976
8.07642
4.2219
4.9057
7.57891
6.19698
5.9266
5.98058
5.59816
9.54042
6.35875
4.63574
5.7806
6.55267
6.47511
6.42529
4.64383
4.02218
6.24005
3.73715
4.85611
5.98946
6.23919
7.4448
6.51255
5.70001
7.53364
4.88841
4.00642
7.20638
8.54435
4.97273
11.4262
3.60531
4.33817
4.92038
3.75334
4.54713
7.9583
3.72556
6.38979
5.19017
4.87878
5.9294
8.93028
5.22934
4.50952
4.79889
7.99273
4.71977
4.79721
5.76189
5.34899
7.19365
7.84758
4.51949
6.00072
7.12188
5.74027
5.9506
4.98366
5.01468
4.59685
12.6616
7.66891
5.40446
4.41819
5.52934
4.75639
5.46481
8.18467
10.0572
5.46511
6.03692
5.50799
9.19211
6.05335
4.91106
3.85911
5.85003
5.82327
5.31469
4.42337
5.80159
7.1476
6.82482
7.26953
5.01835
6.78567
4.63036
5.18287
4.26772
9.50835
6.8832
5.0804
5.65466
5.15415
6.0034
5.02748
6.46123
4.5656
7.63611
9.15762
7.44597
4.93976
5.9432
6.10587
5.21768
4.99959
5.18912
4.92182
6.00835
7.34236
4.9672
6.03125
6.86302
5.40301
5.04188
5.1584
7.44944
5.26762
4.94054
3.57631
6.27942
5.57799
4.94016
7.44368
5.69851
5.76589
5.75806
4.39324
4.20951
7.55839
7.66021
5.77916
4.2442
5.2856
5.33294
3.88324
4.84953
5.14219
4.20861
6.00478
8.01077
7.15722
6.46152
4.84795
4.70398
5.50548
6.7334
4.923
4.95763
6.74554
5.88726
8.43775
6.30771
6.15551
5.64738
9.31553
6.55193
5.24829
4.31813
5.62966
5.62687
6.32838
6.88504
5.29427
8.31609
8.57008
5.10503
10.1652
6.3083
6.67006
4.95757
5.99584
4.18933
6.23126
6.47291
6.31469
6.96638
4.8345
5.35109
4.91461
7.49645
6.09045
4.83162
7.1604
5.20349
5.93613
8.11095
5.66229
4.21825
6.2168
5.62617
7.8256
4.3995
6.99438
6.12371
4.84633
6.37334
5.30725
6.74052
4.69156
5.11241
8.3208
4.35388
9.84763
6.37498
4.71248
5.62926
7.10053
5.80089
5.64645
4.89421
5.39652
7.55729
5.40063
5.94924
4.2073
4.71246
6.23694
6.6873
4.38925
3.81359
8.02988
6.76727
5.64346
6.90207
5.20827
5.01851
5.20207
5.20168
6.08612
7.70291
4.60342
6.34667
4.64357
5.03149
4.85773
3.76563
6.83875
7.12904
4.7635
5.86166
5.66822
5.2658
5.69875
4.8665
8.34945
5.88888
7.24466
6.15654
3.80444
7.71386
6.96776
6.05929
5.29606
5.24281
5.01973
10.1079
4.31055
5.39925
10.1942
5.57742
4.89788
7.28
5.17374
5.48616
4.65133
4.38314
5.79969
6.59265
5.23576
5.50064
8.75494
6.87372
6.82782
8.80079
9.5069
6.58138
5.5665
6.45495
9.68791
5.18148
4.93234
4.16792
7.04229
6.09803
4.46424
9.10731
6.10936
5.04732
5.80564
8.33714
5.93463
6.8109
4.42453
5.44982
4.62771
4.80403
5.94682
4.73912
4.44738
5.45733
3.36584
7.54136
5.43582
7.67889
4.23889
4.67133
5.89889
5.32655
5.35685
5.12786
4.45828
6.51223
4.14876
5.08076
5.22723
4.59521
5.98934
4.01615
7.14433
7.84852
6.29994
3.49956
5.15311
6.29138
6.9663
4.46301
4.86795
4.77136
5.58402
6.7275
4.2113
5.59588
5.25034
5.66783
6.1927
4.71394
5.68268
4.94241
4.84921
6.27009
5.95582
5.75203
4.98112
6.21181
5.09581
6.52116
5.5894
6.17931
5.82571
6.44319
4.92178
4.86109
4.14141
4.89452
4.33111
5.16969
6.16675
5.99222
3.6713
5.5036
6.007
4.56656
6.77196
4.5599
5.90485
3.8273
4.32565
4.90078
4.12004
7.52337
5
5.93898
7.54421
5.16468
4.95479
6.33412
5.58782
5.91308
7.40785
5.65335
5.20092
5.21048
6.164
9.49613
4.35152
4.81107
5.7485
4.8053
5.25802
6.50341
6.79696
8.2226
5.40376
7.72311
8.19581
4.83929
5.73942
6.06384
5.87789
5.89508
6.20397
4.81691
4.97305
5.2718
4.31523
5.22044
5.69631
6.09476
5.8951
7.05224
4.73571
7.34471
7.25682
5.82541
6.90453
6.50953
5.14879
5.2717
6.75089
4.25575
7.11667
5.29031
9.13258
4.15777
4.73682
5.89934
5.63636
6.91978
4.37047
5.59548
7.80112
5.07478
3.91857
7.21249
4.76845
10.2005
5.5658
4.92923
5.38405
4.35226
6.12908
6.15428
4.94977
8.0021
6.49255
7.85619
5.56147
5.67579
4.74378
5.32129
5.99247
4.61746
5.8538
6.54234
6.42431
5.86753
4.70625
8.22534
7.04836
4.2213
5.05288
5.64578
5.07805
7.19189
8.27094
3.8894
7.36666
5.18401
6.03803
4.74739
5.06905
7.62749
6.82105
5.27564
5.82245
5.21882
4.78672
5.26236
4.74637
4.83857
9.31404
6.7121
4.78284
7.24033
5.43946
7.04381
5.38777
5.71013
4.53785
4.72228
4.80623
5.86475
8.43264
5.50065
7.05745
6.07538
7.40929
5.57653
6.07309
6.26449
5.15634
5.61891
5.63354
4.94577
5.45417
5.11968
7.57438
4.24216
4.33149
6.19019
5.74483
3.59731
5.78668
5.97689
4.44366
5.7035
4.84262
4.2998
4.86015
4.42035
5.72947
5.70422
6.13946
12.9704
6.36258
4.02
5.84411
4.82283
5.04519
7.202
9.28129
4.88506
6.3001
5.0726
5.05489
5.92288
8.68732
6.35564
4.55171
8.43923
5.62659
4.74072
5.01618
6.66083
5.78085
5.77746
4.1998
4.50687
3.95035
4.87117
5.16296
3.87018
5.40426
5.24205
4.43642
8.09156
8.49726
5.96022
5.681
5.7221
5.39743
6.19267
6.50176
6.67109
6.04712
6.53621
4.66179
9.10339
5.14344
6.00138
7.24615
5.00025
8.95745
3.82652
5.56312
4.25997
5.212
7.08919
6.49452
5.10003
5.63164
4.99504
3.87934
6.3372
6.16406
4.54031
6.34667
5.87542
5.10626
6.90714
4.77361
5.92802
8.38469
4.98333
5.95753
7.88389
5.86799
3.77428
5.69855
6.6368
3.77127
4.90233
5.15749
6.13624
3.78615
6.02102
5.85659
6.76061
4.9805
5.69504
4.56003
4.94127
7.90856
4.99603
7.26436
4.61765
5.34764
4.78605
6.76855
5.64616
5.96606
5.84428
4.92164
5.9183
6.4155
5.10668
5.52182
6.07942
6.46086
6.42218
8.03347
4.13616
4.11105
7.17051
6.76879
8.58006
5.0674
5.75721
4.88956
5.18491
5.44793
5.30976
6.06305
3.82289
4.35485
4.94479
4.38761
4.64517
6.66377
4.88458
6.02458
7.31181
6.17659
6.18322
5.24096
6.40178
5.67504
5.50125
5.10786
7.45514
5.58528
4.18467
7.33571
6.10511
4.72842
6.14808
5.96346
5.75773
5.27921
7.28197
6.04596
4.59237
5.4446
5.0848
7.58435
5.90087
5.21569
8.55133
5.22905
4.90008
5.01592
6.10202
3.93949
5.46936
6.51386
4.55237
5.55744
4.28173
7.32634
4.7612
5.0154
4.21512
5.53643
5.21935
6.17816
4.56097
4.78629
7.16429
6.25405
4.24945
5.06096
4.33238
4.62187
5.68776
4.89028
7.44583
5.70366
5.50709
5.10212
8.0767
4.34806
5.2496
5.00579
4.01966
4.83368
5.33907
7.11045
6.38543
6.22575
5.10487
6.65101
5.7264
5.50876
4.4223
6.398
7.53281
4.36279
5.54539
4.53483
3.95456
6.53284
8.09667
4.8965
7.1427
4.82204
4.63704
5.56087
8.48289
5.5499
5.1871
5.28756
5.85647
3.90484
6.6515
4.43029
5.91025
5.85879
6.62102
5.6086
10.3742
8.68031
6.46418
4.7937
6.35516
6.96265
9.98291
5.81964
7.52723
5.45545
5.70573
6.01654
5.27415
4.88408
4.83659
4.58158
4.3112
4.86094
6.19533
6.21676
7.44187
4.75866
4.65657
4.47654
4.30765
6.02947
6.3337
5.89735
5.21918
5.92998
5.54149
5.1065
3.5496
5.68681
7.09784
5.02728
5.85092
5.34733
4.27349
7.33477
4.54192
5.50129
6.69808
7.81085
5.64403
4.76343
5.03913
4.6544
4.53251
5.08969
5.31508
4.94029
5.72859
5.15957
5.33705
6.33106
5.48819
6.49058
4.43217
10.1089
7.39991
5.32715
4.76321
5.43876
8.75053
6.3664
6.54067
6.70268
6.08472
6.88411
5.51541
6.29498
8.9684
6.42374
7.22519
5.50163
6.83578
10.3285
7.2394
4.37939
5.23477
6.15966
6.86818
3.91487
5.44424
5.50479
5.00632
5.92977
6.15162
3.74458
8.48156
6.08351
6.50183
6.64615
4.62881
8.90853
4.40003
5.53248
6.50072
5.41983
5.34889
6.49041
5.13019
6.24579
5.62845
5.57519
8.26587
6.87758
8.76493
5.5083
4.31817
7.5402
5.4978
5.90927
8.12215
5.78916
4.38414
6.55781
5.59529
9.90055
5.60826
7.24298
11.0986
5.47433
6.53073
7.35273
4.84246
7.99236
5.88395
7.21538
6.16517
5.97062
4.51343
7.9785
5.60625
4.05821
5.134
6.33151
6.34847
4.50512
5.59371
7.52951
5.37042
5.83705
5.75873
7.04807
5.73197
5.42156
3.99579
9.62519
5.34205
4.66848
4.54197
6.573
4.93161
7.05031
5.26599
6.57801
4.12494
5.17218
4.49505
5.27849
5.20912
4.72322
6.73289
5.10972
4.03985
4.89311
5.26614
7.72142
5.87529
4.61735
8.47426
4.76015
4.67962
5.7876
5.58519
6.10178
4.56167
7.6336
6.12359
6.28128
5.11881
3.88685
5.87009
10.0311
7.76058
4.94275
4.77657
4.14207
8.23415
4.8575
6.61933
5.2714
6.17071
4.65511
6.65593
5.27595
4.30038
5.31655
7.20361
8.43383
4.91915
5.30729
4.41295
6.03317
6.57458
10.8575
5.89301
6.41641
7.11245
5.42674
5.54917
5.56832
6.48076
10.2825
5.26949
5.3885
5.61041
5.9477
7.83571
7.17391
3.69771
4.62479
5.67697
7.43524
4.34562
6.78875
5.7809
4.21219
4.85202
5.13944
6.33807
4.91556
4.67215
6.82062
4.16778
5.14102
6.8819
4.49459
5.61874
6.14778
5.04506
6.35433
4.65719
5.3227
6.40592
6.3711
7.10839
4.55438
4.82224
5.38129
4.34698
4.39427
6.47505
8.45811
5.86029
6.33633
9.73688
5.7348
4.85126
4.6268
9.30409
8.51642
6.2828
8.53922
5.46876
6.07261
5.03855
8.12464
5.53798
7.34359
6.23575
5.28826
4.13445
4.63059
7.53283
4.57042
7.43762
9.50579
5.63304
5.32484
6.15871
6.18769
10.8926
5.26653
8.01788
6.68932
5.62411
5.44487
6.65186
5.81579
4.66735
4.9558
4.99066
5.94085
5.4818
6.04965
4.03364
6.22678
4.12436
7.6678
6.72207
5.66522
6.40836
4.92863
4.30151
5.99278
6.89769
4.08138
4.70174
6.69977
7.18828
3.76459
5.96882
7.40917
7.91916
10.5406
9.09145
4.47748
6.27968
5.48719
4.89494
4.84234
6.94752
7.12316
5.90052
3.86212
7.89402
4.8503
7.58143
6.79398
4.74834
5.18747
7.21909
4.35374
4.16646
4.29675
5.09465
5.69373
8.01211
5.91135
6.72239
5.14588
6.0031
10.3913
6.5342
4.43522
5.44135
4.88379
5.13957
6.04626
4.17705
3.83489
4.25755
5.26798
4.90141
4.9032
7.01269
7.8841
5.41105
7.14992
6.3743
5.06733
5.97924
4.65058
5.60204
6.4327
4.6071
4.77159
6.91996
4.33099
6.12811
6.54354
5.11353
5.43014
5.55122
6.6543
4.54709
4.66718
6.9622
6.01403
4.2482
5.1994
5.39733
4.31499
4.53789
6.96973
4.35113
4.63832
6.60386
5.4053
5.94546
6.86371
6.29204
5.8826
4.41754
4.91933
5.3652
7.10042
6.57162
5.00334
6.26538
5.77433
6.27681
6.73317
4.55439
6.45599
6.04357
7.27596
5.04623
5.74563
5.47401
5.37415
3.41867
6.56666
6.06466
7.3845
7.10504
6.52589
5.77005
6.14898
5.83688
5.29092
5.77957
5.48513
4.62432
5.53926
4.94127
7.81344
5.09618
7.45311
7.09132
6.56185
5.86901
4.6616
5.10185
4.13857
5.38966
8.41165
4.97724
5.89409
8.21328
4.65814
4.84117
5.55887
6.2239
5.26695
6.07717
5.79678
3.61284
4.76544
5.17383
5.50162
6.41197
5.51111
5.77867
5.27529
8.59712
6.57066
4.34522
6.51948
4.74013
4.66706
7.05009
5.65626
7.4448
5.94872
5.60487
4.72126
5.44226
4.32686
5.50541
4.98604
7.41484
3.54833
4.87891
5.56293
5.84168
6.33988
6.24797
4.32012
4.90422
4.78726
7.07163
5.39387
5.14214
5.09075
6.06661
8.63765
3.97589
5.09271
4.7564
5.18189
5.65126
4.81563
5.52255
5.68832
6.91963
6.46769
6.54842
7.75989
4.30595
5.63654
7.55482
6.30871
4.2888
4.61541
9.57081
4.39625
5.95376
4.99837
7.30684
6.30173
6.30497
4.33963
4.79878
4.41342
5.15722
5.93546
5.41723
5.39604
6.35738
5.1704
4.7325
8.93604
8.68831
4.99701
5.48523
9.57073
7.46641
5.13224
5.16253
6.95873
5.13088
5.13934
6.49477
5.87166
7.04626
5.08524
5.56411
6.73732
4.98028
4.18987
4.42126
6.47206
4.56041
6.57564
3.83546
6.97552
7.49787
5.00862
5.81259
5.73134
4.56841
5.05445
6.81389
4.78253
4.92156
4.1095
4.79223
3.84024
7.06741
7.02657
5.70824
4.82545
6.43177
6.53078
4.90068
7.75393
5.65661
5.76244
6.13337
5.3932
6.54349
5.3965
4.6968
4.75089
5.30956
4.85955
5.71224
5.74091
7.362
4.69988
7.17272
6.16514
6.4237
6.15516
5.87267
5.73168
4.6106
4.75746
9.19961
5.30992
9.98177
5.53161
5.52733
5.81237
4.39388
8.17941
7.26584
6.11504
6.425
5.11885
5.18397
4.84717
7.40444
5.79411
4.44232
6.74859
4.05895
8.28741
6.03893
4.81587
4.92926
10.5507
5.00195
5.0754
6.88449
6.36632
4.49713
6.12059
4.01474
6.74393
8.10831
6.8551
6.17985
5.88744
9.36283
4.36883
6.62837
5.15525
6.409
6.31893
6.29855
4.7783
4.76104
3.79353
8.29955
6.94866
5.50533
6.06496
5.64605
7.28812
5.33511
5.59249
6.79176
5.53416
6.72766
7.40856
5.93795
6.89932
4.73234
6.84712
8.05463
8.05477
6.11999
4.2921
7.39862
5.15656
5.21061
6.10851
4.73582
4.90261
4.33505
5.19613
6.07058
5.76573
5.88307
3.81165
6.00727
7.9943
4.65146
7.30842
5.01863
6.39839
5.86887
7.16522
4.58568
6.47455
4.66018
4.18438
11.3185
6.91481
4.93262
5.27205
4.91904
4.32097
5.94985
7.3924
5.93952
4.66389
5.0351
4.33091
5.09229
8.29981
4.46359
3.81332
4.29431
5.98823
4.44207
4.46756
6.7368
5.29188
5.11872
6.87465
5.39276
6.16186
6.05677
4.07273
5.3396
4.82469
5.14459
4.62985
5.27727
5.99028
5.61094
4.63355
6.43806
5.35058
6.55179
5.18977
6.90081
5.08184
7.18314
7.19958
6.3869
6.18201
4.82724
3.79879
4.9962
4.43653
7.90446
4.80858
5.51241
5.77571
4.99583
7.0352
4.42018
4.54976
6.45356
6.03983
5.47995
6.18709
5.05944
7.45359
5.94396
5.52517
4.85303
7.58771
4.51559
5.52406
5.83242
5.39063
6.99783
7.35669
4.26758
5.23368
8.28684
5.26171
7.44901
6.04547
7.11351
8.44538
4.07409
6.08269
6.43627
6.11641
8.80171
4.75643
4.14878
7.25672
6.71961
5.51201
4.4201
6.6978
4.60739
4.36585
7.86491
4.81467
8.87917
6.1324
4.71089
8.53619
4.75761
5.69603
4.91296
9.3179
3.94855
4.79222
5.3462
4.88549
7.92973
6.0968
6.03274
7.16416
4.31007
4.18379
5.56112
6.90033
4.31467
8.75123
9.02785
5.16224
4.70397
6.0393
4.9492
5.24273
3.30054
5.03567
8.55709
5.96699
4.93408
4.63698
5.26986
6.01949
4.33393
5.18234
6.27135
5.92265
7.11804
5.8037
4.66895
5.83723
4.00608
10.1887
4.53276
5.90173
6.50897
7.31704
6.16884
9.24698
4.05255
4.94414
5.38329
8.46353
8.77216
5.76742
8.18882
5.21183
8.55881
6.46079
9.40081
10.1269
5.48861
7.67347
5.24591
5.37665
8.47127
4.5749
8.27276
6.12277
8.41239
3.70524
4.96483
5.58115
5.0072
5.92728
6.52531
4.88088
4.44546
5.00653
6.57478
9.42998
4.51707
6.39665
6.53286
6.62804
4.73463
6.21543
5.99425
5.85186
4.591
8.24382
6.79545
5.19651
4.76111
5.6141
6.70613
5.10429
8.94545
5.20785
4.4388
4.07289
4.94047
7.48069
5.99765
4.24369
5.29888
5.65988
5.07677
4.66751
6.10233
4.79019
4.8852
4.6723
4.99195
7.86476
5.10336
4.81253
5.03361
4.64468
7.22033
6.73567
5.6424
4.86392
4.54299
4.49461
6.14179
7.40948
5.70996
4.81944
4.5897
4.9389
7.62723
6.18928
6.39327
7.36706
5.57404
4.31626
4.66818
4.85183
5.77539
5.27885
7.38325
5.89662
4.40254
4.74168
5.06256
8.75017
5.84137
4.66556
7.43126
6.96953
5.12144
5.80665
6.65832
5.72293
4.88765
8.99844
5.74321
5.94991
5.65222
4.80344
6.20508
4.73542
5.53569
5.22736
5.90961
3.77704
8.60789
5.316
6.14938
4.71248
5.98612
5.64404
4.55762
6.1482
4.94958
6.13442
5.51333
5.64107
7.63078
4.30501
8.23307
6.01903
5.81995
4.63603
6.97183
6.10816
5.35093
4.80602
7.18376
7.15581
6.45977
5.30909
5.67873
4.70406
5.29764
5.82331
5.2058
6.01843
10.762
4.68976
5.78847
6.17118
5.85568
4.72481
4.62103
5.62942
5.61219
3.7728
5.16011
4.64484
4.13833
7.1018
5.22158
3.23385
6.22811
6.07792
5.81504
6.77575
4.98465
5.30068
4.98831
7.62007
4.54696
4.67556
5.46327
4.67455
9.78085
6.95396
5.9226
12.5553
5.26061
6.13434
5.28164
3.90701
6.18073
7.85519
5.67444
5.87834
5.76461
12.3127
7.18917
6.41286
4.171
4.89036
5.73783
5.90246
5.76207
6.26346
6.75768
4.74831
6.22921
6.86061
5.36249
6.57094
5.6836
5.5645
5.06035
5.17855
5.70333
6.14093
4.16922
4.80268
5.45357
6.04249
5.25725
5.10973
4.94287
5.06544
5.30687
5.9592
4.84423
5.26149
5.18242
4.83878
4.59564
6.39096
4.40542
6.98157
7.17341
7.21399
5.88112
6.04244
5.35146
6.27599
5.1044
6.75679
6.02011
4.12423
6.14072
7.03677
6.22223
5.88035
6.21028
11.1635
12.3653
6.33858
5.39603
6.30573
4.75445
4.43566
7.20157
6.00992
6.49282
5.81004
5.71522
8.84467
4.82473
8.61351
6.78691
5.11113
5.75427
6.56966
6.63239
5.24047
7.87731
5.43391
6.19687
7.8581
4.65296
5.99458
7.44951
4.66782
4.71945
5.82311
6.50806
5.51303
6.90838
6.29307
9.17498
5.10976
4.35214
4.38771
5.02968
8.04358
6.16605
3.93608
4.96678
4.78223
5.5911
7.15596
4.86075
7.36748
4.87012
4.71966
4.51948
7.12024
4.09818
5.43746
5.36989
4.80588
4.37348
5.45433
5.93851
4.80748
5.79099
5.03148
4.33724
7.77288
8.93571
9.31471
4.52652
5.42856
5.00531
5.21697
3.90023
4.52973
7.54291
4.80984
5.32344
4.79991
6.91154
8.52094
5.58612
6.36619
5.25374
5.36954
4.72178
5.4756
4.87662
6.164
4.14329
6.91998
9.52188
5.6217
5.29136
6.49506
5.83205
5.55136
6.44525
7.30257
4.56276
6.26449
4.72842
5.96113
4.86208
6.31596
5.04643
7.45901
6.3065
6.01555
8.8553
5.05397
5.20738
5.06895
4.0808
6.50699
5.97423
6.11994
5.06757
5.22059
5.18226
5.93805
5.03046
4.47994
4.31661
7.36308
5.34837
4.88901
5.77803
6.85609
4.24443
4.70716
5.96641
7.42332
4.61313
8.4135
5.36572
8.72071
4.97129
5.01512
4.94257
4.76152
5.97793
6.40988
4.50338
6.18381
6.12282
6.30831
5.69723
4.57373
4.61003
7.82422
5.01136
5.08794
7.13081
5.03689
4.86379
5.2604
5.34178
6.68388
5.94866
5.74254
6.46204
4.78204
4.67077
5.46381
6.29542
6.39094
5.20955
5.26601
10.4102
8.01605
7.5354
4.37985
4.95767
8.7485
5.14503
4.89823
7.12032
4.92458
5.33858
6.28315
4.61899
8.27789
4.08392
7.11041
6.23195
7.07711
4.50476
5.24258
4.10979
7.85936
4.21281
7.138
4.8184
4.66578
5.82446
7.12661
6.00152
4.29055
3.75944
4.42165
3.7099
5.81487
9.29353
6.67726
4.01528
6.93283
4.0993
7.26414
7.67378
7.77967
5.64109
5.48472
3.63598
6.00337
4.50015
5.97101
9.0292
5.52269
5.9178
7.5801
3.66706
6.6641
4.06746
6.21745
3.97839
4.47471
5.33769
5.81478
4.44737
7.6394
5.26217
5.52458
4.44098
5.46814
7.10415
3.60222
8.72952
5.71506
5.80196
4.75866
6.12476
5.09346
7.52494
7.09257
5.44602
5.64709
5.46862
7.45263
4.6192
4.22472
4.93244
5.50614
7.22185
9.19957
4.59971
5.53515
4.91195
7.05765
4.94947
10.7109
7.21666
4.20107
5.66933
4.2766
7.15281
5.32525
5.2692
6.58708
4.65315
5.6963
5.96164
8.54958
4.95035
4.21291
5.20806
6.10357
4.16693
7.68703
6.09241
6.32638
4.74844
6.42214
5.61393
5.96928
4.95359
4.23024
5.944
6.78816
8.44216
8.33798
4.28449
4.64995
5.64373
6.71198
5.24044
6.72669
4.74331
4.27801
5.44714
4.27999
8.96886
5.50915
5.55231
4.69271
6.69802
5.00349
6.32739
5.77013
6.89162
4.51049
7.91208
9.60092
5.13989
6.93991
5.07666
4.99677
6.00926
5.73579
6.90113
4.77399
5.51548
4.90942
5.11241
5.03176
4.48987
5.60186
5.1991
6.53637
5.0916
4.25237
5.52999
5.39222
4.93733
7.20219
6.66507
7.86384
4.65379
7.62723
4.49265
5.64368
5.02469
5.34689
6.46601
5.46144
7.63909
9.13152
5.04613
6.58785
5.09727
5.67144
6.84656
4.83304
5.57009
4.57057
6.7461
6.22784
4.98544
8.06106
4.79838
5.90815
6.08155
5.54675
6.40962
5.34511
6.65266
6.18299
6.95809
10.291
5.16434
6.44233
7.01933
6.73566
4.40135
9.68505
3.76343
4.13003
4.38972
4.35676
5.33083
6.08696
4.94521
4.10651
5.34056
4.49927
7.36612
7.3591
4.33778
4.79384
5.1755
4.54696
6.05709
4.93973
5.38957
5.02546
5.38392
4.30785
7.2076
6.04918
4.73932
6.69533
6.42471
5.55782
4.7255
5.76662
9.3617
4.80815
4.79194
6.02167
6.16856
5.02492
4.67484
6.18622
4.29115
4.30909
8.44078
9.75723
4.49437
4.18545
5.86386
5.04305
7.57522
9.10293
4.46644
5.12508
4.67907
8.24762
7.35147
4.94242
5.40941
5.24518
4.67124
6.65302
4.91062
4.10564
5.8864
6.16524
6.02304
4.84349
4.85994
7.87499
6.07018
5.35827
4.23878
9.97815
6.62976
5.76513
4.93134
7.33152
4.78412
5.25092
6.5663
5.54105
7.57722
6.42837
5.41033
5.63296
3.76787
4.45106
4.56997
7.38758
7.36484
4.73657
4.3503
6.17147
7.26018
5.80789
5.48956
6.59451
5.1906
4.84137
4.19486
5.59048
7.04588
6.62494
5.18162
6.22452
4.67731
5.6017
5.91539
5.73054
4.65619
4.42247
5.08796
6.55876
6.60537
5.14732
6.17189
9.96376
6.16412
5.09655
4.78907
6.33814
6.41766
5.12011
5.60198
6.74145
4.62142
5.45049
4.96279
5.18802
5.13942
8.324
6.19383
6.49296
9.15597
7.118
9.5061
7.74713
7.98096
6.35101
6.52613
6.27832
5.14641
7.19864
8.9511
11.8444
5.12261
7.25236
5.42304
5.52868
4.75217
6.21372
6.83243
5.38312
9.68635
6.42264
5.34634
5.46106
4.22134
3.84466
5.94806
7.92385
6.10175
5.19562
6.06528
7.07981
6.71617
6.34344
6.37592
5.89129
8.06014
4.29638
6.9896
6.13391
6.04734
4.92888
3.88061
6.27977
6.51866
4.87442
4.8434
5.15329
5.77647
7.25401
5.13852
5.85815
4.93935
7.14983
6.49918
4.72951
5.7874
5.36317
5.13881
6.83388
5.40187
5.84617
7.10747
5.91258
4.55678
5.19958
5.33093
4.98162
5.75018
5.26414
5.33815
7.989
11.741
5.36962
5.94799
5.94305
6.60288
4.74137
4.48506
5.89467
4.871
5.58526
4.35064
6.72541
5.50502
5.08755
5.56873
4.89799
6.85391
5.56637
5.22229
8.06335
3.56739
4.52924
5.85071
4.3589
5.81694
4.93198
5.8771
6.04531
8.32582
5.3713
5.79717
5.78084
5.37708
4.92156
4.72648
4.77762
5.10894
6.84182
4.4048
8.86726
4.59287
7.19785
4.76755
5.20851
7.83357
5.48864
4.77576
4.31824
6.71468
4.60537
7.14203
6.43205
7.54888
4.24045
6.15093
4.8982
7.76527
4.61487
4.52739
4.0418
5.4868
4.1883
6.31942
5.67663
4.92884
4.41236
5.43386
7.46782
4.3456
5.18411
5.44941
5.99235
5.5241
7.02439
4.66472
6.83766
4.72885
5.12531
6.78909
5.20531
4.75838
7.55249
5.09431
6.31991
6.70315
6.10094
5.18443
4.69912
3.90552
5.05878
5.38879
4.18143
6.84795
6.4301
5.33316
5.20942
6.05177
5.44287
8.01908
6.81583
7.56533
6.22889
7.31465
5.07649
5.73103
4.70975
6.04674
6.78461
4.69892
6.02378
5.50717
7.48537
5.63727
6.85052
4.50784
8.16102
6.73364
5.17707
5.22405
6.5243
5.05598
5.24962
5.0252
4.44005
5.00566
5.42562
7.72311
5.72413
7.14
5.05778
5.56913
6.32193
5.18873
5.79391
5.8623
6.1793
4.72155
5.78815
5.39443
3.67847
4.91327
7.69293
5.06066
5.91067
7.13959
6.66164
5.18521
5.2587
7.02569
4.59214
5.72384
4.47665
5.63084
5.77024
5.57752
9.05583
4.62834
6.49276
6.85571
6.14426
5.94575
4.3661
6.27728
4.19325
6.26267
4.76951
6.27181
5.56072
6.80114
7.03583
6.66747
6.50422
4.73479
6.18414
6.50312
4.35023
5.49432
4.73341
6.61488
5.74995
3.80876
4.72764
4.30593
6.15003
5.52824
8.16992
4.48178
6.2489
6.22592
4.49617
5.18423
6.42185
9.77831
4.5497
6.25964
6.63917
4.55869
6.29926
6.29912
3.89156
4.27131
7.17671
5.8919
6.28231
9.68151
5.14545
4.35564
6.75679
6.02611
6.58997
7.70121
4.68803
7.19881
5.14176
7.57802
5.68467
7.76684
7.79296
5.49771
7.15385
3.54739
4.51003
4.15219
6.38159
6.56543
6.31512
5.23934
6.25214
6.16341
5.1349
5.63773
5.91997
5.2173
6.48411
7.26046
4.7066
5.63367
5.33141
7.53384
6.64459
7.99982
5.12126
4.74011
6.57157
6.27775
4.14827
5.03131
5.32885
4.65513
6.25397
7.12408
6.2228
4.89572
6.50731
3.92601
5.99239
4.2851
11.3405
7.45424
5.92669
4.95858
9.13051
6.62936
5.84265
3.85339
3.8706
5.01988
4.7591
4.70343
5.26405
4.38817
9.05427
6.41504
4.03633
5.16917
4.40784
4.2089
7.41783
6.9667
7.2814
6.59224
5.84799
5.15263
8.33531
5.48363
7.81639
6.76738
6.90401
6.5663
5.10733
5.58275
6.65603
6.71748
7.34035
7.12318
6.21952
6.0374
6.03931
5.08817
5.36996
4.72832
4.45891
4.7665
6.13133
6.06015
4.80995
6.59279
5.79602
7.11332
6.4571
6.03294
7.54539
4.78179
5.29415
5.47741
6.34006
7.08236
6.76342
4.44885
7.73588
4.66155
7.53889
4.90227
4.67133
5.13329
5.24992
6.40167
5.57095
6.21565
5.19313
6.34247
6.39077
6.25568
6.69393
5.48647
7.21825
5.19837
4.68044
7.03674
5.52687
4.74549
6.80358
4.32595
5.14893
4.49253
5.3349
5.97821
5.28062
4.35622
7.05908
3.80599
4.15557
5.29031
4.7879
5.83795
7.009
6.28238
7.34468
4.56188
4.22511
5.16261
5.60735
5.77107
5.46317
6.20217
5.52569
6.66117
5.74942
5.39902
4.48072
6.48923
5.80789
5.46857
5.21615
6.23523
6.84004
6.95024
6.70315
4.70531
6.11082
5.98093
5.24834
5.02009
7.97003
6.18047
4.44359
6.84948
5.56282
4.71322
6.47638
5.9987
5.18351
5.89098
5.68015
4.54737
5.12619
5.40122
8.87973
6.47004
4.82995
4.72058
4.33335
6.12435
5.94934
4.55754
7.18135
8.03899
5.44814
7.20123
6.35031
5.4156
4.7725
5.64854
4.0418
4.47486
5.21687
5.85579
4.2294
8.61265
7.23114
7.65125
5.95949
4.52688
5.91129
6.23176
6.2895
4.23032
9.05972
3.9545
4.84133
4.42522
6.92965
5.06422
7.16124
6.06859
4.88462
3.7485
4.682
5.70503
5.40463
5.43999
7.86272
4.23213
7.13961
6.78929
5.75976
4.86444
5.22683
7.35348
7.10626
3.9248
4.65593
4.87449
