5.93241
5.16966
5.27743
6.73597
6.45228
6.14729
5.81264
6.30786
5.56693
5.97779
5.04554
5.98137
5.90986
5.94356
6.27517
5.21657
5.56057
5.17022
5.12508
5.79635
6.28915
5.50397
5.4442
5.157
5.49684
5.56277
6.12981
6.03463
5.72602
5.87648
5.93518
5.89147
5.84616
6.09025
5.41643
6.03527
6.9715
5.47938
6.63498
6.15695
5.35173
5.63993
5.17679
5.71228
5.96592
5.25536
4.9759
5.63067
5.63248
5.10779
5.68832
5.4445
5.8934
6.1825
5.67814
5.65354
5.7856
5.6298
5.12654
6.73771
5.91635
5.22024
5.9544
6.92104
4.96392
5.18541
4.95144
5.82418
4.69592
5.32258
5.85641
5.61926
6.50058
5.36451
5.42228
6.32957
5.39773
5.59784
5.79921
5.56063
5.82219
5.55081
4.98675
6.06517
5.58029
5.5757
5.69778
5.38496
5.36467
5.95571
6.1672
6.04866
5.99835
5.8968
5.27412
5.49403
5.31412
6.03444
5.60214
6.30857
5.68985
5.42073
6.15069
5.60875
5.08496
6.39392
5.86262
6.00556
5.88395
5.58564
5.3841
5.41892
4.65509
5.93445
6.16393
5.42958
5.53381
4.97095
5.37096
5.89621
5.93819
5.35337
5.36409
6.04768
5.30272
5.75955
4.93316
5.29193
5.54347
5.47561
4.98058
6.20941
5.6668
5.0835
5.52908
5.49711
5.25412
5.4934
5.73171
6.57525
5.56736
5.80397
5.57874
5.66839
5.21072
5.39921
5.79258
5.20995
6.05365
5.21733
5.88986
6.20093
5.39883
5.49993
5.13637
5.32186
5.37261
5.56705
6.62048
5.71773
6.378
5.93063
7.29251
5.03727
5.48563
5.69553
5.81855
5.96978
6.16777
4.97771
5.60841
5.1014
5.09673
7.58196
5.5105
5.42693
6.00217
5.8876
5.31373
5.64435
5.92089
5.67273
6.08429
6.18504
6.24941
5.24373
5.37015
5.3838
5.4621
5.95091
5.71023
5.52563
6.58777
5.64091
5.90699
5.71219
6.51278
5.92916
5.34999
5.25943
5.58629
5.67978
5.48377
5.94569
5.47753
6.80576
5.48241
5.27002
5.66192
5.83339
5.36622
5.53012
5.18849
5.56418
5.7165
5.79671
6.22914
5.68985
5.22231
5.81668
7.02954
7.40119
5.39132
5.62637
5.8615
5.40122
6.18301
5.4093
5.32065
5.92753
5.47809
5.53519
6.06555
5.71054
6.0069
5.88268
5.02155
5.76036
5.11437
6.0943
6.60267
5.61355
5.24004
6.05911
4.85263
5.32099
6.39168
5.08862
5.87274
5.69489
5.4443
5.63766
6.13531
7.54085
4.87858
5.79441
6.10162
5.46518
5.13876
5.6671
5.44735
5.42173
5.31101
5.42826
5.78038
5.54973
6.18549
6.75392
5.43975
6.02366
5.14642
5.48675
5.61797
5.52136
4.91326
6.22918
5.23681
5.60425
5.93292
6.25443
5.9706
4.48403
5.23729
5.41501
6.03613
5.37074
5.89197
5.60498
5.85837
4.89163
5.43693
6.21402
5.47623
5.33329
5.38529
6.22765
5.67906
5.18054
5.1939
5.67538
6.33799
5.50205
5.61735
5.3833
5.7136
5.72888
5.10171
5.96781
5.04873
6.10002
5.33236
5.65526
5.0626
6.14577
5.97521
5.79806
5.18758
5.79019
5.20353
5.9724
5.66005
5.50624
5.35645
5.31397
5.29279
6.16034
5.50253
5.40653
5.76069
6.83419
6.90679
5.87685
5.62342
5.02038
5.77525
5.26884
6.0375
6.96619
5.06966
5.42452
6.01654
5.39815
5.41708
6.12821
5.31502
5.30588
6.11472
6.64593
5.50886
5.98989
6.19441
5.19296
5.48905
7.25183
5.65025
6.1691
5.51762
5.80088
6.04599
5.94344
5.66031
5.89024
5.29804
5.6029
5.45879
6.13506
5.30368
5.6864
5.78243
5.70751
5.86299
6.46851
5.97286
5.27968
6.40265
5.88237
6.49415
5.311
5.74808
5.34651
5.63164
6.45169
6.13251
6.02007
5.10876
5.47558
5.49752
5.05346
5.55841
5.80287
5.42031
5.18521
5.07839
5.81566
5.588
5.1571
5.96841
5.92764
5.85415
5.76422
5.68996
5.03571
5.41868
5.98302
5.48591
6.12773
5.56438
6.27808
6.19384
5.94241
5.38834
5.30446
5.851
5.4889
5.43236
5.39631
5.36959
6.30541
6.02232
5.50013
5.10045
5.59756
7.0777
6.11327
5.65754
5.95632
7.39227
5.14422
5.92753
5.54527
5.86714
5.52791
5.70619
5.48545
5.29894
5.6662
6.03235
5.74233
5.02185
5.88196
6.43964
5.91767
5.40262
5.43787
6.64257
5.61256
5.22186
5.46315
5.74737
5.26253
6.98433
5.31962
4.79504
5.3188
6.1888
5.4296
5.44413
5.72305
6.41426
4.90329
6.00237
6.20553
6.20741
5.94932
5.17823
5.15208
5.42251
5.87217
5.57773
5.21959
5.38022
5.8154
5.49234
5.52221
5.83151
6.23489
5.89063
5.90155
5.34909
5.34949
5.94168
5.8375
5.17566
5.36521
6.97175
5.71741
5.26209
6.01657
5.21178
6.26633
5.72532
5.26048
5.98638
5.14945
5.92865
6.28022
6.1061
5.35424
5.41401
5.08392
5.82354
5.62409
4.93125
5.18552
5.88215
5.89836
5.60417
5.63272
5.08276
5.14061
5.55858
5.19573
5.72136
5.25913
6.21553
5.90133
6.59787
5.23895
5.05094
6.65276
5.93052
5.29868
5.21704
5.18074
5.46795
6.93945
5.60365
5.91855
5.31833
5.94382
6.53362
5.91405
6.16693
5.66527
5.17002
5.9287
5.75837
5.98998
5.71672
5.71994
5.57401
5.37274
5.54606
6.08139
6.35059
5.8586
5.37684
5.64484
5.96538
5.14062
5.35594
6.62429
5.78596
6.22516
5.38754
5.77514
5.57509
5.81577
5.12312
5.77411
6.20827
5.38918
5.6369
5.60429
4.70988
5.92647
6.15757
5.43165
5.89813
5.57478
5.90167
5.38718
5.80128
5.02859
6.53382
5.59629
6.18113
5.86014
5.71151
5.98747
5.66523
5.20547
5.9093
5.83001
5.11472
5.61526
6.60554
6.0241
5.61475
5.98462
5.26679
5.98184
6.26962
4.88462
5.8463
6.13501
6.07658
5.79654
5.31417
5.61492
4.93263
5.46571
5.08297
5.79311
5.43769
6.0129
6.21087
4.73562
5.83541
5.48095
5.99283
5.1553
5.58549
5.5101
5.52838
5.45067
5.12523
5.51228
4.87857
5.40774
6.10136
6.28285
5.39032
5.47433
5.37723
5.02505
5.75034
5.30263
5.59864
5.80918
5.36113
5.46756
6.07604
5.55979
5.41596
6.437
5.65446
5.95451
6.27338
5.83499
6.00509
5.97703
5.48845
5.96177
5.28887
5.89434
6.53209
5.3806
5.54614
6.866
5.18671
6.53355
6.44171
5.19038
6.10835
6.17554
5.75471
5.35234
5.53844
6.76606
5.80651
5.92047
5.39879
6.60653
6.17995
6.66869
5.56555
6.23753
6.03824
5.14902
5.79931
6.75799
5.74627
6.11319
6.53889
5.32222
7.09432
5.50455
5.00092
5.82126
6.25857
6.22479
5.26949
5.20267
6.74409
5.33008
5.94994
5.54219
5.60485
6.5561
5.48961
5.75872
5.37936
5.33982
5.80678
6.02677
5.81668
6.15109
6.05194
5.30546
5.9916
5.50088
5.60504
5.58958
5.79076
5.37735
4.96649
6.04655
5.20485
5.9965
5.94402
5.15662
5.2139
6.30978
6.00981
6.00742
5.03351
5.88563
6.87664
6.32383
5.68466
5.08776
5.13846
5.45449
6.45975
7.21544
5.63838
5.4775
6.24397
5.68059
6.31279
6.04239
6.69545
6.32127
5.67701
5.60289
5.68027
5.36305
5.54791
5.96019
6.3717
5.7185
5.42379
5.32772
4.92502
6.57934
5.81726
5.41198
5.71996
5.40977
6.52596
5.73151
5.00494
5.09535
5.63735
5.70061
5.94907
4.99333
6.75712
5.59383
5.9053
5.87619
5.82989
6.88514
5.38735
6.30648
5.55786
5.04783
6.77887
5.35054
5.56822
5.50554
5.35518
5.55127
6.13647
6.57322
5.88235
5.39877
6.04287
5.68976
5.68056
5.74647
5.95559
5.78358
6.06614
5.32369
6.9044
5.5605
5.29337
5.55406
6.06824
5.17452
5.95649
5.90479
5.65353
6.00902
5.62148
5.90081
4.90617
5.22273
5.74309
5.59653
5.26327
6.32377
6.98204
5.3396
5.43503
6.19743
5.47921
6.23753
5.52709
5.77584
6.28156
5.46388
5.78607
6.54804
5.37108
5.41408
5.96582
5.20582
5.86378
5.42998
5.12255
5.11278
5.27907
5.24388
5.86478
5.12194
5.53941
6.13043
6.19868
6.34445
5.60597
5.1765
5.53194
5.56608
5.73368
6.09923
5.75311
5.53865
5.80064
5.40158
5.84601
5.58796
5.83437
6.03069
5.12226
5.14713
5.7105
5.34442
5.81106
5.02274
5.92204
7.68798
5.93398
5.47202
6.9186
5.92909
6.88276
6.17823
6.16103
5.71673
5.67776
6.69305
6.22155
7.56898
6.29972
4.7593
4.90621
5.7878
5.74819
5.7236
5.83582
5.20532
5.47814
6.30235
5.74589
5.77199
5.60206
5.71226
5.80373
5.46563
5.33209
5.37316
5.67862
5.63106
5.21801
5.85297
5.75914
6.1167
5.70446
5.75817
6.11231
5.32955
5.78588
5.01294
5.17777
7.5724
6.95505
6.27635
5.63516
6.57801
5.01494
5.43469
6.85585
5.30927
6.28281
5.79307
4.88692
5.23769
7.02091
6.27504
5.44408
6.12322
6.97629
5.28705
5.58679
5.85552
5.03733
4.92535
4.84135
6.49572
5.61252
5.7335
6.20572
5.38021
6.16466
6.46496
4.61475
5.23252
6.01016
5.38588
5.7389
5.67988
5.77002
6.11932
5.3102
5.81826
5.1626
6.21619
5.84361
5.49459
5.96803
5.51046
5.81967
4.98127
5.43375
5.17603
5.40103
5.75233
5.39071
5.74254
6.35472
6.12588
5.6876
5.41779
5.65418
5.74563
5.22273
5.3496
5.52247
5.1812
5.88386
5.14907
5.07863
5.86435
5.62677
5.21288
6.02551
5.55911
5.63976
5.33949
5.91099
5.8598
5.19063
6.44991
6.44637
5.8463
5.12103
5.30708
5.5784
5.70404
5.13932
5.47923
5.32024
5.48722
6.13786
5.64778
5.33779
5.81299
4.73256
6.17176
6.08624
5.96828
5.7137
5.80162
6.60647
5.93871
5.39695
5.38603
5.32611
5.64819
5.84018
5.93599
5.87493
5.18258
5.39511
6.42501
6.22723
5.44485
5.66624
5.10421
5.44403
5.64058
5.94379
5.53357
6.42697
5.30044
6.54174
5.56734
6.31974
6.08638
5.78508
5.81946
6.39893
5.6971
5.87265
6.52958
5.19656
5.81468
5.75593
6.15999
5.49449
5.32954
5.78873
5.21743
5.65054
5.44303
6.30281
5.31041
5.00011
5.29929
5.63319
5.46822
6.01542
5.64345
6.31725
5.62376
5.52667
5.08707
5.35003
5.50951
6.25545
6.24257
5.66324
5.48525
6.72878
5.93931
4.94454
5.90159
6.66932
5.65346
5.54571
5.39241
5.35922
5.30598
6.27257
6.01634
5.9591
5.71441
5.557
6.07037
5.64508
6.0665
5.94007
5.69417
5.47907
6.12485
5.71977
5.43454
6.44285
5.94554
5.34454
5.53706
6.50787
5.83465
5.53703
6.32304
6.32612
5.50495
5.17612
5.32777
5.72537
5.47075
6.25695
5.92769
6.40872
5.61217
5.48427
6.43336
5.7705
5.4141
5.66123
5.74681
5.19559
5.61199
6.07407
5.50111
6.05161
6.469
5.46187
5.58406
6.31857
5.12864
5.56576
5.98334
5.38777
5.64796
5.61161
4.90739
5.54267
5.96945
5.42187
5.25897
5.95749
6.37848
5.88009
5.74079
6.21066
5.41096
5.29499
5.3526
4.99455
5.67568
5.7269
6.74249
5.86507
5.80151
6.2419
7.10321
5.57667
5.10951
6.55088
5.75499
5.41195
5.5585
6.10057
5.73009
5.2699
5.07281
6.1667
6.00929
5.72166
5.11581
5.04531
5.93948
5.99088
6.4681
5.70675
6.25343
5.89374
4.81264
6.04918
5.9098
6.53209
6.06994
5.8185
5.34197
5.18642
5.86412
5.26485
4.94727
5.60303
6.04805
5.35254
6.20301
5.31582
5.71761
6.62941
4.83128
5.72451
5.62133
6.33996
5.40876
5.80994
6.14682
5.76849
5.89448
6.28819
5.08508
6.63497
5.37981
5.82378
5.62222
5.34176
6.56759
5.53825
5.13542
6.28143
6.36049
5.6789
4.8415
5.64443
5.39327
4.92336
5.92597
6.25376
5.5859
5.4165
6.01082
5.56977
6.56466
6.32612
5.67709
5.30661
5.34677
6.25841
6.26366
5.62319
6.41376
5.50311
4.91953
5.9008
6.55103
5.73884
6.4452
5.67781
5.68651
5.48986
5.85775
6.00901
4.84486
6.18157
5.93393
5.60221
6.12959
6.56328
5.21055
5.81694
4.89328
6.29315
5.77798
5.56063
6.19029
6.27127
5.71109
6.86002
5.55991
4.85793
5.70427
6.10353
5.6577
5.69703
5.3784
6.38699
5.77675
5.73496
5.84909
5.30031
5.68744
5.30669
5.12315
5.79102
5.57287
6.53371
4.98443
5.26308
5.60681
5.08457
5.84192
6.11982
5.47708
6.14957
5.16248
5.78441
5.51944
5.81596
5.59001
5.18695
5.11743
5.31764
5.53366
5.52432
5.80419
5.86749
5.56453
6.76227
5.60058
5.93611
6.07219
5.06021
6.20037
7.03682
5.12613
5.72139
5.52635
5.98242
4.91397
5.55147
5.44464
5.92409
5.45327
5.88639
5.82887
5.46008
5.88805
5.71317
5.5663
5.10336
5.96918
5.62367
5.17217
5.27001
5.93618
5.75141
5.08603
5.69067
6.15208
5.2963
5.51806
5.43614
5.94964
6.28578
5.26126
5.21863
5.57782
6.33959
5.53523
5.32079
5.90107
6.19625
5.42437
5.83713
5.82165
5.99481
5.71745
5.64793
5.77084
5.58946
6.13193
5.64221
6.1463
5.62539
5.54357
4.98694
5.81269
5.57196
6.27232
5.64603
5.5152
5.79892
5.06305
6.48852
5.41554
5.91359
5.36405
5.61528
5.92539
5.57852
6.30785
5.7148
5.86291
5.97951
6.34684
5.09282
5.8245
5.09482
5.66998
5.1536
5.9795
5.83256
4.89477
5.71537
5.6577
5.72527
5.8434
5.9544
5.96695
5.97216
5.89273
5.34773
5.41156
5.24124
5.51057
6.16056
5.44115
5.34832
5.99473
5.54454
6.07066
6.22674
4.98885
5.54144
5.69826
5.73834
5.99635
5.70234
6.06485
5.95966
5.52136
5.35147
5.52668
5.33333
6.57989
5.86648
5.63448
6.33144
5.52025
5.48925
4.86189
5.73994
5.85857
6.22352
5.47288
5.38447
5.97279
5.58187
5.51313
5.71652
5.77676
5.81477
6.21101
5.33502
5.59393
5.56526
6.14417
5.61163
6.99483
4.85557
6.07654
6.02908
5.49749
5.82312
5.56454
5.59416
5.721
5.46423
6.06295
5.6308
5.36014
5.58507
5.77269
6.065
5.6787
5.19397
5.98766
7.07234
5.10345
5.7797
5.77235
5.57591
5.41091
5.19509
6.99902
5.87449
5.04589
5.98366
5.02576
5.72364
6.61739
5.69287
6.27404
5.67346
5.21586
5.63566
6.0152
5.64753
5.84754
5.52474
5.46252
4.89931
5.78653
5.5787
6.23546
5.44474
5.72999
5.64943
6.48079
5.93577
5.53353
5.60443
6.0067
5.32757
5.64551
5.65101
5.38915
4.79799
5.56464
5.73458
5.16568
5.72692
5.46446
5.3818
5.13636
6.13091
5.73766
5.52259
5.11634
5.709
6.02954
4.83137
5.57579
5.67721
5.69434
5.89911
6.58377
5.95433
5.66117
5.70092
5.54166
5.02367
6.26438
5.43858
5.37914
5.67992
5.94814
6.57395
6.17706
5.83805
5.89905
5.12932
6.44896
6.40858
5.48467
5.18254
5.6148
7.35944
5.96929
5.88874
5.89269
5.6942
5.1141
5.73946
5.5558
6.17862
5.86418
5.92218
5.4298
5.77717
5.58267
5.28457
5.86666
5.84643
6.24633
5.59475
4.94656
5.60668
5.95699
6.31895
5.11573
5.72192
5.66065
5.16773
5.76591
5.39734
5.81676
5.8912
6.40485
5.98473
6.13207
6.98905
5.84586
5.68699
6.06386
5.97028
5.48533
5.64139
5.56398
5.38885
5.52502
5.51722
6.63272
5.39629
5.72902
5.52592
5.55569
5.12946
4.91622
5.08213
5.85427
6.33434
5.86837
6.14326
5.76137
6.09942
6.68608
5.64328
5.61267
5.40534
5.29318
5.26713
5.41047
5.46895
6.24728
6.47586
5.50375
5.55696
5.61297
6.76351
5.78836
5.41759
5.51593
5.51005
5.49593
5.26151
5.56283
5.81173
5.69556
5.87152
5.19578
5.59607
5.60034
6.01697
5.54317
7.06001
5.18866
5.61672
5.17028
5.21234
5.85842
5.86786
4.9918
5.9032
5.34198
5.83305
5.29087
5.69027
5.86397
5.99878
5.72096
5.37453
5.25546
5.63111
5.73557
5.00594
6.09557
5.85733
5.50229
5.76585
5.74727
5.00081
4.93882
5.27945
5.4552
5.59699
5.72794
5.38588
5.36346
6.15752
5.31649
5.17187
6.49047
5.12603
5.13165
6.23195
5.4813
5.59957
5.5012
6.4302
5.59829
5.96695
5.98129
5.68323
5.36078
6.27667
6.07645
5.43154
4.99859
5.84549
5.99826
6.24768
6.08882
5.6817
5.64716
6.4738
5.11417
5.22707
5.7991
6.1749
5.59579
5.67558
5.52231
5.08222
5.6263
5.70236
5.6727
5.88073
5.96303
5.35694
5.93571
5.51694
4.89597
6.02922
5.3632
5.06157
5.60042
5.50336
5.77046
5.05318
6.03746
5.40894
5.93311
4.63613
6.25462
5.20369
5.38054
5.29348
5.76461
6.57507
5.27556
5.35772
5.54631
5.59242
6.32297
5.31613
5.48928
6.28536
7.23053
6.05985
5.68853
5.54865
5.39939
5.83689
5.65923
5.156
5.31628
5.48235
5.39818
5.49959
6.27333
5.37229
5.8347
5.5086
5.65851
5.55617
5.82776
4.97915
6.17366
5.24557
5.95752
5.33312
5.69995
5.44818
5.00211
6.16917
5.76502
5.64653
5.60611
5.36155
5.4043
5.76757
5.39224
5.50123
5.51155
5.88241
5.66136
5.47563
5.69303
5.59931
5.5906
5.68768
5.38002
6.16949
5.61348
4.97296
5.51579
5.71556
5.5916
5.46858
5.71695
6.30778
5.54956
5.50036
5.55825
6.09351
6.18726
5.10817
5.58112
5.7096
5.05928
5.2763
5.41889
6.07773
5.77985
5.45424
5.62009
5.63924
5.69231
5.36076
6.05119
5.7869
5.74742
5.92751
5.50056
6.3397
5.08002
6.69998
5.29832
5.46528
5.38834
5.45505
5.13999
6.27412
5.6385
5.63902
4.94299
5.53612
5.50004
6.13338
5.37738
4.94257
6.06114
6.73513
5.83581
5.53304
5.29132
5.41879
5.09404
5.24359
5.9049
6.25636
4.97556
5.2458
5.42449
6.65909
5.56774
5.35428
5.51521
5.83213
5.37644
5.41706
6.09102
6.74205
5.67564
8.37533
5.3767
5.55999
5.77906
5.56699
5.43494
5.56781
5.39742
5.80006
5.21197
5.33059
4.85805
5.00775
6.20151
5.63964
5.89147
4.92017
5.72066
5.36452
6.05459
5.63706
5.30418
4.97478
5.47196
5.57648
5.71894
5.96236
5.44116
5.2104
5.3232
5.59999
6.15955
5.80887
5.1637
6.36357
5.95763
5.53186
5.99145
5.36156
5.5357
4.86109
5.15938
6.74289
5.28774
6.17947
6.36533
6.28562
6.44915
5.39299
4.81039
5.93328
6.18998
5.43001
5.45516
5.42753
6.45296
5.77902
5.28938
5.77661
5.61924
5.42681
5.80475
5.51507
6.95419
6.21047
5.30416
5.11431
6.31483
5.74396
5.60481
5.64624
5.69121
7.04324
5.91695
5.99705
5.43353
5.45305
6.86725
5.56571
5.23135
5.48362
5.49534
5.3968
5.64023
5.15174
5.8837
5.86164
5.90041
5.36577
5.32142
5.97084
5.32924
5.05721
5.70383
5.80316
5.73904
5.66515
5.80408
5.09145
6.00909
5.50435
6.52818
6.58266
5.80811
5.41616
6.22138
5.76924
5.43192
5.64452
5.10067
5.42179
6.24914
5.70268
6.21587
6.36855
5.95154
5.9602
5.41768
5.78559
5.25604
5.3301
5.78848
5.40171
5.27678
5.71481
5.04368
5.48825
5.05036
4.75885
5.582
5.59559
5.64527
6.07538
5.11155
6.35734
5.15233
5.26444
5.48955
5.04158
6.49764
5.75701
6.01315
5.41296
5.23111
5.44326
5.77266
5.66639
5.74959
5.66666
5.91597
5.80641
5.63998
5.82855
6.24347
5.93761
6.48774
5.271
5.66634
5.75956
6.22371
5.74977
5.9344
5.03094
5.8783
5.45492
5.99148
7.36031
5.66999
5.87735
6.41596
5.70474
6.04195
5.87091
5.90359
5.678
5.26733
5.76143
5.22249
5.28598
5.72593
5.39812
6.27386
5.96238
5.66641
6.19237
6.17343
5.73947
6.06753
5.13859
6.34104
6.93558
5.91256
5.99754
5.31632
5.46658
5.98651
6.68476
5.67243
5.89386
5.46019
6.55293
5.00668
5.75448
5.89403
5.70098
6.06243
5.90996
5.16442
5.43667
6.13388
5.76659
5.30696
5.38082
6.1108
5.92205
6.42193
5.51558
5.49896
5.46632
5.81022
5.02667
5.46146
6.26965
5.0154
6.49137
4.89559
5.80996
5.03783
5.70643
5.1625
5.60256
5.33598
5.59583
5.47859
5.46741
6.48106
5.71891
5.50699
5.40597
5.7302
5.63588
5.63154
5.93996
5.45979
5.54676
5.20197
5.15085
5.53711
5.42551
5.89988
5.35849
5.66469
5.65466
5.61819
6.47148
5.70859
5.19564
5.17953
6.23983
5.46746
5.82169
5.47785
5.84857
5.54628
5.24406
4.9645
5.14537
5.68327
5.93043
5.54461
5.71761
5.37007
5.34161
5.53869
5.80675
5.54488
6.06241
5.81828
5.54529
6.07563
5.73175
5.54903
6.39394
5.79001
6.02073
5.18034
5.22432
5.47798
4.96039
5.94552
6.52924
6.1146
5.21067
5.62771
6.41579
5.51249
6.15982
5.25055
6.49072
6.24626
5.66263
5.2954
5.2027
5.91136
5.9453
5.85254
6.029
6.16265
5.33929
4.82757
5.68402
5.47559
5.83916
6.37559
5.40872
5.23769
5.26251
5.651
5.20892
5.18808
5.23054
5.58593
4.90934
5.80812
5.7018
5.69379
5.4972
5.00891
5.61111
5.38816
5.71306
5.76134
5.82014
6.0879
5.3255
5.4587
6.07215
5.55648
5.93572
5.8514
5.28363
5.96258
6.22894
6.3602
5.86393
5.22776
5.10713
6.49183
5.9038
5.05932
5.83764
5.93731
5.90749
5.93755
5.24265
5.16862
5.85795
5.60804
5.64251
6.06554
7.13003
5.33408
5.46806
5.42795
5.98933
5.55884
6.29038
6.07362
5.19629
6.4498
6.47436
5.60429
5.28213
5.17032
5.98748
5.39711
6.56497
5.58816
5.37067
5.75445
5.61585
6.28227
6.20549
5.76991
4.84966
5.3654
6.25073
5.39219
5.52872
5.24437
6.53915
5.42956
5.36349
5.9085
5.86092
6.80507
5.42242
5.46267
5.13649
5.81678
4.90536
5.83256
5.43185
5.37908
5.38992
5.30027
5.95949
6.61221
6.46201
6.19788
4.81063
5.13006
6.61153
6.80848
5.36948
6.25447
5.85283
6.10261
5.72672
5.80636
5.38297
5.80904
5.00152
5.4744
5.59389
5.61788
5.41391
5.57141
6.14892
5.79562
5.6329
7.01986
5.61068
5.35509
4.97661
5.09438
5.79488
5.78801
5.84456
6.32317
5.4375
5.55654
6.55255
6.00941
5.62172
5.58407
5.8843
5.63302
6.47393
5.83724
5.28303
5.48024
5.78082
5.32568
5.25865
5.93479
5.88388
5.47402
4.74677
5.46561
5.50403
4.97586
6.97101
6.06729
6.56395
5.76906
5.22847
5.46489
6.18283
6.20352
6.20547
6.38533
5.9329
5.47688
5.72984
6.32989
6.24499
5.36414
5.27262
5.27914
5.08332
6.27226
6.01808
5.67179
6.03333
5.80408
5.1438
5.76604
5.56574
5.21885
6.09971
5.54872
6.195
5.42917
5.62478
5.11829
5.49327
5.52897
5.516
5.85783
5.33505
5.94257
5.93875
5.28083
6.06619
6.25555
5.6949
5.63005
5.75215
5.77518
4.86263
5.58297
5.34961
5.06994
5.08877
5.2213
5.20148
5.04742
5.31616
5.7933
5.63913
6.52555
6.00771
5.48477
5.66549
5.81911
5.42769
5.5512
5.2247
5.68612
6.47573
5.47312
5.727
5.3999
5.26774
5.31732
5.63419
5.76099
5.37151
5.80422
5.6138
5.9648
5.95151
5.57212
5.41836
5.1637
5.57223
5.47793
5.63762
5.58054
5.523
6.12491
5.51827
5.64629
5.56097
5.1525
5.19965
5.26907
5.53436
5.80344
5.59909
6.14953
6.55527
5.91019
5.82214
6.14608
5.24791
5.83227
5.79766
5.09198
5.58442
5.82078
5.97861
5.44052
5.49221
5.19196
5.58621
5.63458
6.48528
6.36007
5.61377
5.3955
5.66381
5.90249
5.90229
5.54571
5.38009
5.37061
5.156
5.57196
6.25557
6.04961
5.66533
6.66545
6.88903
5.79309
5.40519
6.08917
5.99503
5.62474
5.88082
5.55466
5.6889
5.38114
5.86753
5.5478
5.52434
5.7343
5.55094
5.19189
5.19822
5.67284
5.31425
6.75194
5.03413
6.14004
5.51644
5.64563
4.645
5.73072
5.37932
5.14434
5.40909
6.15198
5.66264
5.48434
5.38304
6.95691
7.18358
5.10275
6.45946
5.55905
4.80631
5.31516
5.69178
5.43534
5.63922
5.35901
5.66603
5.95911
5.53587
5.86938
5.3
5.58345
5.93964
5.07205
5.78516
5.38593
5.32819
5.90898
6.25499
5.56466
5.8046
5.57364
5.40772
5.32881
5.48752
5.93733
5.71772
5.06547
5.52437
4.47069
5.80879
6.03602
5.25691
4.79049
6.0665
5.75914
5.20999
5.0947
5.36041
6.06854
5.89777
5.40281
5.13536
5.4588
5.41093
5.43047
5.30493
6.20433
5.55698
5.47066
5.99782
5.8124
5.69944
5.02217
5.62236
5.28282
5.44931
6.03461
4.97512
5.30861
5.2263
5.58342
6.1695
6.3473
5.51542
5.43145
7.53376
6.02308
5.19563
5.71173
5.98059
6.65295
5.41985
5.36603
5.97866
5.76641
5.39313
5.10366
5.42802
5.76212
5.36599
6.04601
5.97574
6.74489
5.1488
6.05472
5.62739
5.90769
5.51907
6.28418
5.8327
5.0909
5.92791
6.07872
5.18938
6.12375
5.3139
5.45452
5.7416
5.6483
5.44542
5.78519
5.85819
5.39972
5.93158
5.63682
5.74062
5.80931
5.50275
5.84937
5.70801
6.14246
6.04915
5.87633
6.9092
6.01487
5.90854
6.44796
5.97419
4.92484
5.593
6.66017
5.8837
5.20143
6.60748
6.2902
5.80437
5.91074
5.84395
5.88425
4.80429
6.77128
5.8615
5.35743
5.10359
5.77223
6.31324
6.45034
6.24044
5.90951
5.66302
5.69999
5.37893
5.99216
6.08734
5.74777
5.2652
5.21097
5.96642
6.38885
5.72568
6.57061
5.40926
6.12112
5.64319
5.72816
6.21914
5.49282
6.3679
5.56803
5.40033
5.40437
5.50481
6.63776
5.68555
5.16364
6.27279
5.40196
5.28306
6.85022
5.1432
5.15462
5.60182
5.26667
5.92901
5.36137
6.17233
5.04986
6.49295
5.6311
5.50193
5.89201
5.60087
6.14725
5.79125
5.83394
5.3093
5.65301
5.47522
5.05384
5.4354
5.56589
5.5559
5.66329
6.07319
5.60684
5.37496
5.48452
6.13693
6.6267
5.97187
6.0752
5.26113
6.20488
5.6435
5.5896
5.36456
5.88439
5.66918
5.70067
5.23594
5.25673
5.7884
5.11507
5.65438
5.56085
5.42084
7.15229
5.77645
5.50615
5.59339
5.58031
5.133
5.96238
5.43652
5.66414
5.56318
4.976
5.29807
6.0423
6.07191
5.58728
5.47525
5.90538
5.04999
6.60359
4.91246
6.40371
5.50107
6.62832
5.51003
4.78094
5.18909
5.68455
5.64429
5.26847
5.80669
5.63395
5.32872
5.69425
5.88879
5.79825
5.03579
5.73756
5.99303
5.45727
6.12735
5.45888
6.03078
5.78437
5.21239
5.90181
5.33922
5.79344
5.98348
5.92146
5.64588
5.53723
5.15267
5.62428
5.79772
6.51237
5.60565
5.74186
5.89389
5.88703
5.37428
6.32761
6.30674
6.02297
5.80601
5.42921
5.37243
6.5319
5.03921
5.50783
5.33231
5.55086
5.73156
6.04779
5.48434
6.26564
5.53071
5.35038
5.72511
5.67204
5.19039
5.78229
5.80917
6.5833
5.20251
5.98244
5.65977
5.20931
5.31864
5.94868
5.5374
5.14665
5.78783
6.18247
6.20724
5.98836
5.66081
5.79737
5.39318
5.04227
6.10045
5.90048
5.18292
6.44671
6.01948
5.05922
6.14862
5.75802
5.39526
5.9425
5.71757
5.4788
5.9153
5.16852
6.0419
4.86863
5.58804
6.47132
5.78674
5.49361
4.91095
5.46789
5.64437
5.36633
5.75149
5.40734
5.60736
6.03682
5.76353
5.0774
4.97989
5.44345
5.205
5.57268
6.41552
5.91423
5.49429
5.4833
6.71569
5.84794
5.60395
5.44778
5.98943
5.98655
5.95767
6.05478
5.91181
5.80099
5.31835
6.49265
5.45949
5.31143
5.31302
6.63661
6.33487
6.20608
6.33074
6.35511
5.58902
6.13171
5.47097
5.33828
5.91189
5.72317
5.30194
5.18695
5.43277
5.32457
5.56196
5.93679
5.79661
5.1733
5.4911
5.39075
5.64461
6.75876
5.8184
5.37522
5.95973
5.83722
6.39938
6.4525
5.3134
6.08486
6.07771
5.14911
6.21978
5.31921
5.64024
6.47153
5.29701
5.74816
5.45043
5.93841
5.51998
5.40676
5.45243
6.15561
6.33518
5.3301
6.09922
5.30545
5.96913
6.16752
5.87748
6.53237
5.17955
5.56915
5.50258
5.85046
6.03812
5.59115
5.95978
5.50774
5.91933
5.98648
6.63304
5.79734
5.40882
5.7001
5.46968
5.45195
5.89581
5.309
5.48889
5.99607
6.18646
5.34316
5.73945
5.78645
5.12565
5.01363
5.34914
6.15836
6.11106
5.67038
5.54587
5.82014
5.73584
6.04056
5.62574
6.14089
5.44585
5.14008
5.32603
6.05433
5.83566
5.58991
5.3412
5.92191
5.77756
6.03741
5.50786
6.64319
6.03709
5.84908
5.65054
5.35618
5.60287
5.5582
5.53522
6.95447
5.2113
5.60057
5.73499
5.33422
6.63091
5.78269
5.89855
5.69519
5.30776
6.56988
5.4852
5.84495
5.91398
5.39846
6.15551
5.57243
5.42671
5.9798
5.69893
5.72961
5.17305
5.51135
6.10147
5.57556
6.5312
5.78731
5.2227
5.52925
5.3228
4.8156
5.70657
5.12792
5.27942
5.20081
4.98133
5.67524
6.32797
5.18645
6.19577
5.99874
5.60048
5.66426
5.68816
5.72989
6.40412
5.90734
5.15541
6.11803
5.43721
5.76722
5.29537
5.63088
5.89691
5.49013
5.41225
5.93214
5.4448
5.39647
5.59743
6.37833
5.60027
6.39241
5.43616
5.42084
5.53725
5.72657
5.85122
5.62361
5.82075
5.55949
5.3051
5.49324
5.66331
5.67002
5.46726
6.05699
5.01977
5.873
6.17078
4.77833
4.98105
5.10839
6.36483
5.48024
5.45356
5.15103
5.86357
5.38857
5.63048
5.59532
6.27475
5.66739
6.54346
6.32471
4.90107
6.30522
5.20702
6.15802
5.71862
6.09434
6.02881
5.87042
5.46301
4.72704
5.68139
5.70867
5.80096
5.00727
5.91316
6.30326
5.34568
5.46999
5.42488
6.14475
7.33213
7.00855
6.4574
6.42065
6.03372
5.32468
5.10619
5.62479
5.30576
5.75262
5.28839
6.10409
5.58668
5.80577
5.09586
6.49757
5.22257
5.96
5.92631
5.50057
6.36411
5.60925
5.81294
5.32929
5.17411
5.42034
5.81309
5.20922
6.04091
5.13562
7.02377
5.70276
5.78062
5.46496
5.89147
6.33302
5.14887
4.98078
5.3962
6.03658
5.93656
6.29965
5.64234
5.06251
5.917
5.65564
5.58527
5.15244
5.95233
4.79681
5.23267
4.92526
5.64026
5.90119
5.40416
5.9304
5.65496
5.68251
5.48379
5.67997
5.69135
5.43103
5.40149
5.44018
5.82192
5.82577
5.57675
5.5179
5.52016
5.70261
4.95033
5.97621
6.61344
5.84529
5.34551
5.47966
6.57887
5.18187
6.09492
5.22365
6.30514
6.13257
5.42767
5.75123
6.21675
5.56734
6.69604
5.64665
5.89628
5.51433
6.08236
6.41391
5.39104
5.08369
5.83354
6.01332
5.50012
5.40239
5.61619
5.95461
5.83803
5.63825
5.2837
5.35424
5.74987
6.31066
5.03924
6.09728
5.85848
5.64802
5.96473
5.15993
5.33418
5.84353
5.14583
5.82192
4.82163
5.62862
4.74783
5.03876
5.5707
5.77894
5.52299
5.23394
5.6506
5.36712
5.30388
6.07281
5.18573
5.38351
5.60606
5.81545
6.52566
5.6459
6.07833
5.92521
6.22103
5.30174
5.73799
6.14922
5.72102
5.41606
5.53766
5.26116
5.08358
5.44996
5.86783
5.65134
5.43674
5.8993
5.27117
5.10536
5.56343
5.24366
5.57728
4.95132
6.02796
5.59662
5.38202
5.9927
5.90167
5.33376
5.52025
5.47303
5.3934
5.50252
5.55376
5.57752
5.41754
4.91192
5.74
5.13747
6.60336
6.02831
4.57397
5.67657
5.24734
4.72356
5.31765
6.04843
5.99488
5.20932
5.59794
5.21696
5.3606
5.78206
5.52432
5.82462
5.50685
5.34188
5.64118
5.47314
5.03781
6.53649
5.87304
5.90964
5.90618
5.79961
5.07401
5.38368
5.78867
5.82835
5.57743
5.84333
5.78821
6.57879
5.52533
5.97896
5.41728
5.22632
5.45723
6.35972
5.34492
5.7044
5.35214
5.56665
5.93479
5.89217
5.29993
4.94987
6.3959
5.95648
6.02691
6.92187
5.76378
5.13489
5.1877
6.40212
5.98844
5.56916
5.38532
6.00604
5.90264
5.12673
5.54749
5.08196
5.7367
5.41973
6.50439
5.43777
5.52426
5.48036
6.31799
5.87358
5.73934
5.67176
5.22258
7.2774
5.59186
4.91821
5.74303
5.36418
5.50846
5.61909
5.74322
6.19757
5.90899
6.2034
5.91814
5.74604
5.83285
6.63783
5.46178
5.35729
5.77281
5.45024
5.85639
6.42565
6.2784
5.66471
5.67695
6.01825
5.2326
6.35757
5.77528
4.8099
5.3787
5.78217
5.43677
5.6332
5.35783
5.83516
5.57837
5.56633
6.25478
5.53932
5.44825
6.26119
6.19254
5.75683
5.70359
5.77676
5.54142
5.85329
5.65393
6.77345
5.92317
6.39185
5.97214
5.23505
5.75167
5.82841
5.69346
6.15628
5.55541
5.90076
6.34252
5.2384
5.40897
5.89979
5.74236
6.46213
5.30174
5.09755
6.32963
6.57786
5.27021
6.46301
5.67417
5.64627
5.59846
6.10788
6.14345
5.80794
5.68178
5.39674
5.02939
5.29443
5.28263
5.65575
5.73085
5.28765
5.74739
6.79153
5.71732
5.79959
5.41363
5.64267
5.37781
5.77829
5.91455
5.70171
6.13315
5.32947
5.75771
4.96241
6.37883
5.7351
6.90374
5.59493
5.6604
5.90975
6.49902
6.28354
6.05963
5.96767
5.72702
4.8968
5.35982
5.78305
6.03817
5.85625
5.13976
5.7557
5.83397
5.96398
5.31706
5.32414
5.81276
6.02053
6.04554
5.56661
5.74409
6.53024
5.27038
5.71724
5.02587
5.63768
5.98967
5.48191
5.94297
5.99536
7.91606
5.4512
5.23485
5.60545
5.88397
5.39399
5.97521
4.97532
5.27965
5.38586
6.08653
5.76722
5.86394
5.71715
5.01034
4.94855
5.35649
5.43059
5.95844
5.19838
5.70254
5.16244
5.52606
6.39671
5.49351
5.15136
5.41768
5.48484
5.33529
5.1153
5.37039
5.32288
5.65998
5.65935
5.77632
5.3106
5.72904
5.41643
5.37332
5.45761
5.11147
5.50157
5.93567
6.48278
6.10825
5.29439
5.54589
5.54185
5.72014
5.53844
5.72997
5.02516
5.62026
5.98975
5.52753
6.04431
5.69902
6.10856
5.4631
5.63268
5.63181
5.47913
5.53564
5.59623
5.57809
5.91443
5.72961
5.81207
4.76719
5.8926
5.7714
6.21051
5.94447
5.23442
5.8996
5.36901
5.6493
5.98883
5.32381
5.55032
5.53266
5.32821
7.39144
5.52143
6.66329
6.23319
5.97804
5.49308
5.87395
5.98637
5.99567
5.61106
5.30118
5.4796
5.60111
6.52978
5.63442
6.21686
5.89216
5.43924
5.82897
6.25124
5.87153
6.39062
6.4433
5.15649
5.46628
5.92232
5.4477
6.10292
5.34801
6.12883
5.10299
6.21036
5.2059
5.81609
6.29204
6.02257
6.32559
5.52963
5.35441
4.97897
5.73519
6.79639
7.18128
5.65961
6.8656
5.39966
5.68557
6.05383
6.33456
6.60423
5.32832
5.83422
5.64023
5.93019
5.84412
6.23599
5.42932
5.77268
5.87728
6.03997
5.47817
5.61012
5.82592
6.26995
5.79045
5.77487
5.5115
5.20406
5.12749
5.5092
5.82527
5.97496
5.3278
5.84202
5.42628
5.36885
6.20674
5.53111
6.21672
5.79357
5.54874
5.31407
6.00565
5.52402
6.02248
5.36986
4.73557
6.2048
5.38997
5.6901
6.42018
6.68402
6.28243
6.26959
5.56698
5.65258
6.27621
5.1334
5.61365
6.88848
5.82307
5.62582
5.85297
5.1553
5.93453
5.98936
5.1728
5.46829
5.15643
5.48426
5.06647
5.16494
6.33429
5.72725
5.12573
6.07218
5.33114
5.15497
5.43108
6.34062
5.87903
7.14503
5.403
5.73864
5.73203
5.14681
6.328
6.00879
5.79784
5.93339
6.67562
5.17193
5.67536
5.93349
5.644
5.45872
6.02083
5.02969
5.92147
6.21472
6.12396
6.21173
5.56732
5.49473
5.84029
6.13315
6.19355
6.0592
5.79445
5.16145
5.47106
5.72975
5.8661
5.44536
5.96467
5.66681
5.69932
5.80241
5.61223
5.86252
5.12254
5.23096
5.28818
6.07341
6.05087
5.6183
5.86954
5.29039
5.8593
5.97108
6.27975
5.69998
5.26943
5.84375
6.48225
5.81842
6.24129
5.97356
5.82925
5.50532
5.94979
5.49333
5.49332
5.77296
5.71332
5.96693
6.16907
7.24165
6.9127
5.87296
5.963
5.33563
6.42952
5.61869
4.95775
6.04335
5.55012
5.41768
5.66076
5.51362
5.60839
5.4125
5.41502
5.29609
5.18504
5.44483
6.38328
6.22446
5.40873
5.60015
5.43935
6.11903
5.99507
5.63606
5.4597
5.80401
5.97114
5.58403
5.38899
5.23177
5.53275
5.42035
5.50971
5.89141
6.13863
5.03105
5.31439
6.52558
6.34509
5.87194
5.48279
5.17641
5.82675
5.26781
5.18494
5.26336
5.58734
5.82693
6.77675
5.67982
5.61623
5.74452
5.99827
5.60515
5.3432
5.73361
5.7464
5.83031
5.69894
5.36151
5.79235
7.64145
5.87884
5.23794
5.76767
5.91932
5.33226
5.36446
5.76496
6.57098
5.65978
6.03319
5.65323
7.05302
5.77714
5.3304
6.21882
5.32431
6.08737
6.11566
5.87563
5.06366
5.7661
6.05801
5.06687
5.27595
5.64976
5.8908
5.61006
5.6695
5.60212
5.52828
6.39269
5.38658
5.61306
5.00996
6.24561
5.83545
5.9422
5.63517
5.3206
6.03131
5.5825
5.81769
5.05481
5.76253
5.10406
6.02764
5.65341
5.24936
4.88514
5.96389
5.93918
5.57561
7.02697
5.5478
6.05667
6.3836
5.72415
5.69114
5.57706
5.61221
6.28779
5.37394
5.90635
5.86451
6.57546
6.04886
6.36425
5.95684
5.47189
6.4638
5.13469
5.19094
5.83558
5.7173
5.91552
5.9151
5.88591
5.97176
6.16914
6.12567
6.64387
5.92589
5.29448
5.97805
5.38111
5.83945
6.12929
5.47316
6.10346
5.29859
6.15179
6.07175
5.89528
5.31645
5.16042
5.59373
5.49389
6.43286
5.84995
5.22943
5.58256
6.05586
6.56193
5.73701
6.86278
6.46812
6.53168
5.423
5.77666
5.51704
5.86883
6.46017
6.3106
5.81077
6.16612
5.75739
5.36507
5.76706
5.39518
6.28104
5.27528
6.0494
6.13503
5.25904
5.40254
5.14431
5.83266
5.72671
6.25523
6.20388
5.72061
6.08705
5.33064
5.26664
6.4205
5.53786
6.21899
4.91106
5.96596
5.49918
5.64865
5.68293
4.91135
5.76481
5.45572
5.87941
5.86502
5.4412
6.03129
5.62692
5.90085
5.51131
5.50323
6.05673
5.90776
6.66212
5.31318
5.65963
5.67879
5.79671
5.33035
5.49796
5.32137
5.1622
5.90572
6.32134
6.32141
5.93395
5.09155
5.04477
6.76168
5.83878
6.2891
5.46129
6.06225
5.71993
5.59569
6.20484
6.10343
6.55724
5.20182
6.30054
5.70068
5.27272
6.53198
5.57568
5.4689
5.43518
5.12862
5.44318
5.40518
5.95648
5.58518
5.60569
5.65151
5.91165
5.67978
6.64577
5.72706
5.25043
5.56258
5.72529
6.2391
6.05867
5.86315
6.1652
5.86901
5.49887
5.61776
5.41979
6.12813
5.4636
5.57828
5.62093
5.42902
5.87365
6.72523
5.66763
6.04315
5.17808
6.46723
6.51668
5.31138
6.70849
5.90939
5.57495
5.31143
6.51388
6.09683
6.00767
5.61244
6.05131
5.82437
5.72862
6.35232
5.61649
5.54056
6.14426
5.57022
6.00273
5.13643
5.79796
5.10723
6.07278
5.91844
5.56274
6.36278
5.67677
6.4998
5.66954
5.85953
5.94744
5.69923
5.57442
5.54766
5.78213
5.44804
5.41348
5.26568
6.04032
5.05909
4.9747
6.54309
5.39431
5.82661
5.12898
6.12133
7.0092
5.38607
5.70071
5.63648
7.24157
6.72725
6.25072
5.06495
6.04077
5.20778
5.8909
5.8615
5.66096
5.76536
5.65862
5.33539
5.76094
6.0056
5.3347
5.4827
6.38176
5.80916
6.63224
5.72876
6.4396
6.2813
5.78522
5.25017
5.18465
5.604
5.22611
4.932
5.62374
5.62333
5.76822
5.23148
5.53077
6.18686
5.15559
5.26753
5.27091
5.31885
5.26879
7.89931
5.49563
6.15168
5.714
5.62001
5.5295
6.02258
6.42141
6.09429
6.39119
6.31069
5.91747
5.75597
4.93692
5.75966
5.82695
5.59667
5.26145
5.83069
5.71048
5.61672
5.714
5.61532
6.1628
5.50726
5.16928
5.79069
5.3651
6.44594
5.5782
5.76333
6.16359
5.32415
5.70056
5.37595
5.71628
5.12829
5.34092
5.69849
5.36159
5.46735
5.94374
5.81178
6.616
5.25502
5.15699
5.42755
6.27979
5.45012
5.64033
5.62667
6.26051
5.48911
6.00558
5.99952
5.33509
4.93078
5.73984
6.17782
5.55761
5.38515
5.34818
5.37478
6.06708
5.2775
5.23716
5.80562
6.18168
5.48785
6.14224
5.82042
5.21374
5.55294
6.53546
5.82557
6.94247
6.27516
5.31304
5.92221
5.12833
5.22499
5.77023
6.92774
5.53643
5.84148
5.60603
5.55992
6.10736
5.90033
5.28417
5.28552
5.15696
5.24487
5.40175
5.40346
5.48019
5.39263
5.5485
5.39622
5.17014
5.54486
6.25759
5.77743
6.38214
5.85662
6.06735
5.57009
5.029
6.26608
5.38861
5.39497
5.85013
5.92593
5.86388
7.05572
5.43317
5.37973
4.97338
5.73826
5.54397
6.17255
5.21739
5.29958
5.42309
5.96264
4.8103
5.35217
6.40521
5.55634
6.08855
5.86507
5.93573
5.1642
5.57083
6.43666
4.92868
5.64516
5.31582
5.94535
5.69738
6.02834
5.96963
5.39913
5.13751
6.29581
5.59386
6.55229
6.6273
5.41581
5.81937
5.27471
5.32059
5.89678
6.00497
5.73402
6.2339
5.76009
6.39283
6.306
5.17974
6.50358
5.60511
5.5642
6.16028
5.30706
5.55685
5.47685
5.96938
6.49075
6.0859
6.19202
5.9182
5.65409
5.1705
6.28147
5.78565
5.69993
6.12981
6.06208
6.25687
5.50317
5.74495
5.86915
5.39584
5.4417
6.24704
5.4516
5.71585
6.24192
6.13097
5.27686
5.73537
5.66037
6.14508
5.70817
5.88937
5.94508
5.35195
5.28636
6.25192
5.48317
5.34754
5.68707
5.37354
5.39066
6.09064
5.31291
5.78655
5.26426
5.23998
5.20377
5.58491
6.36078
5.41584
5.7729
6.07331
5.03273
5.66855
5.64816
6.40451
6.07239
5.21934
5.49235
6.36665
5.73205
5.96686
5.5022
6.08777
5.52161
6.74194
6.41988
6.05025
5.23832
6.08087
5.45095
5.33524
5.17307
5.15505
6.8335
5.82142
5.43243
5.64038
5.50431
6.45882
5.33118
5.43663
5.85406
5.4987
5.71729
5.39697
5.55106
5.31404
6.15701
5.00921
5.71437
5.67928
5.40028
6.67943
5.60749
5.04013
6.45123
5.46769
5.3132
5.2799
5.83857
5.29723
5.3881
5.91765
5.62624
6.36199
7.69457
5.74367
5.95252
5.93241
5.21035
6.24053
5.07678
5.74596
5.37546
5.74354
5.45761
5.45525
5.83331
5.32013
5.43999
5.20868
5.65334
5.46666
6.51722
6.14489
5.49963
5.82588
5.52075
5.93535
6.20225
5.85832
5.23944
5.49179
5.3573
5.7974
4.90025
5.6608
5.67439
6.16734
6.29183
5.53426
6.46613
5.65745
5.47061
5.44107
7.18934
6.2088
5.39752
5.42322
5.63081
5.58934
5.48386
5.60203
6.05035
5.58126
5.92442
6.29179
6.34479
5.68621
5.11651
5.58913
6.04803
6.37393
5.70449
5.31691
6.00174
5.9648
5.31048
6.75435
5.39961
7.0242
5.80408
5.47281
6.58091
5.55782
5.59875
5.00527
5.56887
5.20373
5.86457
5.48567
5.57871
5.27686
6.02904
5.61062
5.64791
5.44818
5.52737
6.17408
5.46004
5.18073
5.17421
6.34827
5.80318
5.23777
5.237
5.271
5.64792
5.36864
4.94947
5.59349
5.31786
5.39691
6.38645
6.08074
5.33911
5.5903
5.82816
5.32354
6.90095
5.06562
6.39655
6.43236
5.70882
5.26734
5.29389
5.32084
5.31506
5.99991
4.98612
5.10099
6.34912
5.18549
6.20672
4.92057
6.69157
5.18851
5.33379
5.71824
7.14371
5.51197
5.54265
5.84652
5.54413
5.35426
5.4214
5.21698
5.7412
6.16605
5.53783
5.74854
5.95826
5.64757
6.11459
5.85613
5.9204
5.34037
5.57101
5.9724
5.78382
5.69147
5.3172
5.87386
5.78132
5.70927
5.55494
5.56804
5.81028
5.73134
5.63442
5.8491
5.26487
5.60635
5.11949
6.28134
5.62379
5.12592
5.56627
6.1823
6.04129
6.28592
5.58155
5.68155
5.34982
5.08232
4.81128
5.93312
5.80652
6.10296
6.04328
5.77982
6.02868
5.94518
5.42215
6.21863
6.19683
6.31438
5.80186
5.69211
5.65517
5.51545
5.86418
5.97237
5.76876
5.92362
5.36295
5.63381
5.38092
5.29498
5.57929
6.29044
5.57427
5.06706
5.31121
5.88271
5.46491
6.21745
5.85024
5.70779
4.91175
5.86203
5.58268
5.97848
7.20623
6.25077
5.41131
5.29018
5.35856
6.2445
5.58535
5.42508
5.51044
5.78871
5.60161
5.90456
5.52751
5.9501
5.86849
5.99712
5.60136
5.72207
5.96634
5.23996
5.38139
6.2759
4.64539
5.64506
5.54924
5.84082
6.33557
5.79772
5.89922
5.49288
6.86298
6.06333
5.86787
6.2386
5.98239
5.4804
5.69082
5.21017
4.55013
5.30974
5.78275
6.07994
5.30388
5.94888
5.74997
5.64581
5.75169
5.42182
6.50491
5.84474
5.32738
5.60763
5.48467
5.37119
4.98674
5.68047
5.39519
6.37207
5.59962
5.48633
5.02373
5.2882
5.16645
5.90355
5.64327
5.85033
5.33456
5.0026
5.5187
6.13114
5.09523
5.70278
6.09893
5.37673
6.00749
5.62217
5.54542
5.60804
5.97268
5.13286
5.25627
5.4466
5.7007
6.33806
5.4581
5.48561
5.1365
5.07402
7.07003
5.33632
6.10782
5.43234
5.74786
5.39772
6.0992
5.70246
5.85278
5.20671
6.54761
6.01064
6.10182
6.22251
6.32342
5.40201
6.4779
5.45901
6.40562
5.22195
5.09966
5.38879
6.72534
6.07793
6.24089
5.93153
6.15691
5.42318
5.54331
5.16241
5.09451
5.5891
5.36893
5.56408
6.72787
6.22909
6.37506
6.83232
5.01092
5.24743
5.88315
5.3653
5.23713
5.30704
5.62029
5.62315
5.83399
5.91507
5.87032
5.48105
5.56365
5.34684
5.60814
5.68863
6.00318
5.78382
5.52165
5.73956
5.9837
6.21222
5.60377
5.8246
5.84322
5.40637
6.09247
5.50389
5.61781
5.57584
5.30723
5.78418
5.72369
5.56464
5.20162
6.089
5.20499
5.51632
6.23296
6.37522
5.99067
5.65366
5.62155
5.67948
5.42827
5.2645
6.39786
6.91219
5.68761
6.12666
5.4374
5.52174
5.38672
5.26162
5.66301
6.08065
5.48548
5.72378
5.79496
6.22384
4.98684
5.2292
5.28009
5.30812
5.30496
6.28292
5.70057
4.94497
6.00892
5.48811
5.59971
5.50597
5.59791
5.16169
5.60079
6.49455
5.33848
5.60589
6.56507
5.04046
5.67122
5.23669
5.50273
5.67285
5.8716
5.80434
5.5416
5.63402
5.3586
6.38975
5.88961
5.40444
5.756
6.04942
5.93127
5.48329
5.487
5.61383
5.54615
5.38199
6.57923
5.87828
5.88548
6.1961
6.00291
5.40504
6.06708
5.21131
5.08339
5.20908
5.9884
5.51517
5.5007
5.42902
5.83204
5.51465
5.79493
5.65628
5.27599
6.01348
5.26817
5.45735
6.18264
6.3268
5.66139
5.61832
5.40183
6.27585
6.668
6.84069
6.23678
5.85322
6.19192
6.28242
5.27543
5.52197
5.41757
5.65427
6.47669
5.46402
5.65439
5.36717
5.95901
5.96489
5.49298
5.84285
5.56914
5.57691
5.56237
5.63816
5.44439
6.33968
5.58755
5.56705
6.02936
5.78101
6.29646
6.57107
5.48945
5.87809
6.42433
6.00372
5.32269
5.15051
5.49381
6.99933
5.74106
5.81709
5.62218
5.41767
5.19615
5.55882
5.66763
5.44582
5.59921
5.39118
5.81902
6.39919
5.07262
5.5758
6.07768
6.3671
5.29335
6.29066
6.32353
5.56854
5.94632
5.59925
5.78107
5.26838
7.02935
5.69355
5.31073
5.15501
6.10856
5.56265
5.47444
5.21071
5.24198
5.09843
5.6584
5.27186
4.97083
5.58372
5.39396
6.13422
5.8831
5.05987
6.13045
5.22418
5.66593
5.71308
5.92768
5.78084
5.75392
5.36972
6.08431
6.44363
5.34066
5.61894
5.46834
5.53226
7.44781
5.27786
6.11975
5.74894
6.09848
5.29076
5.57449
5.30133
5.42701
5.41438
5.68176
5.78719
5.29848
5.84455
6.08576
5.48592
5.27048
5.43212
5.47678
5.63824
6.18733
5.73247
6.3345
5.65576
5.80263
5.93521
5.86163
5.02989
6.15711
5.48158
6.02356
5.31462
5.34226
5.40041
5.42224
5.24298
5.16944
5.6705
5.17799
5.52921
5.39679
5.9883
5.19545
5.77241
5.4733
5.73342
5.55863
5.34321
5.72541
5.18021
6.10029
5.45757
5.86254
5.55482
5.837
6.57561
5.3476
6.46387
5.79192
4.8817
5.72538
4.76203
5.94938
5.50468
5.37796
5.32893
5.33329
5.94932
6.34642
5.49377
6.13887
5.36033
6.22684
6.11097
5.57615
5.80371
5.41273
5.84557
5.39885
6.56792
6.7247
5.2332
5.68265
6.12418
6.1089
5.97142
6.10333
6.71222
6.86866
6.32665
6.00959
5.97771
5.16124
5.95042
7.6795
5.22137
6.47166
5.38632
5.94495
5.28059
5.99527
6.21912
5.89844
5.41099
6.35729
6.31305
5.97918
5.84214
6.28821
6.59521
5.39143
5.25602
5.56325
4.86762
5.93831
5.68448
5.55694
5.82812
5.29427
5.35797
6.03639
6.2389
5.78989
5.10995
5.70685
6.35321
5.86776
5.76553
5.08989
5.46763
5.52581
6.85813
5.51375
5.81608
5.76626
5.03009
5.88497
5.37372
5.27335
5.53688
6.08174
5.96342
5.29134
5.29204
5.69929
6.1061
6.00608
5.1694
5.62077
5.62783
6.22502
5.44618
5.66719
5.50772
6.16901
5.15105
5.67204
5.1501
5.12804
5.43685
5.63539
5.20018
5.70278
5.54606
5.9138
5.48693
6.11242
6.33827
5.1719
6.0719
6.24408
5.5341
5.32748
5.05842
5.52431
4.94313
5.70341
5.38287
5.5457
5.57304
5.64303
5.14149
5.84665
6.35168
5.57853
5.4197
5.29319
4.97145
5.90787
6.12316
5.05496
5.79556
5.13332
5.82838
5.55671
6.36319
5.68818
5.50373
5.88299
5.82617
5.4009
5.01747
5.54107
5.55462
5.09004
5.21457
5.50964
5.53378
5.57196
6.00816
6.60913
5.57144
5.50743
5.18416
6.17265
5.63595
5.62456
5.12303
6.3131
5.67445
5.561
5.56742
5.99937
6.44038
5.22052
6.5671
5.39923
5.8695
5.64371
5.39106
5.63218
6.31196
5.31496
5.41547
5.19532
5.91992
5.55734
6.03876
5.48052
5.64066
5.57144
6.99846
5.02107
5.33959
5.42262
5.83335
6.31617
5.25745
5.57009
5.97356
5.58604
5.85903
6.22769
6.10588
5.51525
5.76689
5.84766
6.08448
5.8193
5.15399
5.23312
6.1662
5.94107
5.32403
5.98726
5.48489
5.81558
5.18466
5.44115
5.26692
5.59331
5.72924
5.57082
5.43002
5.38912
5.62741
6.65264
5.68032
5.15741
6.07082
4.72813
5.1907
6.41883
5.51732
5.94199
5.3356
5.81555
6.34132
5.42252
6.72659
5.54677
6.43942
6.26168
5.08839
6.73262
5.48119
5.38595
5.45275
6.9609
6.28827
6.05767
5.36612
5.67086
6.01972
5.84824
6.19198
5.42745
5.48976
5.19053
6.09273
6.32751
6.88515
5.82246
5.27407
5.28896
5.03094
5.75635
6.03412
5.93976
5.96915
5.49508
5.5917
5.25526
5.40886
5.86315
6.32047
5.58957
5.46594
5.56391
5.36291
5.3276
5.95579
5.6373
5.6729
5.76686
4.98875
5.08012
6.03854
5.99505
4.87847
6.50275
5.52452
5.48031
5.61229
5.20119
5.72955
5.4191
5.19572
5.63838
5.44823
6.66273
6.14425
5.34126
5.85755
5.4383
6.29892
5.98213
5.23935
5.4402
5.5905
5.95406
4.99422
5.54975
5.75101
5.9416
5.6283
6.32456
5.93322
4.96611
5.39855
5.17957
5.25492
6.09667
6.63549
6.85542
6.36688
5.561
5.6639
5.93865
5.72089
5.96281
5.10775
5.86892
5.48602
6.21007
5.98071
6.10084
6.16258
5.74581
5.69173
5.92926
4.9427
5.26222
5.48658
6.22227
4.80121
6.18442
5.09873
5.63403
6.04858
5.73199
5.26996
5.67172
5.83658
5.26083
6.45571
5.85438
5.28613
5.46017
5.47779
5.30929
5.53425
5.33368
6.1296
5.4437
5.60661
5.79339
5.81933
5.50322
5.81382
6.67201
5.67892
4.83759
5.80836
5.18014
5.56266
5.67559
5.85493
6.05797
6.20038
5.2967
6.29677
5.42261
5.56449
5.5126
5.02795
5.16994
5.70272
5.8521
5.28079
5.62076
6.1163
6.04402
6.21596
5.25648
5.73162
5.35597
5.74443
5.56695
5.70187
5.69839
6.80149
5.44515
6.44411
5.45887
6.07708
5.42185
5.46639
5.65247
6.54101
6.01263
6.4032
5.62252
6.28728
6.02471
5.64887
5.61411
5.31145
5.67537
5.59405
5.19851
5.52126
5.71508
5.4249
5.98985
6.85303
5.58573
5.26226
5.30297
5.80555
5.84652
5.29694
5.71225
5.95357
4.86508
5.4334
5.76988
5.43578
6.14008
5.07698
5.20006
6.27545
5.78221
5.71175
5.98503
5.61567
5.29288
5.37129
5.23816
5.31199
5.57273
5.4685
5.33055
5.6146
5.80325
5.35703
5.9322
5.66005
5.3926
5.7576
5.74939
6.15989
5.5659
5.97168
6.03371
5.93704
5.61201
5.57732
5.1218
5.4334
5.48113
5.35911
5.80697
5.91487
5.76065
5.51595
5.75548
5.42793
6.02727
5.86347
5.70233
5.79455
6.10128
5.09147
6.45762
5.97826
5.4662
5.85336
5.06676
5.76899
4.78316
6.18138
5.95387
5.04932
5.34913
5.38595
6.31169
5.48236
6.01473
5.84734
5.68126
5.64199
5.61594
5.66741
5.66358
5.5237
5.72881
7.07363
6.55356
5.24859
5.75401
5.48223
6.16688
5.58387
6.16437
6.29675
6.19068
6.61606
5.10353
5.12546
5.85027
5.56968
5.55322
5.88531
6.51102
5.34812
5.63888
5.19648
5.52822
5.88947
6.91544
4.89356
5.39566
5.78082
6.7408
5.61654
5.91525
6.12316
5.57158
6.15668
6.83694
5.88501
5.38183
6.40039
5.39137
5.02942
5.15112
5.27673
5.9319
5.40065
6.1943
5.08637
5.77566
4.95227
6.06578
5.65043
5.37498
6.74821
5.41905
5.90252
5.84911
5.93358
5.3149
5.3
6.90949
5.94792
5.07146
5.96015
5.80168
5.31715
5.30552
5.74673
4.85331
5.89287
5.51525
5.91805
5.55089
5.84317
6.44081
6.17869
6.022
4.89639
5.07925
5.4855
5.55938
6.3462
5.6119
5.38815
6.20388
6.30821
5.64057
5.4626
6.53659
5.26729
6.17982
5.40858
5.53285
5.54748
5.71271
6.09983
5.715
5.62073
6.29939
5.91147
5.68074
6.29898
6.46088
6.00701
6.56336
5.24934
6.21861
6.28248
6.42886
5.40169
5.29108
5.82322
5.52263
6.30504
6.18088
5.29499
5.10534
6.13424
5.71286
5.65188
5.88406
6.11665
5.69782
5.32127
5.75942
5.84032
5.76565
5.97187
5.79086
5.44008
5.93734
5.79166
6.34186
5.52716
5.0796
5.59957
5.33671
5.61024
5.79611
5.48165
5.79019
5.60439
5.43097
6.08766
5.41176
6.98349
5.49361
5.93934
5.42273
5.4264
4.95162
5.81442
6.03809
5.91204
5.782
5.33243
5.9342
5.52454
5.08212
5.96119
5.7769
5.31711
5.46789
5.38483
5.95127
6.23644
6.37766
5.48472
5.45051
5.46084
6.43303
5.77269
6.47046
6.1528
5.43437
5.05293
6.2886
5.62494
5.79943
5.50942
5.70741
5.77003
5.55748
6.03942
5.28214
5.70388
5.02144
5.30398
6.29347
6.23259
5.15834
6.64582
5.28286
5.50404
4.87188
5.83228
5.44813
6.13523
5.24412
5.30711
5.15174
6.29492
5.94126
6.36853
6.35517
5.46559
5.94823
5.46389
5.02357
5.72153
5.44653
6.84279
7.2089
5.58228
5.56229
5.83888
5.65306
6.08222
5.95731
5.68133
5.76306
5.52473
5.8119
5.47947
5.87489
5.40652
4.99534
5.3668
5.98673
5.18251
5.54168
5.21495
5.10207
5.75246
6.01867
5.55976
5.63632
5.54283
6.32112
5.66567
5.48641
5.13467
4.87176
6.29483
5.22677
6.04269
6.62148
5.41624
5.38245
5.58726
5.8789
5.50658
5.5836
5.31206
5.41128
5.90243
5.24724
6.06695
5.59535
5.54411
4.93672
5.05173
6.66511
5.96559
5.68003
5.42924
5.02288
5.79669
5.94627
5.87612
5.46907
5.5476
5.57494
5.44648
5.14288
5.10502
5.26801
4.78542
5.60231
6.52777
5.67548
5.08473
5.56366
5.42924
5.54885
6.42539
5.77673
6.18544
5.16265
5.69848
6.42251
5.68219
5.95671
5.83376
5.95116
5.56593
5.69986
6.20167
5.57263
5.20916
5.60926
5.40721
6.18767
5.6311
5.19568
5.59803
5.052
5.85823
5.82422
6.1897
5.39403
6.39514
5.10291
5.54476
5.57986
5.50318
5.90284
5.03464
5.22995
5.35042
5.4775
5.67378
5.51899
5.14833
5.35271
6.12157
5.93628
5.41324
5.35843
6.20052
5.15384
6.11268
5.18073
6.23203
5.43508
5.79627
5.64774
5.90953
5.72716
6.67858
5.84375
5.97365
5.13028
5.64735
5.32987
5.63759
4.93838
6.00851
5.36365
5.82987
5.80136
5.84847
6.53717
5.60083
5.8143
5.71574
5.6848
5.66848
5.24886
6.25646
5.77756
5.41822
5.4763
5.23207
6.19042
5.86576
5.64747
5.58136
5.33646
5.95118
5.29414
5.76863
5.53251
5.29059
5.69289
5.90513
5.65469
5.67594
5.75436
4.87099
6.19052
6.4686
5.34726
4.98796
5.41229
5.21835
5.87087
5.83385
5.24003
5.23635
6.7723
5.33546
6.41577
5.45956
5.79784
4.66761
5.30238
5.43261
5.81081
5.31212
5.40181
5.21901
5.86375
5.72918
5.78709
5.41698
5.53659
5.3034
5.81994
5.33742
5.37962
6.62534
6.12726
5.61586
5.84463
5.31335
5.97274
5.90702
5.42426
5.12788
5.35365
5.03871
5.67002
5.85723
5.8479
6.82326
5.35466
5.93778
5.80951
5.88408
6.4185
6.56899
5.93014
5.51329
6.24228
5.83584
6.29989
5.74173
5.56232
5.42276
5.54733
5.20855
5.87582
5.92961
5.97187
5.53018
5.32197
5.94934
4.93488
5.37291
5.95455
6.32267
5.8713
5.78195
5.76996
5.64305
5.39934
5.05809
5.95587
5.64705
4.89913
5.62899
5.62841
5.89723
6.31015
5.60189
6.06615
5.83568
5.50683
5.68366
5.22512
6.23716
5.52433
5.96127
5.58376
7.29622
6.01708
5.87896
5.91401
5.58707
6.46941
5.56346
5.2854
5.50674
5.97891
5.64219
5.55642
5.61048
5.09078
5.37209
4.98064
5.21416
5.57737
4.90713
5.81531
5.42246
5.36925
5.97235
6.7286
5.4232
5.70702
6.54172
5.33423
5.85522
6.62016
6.001
5.98525
5.82408
6.24324
5.55185
5.23644
5.17245
5.7459
5.23044
6.4658
5.89406
5.35476
5.89198
5.95465
6.00186
5.92295
6.25797
5.33893
6.54611
5.37386
5.87093
6.23914
5.15645
5.54455
5.68356
5.21182
5.99357
5.87518
5.82172
5.36563
5.97735
6.50749
6.00591
6.13967
6.63285
6.27337
5.64658
5.79797
6.66242
6.51215
6.42222
5.55893
6.22474
5.16867
5.40891
5.86769
6.3436
6.3116
5.10719
6.19479
5.50993
5.83412
6.05452
5.25375
5.80644
5.44873
5.43781
5.28931
6.32517
5.3215
5.52036
5.25656
5.55678
6.02007
5.67152
5.71224
5.63861
5.26709
6.69052
5.6055
5.87125
5.05902
5.33372
5.16352
5.47997
5.99629
5.56235
5.34496
6.45087
6.05228
5.90731
4.98799
5.37243
5.6693
5.3069
5.54371
5.43948
5.40025
6.95107
5.35253
6.23771
5.89769
6.57248
6.0619
5.88065
5.51977
5.49821
5.2136
5.83582
5.88356
5.81439
6.03181
5.95275
6.01862
5.71136
6.56942
5.81149
5.38263
6.36147
5.48353
5.32
5.67704
5.66518
6.13289
5.7456
4.65484
4.84266
5.42324
6.22735
5.20384
6.50435
5.6195
5.70949
5.37038
5.6374
5.7965
6.19015
5.93085
6.10335
5.60196
6.06859
5.87516
6.43744
6.16272
5.78213
5.30264
6.15129
5.20469
5.88717
5.81125
6.28464
5.91008
5.63327
5.46995
5.26635
5.37758
5.95698
5.88532
6.22076
6.03313
5.25999
5.29706
5.60588
5.30453
5.15473
5.42584
5.89457
6.06701
5.77387
5.50694
5.05166
6.0913
4.80282
5.57685
5.91559
5.92121
6.03909
5.62663
5.66707
5.90316
5.66909
5.71735
5.37231
6.17035
5.09805
6.33137
6.29702
6.60629
5.54479
5.38653
5.54877
5.96636
5.68945
5.79121
5.16037
5.66116
5.64712
5.92434
5.83702
5.17887
5.61877
5.89001
5.48349
5.29313
5.95308
5.69732
5.34553
4.91668
5.86007
5.46807
5.89364
5.87885
5.27842
5.57759
5.65911
4.74231
6.36916
6.28843
5.28755
5.44809
6.16247
6.02549
6.01779
5.93064
5.87248
5.82878
6.05344
5.8094
5.35511
6.47374
5.19428
5.69403
5.80532
6.32568
6.22572
5.75348
4.74814
5.64515
5.79244
6.31799
5.66959
5.67123
5.97326
5.87857
5.67068
6.40419
5.78029
5.59695
5.36968
5.95783
5.23474
5.71492
6.93099
6.0331
6.0108
6.14844
5.54089
6.25421
5.59193
5.47085
5.33216
4.82206
6.09762
5.70601
5.7847
5.64347
5.95956
7.5517
4.98777
5.34387
5.73643
5.2625
6.22442
5.36031
5.34861
5.20225
6.10893
5.558
5.01689
5.5775
5.23379
5.9512
6.00822
5.35268
6.87004
5.3805
5.413
5.37199
5.64422
6.49788
5.14873
6.63089
6.17315
5.87146
5.94333
5.8106
5.65314
5.68993
5.65949
5.8388
6.26501
5.10987
5.42389
6.02611
6.72208
5.60912
6.23456
5.91202
5.05722
5.35032
5.55624
5.39745
5.16675
5.64675
7.53803
5.43645
5.70811
5.66028
5.03366
5.58166
6.58109
7.06797
5.61647
6.08015
5.73913
5.73728
5.66342
5.36045
5.31645
5.09184
6.00251
5.6104
5.43845
5.63795
5.4704
5.52115
5.43042
5.28413
5.96728
5.87271
5.82242
5.45564
6.63427
5.88257
6.33529
5.71789
5.86934
6.68254
5.50646
5.56705
5.72525
5.09227
6.05514
6.09032
6.48327
6.06451
6.03004
5.4665
5.46469
5.07155
5.76104
6.54013
7.13108
6.00516
5.6675
6.11582
5.7811
6.57892
5.59044
6.2578
5.55856
5.17046
4.8234
6.65691
5.61687
5.48431
5.53284
5.297
5.90236
6.82765
5.39383
5.52709
5.05046
6.04073
5.75202
6.83482
5.5684
6.53119
5.54565
5.7783
5.81863
5.84535
6.26112
5.25538
5.64132
6.24456
5.82958
4.86361
5.27908
5.72405
5.17272
5.71529
5.94445
6.02606
5.05156
5.24946
5.44173
6.4766
5.65496
5.56201
5.54941
6.09028
4.92907
5.55675
6.09265
5.62621
5.86673
5.15585
5.30927
4.79019
6.00579
5.64348
5.97369
5.21055
5.47191
5.66923
5.90153
5.60616
5.95446
5.66981
6.05187
6.26434
6.20814
5.27606
5.93989
5.85296
5.85686
7.20015
5.67319
5.43783
5.40465
5.5337
5.69576
6.18608
5.95671
5.11885
5.37653
5.30917
5.52086
5.86172
6.24183
6.23017
6.27741
6.2482
5.99811
6.10607
5.62722
5.84968
5.27564
6.10919
5.47702
5.8314
5.93237
6.15188
7.13682
5.63242
5.728
6.70888
6.7209
4.72702
5.56562
6.01653
5.75971
5.57197
5.53442
6.42506
5.71306
5.95797
5.21066
5.63074
5.72035
6.79427
6.16053
5.83701
5.38481
5.74621
6.18544
6.05102
5.50651
5.41639
6.14457
6.01069
5.50355
6.26804
5.3456
5.77405
5.80678
5.20872
6.08857
6.32467
5.39897
5.12044
5.62295
5.37983
5.05308
5.59771
5.40245
5.42014
4.94367
5.37339
5.88512
6.31749
5.75602
5.28024
5.72271
6.55526
6.31885
5.45632
5.56005
5.28982
6.01493
5.39254
5.22815
5.79868
6.09991
5.88156
5.75836
5.65059
5.04822
5.7941
5.12763
5.50651
6.42634
5.9375
5.54299
6.28037
5.53936
5.63756
5.14244
5.30064
5.94512
6.28288
5.33297
6.34491
5.72457
6.44308
6.79646
5.52498
6.08381
5.67423
5.40743
6.12902
5.18606
6.0504
5.63952
5.79738
5.32966
5.68017
5.83948
5.90385
5.15706
5.68336
5.80499
5.38849
5.67759
5.18867
4.85018
6.20808
6.15727
6.03504
5.92567
5.77521
5.68347
5.18906
6.06286
5.36337
5.5437
5.46195
5.9466
4.99093
5.69542
5.18347
5.12018
5.22821
5.79504
5.09692
4.82238
6.09225
5.71013
5.74086
6.21636
5.88022
6.03029
5.14742
4.99468
6.09457
5.84682
6.0839
5.34831
5.388
5.89404
5.83161
5.90456
5.00926
5.13019
6.37786
5.2649
5.67913
6.22706
6.67554
5.21328
5.0524
6.87683
5.61316
5.35925
5.3781
6.02183
5.14273
5.55538
5.32931
5.8564
5.37611
5.35374
5.63575
5.59323
5.95535
5.51207
6.65083
5.08799
6.69286
5.49796
5.78936
5.58391
5.36448
5.25076
5.9381
5.45541
6.47012
5.7401
5.83172
5.77517
6.17382
5.29821
5.28
5.82929
5.81012
5.3766
7.05046
5.17331
5.70874
5.65656
5.82735
5.2643
5.86733
5.76882
6.20423
5.04143
6.44864
5.75956
5.4717
5.43085
5.52974
5.762
5.14749
5.26921
5.56745
5.59399
5.75094
6.00585
5.66686
6.2656
6.2507
5.51517
5.41888
5.59503
6.3618
5.28627
5.83255
5.29606
5.72401
5.03764
5.88524
5.85846
6.26091
5.08601
6.42869
5.27796
6.19086
6.18758
6.32517
5.61792
5.89759
5.24155
5.71595
5.55139
6.42851
5.53035
6.19142
5.74124
5.88497
5.00928
5.84552
5.80939
5.1774
5.71861
5.53449
5.19981
5.19585
5.41257
5.71245
5.85577
5.13383
5.92218
5.14575
5.60821
5.83116
5.35362
5.70352
6.87058
6.09195
5.39689
5.15594
5.70246
5.61537
5.34695
5.84836
5.84915
6.39295
5.23576
5.47765
6.13997
5.52769
5.43989
5.21936
6.51661
6.46297
5.59117
5.48302
5.52196
5.81298
4.98178
6.5389
5.85173
5.98471
5.62577
5.90612
5.57686
5.07328
5.31876
5.63767
5.30982
5.18499
5.81236
5.9142
5.33778
6.29926
5.34642
5.80464
5.22403
6.50668
5.43216
5.1242
5.71826
5.49782
7.02464
5.66946
6.21795
5.65855
5.76174
4.96445
5.55339
5.89451
5.33145
6.11695
5.95025
5.54383
5.83
5.29057
5.53692
5.59895
5.36435
5.31483
6.25274
5.95747
5.45129
6.1591
6.0083
5.77003
5.11532
5.74548
5.11738
5.72963
5.84613
5.32119
5.71926
5.06651
6.76175
5.4823
6.22031
6.07727
5.72046
5.49142
5.44041
5.66659
6.21592
8.11468
5.99077
5.79302
5.86697
6.12682
5.70108
6.10721
5.21254
5.77706
5.52963
5.7815
6.07442
5.77323
5.5238
6.00917
5.0688
5.96881
6.11439
5.2347
6.08803
5.17433
5.42016
5.45803
5.28003
5.52758
4.95349
6.06872
5.13576
5.12452
5.32665
5.78201
5.68257
5.67465
6.13441
5.37015
5.42665
5.29588
5.57382
5.37234
6.12437
5.45051
5.5182
5.78479
6.19848
6.25783
5.55516
6.59995
5.14497
5.91816
5.6587
5.2708
6.05691
5.52119
5.36833
5.29494
5.9089
5.67295
5.50198
5.79078
5.53812
6.07127
6.17028
4.9286
5.37325
5.10798
5.76071
6.12736
5.5046
6.10654
4.53086
5.43616
6.08257
5.63916
6.11941
5.4226
5.62791
5.35875
5.87361
6.15093
6.32298
5.804
5.77361
6.00185
5.17039
5.42897
5.6728
5.96388
5.6306
5.96567
5.84663
5.61513
4.92071
5.07815
5.64187
5.63885
6.19353
5.587
6.40348
6.50019
5.95436
5.78973
5.31611
6.0216
5.37167
6.16218
6.25431
5.93084
5.33425
6.35101
5.98468
5.61582
5.72419
5.67193
5.21584
6.14099
5.04677
5.1261
6.00551
5.41448
6.04533
5.36466
5.78473
5.68712
5.93348
5.66271
6.1032
5.81125
5.45608
5.88411
4.8308
5.88202
6.10777
6.2066
5.73506
5.71229
5.56906
5.33109
5.19733
5.91704
6.37685
6.39342
6.01196
5.36131
5.95963
5.77635
5.02515
5.20417
5.99158
5.44676
5.49076
5.51215
5.85527
5.70989
6.02023
4.95362
5.33717
6.34201
5.48725
5.84183
6.59906
6.24689
4.73185
5.42226
5.98823
6.42372
5.31445
5.34935
5.64174
5.24627
5.43666
5.57293
5.57292
6.18567
5.63813
6.05793
5.95251
5.85633
5.79981
5.67725
6.3077
6.17522
5.31692
5.44388
5.4844
5.93253
6.01522
5.51314
6.55442
5.60981
6.16069
5.9076
6.26384
6.24218
5.6129
5.27662
5.28588
6.00916
6.01484
5.74914
5.38091
5.63564
5.60994
5.86963
5.68289
7.03897
5.73838
5.37948
5.72062
4.99433
5.26687
6.15232
5.7401
6.10576
5.08127
5.85098
5.68877
5.23286
5.70478
6.47591
5.92053
5.92704
5.6975
5.55337
5.89392
5.76063
5.67178
6.91808
5.05169
5.31858
6.22807
5.722
6.5821
5.58765
5.97913
5.84479
5.26134
5.79617
5.82917
6.19327
5.95707
6.4724
6.05665
6.02514
5.28016
5.52968
5.83608
5.7308
6.11155
6.57525
5.62512
5.49875
5.51047
5.55498
5.64051
5.84132
5.76674
5.75395
5.30743
5.74602
5.57338
5.33068
6.03531
5.75466
5.62017
5.7007
5.45681
5.44995
5.25196
5.31114
5.9306
5.73163
5.69902
6.04305
5.69873
5.69269
5.75484
5.37292
5.94922
5.38426
5.53495
5.4632
5.43028
5.75686
5.82956
6.2716
5.21579
6.07249
5.85511
5.79488
4.92768
4.99733
5.59085
5.29555
6.54397
5.32333
5.54112
5.39817
5.36638
5.23629
5.14147
6.5006
6.03947
6.30501
5.39308
5.84659
5.31178
5.05393
5.90002
5.07604
5.57334
5.37492
5.53353
5.36487
5.51833
5.62946
5.63497
5.51435
5.78538
5.86975
5.40331
5.41465
5.79777
5.93573
5.73832
5.34455
5.62991
5.88335
4.99396
5.83613
5.55573
5.52213
5.5215
5.58453
5.66878
5.72079
4.85956
5.42212
5.34268
5.70964
6.16499
6.30708
5.37699
5.47293
5.7799
5.56369
5.90413
5.63928
5.80496
6.22405
5.83835
5.56972
6.23885
5.5963
6.22337
5.16854
5.14074
5.67981
5.78348
7.01811
5.71758
5.36105
5.16898
6.07499
5.98431
5.63935
5.97409
5.91974
7.33391
6.53716
6.48087
5.70706
5.54058
5.1734
6.17036
5.72341
6.19208
6.27738
6.70963
5.20984
5.57343
5.29257
5.29442
6.89234
5.83837
5.31734
5.21583
6.07
5.56843
5.9002
6.60313
5.79292
5.81235
5.96625
5.23004
5.71438
5.77151
5.54501
4.86182
5.23059
5.3132
5.42069
6.20677
6.10469
5.64915
5.78069
6.09164
5.97921
5.9203
5.60366
5.93926
5.9391
7.25468
5.09244
5.61959
5.20845
5.29127
5.77141
5.76583
5.35269
5.82618
5.62292
6.12647
5.46004
5.82347
6.26074
5.59434
5.30367
5.96019
5.8086
5.95561
5.57888
6.02946
5.65916
5.60702
5.98682
5.45311
5.66748
6.01918
5.09169
5.98777
5.51517
6.67311
6.19096
5.59157
5.25166
5.7185
5.36268
5.96574
5.90819
5.52194
5.70039
5.74952
6.16108
5.74767
6.13058
5.78622
4.86709
6.07375
6.03515
5.84159
5.30273
5.96586
5.59443
6.26464
5.20786
5.29598
7.17651
5.80001
5.46056
6.70272
5.64811
5.04093
6.0436
7.14997
7.5075
6.07978
6.60561
5.37698
7.0867
5.26293
6.59192
5.58252
5.15879
5.91546
6.02316
5.48745
5.18729
5.84499
5.79107
6.47479
5.83477
5.75238
5.36388
5.77899
5.23854
5.19899
5.66778
5.80594
6.09328
5.30448
5.24362
5.04324
5.14081
5.15284
5.52236
5.81447
5.99638
5.56938
5.65989
5.41589
5.67043
5.32458
5.09875
5.93602
5.46076
7.18112
5.34612
6.91602
5.71491
5.44399
6.50121
5.70963
6.22845
5.20819
5.69895
5.67791
6.18859
5.63343
5.39239
5.48268
6.16288
5.78039
5.91554
5.67455
5.85057
5.96846
5.60535
4.91489
6.36657
5.44447
4.78333
6.03028
6.2196
6.75244
4.96541
5.72228
5.67613
6.67549
5.93358
5.65881
5.77772
5.74013
5.11251
5.00357
5.26225
5.65403
5.76737
5.17776
5.92798
5.48035
5.96426
5.89607
5.63238
6.27905
6.01228
6.18313
4.97816
5.56331
5.46074
6.29883
5.51163
6.37563
5.7529
5.48549
5.91099
5.70534
5.49045
4.93374
5.49707
6.17903
4.82919
6.03427
5.77458
5.3346
5.84109
5.25827
5.58087
5.97113
6.11419
5.54187
5.90724
5.36877
5.88473
4.9267
5.8605
6.66386
5.53729
6.12913
5.56627
5.23607
5.86589
5.92943
5.81102
5.68788
5.5446
4.95355
4.88515
5.46222
6.38637
4.92976
6.0402
6.11311
6.31928
6.05156
5.7631
5.26564
6.27944
6.44129
6.393
4.70425
5.58596
5.71902
5.41481
5.77523
5.63682
5.79553
6.31422
5.01067
5.62478
6.04002
5.8218
6.1234
5.51419
6.06294
5.36139
5.62688
5.4616
5.47314
5.71188
5.38044
5.81329
5.83341
6.20418
5.55536
5.4503
5.38586
5.66699
5.37195
5.43123
5.83358
5.8281
6.11401
5.91394
5.51891
5.04329
5.49539
5.25294
5.52328
5.92201
5.54629
5.2394
6.28673
5.86414
6.03075
6.35115
5.702
5.34065
5.68487
5.39859
5.73929
6.00436
5.55714
5.59815
5.58822
5.48387
5.25743
5.1549
4.89351
6.00405
5.58924
5.59203
5.75831
5.36228
5.98678
5.12859
5.55079
5.93998
5.48028
5.464
5.91408
5.37632
5.66267
5.91664
5.73787
6.2249
6.23888
5.0995
5.82502
5.89935
5.27271
5.86405
5.42208
6.01885
6.29681
5.74209
6.0207
5.48149
5.90621
5.70331
5.24497
5.57674
5.15411
5.90967
5.31419
7.28801
5.71362
5.60325
6.16361
5.81564
5.59738
5.12501
5.62269
5.58318
6.767
5.41718
5.70947
6.26431
5.64337
6.28498
6.37326
5.40707
5.93452
5.53748
5.32076
6.0023
5.2066
5.50022
5.46573
5.32214
5.06679
6.03869
5.34017
5.10096
5.55966
6.11948
5.66627
5.3183
5.88494
5.32451
5.05309
5.95731
5.66182
5.04026
5.80831
6.03971
5.20142
5.26115
5.34518
6.08238
5.61278
6.02956
7.34956
6.13804
5.61666
5.36058
5.2149
5.83447
5.34642
6.42111
5.62698
6.95161
5.33184
5.8114
6.00506
5.51884
5.44909
5.71281
5.15909
5.30106
6.21083
5.35076
6.27076
6.10723
6.25315
5.08531
6.0745
5.73341
6.22885
6.07215
5.84614
6.30937
6.23479
5.46453
6.21137
5.7901
6.45959
5.88509
5.85411
6.17407
5.49098
5.3128
5.07735
5.64061
5.12862
5.1775
6.12753
5.27183
5.53029
5.10112
6.38567
6.16042
5.46757
5.70638
5.41987
5.26234
5.61111
5.59607
5.70814
5.50555
6.21942
5.34697
5.28755
5.65367
6.34358
5.40895
5.5541
5.46002
5.44871
6.23902
5.78976
5.60973
5.65017
5.18688
5.56888
5.52757
5.81089
5.35808
6.02351
6.52936
5.65084
5.69604
5.14929
6.36953
5.40049
5.41408
5.79855
5.55663
5.21838
5.89336
5.27267
5.88147
6.09817
5.50915
5.77511
5.77508
5.52008
5.24832
6.09646
5.17781
5.87161
5.90021
6.28574
6.29256
5.71019
5.34878
4.74581
5.38064
5.49586
5.06622
5.6721
5.60229
5.78502
5.36368
6.03458
5.87147
5.12302
5.92866
5.68345
4.93206
5.81019
5.55814
5.68263
5.68088
5.55749
6.16972
6.35402
5.26557
5.89142
6.71659
5.91524
5.58726
5.03136
5.61899
6.85669
5.50908
5.98557
5.63948
5.86002
5.69552
5.62874
5.49012
6.075
5.99207
4.96103
5.31675
5.88974
5.62512
5.55739
5.3767
5.31458
6.59124
5.75018
6.0145
5.54235
5.48076
5.76617
5.91322
5.3894
5.07972
5.58642
5.9966
5.22857
5.78083
5.27618
5.27053
6.51826
5.62322
6.09874
6.40659
5.54809
5.75698
7.63443
5.69839
5.138
5.1527
5.69814
5.14749
5.43834
6.7053
5.68623
6.6431
5.46501
5.89697
5.7533
5.6463
5.50308
5.10866
5.16401
5.97352
5.13242
6.26322
6.18534
6.16041
5.32679
5.6115
5.06994
5.99915
5.03329
6.60249
5.72485
5.58216
5.41913
5.38033
5.23355
5.4321
5.25455
5.5657
5.82255
5.71309
5.84772
5.52452
5.04598
5.22145
5.45711
5.57362
5.82621
5.22584
6.06178
5.67939
6.50692
4.75889
5.47964
6.21764
5.42102
4.52169
5.26184
5.87061
5.72096
5.88026
5.44416
5.26621
5.77601
5.71579
5.78156
6.05822
5.85585
6.05575
5.29943
6.05269
6.51885
5.76122
5.35324
5.49737
5.31986
5.41007
5.76211
5.37806
5.58338
4.91366
5.74254
6.27253
6.16524
5.88029
5.43242
5.63112
5.28718
4.69322
5.23684
6.82262
5.3223
5.82607
6.53601
6.17108
5.60717
6.04783
5.70348
5.29244
5.9302
5.95131
5.34002
5.59276
5.26423
5.94858
5.61964
6.14861
5.48604
5.44429
5.26697
5.23802
5.86212
5.48445
6.68796
5.70241
5.42573
5.01852
5.77784
6.05699
5.54736
5.85049
4.95151
5.56714
5.26336
5.44461
5.18568
5.27532
5.80029
5.46217
5.26832
5.40438
6.15349
6.37755
5.27527
5.41665
6.06602
5.48681
6.64212
6.40577
5.35138
5.27378
5.64699
5.5013
6.93347
5.43323
5.84131
5.1778
5.74223
5.62644
5.338
6.12842
5.30903
5.87655
5.25154
6.09928
5.31911
6.10172
5.66261
5.87265
6.414
5.31511
5.75233
5.41652
5.47162
5.3853
6.35643
7.84848
5.93258
5.0736
5.71142
6.09993
5.15082
5.80884
5.20744
5.71647
5.50684
5.45298
5.3311
6.08149
5.56806
6.33766
5.42585
5.71343
6.22512
5.99548
5.85237
5.43251
4.91697
6.555
5.34332
5.58918
5.93843
5.53653
5.6406
5.33457
5.33924
6.13853
5.58041
5.75692
5.84328
6.23134
5.54481
5.10895
6.49445
6.549
5.19497
5.39876
5.50513
5.52244
5.88611
5.24808
4.98672
5.08959
6.13397
5.41125
6.06492
5.55488
5.2033
5.48715
6.16378
5.50012
5.21924
5.95457
5.94774
5.52429
5.42718
5.77609
5.20652
5.80705
6.06398
6.01717
5.12613
5.59039
5.62611
5.74443
5.29158
5.34877
6.21246
5.80385
5.44413
6.12422
5.8617
5.39942
6.23005
5.27864
5.3256
5.61569
5.48989
5.7437
6.1136
5.55213
5.69247
7.36187
6.66813
6.01207
5.50989
5.61682
5.9671
5.44262
5.46918
6.91461
6.10924
5.46043
6.10526
5.84156
5.92305
5.44087
5.20056
5.85514
6.28476
5.67245
5.39706
5.31674
5.84927
5.16886
5.3893
5.53666
5.48772
5.26936
5.67443
5.75262
5.38811
5.96125
5.10527
5.35668
6.04033
6.00018
6.02266
5.87775
5.86167
6.11058
5.50917
5.28321
5.65792
5.84331
6.01988
5.98761
5.38668
5.14822
5.18035
5.90552
5.57905
6.86334
5.30278
6.39122
4.98036
5.40719
5.11677
5.36253
6.30137
5.7048
5.67689
5.95355
5.98603
5.08784
5.94142
5.67726
5.94664
5.61832
5.78291
6.17047
5.54306
5.5407
5.78478
5.8742
5.63176
5.62719
6.50401
6.4568
5.36227
5.23728
5.73116
5.83746
6.04058
5.03632
5.23276
6.00632
5.71356
5.79598
5.57178
6.46291
6.54013
5.37392
5.19073
5.8816
5.81091
5.14589
5.57497
5.48811
5.73051
5.8459
6.90473
5.78847
5.29951
5.29316
4.98754
5.51453
6.91465
5.99162
5.12925
5.41681
5.52643
4.86894
5.30233
6.17214
5.34005
6.2544
6.11964
5.01009
5.79848
5.64818
6.26033
5.43505
6.08626
5.33992
5.8847
5.34426
6.39767
5.71428
5.0526
6.36614
5.28879
5.32597
6.39588
5.30208
7.18998
5.51325
6.09756
5.1902
5.76048
5.02089
5.76109
5.33388
5.39384
5.10119
5.30361
5.81683
5.67119
6.76172
5.56997
5.28137
6.17921
6.03528
5.92748
5.27324
5.783
5.83129
5.57148
5.74049
5.81552
5.43578
5.71825
5.52409
5.82269
5.92261
5.41
5.77464
5.71314
6.06716
5.23047
6.76446
6.00405
6.45204
5.96214
5.97476
5.33229
5.93334
5.14144
6.06558
5.72551
5.11378
5.20314
5.13804
5.79085
5.3917
5.3391
5.74648
5.98795
6.4013
6.75492
6.07202
5.22898
5.74692
5.8648
5.7803
5.46893
5.20164
5.794
5.35827
5.68701
4.98081
6.31073
5.83048
6.33068
4.99808
5.49281
6.54058
5.60245
5.75707
5.44198
5.96666
5.3257
6.23756
5.71358
5.9422
5.13454
6.1735
6.77559
5.76261
5.45081
6.26986
5.26053
5.42791
6.37398
5.89477
5.64544
5.04876
5.48834
6.88331
5.79365
5.54609
5.90108
6.27934
5.74547
5.2934
6.16215
6.59615
6.42012
5.38419
6.48203
5.27863
5.69089
5.32543
6.15798
6.14992
5.54172
6.2785
5.3707
5.33172
5.15952
5.5036
5.89879
5.94461
5.17753
6.53042
5.72348
5.90347
5.16994
5.59207
5.87585
5.28951
5.64639
6.2353
5.19103
5.02784
5.54011
6.39705
5.55916
5.29236
5.85097
5.63018
6.13134
5.25512
6.24511
5.84904
6.7013
5.20045
5.19326
6.26478
4.98054
5.36912
5.71703
5.65742
4.94644
5.43964
5.86691
6.69155
5.36353
5.29642
6.16481
6.09407
5.38009
4.99939
5.03536
6.81509
5.48398
6.17439
6.6604
5.92317
5.29737
6.19732
6.31143
5.83497
5.55445
6.51758
6.09072
5.91218
5.91013
5.29472
5.74359
5.47082
5.52908
5.48586
5.68207
5.70991
5.18611
5.87959
6.2388
5.0406
5.29908
6.23089
5.40306
6.14076
5.12153
5.80574
5.67156
5.21724
6.04807
6.40221
5.82825
5.34058
5.44419
4.88904
5.09767
5.12046
5.48442
6.24145
5.91637
6.10955
5.41814
5.41727
6.33275
6.38446
5.74729
5.94955
5.36341
5.60943
5.64424
5.25975
5.12444
4.83356
6.31894
5.98797
5.98984
5.61203
5.28246
6.18574
5.27471
5.49763
6.09676
5.66335
5.68388
5.05686
5.00918
6.35474
5.61137
5.98493
5.26879
6.57651
5.66217
5.78819
6.26206
5.30927
6.35075
5.40064
5.47583
6.25083
5.51609
6.57483
6.19445
6.05045
5.82897
6.11625
6.08855
5.32725
4.98634
5.54584
5.94289
5.58046
5.94992
6.40877
5.71315
6.19779
5.29297
5.87256
5.85637
5.2229
6.41213
5.16694
5.77099
6.09187
5.41103
4.97181
5.085
6.06836
5.69855
5.66479
5.61123
5.14284
4.9957
5.47243
7.59356
5.6576
5.36353
5.51411
4.88521
6.15562
5.74408
5.18321
5.51421
6.13955
5.76084
5.4843
5.96876
5.47494
6.02377
5.35776
5.26074
5.66081
5.19834
5.79119
6.3879
5.45871
6.62786
5.25933
5.46908
5.11732
5.56432
5.10357
6.39645
6.19522
5.38278
5.15854
6.95827
5.22863
5.41481
5.7488
5.60044
6.62958
5.74539
4.7499
5.32891
5.50327
5.65715
5.49448
5.60298
5.10621
6.0074
5.77468
5.54753
5.35619
5.74934
5.51522
5.63525
6.86308
5.39789
6.27254
5.94046
5.68107
5.55695
5.64033
7.33708
5.99797
5.9693
5.89187
6.18558
6.37636
5.72761
5.59658
5.40612
5.94304
6.22125
6.14496
5.93153
4.92974
5.62854
5.63277
6.00013
5.0456
5.26227
5.31597
5.16059
6.29372
5.61676
5.12418
5.38083
6.11959
6.26598
5.332
6.21192
5.85584
6.75392
5.88287
5.44369
5.40419
5.66089
5.52901
5.34049
5.69893
5.51197
5.64505
5.86082
6.07193
5.98284
5.66758
5.85679
5.82471
5.68437
5.82962
5.49316
6.32218
5.22046
6.09969
5.84188
5.53985
5.15177
5.82746
6.18142
6.12056
5.24162
5.05488
5.62733
6.12195
5.92688
5.06714
6.38047
5.46672
6.34744
5.93119
5.51607
6.5052
6.3236
5.57254
5.69053
5.97752
8.16602
5.54432
5.66943
5.56157
5.88387
5.3665
5.54906
6.69318
5.94834
5.21404
5.34707
6.11075
5.9796
5.43577
5.65524
5.68942
5.57592
6.18718
6.37993
5.41143
5.92955
5.98446
6.41319
5.0133
5.73058
5.60989
5.9443
5.94048
5.63897
5.24805
5.36996
6.12027
5.24702
6.17387
6.27637
5.76925
5.90178
5.67131
6.2249
6.08467
5.19465
5.28058
5.94841
6.04834
5.4873
5.21695
5.4209
6.32831
6.01612
6.05762
5.65279
5.74352
5.63384
5.42014
5.89351
5.39321
5.21432
5.36699
5.35467
5.8786
5.80253
5.89752
5.88051
6.10247
5.16602
6.12957
5.24336
5.55633
5.61959
5.28137
5.47803
5.77581
5.35405
5.22963
5.81057
5.20451
5.64327
5.41431
5.53554
5.94601
5.94336
5.53554
4.88611
5.57872
6.38988
6.32225
6.25794
5.11732
5.87961
5.69175
4.89842
4.88041
5.23474
5.66679
5.2691
5.33093
4.89928
5.79899
6.30823
5.7782
6.6696
5.35865
5.65956
5.22672
5.22361
5.22028
5.08342
6.5054
6.06911
6.34867
5.84835
5.87014
5.549
6.92003
5.4912
5.90735
5.40498
5.31419
5.42448
5.96491
4.87601
5.466
5.71695
5.51997
5.47354
6.2791
6.42182
5.47381
6.94178
5.52014
5.92381
5.85897
6.10504
6.79272
6.08374
5.89176
5.89082
5.41362
6.41871
5.56919
6.04944
6.44416
5.17285
4.93605
6.20838
5.32536
6.08366
5.58424
5.01541
5.58446
5.36612
5.71555
5.33316
5.18127
5.55048
5.71884
5.80249
5.82104
5.4785
5.99449
5.7611
5.59906
5.68003
5.93288
5.94379
5.54924
5.85048
6.5901
5.4503
7.12474
5.11868
6.02516
5.29692
5.32695
5.94792
6.48724
6.15878
6.09403
5.48234
5.37341
6.13656
6.53104
5.03048
5.7906
6.43412
5.1807
5.63583
6.30902
5.48236
5.82198
5.44099
5.57847
5.44383
5.78566
6.35535
4.93
5.87812
5.71642
5.47818
6.19962
5.75795
5.48539
5.77509
5.60983
5.4025
5.6857
6.2602
5.71434
5.96077
5.30113
6.21716
6.18899
5.81512
5.17912
6.46541
5.43502
5.46419
5.23546
5.65107
6.43382
4.93809
6.52938
5.59538
6.12185
5.6153
5.4981
5.89943
6.11616
5.75062
5.57177
6.46434
5.36399
5.29265
5.19077
5.74255
5.34348
5.28972
4.84131
6.16453
5.9867
6.19243
6.06981
6.03507
5.38083
4.97038
5.52306
5.42384
6.08568
5.31551
6.24278
5.3195
6.34755
5.61759
5.45807
5.31826
6.22121
5.35329
6.66361
5.51863
5.61091
5.48664
5.44109
6.02894
6.54025
6.34499
5.06529
5.92078
6.22713
5.33051
6.05148
5.99984
5.91303
5.37898
6.61503
4.72183
6.17344
5.22836
6.16645
5.2028
5.46331
5.02678
6.75916
5.92482
6.59707
5.3568
5.61425
5.9821
6.01117
5.44099
5.86534
5.38461
5.33824
4.78461
5.47963
5.69257
4.8594
5.57754
6.06394
5.56271
5.10451
6.39292
6.05867
5.98742
5.68271
5.09829
5.58835
6.67518
5.64324
5.33674
5.42351
5.12801
5.61372
5.15446
6.0414
6.10975
6.3946
5.62614
6.21966
4.94731
5.66182
6.11794
6.03864
5.63735
5.53866
6.07007
5.85358
6.12042
5.13051
5.2442
5.15006
5.16224
5.13291
6.03598
5.52645
6.06029
6.35225
5.38579
5.1602
6.26714
5.83676
6.1278
5.73687
6.204
5.5452
5.44724
5.56476
5.753
5.51185
5.19144
5.77034
5.5758
5.38322
5.2517
6.53237
5.81132
5.29232
6.00938
5.96924
6.09476
5.60197
5.30602
6.23612
6.69067
6.16498
5.23645
5.65976
5.4087
5.37844
5.17746
5.39113
5.57223
5.4583
6.20306
5.43457
6.20395
5.86007
6.34137
5.60731
5.77727
6.18025
5.22649
5.51011
5.2757
5.5725
5.6237
6.58226
5.78222
5.24733
5.70125
5.27908
5.1203
5.4474
5.56694
5.29598
5.92105
6.43044
6.10598
6.01252
5.22979
5.5431
5.18211
5.83643
5.50159
5.5469
5.71681
5.97104
6.71241
6.46779
5.44074
5.78298
5.55651
5.75271
5.60271
5.35323
5.47959
5.80275
5.25366
5.70229
5.68888
5.96953
6.04992
5.57028
6.05288
5.75454
4.99688
6.55742
5.65378
5.2828
5.3259
5.25973
5.83654
6.22574
5.43003
5.57259
5.89519
6.25442
5.90827
5.74664
5.41955
6.0145
5.79807
5.34042
5.57463
7.02804
6.0423
4.78618
5.96011
5.72294
5.14541
5.41548
5.55929
5.89652
5.64608
5.85514
5.83846
6.62099
6.38717
5.52668
5.76662
5.09641
5.45667
5.82556
5.44594
5.01737
6.17512
5.68758
6.4633
5.28471
6.6027
5.41661
5.69523
6.22249
5.47989
5.83953
6.42429
6.41731
4.8842
5.16748
5.60201
6.12677
5.93731
5.70312
6.15347
5.06044
6.33759
6.81159
5.93507
5.93379
5.1174
5.7165
5.02906
5.91843
4.86246
5.72313
6.67743
7.27978
5.09601
5.53743
5.21118
5.40132
5.75405
6.14939
5.84071
5.38941
4.80087
6.05037
6.20275
6.4935
6.35565
6.14361
7.03426
6.87731
5.6512
5.48486
5.68718
5.82946
5.94149
5.65137
5.73729
5.28966
5.26741
5.68947
5.15316
5.4982
5.57543
5.82436
5.97119
5.18755
5.33374
5.56057
5.41552
6.42327
6.07259
5.87554
5.44273
6.68569
5.77382
5.38984
5.22996
4.99356
5.32009
6.16132
5.82705
5.76796
5.6939
6.62495
5.71657
5.43772
5.74139
5.32083
5.48902
5.83347
5.84938
5.66442
5.93331
5.48503
5.40347
5.14405
5.13809
5.7699
5.30841
6.08019
5.29597
5.2617
6.34512
5.97462
5.40344
6.14942
4.98275
6.91776
5.64002
6.96646
6.54301
5.9656
5.80838
5.61332
5.11816
5.87273
5.29566
5.93817
6.30952
5.62814
5.44037
5.75698
5.18537
5.88854
5.55899
6.05884
4.95626
5.26574
5.4103
6.64828
5.83474
5.42186
5.58914
6.69686
5.30052
5.80961
5.55754
5.77234
5.39214
5.22614
5.33259
5.72872
5.50086
7.57324
5.14502
5.66702
5.69815
5.3189
6.26843
6.12947
5.50643
5.2929
6.03727
5.33635
5.59888
5.79058
5.72902
5.63643
5.92558
5.36624
6.23648
5.79454
5.01923
6.68241
5.80875
6.53227
5.74009
6.04732
5.38753
5.85604
5.68873
5.64476
5.22427
6.12369
6.09258
5.93677
5.52401
5.42714
6.22483
5.15816
5.3945
6.20147
5.70292
5.70806
5.4564
5.96666
5.36778
5.0646
5.20123
5.29189
5.85081
5.72694
5.11514
6.34864
5.51318
5.74861
5.67276
5.19379
6.11907
6.02392
5.54866
5.57066
5.86969
5.72968
4.93977
6.07614
5.7493
5.56004
5.93102
5.55152
5.39593
6.12396
5.84991
5.19886
6.21031
5.91704
5.85172
6.24917
6.67913
5.97624
5.57397
5.11258
5.56733
5.32613
5.84636
5.44864
6.1562
5.03683
5.35984
5.80745
5.94396
5.71634
6.00654
6.27058
5.36603
5.925
5.9499
4.87388
5.39683
6.66183
5.47825
7.23816
5.71395
5.84829
5.35311
5.12006
4.99039
5.26337
5.68628
6.23176
6.56939
5.71755
5.52196
5.96884
5.62269
5.45605
5.40336
5.50007
5.96416
6.34925
6.10114
5.73211
6.01008
5.48839
5.71022
5.51877
5.63283
5.1763
6.0316
5.32373
6.41255
5.93501
5.45781
5.70032
5.05464
5.67076
5.86388
5.44542
5.51019
6.00742
6.06341
6.14563
5.40672
6.28415
6.17894
5.12216
5.66309
5.07307
6.07003
5.56198
5.82067
6.26131
5.32789
5.45829
5.09298
5.66388
5.58754
5.20879
6.02901
6.2484
5.55115
5.65089
5.85421
5.36443
5.83456
5.25486
5.11165
5.77066
6.37625
5.44719
5.79501
6.84746
5.55066
4.82439
5.05212
6.00627
4.90953
5.70431
5.72188
5.46735
5.41906
6.21894
5.81457
5.61937
5.67735
5.69457
5.8269
5.47627
5.85535
5.64775
5.46844
5.68827
5.06399
5.93781
5.62826
5.44625
6.34255
5.77715
6.02902
5.68734
5.1283
5.08782
7.16119
5.39922
6.06636
5.52545
5.95876
5.8267
5.3454
5.73515
5.93547
5.97269
4.9944
5.98826
6.23222
6.20801
4.74361
5.09718
5.4685
5.73328
5.50328
5.69137
5.13267
5.65731
5.36606
5.38109
5.65177
6.87062
6.04504
5.56291
6.04049
5.44448
6.12646
6.25251
5.88454
6.16214
5.43134
5.46337
5.87225
6.0111
5.6635
5.63964
5.75109
6.05324
5.12841
5.59579
5.27581
5.2898
6.48275
6.04162
6.00843
5.73241
6.19291
5.6022
6.04849
4.93432
5.24584
5.41588
5.85109
5.56656
8.92646
5.61957
6.56951
5.75613
5.71729
6.56383
5.23385
6.49362
6.10443
5.45874
5.80286
5.92987
5.35352
5.68855
5.81136
5.76264
5.84075
5.62612
5.19145
5.47619
5.46075
5.84047
5.68728
5.60123
5.34083
5.25786
5.6104
5.11677
5.67181
5.74964
6.16547
5.90365
5.43471
5.87295
5.32826
5.43791
5.98714
5.74
5.58308
5.33728
5.73706
6.52803
5.19748
5.98029
5.47172
5.83583
5.54195
5.35965
5.52541
5.79055
5.87503
6.04628
5.67588
5.56302
5.22393
5.77127
5.41424
5.46252
5.47211
6.67419
5.5184
5.79157
5.48821
5.42305
5.93256
5.18342
5.27696
5.23344
5.57567
5.41769
5.5362
5.59213
5.86839
5.71042
6.12789
5.5326
5.84263
5.62686
6.06391
5.47845
5.95716
6.07441
5.77102
5.20207
7.38558
5.64341
5.81063
5.53342
6.21758
5.36132
5.93429
5.96205
5.1325
5.50007
6.91851
5.13081
5.44517
5.69939
5.54701
6.29973
6.05772
6.08645
5.54741
5.94129
6.18682
5.78945
5.28567
5.52589
6.59079
5.36431
5.39879
5.51708
5.47221
5.59203
6.19863
5.11423
5.4934
5.46901
5.50156
4.93224
5.37985
5.25197
5.65834
6.51952
5.25932
7.08255
4.86356
5.71838
5.55793
5.82287
6.02046
5.51891
5.29413
5.8278
6.11039
5.41066
5.20441
5.21836
5.77981
5.16904
5.72489
5.32154
5.83367
6.14454
6.03906
7.13953
4.88834
5.57725
5.76923
5.81704
6.07448
5.52715
5.73337
5.92965
5.7134
5.82581
5.64631
6.0642
5.29333
5.85963
6.94773
4.9356
5.71718
6.41479
5.99525
5.60641
7.83283
5.69137
5.51679
5.688
6.33653
5.90817
6.43844
5.55748
5.93419
5.38646
6.04868
6.15145
5.89503
5.78411
6.62929
5.51695
5.48621
5.16568
6.42116
5.63596
6.05889
6.40476
5.64044
5.90681
5.34524
5.96542
5.98921
5.4735
5.75334
5.59751
5.46615
5.71457
5.29252
5.37642
6.12838
5.6448
5.05577
6.25081
6.24928
5.73125
4.87657
6.48081
6.01282
6.17116
6.31896
5.14094
5.42893
5.28012
5.86199
6.89658
6.1561
5.82695
5.62564
5.28896
5.49136
5.88283
6.2379
5.29175
6.0979
5.16134
4.9325
4.83907
5.16091
5.87844
5.22918
5.06194
6.65779
5.1993
5.91323
5.11896
6.62299
5.37634
6.32141
5.37093
6.11025
6.2126
5.60638
5.74573
5.72974
5.46184
6.08599
5.77783
5.45772
5.49084
5.49288
6.29528
6.11008
5.62916
5.84985
5.4719
5.85522
5.07419
5.89731
5.89637
5.63211
5.76311
5.35237
5.66934
6.29429
5.5361
5.7904
5.82154
5.52147
5.31075
5.50416
5.73797
5.04628
5.32322
5.70662
6.76549
5.50384
5.81095
5.88477
6.15984
5.80761
5.08498
5.66683
5.0193
5.36101
6.22918
6.36496
6.2056
5.47624
5.52883
5.35204
6.05236
5.49075
5.91784
5.56142
5.99274
6.3412
5.67367
5.33823
5.67537
5.66181
5.22329
5.89491
5.07306
5.33196
5.15397
5.96191
6.0518
6.11467
5.61273
6.43343
5.61293
5.4657
5.50655
5.33162
5.48274
5.54504
6.53471
5.41577
5.58535
6.05593
6.01545
5.62699
5.6664
5.16086
5.4385
5.15756
5.58238
6.5764
5.68068
5.41213
5.54168
5.44843
5.67539
4.87097
5.34882
6.21683
5.72375
5.7392
5.7553
5.0867
6.46954
5.74799
6.12826
5.24425
7.10963
5.39738
6.07089
5.42822
5.52772
5.81774
7.40919
5.38873
5.1256
5.73759
5.40344
6.64545
5.49471
5.44443
6.06405
5.85487
5.37401
5.11909
5.73395
5.62313
5.21289
6.14155
6.03727
4.66455
5.86865
7.24986
5.97309
5.12245
5.84511
5.64973
5.10904
5.40617
6.03651
6.06631
5.59214
5.76874
4.78168
5.80773
5.60514
5.53065
5.40935
5.70799
6.04056
7.13433
5.68316
6.17867
6.1332
6.2473
5.90425
5.62716
6.21871
6.52871
5.78187
5.65375
4.83302
5.93115
5.54517
6.25814
6.46326
5.35324
5.65712
5.1719
5.25734
6.41471
5.75597
4.91869
5.82381
5.51616
6.15967
5.41505
5.35223
5.79985
6.37184
5.69736
6.04543
5.46673
5.84326
5.52235
5.30492
5.32515
5.6894
5.9054
5.26355
5.62086
5.14526
5.66475
6.0154
5.95473
5.85178
5.50552
5.55967
5.53885
6.57407
5.83436
5.67028
5.3569
5.78979
6.2983
5.56855
5.01131
5.43953
5.6781
5.82671
6.40591
5.29447
6.33507
5.76316
5.37785
5.87181
6.02111
6.04186
5.92497
6.15219
5.62462
5.40487
6.25632
6.58266
5.71801
5.37316
5.7571
5.99647
5.31003
5.40999
5.92249
5.39042
5.40241
5.77012
5.50423
5.44788
5.8098
5.37536
5.54284
5.72184
5.56337
5.40371
5.26416
5.93467
5.23133
5.22123
5.71742
5.03408
6.33019
5.64643
5.38544
5.74263
5.54163
5.80606
5.87774
5.39469
4.98176
5.91675
5.9267
5.95132
5.42277
5.46675
5.91384
5.55087
5.91928
5.372
5.30667
5.64646
5.34554
4.57245
5.48842
6.39408
5.45628
5.60424
6.08358
5.91615
5.62443
6.02045
5.54554
5.21628
6.42683
6.66104
6.14957
5.5673
6.25406
5.48546
5.91807
5.18475
5.81908
6.26609
5.58142
5.8249
5.35038
6.94117
5.2657
5.54645
4.77602
5.98245
5.45563
6.46327
5.82783
5.9123
5.75638
6.54194
5.19185
5.35212
6.05521
6.25001
5.94617
5.84625
6.02518
5.6191
5.40776
5.40667
5.57291
6.92907
5.49966
6.48766
6.06975
5.50716
4.97475
5.57093
5.38647
6.08704
5.4388
5.59189
6.09986
5.98733
5.2083
5.67735
5.29044
5.54154
5.92399
6.92367
6.09021
5.85915
6.10562
6.16646
4.86563
5.51607
5.31548
5.5022
5.72748
6.0257
5.26557
6.29182
6.28658
5.36095
4.86924
5.67146
5.83227
5.87539
5.50726
5.10845
5.18416
5.72659
6.38671
5.64002
5.12756
6.25343
5.48103
5.59419
5.88084
5.08388
5.56528
5.90188
5.38946
6.37389
5.71697
6.52622
5.01755
5.90219
5.46687
5.43452
5.29628
5.47547
6.51054
5.66196
5.29297
5.82191
6.15304
5.66819
5.82142
5.36121
5.67515
5.83406
5.39771
5.54118
6.97794
5.60961
5.85806
5.74094
6.08125
5.28417
5.82369
5.32208
5.50374
5.85205
5.9217
6.22274
5.4318
5.88461
6.12118
5.56134
5.01523
5.34992
5.71828
5.58119
5.32166
5.71125
5.05881
5.21191
5.51969
