3.4443
3.48899
3.27414
3.57983
3.65749
3.51334
3.4598
3.49731
3.39413
3.33122
3.16143
3.45767
3.51541
3.46306
3.33763
3.22552
3.26566
3.38205
3.24892
3.30212
3.99314
3.62987
3.23309
3.11554
3.4404
3.46248
3.47594
3.48508
3.32485
3.82719
3.33993
3.37414
3.61449
3.54814
3.16081
3.69587
3.5074
3.30576
3.74415
4.05969
3.2678
3.37628
3.06597
3.43296
3.55629
3.2736
3.0261
3.90162
3.28027
3.52391
3.67416
3.26173
3.54846
3.45727
3.25373
3.26055
3.44926
3.29879
3.38627
3.92579
3.30031
3.24716
3.47268
3.53188
3.10299
3.08718
3.20655
3.42225
3.28271
3.38124
3.15925
3.43658
3.40505
3.38375
3.52959
3.32948
3.15416
3.28645
3.50612
3.51423
3.3736
3.01476
3.14131
3.44292
3.1189
3.37549
3.22712
3.38754
3.24927
3.22026
3.55126
3.58811
3.41952
3.2772
3.30438
3.39989
3.53725
3.62847
3.45045
3.62121
3.123
3.31341
3.77476
3.38857
3.11843
3.48109
3.50508
3.62229
3.41786
3.48937
3.47822
3.45756
2.93287
3.43125
3.45454
3.38892
3.34042
3.3746
3.19325
3.58328
3.56245
3.44004
3.51299
3.45871
3.27309
3.56495
3.20667
3.48443
3.42606
3.0491
3.32097
3.5313
3.4028
3.22074
3.47161
3.45859
3.29758
3.28075
3.65202
3.42911
3.46856
3.50204
3.65358
3.10331
3.25877
3.29051
3.77608
3.18686
3.23171
3.38022
3.53408
3.54978
3.31157
3.26889
3.09485
3.36173
3.25507
3.37076
3.66159
3.43277
3.48165
3.58328
4.0495
3.34203
3.31017
3.07487
3.74376
3.76007
3.67306
3.02945
3.38555
3.17649
3.24126
3.6663
3.33766
3.27769
3.84729
3.46513
3.20969
3.485
3.40787
3.50043
3.54626
3.49972
3.57305
3.22073
3.40255
3.30477
3.52029
3.58794
3.36183
3.14843
3.62931
3.37404
3.41521
3.36181
3.76416
3.49071
3.20303
3.30728
3.52008
3.29542
3.37485
3.49092
3.45056
3.77794
3.35524
3.49121
3.29884
3.59089
3.10454
3.89507
3.29902
3.44843
3.37523
3.63489
3.72139
3.44846
3.30168
3.27543
3.98452
3.69967
3.25138
3.57426
3.4346
3.68112
3.5435
3.26152
3.17287
3.68838
3.66374
3.1539
3.55749
3.7583
3.8078
3.56278
3.15053
3.20415
3.32367
3.69372
3.65407
3.56043
3.1635
3.6322
3.03604
3.34787
3.47609
3.25659
3.4005
3.42808
3.43741
3.4499
3.48059
3.57367
3.20646
3.45011
3.45317
3.1336
3.38204
3.73884
3.34502
3.15466
3.35109
3.14462
3.57319
3.47626
3.60243
3.61448
3.31487
3.81813
3.14846
3.20159
3.39514
3.16257
3.12205
3.59714
3.32074
3.49532
3.65655
3.63965
3.65697
3.02891
3.11585
3.44691
3.42919
3.337
3.3085
3.41663
3.5848
3.29776
3.17474
3.64235
3.14694
3.25823
3.49743
3.80918
3.41906
3.53932
3.31148
3.31227
3.80071
3.5318
3.42997
3.42698
3.53311
3.49163
3.45548
4.06516
3.13284
3.6529
3.39565
3.3078
3.12405
3.70116
3.46361
3.36931
3.36464
3.42403
3.24132
3.55951
3.33199
3.27028
3.19965
3.24985
3.41586
3.67636
3.33071
3.34324
3.63083
3.65592
3.83951
3.50662
3.34899
3.10998
3.51386
3.36358
3.5562
3.6121
3.44696
3.10787
3.4748
3.37857
3.26797
3.43704
3.20503
3.41635
3.72416
3.49821
3.34073
3.33875
3.62408
3.36114
3.40867
3.45928
3.36363
3.72796
3.36519
3.16076
3.53367
3.66579
3.28039
3.21416
3.28856
3.46747
3.32339
3.55899
3.15679
3.47311
3.46792
3.44358
3.47151
3.731
3.40594
3.19666
3.58732
3.3916
3.73668
3.24753
3.3319
3.2098
3.59471
3.74073
3.76302
3.71413
3.3748
3.44031
3.32231
3.18126
3.51051
3.52002
3.4956
3.10453
3.2029
3.21149
3.61297
3.39874
3.37957
3.58441
3.6763
3.36366
3.36856
3.38975
3.44195
3.62647
3.31267
3.38391
3.56146
3.49334
3.6624
3.3386
3.53916
3.43957
3.32359
3.12618
3.21535
3.05356
3.35125
3.72362
3.26128
3.69386
3.28555
3.2636
3.63135
3.65867
3.50369
3.53628
3.56142
3.22358
3.53344
3.47108
3.5291
3.73221
3.30901
3.35771
3.28509
3.44641
3.42757
3.26437
3.17731
3.53214
3.50435
3.44566
3.40989
3.37283
3.52885
3.58944
3.3325
3.49776
3.88598
3.18461
4.17045
3.46567
3.20575
3.19057
3.76242
3.33959
3.26158
3.32586
3.83947
3.26917
3.92321
3.50957
3.27507
3.47498
3.36804
3.24414
3.39065
3.70031
3.4738
3.60518
3.44545
3.37712
3.2218
3.36718
3.51116
3.67654
3.71981
3.46811
3.26238
3.33926
3.38327
3.61964
3.36064
3.24082
3.53248
3.41686
3.47574
3.54477
3.40556
3.39231
3.30681
3.41949
3.40534
3.2561
3.67747
3.73776
3.72452
3.40233
3.34788
3.41555
3.93961
3.29336
3.30402
3.2682
3.39317
3.54104
3.3858
3.59916
3.26171
3.32427
3.42097
3.08882
3.51042
3.43783
3.29653
3.58701
3.63877
3.51674
3.08546
3.65567
3.22751
3.38078
3.35108
3.30374
3.229
3.91513
3.26754
3.20809
3.43813
3.33394
3.71281
3.68749
3.34435
3.39331
3.59127
3.28415
3.18784
3.6787
3.45962
3.68619
3.52614
3.31365
3.29563
3.32738
3.79782
3.69862
3.34517
3.22397
3.70108
3.2441
3.2069
3.4777
3.35831
3.6914
3.342
3.38483
3.45518
3.42892
3.1677
3.76756
3.63154
3.43068
3.35209
3.54622
3.21506
3.85239
3.70726
3.48713
3.38013
3.2789
3.30592
3.35165
3.47683
3.29131
3.65815
3.57799
3.59229
3.39064
3.4712
3.32561
3.54094
3.47205
3.67172
3.22649
3.04543
3.29137
3.55224
3.27338
3.26875
3.52259
3.2045
3.6496
3.45963
3.31734
3.42201
3.7717
3.54666
3.35925
3.31624
3.43567
3.20485
3.18542
3.23039
3.42762
3.35836
3.57667
3.58742
2.86297
3.55057
3.37353
3.94626
3.09268
3.51923
3.33094
3.23473
3.55061
3.37355
3.2852
3.07834
3.40117
3.58742
3.80662
3.36407
3.35707
3.29611
2.99763
3.47735
3.37531
3.44091
3.38937
3.26418
3.28976
3.4726
3.41884
3.34929
3.67478
3.26876
3.50545
3.5803
3.50906
3.32069
3.20332
3.38042
3.31035
3.17845
3.20756
3.58914
3.19489
3.16817
3.73281
3.27146
3.56557
3.48933
3.20089
3.76221
3.46306
3.43521
3.41925
3.64483
4.11981
3.53841
3.50395
3.35617
3.71062
3.44929
3.72273
3.25696
3.58549
3.59374
3.63574
3.44763
3.35456
3.33567
3.49708
3.24451
3.64574
3.49575
3.46942
3.10296
3.39749
3.32669
3.58919
3.17234
3.26406
3.60301
3.19238
3.64069
3.13044
3.32384
3.52388
3.45744
3.29123
3.46202
3.35361
3.49665
3.58279
3.71038
3.49883
3.56599
3.51832
3.53108
3.38322
3.26697
3.22135
3.34204
3.42776
3.24231
3.47211
3.29704
3.38444
3.47533
3.34032
3.22352
3.66814
3.6064
3.60529
3.172
3.49889
3.94572
3.73419
3.37088
3.31736
3.12352
3.65014
3.78958
4.22029
3.28416
3.59786
3.31109
3.3536
3.33921
3.7999
3.57019
3.31232
3.48503
3.58594
3.62901
3.42853
3.60467
3.32537
3.74117
3.39073
3.47506
3.23664
3.40572
3.89911
3.5861
3.14897
3.65899
3.10055
3.91685
3.55139
3.09215
3.16974
3.70912
3.52666
3.56764
3.33669
3.61195
3.46665
3.56516
3.38853
3.59227
3.61672
3.07808
3.46391
3.28803
3.2948
3.38878
3.26996
3.43058
3.37782
3.25164
3.35588
3.35599
3.65085
3.40998
3.20716
3.48894
3.38305
3.48002
3.38198
3.82327
3.45483
3.33515
3.23414
4.01537
3.36218
3.02248
3.39212
3.62865
3.01574
3.57934
3.68367
3.70573
3.41652
3.55661
3.79704
3.2963
3.09465
3.35161
3.50491
3.53688
3.5293
4.02499
3.45627
3.45907
3.523
3.59917
3.43011
3.42715
3.3173
3.92332
3.16406
3.48409
4.01101
3.28523
3.42917
3.8862
3.19043
3.6968
3.40817
3.37491
3.53399
3.38645
3.48578
3.53564
3.64006
3.51646
3.35502
3.63754
3.69281
3.37118
3.5041
3.47539
3.25041
3.65976
3.4134
3.64789
3.31623
3.51299
3.43609
3.59467
3.42716
3.32002
3.63059
3.16343
3.12944
3.24057
3.38212
3.39753
3.04569
3.46711
3.79891
3.49525
3.28586
4.01341
3.41553
3.76163
3.58006
3.49779
3.27901
3.48265
3.7927
3.6437
3.59497
3.59055
2.96643
2.97539
3.41526
3.81257
3.46552
3.72487
3.50699
3.55153
3.52514
3.49527
3.45381
3.62908
3.39283
3.27626
3.20029
3.53896
3.45522
3.39425
3.51731
3.48144
3.57378
3.29741
3.64579
3.2617
3.18073
3.83695
3.33023
3.56949
3.29477
3.25573
3.6038
3.76155
3.49758
3.33984
3.83812
3.27684
3.34349
3.74369
3.39791
3.51142
3.63727
3.26421
3.34954
3.83482
3.5959
3.20146
3.48548
4.03045
3.22298
3.32001
3.5244
3.21591
3.24368
3.18069
3.50545
3.20465
3.57065
3.60475
3.32099
3.6154
3.41998
3.0165
3.3482
3.49355
3.40833
3.2618
3.25915
3.31298
3.62886
3.25815
3.44524
3.42149
3.56786
3.50176
3.2514
3.49379
3.55166
3.28022
3.38943
3.41626
3.00454
3.17138
3.36749
3.14701
3.50254
3.67463
3.35849
3.81423
3.32844
3.38674
3.46411
3.44493
3.21007
3.27745
3.11754
3.52588
3.25587
3.14708
3.56324
3.35715
3.01888
3.20078
3.51897
3.50627
3.44385
3.44588
3.5318
3.21208
3.90801
3.3151
3.48336
3.34268
3.39291
3.27331
3.35691
3.3348
3.5695
3.21183
3.44558
3.8893
3.1767
3.45499
3.58967
3.13505
3.38049
3.58653
3.43477
3.34031
3.23148
3.50567
3.50504
3.28195
3.30643
3.23773
3.59756
3.38223
3.57508
3.40326
3.3898
3.21577
3.59103
3.57648
3.31833
3.37274
3.17351
3.36878
3.38921
3.59236
3.66803
3.42613
3.44007
3.41913
3.4353
3.61267
3.45048
3.33587
3.53051
3.53044
3.46542
3.38457
3.64803
3.19987
3.50145
3.31946
3.7143
3.64757
3.57009
3.31651
3.29687
3.50054
3.52745
3.79394
3.42513
3.16856
3.21866
3.26827
3.32453
3.15307
3.41581
3.46426
3.49417
3.12891
3.17684
3.37179
3.3528
3.54732
3.73268
3.39752
3.45767
3.65836
3.42667
3.27057
3.35418
3.89038
3.42155
3.32994
3.1678
3.49081
3.06602
3.92758
3.81521
3.61769
3.52334
3.33648
3.49918
3.41224
3.55664
3.52864
3.76013
3.30228
3.59858
3.36953
3.42492
3.60073
3.61757
3.16989
3.34159
3.74992
3.37166
3.57196
3.43705
3.53443
3.33625
3.17847
3.43842
3.49511
3.2958
3.63031
3.57779
3.40673
3.65009
3.27019
3.70932
3.19973
3.36714
3.37737
3.80546
3.4231
3.27305
3.31407
3.30749
3.50884
3.52026
3.25303
3.33726
3.58724
3.02643
3.25806
3.50407
3.3391
3.79641
3.43273
3.28231
3.26483
3.77339
3.29596
3.34555
3.69804
3.65181
3.32761
3.44297
3.63102
3.21917
3.21272
3.43708
3.22009
3.18369
3.67314
3.51315
3.5513
3.49572
3.48548
3.71015
3.31555
3.43325
3.72281
3.37596
3.62043
3.32471
3.59784
3.5228
3.26327
3.13309
3.57192
3.33875
3.59392
3.20781
3.1758
3.49152
3.73253
3.62423
3.184
3.5918
3.33
3.17966
3.66627
3.4639
3.78753
3.80191
3.36821
3.04579
3.34125
3.51914
3.45955
3.14445
3.47951
3.53487
3.17597
3.37206
3.28001
3.45023
3.6824
3.15263
3.32575
3.41681
3.85365
3.54582
3.26546
3.36843
3.43912
3.26246
3.70253
3.41318
3.70737
3.25961
3.51574
3.07368
3.08809
3.7357
3.42897
3.22605
3.49733
3.74943
3.51613
3.4154
3.43692
3.4921
3.40097
3.75959
3.61737
3.5114
3.44887
3.43086
3.43507
3.62003
3.39749
3.28409
3.46462
3.1414
3.30421
3.6729
3.40937
3.85086
3.16068
3.13117
3.62738
3.75762
3.52582
3.51448
3.36701
3.20471
3.18983
3.42335
3.36351
3.23375
3.80791
3.46182
3.47145
3.37764
3.60421
3.15508
3.40546
3.236
3.7413
3.48451
3.37084
3.73418
3.50867
3.4163
3.83046
3.39901
3.32464
3.59722
3.34903
3.25532
3.39437
3.68066
3.56632
3.48736
3.24352
3.6389
3.27139
3.36273
3.43324
3.0972
3.32395
3.37778
3.80204
3.19408
3.29378
3.6466
3.06771
3.29005
3.76123
3.43899
3.45031
3.21035
3.75268
3.26776
3.34549
3.52845
3.53048
3.09808
3.34332
3.36556
3.32434
3.67424
3.45493
3.31837
3.86865
3.37991
3.4963
3.63031
3.2574
3.61383
3.46104
3.18768
3.53492
3.23447
3.52989
3.24954
3.9479
3.45458
3.52513
3.52466
3.40667
3.48377
3.4537
3.31328
3.57547
3.25088
3.08092
3.69177
3.54391
3.2438
3.20317
3.38283
3.59187
3.06595
3.25384
3.90321
3.54544
3.39014
3.3679
3.29955
3.42376
3.21444
3.44338
3.43164
3.63236
3.44699
3.2874
3.36515
3.40325
3.35494
3.6719
3.28219
3.4682
3.39347
3.63971
3.53711
3.27386
3.23285
3.47483
3.46024
3.50725
3.66944
3.30186
3.38153
3.37641
3.50825
3.30772
3.55907
3.52232
3.13326
3.43018
3.24208
3.51866
3.50191
3.3592
3.46231
3.6596
3.60989
3.22271
3.56406
3.58546
3.49887
3.10683
3.48924
3.19397
3.2856
3.3113
3.32214
3.60313
3.20075
3.49294
3.42865
3.22244
3.77915
3.68865
3.61767
3.45825
3.69535
3.51767
3.68034
3.2582
3.29986
3.39682
3.291
3.1579
3.27181
3.56913
3.31042
3.31331
3.22247
3.27536
3.74551
3.38979
3.35782
3.42639
3.61274
3.37837
3.50307
3.32323
3.50313
3.2546
3.59969
3.4934
3.4096
3.72817
3.52589
3.55199
3.04086
3.51434
3.5477
3.40867
3.32212
3.11062
3.47086
3.41436
3.2612
3.43935
3.45325
3.32796
3.54683
3.30706
3.42205
3.32847
3.75818
3.36763
3.81856
3.19183
3.46288
3.4794
3.66153
3.36047
3.56044
3.52421
3.70013
3.47843
3.54793
3.48829
3.09127
3.34778
3.5819
3.48008
3.70766
3.14027
3.86863
3.9859
3.26065
3.41776
3.43642
3.31573
3.2768
3.47738
3.61483
3.3734
3.1867
3.55995
3.13592
3.50184
3.38638
3.49745
3.61539
3.50331
3.21796
3.12469
3.71794
3.48091
3.17864
3.42632
3.46795
3.25053
3.61828
3.69032
3.54934
3.14745
3.51931
3.60828
3.50104
3.47219
3.60343
3.19119
3.63045
3.47894
3.33243
3.45776
3.1236
3.33118
3.31492
3.4638
3.27052
3.31273
3.15875
3.42053
3.24015
4.4387
3.22901
3.31934
3.17833
3.32632
3.55078
3.15677
3.44957
3.7168
3.4294
3.51036
3.65147
3.66872
3.35507
3.17778
3.33108
3.30803
3.73661
3.35339
3.39548
3.7906
3.43797
3.63567
3.42699
3.49954
3.42714
3.24901
3.73951
3.76823
3.28368
3.32374
3.40289
3.69193
3.60086
3.3925
3.82161
3.40352
3.38725
3.50053
3.39045
3.47238
3.46453
3.77039
3.49066
3.78679
3.28136
3.26663
3.49312
3.78278
3.56872
3.35237
3.27177
3.27784
3.3766
3.52198
3.21113
3.33497
3.38997
2.99074
3.38832
3.71672
3.47959
3.55688
3.66542
3.35875
3.44617
3.4783
3.74922
3.31994
3.67361
3.58619
3.41852
3.55202
3.46489
3.49106
3.4124
3.28122
3.49089
3.2787
3.37442
3.25415
3.5828
3.04952
3.03039
3.40646
3.26661
3.56653
3.44332
3.4721
3.55247
3.73149
3.93461
3.61065
3.46929
3.19982
3.45776
3.1613
3.39608
3.41238
3.54126
3.40615
3.31552
3.51563
3.4249
3.60362
3.52646
3.30876
3.38623
3.44143
3.38741
3.14798
3.37928
3.57446
3.8491
3.65923
3.38798
3.24542
3.51212
3.29592
3.55959
3.74558
3.38052
3.15908
3.21671
3.06321
3.6706
3.51016
3.18403
3.41692
3.58319
3.62548
3.31412
3.37066
3.26841
3.70135
3.3608
3.21233
3.57869
3.42631
3.31817
3.08987
3.47304
3.46911
3.53072
3.2887
3.56749
3.23907
3.18923
3.84828
3.52743
3.40277
3.55714
3.69023
3.40326
3.4883
3.28145
3.32845
3.64102
3.27114
3.27407
3.23369
3.38928
3.29051
3.28688
3.94948
3.41688
3.41068
3.44467
3.64798
3.42115
3.74737
3.70136
3.46636
3.10212
3.44463
3.47571
3.57245
3.44649
3.5659
3.14323
3.51654
3.39185
3.49702
3.67325
3.75816
3.44328
3.44215
3.33254
3.26966
3.35747
3.46885
3.59296
3.32385
3.88162
3.28553
3.53339
3.07553
3.17397
3.42549
3.23497
3.14343
3.39306
3.43034
3.45215
3.13787
3.34629
3.42395
3.37619
2.90207
3.63804
3.5291
3.2653
3.35139
3.49907
3.29996
3.15822
3.7295
3.27234
3.76016
3.4787
3.24655
3.37553
3.7453
3.54465
3.41756
3.5209
3.64944
3.46697
3.71413
3.59872
3.39887
3.14485
3.42605
3.27935
3.28796
3.66453
3.20256
3.50188
3.40493
3.31773
3.51803
3.67789
3.45694
3.68331
3.17285
3.70538
3.32268
3.44994
3.22636
3.11192
3.61925
3.36004
3.37968
3.40821
3.32211
3.33791
3.28019
3.35118
3.54769
3.43133
3.36162
3.25972
3.18189
3.15917
3.35525
3.60027
3.53197
3.45193
3.34695
3.4221
3.23903
3.21039
3.2893
3.68074
3.17676
3.39807
3.83669
3.17755
3.69765
3.26365
3.75064
3.56389
3.19263
3.43025
3.45353
3.16712
3.21904
3.27578
3.7408
3.64372
3.42731
3.52815
3.15926
3.4836
3.42156
3.44319
3.42957
3.4524
3.45704
3.36431
3.56094
3.19937
3.9858
3.07478
3.24864
3.39211
3.51699
3.31389
3.49527
3.25572
3.50617
3.10811
3.58149
3.35773
3.45327
3.37263
3.23507
3.52933
3.65001
3.76779
3.29112
3.20545
3.38743
3.05284
3.49664
3.63654
3.47357
3.23999
3.27661
3.20389
3.59868
3.51119
3.32632
3.38407
3.42614
3.25615
3.69585
3.31436
3.73656
3.19195
3.4214
3.21724
3.4658
3.33638
3.31416
3.31036
3.38148
3.18676
3.49645
3.29177
3.32193
3.05711
3.16233
3.56497
3.58606
3.30035
3.24798
3.42328
3.4067
3.35664
3.35795
3.22096
3.16585
3.43226
3.42786
3.38873
3.35964
3.28323
3.28739
3.12178
3.65346
3.60116
3.23491
3.14279
3.51504
3.36543
3.33883
3.82521
3.09725
3.47042
3.30581
3.14375
3.89939
3.12909
3.4899
4.02587
3.60554
3.62635
3.44593
3.2097
3.62009
3.78954
3.43658
3.17776
3.45181
3.66685
3.48373
3.12088
3.6454
3.3335
3.17837
3.07319
3.53027
3.82383
3.43193
3.1691
3.40822
3.55838
3.5514
3.37485
3.40997
3.4981
3.95284
3.33714
3.82688
3.66695
3.5184
3.82737
3.68307
3.32547
3.58697
3.61525
3.27383
3.44593
3.26564
3.60627
3.38766
3.64944
3.331
3.52079
3.31931
3.23583
3.12173
3.3517
3.25704
3.51402
3.77771
3.44082
3.3713
3.33841
3.2028
3.67095
3.51157
3.70219
3.34793
3.80828
3.3059
3.34382
3.14685
3.22089
3.30994
3.73768
3.46323
3.64492
3.71317
3.37033
3.478
3.35912
3.39415
3.35291
3.40234
3.3262
3.23122
3.71227
3.2302
3.34457
3.3855
3.04591
3.0923
3.28565
3.38511
3.37158
3.53471
3.19148
3.72702
3.14115
3.23739
3.41453
3.23513
3.45324
3.63986
3.70406
3.31082
3.20299
3.22362
3.54927
3.64941
3.5022
3.50452
3.37403
3.43838
3.49012
3.44284
3.5999
3.64055
3.73292
3.24379
3.18332
3.43294
3.52682
3.49205
3.34887
2.96198
3.70861
3.46286
3.6504
4.16894
3.31727
3.33492
3.53071
3.43461
3.86821
3.5434
3.30216
3.69244
3.37604
3.44112
3.23792
3.26525
3.56137
3.37983
3.75724
3.30315
3.39103
3.56627
3.49196
3.33313
3.5985
3.26228
3.41082
3.76588
3.51396
3.50117
3.3738
3.5721
3.52976
3.51089
3.39881
3.46314
3.15702
3.68455
3.20163
3.3882
3.40093
3.46978
3.37488
3.63074
3.55574
3.47094
3.56564
3.59573
3.20087
3.21754
3.79205
3.14031
3.64218
3.30735
3.42619
3.3063
3.80278
3.14646
3.28138
3.80107
3.39827
3.39214
3.25544
3.41924
3.06771
3.50228
3.18949
3.45133
3.42036
3.33388
3.28797
3.30858
3.69817
3.40835
3.40067
3.30948
3.58984
3.39439
3.5066
3.43369
3.3741
3.62505
3.35646
3.2782
3.31944
3.27703
3.36257
3.2781
3.41911
3.59736
3.14724
3.59131
3.36108
3.14061
3.4088
3.49596
3.54901
3.08455
3.19614
3.33233
3.36609
3.32779
3.36883
3.21155
3.52457
3.94165
3.26745
3.37069
3.33553
3.26628
3.46567
3.4705
3.30358
3.47708
3.53981
3.3827
3.74455
3.41477
3.46066
3.79408
3.60061
3.78159
3.32252
3.5293
3.44603
3.07757
3.66613
3.54174
3.51551
3.35885
3.56178
3.59296
3.55975
4.01089
3.3412
3.47298
3.69781
3.1549
3.08868
3.36637
3.59608
3.49852
3.49165
3.7815
3.54197
3.53029
2.9795
3.63305
3.33463
3.26205
3.684
3.30152
3.32114
3.22166
3.47452
3.22218
3.40447
3.17342
3.59501
3.3348
3.30246
3.31941
3.48814
3.55158
3.35206
3.58299
3.33635
3.6241
3.22891
3.71769
3.45403
3.19223
3.22496
3.53434
3.48447
3.5995
3.23965
3.2023
3.47115
3.4179
3.39959
3.25969
3.4277
3.31579
3.42006
3.708
3.37171
3.4901
3.44647
3.3986
3.34906
3.36994
3.3246
3.40744
3.31395
3.15917
3.57203
3.66737
3.29127
3.3333
3.53537
3.55807
3.23493
3.45351
3.52817
3.00227
3.44288
3.74292
3.18167
3.18192
3.37875
3.46385
3.38983
3.65542
3.42552
3.38525
3.29768
3.18852
3.48515
3.76004
3.5504
3.15428
3.38606
3.51547
3.38589
3.59293
3.33561
3.52493
3.35064
3.51524
3.49313
3.43186
3.85558
3.18184
3.69286
3.18177
3.73753
3.39663
3.31701
3.31423
3.34841
3.25101
3.22662
3.42648
3.59911
3.79279
3.66064
2.94524
3.27361
3.75827
3.42049
3.25587
3.60148
3.81937
3.53357
3.13306
3.18043
3.32676
3.39967
3.04646
3.2258
3.3036
3.38217
3.4017
3.46924
3.60349
3.71462
3.5617
3.67736
3.55548
3.30504
3.0514
3.3333
3.22035
3.55696
3.67087
3.49799
3.41692
3.51622
3.79952
3.45532
3.22621
3.54668
3.5825
3.17997
3.43536
3.39548
3.23626
3.3682
3.40669
3.27256
3.14211
3.74578
3.19283
3.12958
3.32162
3.37456
3.3556
3.19445
3.80936
3.47917
3.95979
3.75128
3.35586
3.67186
3.75181
3.67256
4.02788
3.56251
3.49359
3.45806
3.62979
3.33871
3.6059
3.20437
3.66012
3.37551
3.20143
3.47251
3.52432
3.26571
3.43228
3.7718
3.37756
3.54267
3.50918
3.39212
3.23483
3.22429
3.70538
3.26809
3.566
3.32904
3.28144
3.38575
3.4256
3.63545
3.23615
3.41311
3.39738
3.36506
3.30729
3.49526
3.50288
3.72791
3.43984
3.58249
3.06698
3.33861
3.3126
3.07855
3.34229
3.19486
3.14886
3.42448
3.34726
3.43967
3.3778
3.57451
3.54707
3.33777
3.5958
3.51383
3.40347
3.28904
3.29678
3.31006
3.64744
3.45814
3.36903
3.4954
3.29301
3.25112
3.42781
3.43882
3.64718
3.49457
3.42301
3.56498
3.66696
3.47589
3.39855
3.31438
3.49819
3.35223
3.44833
3.39111
3.39354
3.48953
3.43296
3.50249
3.52245
3.25015
3.34279
3.3043
3.22816
3.35429
3.60789
3.35103
3.62162
3.50527
3.71194
3.26133
3.425
3.36527
3.4927
3.36983
3.45631
3.55232
3.48786
3.42236
3.4373
3.31908
3.52365
3.38057
3.8653
3.7848
3.703
3.23734
3.81069
3.56641
3.51142
3.40694
3.36104
3.31551
3.20499
3.16144
3.60107
3.43893
3.35066
3.29786
4.13722
3.1551
3.40672
3.62237
3.59584
3.33951
3.82339
3.45286
3.50373
3.16229
3.30254
3.14327
3.46311
3.57498
3.67977
3.40143
3.20032
3.1995
3.45149
3.70475
3.1483
3.51405
3.53152
3.45888
3.34614
3.5644
3.26418
3.17696
3.33175
3.47804
3.28531
3.56158
3.54627
3.496
3.81674
3.47532
3.73033
3.43043
3.29169
3.36941
3.4263
3.31029
3.3778
3.20023
3.52448
3.47622
3.57194
3.47985
3.26136
3.53418
3.30293
3.30503
3.39025
3.27714
3.38905
3.48443
3.53644
3.39729
3.47579
3.25171
3.25723
3.42048
3.609
3.54865
3.14171
3.28419
3.22676
3.12059
3.56896
3.60227
3.54818
3.18911
3.54257
3.45345
3.26641
3.12202
3.40774
3.18508
3.73829
3.37928
3.31565
3.47699
3.24143
3.16671
3.30911
3.58924
3.32408
3.26251
3.4313
3.44306
3.24045
3.09754
3.49822
3.13054
3.51597
3.4457
3.29121
3.41793
3.23546
3.36616
3.40587
3.68014
3.52467
3.05387
3.72281
3.54273
3.34475
3.56372
3.66005
3.55047
3.23778
3.52661
3.48023
3.43155
3.67969
3.35958
3.24232
3.42512
3.36894
3.74616
3.54813
3.67163
3.2482
3.59136
3.35927
3.34294
3.19441
3.51155
3.84989
3.34149
3.25117
3.40609
3.26531
3.52894
3.19883
3.26554
3.21476
3.48334
3.41194
3.49672
3.75466
3.61537
3.32998
3.47505
3.53379
3.41312
3.16403
3.3259
3.17139
3.50662
3.58693
3.35592
3.62757
3.68416
3.43305
3.62237
3.29998
3.40789
3.60165
3.85883
3.4465
3.42037
3.58462
3.63387
3.54237
3.41219
3.464
3.3769
3.25022
3.63704
3.32277
3.35062
3.14983
3.41756
3.3486
3.53804
3.40696
3.14994
3.49734
3.46172
3.52063
3.26271
3.64832
3.53987
3.29187
3.21169
3.53207
3.70853
3.37655
3.86533
3.63705
3.7095
3.53493
3.40565
3.78279
3.34483
3.5419
3.13289
3.03895
3.27626
3.23015
3.64017
3.5185
3.27438
3.7
3.44498
3.14372
3.46295
3.3208
3.16729
3.51386
3.35707
3.58336
3.38033
3.67379
3.28586
3.53898
3.39917
3.46414
3.41024
3.41592
3.4284
3.52322
3.51732
3.20629
3.39338
3.12682
3.26628
3.13498
3.12896
3.15973
3.53061
3.55495
3.38264
3.3047
3.31518
3.43821
3.33251
3.39035
3.44478
3.33374
3.69306
3.37486
3.17339
3.28932
3.52752
3.63192
3.33494
3.26148
3.51899
3.41046
3.27798
3.35309
3.48875
3.40434
3.63674
3.51692
3.34525
3.33467
3.68069
3.20146
3.51188
3.29757
3.49034
3.22796
3.25485
3.095
3.33431
3.34569
3.70349
3.31203
3.87169
3.14279
3.71903
3.10226
3.67271
3.32187
3.51292
3.15645
3.2816
3.4374
3.4836
3.3014
3.42295
3.56845
3.75431
3.26261
3.49205
3.34728
3.27487
3.46895
3.70341
3.46714
3.23009
3.51874
3.35164
3.46657
3.55367
3.42741
3.43121
3.22865
3.53788
3.30898
3.48754
3.63029
3.11997
3.10218
3.86967
3.70085
3.67673
3.56308
3.8169
3.35865
3.76511
3.27542
3.53683
3.29968
3.9205
3.36124
3.24169
3.45952
3.44079
3.48071
3.51472
3.21271
3.38798
3.37265
3.48817
3.3396
3.57312
3.27073
3.48331
3.39548
3.42494
3.21108
3.47228
3.71877
3.65776
3.3446
3.44387
3.52276
3.19385
3.40269
3.20585
3.64762
3.12614
3.46615
3.47073
3.66873
3.47643
3.29305
3.30284
3.32868
3.07989
3.67046
3.4697
3.13881
3.66856
3.54982
3.27962
3.53819
3.40934
3.41654
3.78073
3.62732
3.25854
3.77867
3.21113
3.44251
3.16385
3.30862
3.60693
3.09021
3.47652
3.26513
3.44942
3.49677
3.40143
3.34295
3.1063
3.32484
3.52128
3.40553
3.1997
3.4428
3.65818
3.20893
3.35463
3.69522
3.60803
3.28021
3.26545
3.84486
3.53388
3.50734
3.26168
3.76396
3.53808
3.75459
3.68834
3.45873
3.36102
3.44654
3.75456
3.18533
3.28084
3.3438
3.75548
3.66715
3.6747
3.87214
3.54242
3.24646
3.41461
3.49126
3.29938
3.62487
3.55242
3.39861
3.33066
3.23604
3.26205
3.54255
3.5517
3.69897
3.24477
3.55765
3.29782
3.46322
3.7452
3.3933
3.35428
3.20988
3.82777
3.89078
3.41457
3.03088
3.5409
3.56817
3.29706
3.87556
3.3108
3.33547
3.53888
3.38197
3.57043
3.35277
3.28852
3.61301
3.36346
3.39661
3.46099
3.4936
3.53877
3.53048
3.2035
3.76358
3.62424
3.60787
3.74895
3.12947
3.50536
3.3894
3.3789
3.46642
3.8129
3.46405
3.38893
3.58307
3.32998
3.83784
3.16829
3.32364
3.4818
3.39466
3.49533
3.28288
3.36081
3.25508
3.42184
3.49038
3.49226
3.40948
3.36168
3.25245
3.20794
3.55402
3.63844
3.7064
3.5836
3.35093
3.49401
3.40664
3.78977
3.17367
3.57604
3.39962
3.26905
3.19079
3.61224
3.51224
3.38923
3.21995
3.46319
3.62225
3.44749
3.45665
3.64783
3.43732
3.35803
3.21957
3.25841
3.2004
3.37454
3.40458
4.16152
3.35026
3.4058
3.49206
3.17027
3.79563
3.74422
3.67772
3.62238
3.19253
3.34509
3.54983
3.44508
3.55932
3.47692
3.32356
3.58764
3.36758
3.40251
3.48189
3.41587
3.27231
3.21005
3.45293
3.34878
3.444
3.54989
3.28998
3.35363
3.0559
3.23252
3.37857
3.05961
3.50836
3.29522
3.17362
3.32738
3.34021
3.36845
3.43858
3.4751
3.42545
3.60402
3.50413
3.47597
3.53111
3.48576
3.19178
3.6973
3.4722
3.47573
3.08132
3.65971
3.50728
3.46235
3.49015
3.43295
3.39547
3.19518
3.66344
3.31619
3.27759
3.56104
3.19013
3.30333
3.49468
3.62844
3.40386
3.27841
3.5638
3.37947
3.33825
3.51909
3.66036
3.3635
3.19723
3.80439
3.22418
3.63053
3.72808
2.97321
3.46167
3.10598
3.49431
3.32111
3.58857
3.21404
3.3914
3.37254
3.51804
3.33541
3.70375
3.55035
3.64027
3.37305
3.27186
3.63729
3.3055
3.52683
3.45068
3.66041
3.85636
3.6447
3.26487
3.21367
3.26367
3.48755
3.63019
3.11829
3.39517
3.45237
3.38486
3.45474
3.23329
3.3152
4.04514
4.04387
3.8202
3.47041
3.77374
3.55395
3.22353
3.55152
3.10169
3.43411
3.23859
3.32622
3.59538
3.40639
3.34642
3.20149
2.96698
3.59593
3.47354
3.37254
3.61386
3.54385
3.74428
3.44802
3.31239
3.41753
3.21017
3.41301
3.64861
3.47859
3.57103
3.41925
3.65834
3.38265
3.4913
3.71752
3.2018
3.26887
3.18455
3.4758
3.50652
3.61566
3.35812
3.42417
3.6697
3.34778
3.23927
3.14106
3.61074
3.16783
3.21837
3.38522
3.26287
3.42439
3.47413
3.45832
3.24939
3.57741
3.2234
3.63588
3.26948
3.1557
3.15163
3.43035
3.22972
3.52685
3.48211
3.20414
3.39412
3.873
3.04922
3.42031
3.6746
3.5447
3.35343
3.38039
3.68078
3.31253
3.53142
3.08384
3.83896
3.76672
3.22735
3.80935
3.83958
3.1347
3.53094
3.46562
3.3961
3.60395
3.657
3.61406
3.24989
3.29323
3.86516
3.35364
3.3395
3.23467
3.32168
3.64246
3.46382
3.59792
3.36876
3.45081
3.35774
3.39721
3.51464
3.34593
3.32714
3.10825
3.5743
3.5585
3.4189
3.59157
3.07806
3.61444
3.27031
3.41525
3.41514
3.29979
3.39306
3.49404
3.47264
3.3756
3.54539
3.30791
3.22728
3.65449
3.19113
3.29496
3.58895
3.5456
4.08336
3.46078
3.45109
3.34709
3.3567
3.29968
3.63505
3.38644
3.3197
3.41841
3.31126
3.30588
3.55505
3.44759
3.18556
3.58662
3.08018
3.77316
3.3749
3.24615
3.35394
3.1134
3.3072
3.13943
3.43095
3.34445
3.20805
3.31128
3.3693
3.4177
3.47716
3.40165
3.3797
3.41891
3.23289
3.31631
3.68325
3.32368
3.45105
3.2746
3.92837
3.52052
3.20258
3.30982
3.17818
2.92647
3.33774
3.54549
3.57561
3.54992
3.32605
3.29547
3.54764
3.28965
3.58358
3.60203
3.32719
3.45321
3.31909
3.50001
3.2493
4.00075
3.60695
3.50492
3.37943
3.53605
3.11109
3.52628
3.57404
3.46782
3.5133
3.55458
3.4982
3.22863
3.34083
3.54931
3.42826
3.32325
3.35771
3.39784
3.2701
3.48293
3.30232
3.17752
3.29312
3.30482
3.17656
3.16888
3.88625
3.20774
3.59707
3.6137
3.61939
3.27756
3.47343
3.56155
3.44972
3.62296
3.27597
3.30926
3.57075
3.35539
3.3683
3.14346
3.32998
3.2035
3.78698
3.53497
3.38954
3.46253
3.87509
3.47366
3.34947
3.24324
3.19473
3.47014
3.65574
3.31458
3.16597
3.26887
3.37003
3.44566
3.51911
3.16375
3.38903
3.77761
3.62772
3.48853
3.55036
3.3805
3.43604
3.26455
3.3659
3.43059
3.57989
4.06899
3.70321
3.29122
3.40137
3.49451
3.32042
3.54108
3.55696
3.15875
3.41042
3.52672
3.30955
3.37117
3.44677
3.31236
3.28699
3.42138
3.65864
3.33417
3.207
3.40477
3.80198
3.19783
3.37817
3.87161
3.39917
3.57015
3.4689
3.89979
3.57426
3.75068
3.25862
3.16825
3.32756
3.75159
3.58791
3.6319
3.49664
3.52191
3.40039
3.27162
3.39683
3.61043
3.58177
3.46346
3.33797
3.295
3.54266
3.87398
3.32239
3.77866
3.57588
3.69265
3.40957
3.53653
3.45876
3.59378
3.25593
3.18704
3.24508
3.41376
3.33671
3.31934
3.43765
3.32061
3.40162
3.63484
3.40176
3.57688
3.27001
3.42381
3.4545
3.50917
3.42179
3.30188
3.47814
3.28363
3.55739
3.191
3.74417
3.58133
3.88525
3.72895
3.49889
3.89853
3.58552
3.20715
3.3598
3.5118
3.53869
3.12796
3.18956
3.27097
3.25194
3.59922
3.36196
3.51837
3.2287
3.30667
3.15473
3.0647
3.69275
3.60018
3.34528
3.39914
3.49563
3.40261
3.16654
3.37264
3.38805
3.62711
3.6177
3.21057
3.52774
3.396
3.57823
3.27122
3.38932
3.4933
3.36869
3.30032
3.51354
3.30344
3.45584
3.25323
3.67278
3.29647
3.29213
3.77955
3.2788
3.16025
3.12331
3.36736
3.63814
3.37675
3.37614
3.3962
3.36102
3.52102
3.38822
3.09256
3.4576
3.26091
3.41634
3.15171
3.25095
3.44986
3.33624
3.32028
3.49134
3.33708
3.65772
3.52035
3.57957
3.35629
3.19658
3.40524
3.27275
3.69881
3.88771
3.17721
3.21544
3.03405
3.26111
3.52276
3.35197
3.45042
3.44488
3.6834
3.43187
3.40821
3.88802
3.52849
3.39264
3.73573
3.45929
3.54359
3.13833
3.07249
3.44861
3.55899
3.60079
3.49769
3.06249
3.4849
3.47233
3.61565
3.28694
3.22658
3.42764
3.32253
3.64665
3.50358
3.29234
3.52297
3.50771
3.30807
3.44466
3.35935
3.78845
3.73245
3.48241
3.40292
3.43284
3.3905
3.56223
3.23556
3.2947
3.29352
3.41606
3.58912
3.24338
3.56278
3.31075
3.22607
3.43011
3.54168
3.51483
4.01126
3.76812
3.32167
3.42736
3.31613
3.32001
3.50588
3.33025
3.53597
3.15765
3.4397
3.33532
3.37994
3.57353
3.37269
3.4154
3.27349
3.202
3.23207
3.24385
3.51182
3.82637
3.34514
3.79307
3.38302
3.37978
3.43994
3.646
4.34416
3.34109
3.34948
3.41638
3.404
3.39195
3.51161
3.3537
3.38075
3.61235
3.63313
3.36976
3.3462
3.55574
3.60058
3.84349
3.60949
3.54706
3.47873
3.22685
3.47308
3.45266
3.52361
3.25697
3.55235
3.45742
3.43792
3.64212
3.22415
3.56926
3.43354
3.48184
3.27019
3.70847
3.43517
3.83359
3.00558
3.08837
3.60868
3.402
3.41862
3.6122
3.72713
3.69553
3.76321
3.38557
3.34916
3.46561
3.08123
3.53118
3.83866
3.38762
3.31321
3.4861
3.35965
3.55402
3.47112
3.34474
3.4215
3.31392
3.20838
3.19377
3.70924
3.60505
3.12609
3.33392
3.65905
3.24976
3.27849
3.25383
3.64974
3.37335
3.49762
3.26424
3.5977
3.40426
3.31255
3.39022
3.64407
3.61935
3.32925
3.5749
3.30869
3.25791
3.74739
3.29119
3.22249
3.50023
3.36409
3.33621
3.52729
3.17174
3.62701
3.64143
3.32569
3.60794
3.52117
3.66252
3.38906
3.58161
3.51065
3.48672
3.47431
3.37583
3.49536
3.30235
3.24316
3.37917
3.44093
3.41488
3.48096
3.3552
3.22435
3.06458
3.60503
3.49567
3.4238
3.36487
3.40448
3.55845
3.33324
3.42196
3.56196
3.33339
3.50346
3.56234
3.58554
3.87172
3.39444
3.66955
3.29492
3.24784
3.2543
3.28497
3.46423
3.44596
3.38007
3.82907
3.77544
3.70865
3.51207
3.38873
3.23113
4.0111
3.31891
3.13254
3.87591
3.45932
3.31119
3.38145
3.25793
3.61997
3.39414
3.24859
3.34071
3.3818
3.23286
3.43383
3.59154
3.42831
3.54431
3.33024
3.88561
3.5293
3.31221
3.4271
3.48635
3.7311
3.56581
3.18029
3.33427
3.53109
3.39489
3.45663
3.87012
3.65987
3.42986
3.59214
3.71442
3.55434
3.24812
3.477
3.19231
3.45912
3.41474
3.34479
3.2884
3.20195
3.36943
3.64449
3.64036
3.27077
3.49528
3.58705
3.30261
3.39542
3.52298
3.36455
3.58677
3.33045
3.19599
3.21103
3.78859
3.37897
3.23618
3.30941
3.73246
3.3029
3.2659
3.4061
3.56206
3.32671
3.66986
3.51391
3.84742
3.10262
3.27233
3.38445
3.27261
3.55142
3.64856
3.59099
3.20326
3.63607
3.62081
3.32837
3.12097
3.60371
3.56262
3.35371
3.61218
3.38046
3.37178
3.91077
3.44352
3.62632
3.00874
3.64484
3.38027
3.49416
3.4883
3.54404
3.40134
3.42541
3.37704
3.18197
3.67428
3.12159
3.29333
3.34662
3.17794
3.22752
3.61105
3.37312
3.55909
3.71284
3.22971
3.54019
3.72906
3.51668
3.36677
3.30537
3.32409
3.54953
3.27256
3.48201
3.62426
3.75176
3.49643
3.95122
3.6686
3.18469
3.51067
3.46986
3.19433
3.46203
3.621
3.41799
3.48622
3.46001
3.60908
3.6091
3.59278
3.71564
3.46844
3.14129
3.60261
3.50903
3.52739
3.82754
3.41986
3.45248
3.19464
3.82309
3.62169
3.44013
3.44439
3.28826
3.284
3.52074
3.51154
3.36438
3.41623
3.24932
3.6821
3.76102
3.63074
3.57271
3.55143
3.67731
3.21151
3.35544
3.62431
3.50906
3.88713
3.30749
3.25456
3.57899
3.73462
3.39281
3.39522
3.25006
3.74392
3.27766
3.4918
3.77072
3.41681
3.38776
3.11002
3.33297
3.51306
3.33238
3.6294
3.54547
3.35101
3.38199
3.13215
3.5204
3.47179
3.77529
3.16566
3.5654
3.57821
3.43742
3.60647
3.27268
3.36488
3.36345
3.38091
3.1987
3.31196
3.53144
3.46364
3.46321
3.56388
3.47437
3.54568
3.51692
3.76715
3.16312
3.52555
3.39316
3.47519
3.39474
3.31279
3.26256
3.26819
3.55938
3.48478
3.5042
3.46877
3.54777
3.17901
3.35037
3.38868
3.51259
3.30716
3.33492
3.39577
3.43421
3.77121
3.56918
3.59366
3.27335
3.34078
3.47724
3.69994
3.74661
3.54706
3.68165
3.31297
3.37464
3.21399
3.25291
3.51678
3.19874
3.37605
3.3484
3.48116
3.36525
3.42472
3.5457
3.2696
3.34415
3.33094
3.77692
3.64319
3.3409
4.07043
3.46173
3.23203
3.38601
3.4035
3.64093
3.35621
3.75958
3.57322
3.27367
3.43941
3.59838
3.54043
3.6394
3.20681
3.71904
3.4746
3.41057
3.62728
3.59888
3.69302
3.34512
3.40168
3.43427
3.5659
3.51231
3.54119
3.38798
3.55207
3.64505
3.23381
3.31723
3.3032
3.24267
3.65684
3.14074
3.49556
3.18579
3.48373
3.6431
3.25452
3.3035
3.58723
3.61296
3.40911
3.65522
3.52671
3.40514
3.46572
3.52203
3.449
3.47263
3.52117
3.46041
3.60501
3.34859
3.0901
3.77478
3.33706
3.28549
3.22248
3.57633
4.10994
3.34258
3.56457
3.34103
4.1772
3.87167
3.36675
3.04428
3.59839
3.27548
3.6507
3.43169
3.15034
3.58944
3.55336
3.42141
3.75726
3.70333
3.25966
3.43656
3.43745
3.75991
3.54153
3.39246
3.68598
3.57287
3.37573
3.55893
3.22507
3.38732
3.61375
3.16561
3.40318
3.3403
3.42827
3.3514
3.50967
3.81503
3.15694
3.30569
3.22045
3.21729
3.34137
3.70179
3.42064
3.7764
3.45729
3.41474
3.36693
3.45533
3.82989
3.72375
3.73243
3.56693
3.46644
3.45473
2.99237
3.39033
3.33189
3.58703
3.29098
3.66499
3.33303
3.64206
3.46251
3.37108
3.48785
3.64312
3.46184
3.52408
3.56937
3.54399
3.27653
3.67103
3.72028
3.36016
3.48676
3.39624
3.53468
3.10823
3.46668
3.59278
3.20611
3.37843
3.28667
3.45482
3.63815
3.3927
3.19206
3.74387
3.63471
3.41805
3.64268
3.44424
3.77684
3.60145
3.32908
3.44157
3.12183
3.26761
3.45135
3.68523
3.56861
3.42356
3.26676
3.23864
3.2857
3.48404
3.34064
3.27863
3.56984
3.32151
3.60759
3.62924
3.09616
3.07813
3.60573
3.38327
3.54259
3.49075
3.58698
3.53097
3.06237
3.18209
3.37436
3.45329
3.42272
3.60882
3.68048
3.22772
3.47124
3.43364
3.18879
3.49696
3.31537
3.29003
3.27705
3.46427
3.16403
3.37776
3.54184
3.29844
3.23229
3.47387
3.5259
3.32409
3.77535
3.5249
3.42432
3.2618
3.14097
3.81538
3.4512
3.39888
3.39971
3.62639
3.21598
4.19435
3.47582
3.37313
3.05832
3.33464
3.22904
3.55984
3.32812
3.28788
3.40049
3.5443
3.15355
3.37909
3.43702
3.45308
3.56282
3.37683
3.58465
3.17842
3.30345
3.44607
3.17499
3.65706
3.29701
3.47691
3.10055
3.25957
3.57164
3.37996
3.34204
3.55831
3.54243
3.95112
3.67391
3.3396
3.38801
3.2269
3.48439
3.56136
3.57066
3.58478
3.69254
3.41465
3.45296
3.71767
3.22511
3.97849
3.25861
3.23951
3.61218
3.3371
3.40395
3.18888
3.46306
3.50476
3.59601
3.70535
3.504
3.44554
3.25733
3.51558
3.54589
3.67155
3.63942
3.54436
3.31473
3.20548
3.60331
3.56776
3.25354
3.28362
3.46799
3.55688
3.43641
3.32112
3.82635
3.26004
3.53016
3.17127
3.62281
3.48996
3.40093
3.58388
3.27164
3.18882
3.60778
3.1629
3.46326
3.31548
3.24595
3.21617
3.5325
3.43732
3.2178
3.42841
3.16813
3.39012
3.39207
3.44485
3.57671
3.30652
3.60139
3.33925
3.39198
3.60883
3.35568
3.38618
3.33208
3.32001
3.4323
3.27141
3.45831
3.23147
3.76833
3.32598
3.60304
3.67908
3.6027
3.45093
3.28926
3.40431
3.3905
3.52874
3.21594
3.72686
3.4244
3.43003
3.36757
3.45048
3.66741
3.32296
3.40807
3.33743
3.55405
3.27316
3.50356
3.4748
3.17589
3.51337
3.47122
3.41987
3.70076
3.55474
3.27201
3.33006
3.03389
3.64506
3.26099
3.32002
3.54524
3.37443
3.23882
3.37745
3.53521
3.58436
3.67054
3.99832
3.24306
3.38261
3.4443
3.2959
3.86485
3.07886
3.47972
3.75432
3.48284
3.32906
3.37987
3.19433
3.1442
3.4868
3.26569
3.40555
3.26342
3.92818
3.40112
3.30316
3.44148
3.49912
3.38211
3.53536
3.37039
3.50695
3.57221
3.34811
3.46736
3.1885
3.45848
3.58909
3.74466
3.48133
3.18823
3.76387
3.62149
3.29464
3.38699
3.72641
3.65275
3.27818
3.57177
3.53962
3.23124
3.19387
3.32477
3.4944
3.31184
3.79876
3.42097
3.9506
3.47445
3.13701
3.2922
3.63681
3.67297
3.47591
3.49244
3.15977
3.32393
3.23893
3.58756
3.482
3.71138
3.39667
3.26196
3.44002
3.65965
3.4888
3.19518
3.50562
3.33885
3.16022
3.3193
3.44217
3.24185
3.65287
3.47883
3.46745
3.37314
3.30196
3.45452
3.65519
3.31836
3.44514
3.81942
3.21424
3.26402
3.04646
3.22397
3.34997
3.03467
3.33608
3.34264
3.17337
3.30857
3.65344
3.39748
3.48231
3.35945
3.34512
3.16934
3.59392
3.18712
3.69436
3.69947
3.60645
3.19294
3.36172
3.3293
3.25687
3.7644
3.22165
3.44775
3.29737
3.45154
3.80747
3.47135
3.90745
3.40117
3.27467
3.56873
3.89822
3.26075
3.14733
3.50449
3.40698
3.39238
3.25497
3.20076
3.45869
3.72267
3.25794
3.51172
3.39716
3.59751
3.46538
3.37115
3.35717
3.09519
3.13276
3.34211
3.55823
3.51201
3.12732
3.87775
3.44075
3.24441
3.2102
3.66876
3.50306
3.59021
3.41665
3.39318
3.56618
3.37681
3.1891
3.66789
3.29056
3.33918
3.50234
3.46488
3.42708
3.82588
3.19135
3.25929
3.35525
3.44943
3.11296
3.4111
3.38154
3.36709
3.52447
3.34752
3.52179
3.43151
3.44473
3.50476
3.63166
3.76013
3.54888
3.53418
3.33092
3.42093
3.30857
3.27742
3.55728
3.61101
3.10121
3.33358
3.32974
3.57086
3.59428
3.48577
3.62074
3.23082
3.14842
3.58854
3.65573
3.4498
3.58805
3.45029
3.24668
3.36768
3.14487
3.35558
3.67688
3.45588
3.21674
3.31515
3.58171
3.61159
3.24624
3.36733
3.47548
3.51894
3.2549
3.74622
3.57775
3.47954
3.45856
3.41846
3.31907
3.52979
3.50855
3.34293
3.1022
3.44296
3.18725
3.35794
3.63821
3.1901
3.61541
3.42178
3.52281
3.46899
3.44019
3.7173
3.63423
3.75587
3.91279
3.44024
3.4788
3.25831
3.33855
3.15194
3.84026
3.79498
3.38277
3.53868
3.33649
3.66853
3.17681
3.39211
3.57125
3.53746
3.50678
3.46004
3.30655
3.14014
3.3002
3.37886
3.3813
3.58106
3.5413
3.28144
3.12841
3.37412
3.33992
3.40965
3.35235
3.52673
3.14961
3.11853
3.5043
3.40883
3.33615
3.39249
3.51477
3.18793
3.51937
3.37022
3.31845
3.3902
3.39442
3.05468
3.43617
3.41656
3.52668
3.70042
3.55443
3.37427
3.27874
3.18213
3.77793
3.47908
3.56456
3.48581
3.25228
3.37154
3.46783
3.4656
3.6101
3.37941
3.37447
3.31507
3.47015
3.30205
3.50935
3.436
3.83972
3.23634
3.86794
3.26199
3.30342
3.39352
3.69869
3.49835
3.50068
3.49735
3.65732
3.33259
3.32352
3.21008
3.40098
3.26958
3.20502
3.49773
3.48929
3.70709
3.81089
3.54919
3.4734
3.19152
3.92234
3.46883
3.2182
3.08126
3.33163
3.57137
3.43562
3.61697
3.59132
3.45001
3.28759
3.25954
3.34479
3.43966
3.49042
3.45862
3.4203
3.40388
3.38889
3.65767
3.74275
3.36069
3.57
3.34155
3.4135
3.38861
3.4783
3.29598
3.39741
3.63427
3.95066
3.30556
3.12261
3.47505
3.27432
3.39823
3.54641
3.61632
3.42374
3.43212
3.16846
3.45207
3.61316
3.3114
3.98917
3.76143
3.44103
3.45445
3.41268
3.39332
3.19907
3.3126
3.26189
3.46745
3.35533
3.1998
3.23417
3.43602
3.12486
3.19554
3.24578
3.40039
3.25506
3.66596
3.19738
3.16188
3.75323
3.20269
3.36933
3.4629
3.35536
3.13109
3.46179
3.66353
3.33323
3.31515
3.6852
3.16992
3.20959
3.24463
3.4901
3.53162
3.51299
3.69
3.44687
3.77386
3.12761
3.55521
3.38702
3.49822
3.36374
3.81143
3.54209
3.50236
3.41193
3.19719
3.32715
3.23442
3.50889
3.42496
3.46291
3.65629
3.35406
3.34113
3.27999
3.36904
3.13473
3.10125
3.4886
3.38695
3.49985
3.46254
3.4716
3.35867
3.47077
3.51241
3.20666
3.66836
3.27861
3.17306
3.5026
3.70512
3.52512
3.50922
3.46497
3.53555
3.50795
3.70378
3.42302
3.61285
3.71412
3.64582
3.39377
3.08544
3.19954
3.42663
3.57761
3.2286
3.54424
3.25433
3.46918
3.69943
3.43507
3.27426
3.2308
3.32676
3.32787
3.5253
3.53873
3.5916
3.50692
3.29252
3.50651
3.473
3.60534
3.72557
3.31439
3.47162
3.64319
3.7533
3.44852
3.31227
3.25036
3.50263
3.45983
3.60454
3.21952
3.53838
3.31609
3.47399
3.44485
3.35078
3.42152
3.25185
3.65628
3.21886
3.29207
3.30309
3.49414
3.6838
3.2084
3.89755
3.51026
3.62468
3.57969
3.58509
3.10736
3.52556
3.58896
3.56858
3.32757
3.3515
3.66614
3.342
3.43592
3.15332
3.14863
3.25419
3.65675
3.40705
3.27424
3.43847
3.64892
3.58915
3.50415
3.12071
3.54474
3.45197
3.45397
3.46281
3.26629
3.5746
3.72463
3.28334
3.64177
3.42475
3.67435
3.28531
3.22677
3.22854
3.53738
3.18703
3.49626
3.47537
3.46506
3.22733
3.36107
3.48206
3.21537
3.38441
3.36283
3.43452
3.31535
3.1655
3.3994
3.17783
3.28567
3.38305
3.16388
3.37674
3.47225
3.33564
3.72778
3.44319
3.4833
3.29658
3.24625
3.10125
3.49375
3.19565
3.50043
3.22961
3.35262
3.45713
3.42985
3.28335
3.05964
3.39818
3.33023
3.44665
3.2438
3.51333
3.44895
3.57149
3.42339
4.02062
3.51859
3.34242
3.53972
3.42502
3.17126
3.64113
3.24159
3.48946
3.70377
3.52136
3.31997
3.26457
3.36707
3.45128
3.07489
3.43939
2.99684
3.67004
3.22594
3.44096
3.46075
2.98247
3.84142
3.74099
3.67739
3.35571
3.24141
3.43738
3.4152
3.53474
3.70652
3.36553
3.33554
3.53867
3.66669
3.50065
3.2831
3.30644
3.35501
3.60739
3.53901
3.56165
3.73709
3.52579
3.71405
3.92462
3.73413
3.28488
3.74886
3.77912
3.30542
3.64196
3.50097
3.56843
3.33898
3.534
3.72574
3.47262
3.33376
3.45497
3.57935
3.35067
3.56394
3.35741
3.7913
3.49152
3.14947
3.32578
3.34624
3.68535
3.44158
3.34764
3.54871
3.32143
3.35886
3.55884
3.85321
3.55257
3.20025
3.48667
3.36966
3.37913
3.73863
3.15883
3.36831
3.37804
3.78194
3.49264
3.65801
3.544
3.39121
3.16506
3.13594
3.31533
3.32804
3.76291
3.70135
3.4615
3.31044
3.57493
3.53051
3.57521
3.3344
3.45442
3.90019
3.43056
3.35043
3.63475
3.19055
3.65909
3.30365
3.18163
3.22963
3.20081
3.58764
3.42924
3.38294
3.48315
3.37696
3.64066
3.24543
3.55788
3.87709
3.37852
3.41259
3.37248
3.30675
3.3867
3.24124
3.44304
3.13055
3.44742
3.24726
3.23773
3.41037
3.43245
3.28913
3.76222
3.42399
3.52045
3.2376
3.33726
3.08896
3.66038
3.49396
3.07128
3.47569
3.41719
3.40983
3.30626
3.61204
3.23201
3.72677
3.40847
3.44555
3.25937
3.39041
3.45139
3.34903
3.39171
3.37893
3.47703
3.60948
3.12965
3.51735
3.84665
3.38775
3.27349
3.3144
3.64128
3.33226
3.2014
3.13663
3.79162
3.4447
3.53979
3.24471
3.55011
3.65303
3.33298
3.31843
3.51516
3.59424
3.47691
3.50168
3.33968
3.51057
3.36346
3.41475
3.10375
3.20996
3.44462
3.296
3.69302
3.54812
3.40978
3.9709
3.28509
3.24848
3.43525
3.44908
3.53221
3.27713
3.42895
3.61474
3.46635
3.5764
3.68128
3.4162
3.12137
3.35573
3.47952
3.82162
3.62623
3.11408
3.24974
3.34265
3.54682
3.02533
3.90174
3.30727
3.37107
3.20454
3.32565
3.33058
3.45
3.65252
3.53512
3.30645
3.36671
3.28226
3.32364
3.60204
3.26542
3.28085
3.08771
3.36118
3.82195
3.56196
3.52676
3.42876
3.55676
3.48314
3.2068
3.8144
3.23719
3.82937
3.51568
3.11832
3.68819
3.26689
3.66014
3.2742
3.73592
3.50315
3.57591
3.23558
3.23199
3.61735
3.87011
3.53018
3.69093
3.51043
3.25025
3.68192
3.31151
3.55404
3.7033
3.25284
3.36099
3.21042
3.49103
3.61896
3.61373
3.63789
3.44369
3.32639
3.37691
3.51815
3.51577
3.72553
3.34818
3.28092
3.52724
3.2934
3.45012
3.51971
3.3394
3.54436
3.39292
3.28612
3.32818
3.49297
3.56993
3.24234
3.81774
3.43391
3.22071
3.28375
3.0957
3.57788
3.34223
3.14042
3.647
3.54619
3.60425
3.81207
3.44221
3.62691
3.50192
3.94435
3.71369
3.3208
3.42861
3.22628
3.36514
3.03464
3.221
3.39411
3.45001
3.41148
3.32208
3.67813
3.15515
3.24103
3.16617
3.44522
3.6364
3.65563
3.67423
3.54897
3.43247
3.34914
3.63754
3.68462
3.47782
3.2304
3.61372
3.24662
3.49525
3.65472
3.82653
3.5787
3.50666
3.33217
3.74798
3.13008
3.53024
3.40703
3.43042
3.209
3.61151
3.33328
3.23363
3.35426
3.58806
3.17905
3.34298
3.5017
3.17632
3.67983
3.29313
3.48417
3.34878
3.354
3.41296
3.38964
3.34754
3.41758
3.36529
3.51065
3.50673
3.46724
3.31028
3.27661
3.95351
3.36087
3.04416
3.61244
3.58003
3.24695
3.42932
3.40795
3.59418
3.34138
3.18529
3.7288
3.253
3.34834
3.51631
3.07873
3.46296
3.35354
3.43502
3.33838
3.758
3.32927
3.54424
3.63398
3.2449
3.82208
3.35083
3.56367
3.51682
3.30757
3.29602
3.81203
3.12788
3.60619
3.30137
3.51625
3.66691
3.59212
3.495
3.6127
3.53549
3.55072
3.42046
3.54565
3.49102
3.44973
3.35027
3.30757
3.72992
3.52563
3.14535
3.44974
3.40961
3.28428
3.66472
3.78891
3.3762
3.15787
3.50075
3.47532
3.46277
3.47907
3.423
3.5131
3.16952
3.30717
3.32063
3.4163
3.46393
3.17455
3.31965
3.52633
3.29606
3.34973
3.44463
3.40001
3.41186
3.26602
3.32474
3.37116
3.45091
3.17573
3.23294
3.33405
3.44557
3.22649
3.77663
3.55053
3.41455
3.27912
3.29828
3.28682
3.40877
3.43664
3.60722
3.49792
3.24763
3.32991
3.24101
3.28828
3.37754
3.41693
3.21159
3.38221
3.43478
3.30438
3.40057
3.53198
3.61412
3.51444
3.2444
3.27095
3.3466
3.30726
4.07512
3.16885
3.39999
3.33594
3.17797
3.46885
2.96937
3.76181
3.54403
3.1082
3.23889
3.40289
3.41039
3.37944
3.72746
3.40734
3.57645
3.59552
3.17606
3.51238
3.6938
3.30009
3.34122
3.4373
3.50414
3.21574
3.44806
3.16558
3.53389
3.53681
3.59485
3.55007
3.7383
3.70528
3.39576
3.38653
3.45093
3.39582
3.6436
3.60493
3.59167
3.31419
3.49577
3.08197
3.50481
3.14797
3.38437
3.09452
3.17326
3.54942
3.65771
3.50151
3.30232
3.66865
3.30795
3.72133
3.84481
3.49642
3.30202
3.71093
3.30419
3.16341
3.35986
3.35775
3.63168
3.4416
3.9291
3.26726
3.55429
3.21774
3.47715
3.41083
3.20589
3.82877
3.35214
3.80916
3.37338
3.5049
3.37285
3.22096
3.57018
3.62922
3.65778
3.3103
3.63186
3.31599
3.33946
3.71888
3.31483
3.40285
3.35692
3.62673
3.38912
3.43187
3.40629
3.52902
3.99323
3.15796
3.30353
3.41402
3.39629
3.32885
3.60568
3.51355
3.54952
3.9389
3.25628
3.19799
3.68197
3.09218
3.58917
3.32653
3.3188
3.46547
3.41753
3.76268
3.57942
3.58662
3.73511
3.58143
3.12715
3.33169
3.93193
3.32405
3.81821
3.18602
3.47648
3.57931
3.76104
3.20771
3.20937
3.29775
3.37543
3.48477
3.45435
3.2911
3.16593
3.32316
3.62687
3.31565
3.32643
3.55744
3.56248
3.25787
3.30214
3.44448
3.43522
3.47877
3.4012
3.22958
3.90284
3.66987
3.62289
3.18786
3.26406
3.53251
3.15488
3.61815
3.44847
3.60953
3.28657
3.24586
3.24135
3.60902
3.43189
3.3877
3.23937
3.64034
3.39933
3.27384
3.23656
3.56016
3.32024
3.66204
3.78777
3.44545
3.40507
3.4307
3.42515
3.31835
3.52401
3.24308
3.41721
3.41765
3.48347
3.66995
3.70017
3.2895
3.86085
3.60855
3.40788
3.31644
3.53515
3.70874
3.33391
3.32759
3.54586
3.34456
3.41042
3.23556
3.19016
3.72189
3.24806
3.71682
3.24776
3.45512
3.29627
3.46602
3.42649
3.49955
3.43355
3.53644
3.43164
3.39393
3.38027
3.54816
3.38229
3.93178
3.27231
3.41115
3.18972
3.83136
3.25997
3.50459
3.46594
3.24902
3.54585
3.36918
3.13964
3.4671
3.57822
3.4917
3.78047
3.36425
3.29815
3.51844
3.44226
3.36212
3.44852
3.40696
3.47617
3.21196
3.79582
3.22557
3.5721
3.57286
3.31734
3.32181
3.3682
3.45679
3.34751
3.33924
3.19079
3.41604
3.49742
3.59843
3.47453
3.37792
3.71787
3.66871
3.51937
3.31194
3.3346
3.65034
3.41013
3.58228
3.89238
3.19346
3.37196
3.36396
3.47059
3.36074
3.81616
3.37067
3.19224
3.59705
3.17452
3.33999
3.41582
3.17526
3.43708
3.23764
3.93684
3.2633
3.498
3.14487
3.46121
3.76597
3.22731
3.65086
3.53233
3.31624
3.34348
3.27572
3.07388
3.29198
3.22549
3.22762
3.52799
3.63744
3.53044
3.28891
3.2558
3.61411
3.41586
3.46167
3.43743
3.74723
3.66136
3.354
3.63989
3.31294
3.45391
3.14181
3.39837
3.41929
3.60533
4.04851
3.69749
3.45803
3.41766
3.43731
3.52062
3.41169
3.06005
3.10293
3.08627
3.37833
3.41246
3.56786
3.25633
4.10633
3.1716
3.3534
3.29069
3.36698
3.31406
3.18806
3.34661
3.32965
3.72645
3.48541
3.43306
3.20597
3.65359
3.54695
3.49111
3.42095
3.38629
3.71338
3.31995
3.60375
3.13277
3.6174
3.20646
3.40592
3.40857
3.46682
3.43416
3.5165
3.40572
3.80346
3.38723
3.24152
3.31288
3.37729
3.17458
3.50237
3.34907
3.68909
3.46253
3.5473
3.56475
3.42362
3.58625
3.44748
3.38663
3.21187
3.19999
3.5266
3.49868
3.23796
3.27538
3.39484
3.5524
3.34859
3.08023
3.37872
3.60105
3.45057
3.35837
3.64419
3.43194
3.26291
3.55956
3.62483
3.52681
3.27993
3.56155
3.16486
3.36254
3.41441
3.6136
3.08384
3.46331
3.32101
3.27726
3.68481
3.2281
3.22237
3.6203
3.45909
3.45672
3.47474
3.57061
3.21654
3.4749
3.46975
3.45598
3.20134
3.12294
3.28309
3.3723
3.38026
3.28614
3.36601
3.58838
3.37669
3.49278
3.41938
3.38494
3.65189
3.78001
3.15019
3.59304
3.44141
3.48919
3.31378
3.22687
3.34919
3.30087
3.36137
3.58753
3.60868
3.39541
3.94558
3.31117
3.40575
3.49469
3.89191
3.61234
3.61201
3.55325
3.19471
3.46067
3.54797
3.77434
3.46451
3.46731
3.19101
3.45806
3.36313
3.44911
3.47621
3.47189
3.3737
3.35719
3.64101
3.00374
3.43213
3.3328
3.29101
3.47207
3.63014
3.3932
3.30655
3.18738
3.38144
3.42303
3.43416
3.14497
3.32715
3.30253
3.80551
3.59073
3.50306
3.35503
3.52786
3.41604
3.53827
3.30231
3.6007
3.39254
3.7256
3.31013
4.02719
3.53993
3.34618
3.58694
3.30017
3.77441
3.28166
3.34534
3.35361
3.78212
3.36718
3.26979
3.60301
3.31524
3.36492
3.1971
3.1786
3.56002
3.18266
3.59389
3.32657
3.44735
3.56408
3.66082
3.30879
3.31909
3.89194
3.36036
3.43775
3.45519
3.52795
3.46058
3.44444
3.47619
3.28909
3.22583
3.30439
3.40319
3.24097
3.37739
3.42766
3.41831
3.52486
3.94117
3.66593
3.54144
3.5729
3.56618
3.6198
3.23465
3.5844
3.37976
3.36579
3.36839
3.34491
3.23646
3.41138
3.73073
3.44888
3.37144
3.46901
3.6565
3.52334
3.6184
3.77146
3.38074
3.73145
3.49498
3.60791
3.73333
3.78944
3.35902
3.54747
3.22692
3.40291
3.37673
3.47459
3.72531
3.33597
3.73529
3.26928
3.26393
3.38816
3.23691
3.49475
3.19343
3.42522
3.19731
3.57119
3.21968
3.39206
3.49517
3.3701
3.50249
3.37798
3.51762
3.66204
3.30032
3.54081
3.32491
3.54439
3.44227
3.32199
3.29888
3.57089
3.41012
3.39477
3.23814
3.66302
3.36843
3.53412
3.27093
3.19288
3.67169
3.41604
3.31742
3.44457
3.50965
3.45036
3.17797
3.24901
3.45192
3.52511
3.78526
3.18236
3.53946
3.80146
3.15392
3.79679
3.76123
3.37937
3.40102
3.80909
3.49605
3.37347
3.6432
3.47846
3.51475
3.62135
3.59335
3.28317
3.10414
3.43015
3.88385
3.7112
2.9063
3.25571
3.24978
3.46174
3.41693
3.55026
3.39495
3.41038
3.40297
3.34862
3.43546
3.71149
3.48477
3.45429
3.54118
3.48859
3.57728
3.67248
3.59761
3.46518
3.17971
3.31834
3.26547
3.5803
3.52829
3.51021
3.46951
3.39176
3.56542
3.26025
3.3948
3.36129
3.35906
3.32415
3.69345
3.28014
3.29173
3.15487
3.19435
3.44719
3.51449
3.54932
3.32893
3.70093
3.44192
3.21394
3.50666
3.35226
3.18481
3.6014
3.52768
3.53327
3.24595
3.40608
3.69946
3.48346
3.38028
3.27997
3.59167
3.09353
3.74208
3.66395
4.06323
3.46921
3.09659
3.40893
3.63013
3.56494
3.50464
3.17127
3.65345
3.47788
3.34483
3.1891
3.24922
3.3212
3.70835
3.37129
3.27162
3.40747
3.23288
3.24609
3.4153
3.36057
3.2602
3.57284
3.32609
3.4482
3.30367
3.58126
3.13241
3.56343
3.58584
3.25489
3.46468
3.56931
3.96126
3.49687
3.34032
3.48477
3.46793
3.60673
3.56664
3.35953
3.72064
3.34789
3.38702
3.62917
3.86053
3.96034
3.64696
3.23005
3.56706
3.43693
3.54706
3.47884
3.64545
3.33295
3.55407
3.4334
3.58142
3.60477
3.33228
3.43447
3.24663
3.33048
3.49489
3.8273
3.58333
3.48096
3.60782
3.43781
3.58403
3.33486
3.32805
3.62674
3.22012
3.41357
3.19629
3.67763
3.30311
3.37155
3.77334
3.08305
3.228
3.62114
3.16119
3.75213
3.47273
3.48624
3.31263
3.60499
3.33965
3.1472
3.69526
3.19409
3.71588
3.68211
3.31402
3.61781
3.14918
3.20963
3.49217
3.62614
3.86886
3.42164
3.67892
3.84509
3.34955
3.58943
3.33827
3.53336
3.44001
3.27762
3.39819
3.45014
3.14075
3.17936
3.51962
3.61879
3.58738
3.58348
3.74641
3.22812
3.22625
3.42254
3.36028
3.11198
3.33917
4.04281
3.21276
3.6503
3.35739
3.16455
3.47813
3.55397
3.69902
3.32632
3.34007
3.56372
3.3652
3.50957
3.28175
3.49267
3.35549
3.56898
3.36575
3.31419
3.33522
3.65815
3.14745
3.42202
3.37634
3.48737
3.60076
3.23827
3.50285
3.77428
3.46716
3.75552
3.58753
3.39233
3.74865
3.34808
3.40979
3.08733
3.07491
3.50393
3.60716
3.61034
3.60668
3.61037
3.3887
3.40433
3.34127
3.53687
3.8497
3.67948
3.38147
3.52853
3.63221
3.25498
3.56211
3.45332
3.41462
3.26695
3.18876
3.17515
3.96051
3.29295
3.4202
3.41622
3.51325
3.73864
3.62092
3.1864
3.39329
3.22858
3.44736
3.38681
3.555
3.55455
3.13469
3.36311
3.40369
3.54907
3.34915
3.66669
3.11004
3.5713
3.4977
3.3937
3.251
3.35196
3.09034
3.07969
3.45497
3.50321
3.84668
3.45986
3.36446
3.32331
3.39299
3.33506
3.24478
3.48512
3.36575
3.14094
3.23822
3.60657
3.62414
3.67285
3.2831
3.34924
3.19706
3.42355
3.27944
3.4555
3.40462
3.22124
3.5183
3.41831
3.45194
3.49165
3.31535
3.46374
3.40716
3.48099
3.28325
3.4849
3.65457
3.43938
4.12577
3.53134
3.46865
3.34627
3.51515
3.36855
3.34595
3.58123
3.38509
3.25302
3.11834
3.53762
3.49419
3.74682
3.95371
3.96264
3.55161
3.30368
3.49644
3.6324
3.45262
3.44362
3.77157
3.24452
3.6705
3.5951
3.26171
3.67038
3.5867
3.43266
3.62599
3.6265
3.23714
3.38099
3.67434
3.31822
3.3633
3.39047
4.14184
3.39442
3.4405
3.27406
3.36918
3.65992
4.05682
3.6546
3.42544
3.50695
3.16479
3.52352
3.59671
3.39179
3.31685
3.36135
3.28704
3.62034
3.92589
3.38702
3.4063
3.58269
3.20534
3.28048
3.7888
3.29
3.07203
3.54647
3.56715
3.25764
3.30211
3.54971
3.11227
3.1592
3.13926
3.11656
3.77564
3.62503
3.37014
3.42973
3.49828
3.90693
3.51775
3.30734
3.16577
3.45726
3.6742
3.19678
3.57142
3.56486
3.22828
3.21727
3.68698
3.28077
3.20922
3.2838
3.72245
3.57596
3.54895
3.36207
3.83499
3.40712
3.4424
3.41239
3.43102
3.35514
3.65686
3.37585
3.43704
3.39257
3.61766
3.71788
3.5884
3.56495
3.49813
3.19398
3.52523
3.55232
3.61701
3.38084
3.20119
3.25262
3.35029
3.52145
3.63991
3.20771
3.47215
3.20346
3.37307
3.29752
3.37202
3.10659
3.3693
3.34653
3.57355
3.47045
3.38178
3.56804
3.34751
3.82157
3.24505
3.55422
3.35575
3.4426
3.48627
3.38349
3.39867
3.32555
3.40156
3.43173
3.47758
3.06893
3.47731
3.32916
3.59008
3.62225
3.4013
3.53518
3.29217
3.38912
3.43618
3.41108
3.24833
3.28857
3.19028
3.46268
3.36638
3.69195
3.11773
3.42065
3.66828
3.31847
3.38362
3.36622
3.54786
3.24598
3.27035
3.5924
3.46318
3.33721
3.17698
3.42924
3.34789
3.38497
3.4265
3.37015
3.25883
3.45419
3.55632
3.4127
3.56442
3.33396
3.58395
3.18298
3.56097
3.47779
3.68078
3.2581
3.2692
3.12405
3.53893
3.42178
3.7903
3.41856
3.79147
3.3668
3.28084
3.13365
3.43462
3.52056
3.59828
3.49096
3.92483
3.21976
3.28602
3.42176
3.81773
3.20589
3.61551
3.39105
3.63995
3.04854
3.34821
3.61484
3.54011
3.43121
3.25546
3.66344
3.22319
3.43087
3.53096
3.48991
3.50306
3.54997
3.36683
3.60799
3.5287
3.19248
3.2081
3.19266
3.48474
3.27983
3.30524
3.46213
3.44904
3.19047
3.41109
3.4547
3.36754
3.18999
3.90183
3.40501
3.52611
3.47203
3.42614
3.50769
3.3169
3.24854
3.46398
3.39675
3.75836
3.54413
3.71414
3.26505
3.48282
3.47935
3.50744
3.50417
3.21564
3.32677
3.60009
3.24032
3.37717
3.2506
3.71062
3.57271
3.29869
3.77334
3.0328
3.40131
3.28843
3.13422
3.55112
3.5784
3.38962
3.20556
3.36681
3.45605
3.25725
3.53187
3.61094
3.39354
3.80248
3.55149
3.32637
3.59422
3.39556
3.3625
3.40542
3.50187
3.66954
3.31875
3.36267
3.60366
3.39451
3.04408
3.70134
3.48204
3.67328
3.31209
3.68423
3.37358
3.35981
3.10771
3.38524
3.19037
3.04034
3.56927
3.48497
3.41934
3.46593
3.65534
3.44848
3.35657
3.68559
3.30945
3.29219
3.50195
3.29432
3.74265
3.39211
3.59077
3.42536
3.39623
3.10614
3.50003
3.4283
3.41184
3.60061
3.58875
3.37129
3.22472
3.20758
3.34375
3.43341
3.3861
3.16265
3.68157
3.51356
3.55658
3.54707
3.53241
3.5776
3.38249
3.73478
3.31401
3.66749
3.57232
3.2208
3.48197
3.19777
3.56975
3.52117
3.89603
3.277
3.39082
3.30829
3.33636
3.64968
3.50211
3.65021
3.57694
3.13051
3.14321
3.5845
3.30362
3.53815
3.30951
3.29774
3.21082
3.42956
3.21883
3.17361
3.3615
3.547
3.301
3.38169
3.43651
3.39491
3.44188
3.24532
3.46935
3.4688
3.20367
3.50558
3.0803
3.54145
3.27822
3.13405
3.49774
3.37082
3.54712
3.76561
3.53562
3.29212
3.21626
3.3526
3.39364
3.46153
3.56591
3.74103
3.38742
3.48183
3.40603
3.49789
3.35696
3.51773
3.15104
3.85218
3.48116
3.32834
3.38755
3.51434
3.27765
3.11345
3.46285
3.48459
3.71081
3.52781
3.43933
3.62039
3.79588
3.22105
3.56017
3.18822
3.43103
3.31163
3.28137
3.3948
3.0205
3.44997
3.66169
3.15988
3.37417
3.31748
3.53258
3.19523
3.47464
3.53748
3.74509
3.65352
3.64682
3.45651
3.15588
3.29672
3.23969
3.52805
3.34426
3.75909
3.33897
3.26054
3.32571
3.13938
3.38611
3.57466
3.46996
3.29114
3.47215
3.30349
3.435
3.54741
3.37727
3.63996
3.13393
3.76312
3.66318
3.38282
3.29042
3.30254
3.31779
3.42521
3.46871
3.28363
3.25004
3.64769
3.37401
3.23363
3.54855
3.42332
3.64612
3.53867
3.35602
3.64321
3.51418
3.49949
3.66946
3.60203
3.23319
3.46999
3.03532
3.40636
3.62222
3.6378
3.44461
3.27197
3.47614
3.20182
3.10874
3.23733
3.53341
3.78749
3.75452
3.26013
3.41968
3.4339
3.26766
3.39432
3.73656
3.59059
3.48318
3.37617
3.57394
3.42054
3.39618
3.10036
3.30918
3.50749
3.30019
3.73208
3.82357
3.78751
3.21199
3.30661
3.44094
3.43161
3.44829
3.30701
3.26477
3.28266
3.56161
3.60307
3.21977
3.75631
3.58885
3.56616
3.57079
3.67455
3.43989
3.64939
3.43248
3.49992
3.33458
3.2682
3.38781
3.64793
3.69443
3.33774
3.66151
3.49963
3.55656
3.29747
3.62332
3.59639
3.48381
3.41655
3.28628
3.45813
3.33565
3.23958
3.56974
3.40758
3.57666
3.68778
3.41979
3.45642
3.49609
3.29559
3.75772
3.29883
3.46847
3.58544
3.55119
3.67154
3.16777
3.5857
3.49304
3.28701
3.38156
3.63915
3.40411
3.71962
3.63005
3.43415
3.47465
3.63732
3.4906
3.71083
3.43966
3.15883
4.11515
3.3301
3.54203
3.34483
3.47744
3.70171
3.11112
3.52961
3.59441
3.49476
3.43437
3.76275
3.17929
3.52136
3.3864
3.48676
3.46892
3.68291
3.5269
3.82168
3.36042
3.22786
3.31646
3.42188
3.48718
3.63984
3.35439
3.46676
3.23663
3.39134
3.21819
3.61483
3.37839
3.35446
3.52492
3.38055
3.23313
3.28181
3.32798
3.22158
3.76893
3.36216
3.5537
3.52052
3.66257
3.54974
3.53347
3.43635
3.48349
3.32212
3.53377
3.51794
3.28785
3.36967
3.45384
3.5337
3.22318
3.35541
3.54432
3.22139
3.20863
3.35063
3.72445
3.18292
3.57485
3.19988
3.53076
3.4099
3.32826
3.19242
3.19769
3.39453
3.48927
3.56741
3.561
3.98791
3.4424
3.0922
3.25622
3.14265
3.24395
3.33886
3.34346
3.28363
3.75246
3.45017
3.34946
3.30744
3.40466
3.58619
3.13532
3.18374
3.52569
3.60011
3.31034
3.36947
3.73337
3.15235
3.0938
3.4459
3.40945
3.27098
3.52445
3.50634
3.23064
3.50603
2.96037
3.50254
3.5608
3.319
3.52888
3.69432
3.44457
3.48259
3.56442
3.44549
3.29382
3.65159
3.38136
4.0075
3.55809
3.32356
3.42401
3.32702
3.55964
3.26356
3.08455
3.5369
3.31909
3.7625
3.76206
3.26997
3.11496
3.51864
3.33122
3.60148
3.48853
3.59216
4.00607
3.61254
4.02223
3.57953
3.2911
3.50295
3.48021
3.45058
3.51806
3.38681
3.66802
3.1699
3.34446
3.34197
3.32416
3.82794
3.69576
3.40039
3.42133
3.83114
3.34151
3.24441
3.64088
3.41295
3.45429
3.39102
3.17941
3.19717
3.44939
3.18008
3.11109
3.32046
3.20186
3.17867
3.48134
3.57889
3.64396
3.58168
3.54999
3.69298
3.54055
3.46508
3.62575
3.70185
3.83018
3.39534
3.31553
3.14092
3.25757
3.57151
3.54531
3.3823
3.40474
3.53229
3.36398
2.99736
3.4186
3.36504
3.50715
3.27328
3.65067
3.46533
3.59877
3.38137
3.47443
3.40548
3.4039
3.42857
3.38102
3.61906
3.53832
3.38657
3.63247
3.42979
3.85762
3.633
3.37373
3.18224
3.45547
3.30127
3.55918
3.75959
3.64266
3.56306
3.48398
3.52381
3.45663
3.54091
3.43952
3.20035
3.54652
3.4703
3.26244
3.42316
3.61296
3.52635
4.02544
3.06281
3.21764
3.80702
3.64561
3.39701
3.55983
3.62088
3.35167
3.49288
3.55145
3.67957
3.52599
3.53962
3.35648
3.52456
3.40779
3.48892
3.44703
3.29308
3.48237
3.21699
3.40389
3.40267
3.32817
3.20958
3.55315
3.53543
3.3179
3.23052
3.29788
3.26012
3.27383
3.66348
3.54439
3.38829
3.35359
3.19104
3.55387
3.26732
3.25622
3.31577
3.55782
3.56164
3.50134
3.28844
3.34601
3.40318
3.49264
3.30518
3.65127
3.66116
3.40634
3.29164
3.77608
3.50847
3.51878
3.78409
3.44448
3.48804
3.31171
3.51864
3.53767
3.56741
3.42557
3.46276
3.42202
3.72906
3.3545
3.39807
3.55887
3.69984
3.77444
3.26672
3.50069
3.37226
3.29958
3.13627
3.50618
3.68698
3.68017
3.05821
3.43115
3.77603
3.61156
3.41419
3.71301
3.64131
3.45763
3.23489
3.05133
3.38437
3.51948
3.18723
3.21393
3.32728
3.20984
3.62125
3.94489
3.23004
3.57577
3.62215
3.47914
3.19799
3.25802
3.40599
3.76938
3.30306
3.54413
3.34035
3.3521
3.51734
3.45879
3.50841
3.15888
3.52685
3.43325
3.19206
3.53355
3.39417
3.2938
3.48944
3.36563
3.3947
3.63026
3.31705
3.37984
3.48108
3.48876
3.39725
3.20311
3.528
3.41135
3.42624
3.6546
3.54388
3.30855
3.37698
3.3261
3.68284
3.48407
3.57834
3.11711
3.26862
3.36396
3.53137
3.29542
3.62881
3.51428
3.8041
3.28961
3.19153
3.25717
3.44927
3.49772
3.68264
3.19213
3.27936
3.47714
3.25008
3.46057
3.53779
3.44183
3.36438
3.19848
3.72752
3.45641
3.31664
3.44879
3.239
3.67628
3.57784
3.17836
3.21974
3.36383
3.9071
3.32431
3.36106
3.40618
3.6796
3.5758
3.4902
3.53714
3.619
3.33172
3.34251
3.45215
3.46473
3.53446
3.43911
3.29952
3.17389
3.42109
3.33897
3.20585
3.44603
3.36931
3.43866
3.37031
3.45493
3.33834
3.82912
3.26211
3.27418
3.25803
3.40246
3.37305
3.2406
3.19197
3.24367
3.20938
3.38484
3.28138
3.28066
3.19323
3.64345
3.16554
3.33747
3.6564
3.08306
3.38062
3.04745
3.22338
3.57108
3.33159
3.22914
3.48983
3.38775
3.38639
3.5423
3.28254
3.44356
3.33123
3.19764
3.46344
3.41481
3.36892
3.4924
3.45288
3.60513
3.68251
3.61053
3.33821
3.15374
3.54751
3.79395
3.30699
3.1929
3.42142
3.35467
3.2365
3.65495
3.56246
3.43882
3.63824
3.56964
3.17355
3.21316
3.42415
3.52514
3.29333
3.40411
3.37591
3.64901
3.40151
3.46421
3.78496
3.36302
3.39699
3.39036
3.41598
3.43598
3.44052
3.47233
3.51047
3.40963
3.19346
3.41236
3.38398
3.53768
3.3494
3.59825
3.30187
3.51905
3.36374
3.76308
3.41821
3.48869
3.49803
3.10212
3.42936
3.39576
3.39336
3.25063
3.45008
3.36732
3.43627
3.58461
3.84985
3.61646
3.25938
3.43851
3.34976
3.52746
3.15659
3.53869
3.24362
3.88856
3.34795
3.619
3.65671
3.43702
3.29199
3.50131
3.37376
3.04959
3.4675
3.12002
3.47804
3.50636
3.46645
3.0376
3.64269
3.41774
3.54623
3.31972
3.53895
3.63959
3.56325
3.86502
3.6402
3.6234
3.51376
3.26967
3.3825
3.55193
3.41168
3.17652
3.07448
3.26231
3.53359
3.43793
3.34475
3.32585
3.79242
3.3372
3.89225
3.54284
3.34848
3.43643
3.52287
3.56075
3.42851
3.42277
3.32003
3.48593
3.43315
3.30303
3.22152
3.30321
3.81115
3.61601
3.57714
3.201
3.4429
3.57111
3.70079
3.48892
3.48484
3.32247
3.40832
3.3625
3.65307
3.48315
3.4263
3.54193
3.30993
3.20521
3.33893
3.47381
3.41118
3.15033
3.64279
3.25097
3.27135
3.54473
3.15962
3.41888
3.60401
3.4145
3.34145
3.58039
3.38315
3.20122
3.51657
3.28439
3.56035
3.71738
3.61197
3.83996
3.63969
3.21905
3.11661
3.37706
3.19861
3.11216
3.51541
3.28283
3.5111
3.50722
3.58439
3.4088
3.25921
3.37825
3.51733
3.00571
3.45514
3.51415
3.19547
3.39366
3.38096
3.88569
3.67293
3.20263
3.53304
3.64192
3.8306
3.5254
3.19067
3.4771
3.45914
3.16998
3.45448
3.2845
3.43703
3.37713
3.61016
3.26439
3.40178
3.47396
3.19108
3.35388
3.30387
3.53143
3.33697
3.20052
3.22346
3.60607
3.54586
3.45474
3.42756
3.39331
3.33066
3.66968
3.24158
3.39259
3.39974
3.3374
3.32604
3.19373
3.38601
3.3862
3.58291
3.37046
3.62212
3.53059
3.56014
3.37816
4.26898
3.54562
3.12898
3.15259
3.62216
3.37088
3.6534
3.77827
3.44481
3.57156
3.58011
3.18325
3.5286
3.59157
3.45257
3.39376
3.06238
3.90394
3.18842
3.44911
3.60455
3.61659
3.49592
3.45611
3.04626
3.57283
3.18483
3.49857
3.54157
3.3807
3.3797
3.42273
3.19456
3.28343
3.31528
3.4387
3.33981
3.51926
3.36459
3.46153
3.1351
3.33597
3.30422
3.46466
3.44961
3.22432
3.67232
3.29853
3.46255
3.08783
3.11751
3.28213
3.55914
2.94038
3.37389
3.54473
3.31301
3.60691
3.18898
3.49141
3.34084
3.42653
3.41277
3.53009
3.67173
3.26666
3.25597
3.63824
3.48324
3.68718
3.34786
3.29159
3.18969
3.27177
3.34624
3.32604
3.5174
3.14225
3.61499
3.83155
3.53413
3.7218
3.26522
3.47638
3.21954
3.20589
3.01858
3.83885
3.25133
3.59303
3.60494
3.51458
3.22709
3.3984
3.57169
3.2385
3.61673
3.64838
3.2599
3.49768
3.39673
3.54423
3.30707
3.61131
3.52507
3.57532
3.73787
3.31626
3.51755
3.42805
3.88755
3.2913
3.05293
3.30594
3.39833
3.58769
3.3463
3.37456
3.0916
3.36327
3.3008
3.38848
3.43714
3.61081
3.41912
3.1644
3.17472
3.47054
3.87475
3.54976
3.11274
3.32702
3.68181
3.44783
3.65546
3.60528
3.15643
3.21997
3.61485
3.27824
3.61971
3.6802
3.52472
3.27065
3.69313
3.32928
3.23328
3.44408
3.38105
3.47687
3.20268
3.58578
3.40244
3.03869
3.32522
3.53522
3.85406
3.27198
3.4103
3.10157
3.30362
3.46292
3.44156
3.81997
3.49661
3.06266
3.44448
3.49187
3.24404
3.47527
3.41508
3.23431
3.28303
3.38076
3.45675
3.67504
3.4054
3.63587
3.36512
3.44949
3.40499
3.39299
3.39476
3.22589
3.33336
3.87679
3.23446
3.26626
3.633
3.2798
3.30799
3.35355
3.26692
3.38079
3.54757
3.40868
3.43628
3.49838
3.37288
3.26883
3.7202
3.25829
3.32633
3.40283
3.5526
3.18529
3.45717
3.41508
3.22677
3.26387
3.65279
3.34857
3.55431
3.38836
3.39115
3.60774
3.49604
3.51043
3.43326
3.75218
3.46797
3.35656
3.31798
3.51716
3.21468
3.43401
3.41621
3.23982
3.2477
3.34117
3.54053
3.52236
3.1264
3.65843
3.2928
3.30082
3.25861
3.4508
3.29996
3.40214
3.48554
3.22931
3.29464
3.28614
3.20348
3.16312
3.6539
3.32754
3.41002
3.68427
3.74304
3.58582
3.34261
3.13137
3.51005
3.44085
3.4176
3.69086
3.45132
3.30719
3.29123
3.44918
3.62838
3.65858
3.04301
3.46787
3.67377
3.48748
3.28009
3.22796
3.34428
3.36345
3.30779
3.25763
3.56074
3.42142
3.67093
3.70335
3.24644
3.46506
3.23283
3.35296
3.6653
3.15989
3.67471
3.35048
3.42652
3.51493
3.58975
3.30852
3.40965
3.41967
3.7478
4.1108
3.29265
3.19431
3.40867
3.46708
3.29942
3.69483
3.14469
3.72789
3.25608
3.44667
3.51864
3.59044
3.59214
3.40561
3.38728
3.77895
3.67535
3.04162
3.34848
3.40546
3.39894
3.31383
3.60321
3.63706
3.39654
3.38809
3.43962
3.348
3.44493
3.39239
3.78633
3.50192
3.35895
3.43031
3.45628
3.4336
3.38693
3.09961
3.33784
3.50122
3.54039
3.57714
3.20155
3.56789
3.43149
3.37242
3.45403
3.53095
3.40513
3.0741
3.59436
3.25275
3.25615
3.46664
4.16018
3.44376
3.42939
3.358
3.19711
3.39455
4.20746
3.29471
3.30278
3.28756
3.40055
3.12909
3.41224
3.43752
3.29839
3.49023
3.54247
3.28916
3.74051
3.61497
3.71768
3.35223
3.40305
3.27268
3.54569
3.55555
3.82007
3.41589
3.32934
3.55727
3.19973
3.37303
3.66661
3.3315
3.91783
3.2893
3.40921
3.58404
3.42183
3.33173
3.43698
3.38243
3.21537
3.08461
3.12656
3.48683
3.50806
3.35537
3.31404
3.33331
3.67685
3.64057
3.41742
3.44316
3.44007
3.77344
3.70338
3.37119
3.57732
3.44141
3.31107
3.35713
3.49565
3.51809
3.13784
3.33666
3.51441
3.51382
3.15873
3.52144
3.46169
3.53047
3.71278
3.56238
3.17673
3.39901
3.37844
3.82327
3.49301
3.27097
3.16552
3.31578
3.86088
3.28017
3.40671
3.39487
3.32713
3.61914
3.46513
3.65457
3.43846
3.38203
3.33685
3.49523
3.43259
3.05702
3.44006
3.39401
3.37278
3.31151
3.91214
3.63892
3.56244
3.33329
3.42847
3.62344
3.548
3.49884
3.15874
3.37432
3.31972
3.34587
3.54194
3.55782
3.36338
3.7327
3.98035
3.48167
2.91476
3.92944
3.26679
3.38148
3.69655
3.11433
3.30241
3.16327
3.32304
3.55559
3.52955
3.24674
3.57554
3.57598
3.16885
3.28676
3.35154
3.94961
3.68083
3.41648
3.52439
3.44308
3.46992
3.26453
3.77211
3.64455
3.3727
3.42632
3.21311
3.19708
3.23529
3.29289
3.31473
3.4631
3.33013
3.67341
3.32123
3.46921
3.48418
3.48776
3.5999
3.29542
3.76522
3.73494
3.27843
3.36579
3.37066
3.45552
3.55932
3.29592
3.45759
3.50259
4.01488
3.49103
3.98203
3.77116
3.82179
3.32482
3.34531
3.62862
3.1751
3.22389
3.69332
3.29268
3.53723
3.31758
3.44037
3.9421
3.35277
3.34219
3.58849
3.56295
3.3046
3.05512
3.2406
3.38051
3.31253
3.56721
3.79183
3.43653
3.21658
3.80711
3.63053
3.35604
3.28193
3.35197
3.26295
3.49217
3.37749
3.32781
3.78414
3.14701
3.53227
3.32969
3.18252
3.51484
3.23449
3.48653
3.52591
3.22022
3.41336
3.47157
3.24052
3.43777
3.30408
3.38089
3.38997
3.13751
3.36779
3.66602
3.73637
3.41515
3.30578
3.36086
3.13477
3.12999
3.55077
3.74513
3.3407
3.56297
3.34246
3.40473
3.62411
3.34156
3.71955
3.41703
3.3289
3.49288
3.45232
3.51074
3.32717
3.08146
3.44632
3.40365
3.4151
3.54174
3.5013
3.4813
3.29831
3.22826
3.79472
3.40336
3.34701
3.02936
3.11779
3.83658
3.49282
3.30838
3.5035
3.86476
3.37067
3.57824
3.17607
3.49571
3.69842
3.40718
3.32169
3.68851
3.18629
3.54029
3.55946
3.24002
3.25728
3.52594
3.32933
3.29142
3.20781
3.24066
3.4404
3.40634
3.58513
3.77574
3.51035
3.5818
3.48893
3.63319
3.43847
3.45102
3.94487
3.34299
3.72601
3.56129
3.27182
3.11872
3.17505
3.49623
3.4456
3.67883
3.39005
3.26019
3.24488
3.41401
3.97284
3.54959
3.41967
3.38866
3.09491
3.54882
3.75531
3.32743
3.38543
3.73757
3.24379
3.32595
3.39525
3.22423
3.3739
3.44281
3.48637
3.47119
3.14274
3.63305
3.66175
3.09097
4.0647
3.49898
3.49204
3.32807
3.30949
3.20995
3.62712
3.40243
3.23681
3.38272
3.76208
3.29121
3.60154
3.49283
3.71041
3.81782
3.48174
3.08184
3.4662
3.29649
3.64772
3.28839
3.6774
3.32932
3.46466
3.37359
3.53391
3.39072
3.58063
3.42773
3.19432
3.50284
3.22692
3.70296
3.32694
3.30477
3.34566
3.24294
4.20559
3.40313
3.55517
3.65582
3.41582
3.68616
3.30419
3.34324
3.24286
3.42866
3.82991
3.56007
3.62848
3.20496
3.56848
3.28481
3.52836
3.35807
3.2055
3.34496
3.30858
3.46456
3.47971
3.25259
3.24463
3.41422
3.70692
3.32851
3.56229
3.4255
3.66657
3.25628
2.90716
3.52975
3.66358
3.37868
3.39344
3.90224
3.36337
3.47899
3.24392
3.51769
3.88936
3.50059
3.59797
3.5882
3.50462
3.29481
3.25602
3.88963
3.21321
3.59863
3.38306
3.39576
3.31546
3.47395
3.52188
3.31303
3.29627
3.37169
3.38762
3.54062
3.66762
3.18287
3.41221
3.10908
3.71007
3.56992
3.35078
3.62947
3.45518
3.53983
3.45428
3.31076
3.77831
3.37056
3.24496
3.50787
3.73034
3.36661
3.18434
3.51745
3.48394
3.23673
3.5598
3.47801
3.55873
3.3742
3.21453
3.54152
3.23592
3.91053
3.81151
3.20249
3.56437
3.6969
3.58988
3.30935
3.70773
3.16821
3.5667
3.61657
3.5514
3.3632
3.3511
3.26228
3.21877
3.35737
3.8243
3.23461
3.8741
3.60543
3.60681
3.8775
3.38908
3.34469
3.53918
3.84831
3.24783
3.3323
3.33994
3.65883
3.39757
3.31458
3.27604
3.39253
3.33984
3.29668
3.20114
3.6659
3.09196
3.37147
3.23574
3.76846
3.5525
3.74351
3.61803
3.91523
3.17506
3.46028
3.39716
3.32835
3.46099
3.94403
3.31092
3.54301
3.69508
3.20182
3.52035
3.42248
3.51564
3.71702
3.38858
3.41489
3.65796
3.45497
3.21562
3.43614
3.6221
3.45395
3.76957
3.21994
3.47939
3.38203
3.29096
3.10361
3.22546
3.5083
3.1946
3.38156
3.20737
3.50103
3.67795
3.59518
3.5064
3.38491
3.38371
3.2647
3.20613
3.26201
3.30861
3.60159
3.52111
3.44698
3.67465
3.44852
3.57192
3.47921
3.36224
3.36557
3.53995
3.59737
3.51767
3.54442
3.10489
3.46184
3.26726
3.35642
3.32351
3.3244
3.34242
3.22379
3.77029
3.44877
3.30529
3.24409
3.67014
4.07591
3.37046
3.61365
3.71387
3.3024
3.52112
3.64936
3.31001
3.64883
3.39945
3.43364
3.63879
3.26337
3.59865
3.39624
3.12427
3.50328
3.47388
3.60053
3.37795
3.21364
3.44872
3.45915
3.56665
3.59317
3.49371
3.28539
3.80411
3.67515
3.53198
3.7481
3.35244
3.34975
3.33487
3.67977
3.62727
3.58662
3.20028
3.7381
3.34611
3.37562
3.60267
3.34763
3.4139
3.4998
3.81426
3.17941
3.49004
3.71607
3.2293
3.4793
3.85809
3.17029
3.24504
3.44921
3.45157
3.44004
3.33101
3.62029
3.16009
3.29608
3.53472
3.08187
3.61563
3.31733
3.41613
3.43892
3.4311
3.53208
3.4278
3.56587
3.26836
3.32193
3.57801
3.47232
3.33275
3.47684
3.53075
3.52536
3.69726
3.18993
3.52993
3.09423
3.30036
3.40016
3.16406
3.37586
3.03603
3.9556
3.45198
3.34526
3.29993
3.47511
3.4881
3.83954
3.50413
3.41096
3.35181
3.31614
3.25265
3.3707
3.3739
3.49937
3.39744
3.30905
3.55701
3.73508
3.42092
3.48312
3.18235
3.17869
3.16856
3.43152
3.39398
3.43651
3.43031
3.4474
3.24637
4.07615
3.03118
3.18558
3.11191
3.08967
3.62378
3.82988
3.4848
3.67655
3.12716
3.28094
3.80154
3.7944
3.20328
3.28305
3.61091
3.58135
3.27044
3.29426
3.36556
3.60334
3.30594
3.91501
3.10837
3.39022
3.25896
3.77946
3.14534
3.6357
3.42856
3.68456
3.61573
3.61519
3.47756
3.6033
3.66573
3.47411
3.50232
3.40511
3.54964
3.45367
3.14086
3.55021
3.39254
3.11099
3.33631
3.9548
3.28605
3.10068
3.42119
3.83735
3.61075
3.39979
3.18711
3.50598
3.5492
3.52863
3.31935
3.46014
3.23335
3.21578
3.1404
3.56832
3.34636
3.3754
3.20741
3.4375
3.15542
3.50895
3.6934
3.4109
3.38691
3.45371
3.48365
3.86207
3.70324
3.58097
3.0755
3.25222
3.22494
3.45743
3.44933
3.30102
3.78933
3.77599
3.07013
3.46946
3.40748
3.74033
3.57529
3.41757
3.62489
3.35893
3.17179
3.01027
3.33394
3.4788
3.3781
3.47909
3.36004
3.35781
3.52539
3.45361
3.64391
3.11796
3.30547
3.58743
3.60535
3.24081
3.53436
3.50289
3.30575
3.65528
3.28027
3.52802
3.33405
3.44639
3.13577
3.44454
3.61025
3.4473
3.63003
3.49475
3.38015
3.42976
3.69025
3.44158
3.52489
3.85116
3.19892
3.36622
3.46844
3.48529
3.50412
3.46044
3.46239
3.3344
3.22514
3.37718
3.14198
3.47842
3.56646
3.40722
3.34169
3.67417
3.22961
3.48687
3.33473
3.2759
3.27905
3.35214
3.23713
3.43759
3.31151
3.55217
3.67176
3.57219
3.7117
3.51364
3.23092
3.63742
3.438
3.16384
3.09714
3.376
3.05714
3.71613
3.25349
3.51209
3.33384
3.34441
3.55774
3.50908
3.23578
3.90983
3.28116
3.25541
3.22862
3.20755
3.78681
3.88284
3.31182
3.36003
3.52738
3.52932
3.49084
3.5318
3.21736
3.41711
3.55076
3.48187
3.44453
3.5804
3.50077
3.184
3.62274
3.36114
3.39462
3.30116
3.49226
3.32941
3.27727
3.33852
3.38278
3.5733
3.83685
3.41054
3.48789
3.25591
3.78359
3.33452
3.46234
3.1937
3.69823
3.53368
3.64844
3.23722
3.67549
3.47842
3.5322
3.53586
3.40881
3.23531
3.52865
3.67977
3.25982
3.06063
3.36191
3.76257
3.41712
3.4763
3.52054
3.39728
3.64254
3.93989
3.10978
3.17345
3.19636
3.51802
3.44759
3.53055
3.11121
3.45605
4.03357
3.3547
3.15184
3.62252
3.3929
3.39265
3.30278
3.52872
3.45522
3.1362
3.06696
3.83298
3.47881
3.67541
3.84913
3.54075
3.45673
3.42938
3.47134
3.38256
3.29448
3.55536
3.50437
3.6072
3.40097
3.28116
3.40498
3.30049
3.04162
3.59045
3.35966
3.33838
3.61908
3.50991
3.20486
3.50819
3.57565
3.41144
3.58676
3.47988
3.29073
3.5616
3.34884
3.38117
3.19601
3.08521
3.41252
3.60683
3.33506
3.67626
3.51055
3.5831
3.41773
3.31349
3.16604
3.29226
3.46883
3.49819
3.42167
3.59138
3.36415
3.27596
3.28601
3.2363
3.26696
3.3506
3.46537
3.67179
3.57749
3.35318
3.50013
3.29594
3.38201
3.584
3.32078
3.361
3.51236
3.70638
3.75323
3.36284
3.50603
3.2661
3.10262
3.60587
3.37023
3.51133
3.7325
3.63024
3.35291
3.47976
3.24379
3.21692
3.39037
3.38477
3.39775
3.42504
3.51123
3.97052
3.25079
3.52137
3.3633
3.57003
3.04714
3.32247
3.51187
3.35636
3.40692
3.35002
3.21506
3.28133
3.14377
3.72184
3.15542
3.52605
3.44897
3.25189
3.92205
3.38759
3.44771
3.3262
3.85176
3.23042
3.71462
3.37767
3.45939
3.29379
3.79414
3.23291
3.68268
3.33286
3.33132
3.7134
3.34515
3.5131
3.32326
3.50069
3.56795
3.3848
3.33344
3.35873
3.19689
3.65152
3.43728
3.61376
3.34611
3.32307
3.50502
3.29873
3.07995
3.52665
3.37415
3.48123
3.27976
3.62368
3.2802
3.49294
3.28598
3.34803
3.36635
3.43399
3.33962
3.59849
3.43016
3.74914
3.29865
3.10917
3.53416
3.50468
3.21489
3.52837
3.565
3.43543
3.17356
3.68524
3.43199
3.28552
3.25564
3.35067
3.34043
3.65495
3.61828
3.36136
3.10862
3.49434
3.50777
3.51871
3.64518
3.63247
3.35073
3.1443
3.40204
3.37995
3.39794
3.35405
3.49017
3.40963
3.32346
3.72871
3.49781
3.54898
3.52211
3.76496
3.35167
3.39561
3.47578
3.27715
3.2829
3.85307
3.34019
3.70675
3.57513
3.5377
3.32225
3.15997
3.26642
3.25381
3.35837
3.51519
3.46637
3.51206
3.11924
3.45248
3.37432
3.09356
3.58915
3.43915
3.5751
3.43696
3.58214
3.15074
3.52514
3.54538
3.255
3.2531
3.46063
3.2592
3.73314
3.32773
3.56156
3.78743
3.42052
3.38158
3.15238
3.43493
3.31236
3.45454
3.27804
3.37972
3.46131
3.6315
3.2328
3.7111
3.5791
3.22652
3.31316
3.12294
3.66306
3.43417
3.06969
3.82015
3.23879
3.46154
3.17178
3.35605
3.3595
3.27871
3.44676
3.79453
3.49376
3.5365
3.74865
3.40736
3.37308
3.36583
3.18096
3.22754
3.76815
3.51443
3.45111
3.66578
3.48489
3.10595
3.07938
3.68309
3.06778
3.38222
3.82599
3.62957
3.1182
3.75268
3.42765
3.48506
3.3759
3.50115
3.13964
3.36205
3.44137
3.53006
3.42328
3.52617
3.26618
3.28778
3.27957
3.242
3.52956
3.40266
3.66494
3.3351
3.29835
3.3609
3.96163
3.45583
3.51285
3.23641
3.31107
3.39212
3.2343
3.32868
3.46921
3.60888
3.25243
3.342
3.85359
3.55246
3.05594
3.48278
3.56061
3.24597
3.40279
3.77391
3.51992
3.79916
3.45806
3.24478
3.45865
3.33387
3.67231
3.5667
3.31746
3.339
3.49423
3.14379
3.37006
3.22648
3.38604
3.43994
3.27341
3.562
3.12146
3.27073
3.31753
3.34518
3.2027
3.47171
3.19601
3.63069
3.99989
3.46783
3.65338
3.66613
3.77557
3.3915
3.75966
3.1608
3.25662
3.29809
3.50003
3.35511
3.94116
3.35949
3.61551
3.50593
3.31968
3.83709
3.33494
3.8946
3.40623
3.01574
3.41142
3.52735
3.24193
3.38151
3.37532
3.55864
3.68326
3.35771
3.49286
3.40934
3.55053
3.9675
3.44966
3.48028
3.48623
3.44397
3.60264
3.15052
3.25881
3.43655
3.3596
3.43832
3.29416
3.44562
3.34327
3.51784
3.44824
3.41603
3.17158
3.34809
3.28339
3.69516
3.33324
3.5126
3.44109
3.43259
3.34835
3.39143
3.57445
3.34867
3.48673
3.75188
3.54063
3.51966
3.13798
3.34419
3.22936
3.21537
3.56347
3.70275
3.68552
3.66029
3.34247
3.35368
3.42495
3.29519
3.38822
3.21697
3.61516
3.58489
3.2564
3.34943
3.40922
3.5364
3.54995
3.36777
3.58995
3.55798
3.44379
3.14321
3.43164
3.74689
3.46078
3.10662
3.56899
3.51838
3.32471
3.35811
3.60917
3.33829
3.77701
3.32766
3.08992
3.25578
3.87614
3.1418
3.16813
3.49005
3.35867
3.80011
3.58427
3.73922
3.50916
3.5692
3.38403
3.42944
3.30825
3.2486
3.28843
3.38007
3.3186
3.37027
3.38993
3.3354
3.68122
3.31939
3.52951
3.16923
3.23572
3.17083
3.35691
3.40341
3.84307
3.96523
3.23192
3.92923
3.39061
3.61995
3.36235
4.14113
3.40029
3.26171
3.5925
3.35421
3.61168
3.50801
3.20316
3.3364
3.43848
3.07683
3.30917
3.19817
3.26531
3.68533
3.58832
3.5529
3.09325
3.65786
3.17282
3.6257
3.69251
3.30981
3.46141
3.42997
3.42243
3.38907
3.36323
3.52732
3.15148
3.45784
3.62831
3.08079
3.45395
3.50087
3.42739
3.28771
4.14074
3.55583
3.80939
3.4349
3.43399
3.59615
3.5388
3.18193
3.41359
3.61289
3.5087
3.34399
3.35046
3.42655
3.82238
3.41137
3.39829
3.40384
3.7636
3.48902
3.47134
3.41237
3.40555
3.50126
3.43283
3.56351
3.41469
3.65817
3.6571
3.26033
3.47447
3.4745
3.27219
3.57191
3.54109
3.49107
3.27339
3.63446
3.77963
3.45716
3.07788
3.69017
3.60865
3.59131
3.87759
3.4283
3.27933
3.17233
3.26352
3.626
3.54027
3.77276
3.93721
3.28655
3.20139
3.48575
3.68769
3.34808
3.4267
3.32559
3.26491
3.3528
3.17938
3.42463
3.45353
3.34764
3.33673
3.40843
3.53422
3.36558
3.29763
3.3497
3.47142
3.33574
3.5702
3.54899
3.6831
3.37032
3.5216
3.42627
3.60892
3.40446
3.35222
3.31863
3.33666
3.46999
3.7262
3.521
3.57316
3.47578
3.5877
3.14658
3.4908
3.32508
3.7362
3.66067
3.36529
3.39583
3.47815
3.19459
3.51805
3.39629
3.41357
3.30115
3.38979
3.25635
3.15085
3.32323
3.34905
3.6246
3.38992
3.35388
3.48949
3.3571
3.55532
3.29541
3.32747
3.25429
3.19187
3.54317
3.65821
3.48596
3.43983
3.37643
3.93706
3.56724
3.4511
3.44894
3.51239
3.3819
3.44112
3.45343
3.38289
3.21303
3.4561
3.35548
3.63398
3.30027
3.19542
3.32001
3.21272
3.48597
3.53193
3.31116
3.61086
3.52678
3.63208
3.39972
3.47971
3.7677
3.19134
3.73034
3.24922
3.43588
3.5381
3.1633
3.24752
3.15056
3.20512
3.37789
3.30949
3.292
3.64452
3.3245
3.54657
3.50458
3.45499
3.4523
3.17462
3.35478
3.37488
3.53624
3.41104
3.89203
3.35063
3.64312
3.67453
3.40491
3.16966
3.62974
3.28921
3.44435
3.48981
3.39907
3.4486
3.96157
3.37438
3.42407
3.41209
3.29032
4.19076
3.38904
3.27763
3.52414
3.29587
3.49777
3.16124
3.51182
3.66967
3.58217
3.57836
3.45118
3.15618
3.51694
3.6105
3.55428
3.28185
3.52068
3.53122
3.27178
3.22683
3.59585
3.40589
3.44534
3.43571
3.10971
3.6323
3.63066
3.25975
3.35965
3.49856
3.37146
3.75365
3.32433
3.80459
3.66904
3.6352
3.16371
3.32824
3.70066
3.70032
3.55157
3.84051
3.27308
3.57132
3.38621
3.50837
3.48146
3.35641
3.3753
3.37507
3.325
3.51447
3.57985
3.2586
3.53509
3.45353
3.71393
3.74011
3.35631
3.34679
3.53454
3.45405
3.53568
3.34519
3.57459
3.57753
3.34202
3.3809
3.4803
3.65802
3.47944
3.20344
3.12267
3.5372
3.39275
3.27265
3.70191
3.27644
3.55669
3.40935
3.36325
3.36368
3.29943
3.41064
3.32927
3.41881
3.37611
3.39451
3.35306
3.66718
3.38837
3.72951
3.35407
3.55581
3.30368
3.28452
3.28335
3.55247
3.71604
3.64776
3.46972
3.42517
3.37851
3.4924
4.1588
3.41148
3.41654
3.41989
3.84231
3.54017
3.33323
3.35389
3.62256
3.2453
3.36105
3.43809
3.18453
3.43851
3.35031
3.50893
3.56651
3.62687
3.40652
3.11115
3.409
3.31503
3.15316
3.53167
3.12483
3.56317
3.24201
3.51165
3.62495
3.31123
3.34623
3.63974
3.34021
3.38129
3.64765
3.45062
3.36098
3.34335
3.21257
3.26119
3.31428
3.3869
3.28333
3.27521
3.53024
3.11837
3.01411
3.1545
3.48056
3.42144
3.34298
3.82277
3.99
3.22909
3.39146
3.27631
3.24902
3.66548
3.63002
3.47368
3.16492
3.60379
3.32133
3.67721
3.14516
3.39978
3.83804
3.42753
3.56739
3.50446
3.76239
3.15481
3.52199
3.00931
3.63197
3.55313
3.75108
3.4091
3.33703
3.29419
3.39764
3.07471
3.29356
3.75771
3.38619
3.77634
3.70507
3.50831
3.41512
3.25229
3.18011
3.17408
3.63075
3.36633
3.89796
3.58126
3.30478
3.1511
3.43342
3.20866
3.35811
3.32389
3.60785
3.4949
3.40381
3.44789
3.53873
3.15176
3.69248
3.2577
3.89243
3.59174
3.45356
3.72753
3.43404
3.1114
3.40673
3.32208
3.28942
3.17915
3.82963
3.49266
3.43735
3.53868
3.22971
3.17818
3.38757
3.33137
3.43121
3.13884
3.434
3.43518
3.56032
3.8348
3.3327
3.34346
3.64207
3.53662
3.34279
3.54802
3.36924
3.77889
3.50518
3.45304
3.70835
3.39778
3.58864
3.40651
3.38416
3.37923
3.56757
3.40881
3.38289
3.72222
3.48235
3.36052
3.57136
3.49998
3.20988
3.4922
3.2339
3.43313
3.30321
3.40041
3.47068
4.42304
3.24841
3.47556
3.43326
4.00535
3.15659
3.37494
3.26895
3.41593
3.64465
3.61908
3.51528
3.29022
3.51783
3.42221
3.3724
3.09796
3.35578
3.56787
3.33272
3.48514
3.2183
3.16425
3.31986
